expe,clients,clients_size,clients_subset,agg_size,method,days,days_size,days_total,time,valid,valid_sum,success,nsols,wall_hit,wall_time,pooled,valid_sums
./expes/v2_2020-11-23_di_200-prng-1,daily_issda_250,250,rng-250,121,rng,num-start-61,61,536,1000.8713531494141,False,,False,0,True,1000,True,0.0
./expes/v2_2020-11-23_di_200-prng-1,daily_issda_250,250,rng-250,201,rng,num-start-261,261,536,4.005028963088989,True,,True,1,False,1000,True,1.0
./expes/v2_2020-11-23_di_200-prng-1,daily_issda_250,250,rng-250,171,rng,num-start-201,201,536,4.23805832862854,True,,True,1,False,1000,True,1.0
./expes/v2_2020-11-23_di_200-prng-1,daily_issda_250,250,rng-250,31,rng,num-start-61,61,536,2.1924033164978027,True,,True,1,False,1000,True,1.0
./expes/v2_2020-11-23_di_200-prng-1,daily_issda_250,250,rng-250,121,rng,num-start-31,31,536,1000.4526038169861,False,,False,0,True,1000,True,0.0
./expes/v2_2020-11-23_di_200-prng-1,daily_issda_250,250,rng-250,141,rng,num-start-231,231,536,4.1202027797698975,True,,True,1,False,1000,True,1.0
./expes/v2_2020-11-23_di_200-prng-1,daily_issda_250,250,rng-250,191,rng,num-start-241,241,536,5.200718641281128,True,,True,1,False,1000,True,1.0
./expes/v2_2020-11-23_di_200-prng-1,daily_issda_250,250,rng-250,31,rng,num-start-71,71,536,1.2632651329040527,True,,True,1,False,1000,True,1.0
./expes/v2_2020-11-23_di_200-prng-1,daily_issda_250,250,rng-250,221,rng,num-start-101,101,536,1.8313956260681152,True,,True,1,False,1000,True,1.0
./expes/v2_2020-11-23_di_200-prng-1,daily_issda_250,250,rng-250,181,rng,num-start-231,231,536,4.038633108139038,True,,True,1,False,1000,True,1.0
./expes/v2_2020-11-23_di_200-prng-1,daily_issda_250,250,rng-250,131,rng,num-start-171,171,536,3.303215980529785,True,,True,1,False,1000,True,1.0
./expes/v2_2020-11-23_di_200-prng-1,daily_issda_250,250,rng-250,141,rng,num-start-91,91,536,15.4356849193573,True,,True,1,False,1000,True,1.0
./expes/v2_2020-11-23_di_200-prng-1,daily_issda_250,250,rng-250,241,rng,num-start-51,51,536,0.8906979560852051,True,,True,1,False,1000,True,1.0
./expes/v2_2020-11-23_di_200-prng-1,daily_issda_250,250,rng-250,121,rng,num-start-21,21,536,1000.3657183647156,False,,False,0,True,1000,True,0.0
./expes/v2_2020-11-23_di_200-prng-1,daily_issda_250,250,rng-250,211,rng,num-start-81,81,536,1.4204559326171875,True,,True,1,False,1000,True,1.0
./expes/v2_2020-11-23_di_200-prng-1,daily_issda_250,250,rng-250,61,rng,num-start-91,91,536,2.598673105239868,True,,True,1,False,1000,True,1.0
./expes/v2_2020-11-23_di_200-prng-1,daily_issda_250,250,rng-250,101,rng,num-start-41,41,536,1000.8519058227539,False,,False,0,True,1000,True,0.0
./expes/v2_2020-11-23_di_200-prng-1,daily_issda_250,250,rng-250,71,rng,num-start-1,1,536,1.1422576904296875,False,,False,2,False,1000,True,1.0
./expes/v2_2020-11-23_di_200-prng-1,daily_issda_250,250,rng-250,1,rng,num-start-191,191,536,2.2816874980926514,True,,True,1,False,1000,True,1.0
./expes/v2_2020-11-23_di_200-prng-1,daily_issda_250,250,rng-250,211,rng,num-start-181,181,536,3.2468008995056152,True,,True,1,False,1000,True,1.0
./expes/v2_2020-11-23_di_200-prng-1,daily_issda_250,250,rng-250,191,rng,num-start-1,1,536,0.16339802742004395,False,,False,2,False,1000,True,1.0
./expes/v2_2020-11-23_di_200-prng-1,daily_issda_250,250,rng-250,211,rng,num-start-281,281,536,5.0279929637908936,True,,True,1,False,1000,True,1.0
./expes/v2_2020-11-23_di_200-prng-1,daily_issda_250,250,rng-250,101,rng,num-start-181,181,536,4.113988637924194,True,,True,1,False,1000,True,1.0
./expes/v2_2020-11-23_di_200-prng-1,daily_issda_250,250,rng-250,161,rng,num-start-51,51,536,1000.6492364406586,False,,False,0,True,1000,True,0.0
./expes/v2_2020-11-23_di_200-prng-1,daily_issda_250,250,rng-250,11,rng,num-start-71,71,536,1.403656244277954,True,,True,1,False,1000,True,1.0
./expes/v2_2020-11-23_di_200-prng-1,daily_issda_250,250,rng-250,231,rng,num-start-151,151,536,2.490729331970215,True,,True,1,False,1000,True,1.0
./expes/v2_2020-11-23_di_200-prng-1,daily_issda_250,250,rng-250,221,rng,num-start-11,11,536,1000.4522657394409,False,,False,0,True,1000,True,0.0
./expes/v2_2020-11-23_di_200-prng-1,daily_issda_250,250,rng-250,81,rng,num-start-161,161,536,3.057246685028076,True,,True,1,False,1000,True,1.0
./expes/v2_2020-11-23_di_200-prng-1,daily_issda_250,250,rng-250,11,rng,num-start-161,161,536,2.728076696395874,True,,True,1,False,1000,True,1.0
./expes/v2_2020-11-23_di_200-prng-1,daily_issda_250,250,rng-250,201,rng,num-start-101,101,536,1.7775356769561768,True,,True,1,False,1000,True,1.0
./expes/v2_2020-11-23_di_200-prng-1,daily_issda_250,250,rng-250,191,rng,num-start-121,121,536,2.0113368034362793,True,,True,1,False,1000,True,1.0
./expes/v2_2020-11-23_di_200-prng-1,daily_issda_250,250,rng-250,191,rng,num-start-11,11,536,1000.1753144264221,False,,False,0,True,1000,True,0.0
./expes/v2_2020-11-23_di_200-prng-1,daily_issda_250,250,rng-250,41,rng,num-start-251,251,536,4.25201416015625,True,,True,1,False,1000,True,1.0
./expes/v2_2020-11-23_di_200-prng-1,daily_issda_250,250,rng-250,241,rng,num-start-231,231,536,4.026822805404663,True,,True,1,False,1000,True,1.0
./expes/v2_2020-11-23_di_200-prng-1,daily_issda_250,250,rng-250,31,rng,num-start-221,221,536,3.808166980743408,True,,True,1,False,1000,True,1.0
./expes/v2_2020-11-23_di_200-prng-1,daily_issda_250,250,rng-250,81,rng,num-start-151,151,536,2.843068838119507,True,,True,1,False,1000,True,1.0
./expes/v2_2020-11-23_di_200-prng-1,daily_issda_250,250,rng-250,71,rng,num-start-81,81,536,1001.2501201629639,False,,False,0,True,1000,True,0.0
./expes/v2_2020-11-23_di_200-prng-1,daily_issda_250,250,rng-250,71,rng,num-start-91,91,536,3.145799160003662,True,,True,1,False,1000,True,1.0
./expes/v2_2020-11-23_di_200-prng-1,daily_issda_250,250,rng-250,51,rng,num-start-161,161,536,2.993894338607788,True,,True,1,False,1000,True,1.0
./expes/v2_2020-11-23_di_200-prng-1,daily_issda_250,250,rng-250,241,rng,num-start-111,111,536,1.632991075515747,True,,True,1,False,1000,True,1.0
./expes/v2_2020-11-23_di_200-prng-1,daily_issda_250,250,rng-250,231,rng,num-start-141,141,536,2.299072265625,True,,True,1,False,1000,True,1.0
./expes/v2_2020-11-23_di_200-prng-1,daily_issda_250,250,rng-250,241,rng,num-start-211,211,536,3.8959038257598877,True,,True,1,False,1000,True,1.0
./expes/v2_2020-11-23_di_200-prng-1,daily_issda_250,250,rng-250,101,rng,num-start-41,41,536,1000.9354772567749,False,,False,0,True,1000,True,0.0
./expes/v2_2020-11-23_di_200-prng-1,daily_issda_250,250,rng-250,1,rng,num-start-251,251,536,3.312368154525757,True,,True,1,False,1000,True,1.0
./expes/v2_2020-11-23_di_200-prng-1,daily_issda_250,250,rng-250,61,rng,num-start-1,1,536,1.2822270393371582,False,,False,2,False,1000,True,1.0
./expes/v2_2020-11-23_di_200-prng-1,daily_issda_250,250,rng-250,221,rng,num-start-91,91,536,1.6090168952941895,True,,True,1,False,1000,True,1.0
./expes/v2_2020-11-23_di_200-prng-1,daily_issda_250,250,rng-250,221,rng,num-start-61,61,536,1.540104627609253,True,,True,1,False,1000,True,1.0
./expes/v2_2020-11-23_di_200-prng-1,daily_issda_250,250,rng-250,71,rng,num-start-271,271,536,4.433276891708374,True,,True,1,False,1000,True,1.0
./expes/v2_2020-11-23_di_200-prng-1,daily_issda_250,250,rng-250,221,rng,num-start-81,81,536,1.361323356628418,True,,True,1,False,1000,True,1.0
./expes/v2_2020-11-23_di_200-prng-1,daily_issda_250,250,rng-250,91,rng,num-start-191,191,536,3.5252158641815186,True,,True,1,False,1000,True,1.0
./expes/v2_2020-11-23_di_200-prng-1,daily_issda_250,250,rng-250,241,rng,num-start-11,11,536,636.9886918067932,True,,True,1,False,1000,True,1.0
./expes/v2_2020-11-23_di_200-prng-1,daily_issda_250,250,rng-250,211,rng,num-start-181,181,536,3.258544683456421,True,,True,1,False,1000,True,1.0
./expes/v2_2020-11-23_di_200-prng-1,daily_issda_250,250,rng-250,181,rng,num-start-281,281,536,5.134626150131226,True,,True,1,False,1000,True,1.0
./expes/v2_2020-11-23_di_200-prng-1,daily_issda_250,250,rng-250,121,rng,num-start-131,131,536,2.6976511478424072,True,,True,1,False,1000,True,1.0
./expes/v2_2020-11-23_di_200-prng-1,daily_issda_250,250,rng-250,71,rng,num-start-171,171,536,3.271177053451538,True,,True,1,False,1000,True,1.0
./expes/v2_2020-11-23_di_200-prng-1,daily_issda_250,250,rng-250,41,rng,num-start-141,141,536,2.5032992362976074,True,,True,1,False,1000,True,1.0
./expes/v2_2020-11-23_di_200-prng-1,daily_issda_250,250,rng-250,121,rng,num-start-231,231,536,4.147146224975586,True,,True,1,False,1000,True,1.0
./expes/v2_2020-11-23_di_200-prng-1,daily_issda_250,250,rng-250,231,rng,num-start-131,131,536,2.0466740131378174,True,,True,1,False,1000,True,1.0
./expes/v2_2020-11-23_di_200-prng-1,daily_issda_250,250,rng-250,51,rng,num-start-251,251,536,3.465989828109741,True,,True,1,False,1000,True,1.0
./expes/v2_2020-11-23_di_200-prng-1,daily_issda_250,250,rng-250,71,rng,num-start-111,111,536,2.1618566513061523,True,,True,1,False,1000,True,1.0
./expes/v2_2020-11-23_di_200-prng-1,daily_issda_250,250,rng-250,21,rng,num-start-91,91,536,1.6289238929748535,True,,True,1,False,1000,True,1.0
./expes/v2_2020-11-23_di_200-prng-1,daily_issda_250,250,rng-250,141,rng,num-start-81,81,536,1001.0720052719116,False,,False,0,True,1000,True,0.0
./expes/v2_2020-11-23_di_200-prng-1,daily_issda_250,250,rng-250,91,rng,num-start-81,81,536,66.66526746749878,True,,True,1,False,1000,True,1.0
./expes/v2_2020-11-23_di_200-prng-1,daily_issda_250,250,rng-250,171,rng,num-start-241,241,536,4.817986249923706,True,,True,1,False,1000,True,1.0
./expes/v2_2020-11-23_di_200-prng-1,daily_issda_250,250,rng-250,191,rng,num-start-81,81,536,3.802551031112671,True,,True,1,False,1000,True,1.0
./expes/v2_2020-11-23_di_200-prng-1,daily_issda_250,250,rng-250,41,rng,num-start-221,221,536,4.5616700649261475,True,,True,1,False,1000,True,1.0
./expes/v2_2020-11-23_di_200-prng-1,daily_issda_250,250,rng-250,91,rng,num-start-231,231,536,4.62873911857605,True,,True,1,False,1000,True,1.0
./expes/v2_2020-11-23_di_200-prng-1,daily_issda_250,250,rng-250,131,rng,num-start-51,51,536,1000.6895515918732,False,,False,0,True,1000,True,0.0
./expes/v2_2020-11-23_di_200-prng-1,daily_issda_250,250,rng-250,181,rng,num-start-61,61,536,1000.8144419193268,False,,False,0,True,1000,True,0.0
./expes/v2_2020-11-23_di_200-prng-1,daily_issda_250,250,rng-250,51,rng,num-start-11,11,536,1000.1871485710144,False,,False,0,True,1000,True,0.0
./expes/v2_2020-11-23_di_200-prng-1,daily_issda_250,250,rng-250,161,rng,num-start-221,221,536,4.9961841106414795,True,,True,1,False,1000,True,1.0
./expes/v2_2020-11-23_di_200-prng-1,daily_issda_250,250,rng-250,151,rng,num-start-11,11,536,1000.1951966285706,False,,False,0,True,1000,True,0.0
./expes/v2_2020-11-23_di_200-prng-1,daily_issda_250,250,rng-250,21,rng,num-start-41,41,536,1.1881303787231445,True,,True,1,False,1000,True,1.0
./expes/v2_2020-11-23_di_200-prng-1,daily_issda_250,250,rng-250,191,rng,num-start-191,191,536,3.159189224243164,True,,True,1,False,1000,True,1.0
./expes/v2_2020-11-23_di_200-prng-1,daily_issda_250,250,rng-250,21,rng,num-start-51,51,536,1.623201847076416,True,,True,1,False,1000,True,1.0
./expes/v2_2020-11-23_di_200-prng-1,daily_issda_250,250,rng-250,151,rng,num-start-51,51,536,1000.7357788085938,False,,False,0,True,1000,True,0.0
./expes/v2_2020-11-23_di_200-prng-1,daily_issda_250,250,rng-250,121,rng,num-start-221,221,536,3.9478588104248047,True,,True,1,False,1000,True,1.0
./expes/v2_2020-11-23_di_200-prng-1,daily_issda_250,250,rng-250,231,rng,num-start-211,211,536,3.2935755252838135,True,,True,1,False,1000,True,1.0
./expes/v2_2020-11-23_di_200-prng-1,daily_issda_250,250,rng-250,141,rng,num-start-41,41,536,1000.663950920105,False,,False,0,True,1000,True,0.0
./expes/v2_2020-11-23_di_200-prng-1,daily_issda_250,250,rng-250,31,rng,num-start-11,11,536,1000.3331787586212,False,,False,0,True,1000,True,0.0
./expes/v2_2020-11-23_di_200-prng-1,daily_issda_250,250,rng-250,151,rng,num-start-101,101,536,5.057316303253174,True,,True,1,False,1000,True,1.0
./expes/v2_2020-11-23_di_200-prng-1,daily_issda_250,250,rng-250,121,rng,num-start-11,11,536,1000.1793193817139,False,,False,0,True,1000,True,0.0
./expes/v2_2020-11-23_di_200-prng-1,daily_issda_250,250,rng-250,191,rng,num-start-1,1,536,2.604465961456299,False,,False,2,False,1000,True,1.0
./expes/v2_2020-11-23_di_200-prng-1,daily_issda_250,250,rng-250,141,rng,num-start-41,41,536,1000.6152544021606,False,,False,0,True,1000,True,0.0
./expes/v2_2020-11-23_di_200-prng-1,daily_issda_250,250,rng-250,91,rng,num-start-211,211,536,4.0041184425354,True,,True,1,False,1000,True,1.0
./expes/v2_2020-11-23_di_200-prng-1,daily_issda_250,250,rng-250,131,rng,num-start-61,61,536,1000.7806656360626,False,,False,0,True,1000,True,0.0
./expes/v2_2020-11-23_di_200-prng-1,daily_issda_250,250,rng-250,161,rng,num-start-211,211,536,3.9801061153411865,True,,True,1,False,1000,True,1.0
./expes/v2_2020-11-23_di_200-prng-1,daily_issda_250,250,rng-250,141,rng,num-start-141,141,536,3.2353856563568115,True,,True,1,False,1000,True,1.0
./expes/v2_2020-11-23_di_200-prng-1,daily_issda_250,250,rng-250,1,rng,num-start-201,201,536,2.326411008834839,True,,True,1,False,1000,True,1.0
./expes/v2_2020-11-23_di_200-prng-1,daily_issda_250,250,rng-250,221,rng,num-start-171,171,536,2.6121702194213867,True,,True,1,False,1000,True,1.0
./expes/v2_2020-11-23_di_200-prng-1,daily_issda_250,250,rng-250,81,rng,num-start-261,261,536,4.725503444671631,True,,True,1,False,1000,True,1.0
./expes/v2_2020-11-23_di_200-prng-1,daily_issda_250,250,rng-250,1,rng,num-start-31,31,536,0.33922696113586426,True,,True,1,False,1000,True,1.0
./expes/v2_2020-11-23_di_200-prng-1,daily_issda_250,250,rng-250,131,rng,num-start-291,291,536,6.154676675796509,True,,True,1,False,1000,True,1.0
./expes/v2_2020-11-23_di_200-prng-1,daily_issda_250,250,rng-250,31,rng,num-start-41,41,536,1000.6372065544128,False,,False,1,True,1000,True,0.0
./expes/v2_2020-11-23_di_200-prng-1,daily_issda_250,250,rng-250,121,rng,num-start-21,21,536,1000.353687286377,False,,False,0,True,1000,True,0.0
./expes/v2_2020-11-23_di_200-prng-1,daily_issda_250,250,rng-250,151,rng,num-start-91,91,536,7.9276227951049805,True,,True,1,False,1000,True,1.0
./expes/v2_2020-11-23_di_200-prng-1,daily_issda_250,250,rng-250,141,rng,num-start-181,181,536,3.524439573287964,True,,True,1,False,1000,True,1.0
./expes/v2_2020-11-23_di_200-prng-1,daily_issda_250,250,rng-250,51,rng,num-start-221,221,536,3.6744871139526367,True,,True,1,False,1000,True,1.0
./expes/v2_2020-11-23_di_200-prng-1,daily_issda_250,250,rng-250,11,rng,num-start-81,81,536,1.317594289779663,True,,True,1,False,1000,True,1.0
./expes/v2_2020-11-23_di_200-prng-1,daily_issda_250,250,rng-250,81,rng,num-start-101,101,536,4.7394959926605225,True,,True,1,False,1000,True,1.0
./expes/v2_2020-11-23_di_200-prng-1,daily_issda_250,250,rng-250,201,rng,num-start-21,21,536,1000.4651455879211,False,,False,0,True,1000,True,0.0
./expes/v2_2020-11-23_di_200-prng-1,daily_issda_250,250,rng-250,191,rng,num-start-71,71,536,2.3105266094207764,True,,True,1,False,1000,True,1.0
./expes/v2_2020-11-23_di_200-prng-1,daily_issda_250,250,rng-250,11,rng,num-start-21,21,536,2.569943428039551,True,,True,1,False,1000,True,1.0
./expes/v2_2020-11-23_di_200-prng-1,daily_issda_250,250,rng-250,121,rng,num-start-151,151,536,2.8379268646240234,True,,True,1,False,1000,True,1.0
./expes/v2_2020-11-23_di_200-prng-1,daily_issda_250,250,rng-250,181,rng,num-start-261,261,536,4.093638181686401,True,,True,1,False,1000,True,1.0
./expes/v2_2020-11-23_di_200-prng-1,daily_issda_250,250,rng-250,111,rng,num-start-91,91,536,32.12346696853638,True,,True,1,False,1000,True,1.0
./expes/v2_2020-11-23_di_200-prng-1,daily_issda_250,250,rng-250,61,rng,num-start-281,281,536,4.665139198303223,True,,True,1,False,1000,True,1.0
./expes/v2_2020-11-23_di_200-prng-1,daily_issda_250,250,rng-250,121,rng,num-start-171,171,536,3.8282177448272705,True,,True,1,False,1000,True,1.0
./expes/v2_2020-11-23_di_200-prng-1,daily_issda_250,250,rng-250,231,rng,num-start-171,171,536,2.6972923278808594,True,,True,1,False,1000,True,1.0
./expes/v2_2020-11-23_di_200-prng-1,daily_issda_250,250,rng-250,81,rng,num-start-51,51,536,1000.7389671802521,False,,False,0,True,1000,True,0.0
./expes/v2_2020-11-23_di_200-prng-1,daily_issda_250,250,rng-250,131,rng,num-start-271,271,536,4.21432089805603,True,,True,1,False,1000,True,1.0
./expes/v2_2020-11-23_di_200-prng-1,daily_issda_250,250,rng-250,11,rng,num-start-141,141,536,2.8312597274780273,True,,True,1,False,1000,True,1.0
./expes/v2_2020-11-23_di_200-prng-1,daily_issda_250,250,rng-250,51,rng,num-start-111,111,536,2.1689486503601074,True,,True,1,False,1000,True,1.0
./expes/v2_2020-11-23_di_200-prng-1,daily_issda_250,250,rng-250,41,rng,num-start-111,111,536,1.825821876525879,True,,True,1,False,1000,True,1.0
./expes/v2_2020-11-23_di_200-prng-1,daily_issda_250,250,rng-250,121,rng,num-start-81,81,536,1001.0517365932465,False,,False,0,True,1000,True,0.0
./expes/v2_2020-11-23_di_200-prng-1,daily_issda_250,250,rng-250,211,rng,num-start-221,221,536,3.4498870372772217,True,,True,1,False,1000,True,1.0
./expes/v2_2020-11-23_di_200-prng-1,daily_issda_250,250,rng-250,41,rng,num-start-171,171,536,3.235853433609009,True,,True,1,False,1000,True,1.0
./expes/v2_2020-11-23_di_200-prng-1,daily_issda_250,250,rng-250,181,rng,num-start-81,81,536,3.317321300506592,True,,True,1,False,1000,True,1.0
./expes/v2_2020-11-23_di_200-prng-1,daily_issda_250,250,rng-250,11,rng,num-start-41,41,536,0.9687404632568359,True,,True,1,False,1000,True,1.0
./expes/v2_2020-11-23_di_200-prng-1,daily_issda_250,250,rng-250,51,rng,num-start-41,41,536,1000.5939736366272,False,,False,0,True,1000,True,0.0
./expes/v2_2020-11-23_di_200-prng-1,daily_issda_250,250,rng-250,131,rng,num-start-171,171,536,3.1631534099578857,True,,True,1,False,1000,True,1.0
./expes/v2_2020-11-23_di_200-prng-1,daily_issda_250,250,rng-250,81,rng,num-start-131,131,536,2.6177921295166016,True,,True,1,False,1000,True,1.0
./expes/v2_2020-11-23_di_200-prng-1,daily_issda_250,250,rng-250,21,rng,num-start-241,241,536,3.408236026763916,True,,True,1,False,1000,True,1.0
./expes/v2_2020-11-23_di_200-prng-1,daily_issda_250,250,rng-250,81,rng,num-start-181,181,536,3.643887758255005,True,,True,1,False,1000,True,1.0
./expes/v2_2020-11-23_di_200-prng-1,daily_issda_250,250,rng-250,131,rng,num-start-101,101,536,3.9255788326263428,True,,True,1,False,1000,True,1.0
./expes/v2_2020-11-23_di_200-prng-1,daily_issda_250,250,rng-250,171,rng,num-start-241,241,536,4.744678497314453,True,,True,1,False,1000,True,1.0
./expes/v2_2020-11-23_di_200-prng-1,daily_issda_250,250,rng-250,101,rng,num-start-101,101,536,9.837676763534546,True,,True,1,False,1000,True,1.0
./expes/v2_2020-11-23_di_200-prng-1,daily_issda_250,250,rng-250,81,rng,num-start-41,41,536,1000.7134912014008,False,,False,0,True,1000,True,0.0
./expes/v2_2020-11-23_di_200-prng-1,daily_issda_250,250,rng-250,71,rng,num-start-21,21,536,1000.3049619197845,False,,False,0,True,1000,True,0.0
./expes/v2_2020-11-23_di_200-prng-1,daily_issda_250,250,rng-250,91,rng,num-start-191,191,536,4.3060462474823,True,,True,1,False,1000,True,1.0
./expes/v2_2020-11-23_di_200-prng-1,daily_issda_250,250,rng-250,221,rng,num-start-251,251,536,4.044355154037476,True,,True,1,False,1000,True,1.0
./expes/v2_2020-11-23_di_200-prng-1,daily_issda_250,250,rng-250,11,rng,num-start-161,161,536,2.7917749881744385,True,,True,1,False,1000,True,1.0
./expes/v2_2020-11-23_di_200-prng-1,daily_issda_250,250,rng-250,101,rng,num-start-71,71,536,1000.918842792511,False,,False,0,True,1000,True,0.0
./expes/v2_2020-11-23_di_200-prng-1,daily_issda_250,250,rng-250,181,rng,num-start-31,31,536,1000.4683933258057,False,,False,0,True,1000,True,0.0
./expes/v2_2020-11-23_di_200-prng-1,daily_issda_250,250,rng-250,151,rng,num-start-161,161,536,2.7051994800567627,True,,True,1,False,1000,True,1.0
./expes/v2_2020-11-23_di_200-prng-1,daily_issda_250,250,rng-250,181,rng,num-start-251,251,536,4.311042070388794,True,,True,1,False,1000,True,1.0
./expes/v2_2020-11-23_di_200-prng-1,daily_issda_250,250,rng-250,11,rng,num-start-121,121,536,1.8719673156738281,True,,True,1,False,1000,True,1.0
./expes/v2_2020-11-23_di_200-prng-1,daily_issda_250,250,rng-250,221,rng,num-start-181,181,536,3.1446328163146973,True,,True,1,False,1000,True,1.0
./expes/v2_2020-11-23_di_200-prng-1,daily_issda_250,250,rng-250,71,rng,num-start-241,241,536,4.857680797576904,True,,True,1,False,1000,True,1.0
./expes/v2_2020-11-23_di_200-prng-1,daily_issda_250,250,rng-250,21,rng,num-start-21,21,536,1000.3813805580139,False,,False,0,True,1000,True,0.0
./expes/v2_2020-11-23_di_200-prng-1,daily_issda_250,250,rng-250,201,rng,num-start-261,261,536,4.670773506164551,True,,True,1,False,1000,True,1.0
./expes/v2_2020-11-23_di_200-prng-1,daily_issda_250,250,rng-250,11,rng,num-start-191,191,536,3.3095219135284424,True,,True,1,False,1000,True,1.0
./expes/v2_2020-11-23_di_200-prng-1,daily_issda_250,250,rng-250,161,rng,num-start-171,171,536,3.117769956588745,True,,True,1,False,1000,True,1.0
./expes/v2_2020-11-23_di_200-prng-1,daily_issda_250,250,rng-250,91,rng,num-start-241,241,536,4.494346857070923,True,,True,1,False,1000,True,1.0
./expes/v2_2020-11-23_di_200-prng-1,daily_issda_250,250,rng-250,191,rng,num-start-251,251,536,4.704103946685791,True,,True,1,False,1000,True,1.0
./expes/v2_2020-11-23_di_200-prng-1,daily_issda_250,250,rng-250,31,rng,num-start-1,1,536,0.7029983997344971,False,,False,2,False,1000,True,1.0
./expes/v2_2020-11-23_di_200-prng-1,daily_issda_250,250,rng-250,71,rng,num-start-111,111,536,2.1140427589416504,True,,True,1,False,1000,True,1.0
./expes/v2_2020-11-23_di_200-prng-1,daily_issda_250,250,rng-250,81,rng,num-start-191,191,536,3.868382215499878,True,,True,1,False,1000,True,1.0
./expes/v2_2020-11-23_di_200-prng-1,daily_issda_250,250,rng-250,81,rng,num-start-271,271,536,4.785160064697266,True,,True,1,False,1000,True,1.0
./expes/v2_2020-11-23_di_200-prng-1,daily_issda_250,250,rng-250,71,rng,num-start-251,251,536,4.4632568359375,True,,True,1,False,1000,True,1.0
./expes/v2_2020-11-23_di_200-prng-1,daily_issda_250,250,rng-250,201,rng,num-start-1,1,536,2.158914089202881,False,,False,2,False,1000,True,0.0
./expes/v2_2020-11-23_di_200-prng-1,daily_issda_250,250,rng-250,191,rng,num-start-231,231,536,4.366626977920532,True,,True,1,False,1000,True,1.0
./expes/v2_2020-11-23_di_200-prng-1,daily_issda_250,250,rng-250,11,rng,num-start-221,221,536,3.733555793762207,True,,True,1,False,1000,True,1.0
./expes/v2_2020-11-23_di_200-prng-1,daily_issda_250,250,rng-250,1,rng,num-start-21,21,536,0.28824782371520996,True,,True,1,False,1000,True,1.0
./expes/v2_2020-11-23_di_200-prng-1,daily_issda_250,250,rng-250,11,rng,num-start-181,181,536,2.886551856994629,True,,True,1,False,1000,True,1.0
./expes/v2_2020-11-23_di_200-prng-1,daily_issda_250,250,rng-250,151,rng,num-start-211,211,536,4.360022306442261,True,,True,1,False,1000,True,1.0
./expes/v2_2020-11-23_di_200-prng-1,daily_issda_250,250,rng-250,71,rng,num-start-231,231,536,4.3413777351379395,True,,True,1,False,1000,True,1.0
./expes/v2_2020-11-23_di_200-prng-1,daily_issda_250,250,rng-250,101,rng,num-start-101,101,536,5.322117567062378,True,,True,1,False,1000,True,1.0
./expes/v2_2020-11-23_di_200-prng-1,daily_issda_250,250,rng-250,31,rng,num-start-181,181,536,2.9524354934692383,True,,True,1,False,1000,True,1.0
./expes/v2_2020-11-23_di_200-prng-1,daily_issda_250,250,rng-250,241,rng,num-start-231,231,536,3.5341198444366455,True,,True,1,False,1000,True,1.0
./expes/v2_2020-11-23_di_200-prng-1,daily_issda_250,250,rng-250,151,rng,num-start-221,221,536,4.31924295425415,True,,True,1,False,1000,True,1.0
./expes/v2_2020-11-23_di_200-prng-1,daily_issda_250,250,rng-250,21,rng,num-start-11,11,536,1000.4452538490295,False,,False,0,True,1000,True,0.0
./expes/v2_2020-11-23_di_200-prng-1,daily_issda_250,250,rng-250,131,rng,num-start-161,161,536,3.2552177906036377,True,,True,1,False,1000,True,1.0
./expes/v2_2020-11-23_di_200-prng-1,daily_issda_250,250,rng-250,221,rng,num-start-281,281,536,4.776453256607056,True,,True,1,False,1000,True,1.0
./expes/v2_2020-11-23_di_200-prng-1,daily_issda_250,250,rng-250,21,rng,num-start-221,221,536,4.110833644866943,True,,True,1,False,1000,True,1.0
./expes/v2_2020-11-23_di_200-prng-1,daily_issda_250,250,rng-250,221,rng,num-start-81,81,536,1.3115506172180176,True,,True,1,False,1000,True,1.0
./expes/v2_2020-11-23_di_200-prng-1,daily_issda_250,250,rng-250,81,rng,num-start-31,31,536,1000.4282224178314,False,,False,0,True,1000,True,0.0
./expes/v2_2020-11-23_di_200-prng-1,daily_issda_250,250,rng-250,101,rng,num-start-151,151,536,2.9640164375305176,True,,True,1,False,1000,True,1.0
./expes/v2_2020-11-23_di_200-prng-1,daily_issda_250,250,rng-250,51,rng,num-start-191,191,536,3.1548819541931152,True,,True,1,False,1000,True,1.0
./expes/v2_2020-11-23_di_200-prng-1,daily_issda_250,250,rng-250,241,rng,num-start-181,181,536,2.7540676593780518,True,,True,1,False,1000,True,1.0
./expes/v2_2020-11-23_di_200-prng-1,daily_issda_250,250,rng-250,61,rng,num-start-231,231,536,4.233901023864746,True,,True,1,False,1000,True,1.0
./expes/v2_2020-11-23_di_200-prng-1,daily_issda_250,250,rng-250,21,rng,num-start-151,151,536,2.3739192485809326,True,,True,1,False,1000,True,1.0
./expes/v2_2020-11-23_di_200-prng-1,daily_issda_250,250,rng-250,1,rng,num-start-161,161,536,1.9472815990447998,True,,True,1,False,1000,True,1.0
./expes/v2_2020-11-23_di_200-prng-1,daily_issda_250,250,rng-250,11,rng,num-start-171,171,536,2.7813596725463867,True,,True,1,False,1000,True,1.0
./expes/v2_2020-11-23_di_200-prng-1,daily_issda_250,250,rng-250,221,rng,num-start-241,241,536,4.109975814819336,True,,True,1,False,1000,True,1.0
./expes/v2_2020-11-23_di_200-prng-1,daily_issda_250,250,rng-250,91,rng,num-start-181,181,536,3.3194055557250977,True,,True,1,False,1000,True,1.0
./expes/v2_2020-11-23_di_200-prng-1,daily_issda_250,250,rng-250,31,rng,num-start-251,251,536,4.399079084396362,True,,True,1,False,1000,True,1.0
./expes/v2_2020-11-23_di_200-prng-1,daily_issda_250,250,rng-250,111,rng,num-start-121,121,536,2.5722336769104004,True,,True,1,False,1000,True,1.0
./expes/v2_2020-11-23_di_200-prng-1,daily_issda_250,250,rng-250,61,rng,num-start-171,171,536,3.402714967727661,True,,True,1,False,1000,True,1.0
./expes/v2_2020-11-23_di_200-prng-1,daily_issda_250,250,rng-250,91,rng,num-start-141,141,536,2.8741331100463867,True,,True,1,False,1000,True,1.0
./expes/v2_2020-11-23_di_200-prng-1,daily_issda_250,250,rng-250,181,rng,num-start-241,241,536,4.547987699508667,True,,True,1,False,1000,True,1.0
./expes/v2_2020-11-23_di_200-prng-1,daily_issda_250,250,rng-250,151,rng,num-start-41,41,536,1000.578202009201,False,,False,0,True,1000,True,0.0
./expes/v2_2020-11-23_di_200-prng-1,daily_issda_250,250,rng-250,121,rng,num-start-201,201,536,4.129477024078369,True,,True,1,False,1000,True,1.0
./expes/v2_2020-11-23_di_200-prng-1,daily_issda_250,250,rng-250,21,rng,num-start-41,41,536,2.3182015419006348,True,,True,1,False,1000,True,1.0
./expes/v2_2020-11-23_di_200-prng-1,daily_issda_250,250,rng-250,121,rng,num-start-181,181,536,3.3303966522216797,True,,True,1,False,1000,True,1.0
./expes/v2_2020-11-23_di_200-prng-1,daily_issda_250,250,rng-250,191,rng,num-start-51,51,536,1000.6249191761017,False,,False,0,True,1000,True,0.0
./expes/v2_2020-11-23_di_200-prng-1,daily_issda_250,250,rng-250,191,rng,num-start-91,91,536,2.7166383266448975,True,,True,1,False,1000,True,1.0
./expes/v2_2020-11-23_di_200-prng-1,daily_issda_250,250,rng-250,181,rng,num-start-141,141,536,2.755321979522705,True,,True,1,False,1000,True,1.0
./expes/v2_2020-11-23_di_200-prng-1,daily_issda_250,250,rng-250,11,rng,num-start-111,111,536,1.7032568454742432,True,,True,1,False,1000,True,1.0
./expes/v2_2020-11-23_di_200-prng-1,daily_issda_250,250,rng-250,161,rng,num-start-161,161,536,3.032808303833008,True,,True,1,False,1000,True,1.0
./expes/v2_2020-11-23_di_200-prng-1,daily_issda_250,250,rng-250,181,rng,num-start-281,281,536,5.191969871520996,True,,True,1,False,1000,True,1.0
./expes/v2_2020-11-23_di_200-prng-1,daily_issda_250,250,rng-250,211,rng,num-start-51,51,536,5.8461527824401855,True,,True,1,False,1000,True,1.0
./expes/v2_2020-11-23_di_200-prng-1,daily_issda_250,250,rng-250,141,rng,num-start-261,261,536,4.48131537437439,True,,True,1,False,1000,True,1.0
./expes/v2_2020-11-23_di_200-prng-1,daily_issda_250,250,rng-250,231,rng,num-start-141,141,536,2.138383626937866,True,,True,1,False,1000,True,1.0
./expes/v2_2020-11-23_di_200-prng-1,daily_issda_250,250,rng-250,241,rng,num-start-71,71,536,1.0877249240875244,True,,True,1,False,1000,True,1.0
./expes/v2_2020-11-23_di_200-prng-1,daily_issda_250,250,rng-250,191,rng,num-start-121,121,536,2.1849331855773926,True,,True,1,False,1000,True,1.0
./expes/v2_2020-11-23_di_200-prng-1,daily_issda_250,250,rng-250,31,rng,num-start-141,141,536,2.3253722190856934,True,,True,1,False,1000,True,1.0
./expes/v2_2020-11-23_di_200-prng-1,daily_issda_250,250,rng-250,221,rng,num-start-61,61,536,1.8131134510040283,True,,True,1,False,1000,True,1.0
./expes/v2_2020-11-23_di_200-prng-1,daily_issda_250,250,rng-250,1,rng,num-start-191,191,536,2.27640438079834,True,,True,1,False,1000,True,1.0
./expes/v2_2020-11-23_di_200-prng-1,daily_issda_250,250,rng-250,51,rng,num-start-281,281,536,4.494859218597412,True,,True,1,False,1000,True,1.0
./expes/v2_2020-11-23_di_200-prng-1,daily_issda_250,250,rng-250,121,rng,num-start-51,51,536,1000.6987006664276,False,,False,0,True,1000,True,0.0
./expes/v2_2020-11-23_di_200-prng-1,daily_issda_250,250,rng-250,31,rng,num-start-191,191,536,3.2009007930755615,True,,True,1,False,1000,True,1.0
./expes/v2_2020-11-23_di_200-prng-1,daily_issda_250,250,rng-250,101,rng,num-start-41,41,536,1000.6658282279968,False,,False,0,True,1000,True,0.0
./expes/v2_2020-11-23_di_200-prng-1,daily_issda_250,250,rng-250,111,rng,num-start-251,251,536,4.894681930541992,True,,True,1,False,1000,True,1.0
./expes/v2_2020-11-23_di_200-prng-1,daily_issda_250,250,rng-250,11,rng,num-start-211,211,536,3.5850491523742676,True,,True,1,False,1000,True,1.0
./expes/v2_2020-11-23_di_200-prng-1,daily_issda_250,250,rng-250,121,rng,num-start-41,41,536,1000.5641605854034,False,,False,0,True,1000,True,0.0
./expes/v2_2020-11-23_di_200-prng-1,daily_issda_250,250,rng-250,231,rng,num-start-111,111,536,1.6432793140411377,True,,True,1,False,1000,True,1.0
./expes/v2_2020-11-23_di_200-prng-1,daily_issda_250,250,rng-250,101,rng,num-start-51,51,536,1000.7319028377533,False,,False,0,True,1000,True,0.0
./expes/v2_2020-11-23_di_200-prng-1,daily_issda_250,250,rng-250,161,rng,num-start-181,181,536,3.878835678100586,True,,True,1,False,1000,True,1.0
./expes/v2_2020-11-23_di_200-prng-1,daily_issda_250,250,rng-250,1,rng,num-start-161,161,536,1.9548382759094238,True,,True,1,False,1000,True,1.0
./expes/v2_2020-11-23_di_200-prng-1,daily_issda_250,250,rng-250,111,rng,num-start-41,41,536,1000.5655047893524,False,,False,0,True,1000,True,0.0
./expes/v2_2020-11-23_di_200-prng-1,daily_issda_250,250,rng-250,161,rng,num-start-61,61,536,1000.8210144042969,False,,False,0,True,1000,True,0.0
