expe,clients,clients_size,clients_subset,agg_size,method,days,days_size,days_total,time,valid,valid_sum,success,nsols,wall_hit,wall_time,pooled,valid_sums
./expes/v2_2020-11-23_di_200-prng-1,daily_issda_250,250,rng-250,41,rng,num-start-251,251,536,7.922988653182983,True,,True,1,False,1000,True,1.0
./expes/v2_2020-11-23_di_200-prng-1,daily_issda_250,250,rng-250,171,rng,num-start-161,161,536,5.680541753768921,True,,True,1,False,1000,True,1.0
./expes/v2_2020-11-23_di_200-prng-1,daily_issda_250,250,rng-250,171,rng,num-start-61,61,536,1001.6955480575562,False,,False,0,True,1000,True,0.0
./expes/v2_2020-11-23_di_200-prng-1,daily_issda_250,250,rng-250,11,rng,num-start-171,171,536,5.678991794586182,True,,True,1,False,1000,True,1.0
./expes/v2_2020-11-23_di_200-prng-1,daily_issda_250,250,rng-250,11,rng,num-start-61,61,536,1.8924214839935303,True,,True,1,False,1000,True,1.0
./expes/v2_2020-11-23_di_200-prng-1,daily_issda_250,250,rng-250,71,rng,num-start-231,231,536,7.792108535766602,True,,True,1,False,1000,True,1.0
./expes/v2_2020-11-23_di_200-prng-1,daily_issda_250,250,rng-250,111,rng,num-start-31,31,536,1000.921445608139,False,,False,0,True,1000,True,0.0
./expes/v2_2020-11-23_di_200-prng-1,daily_issda_250,250,rng-250,21,rng,num-start-271,271,536,8.06222128868103,True,,True,1,False,1000,True,1.0
./expes/v2_2020-11-23_di_200-prng-1,daily_issda_250,250,rng-250,171,rng,num-start-261,261,536,8.929643869400024,True,,True,1,False,1000,True,1.0
./expes/v2_2020-11-23_di_200-prng-1,daily_issda_250,250,rng-250,61,rng,num-start-1,1,536,0.4877736568450928,False,,False,2,False,1000,True,1.0
./expes/v2_2020-11-23_di_200-prng-1,daily_issda_250,250,rng-250,71,rng,num-start-21,21,536,1000.6022593975067,False,,False,0,True,1000,True,0.0
./expes/v2_2020-11-23_di_200-prng-1,daily_issda_250,250,rng-250,181,rng,num-start-91,91,536,5.91826868057251,True,,True,1,False,1000,True,1.0
./expes/v2_2020-11-23_di_200-prng-1,daily_issda_250,250,rng-250,141,rng,num-start-181,181,536,6.618941068649292,True,,True,1,False,1000,True,1.0
./expes/v2_2020-11-23_di_200-prng-1,daily_issda_250,250,rng-250,181,rng,num-start-161,161,536,5.52676796913147,True,,True,1,False,1000,True,1.0
./expes/v2_2020-11-23_di_200-prng-1,daily_issda_250,250,rng-250,231,rng,num-start-11,11,536,1001.2965986728668,False,,False,0,True,1000,True,0.0
./expes/v2_2020-11-23_di_200-prng-1,daily_issda_250,250,rng-250,51,rng,num-start-11,11,536,1000.3214433193207,False,,False,0,True,1000,True,0.0
./expes/v2_2020-11-23_di_200-prng-1,daily_issda_250,250,rng-250,31,rng,num-start-31,31,536,1000.9277312755585,False,,False,0,True,1000,True,0.0
./expes/v2_2020-11-23_di_200-prng-1,daily_issda_250,250,rng-250,231,rng,num-start-51,51,536,3.0764029026031494,True,,True,1,False,1000,True,1.0
./expes/v2_2020-11-23_di_200-prng-1,daily_issda_250,250,rng-250,51,rng,num-start-21,21,536,1000.6536395549774,False,,False,0,True,1000,True,0.0
./expes/v2_2020-11-23_di_200-prng-1,daily_issda_250,250,rng-250,211,rng,num-start-181,181,536,6.110663890838623,True,,True,1,False,1000,True,1.0
./expes/v2_2020-11-23_di_200-prng-1,daily_issda_250,250,rng-250,161,rng,num-start-71,71,536,1002.0027253627777,False,,False,0,True,1000,True,0.0
./expes/v2_2020-11-23_di_200-prng-1,daily_issda_250,250,rng-250,81,rng,num-start-11,11,536,1000.3493630886078,False,,False,0,True,1000,True,0.0
./expes/v2_2020-11-23_di_200-prng-1,daily_issda_250,250,rng-250,1,rng,num-start-111,111,536,3.0713114738464355,True,,True,1,False,1000,True,1.0
./expes/v2_2020-11-23_di_200-prng-1,daily_issda_250,250,rng-250,81,rng,num-start-41,41,536,1001.1810810565948,False,,False,0,True,1000,True,0.0
./expes/v2_2020-11-23_di_200-prng-1,daily_issda_250,250,rng-250,161,rng,num-start-151,151,536,5.353290319442749,True,,True,1,False,1000,True,1.0
./expes/v2_2020-11-23_di_200-prng-1,daily_issda_250,250,rng-250,241,rng,num-start-81,81,536,2.5666346549987793,True,,True,1,False,1000,True,1.0
./expes/v2_2020-11-23_di_200-prng-1,daily_issda_250,250,rng-250,121,rng,num-start-11,11,536,1000.3587365150452,False,,False,0,True,1000,True,0.0
./expes/v2_2020-11-23_di_200-prng-1,daily_issda_250,250,rng-250,41,rng,num-start-221,221,536,7.257319688796997,True,,True,1,False,1000,True,1.0
./expes/v2_2020-11-23_di_200-prng-1,daily_issda_250,250,rng-250,241,rng,num-start-51,51,536,1.6668734550476074,True,,True,1,False,1000,True,1.0
./expes/v2_2020-11-23_di_200-prng-1,daily_issda_250,250,rng-250,61,rng,num-start-51,51,536,1001.3587510585785,False,,False,0,True,1000,True,0.0
./expes/v2_2020-11-23_di_200-prng-1,daily_issda_250,250,rng-250,101,rng,num-start-41,41,536,1001.1159477233887,False,,False,0,True,1000,True,0.0
./expes/v2_2020-11-23_di_200-prng-1,daily_issda_250,250,rng-250,71,rng,num-start-161,161,536,5.850123167037964,True,,True,1,False,1000,True,1.0
./expes/v2_2020-11-23_di_200-prng-1,daily_issda_250,250,rng-250,1,rng,num-start-51,51,536,1.4255790710449219,True,,True,1,False,1000,True,1.0
./expes/v2_2020-11-23_di_200-prng-1,daily_issda_250,250,rng-250,11,rng,num-start-91,91,536,2.9472806453704834,True,,True,1,False,1000,True,1.0
./expes/v2_2020-11-23_di_200-prng-1,daily_issda_250,250,rng-250,141,rng,num-start-121,121,536,4.516493797302246,True,,True,1,False,1000,True,1.0
./expes/v2_2020-11-23_di_200-prng-1,daily_issda_250,250,rng-250,111,rng,num-start-1,1,536,2.2878153324127197,False,,False,2,False,1000,True,1.0
./expes/v2_2020-11-23_di_200-prng-1,daily_issda_250,250,rng-250,21,rng,num-start-211,211,536,6.979748249053955,True,,True,1,False,1000,True,1.0
./expes/v2_2020-11-23_di_200-prng-1,daily_issda_250,250,rng-250,131,rng,num-start-121,121,536,7.5616888999938965,True,,True,1,False,1000,True,1.0
./expes/v2_2020-11-23_di_200-prng-1,daily_issda_250,250,rng-250,21,rng,num-start-181,181,536,5.7784552574157715,True,,True,1,False,1000,True,1.0
./expes/v2_2020-11-23_di_200-prng-1,daily_issda_250,250,rng-250,1,rng,num-start-181,181,536,4.939761638641357,True,,True,1,False,1000,True,1.0
./expes/v2_2020-11-23_di_200-prng-1,daily_issda_250,250,rng-250,181,rng,num-start-221,221,536,7.65286111831665,True,,True,1,False,1000,True,1.0
./expes/v2_2020-11-23_di_200-prng-1,daily_issda_250,250,rng-250,101,rng,num-start-51,51,536,1001.422753572464,False,,False,0,True,1000,True,0.0
./expes/v2_2020-11-23_di_200-prng-1,daily_issda_250,250,rng-250,111,rng,num-start-151,151,536,5.282307863235474,True,,True,1,False,1000,True,1.0
./expes/v2_2020-11-23_di_200-prng-1,daily_issda_250,250,rng-250,11,rng,num-start-21,21,536,12.514935970306396,True,,True,1,False,1000,True,1.0
./expes/v2_2020-11-23_di_200-prng-1,daily_issda_250,250,rng-250,121,rng,num-start-11,11,536,1000.3367233276367,False,,False,0,True,1000,True,0.0
./expes/v2_2020-11-23_di_200-prng-1,daily_issda_250,250,rng-250,71,rng,num-start-1,1,536,2.1922447681427,False,,False,2,False,1000,True,1.0
./expes/v2_2020-11-23_di_200-prng-1,daily_issda_250,250,rng-250,151,rng,num-start-221,221,536,7.773067951202393,True,,True,1,False,1000,True,1.0
./expes/v2_2020-11-23_di_200-prng-1,daily_issda_250,250,rng-250,171,rng,num-start-211,211,536,6.9994142055511475,True,,True,1,False,1000,True,1.0
./expes/v2_2020-11-23_di_200-prng-1,daily_issda_250,250,rng-250,131,rng,num-start-241,241,536,8.724929809570312,True,,True,1,False,1000,True,1.0
./expes/v2_2020-11-23_di_200-prng-1,daily_issda_250,250,rng-250,61,rng,num-start-71,71,536,7.5850136280059814,True,,True,1,False,1000,True,1.0
./expes/v2_2020-11-23_di_200-prng-1,daily_issda_250,250,rng-250,171,rng,num-start-281,281,536,10.061088800430298,True,,True,1,False,1000,True,1.0
./expes/v2_2020-11-23_di_200-prng-1,daily_issda_250,250,rng-250,171,rng,num-start-81,81,536,19.823541402816772,True,,True,1,False,1000,True,1.0
./expes/v2_2020-11-23_di_200-prng-1,daily_issda_250,250,rng-250,191,rng,num-start-31,31,536,1000.8975853919983,False,,False,0,True,1000,True,0.0
./expes/v2_2020-11-23_di_200-prng-1,daily_issda_250,250,rng-250,41,rng,num-start-151,151,536,4.816082715988159,True,,True,1,False,1000,True,1.0
./expes/v2_2020-11-23_di_200-prng-1,daily_issda_250,250,rng-250,181,rng,num-start-171,171,536,5.657290697097778,True,,True,1,False,1000,True,1.0
./expes/v2_2020-11-23_di_200-prng-1,daily_issda_250,250,rng-250,171,rng,num-start-101,101,536,6.4751551151275635,True,,True,1,False,1000,True,1.0
./expes/v2_2020-11-23_di_200-prng-1,daily_issda_250,250,rng-250,101,rng,num-start-71,71,536,1001.9777939319611,False,,False,0,True,1000,True,0.0
./expes/v2_2020-11-23_di_200-prng-1,daily_issda_250,250,rng-250,31,rng,num-start-91,91,536,3.80936598777771,True,,True,1,False,1000,True,1.0
./expes/v2_2020-11-23_di_200-prng-1,daily_issda_250,250,rng-250,111,rng,num-start-91,91,536,65.99866724014282,True,,True,1,False,1000,True,1.0
./expes/v2_2020-11-23_di_200-prng-1,daily_issda_250,250,rng-250,11,rng,num-start-211,211,536,6.490681171417236,True,,True,1,False,1000,True,1.0
./expes/v2_2020-11-23_di_200-prng-1,daily_issda_250,250,rng-250,221,rng,num-start-61,61,536,3.442775249481201,True,,True,1,False,1000,True,1.0
./expes/v2_2020-11-23_di_200-prng-1,daily_issda_250,250,rng-250,11,rng,num-start-21,21,536,175.20267367362976,True,,True,1,False,1000,True,1.0
./expes/v2_2020-11-23_di_200-prng-1,daily_issda_250,250,rng-250,151,rng,num-start-201,201,536,6.893275499343872,True,,True,1,False,1000,True,1.0
./expes/v2_2020-11-23_di_200-prng-1,daily_issda_250,250,rng-250,111,rng,num-start-151,151,536,5.245873689651489,True,,True,1,False,1000,True,1.0
./expes/v2_2020-11-23_di_200-prng-1,daily_issda_250,250,rng-250,71,rng,num-start-291,291,536,9.757270097732544,True,,True,1,False,1000,True,1.0
./expes/v2_2020-11-23_di_200-prng-1,daily_issda_250,250,rng-250,21,rng,num-start-221,221,536,7.33067774772644,True,,True,1,False,1000,True,1.0
./expes/v2_2020-11-23_di_200-prng-1,daily_issda_250,250,rng-250,231,rng,num-start-71,71,536,2.268512010574341,True,,True,1,False,1000,True,1.0
./expes/v2_2020-11-23_di_200-prng-1,daily_issda_250,250,rng-250,151,rng,num-start-231,231,536,7.92748761177063,True,,True,1,False,1000,True,1.0
./expes/v2_2020-11-23_di_200-prng-1,daily_issda_250,250,rng-250,241,rng,num-start-211,211,536,6.532744407653809,True,,True,1,False,1000,True,1.0
./expes/v2_2020-11-23_di_200-prng-1,daily_issda_250,250,rng-250,51,rng,num-start-41,41,536,1001.1396050453186,False,,False,0,True,1000,True,0.0
./expes/v2_2020-11-23_di_200-prng-1,daily_issda_250,250,rng-250,91,rng,num-start-61,61,536,1001.7444934844971,False,,False,0,True,1000,True,0.0
./expes/v2_2020-11-23_di_200-prng-1,daily_issda_250,250,rng-250,1,rng,num-start-131,131,536,3.6756842136383057,True,,True,1,False,1000,True,1.0
./expes/v2_2020-11-23_di_200-prng-1,daily_issda_250,250,rng-250,101,rng,num-start-211,211,536,7.795114517211914,True,,True,1,False,1000,True,1.0
./expes/v2_2020-11-23_di_200-prng-1,daily_issda_250,250,rng-250,51,rng,num-start-261,261,536,8.732399463653564,True,,True,1,False,1000,True,1.0
./expes/v2_2020-11-23_di_200-prng-1,daily_issda_250,250,rng-250,31,rng,num-start-261,261,536,8.592204093933105,True,,True,1,False,1000,True,1.0
./expes/v2_2020-11-23_di_200-prng-1,daily_issda_250,250,rng-250,21,rng,num-start-31,31,536,1002.2725794315338,False,,False,0,True,1000,True,0.0
./expes/v2_2020-11-23_di_200-prng-1,daily_issda_250,250,rng-250,21,rng,num-start-101,101,536,3.2013165950775146,True,,True,1,False,1000,True,1.0
./expes/v2_2020-11-23_di_200-prng-1,daily_issda_250,250,rng-250,1,rng,num-start-291,291,536,7.993050813674927,True,,True,1,False,1000,True,1.0
./expes/v2_2020-11-23_di_200-prng-1,daily_issda_250,250,rng-250,161,rng,num-start-131,131,536,4.93695068359375,True,,True,1,False,1000,True,1.0
./expes/v2_2020-11-23_di_200-prng-1,daily_issda_250,250,rng-250,181,rng,num-start-41,41,536,1001.1931245326996,False,,False,0,True,1000,True,0.0
./expes/v2_2020-11-23_di_200-prng-1,daily_issda_250,250,rng-250,131,rng,num-start-1,1,536,2.660865545272827,False,,False,2,False,1000,True,1.0
./expes/v2_2020-11-23_di_200-prng-1,daily_issda_250,250,rng-250,1,rng,num-start-201,201,536,5.622543096542358,True,,True,1,False,1000,True,1.0
./expes/v2_2020-11-23_di_200-prng-1,daily_issda_250,250,rng-250,91,rng,num-start-151,151,536,5.509995937347412,True,,True,1,False,1000,True,1.0
./expes/v2_2020-11-23_di_200-prng-1,daily_issda_250,250,rng-250,141,rng,num-start-291,291,536,10.744566440582275,True,,True,1,False,1000,True,1.0
./expes/v2_2020-11-23_di_200-prng-1,daily_issda_250,250,rng-250,91,rng,num-start-151,151,536,5.665869474411011,True,,True,1,False,1000,True,1.0
./expes/v2_2020-11-23_di_200-prng-1,daily_issda_250,250,rng-250,111,rng,num-start-11,11,536,1000.3474390506744,False,,False,0,True,1000,True,0.0
./expes/v2_2020-11-23_di_200-prng-1,daily_issda_250,250,rng-250,81,rng,num-start-221,221,536,7.9486470222473145,True,,True,1,False,1000,True,1.0
./expes/v2_2020-11-23_di_200-prng-1,daily_issda_250,250,rng-250,91,rng,num-start-161,161,536,5.730638742446899,True,,True,1,False,1000,True,1.0
./expes/v2_2020-11-23_di_200-prng-1,daily_issda_250,250,rng-250,31,rng,num-start-191,191,536,6.534921646118164,True,,True,1,False,1000,True,1.0
./expes/v2_2020-11-23_di_200-prng-1,daily_issda_250,250,rng-250,221,rng,num-start-91,91,536,3.0517451763153076,True,,True,1,False,1000,True,1.0
./expes/v2_2020-11-23_di_200-prng-1,daily_issda_250,250,rng-250,161,rng,num-start-91,91,536,41.37507629394531,True,,True,1,False,1000,True,1.0
./expes/v2_2020-11-23_di_200-prng-1,daily_issda_250,250,rng-250,161,rng,num-start-141,141,536,5.2365264892578125,True,,True,1,False,1000,True,1.0
./expes/v2_2020-11-23_di_200-prng-1,daily_issda_250,250,rng-250,231,rng,num-start-201,201,536,6.584352254867554,True,,True,1,False,1000,True,1.0
./expes/v2_2020-11-23_di_200-prng-1,daily_issda_250,250,rng-250,11,rng,num-start-211,211,536,6.746898651123047,True,,True,1,False,1000,True,1.0
./expes/v2_2020-11-23_di_200-prng-1,daily_issda_250,250,rng-250,91,rng,num-start-51,51,536,1001.6419992446899,False,,False,0,True,1000,True,0.0
./expes/v2_2020-11-23_di_200-prng-1,daily_issda_250,250,rng-250,131,rng,num-start-221,221,536,7.8362908363342285,True,,True,1,False,1000,True,1.0
./expes/v2_2020-11-23_di_200-prng-1,daily_issda_250,250,rng-250,111,rng,num-start-181,181,536,6.693731069564819,True,,True,1,False,1000,True,1.0
./expes/v2_2020-11-23_di_200-prng-1,daily_issda_250,250,rng-250,61,rng,num-start-251,251,536,8.565738916397095,True,,True,1,False,1000,True,1.0
./expes/v2_2020-11-23_di_200-prng-1,daily_issda_250,250,rng-250,231,rng,num-start-61,61,536,2.9782254695892334,True,,True,1,False,1000,True,1.0
./expes/v2_2020-11-23_di_200-prng-1,daily_issda_250,250,rng-250,241,rng,num-start-101,101,536,3.1348118782043457,True,,True,1,False,1000,True,1.0
./expes/v2_2020-11-23_di_200-prng-1,daily_issda_250,250,rng-250,211,rng,num-start-181,181,536,5.829645395278931,True,,True,1,False,1000,True,1.0
./expes/v2_2020-11-23_di_200-prng-1,daily_issda_250,250,rng-250,101,rng,num-start-81,81,536,1002.2438313961029,False,,False,0,True,1000,True,0.0
./expes/v2_2020-11-23_di_200-prng-1,daily_issda_250,250,rng-250,21,rng,num-start-51,51,536,2.7498435974121094,True,,True,1,False,1000,True,1.0
./expes/v2_2020-11-23_di_200-prng-1,daily_issda_250,250,rng-250,231,rng,num-start-21,21,536,1002.7273380756378,False,,False,0,True,1000,True,0.0
./expes/v2_2020-11-23_di_200-prng-1,daily_issda_250,250,rng-250,1,rng,num-start-71,71,536,2.0460169315338135,True,,True,1,False,1000,True,1.0
./expes/v2_2020-11-23_di_200-prng-1,daily_issda_250,250,rng-250,151,rng,num-start-181,181,536,6.406736373901367,True,,True,1,False,1000,True,1.0
./expes/v2_2020-11-23_di_200-prng-1,daily_issda_250,250,rng-250,191,rng,num-start-11,11,536,1000.4139442443848,False,,False,0,True,1000,True,0.0
./expes/v2_2020-11-23_di_200-prng-1,daily_issda_250,250,rng-250,241,rng,num-start-191,191,536,6.00084376335144,True,,True,1,False,1000,True,1.0
./expes/v2_2020-11-23_di_200-prng-1,daily_issda_250,250,rng-250,161,rng,num-start-231,231,536,8.483519077301025,True,,True,1,False,1000,True,1.0
./expes/v2_2020-11-23_di_200-prng-1,daily_issda_250,250,rng-250,131,rng,num-start-211,211,536,7.86707329750061,True,,True,1,False,1000,True,1.0
./expes/v2_2020-11-23_di_200-prng-1,daily_issda_250,250,rng-250,241,rng,num-start-281,281,536,8.793985843658447,True,,True,1,False,1000,True,1.0
./expes/v2_2020-11-23_di_200-prng-1,daily_issda_250,250,rng-250,151,rng,num-start-131,131,536,4.926116228103638,True,,True,1,False,1000,True,1.0
./expes/v2_2020-11-23_di_200-prng-1,daily_issda_250,250,rng-250,121,rng,num-start-61,61,536,1001.7159333229065,False,,False,0,True,1000,True,0.0
./expes/v2_2020-11-23_di_200-prng-1,daily_issda_250,250,rng-250,141,rng,num-start-231,231,536,8.252597570419312,True,,True,1,False,1000,True,1.0
./expes/v2_2020-11-23_di_200-prng-1,daily_issda_250,250,rng-250,81,rng,num-start-21,21,536,1000.5859909057617,False,,False,0,True,1000,True,0.0
./expes/v2_2020-11-23_di_200-prng-1,daily_issda_250,250,rng-250,231,rng,num-start-251,251,536,8.135514736175537,True,,True,1,False,1000,True,1.0
./expes/v2_2020-11-23_di_200-prng-1,daily_issda_250,250,rng-250,1,rng,num-start-131,131,536,3.6526989936828613,True,,True,1,False,1000,True,1.0
./expes/v2_2020-11-23_di_200-prng-1,daily_issda_250,250,rng-250,81,rng,num-start-141,141,536,5.036829948425293,True,,True,1,False,1000,True,1.0
./expes/v2_2020-11-23_di_200-prng-1,daily_issda_250,250,rng-250,241,rng,num-start-171,171,536,5.318432331085205,True,,True,1,False,1000,True,1.0
./expes/v2_2020-11-23_di_200-prng-1,daily_issda_250,250,rng-250,21,rng,num-start-171,171,536,5.908529996871948,True,,True,1,False,1000,True,1.0
./expes/v2_2020-11-23_di_200-prng-1,daily_issda_250,250,rng-250,21,rng,num-start-101,101,536,3.377634048461914,True,,True,1,False,1000,True,1.0
./expes/v2_2020-11-23_di_200-prng-1,daily_issda_250,250,rng-250,91,rng,num-start-41,41,536,1001.2499513626099,False,,False,0,True,1000,True,0.0
./expes/v2_2020-11-23_di_200-prng-1,daily_issda_250,250,rng-250,61,rng,num-start-291,291,536,9.724067211151123,True,,True,1,False,1000,True,1.0
./expes/v2_2020-11-23_di_200-prng-1,daily_issda_250,250,rng-250,171,rng,num-start-211,211,536,7.26170539855957,True,,True,1,False,1000,True,1.0
./expes/v2_2020-11-23_di_200-prng-1,daily_issda_250,250,rng-250,1,rng,num-start-161,161,536,4.418825626373291,True,,True,1,False,1000,True,1.0
./expes/v2_2020-11-23_di_200-prng-1,daily_issda_250,250,rng-250,221,rng,num-start-221,221,536,6.81908392906189,True,,True,1,False,1000,True,1.0
./expes/v2_2020-11-23_di_200-prng-1,daily_issda_250,250,rng-250,71,rng,num-start-191,191,536,6.727293968200684,True,,True,1,False,1000,True,1.0
./expes/v2_2020-11-23_di_200-prng-1,daily_issda_250,250,rng-250,231,rng,num-start-211,211,536,6.788324594497681,True,,True,1,False,1000,True,1.0
./expes/v2_2020-11-23_di_200-prng-1,daily_issda_250,250,rng-250,101,rng,num-start-151,151,536,5.417616367340088,True,,True,1,False,1000,True,1.0
./expes/v2_2020-11-23_di_200-prng-1,daily_issda_250,250,rng-250,171,rng,num-start-231,231,536,7.872083425521851,True,,True,1,False,1000,True,1.0
./expes/v2_2020-11-23_di_200-prng-1,daily_issda_250,250,rng-250,21,rng,num-start-201,201,536,6.253157138824463,True,,True,1,False,1000,True,1.0
./expes/v2_2020-11-23_di_200-prng-1,daily_issda_250,250,rng-250,11,rng,num-start-111,111,536,3.6099135875701904,True,,True,1,False,1000,True,1.0
./expes/v2_2020-11-23_di_200-prng-1,daily_issda_250,250,rng-250,1,rng,num-start-1,1,536,0.03869795799255371,True,,True,1,False,1000,True,1.0
./expes/v2_2020-11-23_di_200-prng-1,daily_issda_250,250,rng-250,111,rng,num-start-21,21,536,1000.6098628044128,False,,False,0,True,1000,True,0.0
./expes/v2_2020-11-23_di_200-prng-1,daily_issda_250,250,rng-250,141,rng,num-start-71,71,536,1002.0309031009674,False,,False,0,True,1000,True,0.0
./expes/v2_2020-11-23_di_200-prng-1,daily_issda_250,250,rng-250,31,rng,num-start-181,181,536,5.835983514785767,True,,True,1,False,1000,True,1.0
./expes/v2_2020-11-23_di_200-prng-1,daily_issda_250,250,rng-250,31,rng,num-start-31,31,536,1001.4339423179626,False,,False,0,True,1000,True,0.0
./expes/v2_2020-11-23_di_200-prng-1,daily_issda_250,250,rng-250,201,rng,num-start-171,171,536,5.758139133453369,True,,True,1,False,1000,True,1.0
./expes/v2_2020-11-23_di_200-prng-1,daily_issda_250,250,rng-250,211,rng,num-start-211,211,536,6.786707162857056,True,,True,1,False,1000,True,1.0
./expes/v2_2020-11-23_di_200-prng-1,daily_issda_250,250,rng-250,41,rng,num-start-241,241,536,7.962549924850464,True,,True,1,False,1000,True,1.0
./expes/v2_2020-11-23_di_200-prng-1,daily_issda_250,250,rng-250,91,rng,num-start-101,101,536,6.718579053878784,True,,True,1,False,1000,True,1.0
./expes/v2_2020-11-23_di_200-prng-1,daily_issda_250,250,rng-250,191,rng,num-start-11,11,536,1000.3303849697113,False,,False,0,True,1000,True,0.0
./expes/v2_2020-11-23_di_200-prng-1,daily_issda_250,250,rng-250,181,rng,num-start-291,291,536,10.434204339981079,True,,True,1,False,1000,True,1.0
./expes/v2_2020-11-23_di_200-prng-1,daily_issda_250,250,rng-250,211,rng,num-start-101,101,536,3.2265021800994873,True,,True,1,False,1000,True,1.0
./expes/v2_2020-11-23_di_200-prng-1,daily_issda_250,250,rng-250,131,rng,num-start-271,271,536,10.746535062789917,True,,True,1,False,1000,True,1.0
./expes/v2_2020-11-23_di_200-prng-1,daily_issda_250,250,rng-250,191,rng,num-start-291,291,536,10.20862627029419,True,,True,1,False,1000,True,1.0
./expes/v2_2020-11-23_di_200-prng-1,daily_issda_250,250,rng-250,181,rng,num-start-81,81,536,5.407651424407959,True,,True,1,False,1000,True,1.0
./expes/v2_2020-11-23_di_200-prng-1,daily_issda_250,250,rng-250,1,rng,num-start-161,161,536,4.546638250350952,True,,True,1,False,1000,True,1.0
./expes/v2_2020-11-23_di_200-prng-1,daily_issda_250,250,rng-250,111,rng,num-start-181,181,536,6.864332675933838,True,,True,1,False,1000,True,1.0
./expes/v2_2020-11-23_di_200-prng-1,daily_issda_250,250,rng-250,81,rng,num-start-61,61,536,1001.7753355503082,False,,False,0,True,1000,True,0.0
./expes/v2_2020-11-23_di_200-prng-1,daily_issda_250,250,rng-250,221,rng,num-start-141,141,536,4.565763235092163,True,,True,1,False,1000,True,1.0
./expes/v2_2020-11-23_di_200-prng-1,daily_issda_250,250,rng-250,131,rng,num-start-111,111,536,8.268210411071777,True,,True,1,False,1000,True,1.0
./expes/v2_2020-11-23_di_200-prng-1,daily_issda_250,250,rng-250,231,rng,num-start-111,111,536,3.6105594635009766,True,,True,1,False,1000,True,1.0
./expes/v2_2020-11-23_di_200-prng-1,daily_issda_250,250,rng-250,241,rng,num-start-181,181,536,5.794167518615723,True,,True,1,False,1000,True,1.0
./expes/v2_2020-11-23_di_200-prng-1,daily_issda_250,250,rng-250,51,rng,num-start-71,71,536,5.649263858795166,True,,True,1,False,1000,True,1.0
./expes/v2_2020-11-23_di_200-prng-1,daily_issda_250,250,rng-250,61,rng,num-start-21,21,536,1000.609423160553,False,,False,0,True,1000,True,0.0
./expes/v2_2020-11-23_di_200-prng-1,daily_issda_250,250,rng-250,51,rng,num-start-201,201,536,6.786219358444214,True,,True,1,False,1000,True,1.0
./expes/v2_2020-11-23_di_200-prng-1,daily_issda_250,250,rng-250,191,rng,num-start-111,111,536,4.130781412124634,True,,True,1,False,1000,True,1.0
./expes/v2_2020-11-23_di_200-prng-1,daily_issda_250,250,rng-250,71,rng,num-start-291,291,536,10.29653263092041,True,,True,1,False,1000,True,1.0
./expes/v2_2020-11-23_di_200-prng-1,daily_issda_250,250,rng-250,111,rng,num-start-151,151,536,5.863276243209839,True,,True,1,False,1000,True,1.0
./expes/v2_2020-11-23_di_200-prng-1,daily_issda_250,250,rng-250,231,rng,num-start-21,21,536,1001.2872767448425,False,,False,0,True,1000,True,0.0
./expes/v2_2020-11-23_di_200-prng-1,daily_issda_250,250,rng-250,111,rng,num-start-41,41,536,1001.2266752719879,False,,False,0,True,1000,True,0.0
./expes/v2_2020-11-23_di_200-prng-1,daily_issda_250,250,rng-250,91,rng,num-start-51,51,536,1001.4275863170624,False,,False,0,True,1000,True,0.0
./expes/v2_2020-11-23_di_200-prng-1,daily_issda_250,250,rng-250,111,rng,num-start-51,51,536,1001.5079092979431,False,,False,0,True,1000,True,0.0
./expes/v2_2020-11-23_di_200-prng-1,daily_issda_250,250,rng-250,81,rng,num-start-271,271,536,10.004645347595215,True,,True,1,False,1000,True,1.0
./expes/v2_2020-11-23_di_200-prng-1,daily_issda_250,250,rng-250,211,rng,num-start-161,161,536,5.090823411941528,True,,True,1,False,1000,True,1.0
./expes/v2_2020-11-23_di_200-prng-1,daily_issda_250,250,rng-250,51,rng,num-start-71,71,536,59.72222280502319,True,,True,1,False,1000,True,1.0
./expes/v2_2020-11-23_di_200-prng-1,daily_issda_250,250,rng-250,1,rng,num-start-251,251,536,7.0102880001068115,True,,True,1,False,1000,True,1.0
./expes/v2_2020-11-23_di_200-prng-1,daily_issda_250,250,rng-250,1,rng,num-start-1,1,536,0.0395350456237793,True,,True,1,False,1000,True,1.0
./expes/v2_2020-11-23_di_200-prng-1,daily_issda_250,250,rng-250,21,rng,num-start-171,171,536,5.6781158447265625,True,,True,1,False,1000,True,1.0
./expes/v2_2020-11-23_di_200-prng-1,daily_issda_250,250,rng-250,141,rng,num-start-191,191,536,6.5128090381622314,True,,True,1,False,1000,True,1.0
./expes/v2_2020-11-23_di_200-prng-1,daily_issda_250,250,rng-250,181,rng,num-start-121,121,536,4.345239877700806,True,,True,1,False,1000,True,1.0
./expes/v2_2020-11-23_di_200-prng-1,daily_issda_250,250,rng-250,121,rng,num-start-1,1,536,3.310081720352173,False,,False,2,False,1000,True,1.0
./expes/v2_2020-11-23_di_200-prng-1,daily_issda_250,250,rng-250,171,rng,num-start-11,11,536,1000.466804265976,False,,False,0,True,1000,True,0.0
./expes/v2_2020-11-23_di_200-prng-1,daily_issda_250,250,rng-250,231,rng,num-start-281,281,536,8.481149673461914,True,,True,1,False,1000,True,1.0
./expes/v2_2020-11-23_di_200-prng-1,daily_issda_250,250,rng-250,81,rng,num-start-131,131,536,4.696539640426636,True,,True,1,False,1000,True,1.0
./expes/v2_2020-11-23_di_200-prng-1,daily_issda_250,250,rng-250,31,rng,num-start-121,121,536,3.896427631378174,True,,True,1,False,1000,True,1.0
./expes/v2_2020-11-23_di_200-prng-1,daily_issda_250,250,rng-250,211,rng,num-start-171,171,536,5.785305738449097,True,,True,1,False,1000,True,1.0
./expes/v2_2020-11-23_di_200-prng-1,daily_issda_250,250,rng-250,131,rng,num-start-61,61,536,1001.7047908306122,False,,False,0,True,1000,True,0.0
