expe,clients,clients_size,clients_subset,agg_size,method,days,days_size,days_total,time,valid,valid_sum,success,nsols,wall_hit,wall_time,pooled,valid_sums
./expes/v2_2020-11-23_di_200-prng-1,daily_issda_250,250,rng-250,191,rng,num-start-161,161,536,2.455070734024048,True,,True,1,False,1000,True,1.0
./expes/v2_2020-11-23_di_200-prng-1,daily_issda_250,250,rng-250,41,rng,num-start-111,111,536,1.8677263259887695,True,,True,1,False,1000,True,1.0
./expes/v2_2020-11-23_di_200-prng-1,daily_issda_250,250,rng-250,51,rng,num-start-1,1,536,2.4101080894470215,False,,False,2,False,1000,True,1.0
./expes/v2_2020-11-23_di_200-prng-1,daily_issda_250,250,rng-250,241,rng,num-start-251,251,536,2.7241573333740234,True,,True,1,False,1000,True,1.0
./expes/v2_2020-11-23_di_200-prng-1,daily_issda_250,250,rng-250,241,rng,num-start-71,71,536,1.0110211372375488,True,,True,1,False,1000,True,1.0
./expes/v2_2020-11-23_di_200-prng-1,daily_issda_250,250,rng-250,111,rng,num-start-241,241,536,4.128572225570679,True,,True,1,False,1000,True,1.0
./expes/v2_2020-11-23_di_200-prng-1,daily_issda_250,250,rng-250,41,rng,num-start-291,291,536,4.670591592788696,True,,True,1,False,1000,True,1.0
./expes/v2_2020-11-23_di_200-prng-1,daily_issda_250,250,rng-250,61,rng,num-start-21,21,536,1000.3837695121765,False,,False,0,True,1000,True,0.0
./expes/v2_2020-11-23_di_200-prng-1,daily_issda_250,250,rng-250,151,rng,num-start-201,201,536,4.202345132827759,True,,True,1,False,1000,True,1.0
./expes/v2_2020-11-23_di_200-prng-1,daily_issda_250,250,rng-250,151,rng,num-start-111,111,536,5.86061692237854,True,,True,1,False,1000,True,1.0
./expes/v2_2020-11-23_di_200-prng-1,daily_issda_250,250,rng-250,241,rng,num-start-81,81,536,1.3154211044311523,True,,True,1,False,1000,True,1.0
./expes/v2_2020-11-23_di_200-prng-1,daily_issda_250,250,rng-250,161,rng,num-start-151,151,536,3.144345998764038,True,,True,1,False,1000,True,1.0
./expes/v2_2020-11-23_di_200-prng-1,daily_issda_250,250,rng-250,31,rng,num-start-91,91,536,1.5531587600708008,True,,True,1,False,1000,True,1.0
./expes/v2_2020-11-23_di_200-prng-1,daily_issda_250,250,rng-250,1,rng,num-start-231,231,536,2.813101291656494,True,,True,1,False,1000,True,1.0
./expes/v2_2020-11-23_di_200-prng-1,daily_issda_250,250,rng-250,1,rng,num-start-41,41,536,0.49071192741394043,True,,True,1,False,1000,True,1.0
./expes/v2_2020-11-23_di_200-prng-1,daily_issda_250,250,rng-250,31,rng,num-start-191,191,536,3.342989683151245,True,,True,1,False,1000,True,1.0
./expes/v2_2020-11-23_di_200-prng-1,daily_issda_250,250,rng-250,91,rng,num-start-231,231,536,5.110404968261719,True,,True,1,False,1000,True,1.0
./expes/v2_2020-11-23_di_200-prng-1,daily_issda_250,250,rng-250,221,rng,num-start-121,121,536,2.1103198528289795,True,,True,1,False,1000,True,1.0
./expes/v2_2020-11-23_di_200-prng-1,daily_issda_250,250,rng-250,231,rng,num-start-271,271,536,4.300309181213379,True,,True,1,False,1000,True,1.0
./expes/v2_2020-11-23_di_200-prng-1,daily_issda_250,250,rng-250,121,rng,num-start-81,81,536,1001.0806868076324,False,,False,0,True,1000,True,0.0
./expes/v2_2020-11-23_di_200-prng-1,daily_issda_250,250,rng-250,191,rng,num-start-171,171,536,3.252856731414795,True,,True,1,False,1000,True,1.0
./expes/v2_2020-11-23_di_200-prng-1,daily_issda_250,250,rng-250,11,rng,num-start-191,191,536,3.0572850704193115,True,,True,1,False,1000,True,1.0
./expes/v2_2020-11-23_di_200-prng-1,daily_issda_250,250,rng-250,241,rng,num-start-31,31,536,0.9292545318603516,True,,True,1,False,1000,True,1.0
./expes/v2_2020-11-23_di_200-prng-1,daily_issda_250,250,rng-250,101,rng,num-start-211,211,536,4.392716646194458,True,,True,1,False,1000,True,1.0
./expes/v2_2020-11-23_di_200-prng-1,daily_issda_250,250,rng-250,81,rng,num-start-141,141,536,2.936940908432007,True,,True,1,False,1000,True,1.0
./expes/v2_2020-11-23_di_200-prng-1,daily_issda_250,250,rng-250,81,rng,num-start-191,191,536,3.6199865341186523,True,,True,1,False,1000,True,1.0
./expes/v2_2020-11-23_di_200-prng-1,daily_issda_250,250,rng-250,161,rng,num-start-161,161,536,3.164687156677246,True,,True,1,False,1000,True,1.0
./expes/v2_2020-11-23_di_200-prng-1,daily_issda_250,250,rng-250,71,rng,num-start-181,181,536,3.313194990158081,True,,True,1,False,1000,True,1.0
./expes/v2_2020-11-23_di_200-prng-1,daily_issda_250,250,rng-250,141,rng,num-start-121,121,536,2.131377935409546,True,,True,1,False,1000,True,1.0
./expes/v2_2020-11-23_di_200-prng-1,daily_issda_250,250,rng-250,151,rng,num-start-101,101,536,4.668981075286865,True,,True,1,False,1000,True,1.0
./expes/v2_2020-11-23_di_200-prng-1,daily_issda_250,250,rng-250,191,rng,num-start-101,101,536,3.0330426692962646,True,,True,1,False,1000,True,1.0
./expes/v2_2020-11-23_di_200-prng-1,daily_issda_250,250,rng-250,51,rng,num-start-141,141,536,2.2582333087921143,True,,True,1,False,1000,True,1.0
./expes/v2_2020-11-23_di_200-prng-1,daily_issda_250,250,rng-250,111,rng,num-start-121,121,536,4.358030080795288,True,,True,1,False,1000,True,1.0
./expes/v2_2020-11-23_di_200-prng-1,daily_issda_250,250,rng-250,121,rng,num-start-51,51,536,1000.8468823432922,False,,False,0,True,1000,True,0.0
./expes/v2_2020-11-23_di_200-prng-1,daily_issda_250,250,rng-250,121,rng,num-start-291,291,536,6.213495969772339,True,,True,1,False,1000,True,1.0
./expes/v2_2020-11-23_di_200-prng-1,daily_issda_250,250,rng-250,41,rng,num-start-261,261,536,4.381158113479614,True,,True,1,False,1000,True,1.0
./expes/v2_2020-11-23_di_200-prng-1,daily_issda_250,250,rng-250,171,rng,num-start-141,141,536,2.560588836669922,True,,True,1,False,1000,True,1.0
./expes/v2_2020-11-23_di_200-prng-1,daily_issda_250,250,rng-250,11,rng,num-start-161,161,536,2.616255521774292,True,,True,1,False,1000,True,1.0
./expes/v2_2020-11-23_di_200-prng-1,daily_issda_250,250,rng-250,221,rng,num-start-291,291,536,4.649803638458252,True,,True,1,False,1000,True,1.0
./expes/v2_2020-11-23_di_200-prng-1,daily_issda_250,250,rng-250,71,rng,num-start-141,141,536,2.360441207885742,True,,True,1,False,1000,True,1.0
./expes/v2_2020-11-23_di_200-prng-1,daily_issda_250,250,rng-250,41,rng,num-start-161,161,536,3.0297164916992188,True,,True,1,False,1000,True,1.0
./expes/v2_2020-11-23_di_200-prng-1,daily_issda_250,250,rng-250,1,rng,num-start-271,271,536,3.106778621673584,True,,True,1,False,1000,True,1.0
./expes/v2_2020-11-23_di_200-prng-1,daily_issda_250,250,rng-250,161,rng,num-start-11,11,536,1000.2071449756622,False,,False,0,True,1000,True,0.0
./expes/v2_2020-11-23_di_200-prng-1,daily_issda_250,250,rng-250,11,rng,num-start-51,51,536,1.0270700454711914,True,,True,1,False,1000,True,1.0
./expes/v2_2020-11-23_di_200-prng-1,daily_issda_250,250,rng-250,101,rng,num-start-191,191,536,3.4770171642303467,True,,True,1,False,1000,True,1.0
./expes/v2_2020-11-23_di_200-prng-1,daily_issda_250,250,rng-250,221,rng,num-start-171,171,536,2.6409404277801514,True,,True,1,False,1000,True,1.0
./expes/v2_2020-11-23_di_200-prng-1,daily_issda_250,250,rng-250,81,rng,num-start-41,41,536,1000.5881249904633,False,,False,0,True,1000,True,0.0
./expes/v2_2020-11-23_di_200-prng-1,daily_issda_250,250,rng-250,131,rng,num-start-71,71,536,1000.8798911571503,False,,False,0,True,1000,True,0.0
./expes/v2_2020-11-23_di_200-prng-1,daily_issda_250,250,rng-250,91,rng,num-start-51,51,536,1000.6570138931274,False,,False,0,True,1000,True,0.0
./expes/v2_2020-11-23_di_200-prng-1,daily_issda_250,250,rng-250,201,rng,num-start-251,251,536,4.760860204696655,True,,True,1,False,1000,True,1.0
./expes/v2_2020-11-23_di_200-prng-1,daily_issda_250,250,rng-250,171,rng,num-start-241,241,536,4.632501602172852,True,,True,1,False,1000,True,1.0
./expes/v2_2020-11-23_di_200-prng-1,daily_issda_250,250,rng-250,201,rng,num-start-81,81,536,2.8773257732391357,True,,True,1,False,1000,True,1.0
./expes/v2_2020-11-23_di_200-prng-1,daily_issda_250,250,rng-250,61,rng,num-start-241,241,536,4.865910768508911,True,,True,1,False,1000,True,1.0
./expes/v2_2020-11-23_di_200-prng-1,daily_issda_250,250,rng-250,21,rng,num-start-111,111,536,2.007352352142334,True,,True,1,False,1000,True,1.0
./expes/v2_2020-11-23_di_200-prng-1,daily_issda_250,250,rng-250,151,rng,num-start-251,251,536,5.026988506317139,True,,True,1,False,1000,True,1.0
./expes/v2_2020-11-23_di_200-prng-1,daily_issda_250,250,rng-250,141,rng,num-start-71,71,536,1001.0095376968384,False,,False,0,True,1000,True,0.0
./expes/v2_2020-11-23_di_200-prng-1,daily_issda_250,250,rng-250,41,rng,num-start-271,271,536,4.891981601715088,True,,True,1,False,1000,True,1.0
./expes/v2_2020-11-23_di_200-prng-1,daily_issda_250,250,rng-250,31,rng,num-start-101,101,536,1.6855392456054688,True,,True,1,False,1000,True,1.0
./expes/v2_2020-11-23_di_200-prng-1,daily_issda_250,250,rng-250,121,rng,num-start-141,141,536,2.8414905071258545,True,,True,1,False,1000,True,1.0
./expes/v2_2020-11-23_di_200-prng-1,daily_issda_250,250,rng-250,51,rng,num-start-151,151,536,2.5527026653289795,True,,True,1,False,1000,True,1.0
./expes/v2_2020-11-23_di_200-prng-1,daily_issda_250,250,rng-250,31,rng,num-start-161,161,536,2.7954909801483154,True,,True,1,False,1000,True,1.0
./expes/v2_2020-11-23_di_200-prng-1,daily_issda_250,250,rng-250,181,rng,num-start-1,1,536,2.1095826625823975,False,,False,2,False,1000,True,1.0
./expes/v2_2020-11-23_di_200-prng-1,daily_issda_250,250,rng-250,21,rng,num-start-291,291,536,4.686108589172363,True,,True,1,False,1000,True,1.0
./expes/v2_2020-11-23_di_200-prng-1,daily_issda_250,250,rng-250,211,rng,num-start-211,211,536,3.431006908416748,True,,True,1,False,1000,True,1.0
./expes/v2_2020-11-23_di_200-prng-1,daily_issda_250,250,rng-250,41,rng,num-start-281,281,536,5.043935775756836,True,,True,1,False,1000,True,1.0
./expes/v2_2020-11-23_di_200-prng-1,daily_issda_250,250,rng-250,151,rng,num-start-131,131,536,2.445448160171509,True,,True,1,False,1000,True,1.0
./expes/v2_2020-11-23_di_200-prng-1,daily_issda_250,250,rng-250,231,rng,num-start-251,251,536,4.0199291706085205,True,,True,1,False,1000,True,1.0
./expes/v2_2020-11-23_di_200-prng-1,daily_issda_250,250,rng-250,61,rng,num-start-91,91,536,3.4847192764282227,True,,True,1,False,1000,True,1.0
./expes/v2_2020-11-23_di_200-prng-1,daily_issda_250,250,rng-250,201,rng,num-start-291,291,536,5.15444803237915,True,,True,1,False,1000,True,1.0
./expes/v2_2020-11-23_di_200-prng-1,daily_issda_250,250,rng-250,11,rng,num-start-91,91,536,1.3406305313110352,True,,True,1,False,1000,True,1.0
./expes/v2_2020-11-23_di_200-prng-1,daily_issda_250,250,rng-250,61,rng,num-start-71,71,536,1000.9630315303802,False,,False,1,True,1000,True,0.0
./expes/v2_2020-11-23_di_200-prng-1,daily_issda_250,250,rng-250,151,rng,num-start-151,151,536,2.918762683868408,True,,True,1,False,1000,True,1.0
./expes/v2_2020-11-23_di_200-prng-1,daily_issda_250,250,rng-250,241,rng,num-start-241,241,536,3.599553108215332,True,,True,1,False,1000,True,1.0
./expes/v2_2020-11-23_di_200-prng-1,daily_issda_250,250,rng-250,101,rng,num-start-61,61,536,1000.8617236614227,False,,False,0,True,1000,True,0.0
./expes/v2_2020-11-23_di_200-prng-1,daily_issda_250,250,rng-250,11,rng,num-start-81,81,536,1.3350026607513428,True,,True,1,False,1000,True,1.0
./expes/v2_2020-11-23_di_200-prng-1,daily_issda_250,250,rng-250,211,rng,num-start-171,171,536,2.7635085582733154,True,,True,1,False,1000,True,1.0
./expes/v2_2020-11-23_di_200-prng-1,daily_issda_250,250,rng-250,111,rng,num-start-161,161,536,3.0567309856414795,True,,True,1,False,1000,True,1.0
./expes/v2_2020-11-23_di_200-prng-1,daily_issda_250,250,rng-250,71,rng,num-start-111,111,536,4.418655157089233,True,,True,1,False,1000,True,1.0
./expes/v2_2020-11-23_di_200-prng-1,daily_issda_250,250,rng-250,231,rng,num-start-261,261,536,3.8523688316345215,True,,True,1,False,1000,True,1.0
./expes/v2_2020-11-23_di_200-prng-1,daily_issda_250,250,rng-250,131,rng,num-start-61,61,536,1000.8218262195587,False,,False,0,True,1000,True,0.0
./expes/v2_2020-11-23_di_200-prng-1,daily_issda_250,250,rng-250,71,rng,num-start-31,31,536,1000.3942341804504,False,,False,0,True,1000,True,0.0
./expes/v2_2020-11-23_di_200-prng-1,daily_issda_250,250,rng-250,161,rng,num-start-201,201,536,3.626915216445923,True,,True,1,False,1000,True,1.0
./expes/v2_2020-11-23_di_200-prng-1,daily_issda_250,250,rng-250,241,rng,num-start-1,1,536,0.43134236335754395,False,,False,2,False,1000,True,1.0
./expes/v2_2020-11-23_di_200-prng-1,daily_issda_250,250,rng-250,91,rng,num-start-261,261,536,5.235296010971069,True,,True,1,False,1000,True,1.0
./expes/v2_2020-11-23_di_200-prng-1,daily_issda_250,250,rng-250,191,rng,num-start-81,81,536,3.5554707050323486,True,,True,1,False,1000,True,1.0
./expes/v2_2020-11-23_di_200-prng-1,daily_issda_250,250,rng-250,191,rng,num-start-11,11,536,1000.191376209259,False,,False,0,True,1000,True,0.0
./expes/v2_2020-11-23_di_200-prng-1,daily_issda_250,250,rng-250,211,rng,num-start-271,271,536,4.5607757568359375,True,,True,1,False,1000,True,1.0
./expes/v2_2020-11-23_di_200-prng-1,daily_issda_250,250,rng-250,201,rng,num-start-1,1,536,1.8994877338409424,False,,False,2,False,1000,True,1.0
./expes/v2_2020-11-23_di_200-prng-1,daily_issda_250,250,rng-250,111,rng,num-start-151,151,536,2.932708740234375,True,,True,1,False,1000,True,1.0
./expes/v2_2020-11-23_di_200-prng-1,daily_issda_250,250,rng-250,231,rng,num-start-261,261,536,4.2702412605285645,True,,True,1,False,1000,True,1.0
./expes/v2_2020-11-23_di_200-prng-1,daily_issda_250,250,rng-250,201,rng,num-start-131,131,536,2.034233808517456,True,,True,1,False,1000,True,1.0
./expes/v2_2020-11-23_di_200-prng-1,daily_issda_250,250,rng-250,81,rng,num-start-191,191,536,3.625746965408325,True,,True,1,False,1000,True,1.0
./expes/v2_2020-11-23_di_200-prng-1,daily_issda_250,250,rng-250,121,rng,num-start-21,21,536,1000.2693319320679,False,,False,0,True,1000,True,0.0
./expes/v2_2020-11-23_di_200-prng-1,daily_issda_250,250,rng-250,41,rng,num-start-201,201,536,3.593834400177002,True,,True,1,False,1000,True,1.0
./expes/v2_2020-11-23_di_200-prng-1,daily_issda_250,250,rng-250,81,rng,num-start-181,181,536,3.623776912689209,True,,True,1,False,1000,True,1.0
./expes/v2_2020-11-23_di_200-prng-1,daily_issda_250,250,rng-250,181,rng,num-start-81,81,536,3.3666772842407227,True,,True,1,False,1000,True,1.0
./expes/v2_2020-11-23_di_200-prng-1,daily_issda_250,250,rng-250,111,rng,num-start-101,101,536,3.4267377853393555,True,,True,1,False,1000,True,1.0
./expes/v2_2020-11-23_di_200-prng-1,daily_issda_250,250,rng-250,151,rng,num-start-191,191,536,4.137670993804932,True,,True,1,False,1000,True,1.0
./expes/v2_2020-11-23_di_200-prng-1,daily_issda_250,250,rng-250,141,rng,num-start-221,221,536,4.807719945907593,True,,True,1,False,1000,True,1.0
./expes/v2_2020-11-23_di_200-prng-1,daily_issda_250,250,rng-250,101,rng,num-start-261,261,536,5.374619722366333,True,,True,1,False,1000,True,1.0
./expes/v2_2020-11-23_di_200-prng-1,daily_issda_250,250,rng-250,81,rng,num-start-21,21,536,1000.3284025192261,False,,False,0,True,1000,True,0.0
./expes/v2_2020-11-23_di_200-prng-1,daily_issda_250,250,rng-250,101,rng,num-start-61,61,536,1000.8617520332336,False,,False,0,True,1000,True,0.0
./expes/v2_2020-11-23_di_200-prng-1,daily_issda_250,250,rng-250,81,rng,num-start-91,91,536,4.811661243438721,True,,True,1,False,1000,True,1.0
./expes/v2_2020-11-23_di_200-prng-1,daily_issda_250,250,rng-250,41,rng,num-start-61,61,536,2.1722278594970703,True,,True,1,False,1000,True,1.0
./expes/v2_2020-11-23_di_200-prng-1,daily_issda_250,250,rng-250,51,rng,num-start-291,291,536,5.441695213317871,True,,True,1,False,1000,True,1.0
./expes/v2_2020-11-23_di_200-prng-1,daily_issda_250,250,rng-250,51,rng,num-start-291,291,536,4.767164468765259,True,,True,1,False,1000,True,1.0
./expes/v2_2020-11-23_di_200-prng-1,daily_issda_250,250,rng-250,201,rng,num-start-291,291,536,4.104327440261841,True,,True,1,False,1000,True,1.0
./expes/v2_2020-11-23_di_200-prng-1,daily_issda_250,250,rng-250,51,rng,num-start-141,141,536,2.6515259742736816,True,,True,1,False,1000,True,1.0
./expes/v2_2020-11-23_di_200-prng-1,daily_issda_250,250,rng-250,111,rng,num-start-271,271,536,5.517142295837402,True,,True,1,False,1000,True,1.0
./expes/v2_2020-11-23_di_200-prng-1,daily_issda_250,250,rng-250,21,rng,num-start-101,101,536,1.6771085262298584,True,,True,1,False,1000,True,1.0
./expes/v2_2020-11-23_di_200-prng-1,daily_issda_250,250,rng-250,201,rng,num-start-41,41,536,1000.5389597415924,False,,False,0,True,1000,True,0.0
./expes/v2_2020-11-23_di_200-prng-1,daily_issda_250,250,rng-250,81,rng,num-start-181,181,536,3.554144859313965,True,,True,1,False,1000,True,1.0
./expes/v2_2020-11-23_di_200-prng-1,daily_issda_250,250,rng-250,231,rng,num-start-231,231,536,3.8286590576171875,True,,True,1,False,1000,True,1.0
./expes/v2_2020-11-23_di_200-prng-1,daily_issda_250,250,rng-250,151,rng,num-start-71,71,536,1000.8485538959503,False,,False,0,True,1000,True,0.0
./expes/v2_2020-11-23_di_200-prng-1,daily_issda_250,250,rng-250,21,rng,num-start-201,201,536,3.634660482406616,True,,True,1,False,1000,True,1.0
./expes/v2_2020-11-23_di_200-prng-1,daily_issda_250,250,rng-250,151,rng,num-start-151,151,536,3.263165235519409,True,,True,1,False,1000,True,1.0
./expes/v2_2020-11-23_di_200-prng-1,daily_issda_250,250,rng-250,181,rng,num-start-151,151,536,3.1178650856018066,True,,True,1,False,1000,True,1.0
./expes/v2_2020-11-23_di_200-prng-1,daily_issda_250,250,rng-250,191,rng,num-start-141,141,536,2.5021796226501465,True,,True,1,False,1000,True,1.0
./expes/v2_2020-11-23_di_200-prng-1,daily_issda_250,250,rng-250,141,rng,num-start-291,291,536,5.511642932891846,True,,True,1,False,1000,True,1.0
./expes/v2_2020-11-23_di_200-prng-1,daily_issda_250,250,rng-250,101,rng,num-start-241,241,536,5.109612703323364,True,,True,1,False,1000,True,1.0
./expes/v2_2020-11-23_di_200-prng-1,daily_issda_250,250,rng-250,111,rng,num-start-271,271,536,6.118807792663574,True,,True,1,False,1000,True,1.0
./expes/v2_2020-11-23_di_200-prng-1,daily_issda_250,250,rng-250,241,rng,num-start-41,41,536,0.722916841506958,True,,True,1,False,1000,True,1.0
./expes/v2_2020-11-23_di_200-prng-1,daily_issda_250,250,rng-250,61,rng,num-start-261,261,536,5.663086652755737,True,,True,1,False,1000,True,1.0
./expes/v2_2020-11-23_di_200-prng-1,daily_issda_250,250,rng-250,231,rng,num-start-271,271,536,4.702827215194702,True,,True,1,False,1000,True,1.0
./expes/v2_2020-11-23_di_200-prng-1,daily_issda_250,250,rng-250,201,rng,num-start-181,181,536,2.999833822250366,True,,True,1,False,1000,True,1.0
./expes/v2_2020-11-23_di_200-prng-1,daily_issda_250,250,rng-250,21,rng,num-start-141,141,536,2.4207849502563477,True,,True,1,False,1000,True,1.0
./expes/v2_2020-11-23_di_200-prng-1,daily_issda_250,250,rng-250,131,rng,num-start-111,111,536,3.8358314037323,True,,True,1,False,1000,True,1.0
./expes/v2_2020-11-23_di_200-prng-1,daily_issda_250,250,rng-250,241,rng,num-start-291,291,536,3.868532657623291,True,,True,1,False,1000,True,1.0
./expes/v2_2020-11-23_di_200-prng-1,daily_issda_250,250,rng-250,181,rng,num-start-91,91,536,4.52587628364563,True,,True,1,False,1000,True,1.0
./expes/v2_2020-11-23_di_200-prng-1,daily_issda_250,250,rng-250,51,rng,num-start-161,161,536,3.2432525157928467,True,,True,1,False,1000,True,1.0
./expes/v2_2020-11-23_di_200-prng-1,daily_issda_250,250,rng-250,211,rng,num-start-201,201,536,3.6518898010253906,True,,True,1,False,1000,True,1.0
./expes/v2_2020-11-23_di_200-prng-1,daily_issda_250,250,rng-250,11,rng,num-start-211,211,536,3.4988393783569336,True,,True,1,False,1000,True,1.0
./expes/v2_2020-11-23_di_200-prng-1,daily_issda_250,250,rng-250,141,rng,num-start-101,101,536,4.113307476043701,True,,True,1,False,1000,True,1.0
./expes/v2_2020-11-23_di_200-prng-1,daily_issda_250,250,rng-250,71,rng,num-start-51,51,536,1000.675582408905,False,,False,0,True,1000,True,0.0
./expes/v2_2020-11-23_di_200-prng-1,daily_issda_250,250,rng-250,111,rng,num-start-91,91,536,72.68315815925598,True,,True,1,False,1000,True,1.0
./expes/v2_2020-11-23_di_200-prng-1,daily_issda_250,250,rng-250,101,rng,num-start-111,111,536,7.088174819946289,True,,True,1,False,1000,True,1.0
./expes/v2_2020-11-23_di_200-prng-1,daily_issda_250,250,rng-250,221,rng,num-start-181,181,536,3.2097558975219727,True,,True,1,False,1000,True,1.0
./expes/v2_2020-11-23_di_200-prng-1,daily_issda_250,250,rng-250,51,rng,num-start-71,71,536,2.6846227645874023,True,,True,1,False,1000,True,1.0
./expes/v2_2020-11-23_di_200-prng-1,daily_issda_250,250,rng-250,91,rng,num-start-71,71,536,1001.0052855014801,False,,False,0,True,1000,True,0.0
./expes/v2_2020-11-23_di_200-prng-1,daily_issda_250,250,rng-250,41,rng,num-start-1,1,536,0.8750967979431152,False,,False,2,False,1000,True,1.0
./expes/v2_2020-11-23_di_200-prng-1,daily_issda_250,250,rng-250,151,rng,num-start-261,261,536,5.404754877090454,True,,True,1,False,1000,True,1.0
./expes/v2_2020-11-23_di_200-prng-1,daily_issda_250,250,rng-250,31,rng,num-start-61,61,536,2.422555446624756,True,,True,1,False,1000,True,1.0
./expes/v2_2020-11-23_di_200-prng-1,daily_issda_250,250,rng-250,151,rng,num-start-181,181,536,4.143891096115112,True,,True,1,False,1000,True,1.0
./expes/v2_2020-11-23_di_200-prng-1,daily_issda_250,250,rng-250,241,rng,num-start-41,41,536,0.6517937183380127,True,,True,1,False,1000,True,1.0
./expes/v2_2020-11-23_di_200-prng-1,daily_issda_250,250,rng-250,121,rng,num-start-151,151,536,3.0439298152923584,True,,True,1,False,1000,True,1.0
./expes/v2_2020-11-23_di_200-prng-1,daily_issda_250,250,rng-250,81,rng,num-start-291,291,536,5.45153546333313,True,,True,1,False,1000,True,1.0
./expes/v2_2020-11-23_di_200-prng-1,daily_issda_250,250,rng-250,161,rng,num-start-231,231,536,4.860151052474976,True,,True,1,False,1000,True,1.0
./expes/v2_2020-11-23_di_200-prng-1,daily_issda_250,250,rng-250,151,rng,num-start-261,261,536,5.682514905929565,True,,True,1,False,1000,True,1.0
./expes/v2_2020-11-23_di_200-prng-1,daily_issda_250,250,rng-250,11,rng,num-start-71,71,536,1.3448495864868164,True,,True,1,False,1000,True,1.0
./expes/v2_2020-11-23_di_200-prng-1,daily_issda_250,250,rng-250,61,rng,num-start-251,251,536,5.023339033126831,True,,True,1,False,1000,True,1.0
./expes/v2_2020-11-23_di_200-prng-1,daily_issda_250,250,rng-250,51,rng,num-start-261,261,536,3.981491804122925,True,,True,1,False,1000,True,1.0
./expes/v2_2020-11-23_di_200-prng-1,daily_issda_250,250,rng-250,141,rng,num-start-141,141,536,3.1567771434783936,True,,True,1,False,1000,True,1.0
./expes/v2_2020-11-23_di_200-prng-1,daily_issda_250,250,rng-250,231,rng,num-start-201,201,536,3.0506372451782227,True,,True,1,False,1000,True,1.0
./expes/v2_2020-11-23_di_200-prng-1,daily_issda_250,250,rng-250,21,rng,num-start-61,61,536,1.1596503257751465,True,,True,1,False,1000,True,1.0
./expes/v2_2020-11-23_di_200-prng-1,daily_issda_250,250,rng-250,131,rng,num-start-71,71,536,1000.8822214603424,False,,False,0,True,1000,True,0.0
./expes/v2_2020-11-23_di_200-prng-1,daily_issda_250,250,rng-250,221,rng,num-start-11,11,536,1000.4997935295105,False,,False,0,True,1000,True,0.0
./expes/v2_2020-11-23_di_200-prng-1,daily_issda_250,250,rng-250,101,rng,num-start-131,131,536,2.8626058101654053,True,,True,1,False,1000,True,1.0
./expes/v2_2020-11-23_di_200-prng-1,daily_issda_250,250,rng-250,151,rng,num-start-181,181,536,3.5154318809509277,True,,True,1,False,1000,True,1.0
./expes/v2_2020-11-23_di_200-prng-1,daily_issda_250,250,rng-250,151,rng,num-start-281,281,536,5.085238456726074,True,,True,1,False,1000,True,1.0
./expes/v2_2020-11-23_di_200-prng-1,daily_issda_250,250,rng-250,211,rng,num-start-1,1,536,1.8854186534881592,False,,False,2,False,1000,True,1.0
./expes/v2_2020-11-23_di_200-prng-1,daily_issda_250,250,rng-250,121,rng,num-start-21,21,536,1000.3179941177368,False,,False,0,True,1000,True,0.0
./expes/v2_2020-11-23_di_200-prng-1,daily_issda_250,250,rng-250,211,rng,num-start-111,111,536,1.841156005859375,True,,True,1,False,1000,True,1.0
./expes/v2_2020-11-23_di_200-prng-1,daily_issda_250,250,rng-250,151,rng,num-start-111,111,536,5.199284315109253,True,,True,1,False,1000,True,1.0
./expes/v2_2020-11-23_di_200-prng-1,daily_issda_250,250,rng-250,241,rng,num-start-81,81,536,1.249035358428955,True,,True,1,False,1000,True,1.0
./expes/v2_2020-11-23_di_200-prng-1,daily_issda_250,250,rng-250,81,rng,num-start-11,11,536,1000.212543964386,False,,False,0,True,1000,True,0.0
./expes/v2_2020-11-23_di_200-prng-1,daily_issda_250,250,rng-250,211,rng,num-start-271,271,536,4.658718109130859,True,,True,1,False,1000,True,1.0
./expes/v2_2020-11-23_di_200-prng-1,daily_issda_250,250,rng-250,1,rng,num-start-31,31,536,0.39162683486938477,True,,True,1,False,1000,True,1.0
./expes/v2_2020-11-23_di_200-prng-1,daily_issda_250,250,rng-250,231,rng,num-start-281,281,536,4.3555755615234375,True,,True,1,False,1000,True,1.0
./expes/v2_2020-11-23_di_200-prng-1,daily_issda_250,250,rng-250,61,rng,num-start-271,271,536,4.534516096115112,True,,True,1,False,1000,True,1.0
./expes/v2_2020-11-23_di_200-prng-1,daily_issda_250,250,rng-250,181,rng,num-start-11,11,536,1000.324214220047,False,,False,0,True,1000,True,0.0
./expes/v2_2020-11-23_di_200-prng-1,daily_issda_250,250,rng-250,31,rng,num-start-191,191,536,3.265282154083252,True,,True,1,False,1000,True,1.0
./expes/v2_2020-11-23_di_200-prng-1,daily_issda_250,250,rng-250,21,rng,num-start-131,131,536,2.238389015197754,True,,True,1,False,1000,True,1.0
./expes/v2_2020-11-23_di_200-prng-1,daily_issda_250,250,rng-250,41,rng,num-start-21,21,536,1000.6422653198242,False,,False,0,True,1000,True,0.0
./expes/v2_2020-11-23_di_200-prng-1,daily_issda_250,250,rng-250,131,rng,num-start-241,241,536,4.257761240005493,True,,True,1,False,1000,True,1.0
./expes/v2_2020-11-23_di_200-prng-1,daily_issda_250,250,rng-250,21,rng,num-start-271,271,536,4.7190093994140625,True,,True,1,False,1000,True,1.0
./expes/v2_2020-11-23_di_200-prng-1,daily_issda_250,250,rng-250,121,rng,num-start-81,81,536,1001.0845246315002,False,,False,0,True,1000,True,0.0
./expes/v2_2020-11-23_di_200-prng-1,daily_issda_250,250,rng-250,221,rng,num-start-131,131,536,2.366670608520508,True,,True,1,False,1000,True,1.0
./expes/v2_2020-11-23_di_200-prng-1,daily_issda_250,250,rng-250,101,rng,num-start-231,231,536,4.341526031494141,True,,True,1,False,1000,True,1.0
./expes/v2_2020-11-23_di_200-prng-1,daily_issda_250,250,rng-250,201,rng,num-start-111,111,536,1.911273717880249,True,,True,1,False,1000,True,1.0
./expes/v2_2020-11-23_di_200-prng-1,daily_issda_250,250,rng-250,101,rng,num-start-101,101,536,7.218969345092773,True,,True,1,False,1000,True,1.0
./expes/v2_2020-11-23_di_200-prng-1,daily_issda_250,250,rng-250,1,rng,num-start-201,201,536,2.415282964706421,True,,True,1,False,1000,True,1.0
./expes/v2_2020-11-23_di_200-prng-1,daily_issda_250,250,rng-250,101,rng,num-start-181,181,536,3.744418144226074,True,,True,1,False,1000,True,1.0
./expes/v2_2020-11-23_di_200-prng-1,daily_issda_250,250,rng-250,191,rng,num-start-31,31,536,1000.493043422699,False,,False,0,True,1000,True,0.0
./expes/v2_2020-11-23_di_200-prng-1,daily_issda_250,250,rng-250,41,rng,num-start-161,161,536,2.5545783042907715,True,,True,1,False,1000,True,1.0
./expes/v2_2020-11-23_di_200-prng-1,daily_issda_250,250,rng-250,221,rng,num-start-191,191,536,3.398427963256836,True,,True,1,False,1000,True,1.0
./expes/v2_2020-11-23_di_200-prng-1,daily_issda_250,250,rng-250,201,rng,num-start-131,131,536,2.434051990509033,True,,True,1,False,1000,True,1.0
./expes/v2_2020-11-23_di_200-prng-1,daily_issda_250,250,rng-250,191,rng,num-start-41,41,536,1000.788182258606,False,,False,0,True,1000,True,0.0
./expes/v2_2020-11-23_di_200-prng-1,daily_issda_250,250,rng-250,171,rng,num-start-151,151,536,2.597290277481079,True,,True,1,False,1000,True,1.0
./expes/v2_2020-11-23_di_200-prng-1,daily_issda_250,250,rng-250,111,rng,num-start-251,251,536,5.0732245445251465,True,,True,1,False,1000,True,1.0
./expes/v2_2020-11-23_di_200-prng-1,daily_issda_250,250,rng-250,151,rng,num-start-11,11,536,1000.2462155818939,False,,False,0,True,1000,True,0.0
./expes/v2_2020-11-23_di_200-prng-1,daily_issda_250,250,rng-250,111,rng,num-start-41,41,536,1000.9534432888031,False,,False,0,True,1000,True,0.0
./expes/v2_2020-11-23_di_200-prng-1,daily_issda_250,250,rng-250,31,rng,num-start-141,141,536,2.3799755573272705,True,,True,1,False,1000,True,1.0
./expes/v2_2020-11-23_di_200-prng-1,daily_issda_250,250,rng-250,61,rng,num-start-91,91,536,2.131769895553589,True,,True,1,False,1000,True,1.0
./expes/v2_2020-11-23_di_200-prng-1,daily_issda_250,250,rng-250,161,rng,num-start-1,1,536,1.2611827850341797,False,,False,2,False,1000,True,0.0
./expes/v2_2020-11-23_di_200-prng-1,daily_issda_250,250,rng-250,61,rng,num-start-221,221,536,4.312830448150635,True,,True,1,False,1000,True,1.0
./expes/v2_2020-11-23_di_200-prng-1,daily_issda_250,250,rng-250,91,rng,num-start-181,181,536,3.413163185119629,True,,True,1,False,1000,True,1.0
./expes/v2_2020-11-23_di_200-prng-1,daily_issda_250,250,rng-250,31,rng,num-start-291,291,536,4.233302593231201,True,,True,1,False,1000,True,1.0
./expes/v2_2020-11-23_di_200-prng-1,daily_issda_250,250,rng-250,71,rng,num-start-171,171,536,3.2825663089752197,True,,True,1,False,1000,True,1.0
./expes/v2_2020-11-23_di_200-prng-1,daily_issda_250,250,rng-250,221,rng,num-start-271,271,536,4.117957830429077,True,,True,1,False,1000,True,1.0
./expes/v2_2020-11-23_di_200-prng-1,daily_issda_250,250,rng-250,131,rng,num-start-11,11,536,1000.1758840084076,False,,False,0,True,1000,True,0.0
./expes/v2_2020-11-23_di_200-prng-1,daily_issda_250,250,rng-250,61,rng,num-start-91,91,536,3.140932083129883,True,,True,1,False,1000,True,1.0
./expes/v2_2020-11-23_di_200-prng-1,daily_issda_250,250,rng-250,161,rng,num-start-131,131,536,2.713040351867676,True,,True,1,False,1000,True,1.0
./expes/v2_2020-11-23_di_200-prng-1,daily_issda_250,250,rng-250,121,rng,num-start-111,111,536,2.245035171508789,True,,True,1,False,1000,True,1.0
./expes/v2_2020-11-23_di_200-prng-1,daily_issda_250,250,rng-250,61,rng,num-start-181,181,536,3.4462451934814453,True,,True,1,False,1000,True,1.0
./expes/v2_2020-11-23_di_200-prng-1,daily_issda_250,250,rng-250,191,rng,num-start-101,101,536,2.3865106105804443,True,,True,1,False,1000,True,1.0
./expes/v2_2020-11-23_di_200-prng-1,daily_issda_250,250,rng-250,181,rng,num-start-191,191,536,3.651926279067993,True,,True,1,False,1000,True,1.0
./expes/v2_2020-11-23_di_200-prng-1,daily_issda_250,250,rng-250,231,rng,num-start-11,11,536,1000.7064607143402,False,,False,0,True,1000,True,0.0
./expes/v2_2020-11-23_di_200-prng-1,daily_issda_250,250,rng-250,181,rng,num-start-151,151,536,2.939762830734253,True,,True,1,False,1000,True,1.0
./expes/v2_2020-11-23_di_200-prng-1,daily_issda_250,250,rng-250,191,rng,num-start-41,41,536,1000.6172723770142,False,,False,0,True,1000,True,0.0
./expes/v2_2020-11-23_di_200-prng-1,daily_issda_250,250,rng-250,181,rng,num-start-81,81,536,13.230997085571289,True,,True,1,False,1000,True,1.0
./expes/v2_2020-11-23_di_200-prng-1,daily_issda_250,250,rng-250,101,rng,num-start-131,131,536,2.6296868324279785,True,,True,1,False,1000,True,1.0
./expes/v2_2020-11-23_di_200-prng-1,daily_issda_250,250,rng-250,181,rng,num-start-71,71,536,1000.9060480594635,False,,False,1,True,1000,True,0.0
./expes/v2_2020-11-23_di_200-prng-1,daily_issda_250,250,rng-250,51,rng,num-start-151,151,536,3.060549736022949,True,,True,1,False,1000,True,1.0
./expes/v2_2020-11-23_di_200-prng-1,daily_issda_250,250,rng-250,41,rng,num-start-31,31,536,1000.4358093738556,False,,False,0,True,1000,True,0.0
./expes/v2_2020-11-23_di_200-prng-1,daily_issda_250,250,rng-250,231,rng,num-start-101,101,536,1.7738406658172607,True,,True,1,False,1000,True,1.0
./expes/v2_2020-11-23_di_200-prng-1,daily_issda_250,250,rng-250,61,rng,num-start-221,221,536,4.431190013885498,True,,True,1,False,1000,True,1.0
./expes/v2_2020-11-23_di_200-prng-1,daily_issda_250,250,rng-250,161,rng,num-start-291,291,536,5.240553855895996,True,,True,1,False,1000,True,1.0
./expes/v2_2020-11-23_di_200-prng-1,daily_issda_250,250,rng-250,21,rng,num-start-51,51,536,1.5351910591125488,True,,True,1,False,1000,True,1.0
./expes/v2_2020-11-23_di_200-prng-1,daily_issda_250,250,rng-250,221,rng,num-start-151,151,536,2.7189114093780518,True,,True,1,False,1000,True,1.0
./expes/v2_2020-11-23_di_200-prng-1,daily_issda_250,250,rng-250,101,rng,num-start-141,141,536,2.9490365982055664,True,,True,1,False,1000,True,1.0
./expes/v2_2020-11-23_di_200-prng-1,daily_issda_250,250,rng-250,21,rng,num-start-191,191,536,3.8260090351104736,True,,True,1,False,1000,True,1.0
./expes/v2_2020-11-23_di_200-prng-1,daily_issda_250,250,rng-250,81,rng,num-start-101,101,536,1.8735747337341309,True,,True,1,False,1000,True,1.0
./expes/v2_2020-11-23_di_200-prng-1,daily_issda_250,250,rng-250,101,rng,num-start-61,61,536,1000.806604385376,False,,False,0,True,1000,True,0.0
./expes/v2_2020-11-23_di_200-prng-1,daily_issda_250,250,rng-250,131,rng,num-start-81,81,536,889.1647491455078,True,,True,1,False,1000,True,1.0
./expes/v2_2020-11-23_di_200-prng-1,daily_issda_250,250,rng-250,51,rng,num-start-81,81,536,2.7835071086883545,True,,True,1,False,1000,True,1.0
./expes/v2_2020-11-23_di_200-prng-1,daily_issda_250,250,rng-250,211,rng,num-start-31,31,536,1000.4706230163574,False,,False,0,True,1000,True,0.0
./expes/v2_2020-11-23_di_200-prng-1,daily_issda_250,250,rng-250,191,rng,num-start-91,91,536,2.8081507682800293,True,,True,1,False,1000,True,1.0
./expes/v2_2020-11-23_di_200-prng-1,daily_issda_250,250,rng-250,91,rng,num-start-281,281,536,4.634982585906982,True,,True,1,False,1000,True,1.0
./expes/v2_2020-11-23_di_200-prng-1,daily_issda_250,250,rng-250,211,rng,num-start-111,111,536,2.067138910293579,True,,True,1,False,1000,True,1.0
./expes/v2_2020-11-23_di_200-prng-1,daily_issda_250,250,rng-250,201,rng,num-start-211,211,536,3.40818452835083,True,,True,1,False,1000,True,1.0
./expes/v2_2020-11-23_di_200-prng-1,daily_issda_250,250,rng-250,11,rng,num-start-231,231,536,4.720515251159668,True,,True,1,False,1000,True,1.0
./expes/v2_2020-11-23_di_200-prng-1,daily_issda_250,250,rng-250,231,rng,num-start-181,181,536,3.071739673614502,True,,True,1,False,1000,True,1.0
./expes/v2_2020-11-23_di_200-prng-1,daily_issda_250,250,rng-250,51,rng,num-start-241,241,536,4.2771759033203125,True,,True,1,False,1000,True,1.0
./expes/v2_2020-11-23_di_200-prng-1,daily_issda_250,250,rng-250,211,rng,num-start-121,121,536,2.1166861057281494,True,,True,1,False,1000,True,1.0
./expes/v2_2020-11-23_di_200-prng-1,daily_issda_250,250,rng-250,241,rng,num-start-291,291,536,4.9834513664245605,True,,True,1,False,1000,True,1.0
./expes/v2_2020-11-23_di_200-prng-1,daily_issda_250,250,rng-250,71,rng,num-start-291,291,536,5.642148971557617,True,,True,1,False,1000,True,1.0
./expes/v2_2020-11-23_di_200-prng-1,daily_issda_250,250,rng-250,1,rng,num-start-71,71,536,0.8119864463806152,True,,True,1,False,1000,True,1.0
./expes/v2_2020-11-23_di_200-prng-1,daily_issda_250,250,rng-250,191,rng,num-start-241,241,536,4.777037858963013,True,,True,1,False,1000,True,1.0
./expes/v2_2020-11-23_di_200-prng-1,daily_issda_250,250,rng-250,151,rng,num-start-121,121,536,2.4789419174194336,True,,True,1,False,1000,True,1.0
./expes/v2_2020-11-23_di_200-prng-1,daily_issda_250,250,rng-250,221,rng,num-start-51,51,536,3.799316167831421,True,,True,1,False,1000,True,1.0
./expes/v2_2020-11-23_di_200-prng-1,daily_issda_250,250,rng-250,51,rng,num-start-191,191,536,3.6993284225463867,True,,True,1,False,1000,True,1.0
./expes/v2_2020-11-23_di_200-prng-1,daily_issda_250,250,rng-250,181,rng,num-start-171,171,536,3.2607650756835938,True,,True,1,False,1000,True,1.0
./expes/v2_2020-11-23_di_200-prng-1,daily_issda_250,250,rng-250,141,rng,num-start-201,201,536,4.349442005157471,True,,True,1,False,1000,True,1.0
./expes/v2_2020-11-23_di_200-prng-1,daily_issda_250,250,rng-250,51,rng,num-start-151,151,536,2.9158687591552734,True,,True,1,False,1000,True,1.0
./expes/v2_2020-11-23_di_200-prng-1,daily_issda_250,250,rng-250,221,rng,num-start-21,21,536,1000.6200976371765,False,,False,0,True,1000,True,0.0
./expes/v2_2020-11-23_di_200-prng-1,daily_issda_250,250,rng-250,221,rng,num-start-161,161,536,2.8538613319396973,True,,True,1,False,1000,True,1.0
./expes/v2_2020-11-23_di_200-prng-1,daily_issda_250,250,rng-250,201,rng,num-start-91,91,536,2.342567205429077,True,,True,1,False,1000,True,1.0
./expes/v2_2020-11-23_di_200-prng-1,daily_issda_250,250,rng-250,181,rng,num-start-291,291,536,5.2181396484375,True,,True,1,False,1000,True,1.0
./expes/v2_2020-11-23_di_200-prng-1,daily_issda_250,250,rng-250,171,rng,num-start-41,41,536,1000.7283384799957,False,,False,0,True,1000,True,0.0
