expe,clients,clients_size,clients_subset,agg_size,agg_size_pc,method,days,days_size,days_total,noise_method,time,valid,valid_sum,success,score_avg,score_min,score_max,nsols,oracle,wall_hit,wall_time,pooled,pool_size,uuid,infeasible,optimal,valid_sums
./expes/v2_2021-03-19_issda-30_2000-prng-1-w5-p2,30_issda-2000,2000,first-2000,500,25,rng,num-start-1000,1000,25726,classic,3420.30482506752,True,,True,1.0,1.0,1.0,1,"['2', '8', '11', '12', '14', '15', '17', '18', '25', '27', '31', '32', '36', '38', '40', '46', '49', '53', '54', '56', '59', '60', '61', '62', '70', '71', '74', '80', '84', '85', '89', '97', '100', '104', '106', '108', '109', '111', '113', '119', '121', '124', '125', '130', '132', '133', '135', '136', '137', '141', '142', '153', '155', '156', '161', '166', '167', '170', '171', '172', '173', '174', '176', '178', '180', '182', '189', '192', '194', '197', '203', '204', '205', '209', '212', '213', '218', '223', '226', '227', '228', '229', '230', '242', '246', '247', '249', '263', '266', '271', '272', '273', '282', '283', '284', '285', '289', '292', '298', '304', '305', '306', '322', '332', '333', '337', '345', '347', '350', '351', '354', '355', '361', '372', '382', '383', '387', '388', '394', '405', '406', '408', '409', '411', '416', '420', '428', '430', '431', '433', '438', '452', '453', '455', '456', '460', '466', '473', '474', '484', '485', '488', '498', '499', '507', '509', '515', '519', '526', '531', '538', '539', '547', '548', '550', '553', '562', '564', '567', '569', '576', '584', '595', '597', '603', '607', '615', '616', '617', '620', '630', '633', '646', '651', '659', '663', '666', '674', '675', '677', '684', '685', '687', '692', '693', '700', '709', '711', '712', '715', '724', '727', '747', '749', '750', '757', '761', '763', '764', '765', '776', '777', '782', '785', '786', '789', '791', '796', '797', '813', '816', '818', '822', '824', '825', '826', '833', '840', '843', '854', '855', '861', '864', '866', '870', '871', '878', '881', '888', '893', '900', '901', '910', '916', '920', '923', '925', '926', '929', '934', '936', '940', '946', '949', '950', '956', '958', '964', '971', '973', '974', '980', '985', '988', '1004', '1007', '1008', '1013', '1016', '1018', '1019', '1026', '1029', '1030', '1035', '1037', '1045', '1053', '1060', '1061', '1064', '1070', '1073', '1080', '1084', '1097', '1101', '1106', '1110', '1111', '1114', '1115', '1118', '1121', '1124', '1132', '1136', '1137', '1139', '1146', '1148', '1151', '1154', '1158', '1160', '1165', '1174', '1176', '1177', '1179', '1186', '1188', '1190', '1197', '1199', '1205', '1206', '1209', '1210', '1212', '1215', '1223', '1224', '1228', '1235', '1238', '1239', '1240', '1242', '1243', '1245', '1246', '1247', '1248', '1251', '1252', '1253', '1256', '1263', '1275', '1280', '1281', '1284', '1290', '1300', '1305', '1309', '1315', '1317', '1322', '1327', '1334', '1350', '1359', '1368', '1372', '1373', '1375', '1381', '1386', '1389', '1391', '1396', '1399', '1400', '1409', '1410', '1419', '1426', '1428', '1433', '1434', '1436', '1441', '1442', '1445', '1452', '1453', '1458', '1466', '1474', '1476', '1485', '1487', '1490', '1492', '1495', '1503', '1508', '1510', '1511', '1518', '1527', '1528', '1529', '1531', '1542', '1558', '1560', '1564', '1565', '1566', '1567', '1580', '1581', '1583', '1586', '1587', '1589', '1593', '1598', '1599', '1604', '1606', '1611', '1618', '1625', '1628', '1631', '1636', '1637', '1638', '1639', '1645', '1654', '1658', '1659', '1669', '1681', '1686', '1706', '1708', '1715', '1728', '1732', '1733', '1743', '1745', '1746', '1760', '1762', '1770', '1775', '1776', '1777', '1780', '1786', '1791', '1792', '1794', '1796', '1797', '1800', '1801', '1803', '1804', '1806', '1810', '1816', '1817', '1818', '1821', '1822', '1828', '1829', '1834', '1835', '1837', '1840', '1841', '1847', '1856', '1857', '1863', '1867', '1880', '1883', '1885', '1887', '1891', '1893', '1894', '1907', '1918', '1922', '1925', '1927', '1928', '1933', '1934', '1938', '1939', '1940', '1948', '1949', '1954', '1957', '1958', '1963', '1968', '1970', '1971', '1972', '1975', '1980', '1982', '1984', '1997', '1998', '2000']",False,5000,True,2,4fb5957b1e,0.0,1.0,1.0
./expes/v2_2021-03-19_issda-30_2000-prng-1-w5-p2,30_issda-2000,2000,first-2000,200,10,rng,num-start-1800,1800,25726,classic,918.833774805069,True,,True,1.0,1.0,1.0,1,"['1', '4', '22', '40', '43', '52', '57', '58', '65', '72', '88', '137', '144', '149', '171', '184', '191', '194', '195', '196', '201', '210', '219', '229', '234', '243', '249', '252', '294', '300', '307', '330', '332', '338', '345', '372', '374', '387', '395', '397', '408', '419', '426', '447', '458', '472', '484', '506', '510', '513', '516', '522', '524', '525', '526', '534', '540', '542', '547', '555', '556', '562', '564', '571', '575', '577', '579', '597', '620', '621', '634', '640', '647', '680', '691', '712', '729', '734', '739', '746', '754', '756', '783', '792', '795', '807', '808', '813', '827', '831', '844', '856', '867', '871', '896', '899', '904', '921', '922', '927', '933', '942', '956', '962', '965', '972', '984', '993', '994', '997', '1002', '1025', '1026', '1038', '1053', '1058', '1069', '1077', '1080', '1086', '1096', '1130', '1147', '1150', '1166', '1167', '1171', '1186', '1195', '1201', '1207', '1219', '1220', '1221', '1237', '1245', '1261', '1262', '1279', '1287', '1294', '1296', '1298', '1306', '1313', '1335', '1336', '1349', '1360', '1363', '1377', '1393', '1402', '1404', '1406', '1407', '1439', '1441', '1444', '1454', '1478', '1504', '1506', '1517', '1519', '1530', '1547', '1551', '1560', '1588', '1593', '1613', '1634', '1635', '1648', '1655', '1676', '1691', '1694', '1750', '1772', '1773', '1784', '1788', '1792', '1815', '1835', '1836', '1847', '1862', '1879', '1888', '1914', '1918', '1924', '1926', '1930', '1934', '1959', '1995']",False,5000,True,2,497ca52de3,0.0,1.0,1.0
./expes/v2_2021-03-19_issda-30_2000-prng-1-w5-p2,30_issda-2000,2000,first-2000,1000,50,rng,num-start-800,800,25726,classic,5074.459838628769,False,,False,0,,,0,"['2', '3', '4', '5', '7', '8', '9', '11', '12', '14', '17', '20', '22', '24', '27', '28', '30', '32', '33', '35', '36', '37', '40', '42', '43', '45', '46', '48', '54', '56', '57', '58', '60', '62', '63', '66', '69', '71', '73', '74', '76', '78', '79', '80', '84', '86', '88', '89', '90', '92', '94', '95', '96', '97', '101', '103', '105', '107', '108', '110', '111', '112', '114', '115', '116', '117', '123', '125', '126', '133', '135', '136', '137', '138', '139', '140', '141', '142', '145', '146', '151', '153', '155', '159', '160', '162', '163', '164', '165', '166', '167', '169', '174', '177', '178', '181', '183', '184', '187', '188', '190', '191', '193', '194', '198', '199', '205', '206', '208', '211', '212', '214', '216', '219', '220', '221', '225', '229', '230', '232', '233', '237', '239', '240', '241', '243', '245', '249', '251', '253', '254', '256', '257', '258', '259', '260', '262', '263', '264', '265', '267', '268', '269', '271', '273', '274', '277', '281', '284', '286', '287', '288', '291', '293', '294', '298', '299', '300', '301', '302', '303', '304', '305', '306', '307', '309', '310', '315', '316', '317', '318', '319', '321', '322', '326', '328', '329', '330', '337', '340', '341', '342', '343', '346', '347', '348', '357', '360', '361', '362', '363', '364', '365', '366', '367', '368', '374', '380', '381', '384', '386', '389', '390', '391', '392', '394', '396', '397', '398', '399', '400', '405', '414', '415', '416', '417', '418', '420', '421', '422', '423', '425', '426', '427', '429', '431', '434', '435', '438', '439', '441', '442', '446', '448', '450', '451', '452', '455', '457', '461', '462', '463', '464', '465', '466', '473', '474', '478', '480', '482', '483', '487', '488', '489', '491', '493', '494', '495', '497', '500', '501', '502', '503', '504', '505', '507', '508', '509', '510', '513', '515', '519', '520', '522', '524', '526', '527', '528', '530', '531', '535', '536', '537', '538', '539', '541', '549', '551', '556', '559', '565', '566', '568', '574', '575', '577', '580', '581', '585', '588', '589', '593', '595', '596', '598', '599', '601', '604', '605', '606', '607', '608', '610', '611', '613', '614', '615', '617', '618', '619', '622', '625', '626', '627', '628', '630', '631', '632', '633', '637', '642', '643', '644', '645', '648', '650', '654', '655', '661', '662', '665', '671', '673', '674', '677', '680', '681', '682', '684', '686', '693', '696', '697', '699', '700', '703', '707', '709', '710', '712', '713', '715', '717', '719', '722', '724', '729', '730', '731', '736', '740', '742', '745', '746', '747', '748', '751', '755', '756', '758', '760', '761', '762', '764', '768', '769', '770', '771', '772', '778', '781', '782', '786', '787', '792', '793', '794', '795', '796', '798', '799', '801', '806', '807', '811', '813', '815', '816', '817', '818', '819', '820', '822', '824', '826', '831', '833', '836', '839', '841', '844', '847', '848', '849', '850', '853', '854', '855', '856', '861', '864', '865', '866', '867', '868', '869', '870', '871', '872', '874', '875', '876', '877', '878', '879', '880', '881', '882', '884', '886', '890', '891', '894', '895', '896', '901', '902', '903', '905', '906', '907', '909', '911', '912', '915', '917', '918', '919', '921', '922', '924', '925', '927', '929', '937', '940', '941', '944', '945', '947', '949', '950', '951', '954', '956', '957', '958', '963', '965', '966', '968', '970', '972', '975', '976', '979', '980', '981', '983', '984', '985', '987', '988', '992', '996', '997', '998', '1002', '1003', '1004', '1006', '1008', '1009', '1010', '1012', '1016', '1017', '1018', '1020', '1022', '1023', '1026', '1027', '1032', '1033', '1034', '1041', '1042', '1045', '1048', '1050', '1052', '1055', '1058', '1059', '1063', '1064', '1065', '1066', '1067', '1068', '1070', '1071', '1072', '1074', '1075', '1078', '1079', '1080', '1082', '1087', '1088', '1089', '1090', '1091', '1092', '1093', '1094', '1096', '1098', '1099', '1100', '1102', '1113', '1117', '1118', '1119', '1120', '1121', '1126', '1127', '1130', '1133', '1135', '1136', '1137', '1138', '1140', '1143', '1144', '1147', '1148', '1150', '1154', '1156', '1158', '1159', '1163', '1167', '1168', '1170', '1171', '1172', '1174', '1175', '1176', '1179', '1183', '1184', '1185', '1186', '1187', '1188', '1189', '1190', '1195', '1199', '1202', '1205', '1207', '1210', '1211', '1213', '1214', '1217', '1218', '1219', '1220', '1222', '1224', '1227', '1228', '1229', '1230', '1233', '1234', '1236', '1237', '1241', '1246', '1247', '1250', '1252', '1254', '1257', '1262', '1264', '1265', '1267', '1268', '1269', '1271', '1272', '1275', '1280', '1281', '1285', '1287', '1288', '1289', '1291', '1292', '1293', '1294', '1295', '1298', '1304', '1308', '1309', '1310', '1313', '1314', '1315', '1318', '1322', '1329', '1330', '1331', '1332', '1334', '1336', '1338', '1339', '1340', '1342', '1343', '1344', '1346', '1351', '1357', '1361', '1365', '1366', '1367', '1370', '1372', '1374', '1375', '1377', '1379', '1381', '1384', '1387', '1388', '1389', '1395', '1396', '1400', '1401', '1402', '1404', '1408', '1409', '1413', '1415', '1416', '1418', '1419', '1424', '1425', '1427', '1428', '1429', '1430', '1432', '1435', '1436', '1437', '1438', '1439', '1442', '1443', '1445', '1447', '1452', '1454', '1456', '1457', '1460', '1461', '1463', '1464', '1465', '1466', '1467', '1468', '1469', '1472', '1473', '1474', '1475', '1476', '1477', '1479', '1480', '1481', '1482', '1483', '1485', '1488', '1489', '1491', '1493', '1497', '1498', '1499', '1500', '1502', '1504', '1506', '1508', '1510', '1512', '1513', '1515', '1516', '1517', '1520', '1521', '1523', '1525', '1526', '1527', '1528', '1529', '1530', '1533', '1536', '1537', '1538', '1539', '1540', '1542', '1545', '1547', '1548', '1553', '1557', '1561', '1564', '1565', '1566', '1567', '1569', '1570', '1572', '1576', '1577', '1578', '1579', '1580', '1583', '1585', '1587', '1588', '1589', '1592', '1594', '1595', '1596', '1599', '1601', '1602', '1604', '1605', '1607', '1608', '1611', '1613', '1618', '1622', '1626', '1627', '1633', '1634', '1635', '1636', '1638', '1641', '1642', '1643', '1645', '1646', '1648', '1649', '1651', '1653', '1654', '1656', '1657', '1659', '1664', '1665', '1668', '1669', '1670', '1671', '1674', '1675', '1677', '1679', '1680', '1682', '1683', '1687', '1688', '1689', '1691', '1693', '1696', '1698', '1700', '1702', '1703', '1707', '1709', '1710', '1713', '1716', '1717', '1719', '1720', '1721', '1723', '1724', '1732', '1733', '1738', '1739', '1740', '1741', '1745', '1746', '1748', '1749', '1753', '1757', '1760', '1765', '1766', '1769', '1771', '1773', '1775', '1776', '1777', '1778', '1779', '1781', '1783', '1785', '1790', '1792', '1795', '1797', '1800', '1801', '1808', '1809', '1810', '1813', '1815', '1816', '1817', '1818', '1820', '1822', '1823', '1825', '1827', '1828', '1829', '1830', '1831', '1832', '1833', '1834', '1839', '1840', '1842', '1845', '1847', '1848', '1850', '1851', '1855', '1857', '1858', '1861', '1863', '1865', '1866', '1867', '1868', '1869', '1870', '1873', '1874', '1876', '1877', '1881', '1885', '1886', '1887', '1897', '1899', '1901', '1909', '1911', '1912', '1916', '1917', '1920', '1921', '1922', '1931', '1932', '1935', '1938', '1941', '1945', '1946', '1947', '1949', '1951', '1954', '1956', '1958', '1960', '1962', '1963', '1964', '1965', '1968', '1969', '1970', '1972', '1974', '1975', '1977', '1982', '1983', '1985', '1987', '1988', '1989', '1990', '1991', '1993', '1996']",True,5000,True,2,1c44ae34df,0.0,0.0,0.0
./expes/v2_2021-03-19_issda-30_2000-prng-1-w5-p2,30_issda-2000,2000,first-2000,600,30,rng,num-start-200,200,25726,classic,5019.242930173874,False,,False,0,,,0,"['1', '2', '4', '10', '16', '21', '22', '31', '32', '36', '40', '41', '43', '49', '52', '53', '57', '58', '60', '63', '65', '72', '82', '83', '88', '92', '95', '98', '103', '105', '106', '112', '114', '122', '123', '127', '128', '133', '137', '140', '141', '143', '144', '149', '153', '154', '158', '166', '167', '171', '184', '185', '186', '191', '194', '195', '196', '199', '201', '203', '210', '212', '214', '218', '219', '220', '227', '229', '230', '231', '232', '234', '235', '236', '243', '244', '245', '247', '249', '250', '252', '253', '258', '264', '267', '270', '273', '274', '277', '281', '289', '294', '300', '301', '307', '314', '316', '325', '330', '332', '338', '339', '345', '349', '350', '352', '353', '358', '360', '364', '366', '372', '374', '377', '387', '388', '389', '395', '397', '400', '403', '405', '407', '408', '409', '411', '415', '416', '419', '420', '421', '426', '429', '434', '438', '443', '444', '447', '455', '456', '458', '461', '463', '464', '468', '469', '472', '473', '480', '483', '484', '496', '498', '500', '501', '502', '505', '506', '507', '509', '510', '513', '516', '517', '519', '522', '523', '524', '525', '526', '530', '534', '539', '540', '542', '545', '547', '555', '556', '558', '560', '562', '564', '571', '575', '576', '577', '578', '579', '580', '597', '601', '606', '607', '608', '616', '617', '620', '621', '625', '626', '629', '634', '637', '640', '644', '647', '650', '652', '661', '680', '683', '684', '687', '691', '694', '696', '697', '703', '709', '712', '714', '718', '720', '722', '724', '726', '729', '734', '739', '740', '745', '746', '748', '749', '751', '754', '755', '756', '764', '771', '772', '777', '780', '783', '784', '787', '788', '791', '792', '795', '805', '807', '808', '813', '815', '825', '827', '831', '833', '844', '856', '858', '864', '866', '867', '869', '871', '873', '874', '880', '886', '893', '896', '898', '899', '904', '905', '907', '912', '913', '917', '921', '922', '925', '927', '929', '932', '933', '942', '944', '956', '960', '961', '962', '963', '965', '969', '972', '974', '975', '977', '984', '987', '992', '993', '994', '996', '997', '998', '1000', '1002', '1005', '1015', '1020', '1025', '1026', '1035', '1038', '1039', '1041', '1048', '1049', '1053', '1058', '1065', '1068', '1069', '1073', '1077', '1080', '1082', '1086', '1092', '1094', '1095', '1096', '1098', '1103', '1107', '1109', '1110', '1111', '1113', '1116', '1117', '1119', '1124', '1130', '1134', '1138', '1140', '1142', '1143', '1144', '1147', '1150', '1161', '1166', '1167', '1171', '1182', '1184', '1186', '1192', '1195', '1197', '1201', '1205', '1206', '1207', '1211', '1216', '1218', '1219', '1220', '1221', '1232', '1234', '1237', '1240', '1245', '1249', '1255', '1261', '1262', '1279', '1281', '1283', '1285', '1287', '1294', '1296', '1298', '1301', '1304', '1306', '1313', '1315', '1318', '1321', '1322', '1323', '1324', '1325', '1327', '1331', '1335', '1336', '1339', '1345', '1346', '1349', '1351', '1356', '1360', '1363', '1365', '1369', '1374', '1377', '1379', '1383', '1386', '1393', '1394', '1395', '1396', '1398', '1402', '1404', '1406', '1407', '1416', '1418', '1427', '1437', '1439', '1440', '1441', '1442', '1444', '1446', '1454', '1464', '1466', '1471', '1472', '1478', '1484', '1485', '1486', '1504', '1506', '1514', '1515', '1516', '1517', '1519', '1525', '1527', '1530', '1539', '1540', '1541', '1546', '1547', '1551', '1557', '1560', '1564', '1565', '1567', '1575', '1577', '1578', '1584', '1585', '1587', '1588', '1593', '1597', '1602', '1603', '1607', '1608', '1613', '1621', '1623', '1626', '1627', '1632', '1634', '1635', '1648', '1651', '1652', '1654', '1655', '1656', '1660', '1664', '1668', '1676', '1680', '1682', '1685', '1686', '1687', '1688', '1691', '1694', '1696', '1697', '1698', '1701', '1711', '1720', '1724', '1737', '1739', '1740', '1741', '1748', '1750', '1752', '1756', '1761', '1762', '1765', '1768', '1770', '1771', '1772', '1773', '1776', '1784', '1786', '1788', '1791', '1792', '1795', '1800', '1802', '1807', '1810', '1815', '1816', '1819', '1821', '1835', '1836', '1837', '1840', '1841', '1842', '1845', '1846', '1847', '1848', '1852', '1853', '1861', '1862', '1864', '1875', '1877', '1879', '1886', '1888', '1896', '1902', '1908', '1910', '1911', '1912', '1913', '1914', '1917', '1918', '1924', '1926', '1930', '1932', '1934', '1938', '1946', '1950', '1951', '1959', '1965', '1967', '1968', '1974', '1983', '1990', '1991', '1993', '1995', '2000']",True,5000,True,2,d570777d2f,0.0,0.0,0.0
./expes/v2_2021-03-19_issda-30_2000-prng-1-w5-p2,30_issda-2000,2000,first-2000,500,25,rng,num-start-200,200,25726,classic,5020.870642185211,False,,False,0,,,0,"['4', '5', '12', '18', '19', '22', '26', '30', '35', '36', '37', '38', '43', '45', '46', '49', '53', '56', '58', '59', '60', '61', '63', '67', '71', '73', '77', '78', '81', '82', '83', '90', '94', '98', '115', '121', '129', '130', '132', '134', '143', '145', '150', '157', '168', '171', '174', '178', '188', '193', '198', '203', '205', '206', '210', '211', '214', '221', '222', '223', '225', '234', '235', '236', '237', '242', '248', '257', '258', '265', '268', '273', '276', '277', '278', '300', '302', '322', '325', '326', '327', '329', '332', '336', '342', '343', '345', '346', '348', '349', '352', '355', '363', '371', '379', '381', '385', '386', '389', '398', '409', '410', '411', '412', '421', '422', '426', '429', '430', '435', '437', '444', '446', '449', '452', '455', '458', '459', '462', '465', '469', '471', '473', '476', '478', '481', '482', '491', '495', '498', '512', '517', '519', '520', '523', '530', '546', '547', '549', '551', '552', '559', '568', '576', '577', '582', '594', '595', '597', '603', '604', '606', '607', '608', '611', '612', '622', '628', '632', '636', '639', '642', '645', '650', '651', '656', '657', '658', '660', '667', '672', '679', '681', '682', '694', '695', '697', '699', '704', '705', '706', '708', '709', '711', '724', '731', '747', '748', '752', '754', '759', '768', '775', '777', '778', '779', '781', '786', '792', '799', '802', '806', '807', '809', '814', '817', '824', '828', '829', '833', '847', '849', '853', '863', '865', '873', '874', '880', '885', '887', '892', '897', '899', '913', '921', '922', '924', '928', '932', '938', '939', '941', '942', '944', '962', '968', '971', '977', '984', '986', '993', '994', '1000', '1002', '1003', '1009', '1015', '1016', '1017', '1023', '1024', '1026', '1029', '1033', '1034', '1035', '1037', '1040', '1042', '1043', '1045', '1050', '1053', '1058', '1063', '1067', '1073', '1081', '1091', '1095', '1103', '1106', '1107', '1109', '1112', '1116', '1122', '1123', '1124', '1127', '1128', '1129', '1133', '1136', '1140', '1149', '1150', '1154', '1156', '1157', '1160', '1166', '1168', '1169', '1175', '1180', '1184', '1185', '1188', '1197', '1202', '1204', '1207', '1210', '1211', '1212', '1215', '1222', '1229', '1230', '1232', '1237', '1241', '1245', '1248', '1254', '1255', '1257', '1260', '1276', '1277', '1280', '1289', '1292', '1293', '1302', '1316', '1326', '1328', '1329', '1331', '1335', '1336', '1345', '1351', '1352', '1360', '1362', '1364', '1373', '1374', '1379', '1381', '1382', '1383', '1387', '1389', '1395', '1406', '1408', '1424', '1426', '1439', '1440', '1441', '1442', '1444', '1457', '1458', '1465', '1473', '1478', '1483', '1486', '1487', '1488', '1494', '1496', '1501', '1511', '1512', '1517', '1522', '1524', '1545', '1548', '1555', '1559', '1562', '1565', '1572', '1573', '1578', '1579', '1589', '1593', '1595', '1597', '1598', '1602', '1603', '1605', '1609', '1611', '1612', '1615', '1616', '1618', '1631', '1633', '1634', '1636', '1643', '1644', '1646', '1648', '1652', '1658', '1662', '1666', '1673', '1674', '1676', '1679', '1681', '1692', '1696', '1697', '1700', '1705', '1712', '1716', '1721', '1723', '1724', '1731', '1734', '1736', '1738', '1742', '1744', '1748', '1756', '1757', '1759', '1762', '1764', '1774', '1777', '1778', '1782', '1786', '1794', '1800', '1805', '1808', '1813', '1815', '1818', '1825', '1830', '1835', '1837', '1843', '1845', '1847', '1863', '1864', '1865', '1866', '1871', '1873', '1877', '1879', '1885', '1889', '1895', '1896', '1897', '1898', '1907', '1910', '1918', '1921', '1922', '1924', '1927', '1928', '1933', '1934', '1936', '1946', '1950', '1951', '1955', '1956', '1961', '1966', '1971', '1976', '1978', '1981', '1983', '1985', '1987', '1988', '1994', '1995', '1998', '1999']",True,5000,True,2,2ec9525c6a,0.0,0.0,0.0
./expes/v2_2021-03-19_issda-30_2000-prng-1-w5-p2,30_issda-2000,2000,first-2000,1000,50,rng,num-start-200,200,25726,classic,5017.658948898315,False,,False,0,,,0,"['1', '2', '10', '11', '14', '20', '22', '23', '24', '25', '26', '28', '29', '30', '31', '32', '33', '34', '35', '37', '40', '41', '44', '46', '47', '48', '50', '51', '56', '57', '59', '61', '62', '65', '69', '72', '73', '74', '75', '77', '78', '80', '81', '84', '85', '86', '87', '88', '91', '92', '93', '94', '96', '97', '98', '102', '103', '104', '107', '108', '109', '119', '120', '122', '123', '124', '125', '127', '130', '132', '135', '137', '138', '141', '142', '144', '145', '148', '149', '150', '151', '152', '153', '154', '155', '156', '157', '158', '159', '160', '161', '165', '168', '170', '171', '172', '173', '174', '175', '177', '178', '179', '180', '181', '184', '185', '186', '189', '191', '193', '195', '196', '197', '199', '202', '203', '205', '206', '207', '210', '213', '215', '218', '221', '222', '223', '224', '232', '234', '235', '236', '237', '239', '241', '242', '245', '246', '250', '252', '253', '255', '259', '261', '264', '266', '267', '269', '270', '272', '273', '274', '275', '276', '278', '279', '280', '281', '284', '287', '288', '289', '290', '291', '293', '294', '296', '300', '301', '305', '309', '315', '316', '317', '318', '319', '321', '323', '324', '325', '327', '328', '330', '337', '339', '342', '347', '348', '354', '355', '360', '361', '362', '364', '366', '367', '371', '372', '373', '375', '377', '378', '379', '382', '384', '386', '388', '389', '390', '391', '392', '393', '398', '399', '400', '401', '402', '403', '404', '405', '406', '407', '409', '411', '412', '415', '418', '419', '420', '424', '427', '428', '430', '431', '432', '435', '436', '437', '438', '439', '443', '447', '448', '449', '450', '454', '456', '459', '464', '466', '468', '471', '472', '476', '477', '479', '481', '486', '487', '489', '491', '495', '496', '497', '498', '500', '501', '502', '503', '505', '509', '510', '511', '514', '521', '523', '524', '525', '526', '527', '529', '530', '532', '533', '537', '546', '552', '553', '555', '557', '558', '560', '563', '564', '565', '567', '570', '571', '572', '573', '574', '576', '577', '578', '580', '581', '582', '583', '586', '592', '595', '596', '601', '603', '606', '607', '613', '617', '618', '622', '623', '624', '625', '633', '635', '636', '637', '638', '639', '640', '646', '647', '649', '650', '651', '654', '657', '660', '661', '663', '664', '667', '669', '670', '672', '674', '676', '677', '678', '682', '687', '690', '692', '693', '696', '699', '700', '701', '702', '703', '704', '709', '712', '714', '719', '721', '726', '727', '728', '729', '731', '733', '736', '737', '740', '741', '742', '745', '746', '749', '751', '754', '755', '756', '757', '758', '759', '762', '765', '769', '770', '772', '773', '777', '781', '784', '786', '788', '791', '792', '794', '795', '796', '798', '799', '800', '801', '803', '806', '808', '809', '810', '811', '812', '814', '815', '817', '819', '821', '823', '825', '828', '829', '830', '831', '832', '834', '836', '838', '840', '841', '842', '843', '847', '848', '852', '853', '854', '855', '859', '860', '862', '864', '870', '871', '874', '876', '879', '880', '881', '883', '885', '889', '891', '895', '898', '900', '902', '903', '904', '905', '906', '907', '909', '911', '913', '915', '917', '923', '926', '927', '928', '929', '930', '931', '932', '933', '934', '937', '938', '939', '940', '947', '948', '950', '951', '953', '954', '957', '960', '961', '963', '964', '966', '967', '968', '970', '973', '974', '975', '976', '979', '981', '982', '985', '986', '988', '989', '990', '991', '992', '993', '996', '998', '999', '1006', '1009', '1010', '1012', '1013', '1014', '1015', '1017', '1019', '1020', '1021', '1022', '1024', '1025', '1029', '1030', '1031', '1033', '1034', '1036', '1040', '1041', '1043', '1046', '1049', '1050', '1051', '1054', '1055', '1056', '1057', '1058', '1062', '1063', '1064', '1065', '1066', '1067', '1069', '1071', '1072', '1074', '1076', '1079', '1082', '1083', '1085', '1086', '1087', '1088', '1092', '1094', '1096', '1097', '1098', '1100', '1103', '1104', '1106', '1107', '1108', '1109', '1110', '1112', '1113', '1114', '1115', '1116', '1119', '1124', '1126', '1127', '1128', '1129', '1130', '1135', '1145', '1146', '1147', '1149', '1151', '1153', '1154', '1155', '1156', '1157', '1160', '1163', '1164', '1165', '1166', '1167', '1168', '1169', '1172', '1174', '1177', '1178', '1182', '1186', '1188', '1190', '1192', '1193', '1194', '1195', '1197', '1198', '1200', '1202', '1203', '1209', '1211', '1212', '1214', '1219', '1220', '1222', '1224', '1225', '1226', '1228', '1229', '1231', '1232', '1233', '1236', '1237', '1239', '1240', '1245', '1247', '1249', '1250', '1251', '1252', '1253', '1257', '1258', '1259', '1261', '1262', '1266', '1270', '1275', '1277', '1278', '1279', '1280', '1282', '1285', '1286', '1287', '1289', '1290', '1291', '1293', '1297', '1299', '1300', '1303', '1304', '1307', '1308', '1309', '1310', '1311', '1312', '1313', '1315', '1316', '1319', '1321', '1328', '1330', '1332', '1334', '1337', '1338', '1339', '1340', '1342', '1346', '1347', '1352', '1356', '1357', '1360', '1364', '1365', '1368', '1369', '1375', '1377', '1379', '1383', '1386', '1387', '1389', '1390', '1395', '1397', '1398', '1400', '1402', '1403', '1404', '1405', '1407', '1408', '1412', '1416', '1421', '1422', '1423', '1424', '1429', '1431', '1432', '1434', '1436', '1437', '1438', '1442', '1443', '1444', '1447', '1448', '1450', '1452', '1453', '1457', '1463', '1467', '1468', '1470', '1472', '1473', '1476', '1479', '1480', '1481', '1482', '1485', '1486', '1487', '1489', '1492', '1493', '1495', '1497', '1499', '1501', '1504', '1506', '1510', '1514', '1515', '1516', '1518', '1522', '1524', '1525', '1526', '1529', '1531', '1532', '1533', '1534', '1537', '1543', '1544', '1546', '1547', '1548', '1549', '1553', '1555', '1560', '1561', '1562', '1565', '1567', '1568', '1570', '1572', '1574', '1575', '1576', '1583', '1589', '1594', '1595', '1596', '1598', '1600', '1607', '1614', '1618', '1620', '1622', '1623', '1625', '1631', '1632', '1633', '1634', '1635', '1637', '1639', '1640', '1641', '1642', '1644', '1645', '1646', '1647', '1649', '1651', '1654', '1658', '1659', '1660', '1663', '1669', '1670', '1671', '1673', '1675', '1676', '1679', '1682', '1684', '1687', '1688', '1690', '1692', '1697', '1698', '1700', '1701', '1702', '1703', '1704', '1705', '1706', '1713', '1715', '1717', '1718', '1719', '1721', '1725', '1726', '1728', '1730', '1732', '1734', '1736', '1739', '1743', '1744', '1745', '1746', '1750', '1751', '1752', '1753', '1755', '1756', '1763', '1764', '1769', '1770', '1771', '1774', '1775', '1777', '1781', '1782', '1785', '1788', '1793', '1794', '1800', '1801', '1802', '1803', '1805', '1806', '1807', '1813', '1818', '1819', '1821', '1824', '1825', '1827', '1829', '1830', '1833', '1835', '1836', '1837', '1839', '1844', '1845', '1846', '1849', '1854', '1855', '1856', '1857', '1858', '1861', '1862', '1863', '1864', '1865', '1866', '1867', '1870', '1871', '1873', '1874', '1876', '1879', '1882', '1884', '1885', '1886', '1888', '1890', '1892', '1893', '1895', '1896', '1899', '1904', '1905', '1906', '1907', '1909', '1910', '1913', '1914', '1915', '1917', '1918', '1920', '1923', '1925', '1926', '1928', '1934', '1935', '1936', '1937', '1940', '1944', '1946', '1949', '1950', '1951', '1956', '1957', '1960', '1961', '1963', '1965', '1966', '1969', '1972', '1974', '1975', '1976', '1980', '1981', '1982', '1984', '1986', '1987', '1989', '1993', '1994', '1997']",True,5000,True,2,7643457e69,0.0,0.0,0.0
./expes/v2_2021-03-19_issda-30_2000-prng-1-w5-p2,30_issda-2000,2000,first-2000,1000,50,rng,num-start-2000,2000,25726,classic,2252.102733850479,True,,True,1.0,1.0,1.0,1,"['4', '7', '8', '9', '10', '11', '13', '18', '19', '22', '24', '26', '33', '36', '37', '38', '40', '41', '44', '49', '50', '51', '52', '57', '58', '60', '61', '63', '64', '65', '66', '69', '70', '73', '74', '75', '77', '79', '81', '84', '86', '89', '94', '95', '96', '97', '98', '100', '101', '102', '105', '109', '110', '111', '113', '116', '117', '120', '121', '123', '124', '126', '127', '130', '133', '135', '137', '139', '144', '145', '146', '148', '149', '150', '151', '152', '155', '157', '158', '159', '164', '165', '167', '169', '170', '173', '174', '177', '178', '180', '183', '186', '188', '189', '191', '192', '193', '194', '195', '197', '201', '204', '205', '206', '207', '208', '209', '210', '213', '214', '216', '218', '222', '228', '230', '232', '236', '238', '239', '243', '245', '250', '252', '261', '262', '263', '264', '265', '268', '270', '271', '272', '274', '275', '277', '278', '280', '282', '283', '284', '286', '287', '288', '290', '291', '292', '295', '296', '297', '301', '307', '309', '310', '311', '315', '320', '321', '322', '323', '325', '326', '329', '331', '333', '334', '337', '341', '343', '347', '348', '350', '353', '354', '355', '356', '358', '359', '361', '362', '364', '370', '372', '373', '377', '380', '382', '385', '389', '391', '392', '393', '394', '399', '402', '406', '407', '409', '412', '414', '416', '419', '420', '423', '425', '426', '427', '428', '431', '432', '434', '435', '436', '437', '438', '440', '441', '442', '443', '444', '446', '449', '452', '453', '455', '456', '459', '460', '461', '462', '465', '466', '467', '468', '470', '473', '474', '475', '476', '477', '478', '481', '484', '485', '487', '488', '489', '492', '493', '494', '495', '502', '505', '506', '508', '510', '511', '512', '513', '514', '515', '516', '519', '520', '521', '522', '523', '524', '525', '526', '527', '529', '531', '532', '536', '537', '538', '541', '545', '547', '550', '551', '557', '558', '559', '560', '562', '568', '569', '571', '572', '573', '574', '575', '579', '583', '584', '586', '588', '594', '596', '598', '604', '605', '607', '608', '610', '613', '620', '622', '623', '627', '631', '632', '634', '635', '636', '639', '640', '641', '642', '643', '645', '648', '649', '653', '654', '657', '658', '659', '665', '666', '669', '672', '674', '675', '678', '679', '683', '684', '686', '689', '690', '691', '692', '693', '698', '699', '700', '701', '702', '703', '705', '707', '709', '712', '718', '719', '725', '730', '733', '735', '736', '737', '738', '739', '740', '742', '743', '746', '747', '750', '751', '753', '757', '761', '762', '763', '764', '765', '766', '768', '770', '773', '775', '777', '779', '782', '784', '785', '788', '790', '791', '794', '799', '800', '801', '802', '803', '804', '805', '806', '807', '809', '810', '816', '819', '820', '822', '823', '825', '826', '828', '829', '830', '833', '834', '838', '842', '844', '845', '846', '850', '851', '854', '857', '858', '859', '860', '861', '862', '867', '868', '872', '876', '881', '882', '883', '889', '890', '894', '896', '899', '903', '904', '906', '907', '909', '911', '912', '913', '916', '917', '918', '919', '925', '928', '929', '930', '931', '932', '933', '934', '936', '937', '938', '941', '943', '945', '949', '951', '952', '953', '954', '955', '956', '957', '958', '961', '962', '964', '966', '968', '969', '970', '971', '973', '974', '976', '977', '979', '981', '983', '987', '988', '989', '991', '992', '994', '995', '996', '997', '998', '1001', '1002', '1004', '1005', '1008', '1010', '1015', '1016', '1020', '1021', '1023', '1025', '1026', '1029', '1030', '1033', '1034', '1039', '1040', '1041', '1042', '1043', '1045', '1046', '1047', '1048', '1049', '1052', '1053', '1054', '1055', '1056', '1058', '1061', '1062', '1064', '1065', '1067', '1070', '1071', '1072', '1073', '1074', '1075', '1076', '1077', '1078', '1081', '1083', '1087', '1090', '1091', '1092', '1093', '1097', '1102', '1103', '1104', '1106', '1107', '1108', '1109', '1111', '1112', '1114', '1115', '1116', '1117', '1119', '1121', '1122', '1124', '1128', '1130', '1140', '1142', '1143', '1145', '1147', '1148', '1150', '1152', '1156', '1157', '1160', '1163', '1166', '1171', '1175', '1177', '1180', '1182', '1188', '1189', '1190', '1191', '1198', '1200', '1201', '1205', '1206', '1208', '1211', '1212', '1216', '1218', '1219', '1222', '1224', '1225', '1233', '1235', '1240', '1241', '1242', '1243', '1251', '1253', '1254', '1255', '1257', '1260', '1261', '1262', '1263', '1267', '1269', '1273', '1274', '1275', '1276', '1277', '1278', '1279', '1281', '1283', '1285', '1286', '1288', '1290', '1295', '1297', '1298', '1301', '1303', '1304', '1305', '1306', '1307', '1308', '1310', '1313', '1314', '1315', '1317', '1320', '1322', '1324', '1327', '1328', '1329', '1330', '1332', '1335', '1338', '1339', '1340', '1342', '1349', '1350', '1351', '1353', '1354', '1356', '1359', '1361', '1362', '1364', '1366', '1368', '1370', '1371', '1372', '1373', '1374', '1378', '1382', '1383', '1384', '1386', '1390', '1391', '1393', '1394', '1395', '1396', '1397', '1398', '1402', '1403', '1404', '1407', '1408', '1412', '1413', '1414', '1417', '1419', '1420', '1422', '1425', '1432', '1433', '1436', '1439', '1440', '1441', '1442', '1443', '1444', '1445', '1446', '1447', '1449', '1451', '1454', '1456', '1457', '1458', '1460', '1461', '1462', '1463', '1465', '1466', '1467', '1468', '1469', '1470', '1472', '1473', '1474', '1475', '1476', '1477', '1479', '1481', '1482', '1483', '1484', '1487', '1491', '1492', '1493', '1494', '1497', '1498', '1500', '1504', '1505', '1508', '1509', '1513', '1516', '1521', '1525', '1526', '1528', '1532', '1535', '1537', '1538', '1539', '1540', '1541', '1544', '1545', '1546', '1547', '1548', '1556', '1557', '1558', '1560', '1561', '1563', '1566', '1568', '1569', '1570', '1571', '1573', '1574', '1580', '1582', '1584', '1588', '1592', '1595', '1600', '1603', '1604', '1606', '1607', '1611', '1613', '1615', '1616', '1618', '1622', '1623', '1627', '1629', '1630', '1631', '1632', '1634', '1635', '1636', '1637', '1639', '1641', '1642', '1644', '1646', '1647', '1648', '1651', '1652', '1656', '1657', '1659', '1662', '1664', '1666', '1668', '1669', '1670', '1671', '1672', '1675', '1677', '1679', '1680', '1681', '1684', '1685', '1686', '1687', '1688', '1689', '1690', '1691', '1703', '1707', '1708', '1711', '1712', '1713', '1714', '1715', '1716', '1718', '1722', '1732', '1734', '1738', '1739', '1741', '1743', '1746', '1749', '1754', '1755', '1758', '1759', '1760', '1762', '1764', '1766', '1767', '1768', '1770', '1774', '1779', '1781', '1783', '1784', '1785', '1791', '1792', '1794', '1796', '1798', '1799', '1800', '1804', '1805', '1806', '1807', '1809', '1811', '1812', '1813', '1815', '1818', '1819', '1822', '1827', '1831', '1833', '1834', '1840', '1841', '1842', '1843', '1845', '1846', '1848', '1849', '1850', '1852', '1855', '1857', '1859', '1860', '1861', '1865', '1867', '1868', '1873', '1874', '1875', '1876', '1877', '1878', '1880', '1882', '1885', '1886', '1887', '1888', '1889', '1890', '1892', '1895', '1897', '1903', '1904', '1909', '1910', '1914', '1915', '1916', '1917', '1919', '1920', '1922', '1923', '1926', '1927', '1930', '1931', '1932', '1933', '1934', '1935', '1937', '1941', '1942', '1943', '1944', '1945', '1946', '1955', '1956', '1958', '1961', '1962', '1964', '1965', '1966', '1968', '1969', '1970', '1971', '1973', '1976', '1980', '1981', '1983', '1985', '1986', '1988', '1989', '1990', '1992', '1995']",False,5000,True,2,40c821e931,0.0,1.0,1.0
./expes/v2_2021-03-19_issda-30_2000-prng-1-w5-p2,30_issda-2000,2000,first-2000,600,30,rng,num-start-800,800,25726,classic,5076.08093380928,False,,False,0,,,0,"['1', '6', '10', '11', '13', '20', '21', '22', '26', '27', '31', '35', '38', '42', '45', '58', '59', '62', '63', '64', '66', '67', '68', '70', '76', '78', '82', '93', '94', '103', '104', '106', '107', '111', '117', '121', '122', '123', '126', '128', '131', '140', '142', '152', '153', '154', '156', '157', '159', '166', '170', '172', '176', '180', '181', '183', '184', '190', '191', '192', '193', '197', '200', '206', '215', '216', '223', '230', '234', '235', '240', '245', '246', '253', '258', '260', '261', '263', '272', '273', '276', '278', '280', '281', '283', '286', '292', '296', '297', '299', '303', '306', '308', '310', '312', '317', '323', '324', '329', '330', '334', '335', '337', '346', '347', '353', '355', '361', '362', '365', '373', '374', '377', '380', '381', '385', '386', '387', '394', '395', '396', '397', '398', '402', '404', '406', '408', '412', '414', '429', '430', '439', '442', '454', '457', '458', '461', '462', '464', '472', '475', '476', '479', '489', '493', '498', '499', '502', '503', '512', '513', '515', '516', '519', '522', '523', '524', '525', '536', '541', '544', '545', '549', '552', '554', '557', '559', '560', '562', '565', '567', '569', '574', '577', '586', '588', '593', '596', '597', '598', '602', '613', '622', '624', '625', '627', '640', '649', '652', '655', '656', '663', '667', '675', '678', '682', '688', '689', '692', '698', '704', '705', '718', '732', '738', '739', '740', '741', '742', '744', '745', '747', '751', '752', '753', '759', '760', '761', '763', '765', '768', '771', '773', '774', '778', '779', '780', '781', '787', '788', '792', '796', '798', '806', '815', '816', '819', '834', '835', '838', '840', '841', '844', '848', '856', '859', '864', '865', '867', '870', '872', '874', '879', '881', '883', '887', '893', '897', '901', '903', '904', '909', '910', '912', '914', '916', '919', '921', '925', '926', '939', '948', '950', '951', '957', '961', '964', '965', '968', '969', '971', '973', '978', '979', '981', '982', '984', '991', '994', '995', '996', '997', '999', '1000', '1001', '1002', '1007', '1008', '1013', '1018', '1019', '1024', '1025', '1029', '1030', '1032', '1039', '1052', '1055', '1059', '1060', '1065', '1066', '1070', '1075', '1076', '1077', '1078', '1080', '1081', '1088', '1097', '1102', '1103', '1105', '1107', '1109', '1112', '1114', '1118', '1121', '1129', '1130', '1134', '1143', '1144', '1147', '1149', '1154', '1155', '1156', '1158', '1165', '1166', '1167', '1173', '1175', '1176', '1180', '1187', '1198', '1202', '1205', '1206', '1207', '1208', '1210', '1213', '1214', '1217', '1220', '1224', '1233', '1234', '1236', '1239', '1243', '1246', '1250', '1254', '1257', '1262', '1263', '1266', '1267', '1269', '1271', '1275', '1278', '1281', '1282', '1284', '1287', '1289', '1293', '1298', '1300', '1301', '1306', '1308', '1310', '1315', '1320', '1321', '1322', '1323', '1324', '1328', '1333', '1334', '1340', '1343', '1345', '1351', '1355', '1356', '1358', '1366', '1369', '1373', '1375', '1380', '1385', '1387', '1390', '1391', '1394', '1395', '1397', '1401', '1405', '1409', '1414', '1415', '1416', '1418', '1421', '1422', '1423', '1425', '1430', '1433', '1436', '1437', '1438', '1446', '1451', '1457', '1460', '1462', '1463', '1465', '1468', '1472', '1473', '1478', '1480', '1483', '1484', '1493', '1494', '1495', '1499', '1505', '1514', '1516', '1522', '1526', '1527', '1529', '1537', '1539', '1543', '1548', '1551', '1553', '1555', '1556', '1557', '1562', '1563', '1564', '1568', '1572', '1574', '1578', '1585', '1591', '1592', '1594', '1595', '1596', '1598', '1603', '1606', '1611', '1613', '1620', '1621', '1625', '1629', '1631', '1632', '1639', '1643', '1646', '1649', '1650', '1651', '1652', '1656', '1658', '1663', '1667', '1671', '1672', '1673', '1676', '1684', '1696', '1697', '1701', '1703', '1705', '1706', '1709', '1715', '1718', '1722', '1725', '1730', '1731', '1741', '1748', '1751', '1752', '1758', '1760', '1765', '1770', '1773', '1781', '1782', '1783', '1785', '1787', '1795', '1801', '1803', '1809', '1813', '1819', '1822', '1828', '1830', '1831', '1842', '1843', '1849', '1853', '1860', '1862', '1863', '1865', '1867', '1870', '1871', '1877', '1883', '1884', '1887', '1889', '1891', '1893', '1898', '1899', '1900', '1902', '1903', '1911', '1914', '1919', '1922', '1925', '1927', '1933', '1936', '1941', '1942', '1943', '1946', '1948', '1949', '1950', '1954', '1963', '1971', '1976', '1977', '1978', '1979', '1984', '1985', '1987', '1989', '1990', '1992', '1995', '1997', '2000']",True,5000,True,2,4437c79839,0.0,0.0,0.0
./expes/v2_2021-03-19_issda-30_2000-prng-1-w5-p2,30_issda-2000,2000,first-2000,100,5,rng,num-start-1200,1200,25726,classic,990.6138315200806,True,,True,1.0,1.0,1.0,1,"['12', '13', '21', '27', '29', '42', '46', '57', '91', '135', '172', '177', '252', '291', '316', '317', '337', '353', '452', '456', '460', '465', '481', '488', '520', '529', '531', '580', '584', '601', '607', '608', '619', '624', '633', '635', '636', '649', '687', '713', '741', '765', '839', '854', '861', '867', '912', '915', '929', '931', '936', '944', '952', '961', '973', '985', '988', '1004', '1007', '1013', '1059', '1072', '1153', '1186', '1227', '1234', '1235', '1242', '1284', '1293', '1301', '1317', '1347', '1366', '1367', '1432', '1433', '1441', '1457', '1491', '1523', '1603', '1614', '1617', '1619', '1630', '1655', '1669', '1706', '1721', '1726', '1741', '1750', '1771', '1830', '1882', '1943', '1950', '1959', '1995']",False,5000,True,2,2082c64f46,0.0,1.0,1.0
./expes/v2_2021-03-19_issda-30_2000-prng-1-w5-p2,30_issda-2000,2000,first-2000,700,35,rng,num-start-1000,1000,25726,classic,3859.3160133361816,True,,True,1.0,1.0,1.0,1,"['2', '7', '8', '11', '12', '14', '15', '17', '18', '20', '21', '23', '24', '25', '27', '29', '31', '32', '36', '38', '40', '42', '46', '49', '53', '54', '56', '58', '59', '60', '61', '62', '68', '70', '71', '74', '80', '84', '85', '86', '87', '89', '97', '100', '102', '104', '105', '106', '108', '109', '111', '113', '116', '119', '121', '124', '125', '130', '132', '133', '135', '136', '137', '141', '142', '147', '153', '155', '156', '157', '161', '166', '167', '170', '171', '172', '173', '174', '176', '178', '180', '182', '183', '188', '189', '192', '194', '197', '198', '203', '204', '205', '209', '212', '213', '218', '223', '226', '227', '228', '229', '230', '242', '246', '247', '249', '253', '263', '266', '271', '272', '273', '276', '277', '282', '283', '284', '285', '288', '289', '292', '295', '298', '301', '304', '305', '306', '312', '322', '329', '332', '333', '335', '337', '341', '345', '347', '350', '351', '352', '354', '355', '361', '365', '367', '371', '372', '374', '382', '383', '387', '388', '391', '394', '405', '406', '408', '409', '411', '414', '416', '420', '421', '423', '428', '430', '431', '432', '433', '438', '444', '452', '453', '455', '456', '457', '459', '460', '462', '466', '473', '474', '476', '484', '485', '488', '498', '499', '503', '507', '509', '515', '519', '520', '522', '526', '530', '531', '533', '535', '538', '539', '547', '548', '550', '553', '557', '559', '562', '564', '567', '569', '571', '576', '581', '583', '584', '585', '595', '597', '603', '605', '607', '610', '615', '616', '617', '620', '627', '630', '633', '636', '638', '644', '645', '646', '651', '657', '659', '662', '663', '666', '673', '674', '675', '677', '678', '684', '685', '687', '688', '692', '693', '694', '698', '700', '706', '709', '711', '712', '714', '715', '724', '727', '732', '736', '747', '749', '750', '757', '758', '761', '763', '764', '765', '766', '776', '777', '782', '785', '786', '789', '791', '796', '797', '798', '810', '811', '813', '816', '817', '818', '822', '824', '825', '826', '827', '832', '833', '840', '843', '850', '853', '854', '855', '861', '864', '866', '867', '870', '871', '875', '878', '881', '888', '893', '896', '900', '901', '910', '916', '920', '923', '925', '926', '929', '930', '934', '936', '940', '946', '949', '950', '951', '952', '956', '958', '962', '964', '971', '973', '974', '980', '981', '985', '987', '988', '1004', '1007', '1008', '1013', '1016', '1017', '1018', '1019', '1021', '1026', '1028', '1029', '1030', '1035', '1037', '1042', '1044', '1045', '1050', '1053', '1056', '1059', '1060', '1061', '1064', '1066', '1070', '1071', '1072', '1073', '1077', '1080', '1083', '1084', '1088', '1093', '1097', '1100', '1101', '1102', '1106', '1110', '1111', '1113', '1114', '1115', '1118', '1121', '1124', '1132', '1133', '1136', '1137', '1139', '1146', '1148', '1151', '1154', '1158', '1160', '1162', '1165', '1169', '1174', '1176', '1177', '1179', '1185', '1186', '1188', '1190', '1191', '1197', '1199', '1202', '1204', '1205', '1206', '1209', '1210', '1212', '1215', '1223', '1224', '1228', '1231', '1235', '1238', '1239', '1240', '1242', '1243', '1245', '1246', '1247', '1248', '1251', '1252', '1253', '1255', '1256', '1263', '1264', '1275', '1280', '1281', '1284', '1290', '1295', '1300', '1303', '1305', '1308', '1309', '1315', '1317', '1322', '1325', '1327', '1330', '1334', '1347', '1350', '1357', '1359', '1364', '1367', '1368', '1370', '1371', '1372', '1373', '1375', '1381', '1386', '1387', '1389', '1390', '1391', '1393', '1394', '1396', '1399', '1400', '1402', '1405', '1409', '1410', '1414', '1419', '1421', '1423', '1426', '1428', '1433', '1434', '1436', '1441', '1442', '1445', '1449', '1452', '1453', '1457', '1458', '1466', '1468', '1469', '1474', '1476', '1485', '1487', '1489', '1490', '1492', '1495', '1503', '1508', '1510', '1511', '1513', '1518', '1520', '1523', '1527', '1528', '1529', '1531', '1532', '1533', '1542', '1546', '1551', '1558', '1559', '1560', '1561', '1564', '1565', '1566', '1567', '1572', '1580', '1581', '1582', '1583', '1585', '1586', '1587', '1589', '1592', '1593', '1595', '1597', '1598', '1599', '1604', '1606', '1611', '1618', '1625', '1628', '1629', '1631', '1636', '1637', '1638', '1639', '1645', '1654', '1656', '1658', '1659', '1669', '1681', '1684', '1686', '1688', '1703', '1705', '1706', '1708', '1713', '1715', '1719', '1720', '1721', '1728', '1731', '1732', '1733', '1734', '1738', '1741', '1743', '1744', '1745', '1746', '1749', '1760', '1762', '1763', '1770', '1774', '1775', '1776', '1777', '1779', '1780', '1786', '1791', '1792', '1794', '1796', '1797', '1800', '1801', '1803', '1804', '1806', '1809', '1810', '1813', '1816', '1817', '1818', '1820', '1821', '1822', '1825', '1828', '1829', '1834', '1835', '1837', '1840', '1841', '1847', '1849', '1856', '1857', '1861', '1863', '1867', '1874', '1875', '1880', '1883', '1885', '1887', '1889', '1891', '1893', '1894', '1903', '1907', '1908', '1911', '1918', '1922', '1925', '1927', '1928', '1932', '1933', '1934', '1938', '1939', '1940', '1945', '1947', '1948', '1949', '1954', '1957', '1958', '1963', '1967', '1968', '1970', '1971', '1972', '1975', '1976', '1980', '1982', '1984', '1985', '1988', '1992', '1997', '1998', '2000']",False,5000,True,2,3d59abc646,0.0,1.0,1.0
