expe,clients,clients_size,clients_subset,agg_size,agg_size_pc,method,days,days_size,days_total,noise_method,time,valid,valid_sum,success,score_avg,score_min,score_max,nsols,oracle,wall_hit,wall_time,pooled,pool_size,uuid,infeasible,optimal,valid_sums
./expes/v2_2021-03-19_issda-30_2000-prng-1-w5-p2,30_issda-2000,2000,first-2000,500,25,rng,num-start-1200,1200,25726,classic,4684.953502416611,True,,True,1.0,1.0,1.0,1,"['6', '8', '10', '19', '24', '31', '32', '35', '36', '39', '49', '59', '63', '64', '70', '75', '85', '89', '98', '113', '115', '116', '121', '122', '124', '127', '132', '135', '138', '141', '145', '150', '151', '152', '161', '162', '168', '174', '190', '198', '202', '204', '205', '206', '222', '223', '237', '239', '240', '247', '249', '256', '264', '267', '270', '288', '292', '295', '301', '302', '306', '311', '312', '319', '321', '322', '324', '325', '328', '330', '331', '335', '337', '341', '347', '349', '351', '353', '355', '361', '367', '368', '379', '383', '401', '402', '421', '423', '428', '436', '438', '440', '441', '444', '450', '451', '453', '458', '462', '463', '467', '469', '470', '474', '475', '476', '479', '481', '482', '490', '491', '493', '497', '500', '507', '511', '514', '515', '516', '521', '523', '524', '526', '533', '537', '540', '553', '556', '558', '560', '562', '575', '587', '588', '589', '595', '606', '620', '623', '626', '628', '636', '638', '639', '642', '645', '646', '652', '653', '659', '660', '663', '666', '674', '677', '678', '679', '681', '683', '685', '686', '688', '689', '691', '693', '694', '697', '702', '704', '706', '712', '713', '723', '725', '728', '729', '732', '738', '753', '755', '756', '760', '763', '771', '775', '778', '781', '789', '793', '796', '799', '800', '804', '807', '810', '818', '823', '825', '829', '830', '831', '835', '836', '849', '857', '860', '862', '867', '878', '883', '886', '889', '900', '905', '906', '910', '912', '913', '920', '922', '923', '924', '926', '931', '933', '939', '942', '945', '947', '951', '955', '956', '957', '958', '959', '960', '963', '964', '970', '972', '976', '981', '983', '986', '987', '992', '995', '1003', '1005', '1008', '1009', '1012', '1014', '1017', '1020', '1021', '1022', '1024', '1025', '1027', '1029', '1036', '1037', '1046', '1048', '1050', '1061', '1062', '1064', '1065', '1066', '1068', '1085', '1086', '1089', '1094', '1097', '1114', '1115', '1122', '1124', '1127', '1130', '1137', '1141', '1147', '1157', '1158', '1161', '1167', '1169', '1170', '1172', '1178', '1180', '1183', '1186', '1191', '1196', '1197', '1202', '1203', '1216', '1220', '1222', '1239', '1251', '1254', '1257', '1258', '1260', '1263', '1265', '1267', '1283', '1286', '1288', '1302', '1314', '1322', '1323', '1324', '1325', '1328', '1329', '1330', '1336', '1342', '1343', '1346', '1349', '1350', '1352', '1357', '1362', '1363', '1370', '1371', '1379', '1386', '1387', '1388', '1390', '1396', '1398', '1402', '1404', '1410', '1412', '1415', '1417', '1419', '1422', '1423', '1425', '1427', '1428', '1436', '1438', '1445', '1450', '1451', '1454', '1473', '1477', '1478', '1482', '1483', '1486', '1489', '1493', '1506', '1508', '1511', '1515', '1518', '1520', '1522', '1526', '1537', '1539', '1544', '1547', '1551', '1554', '1557', '1558', '1585', '1586', '1592', '1593', '1595', '1602', '1604', '1606', '1608', '1615', '1616', '1623', '1627', '1631', '1634', '1637', '1640', '1646', '1648', '1649', '1651', '1659', '1660', '1667', '1683', '1686', '1690', '1695', '1701', '1711', '1716', '1717', '1718', '1721', '1722', '1724', '1728', '1729', '1735', '1737', '1743', '1748', '1752', '1753', '1756', '1757', '1763', '1768', '1769', '1773', '1776', '1777', '1780', '1781', '1783', '1787', '1792', '1793', '1797', '1800', '1802', '1806', '1812', '1813', '1816', '1817', '1823', '1827', '1829', '1830', '1831', '1842', '1847', '1848', '1854', '1858', '1859', '1862', '1867', '1870', '1874', '1877', '1884', '1888', '1889', '1890', '1895', '1896', '1900', '1901', '1906', '1913', '1915', '1916', '1918', '1922', '1935', '1936', '1938', '1940', '1942', '1945', '1947', '1948', '1953', '1958', '1965', '1967', '1971', '1977', '1982', '1992', '2000']",False,5000,True,2,2ab3c4dda1,0.0,1.0,1.0
./expes/v2_2021-03-19_issda-30_2000-prng-1-w5-p2,30_issda-2000,2000,first-2000,400,20,rng,num-start-1800,1800,25726,classic,1988.6140151023865,True,,True,1.0,1.0,1.0,1,"['1', '4', '9', '25', '47', '48', '53', '56', '57', '58', '60', '77', '81', '96', '99', '102', '108', '111', '119', '121', '122', '123', '125', '127', '128', '129', '134', '138', '141', '144', '145', '149', '150', '159', '165', '166', '168', '170', '174', '176', '177', '178', '186', '187', '192', '193', '200', '208', '210', '212', '213', '226', '237', '240', '242', '246', '252', '254', '258', '261', '265', '273', '281', '296', '299', '300', '301', '305', '309', '310', '312', '320', '326', '331', '333', '338', '341', '343', '345', '349', '361', '366', '369', '371', '374', '385', '391', '397', '400', '403', '409', '410', '419', '421', '422', '426', '428', '440', '447', '452', '453', '457', '458', '465', '473', '476', '478', '491', '493', '500', '508', '509', '517', '531', '535', '539', '543', '553', '570', '571', '573', '578', '583', '589', '590', '594', '611', '614', '615', '632', '635', '639', '643', '644', '653', '664', '676', '681', '692', '697', '701', '702', '704', '705', '706', '711', '712', '716', '718', '728', '729', '735', '741', '745', '746', '747', '749', '752', '757', '763', '771', '780', '791', '796', '801', '804', '808', '809', '811', '813', '815', '816', '818', '821', '823', '851', '857', '859', '864', '870', '876', '882', '889', '903', '913', '916', '920', '929', '935', '936', '946', '949', '954', '955', '963', '968', '971', '972', '980', '981', '982', '984', '987', '989', '991', '994', '1000', '1002', '1010', '1012', '1014', '1017', '1018', '1030', '1040', '1049', '1056', '1058', '1061', '1062', '1076', '1082', '1089', '1091', '1095', '1098', '1099', '1108', '1110', '1113', '1122', '1123', '1124', '1126', '1127', '1129', '1141', '1143', '1146', '1148', '1156', '1159', '1160', '1161', '1170', '1174', '1177', '1182', '1184', '1188', '1192', '1194', '1200', '1207', '1210', '1218', '1221', '1231', '1234', '1240', '1248', '1249', '1250', '1252', '1253', '1256', '1257', '1258', '1265', '1268', '1279', '1285', '1292', '1300', '1303', '1304', '1309', '1317', '1318', '1326', '1334', '1338', '1342', '1344', '1347', '1349', '1353', '1361', '1369', '1370', '1385', '1394', '1396', '1397', '1399', '1414', '1415', '1418', '1419', '1424', '1426', '1428', '1432', '1437', '1447', '1458', '1459', '1468', '1479', '1481', '1485', '1494', '1498', '1513', '1516', '1517', '1523', '1536', '1537', '1551', '1553', '1554', '1566', '1574', '1581', '1592', '1596', '1598', '1603', '1615', '1617', '1619', '1627', '1633', '1635', '1638', '1641', '1646', '1651', '1652', '1656', '1662', '1672', '1676', '1678', '1682', '1684', '1693', '1694', '1698', '1703', '1710', '1721', '1722', '1732', '1739', '1747', '1759', '1760', '1769', '1770', '1784', '1785', '1791', '1792', '1793', '1810', '1811', '1817', '1821', '1843', '1844', '1854', '1861', '1863', '1864', '1873', '1878', '1892', '1912', '1920', '1927', '1935', '1938', '1940', '1941', '1942', '1944', '1947', '1948', '1950', '1952', '1956', '1957', '1959', '1962', '1971', '1990', '1996', '2000']",False,5000,True,2,f6411e0972,0.0,1.0,1.0
./expes/v2_2021-03-19_issda-30_2000-prng-1-w5-p2,30_issda-2000,2000,first-2000,600,30,rng,num-start-2000,2000,25726,classic,2102.932719707489,True,,True,1.0,1.0,1.0,1,"['1', '3', '8', '9', '12', '13', '19', '21', '23', '27', '29', '30', '35', '40', '41', '42', '44', '45', '46', '47', '51', '54', '57', '58', '63', '67', '68', '73', '75', '78', '80', '81', '88', '89', '90', '91', '96', '99', '106', '108', '113', '114', '116', '119', '120', '122', '133', '135', '146', '150', '153', '157', '161', '162', '163', '164', '165', '169', '172', '177', '183', '184', '186', '187', '189', '191', '199', '202', '205', '207', '212', '214', '219', '220', '222', '223', '233', '236', '238', '241', '242', '245', '249', '252', '254', '255', '257', '258', '268', '269', '274', '280', '290', '291', '294', '295', '296', '301', '302', '304', '309', '313', '314', '316', '317', '319', '323', '324', '327', '337', '342', '344', '348', '349', '352', '353', '354', '355', '357', '365', '373', '374', '379', '381', '389', '391', '395', '397', '400', '402', '406', '413', '416', '417', '418', '421', '424', '428', '429', '430', '434', '436', '440', '443', '448', '449', '452', '454', '456', '457', '459', '460', '461', '465', '467', '471', '476', '481', '483', '487', '488', '490', '491', '495', '498', '501', '504', '512', '520', '523', '524', '529', '531', '533', '535', '538', '539', '541', '548', '549', '551', '552', '558', '560', '571', '580', '582', '584', '588', '593', '594', '596', '601', '603', '605', '607', '608', '610', '619', '620', '621', '624', '625', '629', '633', '635', '636', '642', '643', '647', '649', '650', '655', '656', '660', '667', '673', '683', '686', '687', '689', '690', '700', '705', '706', '713', '715', '716', '717', '724', '725', '726', '733', '740', '741', '743', '747', '757', '765', '766', '767', '769', '771', '773', '785', '786', '787', '792', '793', '796', '802', '805', '808', '810', '811', '819', '820', '823', '825', '826', '827', '829', '830', '832', '834', '836', '837', '838', '839', '840', '843', '844', '845', '846', '852', '854', '856', '857', '858', '860', '861', '867', '874', '876', '877', '880', '887', '889', '894', '899', '904', '906', '910', '912', '915', '916', '917', '922', '929', '931', '934', '936', '942', '944', '946', '947', '952', '956', '961', '966', '968', '972', '973', '978', '985', '986', '988', '991', '995', '1000', '1004', '1005', '1007', '1012', '1013', '1016', '1017', '1019', '1020', '1022', '1023', '1027', '1030', '1032', '1045', '1046', '1047', '1052', '1053', '1058', '1059', '1062', '1072', '1073', '1077', '1083', '1089', '1090', '1092', '1095', '1097', '1101', '1103', '1105', '1110', '1129', '1133', '1134', '1153', '1157', '1162', '1171', '1173', '1176', '1186', '1189', '1193', '1202', '1203', '1208', '1209', '1215', '1216', '1219', '1222', '1224', '1227', '1234', '1235', '1237', '1242', '1243', '1248', '1250', '1252', '1255', '1256', '1258', '1260', '1264', '1277', '1281', '1282', '1284', '1287', '1288', '1293', '1296', '1297', '1301', '1307', '1308', '1312', '1313', '1317', '1320', '1321', '1332', '1335', '1337', '1339', '1341', '1342', '1343', '1347', '1349', '1351', '1353', '1357', '1358', '1364', '1365', '1366', '1367', '1369', '1370', '1392', '1395', '1397', '1407', '1408', '1411', '1413', '1415', '1417', '1421', '1425', '1429', '1430', '1432', '1433', '1434', '1441', '1448', '1449', '1450', '1457', '1463', '1472', '1474', '1477', '1483', '1485', '1487', '1491', '1496', '1497', '1500', '1508', '1510', '1512', '1513', '1516', '1521', '1522', '1523', '1533', '1536', '1540', '1542', '1547', '1553', '1554', '1559', '1564', '1565', '1566', '1568', '1576', '1583', '1584', '1586', '1598', '1602', '1603', '1604', '1605', '1610', '1612', '1614', '1616', '1617', '1619', '1630', '1631', '1635', '1636', '1646', '1647', '1650', '1651', '1652', '1655', '1664', '1667', '1669', '1671', '1674', '1677', '1686', '1688', '1692', '1693', '1694', '1700', '1704', '1706', '1711', '1721', '1722', '1724', '1725', '1726', '1727', '1729', '1732', '1735', '1736', '1738', '1741', '1750', '1763', '1771', '1772', '1773', '1777', '1778', '1784', '1788', '1795', '1809', '1810', '1811', '1812', '1813', '1814', '1820', '1830', '1836', '1837', '1842', '1843', '1849', '1855', '1857', '1865', '1875', '1877', '1882', '1883', '1884', '1886', '1892', '1895', '1896', '1901', '1902', '1905', '1908', '1915', '1921', '1925', '1927', '1932', '1933', '1942', '1943', '1947', '1949', '1950', '1952', '1953', '1954', '1959', '1961', '1962', '1965', '1971', '1976', '1979', '1981', '1983', '1984', '1985', '1988', '1989', '1991', '1993', '1995', '1996']",False,5000,True,2,b0e788b3d1,0.0,1.0,1.0
./expes/v2_2021-03-19_issda-30_2000-prng-1-w5-p2,30_issda-2000,2000,first-2000,800,40,rng,num-start-2000,2000,25726,classic,2364.088788986206,True,,True,1.0,1.0,1.0,1,"['1', '3', '4', '5', '7', '15', '17', '19', '20', '21', '26', '28', '29', '30', '31', '32', '34', '39', '42', '45', '47', '51', '55', '57', '58', '61', '62', '63', '65', '67', '68', '69', '73', '74', '75', '78', '79', '80', '81', '82', '83', '84', '85', '87', '92', '93', '94', '96', '97', '99', '103', '114', '119', '124', '126', '128', '129', '131', '135', '136', '142', '144', '145', '146', '148', '152', '155', '157', '161', '162', '165', '166', '167', '168', '169', '171', '172', '173', '174', '179', '184', '186', '187', '188', '192', '195', '201', '203', '204', '206', '207', '208', '211', '215', '216', '223', '224', '228', '231', '233', '236', '237', '238', '240', '241', '244', '246', '249', '253', '254', '255', '256', '257', '261', '266', '267', '268', '272', '274', '277', '284', '286', '287', '289', '291', '292', '294', '299', '300', '301', '304', '305', '307', '310', '311', '315', '317', '319', '320', '321', '323', '325', '328', '330', '332', '336', '340', '342', '347', '350', '359', '365', '366', '368', '370', '373', '374', '377', '379', '383', '386', '387', '388', '390', '391', '392', '394', '399', '400', '406', '407', '409', '414', '417', '419', '420', '422', '423', '425', '426', '427', '432', '438', '441', '443', '445', '448', '449', '451', '452', '453', '455', '457', '461', '471', '473', '477', '479', '483', '485', '489', '490', '491', '492', '496', '498', '500', '514', '518', '522', '524', '526', '527', '529', '531', '532', '533', '534', '535', '537', '553', '556', '563', '564', '565', '571', '574', '576', '578', '588', '590', '593', '594', '595', '597', '600', '601', '602', '603', '607', '613', '616', '617', '618', '619', '620', '621', '622', '626', '631', '636', '638', '640', '645', '647', '648', '650', '652', '656', '660', '661', '664', '665', '667', '668', '670', '673', '677', '678', '682', '683', '685', '687', '688', '691', '692', '693', '697', '702', '704', '706', '708', '710', '711', '713', '718', '722', '723', '725', '731', '732', '734', '735', '736', '740', '741', '742', '750', '752', '753', '755', '756', '759', '761', '762', '763', '770', '772', '775', '776', '777', '783', '786', '787', '789', '792', '794', '795', '796', '802', '803', '807', '809', '813', '816', '817', '823', '824', '826', '830', '832', '836', '840', '843', '849', '850', '851', '852', '855', '856', '857', '859', '861', '862', '865', '867', '872', '873', '874', '883', '884', '890', '892', '894', '906', '907', '911', '912', '913', '915', '918', '919', '923', '925', '928', '930', '933', '938', '939', '940', '944', '955', '957', '964', '965', '966', '967', '970', '971', '975', '976', '977', '980', '982', '986', '987', '988', '996', '997', '998', '1000', '1001', '1003', '1005', '1008', '1009', '1011', '1013', '1015', '1018', '1019', '1020', '1021', '1022', '1029', '1032', '1034', '1035', '1039', '1041', '1042', '1048', '1058', '1061', '1063', '1066', '1067', '1068', '1069', '1072', '1073', '1075', '1076', '1077', '1081', '1083', '1085', '1086', '1091', '1093', '1095', '1097', '1102', '1107', '1108', '1112', '1113', '1115', '1120', '1121', '1122', '1124', '1125', '1129', '1132', '1133', '1140', '1144', '1147', '1149', '1150', '1155', '1157', '1160', '1163', '1164', '1166', '1167', '1168', '1172', '1176', '1179', '1180', '1188', '1190', '1194', '1195', '1198', '1199', '1201', '1203', '1204', '1208', '1209', '1215', '1218', '1222', '1223', '1226', '1230', '1233', '1234', '1235', '1236', '1237', '1239', '1241', '1242', '1245', '1246', '1249', '1250', '1252', '1253', '1254', '1255', '1259', '1265', '1267', '1271', '1272', '1274', '1277', '1281', '1284', '1285', '1286', '1291', '1295', '1297', '1298', '1299', '1301', '1303', '1306', '1308', '1309', '1312', '1313', '1314', '1320', '1321', '1325', '1330', '1333', '1339', '1343', '1344', '1345', '1346', '1347', '1350', '1353', '1357', '1364', '1366', '1369', '1373', '1378', '1380', '1384', '1385', '1387', '1390', '1391', '1392', '1393', '1394', '1395', '1396', '1398', '1400', '1401', '1406', '1408', '1411', '1413', '1415', '1417', '1429', '1431', '1433', '1434', '1435', '1436', '1437', '1438', '1442', '1445', '1446', '1447', '1448', '1449', '1453', '1455', '1459', '1462', '1464', '1466', '1469', '1470', '1471', '1472', '1474', '1480', '1486', '1490', '1493', '1494', '1495', '1496', '1497', '1499', '1500', '1504', '1505', '1514', '1518', '1519', '1528', '1530', '1532', '1533', '1535', '1536', '1541', '1546', '1548', '1550', '1552', '1553', '1555', '1561', '1572', '1582', '1583', '1585', '1590', '1591', '1592', '1593', '1594', '1597', '1602', '1604', '1605', '1606', '1608', '1609', '1615', '1616', '1618', '1621', '1623', '1625', '1627', '1628', '1634', '1635', '1638', '1639', '1640', '1645', '1646', '1648', '1649', '1651', '1653', '1655', '1657', '1659', '1660', '1663', '1664', '1669', '1671', '1674', '1676', '1678', '1679', '1683', '1684', '1685', '1690', '1691', '1692', '1694', '1696', '1698', '1699', '1700', '1701', '1708', '1712', '1716', '1717', '1721', '1723', '1726', '1729', '1730', '1731', '1732', '1734', '1740', '1742', '1744', '1747', '1749', '1752', '1756', '1760', '1762', '1763', '1765', '1766', '1769', '1770', '1772', '1773', '1777', '1780', '1783', '1785', '1786', '1787', '1790', '1791', '1792', '1793', '1794', '1796', '1798', '1799', '1805', '1811', '1812', '1813', '1814', '1819', '1821', '1823', '1824', '1827', '1830', '1832', '1834', '1839', '1840', '1841', '1842', '1844', '1846', '1848', '1849', '1850', '1853', '1856', '1860', '1861', '1864', '1868', '1870', '1872', '1875', '1876', '1878', '1879', '1880', '1881', '1882', '1883', '1884', '1885', '1888', '1889', '1890', '1891', '1892', '1908', '1911', '1913', '1914', '1916', '1917', '1918', '1919', '1920', '1922', '1929', '1932', '1935', '1937', '1939', '1940', '1942', '1945', '1946', '1953', '1955', '1959', '1962', '1963', '1965', '1968', '1969', '1971', '1972', '1973', '1974', '1978', '1980', '1982', '1983', '1984', '1986', '1988', '1992', '1996', '2000']",False,5000,True,2,0c156b651d,0.0,1.0,1.0
./expes/v2_2021-03-19_issda-30_2000-prng-1-w5-p2,30_issda-2000,2000,first-2000,500,25,rng,num-start-1800,1800,25726,classic,2194.522125005722,True,,True,1.0,1.0,1.0,1,"['4', '5', '12', '18', '19', '22', '26', '30', '35', '36', '37', '38', '43', '45', '46', '49', '53', '56', '58', '59', '60', '61', '63', '67', '71', '73', '77', '78', '81', '82', '83', '90', '94', '98', '115', '121', '129', '130', '132', '134', '143', '145', '150', '157', '168', '171', '174', '178', '188', '193', '198', '203', '205', '206', '210', '211', '214', '221', '222', '223', '225', '234', '235', '236', '237', '242', '248', '257', '258', '265', '268', '273', '276', '277', '278', '300', '302', '322', '325', '326', '327', '329', '332', '336', '342', '343', '345', '346', '348', '349', '352', '355', '363', '371', '379', '381', '385', '386', '389', '398', '409', '410', '411', '412', '421', '422', '426', '429', '430', '435', '437', '444', '446', '449', '452', '455', '458', '459', '462', '465', '469', '471', '473', '476', '478', '481', '482', '491', '495', '498', '512', '517', '519', '520', '523', '530', '546', '547', '549', '551', '552', '559', '568', '576', '577', '582', '594', '595', '597', '603', '604', '606', '607', '608', '611', '612', '622', '628', '632', '636', '639', '642', '645', '650', '651', '656', '657', '658', '660', '667', '672', '679', '681', '682', '694', '695', '697', '699', '704', '705', '706', '708', '709', '711', '724', '731', '747', '748', '752', '754', '759', '768', '775', '777', '778', '779', '781', '786', '792', '799', '802', '806', '807', '809', '814', '817', '824', '828', '829', '833', '847', '849', '853', '863', '865', '873', '874', '880', '885', '887', '892', '897', '899', '913', '921', '922', '924', '928', '932', '938', '939', '941', '942', '944', '962', '968', '971', '977', '984', '986', '993', '994', '1000', '1002', '1003', '1009', '1015', '1016', '1017', '1023', '1024', '1026', '1029', '1033', '1034', '1035', '1037', '1040', '1042', '1043', '1045', '1050', '1053', '1058', '1063', '1067', '1073', '1081', '1091', '1095', '1103', '1106', '1107', '1109', '1112', '1116', '1122', '1123', '1124', '1127', '1128', '1129', '1133', '1136', '1140', '1149', '1150', '1154', '1156', '1157', '1160', '1166', '1168', '1169', '1175', '1180', '1184', '1185', '1188', '1197', '1202', '1204', '1207', '1210', '1211', '1212', '1215', '1222', '1229', '1230', '1232', '1237', '1241', '1245', '1248', '1254', '1255', '1257', '1260', '1276', '1277', '1280', '1289', '1292', '1293', '1302', '1316', '1326', '1328', '1329', '1331', '1335', '1336', '1345', '1351', '1352', '1360', '1362', '1364', '1373', '1374', '1379', '1381', '1382', '1383', '1387', '1389', '1395', '1406', '1408', '1424', '1426', '1439', '1440', '1441', '1442', '1444', '1457', '1458', '1465', '1473', '1478', '1483', '1486', '1487', '1488', '1494', '1496', '1501', '1511', '1512', '1517', '1522', '1524', '1545', '1548', '1555', '1559', '1562', '1565', '1572', '1573', '1578', '1579', '1589', '1593', '1595', '1597', '1598', '1602', '1603', '1605', '1609', '1611', '1612', '1615', '1616', '1618', '1631', '1633', '1634', '1636', '1643', '1644', '1646', '1648', '1652', '1658', '1662', '1666', '1673', '1674', '1676', '1679', '1681', '1692', '1696', '1697', '1700', '1705', '1712', '1716', '1721', '1723', '1724', '1731', '1734', '1736', '1738', '1742', '1744', '1748', '1756', '1757', '1759', '1762', '1764', '1774', '1777', '1778', '1782', '1786', '1794', '1800', '1805', '1808', '1813', '1815', '1818', '1825', '1830', '1835', '1837', '1843', '1845', '1847', '1863', '1864', '1865', '1866', '1871', '1873', '1877', '1879', '1885', '1889', '1895', '1896', '1897', '1898', '1907', '1910', '1918', '1921', '1922', '1924', '1927', '1928', '1933', '1934', '1936', '1946', '1950', '1951', '1955', '1956', '1961', '1966', '1971', '1976', '1978', '1981', '1983', '1985', '1987', '1988', '1994', '1995', '1998', '1999']",False,5000,True,2,46f190c1e4,0.0,1.0,1.0
./expes/v2_2021-03-19_issda-30_2000-prng-1-w5-p2,30_issda-2000,2000,first-2000,400,20,rng,num-start-600,600,25726,classic,5058.0963933467865,False,,False,0,,,0,"['1', '10', '13', '26', '31', '35', '38', '42', '45', '59', '62', '63', '64', '66', '67', '70', '76', '78', '93', '94', '107', '111', '117', '128', '131', '142', '152', '154', '156', '157', '159', '166', '172', '176', '181', '183', '184', '191', '193', '197', '200', '206', '216', '230', '234', '240', '245', '253', '258', '260', '261', '263', '278', '281', '283', '292', '296', '297', '299', '308', '310', '317', '323', '324', '330', '334', '335', '347', '353', '355', '374', '377', '380', '381', '385', '387', '394', '395', '396', '397', '402', '404', '406', '408', '412', '429', '430', '454', '457', '476', '489', '493', '499', '502', '503', '512', '513', '515', '522', '525', '536', '544', '545', '549', '552', '559', '562', '565', '567', '574', '577', '586', '593', '596', '597', '598', '622', '624', '627', '640', '649', '652', '655', '656', '663', '675', '682', '688', '689', '704', '718', '732', '738', '739', '740', '741', '742', '745', '751', '759', '760', '761', '765', '768', '771', '773', '774', '778', '779', '796', '798', '815', '816', '819', '838', '840', '841', '848', '859', '864', '865', '867', '870', '874', '881', '883', '887', '901', '903', '904', '910', '912', '914', '916', '921', '925', '926', '948', '951', '957', '961', '964', '965', '969', '973', '978', '979', '981', '982', '991', '994', '995', '997', '999', '1000', '1001', '1002', '1007', '1008', '1013', '1018', '1019', '1024', '1025', '1029', '1030', '1032', '1039', '1055', '1059', '1066', '1070', '1075', '1076', '1077', '1081', '1097', '1102', '1103', '1105', '1121', '1130', '1134', '1143', '1144', '1147', '1149', '1154', '1156', '1165', '1167', '1173', '1176', '1180', '1187', '1202', '1206', '1207', '1208', '1217', '1224', '1233', '1234', '1236', '1239', '1243', '1246', '1250', '1254', '1257', '1263', '1266', '1267', '1269', '1271', '1278', '1282', '1287', '1289', '1293', '1298', '1300', '1301', '1306', '1308', '1310', '1321', '1323', '1324', '1328', '1340', '1343', '1345', '1351', '1358', '1369', '1373', '1375', '1385', '1390', '1391', '1394', '1395', '1397', '1405', '1415', '1421', '1423', '1425', '1430', '1433', '1436', '1437', '1446', '1451', '1460', '1462', '1463', '1465', '1472', '1473', '1478', '1480', '1483', '1493', '1494', '1495', '1499', '1505', '1514', '1516', '1522', '1527', '1529', '1539', '1548', '1551', '1556', '1562', '1568', '1578', '1585', '1594', '1595', '1603', '1606', '1611', '1621', '1625', '1631', '1632', '1639', '1643', '1646', '1649', '1650', '1651', '1652', '1667', '1672', '1673', '1676', '1684', '1696', '1703', '1706', '1709', '1718', '1730', '1741', '1748', '1758', '1773', '1783', '1787', '1795', '1801', '1803', '1813', '1822', '1828', '1830', '1843', '1849', '1853', '1860', '1862', '1863', '1865', '1867', '1870', '1871', '1877', '1883', '1889', '1891', '1893', '1899', '1900', '1911', '1914', '1919', '1922', '1925', '1927', '1933', '1936', '1941', '1946', '1949', '1950', '1971', '1976', '1977', '1978', '1979', '1987', '1989', '1997', '2000']",True,5000,True,2,a4fc22aa26,0.0,0.0,0.0
./expes/v2_2021-03-19_issda-30_2000-prng-1-w5-p2,30_issda-2000,2000,first-2000,1000,50,rng,num-start-800,800,25726,classic,5083.059777736664,False,,False,0,,,0,"['1', '2', '4', '6', '8', '10', '13', '16', '21', '22', '25', '26', '29', '30', '31', '32', '34', '36', '37', '38', '40', '41', '43', '44', '45', '47', '49', '52', '53', '57', '58', '59', '60', '62', '63', '65', '67', '71', '72', '78', '79', '80', '81', '82', '83', '85', '86', '88', '92', '95', '98', '102', '103', '105', '106', '107', '108', '112', '113', '114', '116', '121', '122', '123', '124', '127', '128', '131', '132', '133', '137', '138', '140', '141', '143', '144', '149', '153', '154', '155', '158', '159', '160', '166', '167', '171', '175', '176', '180', '182', '184', '185', '186', '191', '192', '193', '194', '195', '196', '198', '199', '201', '203', '204', '210', '211', '212', '214', '218', '219', '220', '223', '226', '227', '229', '230', '231', '232', '234', '235', '236', '238', '239', '243', '244', '245', '247', '249', '250', '251', '252', '253', '255', '258', '259', '260', '262', '264', '267', '268', '270', '271', '273', '274', '277', '281', '284', '289', '290', '291', '294', '300', '301', '305', '307', '310', '314', '316', '319', '325', '329', '330', '331', '332', '333', '334', '338', '339', '343', '344', '345', '348', '349', '350', '352', '353', '358', '360', '363', '364', '366', '369', '370', '371', '372', '374', '377', '379', '380', '381', '383', '387', '388', '389', '391', '393', '394', '395', '397', '400', '403', '405', '407', '408', '409', '410', '411', '415', '416', '419', '420', '421', '422', '425', '426', '427', '429', '431', '432', '434', '438', '442', '443', '444', '447', '449', '451', '455', '456', '457', '458', '461', '462', '463', '464', '468', '469', '471', '472', '473', '477', '478', '480', '483', '484', '485', '487', '490', '494', '495', '496', '498', '500', '501', '502', '505', '506', '507', '509', '510', '512', '513', '515', '516', '517', '519', '520', '522', '523', '524', '525', '526', '530', '533', '534', '539', '540', '541', '542', '544', '545', '547', '550', '552', '555', '556', '557', '558', '559', '560', '561', '562', '564', '565', '566', '570', '571', '573', '575', '576', '577', '578', '579', '580', '581', '582', '587', '588', '589', '594', '596', '597', '598', '599', '601', '602', '603', '604', '606', '607', '608', '614', '615', '616', '617', '620', '621', '625', '626', '628', '629', '634', '636', '637', '640', '641', '643', '644', '647', '648', '650', '652', '653', '654', '657', '659', '660', '661', '662', '663', '666', '667', '668', '672', '675', '677', '680', '683', '684', '685', '686', '687', '688', '691', '694', '696', '697', '699', '701', '703', '704', '709', '712', '714', '718', '720', '722', '724', '726', '729', '731', '734', '738', '739', '740', '745', '746', '748', '749', '751', '754', '755', '756', '759', '763', '764', '771', '772', '774', '776', '777', '778', '780', '781', '782', '783', '784', '787', '788', '789', '791', '792', '793', '794', '795', '798', '799', '800', '805', '807', '808', '809', '813', '814', '815', '818', '819', '820', '822', '824', '825', '827', '831', '832', '833', '837', '844', '845', '847', '849', '850', '855', '856', '858', '859', '862', '863', '864', '866', '867', '869', '871', '873', '874', '879', '880', '881', '884', '885', '886', '890', '893', '896', '898', '899', '901', '904', '905', '907', '910', '912', '913', '914', '917', '918', '920', '921', '922', '925', '927', '929', '930', '931', '932', '933', '937', '942', '944', '955', '956', '958', '959', '960', '961', '962', '963', '965', '966', '969', '970', '972', '973', '974', '975', '977', '979', '981', '984', '986', '987', '990', '992', '993', '994', '995', '996', '997', '998', '1000', '1002', '1003', '1005', '1006', '1012', '1013', '1014', '1015', '1020', '1022', '1025', '1026', '1029', '1031', '1033', '1034', '1035', '1036', '1038', '1039', '1041', '1044', '1046', '1048', '1049', '1053', '1058', '1061', '1062', '1065', '1066', '1068', '1069', '1073', '1077', '1078', '1080', '1082', '1086', '1087', '1088', '1089', '1090', '1092', '1094', '1095', '1096', '1098', '1101', '1103', '1107', '1109', '1110', '1111', '1113', '1115', '1116', '1117', '1119', '1120', '1121', '1122', '1124', '1125', '1126', '1128', '1130', '1132', '1134', '1136', '1138', '1140', '1142', '1143', '1144', '1145', '1146', '1147', '1150', '1158', '1161', '1162', '1163', '1164', '1166', '1167', '1168', '1169', '1171', '1174', '1177', '1178', '1182', '1183', '1184', '1186', '1192', '1195', '1197', '1201', '1205', '1206', '1207', '1211', '1214', '1216', '1218', '1219', '1220', '1221', '1222', '1226', '1229', '1232', '1234', '1235', '1237', '1240', '1244', '1245', '1248', '1249', '1253', '1255', '1261', '1262', '1265', '1267', '1270', '1272', '1279', '1281', '1283', '1285', '1286', '1287', '1294', '1296', '1297', '1298', '1301', '1304', '1306', '1310', '1311', '1313', '1315', '1318', '1321', '1322', '1323', '1324', '1325', '1326', '1327', '1329', '1330', '1331', '1335', '1336', '1339', '1343', '1344', '1345', '1346', '1348', '1349', '1351', '1352', '1356', '1359', '1360', '1363', '1365', '1369', '1373', '1374', '1375', '1377', '1379', '1380', '1383', '1386', '1388', '1393', '1394', '1395', '1396', '1398', '1402', '1403', '1404', '1406', '1407', '1409', '1413', '1416', '1417', '1418', '1427', '1431', '1432', '1437', '1439', '1440', '1441', '1442', '1443', '1444', '1446', '1453', '1454', '1456', '1457', '1460', '1463', '1464', '1465', '1466', '1470', '1471', '1472', '1474', '1476', '1478', '1480', '1484', '1485', '1486', '1487', '1488', '1489', '1491', '1496', '1497', '1500', '1504', '1506', '1509', '1514', '1515', '1516', '1517', '1519', '1522', '1525', '1527', '1529', '1530', '1532', '1533', '1539', '1540', '1541', '1542', '1546', '1547', '1548', '1551', '1552', '1555', '1557', '1558', '1559', '1560', '1562', '1563', '1564', '1565', '1567', '1571', '1575', '1576', '1577', '1578', '1580', '1584', '1585', '1587', '1588', '1590', '1593', '1597', '1602', '1603', '1606', '1607', '1608', '1610', '1613', '1615', '1621', '1623', '1624', '1626', '1627', '1632', '1633', '1634', '1635', '1637', '1639', '1641', '1646', '1648', '1650', '1651', '1652', '1654', '1655', '1656', '1658', '1659', '1660', '1661', '1664', '1668', '1670', '1673', '1676', '1678', '1680', '1681', '1682', '1683', '1685', '1686', '1687', '1688', '1691', '1694', '1695', '1696', '1697', '1698', '1701', '1702', '1703', '1704', '1705', '1710', '1711', '1713', '1714', '1720', '1724', '1731', '1732', '1735', '1737', '1739', '1740', '1741', '1742', '1745', '1747', '1748', '1750', '1752', '1754', '1756', '1761', '1762', '1764', '1765', '1768', '1769', '1770', '1771', '1772', '1773', '1776', '1777', '1779', '1781', '1784', '1785', '1786', '1787', '1788', '1790', '1791', '1792', '1795', '1800', '1802', '1803', '1807', '1810', '1814', '1815', '1816', '1819', '1820', '1821', '1835', '1836', '1837', '1839', '1840', '1841', '1842', '1845', '1846', '1847', '1848', '1849', '1852', '1853', '1861', '1862', '1864', '1865', '1875', '1877', '1879', '1884', '1886', '1887', '1888', '1889', '1891', '1893', '1894', '1895', '1896', '1898', '1900', '1901', '1902', '1903', '1906', '1907', '1908', '1910', '1911', '1912', '1913', '1914', '1917', '1918', '1920', '1921', '1924', '1926', '1930', '1932', '1934', '1935', '1936', '1937', '1938', '1940', '1946', '1948', '1949', '1950', '1951', '1955', '1959', '1962', '1964', '1965', '1967', '1968', '1969', '1971', '1972', '1974', '1977', '1980', '1983', '1984', '1986', '1988', '1990', '1991', '1992', '1993', '1995', '2000']",True,5000,True,2,7c52d7a553,0.0,0.0,0.0
./expes/v2_2021-03-19_issda-30_2000-prng-1-w5-p2,30_issda-2000,2000,first-2000,800,40,rng,num-start-800,800,25726,classic,5078.555353403091,False,,False,0,,,0,"['1', '3', '4', '5', '7', '15', '17', '19', '20', '21', '26', '28', '29', '30', '31', '32', '34', '39', '42', '45', '47', '51', '55', '57', '58', '61', '62', '63', '65', '67', '68', '69', '73', '74', '75', '78', '79', '80', '81', '82', '83', '84', '85', '87', '92', '93', '94', '96', '97', '99', '103', '114', '119', '124', '126', '128', '129', '131', '135', '136', '142', '144', '145', '146', '148', '152', '155', '157', '161', '162', '165', '166', '167', '168', '169', '171', '172', '173', '174', '179', '184', '186', '187', '188', '192', '195', '201', '203', '204', '206', '207', '208', '211', '215', '216', '223', '224', '228', '231', '233', '236', '237', '238', '240', '241', '244', '246', '249', '253', '254', '255', '256', '257', '261', '266', '267', '268', '272', '274', '277', '284', '286', '287', '289', '291', '292', '294', '299', '300', '301', '304', '305', '307', '310', '311', '315', '317', '319', '320', '321', '323', '325', '328', '330', '332', '336', '340', '342', '347', '350', '359', '365', '366', '368', '370', '373', '374', '377', '379', '383', '386', '387', '388', '390', '391', '392', '394', '399', '400', '406', '407', '409', '414', '417', '419', '420', '422', '423', '425', '426', '427', '432', '438', '441', '443', '445', '448', '449', '451', '452', '453', '455', '457', '461', '471', '473', '477', '479', '483', '485', '489', '490', '491', '492', '496', '498', '500', '514', '518', '522', '524', '526', '527', '529', '531', '532', '533', '534', '535', '537', '553', '556', '563', '564', '565', '571', '574', '576', '578', '588', '590', '593', '594', '595', '597', '600', '601', '602', '603', '607', '613', '616', '617', '618', '619', '620', '621', '622', '626', '631', '636', '638', '640', '645', '647', '648', '650', '652', '656', '660', '661', '664', '665', '667', '668', '670', '673', '677', '678', '682', '683', '685', '687', '688', '691', '692', '693', '697', '702', '704', '706', '708', '710', '711', '713', '718', '722', '723', '725', '731', '732', '734', '735', '736', '740', '741', '742', '750', '752', '753', '755', '756', '759', '761', '762', '763', '770', '772', '775', '776', '777', '783', '786', '787', '789', '792', '794', '795', '796', '802', '803', '807', '809', '813', '816', '817', '823', '824', '826', '830', '832', '836', '840', '843', '849', '850', '851', '852', '855', '856', '857', '859', '861', '862', '865', '867', '872', '873', '874', '883', '884', '890', '892', '894', '906', '907', '911', '912', '913', '915', '918', '919', '923', '925', '928', '930', '933', '938', '939', '940', '944', '955', '957', '964', '965', '966', '967', '970', '971', '975', '976', '977', '980', '982', '986', '987', '988', '996', '997', '998', '1000', '1001', '1003', '1005', '1008', '1009', '1011', '1013', '1015', '1018', '1019', '1020', '1021', '1022', '1029', '1032', '1034', '1035', '1039', '1041', '1042', '1048', '1058', '1061', '1063', '1066', '1067', '1068', '1069', '1072', '1073', '1075', '1076', '1077', '1081', '1083', '1085', '1086', '1091', '1093', '1095', '1097', '1102', '1107', '1108', '1112', '1113', '1115', '1120', '1121', '1122', '1124', '1125', '1129', '1132', '1133', '1140', '1144', '1147', '1149', '1150', '1155', '1157', '1160', '1163', '1164', '1166', '1167', '1168', '1172', '1176', '1179', '1180', '1188', '1190', '1194', '1195', '1198', '1199', '1201', '1203', '1204', '1208', '1209', '1215', '1218', '1222', '1223', '1226', '1230', '1233', '1234', '1235', '1236', '1237', '1239', '1241', '1242', '1245', '1246', '1249', '1250', '1252', '1253', '1254', '1255', '1259', '1265', '1267', '1271', '1272', '1274', '1277', '1281', '1284', '1285', '1286', '1291', '1295', '1297', '1298', '1299', '1301', '1303', '1306', '1308', '1309', '1312', '1313', '1314', '1320', '1321', '1325', '1330', '1333', '1339', '1343', '1344', '1345', '1346', '1347', '1350', '1353', '1357', '1364', '1366', '1369', '1373', '1378', '1380', '1384', '1385', '1387', '1390', '1391', '1392', '1393', '1394', '1395', '1396', '1398', '1400', '1401', '1406', '1408', '1411', '1413', '1415', '1417', '1429', '1431', '1433', '1434', '1435', '1436', '1437', '1438', '1442', '1445', '1446', '1447', '1448', '1449', '1453', '1455', '1459', '1462', '1464', '1466', '1469', '1470', '1471', '1472', '1474', '1480', '1486', '1490', '1493', '1494', '1495', '1496', '1497', '1499', '1500', '1504', '1505', '1514', '1518', '1519', '1528', '1530', '1532', '1533', '1535', '1536', '1541', '1546', '1548', '1550', '1552', '1553', '1555', '1561', '1572', '1582', '1583', '1585', '1590', '1591', '1592', '1593', '1594', '1597', '1602', '1604', '1605', '1606', '1608', '1609', '1615', '1616', '1618', '1621', '1623', '1625', '1627', '1628', '1634', '1635', '1638', '1639', '1640', '1645', '1646', '1648', '1649', '1651', '1653', '1655', '1657', '1659', '1660', '1663', '1664', '1669', '1671', '1674', '1676', '1678', '1679', '1683', '1684', '1685', '1690', '1691', '1692', '1694', '1696', '1698', '1699', '1700', '1701', '1708', '1712', '1716', '1717', '1721', '1723', '1726', '1729', '1730', '1731', '1732', '1734', '1740', '1742', '1744', '1747', '1749', '1752', '1756', '1760', '1762', '1763', '1765', '1766', '1769', '1770', '1772', '1773', '1777', '1780', '1783', '1785', '1786', '1787', '1790', '1791', '1792', '1793', '1794', '1796', '1798', '1799', '1805', '1811', '1812', '1813', '1814', '1819', '1821', '1823', '1824', '1827', '1830', '1832', '1834', '1839', '1840', '1841', '1842', '1844', '1846', '1848', '1849', '1850', '1853', '1856', '1860', '1861', '1864', '1868', '1870', '1872', '1875', '1876', '1878', '1879', '1880', '1881', '1882', '1883', '1884', '1885', '1888', '1889', '1890', '1891', '1892', '1908', '1911', '1913', '1914', '1916', '1917', '1918', '1919', '1920', '1922', '1929', '1932', '1935', '1937', '1939', '1940', '1942', '1945', '1946', '1953', '1955', '1959', '1962', '1963', '1965', '1968', '1969', '1971', '1972', '1973', '1974', '1978', '1980', '1982', '1983', '1984', '1986', '1988', '1992', '1996', '2000']",True,5000,True,2,d205b09f4a,0.0,0.0,0.0
./expes/v2_2021-03-19_issda-30_2000-prng-1-w5-p2,30_issda-2000,2000,first-2000,700,35,rng,num-start-1200,1200,25726,classic,5125.957635402679,True,,False,1.0,1.0,1.0,1,"['4', '8', '13', '14', '16', '18', '23', '26', '27', '35', '36', '39', '43', '45', '49', '51', '53', '56', '58', '59', '61', '63', '64', '67', '76', '78', '81', '82', '88', '90', '95', '101', '104', '106', '107', '108', '109', '116', '117', '121', '125', '128', '132', '138', '146', '147', '148', '150', '151', '153', '160', '169', '170', '172', '173', '179', '186', '187', '191', '199', '201', '202', '208', '210', '211', '212', '218', '222', '225', '231', '232', '234', '238', '240', '242', '245', '250', '251', '253', '256', '258', '260', '265', '270', '272', '276', '277', '279', '280', '282', '284', '291', '292', '293', '298', '301', '304', '311', '318', '319', '320', '325', '330', '333', '335', '336', '344', '348', '349', '351', '352', '354', '355', '361', '365', '368', '369', '373', '375', '377', '385', '387', '388', '390', '393', '399', '401', '402', '403', '404', '405', '408', '409', '410', '411', '413', '419', '420', '421', '424', '428', '429', '431', '432', '433', '435', '439', '451', '452', '455', '458', '460', '463', '466', '467', '469', '471', '473', '475', '478', '482', '489', '490', '492', '495', '496', '504', '507', '512', '513', '516', '517', '522', '523', '529', '531', '532', '536', '538', '540', '545', '546', '549', '550', '551', '555', '560', '561', '562', '566', '567', '569', '570', '571', '572', '573', '578', '579', '580', '584', '585', '594', '597', '599', '601', '607', '608', '611', '626', '628', '630', '632', '635', '636', '637', '638', '639', '640', '641', '644', '648', '651', '658', '660', '661', '663', '671', '673', '676', '677', '681', '687', '688', '689', '690', '691', '696', '697', '699', '700', '702', '704', '705', '712', '714', '717', '718', '724', '725', '727', '728', '729', '730', '735', '737', '738', '740', '741', '742', '743', '744', '745', '746', '747', '748', '749', '751', '752', '753', '755', '761', '767', '768', '775', '776', '778', '781', '782', '788', '789', '790', '796', '797', '800', '801', '803', '805', '808', '810', '814', '818', '819', '821', '829', '831', '832', '834', '835', '837', '845', '848', '850', '851', '856', '858', '861', '862', '866', '867', '868', '869', '875', '879', '881', '884', '886', '888', '892', '893', '898', '901', '902', '904', '909', '912', '919', '920', '928', '934', '936', '939', '941', '942', '943', '944', '952', '954', '958', '962', '967', '972', '974', '976', '977', '978', '981', '985', '986', '989', '991', '994', '995', '997', '1000', '1004', '1005', '1007', '1008', '1009', '1013', '1021', '1024', '1025', '1026', '1027', '1028', '1029', '1030', '1032', '1035', '1039', '1043', '1048', '1049', '1052', '1053', '1056', '1057', '1058', '1059', '1063', '1066', '1067', '1068', '1071', '1077', '1078', '1080', '1081', '1084', '1088', '1095', '1096', '1098', '1099', '1101', '1102', '1105', '1108', '1109', '1110', '1113', '1115', '1119', '1120', '1123', '1124', '1125', '1127', '1130', '1135', '1137', '1138', '1141', '1143', '1144', '1147', '1154', '1156', '1157', '1168', '1169', '1174', '1181', '1183', '1189', '1190', '1202', '1203', '1206', '1208', '1209', '1215', '1217', '1221', '1226', '1227', '1230', '1232', '1234', '1243', '1244', '1245', '1247', '1248', '1252', '1255', '1262', '1264', '1266', '1268', '1269', '1271', '1272', '1273', '1275', '1276', '1279', '1280', '1285', '1286', '1289', '1295', '1296', '1299', '1302', '1305', '1307', '1310', '1312', '1313', '1316', '1318', '1327', '1331', '1332', '1335', '1338', '1344', '1347', '1349', '1351', '1354', '1355', '1356', '1357', '1359', '1360', '1365', '1367', '1369', '1370', '1371', '1372', '1376', '1377', '1380', '1384', '1390', '1391', '1395', '1396', '1398', '1400', '1402', '1403', '1404', '1405', '1407', '1409', '1410', '1411', '1412', '1414', '1415', '1422', '1425', '1426', '1428', '1430', '1432', '1435', '1444', '1446', '1455', '1463', '1465', '1466', '1467', '1473', '1477', '1487', '1488', '1498', '1500', '1504', '1505', '1507', '1510', '1514', '1520', '1523', '1526', '1530', '1533', '1534', '1540', '1543', '1544', '1550', '1551', '1556', '1558', '1560', '1561', '1567', '1568', '1570', '1575', '1579', '1581', '1582', '1585', '1588', '1596', '1606', '1607', '1609', '1613', '1616', '1617', '1618', '1622', '1623', '1625', '1629', '1631', '1632', '1634', '1635', '1639', '1640', '1641', '1642', '1646', '1651', '1654', '1657', '1659', '1660', '1662', '1665', '1669', '1671', '1677', '1678', '1679', '1682', '1685', '1692', '1701', '1702', '1704', '1707', '1710', '1711', '1712', '1714', '1718', '1719', '1722', '1723', '1726', '1727', '1728', '1731', '1732', '1739', '1740', '1747', '1751', '1753', '1758', '1760', '1761', '1766', '1767', '1771', '1773', '1774', '1779', '1788', '1789', '1802', '1806', '1807', '1812', '1814', '1816', '1818', '1822', '1824', '1829', '1832', '1835', '1838', '1839', '1846', '1849', '1850', '1851', '1856', '1858', '1865', '1866', '1868', '1874', '1875', '1877', '1878', '1882', '1885', '1892', '1893', '1895', '1897', '1899', '1900', '1911', '1912', '1913', '1915', '1918', '1920', '1921', '1925', '1926', '1928', '1933', '1934', '1939', '1941', '1945', '1951', '1952', '1958', '1959', '1964', '1965', '1968', '1971', '1972', '1975', '1978', '1981', '1982', '1989', '1990', '1992', '2000']",True,5000,True,2,77707e4b8d,0.0,0.0,1.0
