expe,clients,clients_size,clients_subset,agg_size,method,days,days_size,days_total,time,valid,valid_sum,success,nsols,wall_hit,wall_time,pooled,valid_sums
./expes/v2_2020-12-06_dh_3000-prng-1,30_issda_3000,3000,rng-3000,501,rng,num-start-201,201,25726,1061.9530594348907,False,,False,0,True,1000,True,0.0
./expes/v2_2020-12-06_dh_3000-prng-1,30_issda_3000,3000,rng-3000,2001,rng,num-start-301,301,25726,1088.963351726532,False,,False,0,True,1000,True,0.0
./expes/v2_2020-12-06_dh_3000-prng-1,30_issda_3000,3000,rng-3000,1,rng,num-start-601,601,25726,186.17257499694824,True,,True,1,False,1000,True,1.0
./expes/v2_2020-12-06_dh_3000-prng-1,30_issda_3000,3000,rng-3000,2501,rng,num-start-201,201,25726,1057.096301317215,False,,False,0,True,1000,True,0.0
./expes/v2_2020-12-06_dh_3000-prng-1,30_issda_3000,3000,rng-3000,2001,rng,num-start-701,701,25726,1199.9688007831573,False,,False,0,True,1000,True,0.0
./expes/v2_2020-12-06_dh_3000-prng-1,30_issda_3000,3000,rng-3000,1001,rng,num-start-501,501,25726,1139.8400945663452,False,,False,0,True,1000,True,0.0
./expes/v2_2020-12-06_dh_3000-prng-1,30_issda_3000,3000,rng-3000,1001,rng,num-start-1,1,25726,0.5196573734283447,False,,False,2,False,1000,True,1.0
./expes/v2_2020-12-06_dh_3000-prng-1,30_issda_3000,3000,rng-3000,1001,rng,num-start-901,901,25726,1254.6328756809235,False,,False,0,True,1000,True,0.0
./expes/v2_2020-12-06_dh_3000-prng-1,30_issda_3000,3000,rng-3000,1,rng,num-start-1,1,25726,0.39652514457702637,False,,False,2,False,1000,True,1.0
./expes/v2_2020-12-06_dh_3000-prng-1,30_issda_3000,3000,rng-3000,1,rng,num-start-101,101,25726,28.4942467212677,True,,True,1,False,1000,True,1.0
./expes/v2_2020-12-06_dh_3000-prng-1,30_issda_3000,3000,rng-3000,2001,rng,num-start-501,501,25726,1142.1732263565063,False,,False,0,True,1000,True,0.0
./expes/v2_2020-12-06_dh_3000-prng-1,30_issda_3000,3000,rng-3000,501,rng,num-start-401,401,25726,1117.2358169555664,False,,False,0,True,1000,True,0.0
