expe,clients,clients_size,clients_subset,agg_size,method,days,days_size,days_total,time,valid,valid_sum,success,nsols,wall_hit,wall_time,pooled,valid_sums
./expes/v2_2020-12-06_dh_3000-prng-1,30_issda_3000,3000,rng-3000,2501,rng,num-start-1,1,25726,0.3275492191314697,False,,False,2,False,1000,True,1.0
./expes/v2_2020-12-06_dh_3000-prng-1,30_issda_3000,3000,rng-3000,501,rng,num-start-301,301,25726,1052.318021774292,False,,False,0,True,1000,True,0.0
./expes/v2_2020-12-06_dh_3000-prng-1,30_issda_3000,3000,rng-3000,1501,rng,num-start-201,201,25726,1036.8281271457672,False,,False,0,True,1000,True,0.0
./expes/v2_2020-12-06_dh_3000-prng-1,30_issda_3000,3000,rng-3000,2001,rng,num-start-301,301,25726,1056.3099551200867,False,,False,0,True,1000,True,0.0
./expes/v2_2020-12-06_dh_3000-prng-1,30_issda_3000,3000,rng-3000,501,rng,num-start-1,1,25726,2.6300015449523926,False,,False,2,False,1000,True,1.0
./expes/v2_2020-12-06_dh_3000-prng-1,30_issda_3000,3000,rng-3000,2501,rng,num-start-401,401,25726,1075.3935678005219,False,,False,0,True,1000,True,0.0
./expes/v2_2020-12-06_dh_3000-prng-1,30_issda_3000,3000,rng-3000,1,rng,num-start-801,801,25726,139.6279845237732,True,,True,1,False,1000,True,1.0
./expes/v2_2020-12-06_dh_3000-prng-1,30_issda_3000,3000,rng-3000,1001,rng,num-start-401,401,25726,1070.4316833019257,False,,False,0,True,1000,True,0.0
./expes/v2_2020-12-06_dh_3000-prng-1,30_issda_3000,3000,rng-3000,501,rng,num-start-701,701,25726,1128.9809544086456,False,,False,0,True,1000,True,0.0
./expes/v2_2020-12-06_dh_3000-prng-1,30_issda_3000,3000,rng-3000,2501,rng,num-start-301,301,25726,1055.3401565551758,False,,False,0,True,1000,True,0.0
./expes/v2_2020-12-06_dh_3000-prng-1,30_issda_3000,3000,rng-3000,1,rng,num-start-401,401,25726,78.86973977088928,True,,True,1,False,1000,True,1.0
./expes/v2_2020-12-06_dh_3000-prng-1,30_issda_3000,3000,rng-3000,1,rng,num-start-1,1,25726,0.41917920112609863,True,,False,2,False,1000,True,1.0
./expes/v2_2020-12-06_dh_3000-prng-1,30_issda_3000,3000,rng-3000,1501,rng,num-start-701,701,25726,1130.179437637329,False,,False,0,True,1000,True,0.0
./expes/v2_2020-12-06_dh_3000-prng-1,30_issda_3000,3000,rng-3000,1,rng,num-start-201,201,25726,34.73185658454895,True,,True,1,False,1000,True,1.0
./expes/v2_2020-12-06_dh_3000-prng-1,30_issda_3000,3000,rng-3000,1501,rng,num-start-801,801,25726,1141.2124350070953,False,,False,0,True,1000,True,0.0
