expe,clients,clients_size,clients_subset,agg_size,method,days,days_size,days_total,time,valid,valid_sum,success,nsols,wall_hit,wall_time,pooled,valid_sums
./expes/v2_2020-12-06_dh_3000-prng-1,30_issda_3000,3000,rng-3000,1001,rng,num-start-301,301,25726,1054.4048981666565,False,,False,0,True,1000,True,0.0
./expes/v2_2020-12-06_dh_3000-prng-1,30_issda_3000,3000,rng-3000,2501,rng,num-start-801,801,25726,1154.2392916679382,False,,False,0,True,1000,True,0.0
./expes/v2_2020-12-06_dh_3000-prng-1,30_issda_3000,3000,rng-3000,1,rng,num-start-901,901,25726,169.15888500213623,True,,True,1,False,1000,True,1.0
./expes/v2_2020-12-06_dh_3000-prng-1,30_issda_3000,3000,rng-3000,1001,rng,num-start-101,101,25726,1019.062328338623,False,,False,0,True,1000,True,0.0
./expes/v2_2020-12-06_dh_3000-prng-1,30_issda_3000,3000,rng-3000,1001,rng,num-start-301,301,25726,1056.0322089195251,False,,False,0,True,1000,True,0.0
./expes/v2_2020-12-06_dh_3000-prng-1,30_issda_3000,3000,rng-3000,2001,rng,num-start-1,1,25726,0.3233954906463623,False,,False,2,False,1000,True,1.0
./expes/v2_2020-12-06_dh_3000-prng-1,30_issda_3000,3000,rng-3000,2501,rng,num-start-601,601,25726,1112.5411834716797,False,,False,0,True,1000,True,0.0
./expes/v2_2020-12-06_dh_3000-prng-1,30_issda_3000,3000,rng-3000,2501,rng,num-start-101,101,25726,1020.092132806778,False,,False,0,True,1000,True,0.0
./expes/v2_2020-12-06_dh_3000-prng-1,30_issda_3000,3000,rng-3000,501,rng,num-start-901,901,25726,1180.2126441001892,False,,False,0,True,1000,True,0.0
./expes/v2_2020-12-06_dh_3000-prng-1,30_issda_3000,3000,rng-3000,501,rng,num-start-401,401,25726,1077.002821445465,False,,False,0,True,1000,True,0.0
./expes/v2_2020-12-06_dh_3000-prng-1,30_issda_3000,3000,rng-3000,2001,rng,num-start-401,401,25726,1077.3541860580444,False,,False,0,True,1000,True,0.0
