,expe,clients,clients_size,clients_subset,agg_size,agg_size_pc,method,days,days_size,days_total,noise_method,time,valid,valid_sum,success,score_avg,score_min,score_max,nsols,oracle,wall_hit,wall_time,pooled,pool_size,optimal,valid_sums,uuid
0,./expes/v3_2021-01-22_di_4500-prng-1-w1-p10,daily_issda-4500,4500,first-4500,1456,32,rng,num-start-191,191,536,classic,5053.544990301132,False,,True,0,,,0,"Index(['1', '2', '3', '4', '6', '9', '10', '13', '14', '16',
       ...
       '4474', '4477', '4479', '4483', '4485', '4492', '4494', '4495', '4497',
       '4499'],
      dtype='object', length=1456)",True,5000,True,10,0.0,0.0,0d949ca6db
1,./expes/v3_2021-01-22_di_4500-prng-1-w1-p10,daily_issda-4500,4500,first-4500,896,19,rng,num-start-31,31,536,classic,5008.879866600037,False,,True,0,,,0,"Index(['1', '4', '6', '8', '9', '13', '14', '15', '20', '24',
       ...
       '4470', '4471', '4473', '4481', '4484', '4491', '4492', '4493', '4498',
       '4499'],
      dtype='object', length=896)",True,5000,True,10,0.0,0.0,f785726eec
2,./expes/v3_2021-01-22_di_4500-prng-1-w1-p10,daily_issda-4500,4500,first-4500,2128,47,rng,num-start-51,51,536,classic,5014.201976299286,False,,True,0,,,0,"Index(['1', '2', '3', '4', '12', '14', '15', '16', '17', '19',
       ...
       '4474', '4475', '4477', '4479', '4481', '4483', '4490', '4493', '4495',
       '4500'],
      dtype='object', length=2128)",True,5000,True,10,0.0,0.0,01c2cb8de5
3,./expes/v3_2021-01-22_di_4500-prng-1-w1-p10,daily_issda-4500,4500,first-4500,1792,39,rng,num-start-121,121,536,classic,5036.498893737793,False,,True,0,,,0,"Index(['1', '2', '3', '4', '5', '6', '8', '13', '15', '17',
       ...
       '4473', '4474', '4477', '4480', '4481', '4486', '4489', '4493', '4499',
       '4500'],
      dtype='object', length=1792)",True,5000,True,10,0.0,0.0,917f61df1d
4,./expes/v3_2021-01-22_di_4500-prng-1-w1-p10,daily_issda-4500,4500,first-4500,112,2,rng,num-start-201,201,536,classic,5059.011796951294,False,,True,0,,,0,"Index(['4', '5', '38', '79', '90', '123', '125', '139', '161', '244',
       ...
       '3898', '3989', '4095', '4161', '4169', '4194', '4202', '4253', '4329',
       '4413'],
      dtype='object', length=112)",True,5000,True,10,0.0,0.0,03e1b6bac3
