,expe,clients,clients_size,clients_subset,agg_size,agg_size_pc,method,days,days_size,days_total,noise_method,time,valid,valid_sum,success,score_avg,score_min,score_max,nsols,oracle,wall_hit,wall_time,pooled,pool_size,optimal,valid_sums,uuid
0,./expes/v3_2021-01-22_di_4500-prng-1-w1-p10,daily_issda-4500,4500,first-4500,896,19,rng,num-start-41,41,536,classic,5011.895717382431,False,,True,0,,,0,"Index(['5', '6', '12', '16', '24', '27', '32', '41', '44', '45',
       ...
       '4457', '4458', '4460', '4468', '4469', '4470', '4474', '4477', '4482',
       '4495'],
      dtype='object', length=896)",True,5000,True,10,0.0,0.0,faca47ad55
1,./expes/v3_2021-01-22_di_4500-prng-1-w1-p10,daily_issda-4500,4500,first-4500,224,4,rng,num-start-151,151,536,classic,5043.069956302643,False,,True,0,,,0,"Index(['4', '5', '38', '79', '90', '102', '120', '123', '125', '128',
       ...
       '4216', '4250', '4253', '4261', '4276', '4329', '4350', '4413', '4434',
       '4474'],
      dtype='object', length=224)",True,5000,True,10,0.0,0.0,e283140496
2,./expes/v3_2021-01-22_di_4500-prng-1-w1-p10,daily_issda-4500,4500,first-4500,1904,42,rng,num-start-271,271,536,classic,5077.170700311661,False,,True,0,,,0,"Index(['1', '2', '3', '4', '5', '6', '9', '10', '11', '13',
       ...
       '4479', '4483', '4484', '4485', '4488', '4492', '4494', '4495', '4497',
       '4499'],
      dtype='object', length=1904)",True,5000,True,10,0.0,0.0,e00a3d7125
3,./expes/v3_2021-01-22_di_4500-prng-1-w1-p10,daily_issda-4500,4500,first-4500,112,2,rng,num-start-201,201,536,classic,5057.683911323547,False,,True,0,,,0,"Index(['4', '103', '140', '152', '180', '233', '302', '375', '441', '627',
       ...
       '4127', '4217', '4233', '4235', '4278', '4303', '4321', '4407', '4410',
       '4418'],
      dtype='object', length=112)",True,5000,True,10,0.0,0.0,7c89e0b795
4,./expes/v3_2021-01-22_di_4500-prng-1-w1-p10,daily_issda-4500,4500,first-4500,1232,27,rng,num-start-201,201,536,classic,5053.883845567703,False,,True,0,,,0,"Index(['1', '2', '3', '4', '14', '16', '17', '24', '25', '28',
       ...
       '4471', '4474', '4477', '4479', '4481', '4483', '4490', '4493', '4495',
       '4500'],
      dtype='object', length=1232)",True,5000,True,10,0.0,0.0,066b85b055
