,expe,clients,clients_size,clients_subset,agg_size,agg_size_pc,method,days,days_size,days_total,noise_method,time,valid,valid_sum,success,score_avg,score_min,score_max,nsols,oracle,wall_hit,wall_time,pooled,pool_size,optimal,valid_sums,uuid
0,./expes/v3_2021-01-22_di_4500-prng-1-w1-p10,daily_issda-4500,4500,first-4500,112,2,rng,num-start-101,101,536,classic,5027.7481915950775,False,,True,0,,,0,"Index(['185', '308', '322', '382', '396', '407', '476', '483', '485', '489',
       ...
       '4067', '4068', '4069', '4157', '4194', '4303', '4356', '4390', '4430',
       '4488'],
      dtype='object', length=112)",True,5000,True,10,0.0,0.0,411c5a9b59
1,./expes/v3_2021-01-22_di_4500-prng-1-w1-p10,daily_issda-4500,4500,first-4500,784,17,rng,num-start-151,151,536,classic,5043.966321468353,False,,True,0,,,0,"Index(['13', '15', '16', '25', '30', '35', '40', '44', '52', '68',
       ...
       '4446', '4453', '4458', '4459', '4462', '4467', '4475', '4482', '4486',
       '4494'],
      dtype='object', length=784)",True,5000,True,10,0.0,0.0,828fd9b57b
2,./expes/v3_2021-01-22_di_4500-prng-1-w1-p10,daily_issda-4500,4500,first-4500,336,7,rng,num-start-141,141,536,classic,5042.161481618881,False,,True,0,,,0,"Index(['47', '52', '55', '72', '91', '106', '117', '141', '144', '149',
       ...
       '4407', '4414', '4415', '4416', '4425', '4434', '4453', '4464', '4465',
       '4494'],
      dtype='object', length=336)",True,5000,True,10,0.0,0.0,daf24d81e8
3,./expes/v3_2021-01-22_di_4500-prng-1-w1-p10,daily_issda-4500,4500,first-4500,112,2,rng,num-start-171,171,536,classic,5048.527349472046,False,,True,0,,,0,"Index(['3', '87', '157', '171', '207', '228', '230', '285', '288', '351',
       ...
       '4007', '4100', '4151', '4209', '4230', '4273', '4308', '4319', '4343',
       '4382'],
      dtype='object', length=112)",True,5000,True,10,0.0,0.0,356a0092e6
4,./expes/v3_2021-01-22_di_4500-prng-1-w1-p10,daily_issda-4500,4500,first-4500,1232,27,rng,num-start-61,61,536,classic,5018.259944200516,False,,True,0,,,0,"Index(['2', '4', '5', '10', '11', '12', '13', '14', '22', '23',
       ...
       '4467', '4471', '4475', '4476', '4477', '4481', '4483', '4494', '4496',
       '4497'],
      dtype='object', length=1232)",True,5000,True,10,0.0,0.0,3948d16317
