,expe,clients,clients_size,clients_subset,agg_size,agg_size_pc,method,days,days_size,days_total,noise_method,time,valid,valid_sum,success,score_avg,score_min,score_max,nsols,oracle,wall_hit,wall_time,pooled,pool_size,optimal,valid_sums,uuid
0,./expes/v3_2021-01-22_di_4500-prng-1-w1-p10,daily_issda-4500,4500,first-4500,2128,47,rng,num-start-221,221,536,classic,5062.292144060135,False,,True,0,,,0,"Index(['1', '5', '8', '11', '12', '13', '14', '15', '16', '18',
       ...
       '4481', '4482', '4484', '4485', '4486', '4488', '4489', '4494', '4495',
       '4499'],
      dtype='object', length=2128)",True,5000,True,10,0.0,0.0,a9c6d82dec
1,./expes/v3_2021-01-22_di_4500-prng-1-w1-p10,daily_issda-4500,4500,first-4500,2240,49,rng,num-start-141,141,536,classic,5038.599542856216,False,,True,0,,,0,"Index(['5', '7', '12', '13', '16', '18', '25', '26', '28', '29',
       ...
       '4481', '4482', '4487', '4490', '4492', '4494', '4496', '4498', '4499',
       '4500'],
      dtype='object', length=2240)",True,5000,True,10,0.0,0.0,593a0a70ec
2,./expes/v3_2021-01-22_di_4500-prng-1-w1-p10,daily_issda-4500,4500,first-4500,1904,42,rng,num-start-261,261,536,classic,5073.623312950134,False,,True,0,,,0,"Index(['4', '5', '6', '8', '12', '22', '28', '29', '30', '32',
       ...
       '4480', '4482', '4484', '4486', '4488', '4489', '4491', '4492', '4495',
       '4500'],
      dtype='object', length=1904)",True,5000,True,10,0.0,0.0,a0b2c016a5
3,./expes/v3_2021-01-22_di_4500-prng-1-w1-p10,daily_issda-4500,4500,first-4500,1456,32,rng,num-start-131,131,536,classic,5035.983256101608,False,,True,0,,,0,"Index(['1', '3', '7', '13', '18', '19', '26', '29', '31', '32',
       ...
       '4462', '4467', '4468', '4473', '4474', '4477', '4484', '4487', '4494',
       '4499'],
      dtype='object', length=1456)",True,5000,True,10,0.0,0.0,ac00dc0702
4,./expes/v3_2021-01-22_di_4500-prng-1-w1-p10,daily_issda-4500,4500,first-4500,672,14,rng,num-start-71,71,536,classic,5019.628607034683,False,,True,0,,,0,"Index(['3', '17', '24', '33', '44', '53', '57', '70', '72', '102',
       ...
       '4444', '4460', '4467', '4469', '4471', '4477', '4483', '4493', '4495',
       '4500'],
      dtype='object', length=672)",True,5000,True,10,0.0,0.0,92088946dd
