,expe,clients,clients_size,clients_subset,agg_size,agg_size_pc,method,days,days_size,days_total,noise_method,time,valid,valid_sum,success,score_avg,score_min,score_max,nsols,oracle,wall_hit,wall_time,pooled,pool_size,optimal,valid_sums,uuid
0,./expes/v3_2021-01-22_di_4500-prng-1-w1-p10,daily_issda-4500,4500,first-4500,448,9,rng,num-start-91,91,536,classic,5039.358858346939,False,,True,0,,,0,"Index(['21', '24', '31', '38', '55', '62', '66', '74', '96', '99',
       ...
       '4375', '4386', '4389', '4392', '4454', '4460', '4475', '4488', '4494',
       '4495'],
      dtype='object', length=448)",True,5000,True,10,0.0,0.0,e79e9bec3d
1,./expes/v3_2021-01-22_di_4500-prng-1-w1-p10,daily_issda-4500,4500,first-4500,2240,49,rng,num-start-81,81,536,classic,5042.340018749237,False,,True,0,,,0,"Index(['4', '5', '8', '9', '10', '11', '13', '14', '16', '20',
       ...
       '4482', '4486', '4490', '4492', '4493', '4496', '4497', '4498', '4499',
       '4500'],
      dtype='object', length=2240)",True,5000,True,10,0.0,0.0,2236e2256d
2,./expes/v3_2021-01-22_di_4500-prng-1-w1-p10,daily_issda-4500,4500,first-4500,1120,24,rng,num-start-231,231,536,classic,5114.8442442417145,False,,True,0,,,0,"Index(['5', '7', '13', '18', '25', '29', '32', '33', '35', '40',
       ...
       '4471', '4473', '4481', '4482', '4487', '4490', '4492', '4496', '4499',
       '4500'],
      dtype='object', length=1120)",True,5000,True,10,0.0,0.0,da910a9a2a
3,./expes/v3_2021-01-22_di_4500-prng-1-w1-p10,daily_issda-4500,4500,first-4500,336,7,rng,num-start-201,201,536,classic,5092.97565984726,False,,True,0,,,0,"Index(['17', '24', '57', '72', '102', '133', '138', '148', '155', '179',
       ...
       '4408', '4422', '4439', '4440', '4444', '4460', '4467', '4469', '4471',
       '4483'],
      dtype='object', length=336)",True,5000,True,10,0.0,0.0,4d29c839cb
4,./expes/v3_2021-01-22_di_4500-prng-1-w1-p10,daily_issda-4500,4500,first-4500,1344,29,rng,num-start-141,141,536,classic,5067.414927959442,False,,True,0,,,0,"Index(['5', '7', '13', '18', '25', '29', '30', '32', '33', '35',
       ...
       '4473', '4476', '4481', '4482', '4487', '4490', '4492', '4496', '4499',
       '4500'],
      dtype='object', length=1344)",True,5000,True,10,0.0,0.0,3031b15af8
5,./expes/v3_2021-01-22_di_4500-prng-1-w1-p10,daily_issda-4500,4500,first-4500,1792,39,rng,num-start-161,161,536,classic,5077.925715208054,False,,True,0,,,0,"Index(['4', '5', '8', '12', '22', '28', '29', '30', '32', '33',
       ...
       '4480', '4482', '4484', '4486', '4488', '4489', '4491', '4492', '4495',
       '4500'],
      dtype='object', length=1792)",True,5000,True,10,0.0,0.0,d8a227c98f
6,./expes/v3_2021-01-22_di_4500-prng-1-w1-p10,daily_issda-4500,4500,first-4500,2128,47,rng,num-start-281,281,536,classic,5132.584221124649,False,,True,0,,,0,"Index(['4', '5', '6', '8', '12', '14', '18', '21', '22', '27',
       ...
       '4480', '4482', '4484', '4486', '4488', '4489', '4491', '4492', '4495',
       '4500'],
      dtype='object', length=2128)",True,5000,True,10,0.0,0.0,e9945e96f0
7,./expes/v3_2021-01-22_di_4500-prng-1-w1-p10,daily_issda-4500,4500,first-4500,448,9,rng,num-start-211,211,536,classic,5102.233195781708,False,,True,0,,,0,"Index(['21', '24', '31', '38', '55', '62', '66', '74', '96', '99',
       ...
       '4375', '4386', '4389', '4392', '4454', '4460', '4475', '4488', '4494',
       '4495'],
      dtype='object', length=448)",True,5000,True,10,0.0,0.0,6ec76f1b8f
8,./expes/v3_2021-01-22_di_4500-prng-1-w1-p10,daily_issda-4500,4500,first-4500,112,2,rng,num-start-241,241,536,classic,5112.1564700603485,False,,True,0,,,0,"Index(['185', '308', '322', '382', '396', '407', '476', '483', '485', '489',
       ...
       '4067', '4068', '4069', '4157', '4194', '4303', '4356', '4390', '4430',
       '4488'],
      dtype='object', length=112)",True,5000,True,10,0.0,0.0,3630c521df
9,./expes/v3_2021-01-22_di_4500-prng-1-w1-p10,daily_issda-4500,4500,first-4500,1232,27,rng,num-start-71,71,536,classic,5033.0155618190765,False,,True,0,,,0,"Index(['8', '14', '20', '24', '31', '33', '35', '36', '46', '49',
       ...
       '4475', '4476', '4478', '4486', '4490', '4492', '4493', '4496', '4497',
       '4499'],
      dtype='object', length=1232)",True,5000,True,10,0.0,0.0,3454c3c5ef
10,./expes/v3_2021-01-22_di_4500-prng-1-w1-p10,daily_issda-4500,4500,first-4500,896,19,rng,num-start-101,101,536,classic,5048.248144626617,False,,True,0,,,0,"Index(['2', '9', '10', '12', '15', '16', '24', '28', '30', '31',
       ...
       '4450', '4460', '4462', '4473', '4482', '4488', '4492', '4495', '4499',
       '4500'],
      dtype='object', length=896)",True,5000,True,10,0.0,0.0,b26420b15c
11,./expes/v3_2021-01-22_di_4500-prng-1-w1-p10,daily_issda-4500,4500,first-4500,1120,24,rng,num-start-51,51,536,classic,5024.7007801532745,False,,True,0,,,0,"Index(['1', '2', '3', '5', '6', '8', '15', '24', '29', '36',
       ...
       '4465', '4468', '4473', '4480', '4481', '4486', '4489', '4493', '4499',
       '4500'],
      dtype='object', length=1120)",True,5000,True,10,0.0,0.0,8635e89f85
12,./expes/v3_2021-01-22_di_4500-prng-1-w1-p10,daily_issda-4500,4500,first-4500,1344,29,rng,num-start-131,131,536,classic,5072.080271244049,False,,True,0,,,0,"Index(['1', '3', '7', '18', '19', '26', '29', '32', '39', '40',
       ...
       '4455', '4460', '4461', '4462', '4467', '4468', '4484', '4487', '4494',
       '4499'],
      dtype='object', length=1344)",True,5000,True,10,0.0,0.0,a2d4e47e6e
13,./expes/v3_2021-01-22_di_4500-prng-1-w1-p10,daily_issda-4500,4500,first-4500,560,12,rng,num-start-291,291,536,classic,5161.1974766254425,False,,True,0,,,0,"Index(['4', '5', '38', '41', '56', '79', '87', '89', '90', '93',
       ...
       '4413', '4414', '4415', '4422', '4434', '4448', '4451', '4457', '4463',
       '4474'],
      dtype='object', length=560)",True,5000,True,10,0.0,0.0,53f7bd2de2
14,./expes/v3_2021-01-22_di_4500-prng-1-w1-p10,daily_issda-4500,4500,first-4500,2128,47,rng,num-start-191,191,536,classic,5091.515814304352,False,,True,0,,,0,"Index(['4', '6', '7', '10', '11', '12', '16', '17', '18', '19',
       ...
       '4482', '4484', '4485', '4487', '4488', '4490', '4494', '4495', '4499',
       '4500'],
      dtype='object', length=2128)",True,5000,True,10,0.0,0.0,17400687b6
15,./expes/v3_2021-01-22_di_4500-prng-1-w1-p10,daily_issda-4500,4500,first-4500,784,17,rng,num-start-151,151,536,classic,5073.871786117554,False,,True,0,,,0,"Index(['5', '8', '14', '22', '27', '30', '39', '40', '43', '46',
       ...
       '4458', '4459', '4460', '4465', '4467', '4470', '4475', '4483', '4487',
       '4500'],
      dtype='object', length=784)",True,5000,True,10,0.0,0.0,a89fbbe2e5
16,./expes/v3_2021-01-22_di_4500-prng-1-w1-p10,daily_issda-4500,4500,first-4500,784,17,rng,num-start-21,21,536,classic,5010.259103059769,False,,True,0,,,0,"Index(['1', '4', '6', '8', '9', '13', '14', '15', '24', '25',
       ...
       '4470', '4471', '4473', '4481', '4484', '4491', '4492', '4493', '4498',
       '4499'],
      dtype='object', length=784)",True,5000,True,10,0.0,0.0,c2f537321a
17,./expes/v3_2021-01-22_di_4500-prng-1-w1-p10,daily_issda-4500,4500,first-4500,224,4,rng,num-start-111,111,536,classic,5055.037257194519,False,,True,0,,,0,"Index(['1', '3', '5', '15', '40', '64', '87', '141', '157', '164',
       ...
       '4308', '4319', '4327', '4343', '4382', '4435', '4444', '4463', '4473',
       '4493'],
      dtype='object', length=224)",True,5000,True,10,0.0,0.0,0ae2928d34
18,./expes/v3_2021-01-22_di_4500-prng-1-w1-p10,daily_issda-4500,4500,first-4500,1792,39,rng,num-start-191,191,536,classic,5095.92254114151,False,,True,0,,,0,"Index(['4', '5', '8', '12', '22', '28', '29', '30', '32', '33',
       ...
       '4480', '4482', '4484', '4486', '4488', '4489', '4491', '4492', '4495',
       '4500'],
      dtype='object', length=1792)",True,5000,True,10,0.0,0.0,1d0f05a4d2
19,./expes/v3_2021-01-22_di_4500-prng-1-w1-p10,daily_issda-4500,4500,first-4500,2016,44,rng,num-start-271,271,536,classic,5140.629549980164,False,,True,0,,,0,"Index(['2', '3', '4', '7', '8', '9', '10', '11', '13', '15',
       ...
       '4486', '4488', '4489', '4491', '4492', '4493', '4494', '4496', '4499',
       '4500'],
      dtype='object', length=2016)",True,5000,True,10,0.0,0.0,7f129b3d4e
20,./expes/v3_2021-01-22_di_4500-prng-1-w1-p10,daily_issda-4500,4500,first-4500,1792,39,rng,num-start-181,181,536,classic,5093.169428348541,False,,True,0,,,0,"Index(['1', '3', '4', '5', '7', '9', '10', '11', '12', '14',
       ...
       '4471', '4474', '4479', '4490', '4491', '4494', '4496', '4497', '4499',
       '4500'],
      dtype='object', length=1792)",True,5000,True,10,0.0,0.0,b2756790e5
21,./expes/v3_2021-01-22_di_4500-prng-1-w1-p10,daily_issda-4500,4500,first-4500,336,7,rng,num-start-251,251,536,classic,5120.5887768268585,False,,True,0,,,0,"Index(['14', '31', '51', '55', '64', '69', '71', '89', '107', '140',
       ...
       '4393', '4408', '4420', '4434', '4437', '4459', '4475', '4478', '4496',
       '4497'],
      dtype='object', length=336)",True,5000,True,10,0.0,0.0,a5cf686435
22,./expes/v3_2021-01-22_di_4500-prng-1-w1-p10,daily_issda-4500,4500,first-4500,1008,22,rng,num-start-121,121,536,classic,5057.269172668457,False,,True,0,,,0,"Index(['1', '3', '10', '14', '16', '21', '26', '33', '47', '49',
       ...
       '4464', '4465', '4471', '4474', '4490', '4494', '4496', '4497', '4499',
       '4500'],
      dtype='object', length=1008)",True,5000,True,10,0.0,0.0,56f5104f44
23,./expes/v3_2021-01-22_di_4500-prng-1-w1-p10,daily_issda-4500,4500,first-4500,1568,34,rng,num-start-91,91,536,classic,5041.926701545715,False,,True,0,,,0,"Index(['1', '2', '3', '4', '5', '6', '9', '10', '13', '14',
       ...
       '4477', '4479', '4483', '4485', '4488', '4492', '4494', '4495', '4497',
       '4499'],
      dtype='object', length=1568)",True,5000,True,10,0.0,0.0,e13085516c
24,./expes/v3_2021-01-22_di_4500-prng-1-w1-p10,daily_issda-4500,4500,first-4500,1456,32,rng,num-start-281,281,536,classic,5131.927759408951,False,,True,0,,,0,"Index(['5', '7', '10', '21', '24', '25', '29', '30', '34', '36',
       ...
       '4464', '4465', '4467', '4469', '4474', '4477', '4480', '4484', '4498',
       '4499'],
      dtype='object', length=1456)",True,5000,True,10,0.0,0.0,321348ea4e
25,./expes/v3_2021-01-22_di_4500-prng-1-w1-p10,daily_issda-4500,4500,first-4500,896,19,rng,num-start-201,201,536,classic,5098.712224721909,False,,True,0,,,0,"Index(['16', '21', '24', '25', '31', '35', '38', '43', '46', '51',
       ...
       '4454', '4460', '4462', '4469', '4475', '4482', '4488', '4494', '4495',
       '4499'],
      dtype='object', length=896)",True,5000,True,10,0.0,0.0,ee11925852
26,./expes/v3_2021-01-22_di_4500-prng-1-w1-p10,daily_issda-4500,4500,first-4500,336,7,rng,num-start-131,131,536,classic,5060.881705284119,False,,True,0,,,0,"Index(['14', '31', '51', '55', '64', '69', '71', '89', '107', '140',
       ...
       '4393', '4408', '4420', '4434', '4437', '4459', '4475', '4478', '4496',
       '4497'],
      dtype='object', length=336)",True,5000,True,10,0.0,0.0,5db6f2e264
27,./expes/v3_2021-01-22_di_4500-prng-1-w1-p10,daily_issda-4500,4500,first-4500,112,2,rng,num-start-81,81,536,classic,5039.338634490967,False,,True,0,,,0,"Index(['4', '5', '38', '79', '90', '123', '125', '139', '161', '244',
       ...
       '3898', '3989', '4095', '4161', '4169', '4194', '4202', '4253', '4329',
       '4413'],
      dtype='object', length=112)",True,5000,True,10,0.0,0.0,eceb4e695e
28,./expes/v3_2021-01-22_di_4500-prng-1-w1-p10,daily_issda-4500,4500,first-4500,1904,42,rng,num-start-131,131,536,classic,5062.9470756053925,False,,True,0,,,0,"Index(['2', '3', '4', '7', '8', '10', '11', '13', '15', '16',
       ...
       '4484', '4486', '4488', '4489', '4491', '4492', '4493', '4494', '4499',
       '4500'],
      dtype='object', length=1904)",True,5000,True,10,0.0,0.0,f33add4b1f
29,./expes/v3_2021-01-22_di_4500-prng-1-w1-p10,daily_issda-4500,4500,first-4500,672,14,rng,num-start-221,221,536,classic,5104.050864458084,False,,True,0,,,0,"Index(['3', '10', '14', '33', '47', '49', '51', '52', '55', '62',
       ...
       '4453', '4454', '4461', '4464', '4465', '4471', '4474', '4490', '4494',
       '4500'],
      dtype='object', length=672)",True,5000,True,10,0.0,0.0,acfd981d49
30,./expes/v3_2021-01-22_di_4500-prng-1-w1-p10,daily_issda-4500,4500,first-4500,224,4,rng,num-start-61,61,536,classic,5029.563876390457,False,,True,0,,,0,"Index(['27', '60', '77', '108', '149', '163', '211', '217', '260', '281',
       ...
       '4251', '4263', '4307', '4313', '4326', '4336', '4380', '4397', '4475',
       '4487'],
      dtype='object', length=224)",True,5000,True,10,0.0,0.0,16e1bec78e
31,./expes/v3_2021-01-22_di_4500-prng-1-w1-p10,daily_issda-4500,4500,first-4500,784,17,rng,num-start-71,71,536,classic,5034.373141050339,False,,True,0,,,0,"Index(['14', '20', '31', '33', '49', '51', '55', '60', '64', '67',
       ...
       '4468', '4475', '4476', '4478', '4490', '4492', '4493', '4496', '4497',
       '4499'],
      dtype='object', length=784)",True,5000,True,10,0.0,0.0,7f2616e71f
32,./expes/v3_2021-01-22_di_4500-prng-1-w1-p10,daily_issda-4500,4500,first-4500,896,19,rng,num-start-81,81,536,classic,5085.067769765854,False,,True,0,,,0,"Index(['1', '26', '39', '40', '42', '43', '47', '58', '59', '60',
       ...
       '4446', '4449', '4455', '4460', '4462', '4467', '4468', '4484', '4487',
       '4499'],
      dtype='object', length=896)",True,5000,True,10,0.0,0.0,5929e31148
33,./expes/v3_2021-01-22_di_4500-prng-1-w1-p10,daily_issda-4500,4500,first-4500,1008,22,rng,num-start-41,41,536,classic,5020.541433095932,False,,True,0,,,0,"Index(['4', '5', '12', '32', '38', '41', '56', '77', '78', '79',
       ...
       '4458', '4463', '4469', '4474', '4475', '4480', '4484', '4489', '4492',
       '4495'],
      dtype='object', length=1008)",True,5000,True,10,0.0,0.0,f325d836a4
34,./expes/v3_2021-01-22_di_4500-prng-1-w1-p10,daily_issda-4500,4500,first-4500,1232,27,rng,num-start-271,271,536,classic,5130.03152513504,False,,True,0,,,0,"Index(['5', '7', '13', '18', '25', '29', '32', '33', '35', '40',
       ...
       '4471', '4473', '4481', '4482', '4487', '4490', '4492', '4496', '4499',
       '4500'],
      dtype='object', length=1232)",True,5000,True,10,0.0,0.0,160ed02db0
35,./expes/v3_2021-01-22_di_4500-prng-1-w1-p10,daily_issda-4500,4500,first-4500,2016,44,rng,num-start-161,161,536,classic,5080.842365980148,False,,True,0,,,0,"Index(['1', '2', '3', '4', '8', '9', '11', '16', '19', '20',
       ...
       '4477', '4479', '4482', '4483', '4486', '4495', '4497', '4498', '4499',
       '4500'],
      dtype='object', length=2016)",True,5000,True,10,0.0,0.0,8cd9321a46
36,./expes/v3_2021-01-22_di_4500-prng-1-w1-p10,daily_issda-4500,4500,first-4500,2016,44,rng,num-start-191,191,536,classic,5099.411423206329,False,,True,0,,,0,"Index(['1', '5', '8', '11', '12', '13', '14', '15', '16', '18',
       ...
       '4480', '4481', '4482', '4484', '4485', '4486', '4488', '4494', '4495',
       '4499'],
      dtype='object', length=2016)",True,5000,True,10,0.0,0.0,72411e5f76
37,./expes/v3_2021-01-22_di_4500-prng-1-w1-p10,daily_issda-4500,4500,first-4500,2016,44,rng,num-start-51,51,536,classic,5024.131531238556,False,,True,0,,,0,"Index(['2', '4', '5', '7', '8', '10', '11', '12', '13', '14',
       ...
       '4480', '4481', '4483', '4492', '4493', '4494', '4495', '4496', '4497',
       '4498'],
      dtype='object', length=2016)",True,5000,True,10,0.0,0.0,5bd32c2bbe
38,./expes/v3_2021-01-22_di_4500-prng-1-w1-p10,daily_issda-4500,4500,first-4500,1232,27,rng,num-start-91,91,536,classic,5044.2140119075775,False,,True,0,,,0,"Index(['4', '5', '12', '22', '28', '32', '38', '41', '56', '58',
       ...
       '4469', '4474', '4475', '4480', '4484', '4488', '4489', '4491', '4492',
       '4495'],
      dtype='object', length=1232)",True,5000,True,10,0.0,0.0,37b8c3075e
39,./expes/v3_2021-01-22_di_4500-prng-1-w1-p10,daily_issda-4500,4500,first-4500,1904,42,rng,num-start-151,151,536,classic,5072.242713928223,False,,True,0,,,0,"Index(['4', '5', '6', '8', '9', '10', '12', '14', '15', '16',
       ...
       '4474', '4475', '4478', '4480', '4482', '4486', '4489', '4493', '4495',
       '4498'],
      dtype='object', length=1904)",True,5000,True,10,0.0,0.0,30f31ffed1
40,./expes/v3_2021-01-22_di_4500-prng-1-w1-p10,daily_issda-4500,4500,first-4500,1792,39,rng,num-start-71,71,536,classic,5033.893694639206,False,,True,0,,,0,"Index(['1', '3', '4', '5', '7', '9', '10', '11', '12', '14',
       ...
       '4471', '4474', '4479', '4490', '4491', '4494', '4496', '4497', '4499',
       '4500'],
      dtype='object', length=1792)",True,5000,True,10,0.0,0.0,40c3e2a32e
41,./expes/v3_2021-01-22_di_4500-prng-1-w1-p10,daily_issda-4500,4500,first-4500,1232,27,rng,num-start-41,41,536,classic,5019.8294558525085,False,,True,0,,,0,"Index(['2', '4', '9', '10', '11', '12', '15', '16', '22', '24',
       ...
       '4460', '4462', '4473', '4482', '4488', '4490', '4492', '4495', '4499',
       '4500'],
      dtype='object', length=1232)",True,5000,True,10,0.0,0.0,da76f1ca0c
42,./expes/v3_2021-01-22_di_4500-prng-1-w1-p10,daily_issda-4500,4500,first-4500,336,7,rng,num-start-281,281,536,classic,5139.515274047852,False,,True,0,,,0,"Index(['1', '10', '13', '20', '28', '65', '73', '102', '109', '116',
       ...
       '4407', '4427', '4429', '4449', '4459', '4460', '4483', '4485', '4494',
       '4495'],
      dtype='object', length=336)",True,5000,True,10,0.0,0.0,6741018925
43,./expes/v3_2021-01-22_di_4500-prng-1-w1-p10,daily_issda-4500,4500,first-4500,1904,42,rng,num-start-291,291,536,classic,5151.192351818085,False,,True,0,,,0,"Index(['4', '6', '7', '10', '11', '12', '16', '17', '18', '19',
       ...
       '4479', '4481', '4482', '4487', '4488', '4490', '4494', '4495', '4499',
       '4500'],
      dtype='object', length=1904)",True,5000,True,10,0.0,0.0,6f8097e810
44,./expes/v3_2021-01-22_di_4500-prng-1-w1-p10,daily_issda-4500,4500,first-4500,896,19,rng,num-start-41,41,536,classic,5020.26837849617,False,,True,0,,,0,"Index(['2', '4', '10', '11', '13', '22', '23', '25', '26', '27',
       ...
       '4449', '4451', '4456', '4464', '4466', '4467', '4471', '4481', '4483',
       '4494'],
      dtype='object', length=896)",True,5000,True,10,0.0,0.0,b64fcc9525
45,./expes/v3_2021-01-22_di_4500-prng-1-w1-p10,daily_issda-4500,4500,first-4500,1904,42,rng,num-start-281,281,536,classic,5137.714224338532,False,,True,0,,,0,"Index(['4', '5', '7', '10', '13', '21', '24', '25', '29', '30',
       ...
       '4474', '4477', '4480', '4484', '4488', '4489', '4494', '4495', '4498',
       '4499'],
      dtype='object', length=1904)",True,5000,True,10,0.0,0.0,4c37118637
46,./expes/v3_2021-01-22_di_4500-prng-1-w1-p10,daily_issda-4500,4500,first-4500,224,4,rng,num-start-71,71,536,classic,5033.9597680568695,False,,True,0,,,0,"Index(['24', '57', '72', '133', '138', '188', '202', '213', '261', '273',
       ...
       '4332', '4333', '4336', '4439', '4440', '4444', '4467', '4469', '4471',
       '4483'],
      dtype='object', length=224)",True,5000,True,10,0.0,0.0,585a6d0573
47,./expes/v3_2021-01-22_di_4500-prng-1-w1-p10,daily_issda-4500,4500,first-4500,2128,47,rng,num-start-191,191,536,classic,5095.679138422012,False,,True,0,,,0,"Index(['4', '5', '6', '8', '9', '10', '12', '14', '15', '16',
       ...
       '4475', '4478', '4480', '4482', '4485', '4486', '4489', '4493', '4495',
       '4498'],
      dtype='object', length=2128)",True,5000,True,10,0.0,0.0,bc6a377711
