,expe,clients,clients_size,clients_subset,agg_size,agg_size_pc,method,days,days_size,days_total,noise_method,time,valid,valid_sum,success,score_avg,score_min,score_max,nsols,oracle,wall_hit,wall_time,pooled,pool_size,optimal,valid_sums,uuid
0,./expes/v3_2021-01-22_di_4500-prng-1-w1-p10,daily_issda-4500,4500,first-4500,2240,49,rng,num-start-41,41,536,classic,5019.29030919075,False,,True,0,,,0,"Index(['4', '5', '7', '10', '13', '21', '24', '25', '27', '29',
       ...
       '4484', '4488', '4489', '4490', '4494', '4495', '4496', '4497', '4498',
       '4499'],
      dtype='object', length=2240)",True,5000,True,10,0.0,0.0,29537f81ac
1,./expes/v3_2021-01-22_di_4500-prng-1-w1-p10,daily_issda-4500,4500,first-4500,1344,29,rng,num-start-251,251,536,classic,5116.467655658722,False,,True,0,,,0,"Index(['2', '4', '5', '10', '11', '12', '13', '14', '17', '22',
       ...
       '4467', '4471', '4475', '4476', '4477', '4481', '4483', '4494', '4496',
       '4497'],
      dtype='object', length=1344)",True,5000,True,10,0.0,0.0,dbc5ac2aaa
2,./expes/v3_2021-01-22_di_4500-prng-1-w1-p10,daily_issda-4500,4500,first-4500,672,14,rng,num-start-151,151,536,classic,5068.076516628265,False,,True,0,,,0,"Index(['2', '9', '15', '16', '28', '30', '33', '34', '41', '95',
       ...
       '4437', '4450', '4460', '4473', '4482', '4488', '4492', '4495', '4499',
       '4500'],
      dtype='object', length=672)",True,5000,True,10,0.0,0.0,20f4aa3e7b
3,./expes/v3_2021-01-22_di_4500-prng-1-w1-p10,daily_issda-4500,4500,first-4500,784,17,rng,num-start-61,61,536,classic,5027.933384180069,False,,True,0,,,0,"Index(['1', '2', '4', '8', '9', '19', '25', '30', '34', '40',
       ...
       '4401', '4407', '4409', '4417', '4418', '4424', '4438', '4442', '4447',
       '4498'],
      dtype='object', length=784)",True,5000,True,10,0.0,0.0,7b3f2878ce
4,./expes/v3_2021-01-22_di_4500-prng-1-w1-p10,daily_issda-4500,4500,first-4500,784,17,rng,num-start-11,11,536,classic,5005.350889205933,False,,True,0,,,0,"Index(['7', '13', '18', '29', '32', '33', '43', '47', '62', '70',
       ...
       '4467', '4468', '4469', '4481', '4482', '4487', '4490', '4492', '4496',
       '4500'],
      dtype='object', length=784)",True,5000,True,10,0.0,0.0,492263c466
5,./expes/v3_2021-01-22_di_4500-prng-1-w1-p10,daily_issda-4500,4500,first-4500,336,7,rng,num-start-61,61,536,classic,5027.039462566376,False,,True,0,,,0,"Index(['2', '16', '33', '34', '99', '117', '154', '176', '185', '190',
       ...
       '4380', '4390', '4396', '4430', '4437', '4450', '4460', '4488', '4492',
       '4495'],
      dtype='object', length=336)",True,5000,True,10,0.0,0.0,e25176ca52
6,./expes/v3_2021-01-22_di_4500-prng-1-w1-p10,daily_issda-4500,4500,first-4500,1904,42,rng,num-start-241,241,536,classic,5109.577150583267,False,,True,0,,,0,"Index(['4', '8', '9', '11', '14', '16', '20', '24', '31', '32',
       ...
       '4480', '4482', '4486', '4490', '4492', '4493', '4496', '4497', '4498',
       '4499'],
      dtype='object', length=1904)",True,5000,True,10,0.0,0.0,f8af91f655
7,./expes/v3_2021-01-22_di_4500-prng-1-w1-p10,daily_issda-4500,4500,first-4500,112,2,rng,num-start-111,111,536,classic,5052.67470407486,False,,True,0,,,0,"Index(['69', '174', '193', '196', '208', '225', '262', '293', '295', '335',
       ...
       '4180', '4194', '4209', '4223', '4242', '4280', '4304', '4307', '4345',
       '4458'],
      dtype='object', length=112)",True,5000,True,10,0.0,0.0,dda333d293
8,./expes/v3_2021-01-22_di_4500-prng-1-w1-p10,daily_issda-4500,4500,first-4500,112,2,rng,num-start-231,231,536,classic,5107.045833110809,False,,True,0,,,0,"Index(['24', '57', '72', '133', '138', '188', '213', '355', '372', '545',
       ...
       '4115', '4144', '4191', '4262', '4264', '4336', '4440', '4444', '4467',
       '4483'],
      dtype='object', length=112)",True,5000,True,10,0.0,0.0,32af3c64ec
9,./expes/v3_2021-01-22_di_4500-prng-1-w1-p10,daily_issda-4500,4500,first-4500,1232,27,rng,num-start-231,231,536,classic,5108.499852895737,False,,True,0,,,0,"Index(['5', '7', '13', '18', '25', '29', '32', '33', '35', '40',
       ...
       '4471', '4473', '4481', '4482', '4487', '4490', '4492', '4496', '4499',
       '4500'],
      dtype='object', length=1232)",True,5000,True,10,0.0,0.0,71a0ffd607
10,./expes/v3_2021-01-22_di_4500-prng-1-w1-p10,daily_issda-4500,4500,first-4500,1008,22,rng,num-start-31,31,536,classic,5014.439112663269,False,,True,0,,,0,"Index(['1', '2', '4', '8', '9', '19', '25', '28', '30', '34',
       ...
       '4417', '4418', '4424', '4438', '4442', '4447', '4449', '4457', '4472',
       '4498'],
      dtype='object', length=1008)",True,5000,True,10,0.0,0.0,74e6386f41
11,./expes/v3_2021-01-22_di_4500-prng-1-w1-p10,daily_issda-4500,4500,first-4500,224,4,rng,num-start-291,291,536,classic,5131.027748823166,False,,True,0,,,0,"Index(['2', '34', '99', '185', '190', '209', '222', '229', '238', '308',
       ...
       '4328', '4356', '4363', '4380', '4390', '4396', '4430', '4437', '4450',
       '4488'],
      dtype='object', length=224)",True,5000,True,10,0.0,0.0,d9553f1e96
12,./expes/v3_2021-01-22_di_4500-prng-1-w1-p10,daily_issda-4500,4500,first-4500,112,2,rng,num-start-271,271,536,classic,5122.918543338776,False,,True,0,,,0,"Index(['185', '308', '322', '382', '396', '407', '476', '483', '485', '489',
       ...
       '4067', '4068', '4069', '4157', '4194', '4303', '4356', '4390', '4430',
       '4488'],
      dtype='object', length=112)",True,5000,True,10,0.0,0.0,d91369fb66
13,./expes/v3_2021-01-22_di_4500-prng-1-w1-p10,daily_issda-4500,4500,first-4500,1568,34,rng,num-start-11,11,536,classic,5005.066230297089,False,,True,0,,,0,"Index(['5', '6', '12', '15', '16', '17', '24', '27', '32', '37',
       ...
       '4474', '4477', '4478', '4482', '4487', '4490', '4493', '4495', '4498',
       '4499'],
      dtype='object', length=1568)",True,5000,True,10,0.0,0.0,3d14bdfb28
14,./expes/v3_2021-01-22_di_4500-prng-1-w1-p10,daily_issda-4500,4500,first-4500,448,9,rng,num-start-101,101,536,classic,5047.442598581314,False,,True,0,,,0,"Index(['4', '13', '22', '27', '40', '44', '51', '80', '81', '88',
       ...
       '4418', '4426', '4436', '4439', '4447', '4451', '4456', '4464', '4471',
       '4483'],
      dtype='object', length=448)",True,5000,True,10,0.0,0.0,f83ca1ab88
