,expe,clients,clients_size,clients_subset,agg_size,agg_size_pc,method,days,days_size,days_total,noise_method,time,valid,valid_sum,success,score_avg,score_min,score_max,nsols,oracle,wall_hit,wall_time,pooled,pool_size,optimal,valid_sums,uuid
0,./expes/v3_2021-01-22_di_4500-prng-1-w1-p10,daily_issda-4500,4500,first-4500,1344,29,rng,num-start-61,61,536,classic,5046.002637624741,False,,True,0,,,0,"Index(['2', '3', '4', '7', '10', '11', '13', '16', '23', '25',
       ...
       '4478', '4480', '4482', '4484', '4486', '4489', '4491', '4492', '4493',
       '4494'],
      dtype='object', length=1344)",True,5000,True,10,0.0,0.0,feeabd06dd
1,./expes/v3_2021-01-22_di_4500-prng-1-w1-p10,daily_issda-4500,4500,first-4500,1568,34,rng,num-start-191,191,536,classic,5149.598533153534,False,,True,0,,,0,"Index(['5', '7', '8', '10', '14', '17', '22', '23', '27', '29',
       ...
       '4469', '4470', '4472', '4475', '4478', '4480', '4483', '4487', '4489',
       '4500'],
      dtype='object', length=1568)",True,5000,True,10,0.0,0.0,133d8984cb
2,./expes/v3_2021-01-22_di_4500-prng-1-w1-p10,daily_issda-4500,4500,first-4500,560,12,rng,num-start-291,291,536,classic,5242.199317216873,False,,True,0,,,0,"Index(['17', '24', '44', '53', '57', '70', '72', '102', '108', '121',
       ...
       '4440', '4444', '4460', '4467', '4469', '4471', '4477', '4483', '4493',
       '4495'],
      dtype='object', length=560)",True,5000,True,10,0.0,0.0,64def46660
3,./expes/v3_2021-01-22_di_4500-prng-1-w1-p10,daily_issda-4500,4500,first-4500,1344,29,rng,num-start-111,111,536,classic,5082.243114471436,False,,True,0,,,0,"Index(['1', '2', '3', '6', '9', '10', '13', '16', '20', '21',
       ...
       '4474', '4477', '4479', '4483', '4485', '4492', '4494', '4495', '4497',
       '4499'],
      dtype='object', length=1344)",True,5000,True,10,0.0,0.0,7f3af74baa
4,./expes/v3_2021-01-22_di_4500-prng-1-w1-p10,daily_issda-4500,4500,first-4500,1456,32,rng,num-start-281,281,536,classic,5217.322633981705,False,,True,0,,,0,"Index(['4', '5', '6', '8', '9', '10', '15', '16', '17', '18',
       ...
       '4468', '4469', '4474', '4478', '4480', '4482', '4486', '4489', '4495',
       '4498'],
      dtype='object', length=1456)",True,5000,True,10,0.0,0.0,2ba0825cca
5,./expes/v3_2021-01-22_di_4500-prng-1-w1-p10,daily_issda-4500,4500,first-4500,336,7,rng,num-start-11,11,536,classic,5047.178517818451,False,,True,0,,,0,"Index(['15', '29', '39', '41', '60', '62', '94', '108', '125', '147',
       ...
       '4380', '4388', '4390', '4400', '4432', '4435', '4439', '4456', '4459',
       '4493'],
      dtype='object', length=336)",True,5000,True,10,0.0,0.0,0609243f6a
6,./expes/v3_2021-01-22_di_4500-prng-1-w1-p10,daily_issda-4500,4500,first-4500,2128,47,rng,num-start-121,121,536,classic,8773.115118026733,False,,True,0,,,0,"Index(['2', '4', '8', '9', '10', '11', '12', '14', '15', '16',
       ...
       '4482', '4488', '4490', '4491', '4492', '4494', '4495', '4496', '4499',
       '4500'],
      dtype='object', length=2128)",True,5000,True,10,0.0,0.0,ea17ea1702
7,./expes/v3_2021-01-22_di_4500-prng-1-w1-p10,daily_issda-4500,4500,first-4500,560,12,rng,num-start-41,41,536,classic,5033.392453670502,False,,True,0,,,0,"Index(['17', '24', '44', '53', '57', '70', '72', '102', '108', '121',
       ...
       '4440', '4444', '4460', '4467', '4469', '4471', '4477', '4483', '4493',
       '4495'],
      dtype='object', length=560)",True,5000,True,10,0.0,0.0,b959b9739b
