,expe,clients,clients_size,clients_subset,agg_size,agg_size_pc,method,days,days_size,days_total,noise_method,time,valid,valid_sum,success,score_avg,score_min,score_max,nsols,oracle,wall_hit,wall_time,pooled,pool_size,optimal,valid_sums,uuid
0,./expes/v3_2021-01-22_di_4500-prng-1-w1-p10,daily_issda-4500,4500,first-4500,2016,44,rng,num-start-11,11,536,classic,5936.462826013565,False,,True,0,,,0,"Index(['4', '5', '6', '8', '12', '14', '22', '27', '28', '29',
       ...
       '4480', '4482', '4484', '4486', '4488', '4489', '4491', '4492', '4495',
       '4500'],
      dtype='object', length=2016)",True,5000,True,10,0.0,0.0,fc8789ef07
