expe,clients,clients_size,clients_subset,agg_size,agg_size_pc,method,days,days_size,days_total,noise_method,time,valid,valid_sum,success,score_avg,score_min,score_max,nsols,oracle,wall_hit,wall_time,pooled,pool_size,uuid,infeasible,optimal,valid_sums
./expes/v2_2021-03-27_issda-30_2000-prng-1-w4-p2,30_issda-2000,2000,first-2000,300,15,rng,num-start-3800,3800,25726,classic,2165.192873954773,True,,True,1.0,1.0,1.0,1,"['1', '13', '26', '31', '35', '38', '42', '45', '59', '62', '64', '76', '78', '93', '94', '111', '117', '128', '142', '156', '157', '166', '172', '176', '181', '183', '184', '191', '193', '197', '200', '206', '216', '230', '240', '245', '253', '260', '261', '281', '283', '292', '296', '297', '299', '317', '324', '330', '334', '347', '353', '374', '380', '385', '387', '394', '395', '396', '397', '402', '404', '406', '408', '412', '430', '457', '476', '499', '502', '503', '513', '515', '522', '525', '536', '544', '545', '549', '552', '559', '593', '596', '597', '622', '624', '627', '640', '652', '655', '656', '663', '675', '682', '688', '732', '739', '740', '741', '742', '751', '760', '765', '768', '771', '773', '774', '778', '779', '798', '815', '816', '838', '840', '841', '848', '864', '865', '867', '870', '874', '881', '904', '912', '914', '916', '921', '925', '926', '948', '957', '961', '964', '965', '973', '979', '981', '991', '994', '995', '997', '999', '1000', '1001', '1002', '1007', '1008', '1018', '1019', '1024', '1025', '1030', '1032', '1055', '1059', '1070', '1075', '1076', '1081', '1102', '1103', '1105', '1130', '1134', '1143', '1147', '1154', '1167', '1176', '1180', '1202', '1206', '1207', '1208', '1217', '1224', '1233', '1234', '1236', '1243', '1246', '1250', '1254', '1257', '1263', '1266', '1267', '1269', '1271', '1278', '1282', '1287', '1289', '1293', '1298', '1300', '1301', '1306', '1321', '1323', '1324', '1328', '1340', '1343', '1345', '1351', '1358', '1369', '1373', '1375', '1390', '1391', '1394', '1395', '1397', '1405', '1421', '1423', '1430', '1433', '1436', '1437', '1446', '1463', '1472', '1473', '1478', '1480', '1483', '1493', '1494', '1495', '1505', '1529', '1548', '1556', '1562', '1578', '1585', '1594', '1603', '1606', '1621', '1625', '1631', '1632', '1639', '1643', '1646', '1649', '1650', '1651', '1652', '1667', '1673', '1684', '1696', '1703', '1706', '1709', '1718', '1730', '1748', '1773', '1783', '1787', '1795', '1801', '1803', '1822', '1828', '1830', '1843', '1849', '1853', '1860', '1863', '1865', '1867', '1870', '1871', '1877', '1883', '1891', '1893', '1899', '1900', '1911', '1919', '1922', '1927', '1941', '1949', '1971', '1976', '1977', '1978', '1987', '1989', '1997', '2000']",False,4000,True,2,9c66d6efd4,0.0,1.0,1.0
./expes/v2_2021-03-27_issda-30_2000-prng-1-w4-p2,30_issda-2000,2000,first-2000,600,30,rng,num-start-800,800,25726,classic,4145.624333620071,False,,False,0,,,0,"['4', '8', '10', '11', '15', '16', '24', '27', '32', '37', '41', '42', '44', '46', '49', '53', '56', '58', '59', '64', '65', '67', '68', '70', '72', '73', '74', '75', '87', '88', '89', '91', '93', '95', '102', '103', '105', '109', '110', '113', '124', '125', '126', '130', '132', '135', '137', '140', '141', '147', '158', '159', '164', '171', '176', '177', '182', '189', '197', '199', '200', '204', '205', '209', '211', '212', '214', '215', '219', '222', '223', '233', '236', '244', '245', '246', '248', '249', '251', '253', '254', '255', '256', '257', '260', '262', '264', '266', '267', '268', '270', '273', '275', '279', '280', '284', '294', '301', '306', '309', '311', '320', '322', '327', '329', '333', '335', '347', '351', '352', '364', '366', '367', '369', '370', '376', '380', '382', '384', '391', '392', '393', '405', '407', '408', '409', '433', '445', '447', '448', '453', '455', '456', '460', '461', '466', '475', '476', '480', '482', '484', '487', '488', '489', '490', '491', '496', '501', '502', '509', '512', '515', '518', '529', '532', '537', '540', '541', '543', '547', '548', '551', '552', '554', '555', '556', '561', '571', '572', '573', '583', '584', '588', '592', '595', '598', '602', '612', '614', '615', '616', '617', '621', '623', '635', '641', '643', '645', '646', '647', '653', '656', '660', '662', '665', '667', '669', '672', '674', '678', '681', '684', '690', '695', '696', '697', '699', '700', '705', '708', '710', '718', '719', '720', '721', '723', '738', '739', '746', '749', '753', '757', '758', '763', '765', '767', '769', '770', '771', '772', '773', '774', '779', '791', '794', '797', '798', '799', '807', '809', '813', '814', '820', '822', '835', '836', '839', '841', '846', '847', '848', '851', '854', '857', '860', '862', '863', '867', '871', '873', '875', '878', '881', '884', '890', '892', '894', '896', '898', '908', '911', '924', '931', '935', '936', '943', '944', '951', '952', '955', '961', '964', '969', '970', '971', '976', '978', '986', '987', '988', '989', '991', '999', '1003', '1004', '1014', '1017', '1020', '1025', '1029', '1031', '1036', '1039', '1045', '1048', '1050', '1056', '1060', '1062', '1063', '1065', '1066', '1068', '1072', '1076', '1080', '1084', '1085', '1086', '1090', '1094', '1095', '1097', '1098', '1100', '1108', '1109', '1110', '1114', '1115', '1124', '1126', '1127', '1129', '1134', '1136', '1138', '1140', '1145', '1146', '1155', '1156', '1161', '1164', '1165', '1166', '1170', '1172', '1175', '1176', '1178', '1182', '1186', '1188', '1190', '1197', '1199', '1201', '1202', '1204', '1206', '1207', '1208', '1209', '1211', '1214', '1219', '1220', '1228', '1229', '1231', '1232', '1237', '1238', '1240', '1241', '1247', '1251', '1254', '1259', '1262', '1266', '1269', '1271', '1276', '1282', '1284', '1285', '1286', '1287', '1288', '1295', '1297', '1298', '1299', '1300', '1301', '1304', '1309', '1315', '1317', '1319', '1323', '1325', '1331', '1332', '1339', '1343', '1351', '1357', '1358', '1368', '1375', '1376', '1377', '1380', '1381', '1383', '1385', '1389', '1392', '1395', '1397', '1401', '1405', '1413', '1415', '1421', '1422', '1424', '1425', '1427', '1430', '1431', '1434', '1440', '1448', '1460', '1462', '1463', '1465', '1466', '1467', '1468', '1469', '1472', '1473', '1476', '1481', '1492', '1499', '1503', '1506', '1512', '1519', '1520', '1527', '1531', '1532', '1533', '1534', '1541', '1543', '1544', '1549', '1550', '1553', '1557', '1560', '1572', '1575', '1582', '1586', '1588', '1591', '1592', '1596', '1598', '1603', '1612', '1613', '1615', '1620', '1622', '1623', '1626', '1629', '1636', '1640', '1641', '1645', '1647', '1651', '1652', '1653', '1654', '1659', '1660', '1662', '1663', '1666', '1673', '1679', '1687', '1696', '1704', '1706', '1707', '1708', '1713', '1714', '1716', '1718', '1724', '1728', '1729', '1741', '1746', '1749', '1750', '1752', '1753', '1754', '1756', '1758', '1763', '1764', '1765', '1767', '1769', '1773', '1776', '1778', '1781', '1782', '1783', '1788', '1800', '1802', '1803', '1804', '1805', '1810', '1813', '1816', '1818', '1822', '1823', '1837', '1838', '1839', '1843', '1851', '1852', '1853', '1862', '1870', '1876', '1878', '1879', '1885', '1886', '1887', '1888', '1889', '1893', '1897', '1900', '1903', '1904', '1914', '1917', '1918', '1923', '1924', '1927', '1931', '1932', '1944', '1946', '1947', '1948', '1951', '1956', '1961', '1962', '1964', '1968', '1973', '1975', '1976', '1978', '1980', '1981', '1985', '1989', '1990', '1991', '1993', '1997']",True,4000,True,2,a95cd93b5a,0.0,0.0,0.0
./expes/v2_2021-03-27_issda-30_2000-prng-1-w4-p2,30_issda-2000,2000,first-2000,300,15,rng,num-start-400,400,25726,classic,4076.9547090530396,False,,False,0,,,0,"['4', '5', '12', '19', '26', '30', '35', '37', '43', '45', '46', '49', '53', '58', '59', '60', '61', '63', '67', '71', '73', '90', '115', '130', '143', '145', '171', '178', '188', '193', '205', '210', '222', '223', '225', '234', '242', '248', '265', '276', '300', '327', '329', '336', '343', '345', '346', '349', '355', '363', '371', '379', '381', '386', '389', '409', '410', '421', '429', '430', '444', '449', '452', '455', '462', '465', '469', '471', '473', '476', '478', '498', '512', '520', '523', '530', '546', '551', '552', '559', '576', '582', '594', '595', '604', '608', '622', '632', '639', '651', '660', '679', '682', '704', '705', '706', '708', '709', '724', '731', '747', '752', '759', '768', '778', '781', '786', '792', '799', '806', '807', '814', '828', '829', '847', '849', '853', '863', '865', '873', '874', '885', '887', '897', '899', '913', '921', '924', '928', '932', '939', '941', '942', '962', '968', '971', '984', '986', '994', '1000', '1003', '1015', '1016', '1017', '1023', '1026', '1029', '1034', '1035', '1037', '1040', '1042', '1045', '1050', '1053', '1058', '1063', '1067', '1081', '1103', '1106', '1107', '1109', '1116', '1123', '1124', '1128', '1129', '1133', '1136', '1140', '1150', '1166', '1168', '1184', '1185', '1197', '1204', '1207', '1211', '1215', '1229', '1241', '1245', '1248', '1255', '1260', '1277', '1280', '1289', '1292', '1302', '1316', '1326', '1328', '1331', '1335', '1345', '1351', '1360', '1362', '1373', '1379', '1382', '1387', '1389', '1406', '1424', '1426', '1439', '1440', '1441', '1444', '1457', '1458', '1473', '1478', '1483', '1487', '1494', '1496', '1501', '1512', '1517', '1522', '1524', '1545', '1548', '1559', '1562', '1565', '1572', '1579', '1589', '1593', '1595', '1605', '1611', '1616', '1631', '1633', '1634', '1636', '1643', '1644', '1648', '1658', '1666', '1673', '1674', '1681', '1700', '1705', '1712', '1716', '1721', '1724', '1734', '1736', '1738', '1744', '1748', '1756', '1762', '1764', '1778', '1782', '1805', '1808', '1815', '1830', '1835', '1843', '1847', '1864', '1865', '1877', '1885', '1889', '1898', '1907', '1918', '1922', '1924', '1927', '1928', '1933', '1936', '1946', '1950', '1951', '1956', '1961', '1966', '1978', '1981', '1985', '1994', '1998', '1999']",True,4000,True,2,1497a07a2a,0.0,0.0,0.0
./expes/v2_2021-03-27_issda-30_2000-prng-1-w4-p2,30_issda-2000,2000,first-2000,300,15,rng,num-start-2000,2000,25726,classic,2333.080150604248,True,,True,1.0,1.0,1.0,1,"['4', '9', '18', '37', '44', '49', '50', '52', '57', '64', '65', '66', '69', '74', '75', '84', '89', '94', '101', '116', '117', '121', '124', '139', '151', '155', '165', '170', '174', '188', '192', '197', '209', '218', '232', '236', '262', '270', '280', '288', '295', '311', '315', '322', '325', '331', '337', '341', '347', '350', '353', '356', '362', '364', '373', '377', '392', '426', '432', '435', '455', '462', '465', '468', '473', '475', '477', '484', '502', '506', '508', '511', '512', '514', '516', '519', '524', '526', '531', '537', '541', '545', '550', '560', '572', '586', '622', '632', '634', '639', '648', '653', '665', '666', '672', '691', '699', '700', '705', '719', '725', '737', '738', '740', '742', '743', '746', '751', '762', '765', '779', '790', '805', '806', '819', '823', '833', '850', '860', '867', '868', '883', '911', '912', '913', '918', '919', '929', '932', '936', '945', '953', '969', '983', '997', '998', '1001', '1002', '1004', '1021', '1026', '1029', '1033', '1040', '1041', '1043', '1045', '1049', '1053', '1055', '1056', '1061', '1062', '1070', '1072', '1076', '1077', '1087', '1115', '1130', '1142', '1143', '1147', '1148', '1152', '1163', '1177', '1191', '1198', '1205', '1208', '1211', '1212', '1216', '1240', '1241', '1242', '1243', '1261', '1262', '1263', '1274', '1277', '1278', '1279', '1286', '1301', '1308', '1335', '1338', '1342', '1350', '1354', '1356', '1372', '1374', '1378', '1382', '1396', '1398', '1402', '1408', '1417', '1433', '1445', '1447', '1451', '1454', '1463', '1465', '1469', '1481', '1483', '1487', '1494', '1497', '1505', '1508', '1513', '1516', '1521', '1526', '1532', '1545', '1548', '1556', '1563', '1569', '1584', '1600', '1607', '1615', '1618', '1622', '1627', '1631', '1632', '1637', '1639', '1646', '1657', '1666', '1669', '1670', '1681', '1690', '1703', '1711', '1712', '1718', '1739', '1749', '1760', '1762', '1767', '1768', '1784', '1791', '1792', '1794', '1796', '1804', '1807', '1809', '1811', '1827', '1831', '1840', '1843', '1846', '1848', '1850', '1857', '1859', '1860', '1861', '1867', '1876', '1877', '1882', '1885', '1895', '1909', '1914', '1917', '1922', '1927', '1933', '1942', '1945', '1955', '1956', '1958', '1961', '1964', '1965', '1966', '1970', '1988', '1989']",False,4000,True,2,0ed5571f9b,0.0,1.0,1.0
./expes/v2_2021-03-27_issda-30_2000-prng-1-w4-p2,30_issda-2000,2000,first-2000,400,20,rng,num-start-3000,3000,25726,classic,1563.962656736374,True,,True,1.0,1.0,1.0,1,"['4', '8', '14', '16', '18', '23', '35', '36', '39', '49', '53', '56', '58', '59', '61', '63', '64', '67', '76', '78', '81', '82', '90', '95', '101', '106', '107', '108', '117', '121', '125', '147', '150', '153', '160', '169', '170', '172', '179', '186', '187', '191', '199', '202', '211', '218', '231', '234', '238', '242', '256', '270', '276', '277', '279', '284', '291', '293', '298', '301', '318', '319', '330', '333', '335', '344', '349', '351', '361', '365', '368', '369', '373', '387', '388', '393', '408', '409', '410', '411', '413', '419', '428', '429', '431', '435', '439', '451', '452', '455', '458', '460', '463', '466', '467', '471', '482', '489', '492', '495', '504', '507', '512', '516', '517', '523', '529', '536', '538', '545', '550', '551', '555', '561', '562', '567', '570', '573', '578', '584', '597', '607', '630', '635', '637', '640', '641', '660', '661', '663', '671', '676', '681', '687', '691', '696', '699', '700', '705', '712', '717', '718', '724', '725', '729', '730', '738', '740', '744', '745', '746', '748', '749', '751', '753', '755', '761', '768', '778', '781', '782', '788', '789', '790', '796', '797', '808', '810', '821', '829', '834', '835', '851', '856', '858', '861', '867', '868', '875', '879', '881', '884', '886', '888', '892', '893', '901', '902', '909', '912', '920', '934', '936', '941', '942', '943', '952', '962', '967', '972', '976', '977', '978', '986', '989', '995', '1000', '1004', '1008', '1013', '1021', '1024', '1025', '1026', '1027', '1029', '1032', '1039', '1043', '1048', '1052', '1053', '1056', '1058', '1063', '1067', '1068', '1080', '1084', '1095', '1096', '1102', '1105', '1109', '1110', '1115', '1120', '1125', '1127', '1135', '1137', '1141', '1143', '1144', '1147', '1154', '1168', '1169', '1174', '1181', '1189', '1190', '1206', '1217', '1221', '1227', '1232', '1234', '1243', '1244', '1245', '1248', '1252', '1264', '1268', '1273', '1275', '1276', '1279', '1280', '1285', '1296', '1305', '1307', '1310', '1312', '1313', '1318', '1347', '1351', '1354', '1355', '1356', '1359', '1360', '1365', '1367', '1369', '1370', '1380', '1384', '1390', '1391', '1395', '1396', '1400', '1402', '1404', '1407', '1410', '1411', '1412', '1414', '1415', '1422', '1425', '1426', '1428', '1430', '1432', '1435', '1444', '1446', '1455', '1473', '1477', '1487', '1488', '1500', '1504', '1507', '1514', '1533', '1543', '1556', '1558', '1560', '1561', '1567', '1570', '1579', '1581', '1582', '1588', '1606', '1609', '1613', '1617', '1622', '1623', '1625', '1629', '1634', '1635', '1641', '1642', '1646', '1660', '1671', '1677', '1678', '1679', '1685', '1704', '1726', '1727', '1739', '1751', '1753', '1760', '1766', '1771', '1774', '1789', '1807', '1812', '1814', '1816', '1832', '1835', '1839', '1846', '1849', '1851', '1856', '1865', '1868', '1874', '1875', '1882', '1885', '1893', '1899', '1900', '1913', '1915', '1918', '1928', '1933', '1934', '1939', '1941', '1958', '1964', '1971', '1975', '1982', '1990', '1992', '2000']",False,4000,True,2,4c7a072fa5,0.0,1.0,1.0
./expes/v2_2021-03-27_issda-30_2000-prng-1-w4-p2,30_issda-2000,2000,first-2000,100,5,rng,num-start-1200,1200,25726,classic,378.28962683677673,True,,True,1.0,1.0,1.0,1,"['15', '41', '53', '89', '95', '121', '137', '167', '178', '183', '185', '212', '218', '318', '331', '338', '354', '365', '397', '400', '440', '455', '478', '484', '507', '510', '532', '534', '537', '557', '567', '574', '575', '591', '593', '594', '598', '615', '622', '625', '635', '639', '692', '738', '763', '795', '812', '823', '848', '868', '883', '925', '948', '970', '981', '1037', '1042', '1063', '1066', '1095', '1100', '1122', '1126', '1173', '1227', '1241', '1283', '1285', '1313', '1328', '1376', '1444', '1478', '1499', '1568', '1597', '1634', '1640', '1653', '1665', '1676', '1694', '1698', '1722', '1731', '1737', '1738', '1751', '1773', '1777', '1803', '1807', '1862', '1880', '1900', '1915', '1930', '1932', '1935', '1968']",False,4000,True,2,00398f0a76,0.0,1.0,1.0
./expes/v2_2021-03-27_issda-30_2000-prng-1-w4-p2,30_issda-2000,2000,first-2000,100,5,rng,num-start-1000,1000,25726,classic,1594.821049451828,True,,True,1.0,1.0,1.0,1,"['4', '23', '39', '63', '106', '121', '125', '153', '170', '172', '179', '187', '231', '277', '293', '298', '333', '335', '351', '393', '409', '431', '458', '467', '536', '551', '562', '641', '691', '696', '717', '730', '744', '753', '768', '782', '788', '790', '821', '829', '858', '867', '868', '902', '909', '943', '962', '972', '977', '989', '1039', '1043', '1052', '1084', '1105', '1109', '1137', '1144', '1181', '1221', '1232', '1245', '1248', '1273', '1279', '1313', '1318', '1347', '1354', '1355', '1356', '1360', '1365', '1369', '1396', '1407', '1414', '1415', '1428', '1488', '1613', '1635', '1660', '1671', '1677', '1678', '1679', '1726', '1771', '1774', '1807', '1814', '1856', '1874', '1882', '1928', '1939', '1982', '1990', '2000']",False,4000,True,2,a63ac414bc,0.0,1.0,1.0
./expes/v2_2021-03-27_issda-30_2000-prng-1-w4-p2,30_issda-2000,2000,first-2000,300,15,rng,num-start-3200,3200,25726,classic,1649.8776750564575,True,,True,1.0,1.0,1.0,1,"['15', '20', '38', '41', '53', '65', '73', '76', '83', '84', '88', '89', '92', '95', '106', '114', '121', '122', '127', '128', '137', '153', '160', '167', '170', '178', '183', '185', '191', '199', '207', '212', '218', '233', '240', '251', '280', '291', '298', '307', '314', '318', '326', '331', '338', '339', '346', '348', '354', '364', '365', '377', '385', '393', '397', '400', '401', '407', '411', '414', '416', '425', '426', '427', '432', '440', '441', '442', '449', '455', '469', '475', '478', '484', '487', '496', '497', '507', '510', '511', '513', '519', '521', '532', '534', '536', '537', '550', '557', '566', '567', '569', '574', '575', '586', '591', '592', '593', '594', '595', '596', '598', '599', '600', '601', '607', '615', '622', '625', '635', '639', '645', '646', '657', '659', '662', '663', '666', '670', '679', '690', '692', '694', '703', '729', '732', '738', '743', '745', '748', '763', '782', '794', '795', '804', '812', '823', '826', '839', '841', '846', '848', '855', '861', '863', '868', '869', '877', '881', '883', '893', '899', '900', '904', '909', '910', '925', '932', '941', '948', '966', '970', '979', '981', '1005', '1008', '1013', '1017', '1022', '1037', '1042', '1063', '1066', '1077', '1082', '1084', '1095', '1100', '1119', '1122', '1126', '1144', '1158', '1167', '1171', '1173', '1174', '1193', '1194', '1206', '1220', '1227', '1241', '1243', '1261', '1266', '1271', '1283', '1285', '1286', '1296', '1300', '1301', '1313', '1316', '1326', '1328', '1335', '1336', '1338', '1340', '1341', '1346', '1376', '1380', '1383', '1387', '1393', '1405', '1429', '1436', '1444', '1451', '1470', '1478', '1499', '1506', '1510', '1526', '1530', '1568', '1582', '1585', '1588', '1597', '1606', '1620', '1634', '1638', '1640', '1641', '1642', '1648', '1653', '1665', '1669', '1676', '1694', '1698', '1702', '1710', '1720', '1722', '1731', '1737', '1738', '1751', '1759', '1765', '1766', '1773', '1777', '1781', '1782', '1784', '1790', '1803', '1807', '1822', '1825', '1832', '1835', '1843', '1845', '1846', '1853', '1862', '1871', '1878', '1880', '1890', '1894', '1900', '1901', '1905', '1915', '1930', '1932', '1934', '1935', '1956', '1959', '1966', '1968', '1970', '1972', '1976', '1979', '1988', '1989']",False,4000,True,2,a0274dbd64,0.0,1.0,1.0
./expes/v2_2021-03-27_issda-30_2000-prng-1-w4-p2,30_issda-2000,2000,first-2000,900,45,rng,num-start-3800,3800,25726,classic,3078.6125228405,True,,True,1.0,1.0,1.0,1,"['1', '2', '4', '6', '8', '10', '16', '21', '22', '25', '29', '30', '31', '32', '34', '36', '37', '38', '40', '41', '43', '47', '49', '52', '53', '57', '58', '59', '60', '62', '63', '65', '71', '72', '80', '81', '82', '83', '85', '86', '88', '92', '95', '98', '102', '103', '105', '106', '107', '108', '112', '113', '114', '116', '122', '123', '127', '128', '131', '132', '133', '137', '140', '141', '143', '144', '149', '153', '154', '155', '158', '159', '166', '167', '171', '175', '176', '180', '182', '184', '185', '186', '191', '192', '193', '194', '195', '196', '199', '201', '203', '204', '210', '211', '212', '214', '218', '219', '220', '226', '227', '229', '230', '231', '232', '234', '235', '236', '239', '243', '244', '245', '247', '249', '250', '252', '253', '255', '258', '260', '262', '264', '267', '268', '270', '273', '274', '277', '281', '284', '289', '290', '294', '300', '301', '305', '307', '310', '314', '316', '319', '325', '329', '330', '331', '332', '334', '338', '339', '344', '345', '349', '350', '352', '353', '358', '360', '363', '364', '366', '370', '371', '372', '374', '377', '379', '380', '381', '387', '388', '389', '393', '394', '395', '397', '400', '403', '405', '407', '408', '409', '410', '411', '415', '416', '419', '420', '421', '422', '425', '426', '429', '431', '434', '438', '443', '444', '447', '451', '455', '456', '458', '461', '463', '464', '468', '469', '471', '472', '473', '477', '478', '480', '483', '484', '485', '494', '495', '496', '498', '500', '501', '502', '505', '506', '507', '509', '510', '512', '513', '515', '516', '517', '519', '522', '523', '524', '525', '526', '530', '533', '534', '539', '540', '542', '544', '545', '547', '550', '552', '555', '556', '557', '558', '559', '560', '561', '562', '564', '565', '570', '571', '573', '575', '576', '577', '578', '579', '580', '581', '582', '587', '588', '594', '596', '597', '598', '601', '602', '603', '606', '607', '608', '614', '615', '616', '617', '620', '621', '625', '626', '628', '629', '634', '636', '637', '640', '641', '644', '647', '648', '650', '652', '653', '654', '657', '659', '660', '661', '662', '663', '666', '667', '672', '675', '677', '680', '683', '684', '685', '686', '687', '688', '691', '694', '696', '697', '701', '703', '704', '709', '712', '714', '718', '720', '722', '724', '726', '729', '731', '734', '738', '739', '740', '745', '746', '748', '749', '751', '754', '755', '756', '764', '771', '772', '774', '776', '777', '780', '781', '782', '783', '784', '787', '788', '789', '791', '792', '793', '794', '795', '798', '800', '805', '807', '808', '813', '814', '815', '818', '819', '822', '825', '827', '831', '832', '833', '837', '844', '845', '847', '849', '850', '856', '858', '859', '862', '863', '864', '866', '867', '869', '871', '873', '874', '879', '880', '881', '884', '886', '893', '896', '898', '899', '904', '905', '907', '910', '912', '913', '914', '917', '920', '921', '922', '925', '927', '929', '931', '932', '933', '937', '942', '944', '956', '958', '960', '961', '962', '963', '965', '966', '969', '970', '972', '973', '974', '975', '977', '979', '981', '984', '986', '987', '992', '993', '994', '995', '996', '997', '998', '1000', '1002', '1005', '1006', '1012', '1014', '1015', '1020', '1022', '1025', '1026', '1029', '1031', '1034', '1035', '1038', '1039', '1041', '1044', '1046', '1048', '1049', '1053', '1058', '1062', '1065', '1066', '1068', '1069', '1073', '1077', '1078', '1080', '1082', '1086', '1089', '1090', '1092', '1094', '1095', '1096', '1098', '1101', '1103', '1107', '1109', '1110', '1111', '1113', '1115', '1116', '1117', '1119', '1120', '1121', '1122', '1124', '1126', '1128', '1130', '1132', '1134', '1136', '1138', '1140', '1142', '1143', '1144', '1145', '1146', '1147', '1150', '1161', '1162', '1163', '1166', '1167', '1168', '1169', '1171', '1174', '1182', '1184', '1186', '1192', '1195', '1197', '1201', '1205', '1206', '1207', '1211', '1216', '1218', '1219', '1220', '1221', '1222', '1232', '1234', '1235', '1237', '1240', '1244', '1245', '1248', '1249', '1253', '1255', '1261', '1262', '1265', '1267', '1270', '1272', '1279', '1281', '1283', '1285', '1286', '1287', '1294', '1296', '1297', '1298', '1301', '1304', '1306', '1310', '1311', '1313', '1315', '1318', '1321', '1322', '1323', '1324', '1325', '1326', '1327', '1329', '1330', '1331', '1335', '1336', '1339', '1343', '1344', '1345', '1346', '1348', '1349', '1351', '1352', '1356', '1359', '1360', '1363', '1365', '1369', '1373', '1374', '1377', '1379', '1380', '1383', '1386', '1388', '1393', '1394', '1395', '1396', '1398', '1402', '1403', '1404', '1406', '1407', '1409', '1416', '1417', '1418', '1427', '1437', '1439', '1440', '1441', '1442', '1443', '1444', '1446', '1454', '1456', '1457', '1460', '1463', '1464', '1465', '1466', '1470', '1471', '1472', '1478', '1480', '1484', '1485', '1486', '1487', '1488', '1489', '1496', '1497', '1504', '1506', '1514', '1515', '1516', '1517', '1519', '1525', '1527', '1529', '1530', '1532', '1533', '1539', '1540', '1541', '1542', '1546', '1547', '1548', '1551', '1552', '1555', '1557', '1558', '1559', '1560', '1563', '1564', '1565', '1567', '1571', '1575', '1577', '1578', '1580', '1584', '1585', '1587', '1588', '1590', '1593', '1597', '1602', '1603', '1606', '1607', '1608', '1610', '1613', '1615', '1621', '1623', '1624', '1626', '1627', '1632', '1634', '1635', '1639', '1641', '1646', '1648', '1650', '1651', '1652', '1654', '1655', '1656', '1658', '1659', '1660', '1661', '1664', '1668', '1670', '1673', '1676', '1678', '1680', '1681', '1682', '1683', '1685', '1686', '1687', '1688', '1691', '1694', '1696', '1697', '1698', '1701', '1702', '1703', '1704', '1705', '1710', '1711', '1714', '1720', '1724', '1732', '1735', '1737', '1739', '1740', '1741', '1745', '1747', '1748', '1750', '1752', '1754', '1756', '1761', '1762', '1765', '1768', '1770', '1771', '1772', '1773', '1776', '1777', '1779', '1781', '1784', '1785', '1786', '1787', '1788', '1790', '1791', '1792', '1795', '1800', '1802', '1803', '1807', '1810', '1814', '1815', '1816', '1819', '1820', '1821', '1835', '1836', '1837', '1840', '1841', '1842', '1845', '1846', '1847', '1848', '1849', '1852', '1853', '1861', '1862', '1864', '1865', '1875', '1877', '1879', '1884', '1886', '1887', '1888', '1889', '1891', '1894', '1895', '1896', '1898', '1900', '1901', '1902', '1903', '1906', '1907', '1908', '1910', '1911', '1912', '1913', '1914', '1917', '1918', '1920', '1921', '1924', '1926', '1930', '1932', '1934', '1935', '1937', '1938', '1940', '1946', '1948', '1949', '1950', '1951', '1955', '1959', '1962', '1964', '1965', '1967', '1968', '1969', '1972', '1974', '1977', '1980', '1983', '1984', '1990', '1991', '1992', '1993', '1995', '2000']",False,4000,True,2,746dcbf706,0.0,1.0,1.0
./expes/v2_2021-03-27_issda-30_2000-prng-1-w4-p2,30_issda-2000,2000,first-2000,400,20,rng,num-start-3800,3800,25726,classic,2205.6570999622345,True,,True,1.0,1.0,1.0,1,"['2', '8', '11', '14', '17', '18', '25', '27', '31', '36', '38', '49', '53', '54', '59', '60', '61', '62', '70', '71', '74', '84', '85', '89', '97', '100', '104', '106', '108', '109', '111', '113', '124', '125', '130', '132', '133', '135', '136', '137', '141', '142', '153', '155', '166', '167', '170', '171', '172', '173', '174', '178', '180', '182', '192', '197', '204', '205', '209', '212', '213', '218', '223', '226', '227', '228', '229', '230', '242', '246', '247', '249', '263', '266', '272', '273', '282', '283', '284', '285', '289', '292', '298', '304', '305', '306', '322', '332', '333', '337', '345', '347', '351', '354', '355', '361', '372', '382', '388', '394', '405', '406', '408', '409', '411', '416', '420', '428', '430', '431', '438', '453', '455', '456', '460', '473', '474', '484', '485', '488', '498', '499', '509', '531', '538', '539', '547', '548', '550', '553', '562', '567', '569', '576', '584', '595', '597', '603', '607', '616', '630', '633', '659', '666', '674', '677', '684', '685', '693', '700', '709', '712', '715', '727', '749', '750', '757', '761', '763', '764', '765', '776', '777', '782', '785', '786', '791', '796', '797', '813', '816', '822', '824', '825', '833', '840', '843', '861', '864', '866', '870', '871', '878', '888', '893', '910', '920', '923', '925', '926', '929', '936', '940', '949', '950', '958', '964', '971', '973', '980', '985', '988', '1004', '1007', '1008', '1013', '1016', '1018', '1019', '1026', '1030', '1035', '1037', '1045', '1060', '1070', '1073', '1080', '1084', '1097', '1101', '1106', '1111', '1115', '1118', '1121', '1124', '1136', '1137', '1139', '1146', '1148', '1151', '1158', '1160', '1174', '1176', '1177', '1179', '1186', '1188', '1190', '1197', '1199', '1205', '1206', '1209', '1210', '1212', '1215', '1223', '1224', '1235', '1239', '1242', '1243', '1245', '1246', '1247', '1248', '1252', '1253', '1256', '1263', '1275', '1280', '1284', '1290', '1300', '1305', '1309', '1315', '1317', '1322', '1327', '1334', '1359', '1368', '1375', '1381', '1386', '1389', '1391', '1400', '1409', '1410', '1419', '1426', '1433', '1434', '1436', '1441', '1442', '1445', '1452', '1453', '1466', '1474', '1476', '1485', '1487', '1490', '1492', '1495', '1508', '1510', '1511', '1518', '1527', '1528', '1529', '1531', '1542', '1558', '1566', '1567', '1581', '1583', '1586', '1587', '1589', '1593', '1598', '1599', '1604', '1606', '1611', '1618', '1625', '1628', '1631', '1636', '1638', '1645', '1654', '1658', '1659', '1669', '1681', '1686', '1706', '1728', '1732', '1733', '1743', '1745', '1746', '1760', '1762', '1770', '1775', '1777', '1780', '1786', '1791', '1794', '1797', '1800', '1801', '1803', '1806', '1816', '1817', '1818', '1821', '1822', '1828', '1829', '1834', '1835', '1840', '1856', '1857', '1863', '1867', '1880', '1883', '1887', '1891', '1893', '1918', '1922', '1925', '1928', '1938', '1939', '1940', '1948', '1949', '1954', '1957', '1958', '1963', '1970', '1972', '1975', '1980', '1984', '1998', '2000']",False,4000,True,2,66325f0f76,0.0,1.0,1.0
./expes/v2_2021-03-27_issda-30_2000-prng-1-w4-p2,30_issda-2000,2000,first-2000,700,35,rng,num-start-1800,1800,25726,classic,1499.8803670406342,True,,True,1.0,1.0,1.0,1,"['6', '8', '10', '16', '17', '19', '24', '25', '31', '32', '35', '36', '37', '39', '46', '49', '59', '60', '63', '64', '70', '75', '78', '80', '85', '87', '89', '91', '98', '99', '109', '112', '113', '115', '116', '121', '122', '124', '127', '128', '132', '134', '135', '138', '139', '141', '145', '149', '150', '151', '152', '157', '161', '162', '168', '171', '174', '183', '187', '190', '196', '198', '202', '204', '205', '206', '210', '222', '223', '231', '232', '237', '239', '240', '247', '248', '249', '252', '256', '264', '267', '270', '271', '274', '279', '282', '285', '288', '292', '293', '295', '296', '298', '301', '302', '306', '311', '312', '315', '318', '319', '321', '322', '324', '325', '328', '330', '331', '335', '337', '341', '344', '347', '348', '349', '351', '353', '355', '361', '366', '367', '368', '376', '379', '383', '384', '401', '402', '403', '410', '421', '423', '428', '429', '436', '438', '440', '441', '444', '446', '448', '449', '450', '451', '453', '454', '455', '456', '458', '462', '463', '467', '469', '470', '474', '475', '476', '479', '481', '482', '490', '491', '492', '493', '497', '500', '507', '511', '514', '515', '516', '521', '523', '524', '525', '526', '533', '535', '536', '537', '540', '553', '556', '557', '558', '560', '562', '568', '575', '577', '581', '587', '588', '589', '595', '605', '606', '607', '608', '620', '623', '626', '628', '636', '638', '639', '642', '645', '646', '647', '649', '652', '653', '659', '660', '661', '663', '666', '674', '676', '677', '678', '679', '680', '681', '683', '684', '685', '686', '688', '689', '691', '693', '694', '697', '702', '704', '705', '706', '712', '713', '714', '723', '724', '725', '728', '729', '732', '735', '736', '738', '740', '750', '752', '753', '754', '755', '756', '760', '763', '766', '771', '775', '776', '778', '780', '781', '789', '793', '796', '797', '799', '800', '804', '807', '810', '814', '815', '818', '823', '825', '829', '830', '831', '832', '835', '836', '849', '853', '855', '857', '860', '862', '864', '866', '867', '873', '874', '878', '883', '886', '887', '888', '889', '890', '894', '900', '901', '903', '905', '906', '910', '912', '913', '920', '922', '923', '924', '926', '931', '933', '939', '942', '944', '945', '947', '951', '955', '956', '957', '958', '959', '960', '963', '964', '970', '972', '974', '976', '981', '983', '986', '987', '988', '992', '994', '995', '1003', '1005', '1008', '1009', '1012', '1014', '1015', '1017', '1020', '1021', '1022', '1024', '1025', '1027', '1029', '1036', '1037', '1039', '1041', '1046', '1048', '1050', '1057', '1058', '1060', '1061', '1062', '1064', '1065', '1066', '1068', '1071', '1075', '1085', '1086', '1089', '1094', '1097', '1098', '1114', '1115', '1119', '1122', '1124', '1127', '1130', '1135', '1137', '1141', '1147', '1149', '1157', '1158', '1160', '1161', '1164', '1167', '1168', '1169', '1170', '1172', '1176', '1178', '1180', '1183', '1186', '1187', '1188', '1191', '1196', '1197', '1199', '1202', '1203', '1209', '1216', '1220', '1222', '1225', '1236', '1237', '1239', '1242', '1251', '1254', '1257', '1258', '1260', '1261', '1263', '1265', '1267', '1270', '1271', '1275', '1277', '1280', '1283', '1286', '1287', '1288', '1293', '1295', '1300', '1302', '1303', '1307', '1314', '1316', '1317', '1322', '1323', '1324', '1325', '1326', '1328', '1329', '1330', '1336', '1342', '1343', '1344', '1346', '1349', '1350', '1352', '1357', '1362', '1363', '1370', '1371', '1376', '1379', '1386', '1387', '1388', '1390', '1393', '1396', '1398', '1399', '1402', '1404', '1410', '1411', '1412', '1414', '1415', '1417', '1419', '1422', '1423', '1425', '1426', '1427', '1428', '1436', '1438', '1445', '1450', '1451', '1454', '1459', '1472', '1473', '1476', '1477', '1478', '1482', '1483', '1486', '1488', '1489', '1493', '1496', '1499', '1506', '1508', '1511', '1515', '1516', '1518', '1520', '1522', '1524', '1526', '1527', '1537', '1538', '1539', '1541', '1544', '1547', '1549', '1551', '1554', '1557', '1558', '1561', '1572', '1574', '1581', '1585', '1586', '1592', '1593', '1595', '1602', '1604', '1606', '1608', '1613', '1614', '1615', '1616', '1623', '1625', '1627', '1631', '1632', '1634', '1636', '1637', '1640', '1645', '1646', '1648', '1649', '1650', '1651', '1659', '1660', '1662', '1663', '1667', '1681', '1683', '1686', '1690', '1693', '1695', '1701', '1705', '1709', '1711', '1716', '1717', '1718', '1721', '1722', '1724', '1728', '1729', '1735', '1736', '1737', '1743', '1747', '1748', '1749', '1752', '1753', '1756', '1757', '1763', '1768', '1769', '1773', '1776', '1777', '1780', '1781', '1783', '1787', '1792', '1793', '1797', '1800', '1801', '1802', '1804', '1806', '1809', '1812', '1813', '1816', '1817', '1823', '1827', '1829', '1830', '1831', '1842', '1847', '1848', '1854', '1857', '1858', '1859', '1862', '1863', '1867', '1870', '1874', '1877', '1884', '1886', '1888', '1889', '1890', '1893', '1895', '1896', '1899', '1900', '1901', '1906', '1908', '1913', '1914', '1915', '1916', '1918', '1922', '1927', '1928', '1931', '1935', '1936', '1938', '1940', '1942', '1945', '1946', '1947', '1948', '1950', '1953', '1954', '1958', '1960', '1965', '1967', '1971', '1977', '1980', '1981', '1982', '1983', '1984', '1987', '1992', '2000']",False,4000,True,2,44e4818511,0.0,1.0,1.0
./expes/v2_2021-03-27_issda-30_2000-prng-1-w4-p2,30_issda-2000,2000,first-2000,100,5,rng,num-start-800,800,25726,classic,1142.1951875686646,True,,True,1.0,1.0,1.0,1,"['1', '45', '59', '76', '94', '166', '181', '184', '191', '193', '200', '240', '245', '299', '396', '397', '404', '406', '408', '412', '502', '513', '536', '544', '559', '597', '624', '655', '688', '732', '739', '741', '742', '765', '840', '848', '870', '881', '912', '964', '994', '997', '1002', '1025', '1032', '1055', '1076', '1103', '1105', '1134', '1154', '1176', '1180', '1202', '1206', '1207', '1233', '1250', '1298', '1301', '1321', '1343', '1358', '1390', '1397', '1405', '1430', '1433', '1436', '1493', '1495', '1505', '1548', '1556', '1562', '1578', '1625', '1632', '1639', '1643', '1646', '1649', '1650', '1684', '1696', '1706', '1730', '1787', '1803', '1828', '1849', '1863', '1865', '1870', '1877', '1911', '1949', '1978', '1987', '2000']",False,4000,True,2,f205ad933b,0.0,1.0,1.0
./expes/v2_2021-03-27_issda-30_2000-prng-1-w4-p2,30_issda-2000,2000,first-2000,400,20,rng,num-start-3200,3200,25726,classic,2389.4182591438293,True,,True,1.0,1.0,1.0,1,"['7', '15', '20', '22', '27', '38', '41', '53', '55', '65', '71', '73', '76', '83', '84', '85', '88', '89', '92', '95', '106', '110', '114', '121', '122', '124', '127', '128', '137', '153', '154', '159', '160', '162', '164', '167', '170', '175', '178', '183', '185', '191', '195', '199', '207', '212', '218', '232', '233', '235', '238', '240', '251', '262', '280', '285', '291', '298', '307', '314', '318', '322', '326', '331', '332', '338', '339', '343', '346', '348', '354', '364', '365', '377', '385', '392', '393', '397', '400', '401', '407', '411', '414', '416', '421', '425', '426', '427', '432', '433', '440', '441', '442', '448', '449', '455', '456', '469', '475', '478', '479', '484', '487', '496', '497', '507', '510', '511', '513', '519', '521', '527', '528', '532', '534', '536', '537', '550', '552', '557', '566', '567', '569', '574', '575', '586', '591', '592', '593', '594', '595', '596', '598', '599', '600', '601', '607', '609', '615', '622', '625', '635', '638', '639', '645', '646', '657', '659', '662', '663', '666', '670', '678', '679', '690', '692', '694', '703', '711', '729', '732', '738', '743', '745', '748', '750', '763', '781', '782', '794', '795', '796', '800', '804', '809', '811', '812', '820', '823', '826', '827', '839', '841', '846', '848', '852', '855', '861', '863', '868', '869', '877', '881', '883', '889', '893', '899', '900', '901', '904', '909', '910', '925', '930', '932', '941', '948', '952', '966', '968', '970', '979', '981', '997', '1002', '1005', '1008', '1013', '1017', '1022', '1037', '1042', '1050', '1063', '1066', '1072', '1077', '1079', '1082', '1084', '1095', '1100', '1113', '1119', '1122', '1126', '1128', '1144', '1149', '1152', '1158', '1166', '1167', '1171', '1173', '1174', '1193', '1194', '1206', '1218', '1220', '1227', '1241', '1243', '1246', '1250', '1261', '1266', '1269', '1271', '1272', '1283', '1285', '1286', '1296', '1300', '1301', '1313', '1316', '1326', '1328', '1335', '1336', '1338', '1340', '1341', '1346', '1367', '1369', '1376', '1380', '1383', '1387', '1393', '1405', '1409', '1425', '1429', '1436', '1444', '1451', '1470', '1478', '1499', '1506', '1510', '1526', '1529', '1530', '1554', '1568', '1571', '1573', '1577', '1582', '1585', '1586', '1588', '1597', '1604', '1606', '1607', '1613', '1620', '1634', '1635', '1636', '1638', '1640', '1641', '1642', '1648', '1653', '1659', '1665', '1669', '1676', '1677', '1694', '1695', '1698', '1702', '1710', '1716', '1720', '1722', '1731', '1737', '1738', '1751', '1753', '1754', '1757', '1759', '1765', '1766', '1771', '1773', '1777', '1781', '1782', '1784', '1790', '1795', '1798', '1800', '1801', '1803', '1807', '1814', '1822', '1825', '1827', '1832', '1835', '1842', '1843', '1845', '1846', '1853', '1854', '1862', '1871', '1875', '1876', '1878', '1880', '1889', '1890', '1894', '1900', '1901', '1905', '1915', '1930', '1932', '1934', '1935', '1948', '1956', '1959', '1966', '1968', '1970', '1972', '1976', '1979', '1984', '1988', '1989']",False,4000,True,2,93bfe1e4f5,0.0,1.0,1.0
./expes/v2_2021-03-27_issda-30_2000-prng-1-w4-p2,30_issda-2000,2000,first-2000,900,45,rng,num-start-1600,1600,25726,classic,2237.296042203903,True,,True,1.0,1.0,1.0,1,"['2', '4', '5', '8', '9', '12', '16', '18', '19', '21', '22', '23', '26', '28', '30', '35', '36', '37', '38', '39', '41', '42', '43', '44', '45', '46', '49', '50', '53', '56', '58', '59', '60', '61', '63', '64', '66', '67', '71', '73', '77', '78', '81', '82', '83', '84', '85', '90', '93', '94', '98', '99', '100', '107', '115', '121', '128', '129', '130', '132', '134', '138', '139', '141', '143', '145', '146', '147', '149', '150', '151', '154', '157', '158', '167', '168', '171', '172', '174', '175', '178', '183', '184', '186', '188', '189', '191', '193', '198', '202', '203', '205', '206', '207', '210', '211', '214', '219', '221', '222', '223', '225', '229', '232', '234', '235', '236', '237', '242', '245', '248', '250', '253', '254', '257', '258', '259', '265', '268', '273', '276', '277', '278', '280', '284', '285', '290', '291', '300', '302', '304', '307', '312', '316', '320', '322', '324', '325', '326', '327', '329', '332', '336', '337', '338', '339', '342', '343', '345', '346', '348', '349', '352', '353', '355', '362', '363', '364', '365', '368', '371', '376', '379', '381', '383', '385', '386', '389', '398', '405', '408', '409', '410', '411', '412', '418', '420', '421', '422', '424', '426', '428', '429', '430', '435', '437', '441', '444', '446', '449', '450', '451', '452', '455', '458', '459', '461', '462', '463', '465', '466', '469', '471', '473', '476', '478', '479', '481', '482', '486', '489', '491', '494', '495', '497', '498', '500', '502', '504', '505', '507', '508', '509', '512', '513', '514', '517', '518', '519', '520', '523', '529', '530', '531', '532', '534', '542', '546', '547', '548', '549', '551', '552', '554', '555', '559', '560', '564', '565', '568', '569', '576', '577', '582', '584', '594', '595', '596', '597', '602', '603', '604', '606', '607', '608', '611', '612', '613', '614', '621', '622', '624', '625', '626', '628', '629', '630', '632', '636', '638', '639', '641', '642', '645', '648', '649', '650', '651', '655', '656', '657', '658', '660', '663', '667', '671', '672', '679', '681', '682', '684', '685', '689', '691', '694', '695', '696', '697', '699', '704', '705', '706', '708', '709', '711', '713', '716', '718', '724', '727', '728', '729', '731', '732', '736', '737', '739', '747', '748', '752', '754', '755', '756', '759', '762', '766', '768', '773', '774', '775', '776', '777', '778', '779', '781', '784', '785', '786', '787', '792', '798', '799', '800', '802', '806', '807', '809', '811', '814', '815', '817', '818', '822', '823', '824', '828', '829', '830', '833', '834', '837', '838', '843', '845', '847', '849', '853', '854', '861', '863', '865', '866', '873', '874', '880', '881', '884', '885', '887', '892', '896', '897', '898', '899', '900', '906', '907', '912', '913', '915', '918', '921', '922', '924', '928', '929', '932', '934', '938', '939', '941', '942', '944', '946', '947', '952', '957', '959', '961', '962', '968', '971', '977', '981', '984', '986', '993', '994', '995', '996', '1000', '1002', '1003', '1006', '1009', '1010', '1011', '1014', '1015', '1016', '1017', '1023', '1024', '1025', '1026', '1027', '1029', '1031', '1033', '1034', '1035', '1037', '1039', '1040', '1042', '1043', '1045', '1046', '1047', '1048', '1050', '1053', '1054', '1055', '1058', '1059', '1063', '1067', '1072', '1073', '1074', '1078', '1081', '1082', '1083', '1088', '1091', '1094', '1095', '1101', '1102', '1103', '1105', '1106', '1107', '1109', '1110', '1111', '1112', '1115', '1116', '1117', '1118', '1122', '1123', '1124', '1125', '1127', '1128', '1129', '1132', '1133', '1136', '1140', '1141', '1143', '1146', '1148', '1149', '1150', '1154', '1156', '1157', '1160', '1166', '1167', '1168', '1169', '1170', '1171', '1173', '1175', '1177', '1180', '1184', '1185', '1186', '1187', '1188', '1197', '1200', '1202', '1204', '1207', '1210', '1211', '1212', '1215', '1216', '1218', '1221', '1222', '1226', '1229', '1230', '1231', '1232', '1233', '1237', '1240', '1241', '1242', '1245', '1248', '1252', '1253', '1254', '1255', '1257', '1260', '1264', '1266', '1270', '1274', '1275', '1276', '1277', '1280', '1286', '1288', '1289', '1290', '1292', '1293', '1298', '1302', '1303', '1305', '1309', '1312', '1316', '1318', '1322', '1324', '1326', '1327', '1328', '1329', '1330', '1331', '1335', '1336', '1339', '1345', '1346', '1350', '1351', '1352', '1353', '1356', '1360', '1362', '1363', '1364', '1368', '1370', '1373', '1374', '1377', '1379', '1381', '1382', '1383', '1387', '1388', '1389', '1390', '1395', '1396', '1397', '1400', '1403', '1406', '1407', '1408', '1410', '1411', '1413', '1415', '1417', '1419', '1424', '1426', '1432', '1433', '1435', '1437', '1439', '1440', '1441', '1442', '1444', '1451', '1453', '1455', '1457', '1458', '1459', '1460', '1464', '1465', '1469', '1471', '1473', '1474', '1478', '1480', '1483', '1484', '1486', '1487', '1488', '1492', '1494', '1495', '1496', '1498', '1501', '1503', '1509', '1510', '1511', '1512', '1513', '1517', '1522', '1524', '1526', '1528', '1529', '1531', '1534', '1536', '1538', '1543', '1545', '1548', '1552', '1554', '1555', '1559', '1562', '1564', '1565', '1569', '1572', '1573', '1576', '1578', '1579', '1589', '1590', '1593', '1594', '1595', '1596', '1597', '1598', '1602', '1603', '1604', '1605', '1608', '1609', '1611', '1612', '1615', '1616', '1618', '1621', '1623', '1624', '1625', '1629', '1631', '1633', '1634', '1635', '1636', '1643', '1644', '1646', '1647', '1648', '1650', '1652', '1654', '1655', '1656', '1657', '1658', '1661', '1662', '1666', '1670', '1673', '1674', '1676', '1679', '1680', '1681', '1682', '1683', '1692', '1696', '1697', '1698', '1699', '1700', '1702', '1705', '1706', '1710', '1711', '1712', '1713', '1716', '1721', '1722', '1723', '1724', '1725', '1731', '1732', '1734', '1735', '1736', '1738', '1739', '1742', '1743', '1744', '1748', '1752', '1753', '1754', '1756', '1757', '1759', '1760', '1762', '1764', '1766', '1767', '1773', '1774', '1777', '1778', '1782', '1786', '1790', '1794', '1797', '1800', '1801', '1805', '1806', '1808', '1809', '1813', '1815', '1818', '1825', '1826', '1829', '1830', '1831', '1835', '1837', '1839', '1843', '1845', '1847', '1850', '1851', '1852', '1858', '1862', '1863', '1864', '1865', '1866', '1870', '1871', '1873', '1877', '1879', '1880', '1883', '1885', '1886', '1887', '1888', '1889', '1891', '1893', '1895', '1896', '1897', '1898', '1905', '1907', '1910', '1911', '1918', '1920', '1921', '1922', '1924', '1926', '1927', '1928', '1929', '1933', '1934', '1936', '1938', '1945', '1946', '1950', '1951', '1955', '1956', '1959', '1961', '1965', '1966', '1967', '1971', '1974', '1976', '1977', '1978', '1980', '1981', '1982', '1983', '1985', '1987', '1988', '1990', '1992', '1993', '1994', '1995', '1996', '1997', '1998', '1999', '2000']",False,4000,True,2,185f5e35b0,0.0,1.0,1.0
./expes/v2_2021-03-27_issda-30_2000-prng-1-w4-p2,30_issda-2000,2000,first-2000,100,5,rng,num-start-2600,2600,25726,classic,997.7712514400482,True,,True,1.0,1.0,1.0,1,"['41', '63', '77', '90', '119', '130', '132', '175', '177', '184', '199', '200', '221', '233', '259', '277', '281', '292', '304', '325', '394', '396', '398', '426', '429', '465', '480', '481', '507', '530', '547', '586', '643', '694', '731', '732', '759', '769', '773', '777', '792', '800', '821', '825', '835', '873', '912', '929', '935', '941', '972', '994', '999', '1001', '1014', '1020', '1038', '1059', '1066', '1090', '1106', '1142', '1174', '1186', '1191', '1197', '1232', '1243', '1271', '1315', '1319', '1331', '1354', '1358', '1414', '1416', '1436', '1438', '1444', '1487', '1493', '1555', '1566', '1656', '1662', '1668', '1699', '1701', '1752', '1762', '1799', '1805', '1838', '1847', '1848', '1851', '1867', '1938', '1946', '1971']",False,4000,True,2,45e1a03dec,0.0,1.0,1.0
./expes/v2_2021-03-27_issda-30_2000-prng-1-w4-p2,30_issda-2000,2000,first-2000,100,5,rng,num-start-800,800,25726,classic,787.7226994037628,True,,True,1.0,1.0,1.0,1,"['22', '57', '58', '144', '149', '171', '184', '194', '210', '219', '229', '243', '249', '252', '307', '330', '332', '338', '372', '397', '419', '447', '458', '506', '522', '524', '534', '540', '555', '556', '562', '564', '571', '575', '577', '597', '621', '647', '691', '734', '739', '746', '783', '807', '813', '827', '844', '899', '922', '927', '956', '993', '997', '1025', '1053', '1058', '1080', '1130', '1186', '1195', '1207', '1219', '1245', '1262', '1279', '1294', '1296', '1298', '1306', '1313', '1335', '1336', '1349', '1360', '1363', '1377', '1402', '1407', '1439', '1504', '1506', '1517', '1530', '1547', '1593', '1635', '1648', '1655', '1676', '1750', '1772', '1784', '1788', '1792', '1815', '1836', '1847', '1862', '1914', '1926']",False,4000,True,2,a1d4d5224b,0.0,1.0,1.0
./expes/v2_2021-03-27_issda-30_2000-prng-1-w4-p2,30_issda-2000,2000,first-2000,300,15,rng,num-start-4000,4000,25726,classic,2273.3600602149963,True,,True,1.0,1.0,1.0,1,"['6', '10', '19', '24', '31', '32', '35', '36', '39', '59', '64', '75', '85', '89', '98', '113', '115', '116', '121', '122', '124', '127', '132', '135', '151', '152', '161', '162', '168', '174', '190', '202', '205', '206', '222', '237', '239', '240', '249', '264', '267', '288', '292', '295', '302', '311', '319', '321', '324', '325', '328', '337', '353', '368', '383', '401', '402', '423', '428', '458', '462', '469', '474', '475', '476', '479', '482', '490', '491', '500', '511', '515', '523', '524', '533', '540', '558', '560', '575', '587', '589', '606', '620', '626', '636', '638', '639', '642', '645', '646', '652', '653', '660', '666', '678', '683', '686', '688', '689', '691', '693', '694', '697', '704', '706', '712', '713', '725', '728', '729', '732', '738', '753', '756', '771', '778', '789', '793', '796', '799', '804', '807', '810', '818', '823', '830', '831', '836', '860', '862', '883', '889', '900', '905', '913', '920', '923', '933', '939', '942', '945', '947', '956', '957', '960', '972', '976', '986', '992', '1003', '1005', '1008', '1009', '1014', '1021', '1022', '1024', '1025', '1029', '1036', '1048', '1050', '1062', '1066', '1068', '1086', '1094', '1114', '1115', '1122', '1124', '1127', '1137', '1141', '1157', '1158', '1161', '1167', '1172', '1180', '1183', '1186', '1191', '1202', '1203', '1216', '1220', '1239', '1251', '1257', '1258', '1263', '1265', '1267', '1283', '1288', '1314', '1323', '1325', '1329', '1343', '1357', '1371', '1386', '1390', '1396', '1402', '1404', '1415', '1419', '1422', '1423', '1438', '1445', '1450', '1451', '1473', '1477', '1482', '1483', '1486', '1489', '1493', '1508', '1511', '1518', '1539', '1544', '1547', '1551', '1557', '1592', '1593', '1595', '1602', '1604', '1608', '1615', '1631', '1634', '1637', '1640', '1649', '1659', '1683', '1686', '1690', '1701', '1711', '1716', '1718', '1721', '1722', '1728', '1729', '1735', '1752', '1753', '1756', '1757', '1763', '1769', '1773', '1781', '1783', '1787', '1792', '1802', '1817', '1827', '1829', '1830', '1831', '1854', '1858', '1859', '1862', '1870', '1874', '1884', '1888', '1890', '1895', '1896', '1900', '1901', '1906', '1915', '1916', '1922', '1935', '1936', '1938', '1942', '1965', '1967', '1971', '1977', '1982', '2000']",False,4000,True,2,6d63b73d7e,0.0,1.0,1.0
./expes/v2_2021-03-27_issda-30_2000-prng-1-w4-p2,30_issda-2000,2000,first-2000,600,30,rng,num-start-200,200,25726,classic,4036.7211377620697,False,,False,0,,,0,"['5', '7', '8', '9', '11', '12', '20', '24', '27', '30', '32', '33', '45', '46', '54', '56', '60', '62', '63', '66', '69', '71', '74', '79', '80', '84', '88', '89', '90', '94', '97', '101', '105', '107', '108', '110', '111', '112', '114', '116', '125', '126', '138', '139', '141', '142', '145', '146', '151', '159', '160', '164', '166', '174', '178', '183', '184', '187', '188', '190', '191', '193', '194', '205', '206', '211', '214', '220', '225', '229', '230', '232', '237', '241', '249', '256', '257', '258', '259', '260', '263', '264', '265', '267', '268', '269', '273', '274', '277', '281', '286', '291', '294', '299', '300', '301', '302', '304', '306', '307', '309', '315', '318', '321', '322', '326', '328', '329', '337', '342', '343', '357', '362', '365', '366', '367', '368', '374', '380', '381', '384', '390', '391', '396', '398', '399', '400', '415', '416', '418', '422', '425', '426', '434', '435', '438', '439', '441', '442', '448', '452', '457', '461', '462', '463', '464', '465', '473', '474', '480', '483', '487', '488', '489', '500', '501', '502', '507', '509', '513', '515', '519', '520', '526', '527', '528', '530', '531', '535', '536', '537', '538', '539', '541', '549', '551', '556', '565', '566', '574', '575', '577', '581', '589', '593', '595', '596', '601', '604', '605', '606', '608', '610', '611', '614', '615', '617', '618', '622', '625', '628', '630', '631', '632', '637', '642', '643', '648', '650', '655', '661', '665', '671', '680', '682', '684', '686', '693', '697', '700', '703', '707', '709', '712', '715', '719', '722', '729', '730', '736', '740', '746', '751', '755', '756', '760', '761', '762', '764', '768', '769', '770', '771', '778', '781', '792', '794', '796', '798', '799', '806', '811', '813', '815', '831', '836', '839', '841', '847', '848', '849', '853', '864', '869', '870', '871', '872', '874', '875', '877', '878', '879', '880', '881', '882', '884', '890', '891', '895', '896', '901', '902', '903', '905', '909', '911', '912', '917', '919', '921', '922', '924', '941', '944', '945', '947', '949', '950', '956', '963', '966', '972', '976', '980', '981', '985', '987', '988', '992', '997', '998', '1006', '1017', '1018', '1020', '1023', '1026', '1027', '1033', '1045', '1048', '1052', '1059', '1063', '1065', '1066', '1067', '1068', '1070', '1071', '1074', '1075', '1078', '1079', '1080', '1082', '1087', '1088', '1089', '1090', '1091', '1092', '1093', '1094', '1096', '1098', '1100', '1113', '1117', '1118', '1120', '1121', '1126', '1127', '1136', '1138', '1140', '1147', '1150', '1156', '1158', '1159', '1168', '1170', '1171', '1172', '1174', '1175', '1183', '1184', '1185', '1186', '1188', '1190', '1195', '1199', '1205', '1207', '1210', '1211', '1213', '1218', '1219', '1222', '1224', '1229', '1236', '1241', '1246', '1247', '1250', '1252', '1257', '1265', '1269', '1271', '1272', '1275', '1285', '1287', '1289', '1292', '1298', '1308', '1309', '1313', '1315', '1318', '1322', '1330', '1332', '1334', '1336', '1338', '1339', '1342', '1344', '1346', '1351', '1365', '1366', '1367', '1372', '1374', '1377', '1381', '1387', '1395', '1396', '1401', '1402', '1404', '1416', '1424', '1430', '1432', '1435', '1436', '1437', '1438', '1442', '1445', '1447', '1452', '1460', '1461', '1463', '1465', '1467', '1468', '1472', '1473', '1477', '1481', '1485', '1488', '1489', '1491', '1493', '1500', '1502', '1504', '1506', '1508', '1513', '1515', '1517', '1526', '1527', '1533', '1536', '1538', '1547', '1553', '1557', '1561', '1564', '1569', '1570', '1577', '1583', '1585', '1588', '1589', '1592', '1595', '1602', '1607', '1608', '1611', '1613', '1626', '1627', '1633', '1635', '1636', '1641', '1643', '1645', '1646', '1649', '1651', '1653', '1657', '1659', '1664', '1668', '1669', '1674', '1679', '1680', '1682', '1683', '1687', '1688', '1689', '1691', '1693', '1696', '1703', '1707', '1709', '1710', '1713', '1716', '1717', '1720', '1721', '1733', '1739', '1740', '1741', '1745', '1748', '1749', '1760', '1765', '1766', '1769', '1775', '1777', '1778', '1779', '1781', '1785', '1795', '1797', '1810', '1813', '1815', '1816', '1817', '1820', '1822', '1823', '1827', '1829', '1832', '1833', '1839', '1840', '1845', '1847', '1848', '1851', '1855', '1857', '1858', '1863', '1865', '1866', '1869', '1870', '1873', '1881', '1886', '1887', '1897', '1901', '1909', '1911', '1912', '1916', '1920', '1922', '1931', '1945', '1949', '1951', '1954', '1958', '1963', '1965', '1970', '1982', '1983', '1987', '1989', '1990', '1996']",True,4000,True,2,1262ea1353,0.0,0.0,0.0
./expes/v2_2021-03-27_issda-30_2000-prng-1-w4-p2,30_issda-2000,2000,first-2000,700,35,rng,num-start-2200,2200,25726,classic,1966.0565745830536,True,,True,1.0,1.0,1.0,1,"['4', '7', '9', '10', '11', '18', '22', '24', '33', '36', '37', '40', '41', '44', '49', '50', '51', '52', '57', '61', '64', '65', '66', '69', '70', '73', '74', '75', '77', '84', '89', '94', '101', '105', '110', '111', '116', '117', '121', '123', '124', '126', '135', '137', '139', '146', '149', '150', '151', '152', '155', '157', '158', '159', '164', '165', '167', '170', '173', '174', '177', '180', '183', '188', '191', '192', '193', '194', '197', '204', '205', '206', '208', '209', '216', '218', '228', '230', '232', '236', '238', '243', '250', '252', '262', '264', '270', '274', '275', '277', '278', '280', '283', '287', '288', '290', '295', '297', '301', '307', '310', '311', '315', '320', '321', '322', '323', '325', '326', '329', '331', '333', '337', '341', '347', '348', '350', '353', '354', '356', '361', '362', '364', '370', '372', '373', '377', '380', '385', '389', '392', '393', '394', '407', '409', '419', '420', '426', '427', '431', '432', '435', '436', '438', '442', '443', '444', '446', '449', '455', '461', '462', '465', '468', '473', '475', '476', '477', '478', '481', '484', '488', '494', '502', '506', '508', '510', '511', '512', '514', '516', '519', '520', '521', '523', '524', '526', '527', '529', '531', '532', '537', '541', '545', '547', '550', '551', '560', '562', '569', '571', '572', '575', '579', '583', '586', '588', '594', '596', '598', '604', '607', '608', '620', '622', '623', '627', '631', '632', '634', '635', '639', '640', '641', '642', '648', '653', '657', '665', '666', '669', '672', '674', '675', '678', '684', '686', '691', '699', '700', '701', '705', '707', '712', '718', '719', '725', '730', '733', '735', '737', '738', '740', '742', '743', '746', '747', '750', '751', '762', '763', '764', '765', '766', '768', '775', '777', '779', '782', '784', '785', '788', '790', '791', '799', '800', '801', '802', '803', '805', '806', '809', '810', '819', '820', '823', '825', '826', '828', '829', '830', '833', '838', '842', '845', '850', '854', '857', '859', '860', '867', '868', '872', '876', '883', '889', '890', '899', '904', '906', '907', '911', '912', '913', '918', '919', '925', '929', '930', '932', '936', '937', '938', '941', '943', '945', '949', '952', '953', '955', '956', '957', '958', '961', '964', '968', '969', '979', '983', '988', '989', '991', '992', '994', '995', '996', '997', '998', '1001', '1002', '1004', '1005', '1008', '1020', '1021', '1023', '1026', '1029', '1030', '1033', '1034', '1040', '1041', '1042', '1043', '1045', '1048', '1049', '1052', '1053', '1054', '1055', '1056', '1058', '1061', '1062', '1064', '1067', '1070', '1071', '1072', '1073', '1074', '1076', '1077', '1078', '1087', '1090', '1092', '1097', '1102', '1103', '1108', '1115', '1117', '1122', '1124', '1128', '1130', '1142', '1143', '1147', '1148', '1150', '1152', '1156', '1160', '1163', '1166', '1171', '1175', '1177', '1180', '1189', '1190', '1191', '1198', '1200', '1201', '1205', '1206', '1208', '1211', '1212', '1216', '1219', '1222', '1240', '1241', '1242', '1243', '1251', '1254', '1255', '1257', '1261', '1262', '1263', '1267', '1273', '1274', '1275', '1277', '1278', '1279', '1281', '1286', '1288', '1295', '1297', '1298', '1301', '1305', '1306', '1308', '1310', '1313', '1315', '1317', '1324', '1327', '1328', '1330', '1332', '1335', '1338', '1339', '1342', '1349', '1350', '1354', '1356', '1359', '1366', '1371', '1372', '1374', '1378', '1382', '1383', '1384', '1386', '1390', '1391', '1394', '1395', '1396', '1398', '1402', '1403', '1404', '1408', '1413', '1414', '1417', '1419', '1425', '1432', '1433', '1441', '1443', '1445', '1446', '1447', '1451', '1454', '1456', '1457', '1458', '1460', '1461', '1462', '1463', '1465', '1466', '1467', '1468', '1469', '1472', '1473', '1474', '1475', '1481', '1482', '1483', '1487', '1491', '1493', '1494', '1497', '1498', '1500', '1505', '1508', '1509', '1513', '1516', '1521', '1525', '1526', '1528', '1532', '1535', '1537', '1538', '1539', '1541', '1544', '1545', '1546', '1547', '1548', '1556', '1557', '1558', '1560', '1563', '1566', '1569', '1571', '1584', '1588', '1592', '1600', '1604', '1607', '1613', '1615', '1618', '1622', '1627', '1629', '1630', '1631', '1632', '1635', '1636', '1637', '1639', '1642', '1644', '1646', '1647', '1648', '1651', '1652', '1656', '1657', '1659', '1664', '1666', '1669', '1670', '1671', '1672', '1675', '1677', '1679', '1681', '1687', '1689', '1690', '1691', '1703', '1707', '1711', '1712', '1713', '1715', '1718', '1722', '1734', '1738', '1739', '1741', '1743', '1746', '1749', '1755', '1760', '1762', '1767', '1768', '1770', '1774', '1781', '1783', '1784', '1791', '1792', '1794', '1796', '1798', '1800', '1804', '1805', '1806', '1807', '1809', '1811', '1812', '1813', '1818', '1819', '1822', '1827', '1831', '1833', '1834', '1840', '1843', '1846', '1848', '1850', '1855', '1857', '1859', '1860', '1861', '1867', '1868', '1874', '1876', '1877', '1882', '1885', '1886', '1888', '1889', '1895', '1897', '1903', '1904', '1909', '1910', '1914', '1916', '1917', '1919', '1922', '1923', '1927', '1932', '1933', '1941', '1942', '1943', '1944', '1945', '1946', '1955', '1956', '1958', '1961', '1962', '1964', '1965', '1966', '1968', '1970', '1971', '1973', '1980', '1981', '1985', '1986', '1988', '1989', '1992', '1995']",False,4000,True,2,051b431c61,0.0,1.0,1.0
./expes/v2_2021-03-27_issda-30_2000-prng-1-w4-p2,30_issda-2000,2000,first-2000,200,10,rng,num-start-3200,3200,25726,classic,1900.1851778030396,True,,True,1.0,1.0,1.0,1,"['15', '20', '38', '41', '53', '88', '89', '92', '95', '114', '121', '122', '127', '128', '137', '160', '167', '170', '178', '183', '185', '199', '207', '212', '218', '233', '251', '280', '298', '314', '318', '326', '331', '338', '346', '348', '354', '364', '365', '377', '393', '397', '400', '401', '407', '416', '425', '426', '440', '455', '469', '478', '484', '487', '507', '510', '513', '532', '534', '537', '557', '566', '567', '569', '574', '575', '586', '591', '592', '593', '594', '595', '596', '598', '599', '601', '615', '622', '625', '635', '639', '657', '659', '662', '663', '670', '679', '692', '703', '729', '732', '738', '743', '745', '748', '763', '782', '795', '812', '823', '841', '846', '848', '868', '869', '883', '893', '900', '904', '910', '925', '932', '941', '948', '966', '970', '981', '1037', '1042', '1063', '1066', '1095', '1100', '1122', '1126', '1144', '1171', '1173', '1174', '1193', '1206', '1227', '1241', '1261', '1266', '1271', '1283', '1285', '1296', '1300', '1301', '1313', '1328', '1336', '1376', '1380', '1383', '1393', '1429', '1436', '1444', '1451', '1478', '1499', '1506', '1510', '1530', '1568', '1588', '1597', '1606', '1634', '1640', '1648', '1653', '1665', '1676', '1694', '1698', '1720', '1722', '1731', '1737', '1738', '1751', '1765', '1766', '1773', '1777', '1781', '1803', '1807', '1832', '1835', '1853', '1862', '1871', '1878', '1880', '1900', '1915', '1930', '1932', '1935', '1956', '1966', '1968', '1970', '1976', '1979']",False,4000,True,2,5b63c158d3,0.0,1.0,1.0
