expe,clients,clients_size,clients_subset,agg_size,agg_size_pc,method,days,days_size,days_total,noise_method,time,valid,valid_sum,success,score_avg,score_min,score_max,nsols,oracle,wall_hit,wall_time,pooled,pool_size,uuid,infeasible,optimal,valid_sums
./expes/v2_2021-03-27_issda-30_2000-prng-1-w4-p2,30_issda-2000,2000,first-2000,100,5,rng,num-start-3800,3800,25726,classic,2041.5856413841248,True,,True,1.0,1.0,1.0,1,"['27', '32', '59', '64', '74', '88', '132', '135', '200', '268', '275', '279', '309', '311', '327', '393', '445', '475', '476', '480', '488', '529', '532', '552', '617', '690', '719', '749', '758', '791', '794', '799', '809', '814', '835', '863', '875', '894', '911', '961', '964', '969', '971', '976', '1014', '1039', '1072', '1094', '1108', '1115', '1126', '1129', '1176', '1182', '1190', '1197', '1199', '1211', '1214', '1219', '1237', '1241', '1282', '1284', '1301', '1309', '1376', '1377', '1397', '1463', '1469', '1473', '1492', '1519', '1553', '1592', '1596', '1598', '1615', '1641', '1687', '1707', '1714', '1716', '1752', '1764', '1773', '1778', '1800', '1852', '1862', '1876', '1885', '1887', '1897', '1903', '1917', '1961', '1975', '1978']",False,4000,True,2,47a22ef4d4,0.0,1.0,1.0
./expes/v2_2021-03-27_issda-30_2000-prng-1-w4-p2,30_issda-2000,2000,first-2000,400,20,rng,num-start-2200,2200,25726,classic,1317.633987903595,True,,True,1.0,1.0,1.0,1,"['6', '8', '10', '19', '24', '31', '32', '35', '36', '39', '49', '59', '63', '64', '70', '75', '85', '89', '98', '113', '115', '116', '121', '122', '124', '127', '132', '135', '138', '141', '145', '151', '152', '161', '162', '168', '174', '190', '202', '204', '205', '206', '222', '223', '237', '239', '240', '249', '256', '264', '267', '288', '292', '295', '301', '302', '311', '319', '321', '322', '324', '325', '328', '331', '337', '341', '347', '349', '351', '353', '355', '368', '383', '401', '402', '421', '423', '428', '436', '438', '451', '458', '462', '463', '469', '470', '474', '475', '476', '479', '482', '490', '491', '500', '507', '511', '515', '516', '523', '524', '533', '537', '540', '558', '560', '562', '575', '587', '589', '606', '620', '626', '636', '638', '639', '642', '645', '646', '652', '653', '660', '663', '666', '677', '678', '679', '681', '683', '686', '688', '689', '691', '693', '694', '697', '704', '706', '712', '713', '725', '728', '729', '732', '738', '753', '755', '756', '763', '771', '778', '789', '793', '796', '799', '800', '804', '807', '810', '818', '823', '829', '830', '831', '836', '857', '860', '862', '867', '883', '886', '889', '900', '905', '906', '910', '912', '913', '920', '922', '923', '924', '926', '931', '933', '939', '942', '945', '947', '951', '955', '956', '957', '958', '959', '960', '970', '972', '976', '981', '983', '986', '992', '1003', '1005', '1008', '1009', '1014', '1021', '1022', '1024', '1025', '1027', '1029', '1036', '1037', '1048', '1050', '1062', '1065', '1066', '1068', '1086', '1094', '1097', '1114', '1115', '1122', '1124', '1127', '1130', '1137', '1141', '1157', '1158', '1161', '1167', '1170', '1172', '1180', '1183', '1186', '1191', '1196', '1197', '1202', '1203', '1216', '1220', '1222', '1239', '1251', '1254', '1257', '1258', '1263', '1265', '1267', '1283', '1288', '1302', '1314', '1323', '1324', '1325', '1329', '1336', '1343', '1349', '1357', '1363', '1370', '1371', '1386', '1387', '1388', '1390', '1396', '1398', '1402', '1404', '1415', '1419', '1422', '1423', '1425', '1427', '1428', '1438', '1445', '1450', '1451', '1454', '1473', '1477', '1478', '1482', '1483', '1486', '1489', '1493', '1508', '1511', '1515', '1518', '1520', '1526', '1537', '1539', '1544', '1547', '1551', '1554', '1557', '1558', '1592', '1593', '1595', '1602', '1604', '1606', '1608', '1615', '1616', '1627', '1631', '1634', '1637', '1640', '1649', '1651', '1659', '1683', '1686', '1690', '1701', '1711', '1716', '1718', '1721', '1722', '1728', '1729', '1735', '1737', '1752', '1753', '1756', '1757', '1763', '1769', '1773', '1781', '1783', '1787', '1792', '1797', '1800', '1802', '1806', '1812', '1816', '1817', '1823', '1827', '1829', '1830', '1831', '1842', '1854', '1858', '1859', '1862', '1867', '1870', '1874', '1877', '1884', '1888', '1890', '1895', '1896', '1900', '1901', '1906', '1915', '1916', '1922', '1935', '1936', '1938', '1940', '1942', '1953', '1965', '1967', '1971', '1977', '1982', '1992', '2000']",False,4000,True,2,5cf3708aae,0.0,1.0,1.0
./expes/v2_2021-03-27_issda-30_2000-prng-1-w4-p2,30_issda-2000,2000,first-2000,800,40,rng,num-start-2200,2200,25726,classic,2010.515259027481,True,,True,1.0,1.0,1.0,1,"['1', '3', '4', '6', '7', '10', '11', '13', '20', '21', '22', '24', '26', '27', '29', '31', '35', '38', '40', '42', '45', '58', '59', '62', '63', '64', '66', '67', '68', '70', '73', '76', '78', '82', '85', '93', '94', '103', '104', '106', '107', '111', '112', '116', '117', '118', '120', '121', '122', '123', '125', '126', '128', '130', '131', '137', '140', '142', '145', '152', '153', '154', '156', '157', '159', '160', '161', '166', '170', '172', '176', '178', '180', '181', '183', '184', '185', '186', '190', '191', '192', '193', '194', '197', '200', '206', '208', '209', '213', '215', '216', '223', '225', '227', '229', '230', '233', '234', '235', '240', '245', '246', '248', '252', '253', '256', '258', '260', '261', '262', '263', '270', '272', '273', '276', '278', '280', '281', '283', '286', '291', '292', '296', '297', '299', '302', '303', '306', '308', '309', '310', '312', '316', '317', '318', '323', '324', '325', '329', '330', '333', '334', '335', '337', '346', '347', '349', '352', '353', '355', '359', '361', '362', '365', '373', '374', '376', '377', '379', '380', '381', '385', '386', '387', '391', '394', '395', '396', '397', '398', '402', '403', '404', '406', '407', '408', '412', '414', '418', '429', '430', '439', '442', '443', '446', '449', '453', '454', '457', '458', '461', '462', '464', '472', '475', '476', '479', '489', '493', '498', '499', '501', '502', '503', '512', '513', '515', '516', '517', '519', '522', '523', '524', '525', '536', '539', '540', '541', '544', '545', '549', '552', '554', '557', '559', '560', '562', '563', '565', '567', '569', '570', '574', '577', '586', '588', '593', '596', '597', '598', '602', '603', '613', '616', '620', '622', '623', '624', '625', '627', '634', '640', '649', '652', '655', '656', '657', '663', '667', '674', '675', '678', '681', '682', '688', '689', '692', '693', '698', '704', '705', '709', '717', '718', '719', '721', '732', '736', '738', '739', '740', '741', '742', '744', '745', '747', '751', '752', '753', '759', '760', '761', '763', '765', '767', '768', '771', '773', '774', '778', '779', '780', '781', '787', '788', '792', '796', '798', '799', '806', '815', '816', '818', '819', '827', '829', '834', '835', '838', '840', '841', '844', '848', '849', '856', '859', '864', '865', '867', '870', '872', '873', '874', '879', '881', '882', '883', '887', '893', '897', '899', '900', '901', '903', '904', '909', '910', '912', '913', '914', '916', '919', '921', '925', '926', '928', '933', '934', '938', '939', '948', '950', '951', '957', '961', '964', '965', '968', '969', '971', '973', '975', '978', '979', '980', '981', '982', '983', '984', '989', '991', '994', '995', '996', '997', '999', '1000', '1001', '1002', '1007', '1008', '1013', '1015', '1018', '1019', '1024', '1025', '1026', '1029', '1030', '1032', '1033', '1035', '1038', '1039', '1040', '1052', '1055', '1059', '1060', '1065', '1066', '1068', '1070', '1075', '1076', '1077', '1078', '1080', '1081', '1088', '1089', '1093', '1097', '1100', '1102', '1103', '1105', '1107', '1109', '1110', '1112', '1113', '1114', '1116', '1117', '1118', '1121', '1129', '1130', '1134', '1139', '1141', '1143', '1144', '1147', '1149', '1154', '1155', '1156', '1158', '1165', '1166', '1167', '1169', '1172', '1173', '1175', '1176', '1180', '1182', '1187', '1198', '1202', '1205', '1206', '1207', '1208', '1210', '1212', '1213', '1214', '1215', '1217', '1218', '1220', '1224', '1233', '1234', '1236', '1239', '1243', '1246', '1248', '1250', '1253', '1254', '1257', '1258', '1262', '1263', '1266', '1267', '1268', '1269', '1271', '1274', '1275', '1278', '1281', '1282', '1283', '1284', '1287', '1288', '1289', '1292', '1293', '1298', '1300', '1301', '1306', '1307', '1308', '1310', '1312', '1315', '1317', '1319', '1320', '1321', '1322', '1323', '1324', '1328', '1331', '1333', '1334', '1340', '1341', '1343', '1344', '1345', '1351', '1355', '1356', '1357', '1358', '1359', '1360', '1362', '1366', '1367', '1369', '1373', '1375', '1380', '1385', '1387', '1390', '1391', '1394', '1395', '1397', '1401', '1405', '1406', '1409', '1411', '1414', '1415', '1416', '1418', '1421', '1422', '1423', '1425', '1430', '1433', '1436', '1437', '1438', '1439', '1442', '1444', '1446', '1449', '1451', '1457', '1459', '1460', '1462', '1463', '1465', '1468', '1470', '1472', '1473', '1474', '1478', '1480', '1483', '1484', '1488', '1490', '1491', '1492', '1493', '1494', '1495', '1499', '1503', '1504', '1505', '1511', '1514', '1516', '1518', '1522', '1524', '1526', '1527', '1529', '1530', '1534', '1537', '1539', '1542', '1543', '1547', '1548', '1551', '1553', '1555', '1556', '1557', '1561', '1562', '1563', '1564', '1567', '1568', '1572', '1574', '1576', '1578', '1585', '1588', '1591', '1592', '1594', '1595', '1596', '1598', '1603', '1606', '1611', '1613', '1620', '1621', '1625', '1628', '1629', '1631', '1632', '1634', '1639', '1642', '1643', '1646', '1647', '1649', '1650', '1651', '1652', '1656', '1658', '1663', '1667', '1670', '1671', '1672', '1673', '1675', '1676', '1677', '1680', '1684', '1696', '1697', '1701', '1703', '1705', '1706', '1709', '1712', '1715', '1717', '1718', '1722', '1724', '1725', '1729', '1730', '1731', '1741', '1747', '1748', '1751', '1752', '1758', '1760', '1761', '1765', '1770', '1773', '1777', '1781', '1782', '1783', '1785', '1787', '1793', '1795', '1800', '1801', '1803', '1807', '1808', '1809', '1810', '1811', '1813', '1819', '1821', '1822', '1823', '1825', '1828', '1829', '1830', '1831', '1836', '1842', '1843', '1849', '1853', '1860', '1862', '1863', '1865', '1867', '1868', '1870', '1871', '1877', '1878', '1883', '1884', '1887', '1889', '1891', '1893', '1894', '1898', '1899', '1900', '1902', '1903', '1911', '1913', '1914', '1919', '1921', '1922', '1925', '1927', '1931', '1933', '1936', '1937', '1941', '1942', '1943', '1946', '1948', '1949', '1950', '1954', '1963', '1971', '1976', '1977', '1978', '1979', '1981', '1982', '1984', '1985', '1986', '1987', '1988', '1989', '1990', '1992', '1994', '1995', '1997', '1998', '2000']",False,4000,True,2,0b60767999,0.0,1.0,1.0
./expes/v2_2021-03-27_issda-30_2000-prng-1-w4-p2,30_issda-2000,2000,first-2000,200,10,rng,num-start-1600,1600,25726,classic,903.4546139240265,True,,True,1.0,1.0,1.0,1,"['2', '8', '11', '14', '17', '36', '38', '49', '53', '71', '84', '85', '89', '106', '111', '113', '130', '141', '166', '172', '174', '178', '180', '182', '192', '209', '212', '226', '228', '229', '230', '249', '272', '273', '284', '285', '298', '306', '322', '332', '345', '347', '354', '382', '394', '405', '406', '408', '409', '416', '420', '430', '431', '438', '455', '460', '485', '488', '509', '547', '548', '550', '553', '576', '584', '597', '630', '666', '674', '677', '685', '693', '700', '709', '712', '749', '750', '765', '776', '777', '782', '786', '813', '816', '824', '825', '843', '861', '864', '866', '870', '878', '888', '910', '925', '926', '949', '950', '1008', '1018', '1019', '1026', '1030', '1035', '1037', '1060', '1070', '1101', '1106', '1136', '1137', '1148', '1158', '1160', '1174', '1177', '1179', '1186', '1188', '1197', '1209', '1210', '1223', '1239', '1242', '1245', '1248', '1252', '1256', '1263', '1290', '1309', '1381', '1386', '1400', '1409', '1410', '1434', '1436', '1441', '1445', '1452', '1453', '1474', '1485', '1487', '1492', '1508', '1510', '1527', '1528', '1529', '1566', '1567', '1583', '1586', '1587', '1593', '1599', '1606', '1618', '1625', '1638', '1654', '1658', '1669', '1732', '1733', '1743', '1745', '1746', '1770', '1775', '1777', '1780', '1786', '1801', '1806', '1816', '1818', '1822', '1828', '1834', '1835', '1840', '1856', '1857', '1867', '1880', '1883', '1887', '1893', '1918', '1925', '1938', '1940', '1948', '1949', '1963', '1975']",False,4000,True,2,cc6a8bf5af,0.0,1.0,1.0
./expes/v2_2021-03-27_issda-30_2000-prng-1-w4-p2,30_issda-2000,2000,first-2000,700,35,rng,num-start-4000,4000,25726,classic,4178.32190155983,True,,True,1.0,1.0,1.0,1,"['1', '3', '4', '8', '9', '11', '24', '25', '30', '32', '35', '38', '39', '40', '44', '47', '48', '53', '56', '57', '58', '60', '71', '76', '77', '81', '82', '86', '87', '89', '93', '96', '99', '102', '104', '108', '111', '112', '114', '117', '118', '119', '121', '122', '123', '125', '127', '128', '129', '130', '132', '134', '137', '138', '141', '144', '145', '149', '150', '159', '165', '166', '168', '170', '172', '173', '174', '176', '177', '178', '182', '184', '186', '187', '189', '192', '193', '200', '201', '208', '210', '211', '212', '213', '215', '218', '225', '226', '232', '237', '240', '242', '246', '247', '250', '251', '252', '254', '258', '261', '265', '266', '268', '269', '273', '281', '282', '286', '287', '290', '293', '295', '296', '299', '300', '301', '305', '306', '307', '309', '310', '311', '312', '317', '318', '320', '323', '326', '331', '333', '334', '335', '338', '341', '343', '345', '349', '353', '361', '365', '366', '369', '371', '372', '374', '375', '376', '380', '385', '389', '391', '392', '397', '399', '400', '401', '403', '407', '409', '410', '412', '414', '415', '419', '421', '422', '426', '428', '433', '436', '440', '441', '447', '450', '452', '453', '456', '457', '458', '459', '465', '469', '471', '473', '476', '477', '478', '489', '491', '493', '497', '500', '501', '504', '508', '509', '513', '516', '517', '519', '524', '530', '531', '532', '534', '535', '537', '539', '540', '542', '543', '544', '549', '551', '553', '554', '555', '557', '568', '570', '571', '572', '573', '578', '583', '589', '590', '594', '600', '601', '606', '611', '614', '615', '621', '624', '625', '631', '632', '634', '635', '639', '643', '644', '648', '653', '663', '664', '667', '668', '670', '674', '676', '679', '681', '687', '692', '693', '695', '697', '701', '702', '704', '705', '706', '711', '712', '716', '718', '725', '728', '729', '731', '735', '741', '745', '746', '747', '749', '750', '752', '757', '763', '771', '780', '781', '782', '788', '791', '796', '801', '804', '806', '807', '808', '809', '811', '813', '815', '816', '818', '819', '821', '823', '828', '829', '832', '851', '854', '856', '857', '859', '862', '863', '864', '865', '870', '872', '876', '878', '882', '883', '884', '886', '889', '902', '903', '906', '908', '913', '914', '916', '917', '920', '927', '929', '930', '935', '936', '939', '940', '941', '946', '949', '954', '955', '958', '963', '968', '970', '971', '972', '973', '980', '981', '982', '984', '987', '989', '991', '994', '998', '1000', '1002', '1010', '1012', '1013', '1014', '1017', '1018', '1025', '1027', '1028', '1030', '1034', '1036', '1037', '1038', '1040', '1041', '1046', '1049', '1050', '1054', '1055', '1056', '1058', '1059', '1060', '1061', '1062', '1072', '1073', '1076', '1079', '1080', '1082', '1084', '1087', '1088', '1089', '1090', '1091', '1093', '1095', '1098', '1099', '1108', '1110', '1113', '1115', '1119', '1121', '1122', '1123', '1124', '1126', '1127', '1129', '1133', '1135', '1138', '1140', '1141', '1143', '1146', '1148', '1151', '1156', '1159', '1160', '1161', '1169', '1170', '1174', '1177', '1182', '1184', '1188', '1192', '1194', '1195', '1200', '1202', '1207', '1210', '1218', '1221', '1222', '1227', '1231', '1234', '1240', '1242', '1246', '1247', '1248', '1249', '1250', '1252', '1253', '1255', '1256', '1257', '1258', '1265', '1268', '1274', '1278', '1279', '1281', '1285', '1288', '1290', '1292', '1300', '1303', '1304', '1309', '1317', '1318', '1326', '1331', '1332', '1334', '1338', '1342', '1344', '1345', '1347', '1349', '1353', '1357', '1361', '1363', '1368', '1369', '1370', '1372', '1374', '1375', '1377', '1385', '1394', '1396', '1397', '1398', '1399', '1409', '1410', '1414', '1415', '1418', '1419', '1424', '1426', '1428', '1432', '1435', '1437', '1441', '1447', '1448', '1454', '1458', '1459', '1467', '1468', '1479', '1481', '1485', '1486', '1488', '1493', '1494', '1498', '1502', '1513', '1516', '1517', '1518', '1523', '1530', '1535', '1536', '1537', '1538', '1548', '1551', '1553', '1554', '1556', '1557', '1565', '1566', '1574', '1581', '1582', '1590', '1591', '1592', '1596', '1598', '1603', '1606', '1607', '1615', '1617', '1619', '1627', '1633', '1635', '1637', '1638', '1641', '1642', '1646', '1651', '1652', '1654', '1656', '1662', '1670', '1672', '1674', '1676', '1678', '1679', '1682', '1684', '1692', '1693', '1694', '1698', '1703', '1705', '1709', '1710', '1715', '1721', '1722', '1723', '1732', '1739', '1740', '1747', '1748', '1754', '1759', '1760', '1767', '1769', '1770', '1783', '1784', '1785', '1786', '1788', '1790', '1791', '1792', '1793', '1795', '1796', '1799', '1801', '1802', '1807', '1808', '1809', '1810', '1811', '1813', '1817', '1821', '1829', '1831', '1834', '1838', '1839', '1843', '1844', '1852', '1854', '1856', '1861', '1863', '1864', '1867', '1869', '1873', '1875', '1878', '1880', '1882', '1883', '1890', '1892', '1898', '1901', '1910', '1912', '1913', '1915', '1920', '1922', '1925', '1927', '1929', '1930', '1932', '1935', '1938', '1940', '1941', '1942', '1944', '1947', '1948', '1950', '1951', '1952', '1956', '1957', '1959', '1962', '1968', '1970', '1971', '1978', '1982', '1985', '1988', '1989', '1990', '1991', '1992', '1994', '1996', '2000']",False,4000,True,2,2498a2aa96,0.0,1.0,1.0
./expes/v2_2021-03-27_issda-30_2000-prng-1-w4-p2,30_issda-2000,2000,first-2000,500,25,rng,num-start-2800,2800,25726,classic,1971.3972589969635,True,,True,1.0,1.0,1.0,1,"['2', '8', '11', '12', '14', '15', '17', '18', '25', '27', '31', '32', '36', '38', '40', '46', '49', '53', '54', '56', '59', '60', '61', '62', '70', '71', '74', '80', '84', '85', '89', '97', '100', '104', '106', '108', '109', '111', '113', '119', '121', '124', '125', '130', '132', '133', '135', '136', '137', '141', '142', '153', '155', '156', '161', '166', '167', '170', '171', '172', '173', '174', '176', '178', '180', '182', '189', '192', '194', '197', '203', '204', '205', '209', '212', '213', '218', '223', '226', '227', '228', '229', '230', '242', '246', '247', '249', '263', '266', '271', '272', '273', '282', '283', '284', '285', '289', '292', '298', '304', '305', '306', '322', '332', '333', '337', '345', '347', '350', '351', '354', '355', '361', '372', '382', '383', '387', '388', '394', '405', '406', '408', '409', '411', '416', '420', '428', '430', '431', '433', '438', '452', '453', '455', '456', '460', '466', '473', '474', '484', '485', '488', '498', '499', '507', '509', '515', '519', '526', '531', '538', '539', '547', '548', '550', '553', '562', '564', '567', '569', '576', '584', '595', '597', '603', '607', '615', '616', '617', '620', '630', '633', '646', '651', '659', '663', '666', '674', '675', '677', '684', '685', '687', '692', '693', '700', '709', '711', '712', '715', '724', '727', '747', '749', '750', '757', '761', '763', '764', '765', '776', '777', '782', '785', '786', '789', '791', '796', '797', '813', '816', '818', '822', '824', '825', '826', '833', '840', '843', '854', '855', '861', '864', '866', '870', '871', '878', '881', '888', '893', '900', '901', '910', '916', '920', '923', '925', '926', '929', '934', '936', '940', '946', '949', '950', '956', '958', '964', '971', '973', '974', '980', '985', '988', '1004', '1007', '1008', '1013', '1016', '1018', '1019', '1026', '1029', '1030', '1035', '1037', '1045', '1053', '1060', '1061', '1064', '1070', '1073', '1080', '1084', '1097', '1101', '1106', '1110', '1111', '1114', '1115', '1118', '1121', '1124', '1132', '1136', '1137', '1139', '1146', '1148', '1151', '1154', '1158', '1160', '1165', '1174', '1176', '1177', '1179', '1186', '1188', '1190', '1197', '1199', '1205', '1206', '1209', '1210', '1212', '1215', '1223', '1224', '1228', '1235', '1238', '1239', '1240', '1242', '1243', '1245', '1246', '1247', '1248', '1251', '1252', '1253', '1256', '1263', '1275', '1280', '1281', '1284', '1290', '1300', '1305', '1309', '1315', '1317', '1322', '1327', '1334', '1350', '1359', '1368', '1372', '1373', '1375', '1381', '1386', '1389', '1391', '1396', '1399', '1400', '1409', '1410', '1419', '1426', '1428', '1433', '1434', '1436', '1441', '1442', '1445', '1452', '1453', '1458', '1466', '1474', '1476', '1485', '1487', '1490', '1492', '1495', '1503', '1508', '1510', '1511', '1518', '1527', '1528', '1529', '1531', '1542', '1558', '1560', '1564', '1565', '1566', '1567', '1580', '1581', '1583', '1586', '1587', '1589', '1593', '1598', '1599', '1604', '1606', '1611', '1618', '1625', '1628', '1631', '1636', '1637', '1638', '1639', '1645', '1654', '1658', '1659', '1669', '1681', '1686', '1706', '1708', '1715', '1728', '1732', '1733', '1743', '1745', '1746', '1760', '1762', '1770', '1775', '1776', '1777', '1780', '1786', '1791', '1792', '1794', '1796', '1797', '1800', '1801', '1803', '1804', '1806', '1810', '1816', '1817', '1818', '1821', '1822', '1828', '1829', '1834', '1835', '1837', '1840', '1841', '1847', '1856', '1857', '1863', '1867', '1880', '1883', '1885', '1887', '1891', '1893', '1894', '1907', '1918', '1922', '1925', '1927', '1928', '1933', '1934', '1938', '1939', '1940', '1948', '1949', '1954', '1957', '1958', '1963', '1968', '1970', '1971', '1972', '1975', '1980', '1982', '1984', '1997', '1998', '2000']",False,4000,True,2,ab3991f060,0.0,1.0,1.0
./expes/v2_2021-03-27_issda-30_2000-prng-1-w4-p2,30_issda-2000,2000,first-2000,700,35,rng,num-start-1600,1600,25726,classic,1783.0974130630493,True,,True,1.0,1.0,1.0,1,"['2', '7', '8', '11', '12', '14', '15', '17', '18', '20', '21', '23', '24', '25', '27', '29', '31', '32', '36', '38', '40', '42', '46', '49', '53', '54', '56', '58', '59', '60', '61', '62', '68', '70', '71', '74', '80', '84', '85', '86', '87', '89', '97', '100', '102', '104', '105', '106', '108', '109', '111', '113', '116', '119', '121', '124', '125', '130', '132', '133', '135', '136', '137', '141', '142', '147', '153', '155', '156', '157', '161', '166', '167', '170', '171', '172', '173', '174', '176', '178', '180', '182', '183', '188', '189', '192', '194', '197', '198', '203', '204', '205', '209', '212', '213', '218', '223', '226', '227', '228', '229', '230', '242', '246', '247', '249', '253', '263', '266', '271', '272', '273', '276', '277', '282', '283', '284', '285', '288', '289', '292', '295', '298', '301', '304', '305', '306', '312', '322', '329', '332', '333', '335', '337', '341', '345', '347', '350', '351', '352', '354', '355', '361', '365', '367', '371', '372', '374', '382', '383', '387', '388', '391', '394', '405', '406', '408', '409', '411', '414', '416', '420', '421', '423', '428', '430', '431', '432', '433', '438', '444', '452', '453', '455', '456', '457', '459', '460', '462', '466', '473', '474', '476', '484', '485', '488', '498', '499', '503', '507', '509', '515', '519', '520', '522', '526', '530', '531', '533', '535', '538', '539', '547', '548', '550', '553', '557', '559', '562', '564', '567', '569', '571', '576', '581', '583', '584', '585', '595', '597', '603', '605', '607', '610', '615', '616', '617', '620', '627', '630', '633', '636', '638', '644', '645', '646', '651', '657', '659', '662', '663', '666', '673', '674', '675', '677', '678', '684', '685', '687', '688', '692', '693', '694', '698', '700', '706', '709', '711', '712', '714', '715', '724', '727', '732', '736', '747', '749', '750', '757', '758', '761', '763', '764', '765', '766', '776', '777', '782', '785', '786', '789', '791', '796', '797', '798', '810', '811', '813', '816', '817', '818', '822', '824', '825', '826', '827', '832', '833', '840', '843', '850', '853', '854', '855', '861', '864', '866', '867', '870', '871', '875', '878', '881', '888', '893', '896', '900', '901', '910', '916', '920', '923', '925', '926', '929', '930', '934', '936', '940', '946', '949', '950', '951', '952', '956', '958', '962', '964', '971', '973', '974', '980', '981', '985', '987', '988', '1004', '1007', '1008', '1013', '1016', '1017', '1018', '1019', '1021', '1026', '1028', '1029', '1030', '1035', '1037', '1042', '1044', '1045', '1050', '1053', '1056', '1059', '1060', '1061', '1064', '1066', '1070', '1071', '1072', '1073', '1077', '1080', '1083', '1084', '1088', '1093', '1097', '1100', '1101', '1102', '1106', '1110', '1111', '1113', '1114', '1115', '1118', '1121', '1124', '1132', '1133', '1136', '1137', '1139', '1146', '1148', '1151', '1154', '1158', '1160', '1162', '1165', '1169', '1174', '1176', '1177', '1179', '1185', '1186', '1188', '1190', '1191', '1197', '1199', '1202', '1204', '1205', '1206', '1209', '1210', '1212', '1215', '1223', '1224', '1228', '1231', '1235', '1238', '1239', '1240', '1242', '1243', '1245', '1246', '1247', '1248', '1251', '1252', '1253', '1255', '1256', '1263', '1264', '1275', '1280', '1281', '1284', '1290', '1295', '1300', '1303', '1305', '1308', '1309', '1315', '1317', '1322', '1325', '1327', '1330', '1334', '1347', '1350', '1357', '1359', '1364', '1367', '1368', '1370', '1371', '1372', '1373', '1375', '1381', '1386', '1387', '1389', '1390', '1391', '1393', '1394', '1396', '1399', '1400', '1402', '1405', '1409', '1410', '1414', '1419', '1421', '1423', '1426', '1428', '1433', '1434', '1436', '1441', '1442', '1445', '1449', '1452', '1453', '1457', '1458', '1466', '1468', '1469', '1474', '1476', '1485', '1487', '1489', '1490', '1492', '1495', '1503', '1508', '1510', '1511', '1513', '1518', '1520', '1523', '1527', '1528', '1529', '1531', '1532', '1533', '1542', '1546', '1551', '1558', '1559', '1560', '1561', '1564', '1565', '1566', '1567', '1572', '1580', '1581', '1582', '1583', '1585', '1586', '1587', '1589', '1592', '1593', '1595', '1597', '1598', '1599', '1604', '1606', '1611', '1618', '1625', '1628', '1629', '1631', '1636', '1637', '1638', '1639', '1645', '1654', '1656', '1658', '1659', '1669', '1681', '1684', '1686', '1688', '1703', '1705', '1706', '1708', '1713', '1715', '1719', '1720', '1721', '1728', '1731', '1732', '1733', '1734', '1738', '1741', '1743', '1744', '1745', '1746', '1749', '1760', '1762', '1763', '1770', '1774', '1775', '1776', '1777', '1779', '1780', '1786', '1791', '1792', '1794', '1796', '1797', '1800', '1801', '1803', '1804', '1806', '1809', '1810', '1813', '1816', '1817', '1818', '1820', '1821', '1822', '1825', '1828', '1829', '1834', '1835', '1837', '1840', '1841', '1847', '1849', '1856', '1857', '1861', '1863', '1867', '1874', '1875', '1880', '1883', '1885', '1887', '1889', '1891', '1893', '1894', '1903', '1907', '1908', '1911', '1918', '1922', '1925', '1927', '1928', '1932', '1933', '1934', '1938', '1939', '1940', '1945', '1947', '1948', '1949', '1954', '1957', '1958', '1963', '1967', '1968', '1970', '1971', '1972', '1975', '1976', '1980', '1982', '1984', '1985', '1988', '1992', '1997', '1998', '2000']",False,4000,True,2,3c2e9ddcc2,0.0,1.0,1.0
./expes/v2_2021-03-27_issda-30_2000-prng-1-w4-p2,30_issda-2000,2000,first-2000,100,5,rng,num-start-1000,1000,25726,classic,2039.0689041614532,True,,True,1.0,1.0,1.0,1,"['8', '11', '14', '17', '49', '84', '89', '106', '113', '130', '166', '172', '180', '209', '228', '230', '249', '272', '284', '285', '322', '345', '347', '382', '405', '409', '416', '420', '430', '460', '485', '488', '547', '548', '576', '597', '677', '685', '693', '700', '765', '776', '777', '786', '813', '843', '864', '866', '870', '926', '949', '950', '1008', '1030', '1037', '1136', '1186', '1210', '1223', '1239', '1256', '1263', '1381', '1386', '1410', '1434', '1441', '1452', '1485', '1487', '1492', '1508', '1529', '1566', '1583', '1586', '1618', '1625', '1658', '1733', '1743', '1746', '1775', '1786', '1801', '1816', '1818', '1822', '1828', '1834', '1835', '1840', '1857', '1867', '1883', '1893', '1918', '1938', '1949', '1975']",False,4000,True,2,8caa78fb63,0.0,1.0,1.0
./expes/v2_2021-03-27_issda-30_2000-prng-1-w4-p2,30_issda-2000,2000,first-2000,600,30,rng,num-start-3800,3800,25726,classic,2861.1866643428802,True,,True,1.0,1.0,1.0,1,"['4', '5', '12', '18', '19', '21', '22', '26', '30', '35', '36', '37', '38', '42', '43', '45', '46', '49', '53', '56', '58', '59', '60', '61', '63', '66', '67', '71', '73', '77', '78', '81', '82', '83', '85', '90', '94', '98', '115', '121', '129', '130', '132', '134', '143', '145', '146', '149', '150', '154', '157', '158', '167', '168', '171', '174', '178', '184', '186', '188', '189', '193', '198', '203', '205', '206', '207', '210', '211', '214', '219', '221', '222', '223', '225', '229', '234', '235', '236', '237', '242', '248', '257', '258', '259', '265', '268', '273', '276', '277', '278', '290', '291', '300', '302', '307', '316', '322', '325', '326', '327', '329', '332', '336', '342', '343', '345', '346', '348', '349', '352', '355', '363', '368', '371', '376', '379', '381', '383', '385', '386', '389', '398', '408', '409', '410', '411', '412', '421', '422', '424', '426', '429', '430', '435', '437', '441', '444', '446', '449', '451', '452', '455', '458', '459', '462', '465', '466', '469', '471', '473', '476', '478', '481', '482', '491', '495', '498', '500', '502', '504', '505', '512', '513', '517', '519', '520', '523', '530', '531', '546', '547', '549', '551', '552', '559', '568', '576', '577', '582', '594', '595', '596', '597', '602', '603', '604', '606', '607', '608', '611', '612', '621', '622', '626', '628', '629', '630', '632', '636', '639', '642', '645', '648', '649', '650', '651', '655', '656', '657', '658', '660', '667', '671', '672', '679', '681', '682', '685', '694', '695', '697', '699', '704', '705', '706', '708', '709', '711', '724', '729', '731', '736', '739', '747', '748', '752', '754', '759', '768', '775', '777', '778', '779', '781', '786', '792', '799', '800', '802', '806', '807', '809', '814', '817', '823', '824', '828', '829', '833', '847', '849', '853', '863', '865', '873', '874', '880', '885', '887', '892', '897', '899', '913', '918', '921', '922', '924', '928', '932', '934', '938', '939', '941', '942', '944', '961', '962', '968', '971', '977', '984', '986', '993', '994', '1000', '1002', '1003', '1009', '1011', '1015', '1016', '1017', '1023', '1024', '1026', '1027', '1029', '1033', '1034', '1035', '1037', '1040', '1042', '1043', '1045', '1050', '1053', '1054', '1058', '1063', '1067', '1073', '1081', '1091', '1095', '1103', '1106', '1107', '1109', '1110', '1112', '1115', '1116', '1118', '1122', '1123', '1124', '1127', '1128', '1129', '1133', '1136', '1140', '1149', '1150', '1154', '1156', '1157', '1160', '1166', '1168', '1169', '1175', '1177', '1180', '1184', '1185', '1186', '1188', '1197', '1202', '1204', '1207', '1210', '1211', '1212', '1215', '1221', '1222', '1229', '1230', '1232', '1233', '1237', '1241', '1245', '1248', '1253', '1254', '1255', '1257', '1260', '1266', '1276', '1277', '1280', '1289', '1292', '1293', '1302', '1316', '1318', '1326', '1328', '1329', '1331', '1335', '1336', '1345', '1351', '1352', '1356', '1360', '1362', '1363', '1364', '1373', '1374', '1377', '1379', '1381', '1382', '1383', '1387', '1389', '1395', '1406', '1408', '1410', '1424', '1426', '1439', '1440', '1441', '1442', '1444', '1453', '1457', '1458', '1465', '1473', '1478', '1480', '1483', '1486', '1487', '1488', '1494', '1496', '1501', '1511', '1512', '1517', '1522', '1524', '1538', '1543', '1545', '1548', '1555', '1559', '1562', '1565', '1572', '1573', '1578', '1579', '1589', '1590', '1593', '1594', '1595', '1597', '1598', '1602', '1603', '1605', '1608', '1609', '1611', '1612', '1615', '1616', '1618', '1623', '1624', '1629', '1631', '1633', '1634', '1636', '1643', '1644', '1646', '1647', '1648', '1652', '1654', '1656', '1658', '1662', '1666', '1673', '1674', '1676', '1679', '1680', '1681', '1682', '1683', '1692', '1696', '1697', '1700', '1705', '1710', '1712', '1716', '1721', '1722', '1723', '1724', '1731', '1734', '1735', '1736', '1738', '1742', '1744', '1748', '1756', '1757', '1759', '1760', '1762', '1764', '1767', '1773', '1774', '1777', '1778', '1782', '1786', '1794', '1800', '1805', '1808', '1813', '1815', '1818', '1825', '1826', '1830', '1831', '1835', '1837', '1843', '1845', '1847', '1850', '1858', '1863', '1864', '1865', '1866', '1871', '1873', '1877', '1879', '1883', '1885', '1887', '1889', '1895', '1896', '1897', '1898', '1907', '1910', '1918', '1921', '1922', '1924', '1927', '1928', '1933', '1934', '1936', '1945', '1946', '1950', '1951', '1955', '1956', '1961', '1966', '1971', '1976', '1978', '1980', '1981', '1983', '1985', '1987', '1988', '1994', '1995', '1998', '1999']",False,4000,True,2,32599da9fd,0.0,1.0,1.0
./expes/v2_2021-03-27_issda-30_2000-prng-1-w4-p2,30_issda-2000,2000,first-2000,400,20,rng,num-start-1600,1600,25726,classic,994.5982604026794,True,,True,1.0,1.0,1.0,1,"['6', '8', '10', '19', '24', '31', '32', '35', '36', '39', '49', '59', '63', '64', '70', '75', '85', '89', '98', '113', '115', '116', '121', '122', '124', '127', '132', '135', '138', '141', '145', '151', '152', '161', '162', '168', '174', '190', '202', '204', '205', '206', '222', '223', '237', '239', '240', '249', '256', '264', '267', '288', '292', '295', '301', '302', '311', '319', '321', '322', '324', '325', '328', '331', '337', '341', '347', '349', '351', '353', '355', '368', '383', '401', '402', '421', '423', '428', '436', '438', '451', '458', '462', '463', '469', '470', '474', '475', '476', '479', '482', '490', '491', '500', '507', '511', '515', '516', '523', '524', '533', '537', '540', '558', '560', '562', '575', '587', '589', '606', '620', '626', '636', '638', '639', '642', '645', '646', '652', '653', '660', '663', '666', '677', '678', '679', '681', '683', '686', '688', '689', '691', '693', '694', '697', '704', '706', '712', '713', '725', '728', '729', '732', '738', '753', '755', '756', '763', '771', '778', '789', '793', '796', '799', '800', '804', '807', '810', '818', '823', '829', '830', '831', '836', '857', '860', '862', '867', '883', '886', '889', '900', '905', '906', '910', '912', '913', '920', '922', '923', '924', '926', '931', '933', '939', '942', '945', '947', '951', '955', '956', '957', '958', '959', '960', '970', '972', '976', '981', '983', '986', '992', '1003', '1005', '1008', '1009', '1014', '1021', '1022', '1024', '1025', '1027', '1029', '1036', '1037', '1048', '1050', '1062', '1065', '1066', '1068', '1086', '1094', '1097', '1114', '1115', '1122', '1124', '1127', '1130', '1137', '1141', '1157', '1158', '1161', '1167', '1170', '1172', '1180', '1183', '1186', '1191', '1196', '1197', '1202', '1203', '1216', '1220', '1222', '1239', '1251', '1254', '1257', '1258', '1263', '1265', '1267', '1283', '1288', '1302', '1314', '1323', '1324', '1325', '1329', '1336', '1343', '1349', '1357', '1363', '1370', '1371', '1386', '1387', '1388', '1390', '1396', '1398', '1402', '1404', '1415', '1419', '1422', '1423', '1425', '1427', '1428', '1438', '1445', '1450', '1451', '1454', '1473', '1477', '1478', '1482', '1483', '1486', '1489', '1493', '1508', '1511', '1515', '1518', '1520', '1526', '1537', '1539', '1544', '1547', '1551', '1554', '1557', '1558', '1592', '1593', '1595', '1602', '1604', '1606', '1608', '1615', '1616', '1627', '1631', '1634', '1637', '1640', '1649', '1651', '1659', '1683', '1686', '1690', '1701', '1711', '1716', '1718', '1721', '1722', '1728', '1729', '1735', '1737', '1752', '1753', '1756', '1757', '1763', '1769', '1773', '1781', '1783', '1787', '1792', '1797', '1800', '1802', '1806', '1812', '1816', '1817', '1823', '1827', '1829', '1830', '1831', '1842', '1854', '1858', '1859', '1862', '1867', '1870', '1874', '1877', '1884', '1888', '1890', '1895', '1896', '1900', '1901', '1906', '1915', '1916', '1922', '1935', '1936', '1938', '1940', '1942', '1953', '1965', '1967', '1971', '1977', '1982', '1992', '2000']",False,4000,True,2,d6196c9608,0.0,1.0,1.0
./expes/v2_2021-03-27_issda-30_2000-prng-1-w4-p2,30_issda-2000,2000,first-2000,800,40,rng,num-start-400,400,25726,classic,4075.7477853298187,False,,False,0,,,0,"['1', '2', '4', '6', '7', '11', '13', '19', '21', '24', '27', '28', '30', '34', '38', '39', '41', '45', '47', '49', '52', '53', '55', '57', '60', '61', '66', '68', '69', '71', '74', '75', '76', '78', '81', '82', '86', '90', '93', '96', '99', '100', '101', '104', '106', '107', '110', '111', '115', '117', '118', '121', '124', '125', '129', '130', '134', '136', '137', '138', '141', '146', '148', '161', '162', '166', '172', '173', '175', '178', '183', '187', '188', '189', '193', '195', '199', '205', '209', '219', '221', '222', '226', '227', '228', '231', '232', '236', '238', '242', '243', '244', '250', '251', '253', '256', '259', '260', '265', '268', '269', '271', '272', '273', '274', '276', '280', '284', '285', '287', '289', '290', '291', '292', '293', '294', '299', '301', '304', '305', '306', '307', '309', '310', '312', '315', '317', '320', '322', '326', '327', '328', '331', '335', '339', '340', '341', '346', '347', '348', '352', '354', '360', '361', '364', '366', '368', '369', '370', '371', '372', '373', '375', '378', '379', '380', '382', '386', '392', '393', '397', '399', '401', '403', '404', '407', '408', '412', '415', '419', '420', '425', '427', '428', '429', '434', '437', '441', '442', '444', '449', '452', '457', '464', '472', '473', '479', '481', '482', '483', '486', '487', '488', '489', '492', '493', '499', '503', '504', '505', '511', '513', '514', '515', '517', '521', '524', '525', '533', '540', '541', '543', '548', '549', '555', '558', '561', '562', '565', '569', '571', '573', '574', '576', '579', '580', '581', '586', '587', '588', '592', '593', '594', '595', '597', '600', '601', '602', '604', '605', '606', '607', '608', '612', '616', '617', '618', '620', '622', '627', '628', '630', '634', '635', '637', '639', '640', '643', '645', '647', '648', '649', '650', '651', '654', '663', '665', '667', '668', '678', '680', '683', '685', '689', '693', '694', '696', '697', '698', '700', '705', '706', '708', '713', '714', '715', '717', '718', '720', '721', '724', '726', '727', '728', '729', '731', '733', '734', '735', '740', '741', '742', '743', '745', '746', '747', '750', '753', '756', '757', '761', '762', '764', '766', '767', '768', '770', '771', '773', '775', '777', '778', '779', '780', '783', '784', '785', '787', '788', '790', '791', '797', '798', '799', '803', '804', '811', '814', '817', '822', '825', '827', '828', '830', '831', '832', '835', '836', '837', '839', '840', '841', '848', '850', '851', '854', '858', '859', '862', '864', '872', '875', '876', '878', '880', '882', '885', '887', '888', '890', '897', '904', '909', '912', '914', '922', '928', '929', '930', '934', '936', '946', '947', '948', '949', '951', '953', '954', '958', '959', '961', '962', '963', '966', '967', '968', '972', '973', '975', '977', '978', '980', '982', '983', '984', '985', '986', '987', '988', '989', '991', '995', '997', '1000', '1003', '1004', '1006', '1007', '1008', '1009', '1011', '1017', '1019', '1020', '1023', '1025', '1030', '1036', '1038', '1042', '1050', '1051', '1056', '1058', '1059', '1060', '1062', '1063', '1070', '1075', '1085', '1086', '1087', '1089', '1090', '1091', '1093', '1102', '1103', '1105', '1109', '1110', '1111', '1114', '1117', '1118', '1121', '1123', '1124', '1125', '1127', '1130', '1131', '1133', '1134', '1137', '1138', '1146', '1148', '1155', '1156', '1158', '1159', '1165', '1170', '1174', '1175', '1176', '1178', '1179', '1185', '1190', '1193', '1200', '1201', '1202', '1204', '1208', '1209', '1210', '1214', '1217', '1219', '1221', '1230', '1231', '1236', '1237', '1246', '1247', '1251', '1253', '1257', '1259', '1260', '1264', '1265', '1266', '1269', '1271', '1272', '1274', '1275', '1276', '1278', '1279', '1280', '1282', '1284', '1285', '1290', '1292', '1293', '1295', '1305', '1308', '1312', '1316', '1320', '1321', '1323', '1326', '1327', '1328', '1329', '1330', '1331', '1332', '1334', '1336', '1339', '1342', '1344', '1345', '1352', '1353', '1355', '1356', '1357', '1360', '1363', '1364', '1368', '1369', '1370', '1374', '1376', '1377', '1380', '1382', '1389', '1394', '1395', '1396', '1397', '1398', '1399', '1404', '1405', '1408', '1409', '1410', '1411', '1412', '1415', '1417', '1423', '1424', '1425', '1427', '1429', '1437', '1439', '1443', '1444', '1445', '1446', '1448', '1450', '1451', '1460', '1461', '1464', '1467', '1468', '1471', '1472', '1474', '1475', '1476', '1477', '1478', '1480', '1481', '1485', '1488', '1494', '1495', '1496', '1498', '1499', '1500', '1501', '1509', '1512', '1516', '1517', '1518', '1520', '1521', '1523', '1526', '1527', '1533', '1536', '1537', '1538', '1541', '1548', '1553', '1555', '1556', '1558', '1561', '1569', '1577', '1585', '1587', '1589', '1590', '1595', '1596', '1599', '1600', '1601', '1602', '1609', '1610', '1614', '1620', '1622', '1627', '1629', '1631', '1632', '1633', '1634', '1636', '1642', '1643', '1645', '1648', '1654', '1655', '1663', '1665', '1666', '1673', '1675', '1677', '1679', '1681', '1682', '1684', '1689', '1693', '1694', '1697', '1700', '1703', '1706', '1707', '1711', '1712', '1713', '1714', '1715', '1718', '1722', '1723', '1724', '1725', '1727', '1729', '1731', '1738', '1739', '1745', '1746', '1749', '1751', '1753', '1759', '1761', '1769', '1775', '1776', '1777', '1778', '1779', '1780', '1782', '1785', '1787', '1793', '1795', '1796', '1800', '1803', '1804', '1819', '1821', '1822', '1823', '1826', '1827', '1829', '1830', '1831', '1833', '1836', '1837', '1841', '1846', '1848', '1850', '1865', '1866', '1867', '1868', '1872', '1874', '1877', '1878', '1881', '1888', '1889', '1892', '1893', '1894', '1899', '1904', '1906', '1915', '1916', '1917', '1918', '1920', '1921', '1923', '1924', '1925', '1927', '1928', '1930', '1931', '1932', '1935', '1936', '1937', '1945', '1946', '1948', '1950', '1951', '1953', '1955', '1957', '1959', '1960', '1961', '1963', '1966', '1967', '1968', '1969', '1970', '1973', '1976', '1977', '1980', '1983', '1984', '1990', '1992', '1993', '1994', '1998', '1999', '2000']",True,4000,True,2,e0b8051c46,0.0,0.0,0.0
./expes/v2_2021-03-27_issda-30_2000-prng-1-w4-p2,30_issda-2000,2000,first-2000,500,25,rng,num-start-1200,1200,25726,classic,2934.1834502220154,True,,True,1.0,1.0,1.0,1,"['7', '10', '14', '25', '28', '35', '41', '46', '47', '53', '63', '68', '69', '70', '76', '77', '80', '90', '93', '101', '105', '118', '119', '125', '129', '130', '132', '134', '136', '141', '144', '147', '154', '164', '165', '168', '169', '170', '171', '172', '173', '175', '177', '179', '184', '186', '190', '192', '195', '196', '199', '200', '205', '217', '219', '221', '222', '223', '224', '228', '229', '233', '234', '239', '240', '248', '250', '259', '272', '277', '281', '282', '285', '288', '292', '304', '305', '308', '315', '317', '322', '325', '328', '330', '335', '341', '347', '349', '350', '353', '357', '359', '362', '364', '365', '384', '389', '392', '394', '396', '398', '401', '402', '405', '408', '411', '414', '421', '426', '429', '431', '433', '447', '451', '456', '459', '462', '465', '470', '473', '475', '480', '481', '497', '500', '501', '504', '507', '508', '512', '522', '523', '530', '542', '545', '547', '551', '555', '562', '568', '579', '583', '586', '589', '592', '594', '595', '598', '601', '605', '606', '608', '612', '614', '615', '619', '633', '639', '643', '654', '656', '658', '664', '667', '670', '691', '692', '694', '698', '701', '703', '705', '713', '720', '729', '731', '732', '733', '738', '739', '741', '742', '746', '750', '751', '754', '757', '758', '759', '762', '769', '772', '773', '776', '777', '780', '781', '786', '787', '792', '795', '798', '800', '807', '812', '814', '821', '825', '826', '834', '835', '836', '840', '844', '850', '854', '856', '860', '868', '873', '876', '883', '884', '886', '890', '893', '895', '901', '902', '905', '912', '914', '919', '928', '929', '933', '935', '938', '941', '942', '948', '966', '970', '972', '975', '981', '994', '999', '1000', '1001', '1003', '1004', '1014', '1018', '1019', '1020', '1021', '1022', '1025', '1028', '1030', '1032', '1033', '1034', '1035', '1038', '1039', '1040', '1045', '1054', '1058', '1059', '1065', '1066', '1067', '1073', '1076', '1077', '1080', '1082', '1083', '1084', '1090', '1095', '1106', '1117', '1121', '1139', '1142', '1146', '1153', '1155', '1156', '1160', '1161', '1166', '1174', '1175', '1185', '1186', '1188', '1190', '1191', '1197', '1199', '1200', '1206', '1222', '1229', '1230', '1231', '1232', '1238', '1239', '1240', '1243', '1244', '1249', '1250', '1253', '1256', '1257', '1265', '1271', '1278', '1280', '1281', '1295', '1296', '1310', '1315', '1319', '1323', '1326', '1327', '1331', '1335', '1337', '1339', '1341', '1342', '1346', '1347', '1349', '1354', '1358', '1359', '1368', '1371', '1379', '1385', '1393', '1402', '1403', '1407', '1414', '1415', '1416', '1418', '1424', '1436', '1437', '1438', '1444', '1445', '1451', '1455', '1466', '1469', '1472', '1474', '1477', '1478', '1485', '1486', '1487', '1491', '1492', '1493', '1502', '1505', '1508', '1510', '1518', '1523', '1524', '1525', '1531', '1534', '1535', '1536', '1548', '1555', '1556', '1561', '1566', '1570', '1597', '1598', '1600', '1602', '1605', '1611', '1619', '1620', '1625', '1632', '1648', '1653', '1655', '1656', '1661', '1662', '1666', '1668', '1669', '1673', '1678', '1682', '1685', '1690', '1691', '1697', '1699', '1700', '1701', '1703', '1707', '1709', '1712', '1713', '1717', '1726', '1728', '1729', '1733', '1735', '1742', '1746', '1752', '1755', '1760', '1762', '1772', '1775', '1779', '1780', '1793', '1799', '1805', '1807', '1809', '1818', '1820', '1826', '1830', '1834', '1837', '1838', '1844', '1847', '1848', '1850', '1851', '1854', '1855', '1857', '1858', '1860', '1862', '1864', '1867', '1870', '1877', '1882', '1883', '1884', '1886', '1890', '1895', '1896', '1900', '1902', '1908', '1910', '1918', '1929', '1937', '1938', '1946', '1961', '1964', '1971', '1977', '1978', '1981', '1983', '1987', '1993', '1997']",False,4000,True,2,2524d3524a,0.0,1.0,1.0
./expes/v2_2021-03-27_issda-30_2000-prng-1-w4-p2,30_issda-2000,2000,first-2000,700,35,rng,num-start-1800,1800,25726,classic,1522.525820016861,True,,True,1.0,1.0,1.0,1,"['4', '6', '7', '10', '12', '15', '18', '20', '22', '27', '32', '38', '39', '41', '42', '48', '53', '55', '58', '65', '66', '71', '73', '76', '77', '83', '84', '85', '88', '89', '92', '95', '97', '106', '109', '110', '114', '121', '122', '124', '126', '127', '128', '136', '137', '138', '139', '142', '153', '154', '156', '158', '159', '160', '162', '164', '167', '168', '170', '171', '175', '176', '178', '182', '183', '185', '188', '191', '192', '195', '199', '202', '207', '212', '213', '218', '220', '227', '232', '233', '235', '238', '240', '243', '248', '250', '251', '262', '267', '272', '273', '280', '285', '289', '291', '295', '298', '305', '306', '307', '313', '314', '316', '318', '320', '321', '322', '323', '325', '326', '331', '332', '334', '335', '338', '339', '343', '345', '346', '348', '349', '353', '354', '358', '362', '364', '365', '368', '370', '374', '377', '380', '385', '392', '393', '397', '400', '401', '402', '405', '407', '411', '414', '416', '421', '425', '426', '427', '432', '433', '435', '440', '441', '442', '448', '449', '453', '455', '456', '469', '470', '472', '474', '475', '476', '478', '479', '484', '487', '489', '496', '497', '503', '507', '510', '511', '513', '515', '516', '519', '521', '524', '525', '527', '528', '529', '530', '532', '534', '536', '537', '538', '550', '552', '555', '557', '566', '567', '569', '571', '574', '575', '582', '585', '586', '591', '592', '593', '594', '595', '596', '598', '599', '600', '601', '607', '609', '611', '613', '615', '616', '620', '621', '622', '623', '625', '626', '630', '635', '638', '639', '640', '642', '645', '646', '648', '649', '657', '659', '662', '663', '666', '669', '670', '673', '676', '678', '679', '689', '690', '692', '694', '695', '697', '703', '711', '712', '718', '729', '731', '732', '736', '738', '742', '743', '745', '747', '748', '750', '753', '762', '763', '770', '778', '781', '782', '793', '794', '795', '796', '800', '802', '803', '804', '809', '811', '812', '815', '820', '821', '823', '825', '826', '827', '828', '832', '839', '841', '843', '844', '846', '847', '848', '850', '852', '855', '861', '863', '866', '867', '868', '869', '877', '881', '883', '888', '889', '893', '898', '899', '900', '901', '903', '904', '906', '909', '910', '925', '926', '927', '930', '932', '939', '940', '941', '948', '952', '957', '966', '968', '970', '973', '977', '978', '979', '981', '982', '991', '992', '997', '1002', '1004', '1005', '1008', '1013', '1015', '1017', '1022', '1030', '1037', '1038', '1040', '1042', '1048', '1050', '1055', '1063', '1066', '1067', '1072', '1074', '1077', '1078', '1079', '1082', '1084', '1085', '1087', '1091', '1095', '1100', '1101', '1103', '1107', '1110', '1113', '1115', '1117', '1119', '1121', '1122', '1126', '1128', '1132', '1134', '1144', '1147', '1149', '1150', '1152', '1158', '1164', '1166', '1167', '1171', '1173', '1174', '1176', '1180', '1186', '1192', '1193', '1194', '1197', '1203', '1205', '1206', '1211', '1218', '1220', '1223', '1227', '1230', '1231', '1237', '1241', '1243', '1246', '1248', '1249', '1250', '1256', '1260', '1261', '1265', '1266', '1269', '1271', '1272', '1275', '1277', '1281', '1283', '1284', '1285', '1286', '1288', '1292', '1294', '1295', '1296', '1300', '1301', '1305', '1311', '1313', '1316', '1318', '1323', '1325', '1326', '1328', '1335', '1336', '1338', '1340', '1341', '1342', '1346', '1349', '1353', '1354', '1356', '1367', '1369', '1376', '1380', '1383', '1384', '1385', '1386', '1387', '1393', '1395', '1398', '1400', '1405', '1409', '1420', '1421', '1425', '1429', '1431', '1436', '1438', '1441', '1444', '1447', '1448', '1451', '1453', '1456', '1457', '1461', '1466', '1470', '1472', '1474', '1478', '1483', '1498', '1499', '1506', '1510', '1512', '1526', '1527', '1528', '1529', '1530', '1539', '1546', '1548', '1554', '1557', '1568', '1571', '1573', '1577', '1580', '1582', '1585', '1586', '1588', '1591', '1594', '1597', '1603', '1604', '1606', '1607', '1611', '1612', '1613', '1617', '1619', '1620', '1626', '1631', '1634', '1635', '1636', '1638', '1640', '1641', '1642', '1644', '1645', '1648', '1653', '1654', '1657', '1659', '1665', '1669', '1675', '1676', '1677', '1681', '1687', '1691', '1692', '1694', '1695', '1698', '1700', '1702', '1703', '1704', '1708', '1709', '1710', '1714', '1716', '1720', '1722', '1730', '1731', '1736', '1737', '1738', '1747', '1751', '1753', '1754', '1757', '1758', '1759', '1761', '1765', '1766', '1770', '1771', '1773', '1777', '1781', '1782', '1784', '1790', '1791', '1792', '1795', '1796', '1798', '1800', '1801', '1803', '1804', '1805', '1807', '1809', '1814', '1816', '1822', '1823', '1824', '1825', '1827', '1828', '1830', '1832', '1835', '1837', '1838', '1842', '1843', '1845', '1846', '1848', '1850', '1852', '1853', '1854', '1859', '1862', '1865', '1866', '1867', '1868', '1870', '1871', '1875', '1876', '1878', '1880', '1885', '1887', '1889', '1890', '1893', '1894', '1896', '1900', '1901', '1902', '1905', '1906', '1915', '1918', '1919', '1920', '1921', '1925', '1927', '1930', '1932', '1934', '1935', '1942', '1945', '1948', '1951', '1953', '1956', '1959', '1965', '1966', '1967', '1968', '1970', '1972', '1976', '1977', '1979', '1984', '1986', '1988', '1989', '1995', '1998']",False,4000,True,2,167ac14e6b,0.0,1.0,1.0
./expes/v2_2021-03-27_issda-30_2000-prng-1-w4-p2,30_issda-2000,2000,first-2000,800,40,rng,num-start-2000,2000,25726,classic,2140.2167234420776,True,,True,1.0,1.0,1.0,1,"['1', '2', '4', '6', '7', '11', '13', '19', '21', '24', '27', '28', '30', '34', '38', '39', '41', '45', '47', '49', '52', '53', '55', '57', '60', '61', '66', '68', '69', '71', '74', '75', '76', '78', '81', '82', '86', '90', '93', '96', '99', '100', '101', '104', '106', '107', '110', '111', '115', '117', '118', '121', '124', '125', '129', '130', '134', '136', '137', '138', '141', '146', '148', '161', '162', '166', '172', '173', '175', '178', '183', '187', '188', '189', '193', '195', '199', '205', '209', '219', '221', '222', '226', '227', '228', '231', '232', '236', '238', '242', '243', '244', '250', '251', '253', '256', '259', '260', '265', '268', '269', '271', '272', '273', '274', '276', '280', '284', '285', '287', '289', '290', '291', '292', '293', '294', '299', '301', '304', '305', '306', '307', '309', '310', '312', '315', '317', '320', '322', '326', '327', '328', '331', '335', '339', '340', '341', '346', '347', '348', '352', '354', '360', '361', '364', '366', '368', '369', '370', '371', '372', '373', '375', '378', '379', '380', '382', '386', '392', '393', '397', '399', '401', '403', '404', '407', '408', '412', '415', '419', '420', '425', '427', '428', '429', '434', '437', '441', '442', '444', '449', '452', '457', '464', '472', '473', '479', '481', '482', '483', '486', '487', '488', '489', '492', '493', '499', '503', '504', '505', '511', '513', '514', '515', '517', '521', '524', '525', '533', '540', '541', '543', '548', '549', '555', '558', '561', '562', '565', '569', '571', '573', '574', '576', '579', '580', '581', '586', '587', '588', '592', '593', '594', '595', '597', '600', '601', '602', '604', '605', '606', '607', '608', '612', '616', '617', '618', '620', '622', '627', '628', '630', '634', '635', '637', '639', '640', '643', '645', '647', '648', '649', '650', '651', '654', '663', '665', '667', '668', '678', '680', '683', '685', '689', '693', '694', '696', '697', '698', '700', '705', '706', '708', '713', '714', '715', '717', '718', '720', '721', '724', '726', '727', '728', '729', '731', '733', '734', '735', '740', '741', '742', '743', '745', '746', '747', '750', '753', '756', '757', '761', '762', '764', '766', '767', '768', '770', '771', '773', '775', '777', '778', '779', '780', '783', '784', '785', '787', '788', '790', '791', '797', '798', '799', '803', '804', '811', '814', '817', '822', '825', '827', '828', '830', '831', '832', '835', '836', '837', '839', '840', '841', '848', '850', '851', '854', '858', '859', '862', '864', '872', '875', '876', '878', '880', '882', '885', '887', '888', '890', '897', '904', '909', '912', '914', '922', '928', '929', '930', '934', '936', '946', '947', '948', '949', '951', '953', '954', '958', '959', '961', '962', '963', '966', '967', '968', '972', '973', '975', '977', '978', '980', '982', '983', '984', '985', '986', '987', '988', '989', '991', '995', '997', '1000', '1003', '1004', '1006', '1007', '1008', '1009', '1011', '1017', '1019', '1020', '1023', '1025', '1030', '1036', '1038', '1042', '1050', '1051', '1056', '1058', '1059', '1060', '1062', '1063', '1070', '1075', '1085', '1086', '1087', '1089', '1090', '1091', '1093', '1102', '1103', '1105', '1109', '1110', '1111', '1114', '1117', '1118', '1121', '1123', '1124', '1125', '1127', '1130', '1131', '1133', '1134', '1137', '1138', '1146', '1148', '1155', '1156', '1158', '1159', '1165', '1170', '1174', '1175', '1176', '1178', '1179', '1185', '1190', '1193', '1200', '1201', '1202', '1204', '1208', '1209', '1210', '1214', '1217', '1219', '1221', '1230', '1231', '1236', '1237', '1246', '1247', '1251', '1253', '1257', '1259', '1260', '1264', '1265', '1266', '1269', '1271', '1272', '1274', '1275', '1276', '1278', '1279', '1280', '1282', '1284', '1285', '1290', '1292', '1293', '1295', '1305', '1308', '1312', '1316', '1320', '1321', '1323', '1326', '1327', '1328', '1329', '1330', '1331', '1332', '1334', '1336', '1339', '1342', '1344', '1345', '1352', '1353', '1355', '1356', '1357', '1360', '1363', '1364', '1368', '1369', '1370', '1374', '1376', '1377', '1380', '1382', '1389', '1394', '1395', '1396', '1397', '1398', '1399', '1404', '1405', '1408', '1409', '1410', '1411', '1412', '1415', '1417', '1423', '1424', '1425', '1427', '1429', '1437', '1439', '1443', '1444', '1445', '1446', '1448', '1450', '1451', '1460', '1461', '1464', '1467', '1468', '1471', '1472', '1474', '1475', '1476', '1477', '1478', '1480', '1481', '1485', '1488', '1494', '1495', '1496', '1498', '1499', '1500', '1501', '1509', '1512', '1516', '1517', '1518', '1520', '1521', '1523', '1526', '1527', '1533', '1536', '1537', '1538', '1541', '1548', '1553', '1555', '1556', '1558', '1561', '1569', '1577', '1585', '1587', '1589', '1590', '1595', '1596', '1599', '1600', '1601', '1602', '1609', '1610', '1614', '1620', '1622', '1627', '1629', '1631', '1632', '1633', '1634', '1636', '1642', '1643', '1645', '1648', '1654', '1655', '1663', '1665', '1666', '1673', '1675', '1677', '1679', '1681', '1682', '1684', '1689', '1693', '1694', '1697', '1700', '1703', '1706', '1707', '1711', '1712', '1713', '1714', '1715', '1718', '1722', '1723', '1724', '1725', '1727', '1729', '1731', '1738', '1739', '1745', '1746', '1749', '1751', '1753', '1759', '1761', '1769', '1775', '1776', '1777', '1778', '1779', '1780', '1782', '1785', '1787', '1793', '1795', '1796', '1800', '1803', '1804', '1819', '1821', '1822', '1823', '1826', '1827', '1829', '1830', '1831', '1833', '1836', '1837', '1841', '1846', '1848', '1850', '1865', '1866', '1867', '1868', '1872', '1874', '1877', '1878', '1881', '1888', '1889', '1892', '1893', '1894', '1899', '1904', '1906', '1915', '1916', '1917', '1918', '1920', '1921', '1923', '1924', '1925', '1927', '1928', '1930', '1931', '1932', '1935', '1936', '1937', '1945', '1946', '1948', '1950', '1951', '1953', '1955', '1957', '1959', '1960', '1961', '1963', '1966', '1967', '1968', '1969', '1970', '1973', '1976', '1977', '1980', '1983', '1984', '1990', '1992', '1993', '1994', '1998', '1999', '2000']",False,4000,True,2,1483794c4a,0.0,1.0,1.0
./expes/v2_2021-03-27_issda-30_2000-prng-1-w4-p2,30_issda-2000,2000,first-2000,100,5,rng,num-start-2600,2600,25726,classic,847.3096737861633,True,,True,1.0,1.0,1.0,1,"['22', '57', '58', '144', '149', '171', '184', '194', '210', '219', '229', '243', '249', '252', '307', '330', '332', '338', '372', '397', '419', '447', '458', '506', '522', '524', '534', '540', '555', '556', '562', '564', '571', '575', '577', '597', '621', '647', '691', '734', '739', '746', '783', '807', '813', '827', '844', '899', '922', '927', '956', '993', '997', '1025', '1053', '1058', '1080', '1130', '1186', '1195', '1207', '1219', '1245', '1262', '1279', '1294', '1296', '1298', '1306', '1313', '1335', '1336', '1349', '1360', '1363', '1377', '1402', '1407', '1439', '1504', '1506', '1517', '1530', '1547', '1593', '1635', '1648', '1655', '1676', '1750', '1772', '1784', '1788', '1792', '1815', '1836', '1847', '1862', '1914', '1926']",False,4000,True,2,bc021cf7f9,0.0,1.0,1.0
./expes/v2_2021-03-27_issda-30_2000-prng-1-w4-p2,30_issda-2000,2000,first-2000,400,20,rng,num-start-400,400,25726,classic,4076.331886291504,False,,False,0,,,0,"['1', '10', '13', '26', '31', '35', '38', '42', '45', '59', '62', '63', '64', '66', '67', '70', '76', '78', '93', '94', '107', '111', '117', '128', '131', '142', '152', '154', '156', '157', '159', '166', '172', '176', '181', '183', '184', '191', '193', '197', '200', '206', '216', '230', '234', '240', '245', '253', '258', '260', '261', '263', '278', '281', '283', '292', '296', '297', '299', '308', '310', '317', '323', '324', '330', '334', '335', '347', '353', '355', '374', '377', '380', '381', '385', '387', '394', '395', '396', '397', '402', '404', '406', '408', '412', '429', '430', '454', '457', '476', '489', '493', '499', '502', '503', '512', '513', '515', '522', '525', '536', '544', '545', '549', '552', '559', '562', '565', '567', '574', '577', '586', '593', '596', '597', '598', '622', '624', '627', '640', '649', '652', '655', '656', '663', '675', '682', '688', '689', '704', '718', '732', '738', '739', '740', '741', '742', '745', '751', '759', '760', '761', '765', '768', '771', '773', '774', '778', '779', '796', '798', '815', '816', '819', '838', '840', '841', '848', '859', '864', '865', '867', '870', '874', '881', '883', '887', '901', '903', '904', '910', '912', '914', '916', '921', '925', '926', '948', '951', '957', '961', '964', '965', '969', '973', '978', '979', '981', '982', '991', '994', '995', '997', '999', '1000', '1001', '1002', '1007', '1008', '1013', '1018', '1019', '1024', '1025', '1029', '1030', '1032', '1039', '1055', '1059', '1066', '1070', '1075', '1076', '1077', '1081', '1097', '1102', '1103', '1105', '1121', '1130', '1134', '1143', '1144', '1147', '1149', '1154', '1156', '1165', '1167', '1173', '1176', '1180', '1187', '1202', '1206', '1207', '1208', '1217', '1224', '1233', '1234', '1236', '1239', '1243', '1246', '1250', '1254', '1257', '1263', '1266', '1267', '1269', '1271', '1278', '1282', '1287', '1289', '1293', '1298', '1300', '1301', '1306', '1308', '1310', '1321', '1323', '1324', '1328', '1340', '1343', '1345', '1351', '1358', '1369', '1373', '1375', '1385', '1390', '1391', '1394', '1395', '1397', '1405', '1415', '1421', '1423', '1425', '1430', '1433', '1436', '1437', '1446', '1451', '1460', '1462', '1463', '1465', '1472', '1473', '1478', '1480', '1483', '1493', '1494', '1495', '1499', '1505', '1514', '1516', '1522', '1527', '1529', '1539', '1548', '1551', '1556', '1562', '1568', '1578', '1585', '1594', '1595', '1603', '1606', '1611', '1621', '1625', '1631', '1632', '1639', '1643', '1646', '1649', '1650', '1651', '1652', '1667', '1672', '1673', '1676', '1684', '1696', '1703', '1706', '1709', '1718', '1730', '1741', '1748', '1758', '1773', '1783', '1787', '1795', '1801', '1803', '1813', '1822', '1828', '1830', '1843', '1849', '1853', '1860', '1862', '1863', '1865', '1867', '1870', '1871', '1877', '1883', '1889', '1891', '1893', '1899', '1900', '1911', '1914', '1919', '1922', '1925', '1927', '1933', '1936', '1941', '1946', '1949', '1950', '1971', '1976', '1977', '1978', '1979', '1987', '1989', '1997', '2000']",True,4000,True,2,3a3a934857,0.0,0.0,0.0
./expes/v2_2021-03-27_issda-30_2000-prng-1-w4-p2,30_issda-2000,2000,first-2000,900,45,rng,num-start-2000,2000,25726,classic,1740.5322620868683,True,,True,1.0,1.0,1.0,1,"['1', '2', '4', '6', '8', '10', '16', '21', '22', '25', '29', '30', '31', '32', '34', '36', '37', '38', '40', '41', '43', '47', '49', '52', '53', '57', '58', '59', '60', '62', '63', '65', '71', '72', '80', '81', '82', '83', '85', '86', '88', '92', '95', '98', '102', '103', '105', '106', '107', '108', '112', '113', '114', '116', '122', '123', '127', '128', '131', '132', '133', '137', '140', '141', '143', '144', '149', '153', '154', '155', '158', '159', '166', '167', '171', '175', '176', '180', '182', '184', '185', '186', '191', '192', '193', '194', '195', '196', '199', '201', '203', '204', '210', '211', '212', '214', '218', '219', '220', '226', '227', '229', '230', '231', '232', '234', '235', '236', '239', '243', '244', '245', '247', '249', '250', '252', '253', '255', '258', '260', '262', '264', '267', '268', '270', '273', '274', '277', '281', '284', '289', '290', '294', '300', '301', '305', '307', '310', '314', '316', '319', '325', '329', '330', '331', '332', '334', '338', '339', '344', '345', '349', '350', '352', '353', '358', '360', '363', '364', '366', '370', '371', '372', '374', '377', '379', '380', '381', '387', '388', '389', '393', '394', '395', '397', '400', '403', '405', '407', '408', '409', '410', '411', '415', '416', '419', '420', '421', '422', '425', '426', '429', '431', '434', '438', '443', '444', '447', '451', '455', '456', '458', '461', '463', '464', '468', '469', '471', '472', '473', '477', '478', '480', '483', '484', '485', '494', '495', '496', '498', '500', '501', '502', '505', '506', '507', '509', '510', '512', '513', '515', '516', '517', '519', '522', '523', '524', '525', '526', '530', '533', '534', '539', '540', '542', '544', '545', '547', '550', '552', '555', '556', '557', '558', '559', '560', '561', '562', '564', '565', '570', '571', '573', '575', '576', '577', '578', '579', '580', '581', '582', '587', '588', '594', '596', '597', '598', '601', '602', '603', '606', '607', '608', '614', '615', '616', '617', '620', '621', '625', '626', '628', '629', '634', '636', '637', '640', '641', '644', '647', '648', '650', '652', '653', '654', '657', '659', '660', '661', '662', '663', '666', '667', '672', '675', '677', '680', '683', '684', '685', '686', '687', '688', '691', '694', '696', '697', '701', '703', '704', '709', '712', '714', '718', '720', '722', '724', '726', '729', '731', '734', '738', '739', '740', '745', '746', '748', '749', '751', '754', '755', '756', '764', '771', '772', '774', '776', '777', '780', '781', '782', '783', '784', '787', '788', '789', '791', '792', '793', '794', '795', '798', '800', '805', '807', '808', '813', '814', '815', '818', '819', '822', '825', '827', '831', '832', '833', '837', '844', '845', '847', '849', '850', '856', '858', '859', '862', '863', '864', '866', '867', '869', '871', '873', '874', '879', '880', '881', '884', '886', '893', '896', '898', '899', '904', '905', '907', '910', '912', '913', '914', '917', '920', '921', '922', '925', '927', '929', '931', '932', '933', '937', '942', '944', '956', '958', '960', '961', '962', '963', '965', '966', '969', '970', '972', '973', '974', '975', '977', '979', '981', '984', '986', '987', '992', '993', '994', '995', '996', '997', '998', '1000', '1002', '1005', '1006', '1012', '1014', '1015', '1020', '1022', '1025', '1026', '1029', '1031', '1034', '1035', '1038', '1039', '1041', '1044', '1046', '1048', '1049', '1053', '1058', '1062', '1065', '1066', '1068', '1069', '1073', '1077', '1078', '1080', '1082', '1086', '1089', '1090', '1092', '1094', '1095', '1096', '1098', '1101', '1103', '1107', '1109', '1110', '1111', '1113', '1115', '1116', '1117', '1119', '1120', '1121', '1122', '1124', '1126', '1128', '1130', '1132', '1134', '1136', '1138', '1140', '1142', '1143', '1144', '1145', '1146', '1147', '1150', '1161', '1162', '1163', '1166', '1167', '1168', '1169', '1171', '1174', '1182', '1184', '1186', '1192', '1195', '1197', '1201', '1205', '1206', '1207', '1211', '1216', '1218', '1219', '1220', '1221', '1222', '1232', '1234', '1235', '1237', '1240', '1244', '1245', '1248', '1249', '1253', '1255', '1261', '1262', '1265', '1267', '1270', '1272', '1279', '1281', '1283', '1285', '1286', '1287', '1294', '1296', '1297', '1298', '1301', '1304', '1306', '1310', '1311', '1313', '1315', '1318', '1321', '1322', '1323', '1324', '1325', '1326', '1327', '1329', '1330', '1331', '1335', '1336', '1339', '1343', '1344', '1345', '1346', '1348', '1349', '1351', '1352', '1356', '1359', '1360', '1363', '1365', '1369', '1373', '1374', '1377', '1379', '1380', '1383', '1386', '1388', '1393', '1394', '1395', '1396', '1398', '1402', '1403', '1404', '1406', '1407', '1409', '1416', '1417', '1418', '1427', '1437', '1439', '1440', '1441', '1442', '1443', '1444', '1446', '1454', '1456', '1457', '1460', '1463', '1464', '1465', '1466', '1470', '1471', '1472', '1478', '1480', '1484', '1485', '1486', '1487', '1488', '1489', '1496', '1497', '1504', '1506', '1514', '1515', '1516', '1517', '1519', '1525', '1527', '1529', '1530', '1532', '1533', '1539', '1540', '1541', '1542', '1546', '1547', '1548', '1551', '1552', '1555', '1557', '1558', '1559', '1560', '1563', '1564', '1565', '1567', '1571', '1575', '1577', '1578', '1580', '1584', '1585', '1587', '1588', '1590', '1593', '1597', '1602', '1603', '1606', '1607', '1608', '1610', '1613', '1615', '1621', '1623', '1624', '1626', '1627', '1632', '1634', '1635', '1639', '1641', '1646', '1648', '1650', '1651', '1652', '1654', '1655', '1656', '1658', '1659', '1660', '1661', '1664', '1668', '1670', '1673', '1676', '1678', '1680', '1681', '1682', '1683', '1685', '1686', '1687', '1688', '1691', '1694', '1696', '1697', '1698', '1701', '1702', '1703', '1704', '1705', '1710', '1711', '1714', '1720', '1724', '1732', '1735', '1737', '1739', '1740', '1741', '1745', '1747', '1748', '1750', '1752', '1754', '1756', '1761', '1762', '1765', '1768', '1770', '1771', '1772', '1773', '1776', '1777', '1779', '1781', '1784', '1785', '1786', '1787', '1788', '1790', '1791', '1792', '1795', '1800', '1802', '1803', '1807', '1810', '1814', '1815', '1816', '1819', '1820', '1821', '1835', '1836', '1837', '1840', '1841', '1842', '1845', '1846', '1847', '1848', '1849', '1852', '1853', '1861', '1862', '1864', '1865', '1875', '1877', '1879', '1884', '1886', '1887', '1888', '1889', '1891', '1894', '1895', '1896', '1898', '1900', '1901', '1902', '1903', '1906', '1907', '1908', '1910', '1911', '1912', '1913', '1914', '1917', '1918', '1920', '1921', '1924', '1926', '1930', '1932', '1934', '1935', '1937', '1938', '1940', '1946', '1948', '1949', '1950', '1951', '1955', '1959', '1962', '1964', '1965', '1967', '1968', '1969', '1972', '1974', '1977', '1980', '1983', '1984', '1990', '1991', '1992', '1993', '1995', '2000']",False,4000,True,2,41b954dc77,0.0,1.0,1.0
./expes/v2_2021-03-27_issda-30_2000-prng-1-w4-p2,30_issda-2000,2000,first-2000,1000,50,rng,num-start-600,600,25726,classic,4114.202793121338,False,,False,0,,,0,"['2', '4', '6', '7', '8', '10', '11', '12', '15', '17', '18', '20', '22', '27', '32', '37', '38', '39', '41', '42', '44', '47', '48', '53', '55', '56', '58', '61', '62', '65', '66', '67', '70', '71', '72', '73', '75', '76', '77', '78', '79', '80', '83', '84', '85', '88', '89', '92', '93', '95', '97', '102', '106', '109', '110', '112', '114', '118', '121', '122', '124', '126', '127', '128', '131', '133', '136', '137', '138', '139', '142', '145', '147', '148', '152', '153', '154', '156', '158', '159', '160', '161', '162', '164', '165', '166', '167', '168', '170', '171', '175', '176', '178', '182', '183', '185', '188', '189', '190', '191', '192', '195', '196', '199', '202', '207', '212', '213', '214', '218', '220', '227', '230', '232', '233', '234', '235', '236', '238', '240', '242', '243', '245', '248', '250', '251', '262', '267', '272', '273', '275', '278', '280', '283', '284', '285', '286', '287', '288', '289', '291', '294', '295', '297', '298', '305', '306', '307', '309', '312', '313', '314', '316', '318', '320', '321', '322', '323', '325', '326', '329', '331', '332', '333', '334', '335', '336', '338', '339', '340', '341', '343', '345', '346', '348', '349', '352', '353', '354', '355', '358', '359', '361', '362', '363', '364', '365', '368', '370', '371', '372', '374', '375', '377', '379', '380', '385', '391', '392', '393', '397', '399', '400', '401', '402', '404', '405', '407', '408', '409', '410', '411', '412', '414', '416', '418', '421', '423', '425', '426', '427', '429', '431', '432', '433', '434', '435', '436', '437', '440', '441', '442', '443', '448', '449', '450', '453', '455', '456', '460', '464', '469', '470', '472', '474', '475', '476', '478', '479', '484', '487', '488', '489', '494', '496', '497', '501', '503', '507', '510', '511', '512', '513', '515', '516', '519', '520', '521', '524', '525', '527', '528', '529', '530', '532', '534', '536', '537', '538', '539', '540', '550', '552', '555', '557', '558', '562', '566', '567', '568', '569', '571', '573', '574', '575', '576', '579', '580', '581', '582', '585', '586', '589', '590', '591', '592', '593', '594', '595', '596', '597', '598', '599', '600', '601', '605', '606', '607', '608', '609', '611', '612', '613', '615', '616', '620', '621', '622', '623', '624', '625', '626', '628', '630', '632', '635', '638', '639', '640', '641', '642', '644', '645', '646', '648', '649', '657', '658', '659', '660', '661', '662', '663', '665', '666', '669', '670', '673', '676', '677', '678', '679', '682', '687', '689', '690', '692', '694', '695', '696', '697', '698', '703', '705', '707', '708', '710', '711', '712', '714', '718', '719', '724', '729', '731', '732', '734', '736', '737', '738', '742', '743', '745', '747', '748', '750', '753', '762', '763', '770', '778', '781', '782', '784', '786', '793', '794', '795', '796', '800', '802', '803', '804', '805', '809', '811', '812', '815', '820', '821', '823', '825', '826', '827', '828', '832', '834', '839', '841', '843', '844', '845', '846', '847', '848', '850', '852', '854', '855', '857', '861', '863', '866', '867', '868', '869', '870', '871', '877', '881', '883', '888', '889', '892', '893', '894', '895', '896', '898', '899', '900', '901', '903', '904', '906', '909', '910', '915', '917', '925', '926', '927', '930', '932', '934', '936', '939', '940', '941', '948', '950', '952', '957', '965', '966', '968', '970', '973', '974', '976', '977', '978', '979', '980', '981', '982', '987', '991', '992', '997', '1002', '1004', '1005', '1008', '1012', '1013', '1015', '1016', '1017', '1019', '1021', '1022', '1023', '1030', '1037', '1038', '1040', '1042', '1043', '1044', '1046', '1047', '1048', '1050', '1052', '1055', '1060', '1061', '1063', '1064', '1065', '1066', '1067', '1072', '1074', '1075', '1076', '1077', '1078', '1079', '1080', '1082', '1084', '1085', '1087', '1091', '1095', '1097', '1099', '1100', '1101', '1102', '1103', '1104', '1107', '1108', '1109', '1110', '1113', '1114', '1115', '1117', '1118', '1119', '1121', '1122', '1125', '1126', '1128', '1129', '1132', '1134', '1144', '1147', '1149', '1150', '1152', '1158', '1162', '1164', '1166', '1167', '1168', '1169', '1171', '1173', '1174', '1176', '1180', '1186', '1188', '1192', '1193', '1194', '1197', '1199', '1203', '1205', '1206', '1211', '1215', '1216', '1218', '1220', '1223', '1224', '1225', '1227', '1228', '1229', '1230', '1231', '1232', '1233', '1236', '1237', '1239', '1240', '1241', '1243', '1246', '1248', '1249', '1250', '1256', '1260', '1261', '1265', '1266', '1269', '1270', '1271', '1272', '1274', '1275', '1277', '1280', '1281', '1283', '1284', '1285', '1286', '1288', '1291', '1292', '1294', '1295', '1296', '1300', '1301', '1305', '1311', '1312', '1313', '1314', '1316', '1317', '1318', '1319', '1322', '1323', '1325', '1326', '1328', '1335', '1336', '1338', '1340', '1341', '1342', '1346', '1349', '1351', '1353', '1354', '1356', '1362', '1367', '1368', '1369', '1370', '1373', '1376', '1379', '1380', '1383', '1384', '1385', '1386', '1387', '1388', '1393', '1395', '1398', '1400', '1402', '1405', '1409', '1413', '1414', '1415', '1416', '1418', '1420', '1421', '1425', '1427', '1429', '1430', '1431', '1436', '1438', '1441', '1443', '1444', '1447', '1448', '1451', '1453', '1456', '1457', '1461', '1462', '1465', '1466', '1467', '1470', '1472', '1473', '1474', '1478', '1483', '1485', '1495', '1498', '1499', '1500', '1502', '1506', '1508', '1510', '1512', '1513', '1516', '1523', '1524', '1526', '1527', '1528', '1529', '1530', '1533', '1537', '1539', '1544', '1545', '1546', '1548', '1549', '1553', '1554', '1555', '1557', '1558', '1561', '1566', '1568', '1571', '1573', '1577', '1578', '1580', '1582', '1585', '1586', '1588', '1591', '1594', '1597', '1601', '1603', '1604', '1606', '1607', '1608', '1611', '1612', '1613', '1616', '1617', '1619', '1620', '1626', '1631', '1634', '1635', '1636', '1638', '1640', '1641', '1642', '1643', '1644', '1645', '1648', '1653', '1654', '1657', '1659', '1665', '1669', '1671', '1675', '1676', '1677', '1680', '1681', '1687', '1690', '1691', '1692', '1694', '1695', '1698', '1700', '1702', '1703', '1704', '1708', '1709', '1710', '1711', '1714', '1716', '1717', '1718', '1719', '1720', '1722', '1725', '1727', '1729', '1730', '1731', '1733', '1735', '1736', '1737', '1738', '1747', '1748', '1749', '1751', '1753', '1754', '1757', '1758', '1759', '1761', '1765', '1766', '1767', '1770', '1771', '1773', '1774', '1777', '1781', '1782', '1784', '1790', '1791', '1792', '1795', '1796', '1798', '1800', '1801', '1803', '1804', '1805', '1807', '1808', '1809', '1814', '1816', '1817', '1819', '1820', '1821', '1822', '1823', '1824', '1825', '1826', '1827', '1828', '1830', '1832', '1833', '1835', '1837', '1838', '1842', '1843', '1845', '1846', '1848', '1850', '1851', '1852', '1853', '1854', '1858', '1859', '1861', '1862', '1865', '1866', '1867', '1868', '1870', '1871', '1873', '1875', '1876', '1878', '1879', '1880', '1881', '1882', '1885', '1887', '1889', '1890', '1891', '1893', '1894', '1896', '1900', '1901', '1902', '1903', '1905', '1906', '1909', '1911', '1914', '1915', '1916', '1918', '1919', '1920', '1921', '1922', '1923', '1924', '1925', '1927', '1928', '1929', '1930', '1932', '1934', '1935', '1942', '1945', '1946', '1947', '1948', '1949', '1951', '1953', '1955', '1956', '1957', '1958', '1959', '1964', '1965', '1966', '1967', '1968', '1970', '1972', '1974', '1975', '1976', '1977', '1979', '1984', '1986', '1988', '1989', '1990', '1991', '1994', '1995', '1997', '1998']",True,4000,True,2,f57eeb3583,0.0,0.0,0.0
