expe,clients,clients_size,clients_subset,agg_size,agg_size_pc,method,days,days_size,days_total,noise_method,time,valid,valid_sum,success,score_avg,score_min,score_max,nsols,oracle,wall_hit,wall_time,pooled,pool_size,uuid,infeasible,optimal,valid_sums
./expes/v2_2021-03-27_issda-30_2000-prng-1-w4-p2,30_issda-2000,2000,first-2000,300,15,rng,num-start-800,800,25726,classic,1843.6085486412048,True,,True,1.0,1.0,1.0,1,"['1', '13', '26', '31', '35', '38', '42', '45', '59', '62', '64', '76', '78', '93', '94', '111', '117', '128', '142', '156', '157', '166', '172', '176', '181', '183', '184', '191', '193', '197', '200', '206', '216', '230', '240', '245', '253', '260', '261', '281', '283', '292', '296', '297', '299', '317', '324', '330', '334', '347', '353', '374', '380', '385', '387', '394', '395', '396', '397', '402', '404', '406', '408', '412', '430', '457', '476', '499', '502', '503', '513', '515', '522', '525', '536', '544', '545', '549', '552', '559', '593', '596', '597', '622', '624', '627', '640', '652', '655', '656', '663', '675', '682', '688', '732', '739', '740', '741', '742', '751', '760', '765', '768', '771', '773', '774', '778', '779', '798', '815', '816', '838', '840', '841', '848', '864', '865', '867', '870', '874', '881', '904', '912', '914', '916', '921', '925', '926', '948', '957', '961', '964', '965', '973', '979', '981', '991', '994', '995', '997', '999', '1000', '1001', '1002', '1007', '1008', '1018', '1019', '1024', '1025', '1030', '1032', '1055', '1059', '1070', '1075', '1076', '1081', '1102', '1103', '1105', '1130', '1134', '1143', '1147', '1154', '1167', '1176', '1180', '1202', '1206', '1207', '1208', '1217', '1224', '1233', '1234', '1236', '1243', '1246', '1250', '1254', '1257', '1263', '1266', '1267', '1269', '1271', '1278', '1282', '1287', '1289', '1293', '1298', '1300', '1301', '1306', '1321', '1323', '1324', '1328', '1340', '1343', '1345', '1351', '1358', '1369', '1373', '1375', '1390', '1391', '1394', '1395', '1397', '1405', '1421', '1423', '1430', '1433', '1436', '1437', '1446', '1463', '1472', '1473', '1478', '1480', '1483', '1493', '1494', '1495', '1505', '1529', '1548', '1556', '1562', '1578', '1585', '1594', '1603', '1606', '1621', '1625', '1631', '1632', '1639', '1643', '1646', '1649', '1650', '1651', '1652', '1667', '1673', '1684', '1696', '1703', '1706', '1709', '1718', '1730', '1748', '1773', '1783', '1787', '1795', '1801', '1803', '1822', '1828', '1830', '1843', '1849', '1853', '1860', '1863', '1865', '1867', '1870', '1871', '1877', '1883', '1891', '1893', '1899', '1900', '1911', '1919', '1922', '1927', '1941', '1949', '1971', '1976', '1977', '1978', '1987', '1989', '1997', '2000']",False,4000,True,2,3591687948,0.0,1.0,1.0
./expes/v2_2021-03-27_issda-30_2000-prng-1-w4-p2,30_issda-2000,2000,first-2000,400,20,rng,num-start-2800,2800,25726,classic,2342.553934574127,True,,True,1.0,1.0,1.0,1,"['1', '10', '13', '26', '31', '35', '38', '42', '45', '59', '62', '63', '64', '66', '67', '70', '76', '78', '93', '94', '107', '111', '117', '128', '131', '142', '152', '154', '156', '157', '159', '166', '172', '176', '181', '183', '184', '191', '193', '197', '200', '206', '216', '230', '234', '240', '245', '253', '258', '260', '261', '263', '278', '281', '283', '292', '296', '297', '299', '308', '310', '317', '323', '324', '330', '334', '335', '347', '353', '355', '374', '377', '380', '381', '385', '387', '394', '395', '396', '397', '402', '404', '406', '408', '412', '429', '430', '454', '457', '476', '489', '493', '499', '502', '503', '512', '513', '515', '522', '525', '536', '544', '545', '549', '552', '559', '562', '565', '567', '574', '577', '586', '593', '596', '597', '598', '622', '624', '627', '640', '649', '652', '655', '656', '663', '675', '682', '688', '689', '704', '718', '732', '738', '739', '740', '741', '742', '745', '751', '759', '760', '761', '765', '768', '771', '773', '774', '778', '779', '796', '798', '815', '816', '819', '838', '840', '841', '848', '859', '864', '865', '867', '870', '874', '881', '883', '887', '901', '903', '904', '910', '912', '914', '916', '921', '925', '926', '948', '951', '957', '961', '964', '965', '969', '973', '978', '979', '981', '982', '991', '994', '995', '997', '999', '1000', '1001', '1002', '1007', '1008', '1013', '1018', '1019', '1024', '1025', '1029', '1030', '1032', '1039', '1055', '1059', '1066', '1070', '1075', '1076', '1077', '1081', '1097', '1102', '1103', '1105', '1121', '1130', '1134', '1143', '1144', '1147', '1149', '1154', '1156', '1165', '1167', '1173', '1176', '1180', '1187', '1202', '1206', '1207', '1208', '1217', '1224', '1233', '1234', '1236', '1239', '1243', '1246', '1250', '1254', '1257', '1263', '1266', '1267', '1269', '1271', '1278', '1282', '1287', '1289', '1293', '1298', '1300', '1301', '1306', '1308', '1310', '1321', '1323', '1324', '1328', '1340', '1343', '1345', '1351', '1358', '1369', '1373', '1375', '1385', '1390', '1391', '1394', '1395', '1397', '1405', '1415', '1421', '1423', '1425', '1430', '1433', '1436', '1437', '1446', '1451', '1460', '1462', '1463', '1465', '1472', '1473', '1478', '1480', '1483', '1493', '1494', '1495', '1499', '1505', '1514', '1516', '1522', '1527', '1529', '1539', '1548', '1551', '1556', '1562', '1568', '1578', '1585', '1594', '1595', '1603', '1606', '1611', '1621', '1625', '1631', '1632', '1639', '1643', '1646', '1649', '1650', '1651', '1652', '1667', '1672', '1673', '1676', '1684', '1696', '1703', '1706', '1709', '1718', '1730', '1741', '1748', '1758', '1773', '1783', '1787', '1795', '1801', '1803', '1813', '1822', '1828', '1830', '1843', '1849', '1853', '1860', '1862', '1863', '1865', '1867', '1870', '1871', '1877', '1883', '1889', '1891', '1893', '1899', '1900', '1911', '1914', '1919', '1922', '1925', '1927', '1933', '1936', '1941', '1946', '1949', '1950', '1971', '1976', '1977', '1978', '1979', '1987', '1989', '1997', '2000']",False,4000,True,2,33b924de97,0.0,1.0,1.0
./expes/v2_2021-03-27_issda-30_2000-prng-1-w4-p2,30_issda-2000,2000,first-2000,300,15,rng,num-start-600,600,25726,classic,4082.0861785411835,False,,False,0,,,0,"['15', '20', '38', '41', '53', '65', '73', '76', '83', '84', '88', '89', '92', '95', '106', '114', '121', '122', '127', '128', '137', '153', '160', '167', '170', '178', '183', '185', '191', '199', '207', '212', '218', '233', '240', '251', '280', '291', '298', '307', '314', '318', '326', '331', '338', '339', '346', '348', '354', '364', '365', '377', '385', '393', '397', '400', '401', '407', '411', '414', '416', '425', '426', '427', '432', '440', '441', '442', '449', '455', '469', '475', '478', '484', '487', '496', '497', '507', '510', '511', '513', '519', '521', '532', '534', '536', '537', '550', '557', '566', '567', '569', '574', '575', '586', '591', '592', '593', '594', '595', '596', '598', '599', '600', '601', '607', '615', '622', '625', '635', '639', '645', '646', '657', '659', '662', '663', '666', '670', '679', '690', '692', '694', '703', '729', '732', '738', '743', '745', '748', '763', '782', '794', '795', '804', '812', '823', '826', '839', '841', '846', '848', '855', '861', '863', '868', '869', '877', '881', '883', '893', '899', '900', '904', '909', '910', '925', '932', '941', '948', '966', '970', '979', '981', '1005', '1008', '1013', '1017', '1022', '1037', '1042', '1063', '1066', '1077', '1082', '1084', '1095', '1100', '1119', '1122', '1126', '1144', '1158', '1167', '1171', '1173', '1174', '1193', '1194', '1206', '1220', '1227', '1241', '1243', '1261', '1266', '1271', '1283', '1285', '1286', '1296', '1300', '1301', '1313', '1316', '1326', '1328', '1335', '1336', '1338', '1340', '1341', '1346', '1376', '1380', '1383', '1387', '1393', '1405', '1429', '1436', '1444', '1451', '1470', '1478', '1499', '1506', '1510', '1526', '1530', '1568', '1582', '1585', '1588', '1597', '1606', '1620', '1634', '1638', '1640', '1641', '1642', '1648', '1653', '1665', '1669', '1676', '1694', '1698', '1702', '1710', '1720', '1722', '1731', '1737', '1738', '1751', '1759', '1765', '1766', '1773', '1777', '1781', '1782', '1784', '1790', '1803', '1807', '1822', '1825', '1832', '1835', '1843', '1845', '1846', '1853', '1862', '1871', '1878', '1880', '1890', '1894', '1900', '1901', '1905', '1915', '1930', '1932', '1934', '1935', '1956', '1959', '1966', '1968', '1970', '1972', '1976', '1979', '1988', '1989']",True,4000,True,2,c1ec558f3b,0.0,0.0,0.0
./expes/v2_2021-03-27_issda-30_2000-prng-1-w4-p2,30_issda-2000,2000,first-2000,1000,50,rng,num-start-2800,2800,25726,classic,3409.7501578330994,True,,True,1.0,1.0,1.0,1,"['1', '3', '4', '7', '8', '9', '11', '14', '22', '24', '25', '26', '30', '32', '33', '35', '36', '38', '39', '40', '42', '44', '45', '47', '48', '49', '51', '53', '56', '57', '58', '60', '64', '67', '70', '71', '76', '77', '81', '82', '86', '87', '89', '90', '93', '96', '99', '101', '102', '104', '106', '107', '108', '111', '112', '114', '116', '117', '118', '119', '121', '122', '123', '124', '125', '127', '128', '129', '130', '132', '134', '136', '137', '138', '139', '141', '144', '145', '149', '150', '153', '154', '157', '158', '159', '165', '166', '167', '168', '170', '172', '173', '174', '175', '176', '177', '178', '182', '184', '185', '186', '187', '189', '190', '192', '193', '200', '201', '204', '208', '209', '210', '211', '212', '213', '215', '218', '224', '225', '226', '230', '231', '232', '237', '240', '242', '243', '246', '247', '248', '250', '251', '252', '254', '258', '261', '263', '265', '266', '268', '269', '272', '273', '274', '281', '282', '284', '286', '287', '289', '290', '291', '293', '295', '296', '297', '299', '300', '301', '302', '305', '306', '307', '309', '310', '311', '312', '317', '318', '320', '323', '326', '331', '332', '333', '334', '335', '338', '341', '343', '345', '349', '350', '353', '358', '361', '365', '366', '369', '371', '372', '374', '375', '376', '378', '380', '384', '385', '389', '391', '392', '393', '395', '397', '398', '399', '400', '401', '403', '406', '407', '409', '410', '411', '412', '414', '415', '417', '419', '421', '422', '426', '428', '430', '431', '432', '433', '436', '437', '440', '441', '443', '446', '447', '450', '451', '452', '453', '454', '456', '457', '458', '459', '465', '467', '469', '471', '473', '474', '476', '477', '478', '481', '489', '490', '491', '493', '497', '500', '501', '504', '506', '508', '509', '511', '513', '516', '517', '519', '521', '524', '527', '530', '531', '532', '533', '534', '535', '537', '539', '540', '541', '542', '543', '544', '545', '549', '551', '553', '554', '555', '556', '557', '564', '568', '569', '570', '571', '572', '573', '575', '578', '582', '583', '585', '587', '589', '590', '594', '596', '599', '600', '601', '605', '606', '610', '611', '614', '615', '616', '617', '618', '619', '621', '623', '624', '625', '630', '631', '632', '634', '635', '639', '640', '643', '644', '647', '648', '653', '654', '663', '664', '665', '667', '668', '670', '674', '676', '679', '680', '681', '682', '687', '692', '693', '695', '697', '701', '702', '704', '705', '706', '711', '712', '716', '718', '725', '728', '729', '731', '735', '737', '738', '739', '741', '743', '745', '746', '747', '748', '749', '750', '752', '755', '757', '759', '763', '765', '771', '772', '780', '781', '782', '784', '785', '788', '791', '793', '795', '796', '798', '800', '801', '802', '804', '805', '806', '807', '808', '809', '811', '812', '813', '815', '816', '818', '819', '820', '821', '823', '828', '829', '831', '832', '842', '844', '846', '848', '850', '851', '853', '854', '855', '856', '857', '859', '861', '862', '863', '864', '865', '870', '871', '872', '876', '877', '878', '880', '882', '883', '884', '885', '886', '889', '894', '896', '902', '903', '906', '908', '913', '914', '916', '917', '920', '921', '922', '924', '925', '927', '928', '929', '930', '935', '936', '937', '939', '940', '941', '943', '944', '946', '949', '952', '953', '954', '955', '956', '958', '959', '963', '968', '969', '970', '971', '972', '973', '974', '980', '981', '982', '984', '987', '988', '989', '990', '991', '994', '995', '996', '998', '1000', '1002', '1003', '1004', '1007', '1010', '1012', '1013', '1014', '1016', '1017', '1018', '1019', '1020', '1021', '1025', '1026', '1027', '1028', '1030', '1031', '1033', '1034', '1036', '1037', '1038', '1040', '1041', '1042', '1046', '1047', '1049', '1050', '1051', '1054', '1055', '1056', '1058', '1059', '1060', '1061', '1062', '1070', '1072', '1073', '1074', '1075', '1076', '1078', '1079', '1080', '1082', '1084', '1087', '1088', '1089', '1090', '1091', '1093', '1095', '1097', '1098', '1099', '1101', '1108', '1110', '1113', '1115', '1119', '1121', '1122', '1123', '1124', '1125', '1126', '1127', '1128', '1129', '1130', '1133', '1135', '1138', '1139', '1140', '1141', '1142', '1143', '1144', '1146', '1148', '1151', '1156', '1159', '1160', '1161', '1163', '1165', '1167', '1169', '1170', '1174', '1177', '1182', '1184', '1188', '1191', '1192', '1194', '1195', '1197', '1200', '1202', '1203', '1207', '1210', '1218', '1219', '1221', '1222', '1227', '1229', '1231', '1234', '1236', '1240', '1242', '1246', '1247', '1248', '1249', '1250', '1252', '1253', '1255', '1256', '1257', '1258', '1260', '1264', '1265', '1268', '1273', '1274', '1278', '1279', '1281', '1283', '1284', '1285', '1286', '1288', '1290', '1292', '1293', '1294', '1296', '1300', '1301', '1303', '1304', '1305', '1309', '1317', '1318', '1320', '1321', '1322', '1323', '1326', '1331', '1332', '1334', '1335', '1337', '1338', '1342', '1344', '1345', '1347', '1349', '1351', '1353', '1356', '1357', '1361', '1363', '1367', '1368', '1369', '1370', '1372', '1374', '1375', '1377', '1382', '1384', '1385', '1394', '1395', '1396', '1397', '1398', '1399', '1401', '1406', '1407', '1409', '1410', '1414', '1415', '1418', '1419', '1420', '1424', '1426', '1428', '1431', '1432', '1435', '1436', '1437', '1441', '1444', '1447', '1448', '1452', '1454', '1457', '1458', '1459', '1461', '1465', '1467', '1468', '1472', '1474', '1476', '1479', '1481', '1484', '1485', '1486', '1488', '1490', '1493', '1494', '1498', '1500', '1501', '1502', '1503', '1509', '1513', '1514', '1516', '1517', '1518', '1523', '1528', '1530', '1531', '1533', '1535', '1536', '1537', '1538', '1541', '1542', '1548', '1550', '1551', '1553', '1554', '1555', '1556', '1557', '1558', '1560', '1565', '1566', '1567', '1569', '1571', '1572', '1574', '1581', '1582', '1584', '1590', '1591', '1592', '1596', '1598', '1603', '1604', '1606', '1607', '1608', '1615', '1617', '1619', '1627', '1633', '1634', '1635', '1637', '1638', '1641', '1642', '1646', '1648', '1651', '1652', '1654', '1656', '1658', '1662', '1663', '1664', '1665', '1668', '1670', '1672', '1674', '1676', '1678', '1679', '1680', '1682', '1684', '1690', '1691', '1692', '1693', '1694', '1698', '1703', '1705', '1709', '1710', '1711', '1712', '1715', '1719', '1720', '1721', '1722', '1723', '1731', '1732', '1733', '1734', '1738', '1739', '1740', '1747', '1748', '1750', '1752', '1754', '1759', '1760', '1767', '1768', '1769', '1770', '1781', '1782', '1783', '1784', '1785', '1786', '1788', '1790', '1791', '1792', '1793', '1794', '1795', '1796', '1799', '1801', '1802', '1807', '1808', '1809', '1810', '1811', '1813', '1817', '1818', '1821', '1822', '1827', '1829', '1831', '1833', '1834', '1835', '1836', '1837', '1838', '1839', '1840', '1843', '1844', '1847', '1852', '1854', '1856', '1857', '1861', '1863', '1864', '1865', '1867', '1868', '1869', '1871', '1873', '1875', '1878', '1880', '1882', '1883', '1884', '1889', '1890', '1892', '1895', '1896', '1898', '1899', '1901', '1906', '1910', '1912', '1913', '1915', '1917', '1918', '1920', '1922', '1925', '1927', '1929', '1930', '1932', '1933', '1935', '1937', '1938', '1940', '1941', '1942', '1944', '1946', '1947', '1948', '1950', '1951', '1952', '1954', '1956', '1957', '1959', '1962', '1964', '1966', '1968', '1970', '1971', '1972', '1978', '1982', '1983', '1984', '1985', '1987', '1988', '1989', '1990', '1991', '1992', '1994', '1995', '1996', '1999', '2000']",False,4000,True,2,78edf322aa,0.0,1.0,1.0
./expes/v2_2021-03-27_issda-30_2000-prng-1-w4-p2,30_issda-2000,2000,first-2000,400,20,rng,num-start-2400,2400,25726,classic,2059.4640271663666,True,,True,1.0,1.0,1.0,1,"['1', '4', '9', '25', '47', '48', '53', '56', '57', '58', '60', '77', '81', '96', '99', '102', '108', '111', '119', '121', '122', '123', '125', '127', '128', '129', '134', '138', '141', '144', '145', '149', '150', '159', '165', '166', '168', '170', '174', '176', '177', '178', '186', '187', '192', '193', '200', '208', '210', '212', '213', '226', '237', '240', '242', '246', '252', '254', '258', '261', '265', '273', '281', '296', '299', '300', '301', '305', '309', '310', '312', '320', '326', '331', '333', '338', '341', '343', '345', '349', '361', '366', '369', '371', '374', '385', '391', '397', '400', '403', '409', '410', '419', '421', '422', '426', '428', '440', '447', '452', '453', '457', '458', '465', '473', '476', '478', '491', '493', '500', '508', '509', '517', '531', '535', '539', '543', '553', '570', '571', '573', '578', '583', '589', '590', '594', '611', '614', '615', '632', '635', '639', '643', '644', '653', '664', '676', '681', '692', '697', '701', '702', '704', '705', '706', '711', '712', '716', '718', '728', '729', '735', '741', '745', '746', '747', '749', '752', '757', '763', '771', '780', '791', '796', '801', '804', '808', '809', '811', '813', '815', '816', '818', '821', '823', '851', '857', '859', '864', '870', '876', '882', '889', '903', '913', '916', '920', '929', '935', '936', '946', '949', '954', '955', '963', '968', '971', '972', '980', '981', '982', '984', '987', '989', '991', '994', '1000', '1002', '1010', '1012', '1014', '1017', '1018', '1030', '1040', '1049', '1056', '1058', '1061', '1062', '1076', '1082', '1089', '1091', '1095', '1098', '1099', '1108', '1110', '1113', '1122', '1123', '1124', '1126', '1127', '1129', '1141', '1143', '1146', '1148', '1156', '1159', '1160', '1161', '1170', '1174', '1177', '1182', '1184', '1188', '1192', '1194', '1200', '1207', '1210', '1218', '1221', '1231', '1234', '1240', '1248', '1249', '1250', '1252', '1253', '1256', '1257', '1258', '1265', '1268', '1279', '1285', '1292', '1300', '1303', '1304', '1309', '1317', '1318', '1326', '1334', '1338', '1342', '1344', '1347', '1349', '1353', '1361', '1369', '1370', '1385', '1394', '1396', '1397', '1399', '1414', '1415', '1418', '1419', '1424', '1426', '1428', '1432', '1437', '1447', '1458', '1459', '1468', '1479', '1481', '1485', '1494', '1498', '1513', '1516', '1517', '1523', '1536', '1537', '1551', '1553', '1554', '1566', '1574', '1581', '1592', '1596', '1598', '1603', '1615', '1617', '1619', '1627', '1633', '1635', '1638', '1641', '1646', '1651', '1652', '1656', '1662', '1672', '1676', '1678', '1682', '1684', '1693', '1694', '1698', '1703', '1710', '1721', '1722', '1732', '1739', '1747', '1759', '1760', '1769', '1770', '1784', '1785', '1791', '1792', '1793', '1810', '1811', '1817', '1821', '1843', '1844', '1854', '1861', '1863', '1864', '1873', '1878', '1892', '1912', '1920', '1927', '1935', '1938', '1940', '1941', '1942', '1944', '1947', '1948', '1950', '1952', '1956', '1957', '1959', '1962', '1971', '1990', '1996', '2000']",False,4000,True,2,dc5f93d174,0.0,1.0,1.0
./expes/v2_2021-03-27_issda-30_2000-prng-1-w4-p2,30_issda-2000,2000,first-2000,800,40,rng,num-start-3600,3600,25726,classic,4478.5690331459045,True,,True,1.0,1.0,1.0,1,"['2', '7', '8', '11', '12', '14', '15', '17', '18', '20', '21', '23', '24', '25', '27', '29', '31', '32', '36', '38', '40', '42', '46', '49', '53', '54', '56', '58', '59', '60', '61', '62', '68', '70', '71', '74', '80', '84', '85', '86', '87', '89', '97', '100', '102', '104', '105', '106', '108', '109', '111', '113', '116', '117', '119', '120', '121', '122', '124', '125', '130', '131', '132', '133', '134', '135', '136', '137', '141', '142', '147', '152', '153', '155', '156', '157', '161', '162', '166', '167', '170', '171', '172', '173', '174', '176', '178', '180', '182', '183', '188', '189', '192', '193', '194', '197', '198', '203', '204', '205', '209', '210', '212', '213', '218', '223', '226', '227', '228', '229', '230', '242', '243', '244', '246', '247', '249', '253', '263', '266', '271', '272', '273', '276', '277', '282', '283', '284', '285', '288', '289', '292', '295', '298', '301', '304', '305', '306', '312', '319', '322', '329', '331', '332', '333', '335', '337', '341', '345', '346', '347', '350', '351', '352', '354', '355', '361', '362', '365', '367', '371', '372', '373', '374', '375', '382', '383', '387', '388', '391', '394', '400', '405', '406', '408', '409', '411', '412', '414', '416', '420', '421', '423', '428', '430', '431', '432', '433', '438', '444', '452', '453', '455', '456', '457', '459', '460', '462', '466', '473', '474', '476', '484', '485', '488', '496', '497', '498', '499', '503', '507', '509', '515', '519', '520', '522', '526', '530', '531', '532', '533', '535', '538', '539', '547', '548', '550', '553', '557', '559', '562', '564', '567', '569', '571', '576', '581', '583', '584', '585', '590', '595', '596', '597', '599', '603', '605', '607', '610', '615', '616', '617', '620', '625', '627', '630', '631', '633', '636', '638', '642', '644', '645', '646', '651', '657', '659', '661', '662', '663', '666', '673', '674', '675', '677', '678', '684', '685', '687', '688', '691', '692', '693', '694', '698', '700', '706', '709', '711', '712', '714', '715', '723', '724', '727', '732', '734', '736', '746', '747', '748', '749', '750', '757', '758', '761', '763', '764', '765', '766', '767', '776', '777', '780', '782', '785', '786', '789', '791', '796', '797', '798', '799', '810', '811', '813', '816', '817', '818', '822', '824', '825', '826', '827', '832', '833', '835', '836', '837', '838', '840', '843', '846', '850', '853', '854', '855', '861', '863', '864', '866', '867', '868', '870', '871', '873', '875', '878', '881', '888', '892', '893', '894', '896', '899', '900', '901', '903', '910', '916', '920', '923', '925', '926', '929', '930', '934', '936', '937', '940', '946', '949', '950', '951', '952', '956', '958', '962', '964', '965', '969', '971', '973', '974', '977', '980', '981', '985', '987', '988', '1004', '1007', '1008', '1013', '1016', '1017', '1018', '1019', '1021', '1026', '1028', '1029', '1030', '1035', '1036', '1037', '1041', '1042', '1044', '1045', '1050', '1053', '1056', '1057', '1059', '1060', '1061', '1063', '1064', '1066', '1070', '1071', '1072', '1073', '1075', '1077', '1079', '1080', '1083', '1084', '1088', '1089', '1091', '1093', '1097', '1100', '1101', '1102', '1106', '1110', '1111', '1113', '1114', '1115', '1118', '1121', '1124', '1132', '1133', '1136', '1137', '1139', '1142', '1146', '1148', '1151', '1154', '1158', '1160', '1162', '1165', '1169', '1173', '1174', '1176', '1177', '1179', '1183', '1185', '1186', '1188', '1190', '1191', '1197', '1198', '1199', '1202', '1204', '1205', '1206', '1209', '1210', '1212', '1215', '1223', '1224', '1228', '1231', '1235', '1238', '1239', '1240', '1242', '1243', '1245', '1246', '1247', '1248', '1251', '1252', '1253', '1255', '1256', '1263', '1264', '1275', '1280', '1281', '1284', '1290', '1295', '1300', '1303', '1305', '1308', '1309', '1312', '1315', '1317', '1320', '1322', '1325', '1327', '1328', '1330', '1334', '1338', '1347', '1349', '1350', '1357', '1358', '1359', '1364', '1367', '1368', '1370', '1371', '1372', '1373', '1375', '1381', '1386', '1387', '1389', '1390', '1391', '1393', '1394', '1395', '1396', '1399', '1400', '1402', '1405', '1409', '1410', '1414', '1415', '1419', '1421', '1423', '1426', '1428', '1433', '1434', '1436', '1439', '1441', '1442', '1445', '1446', '1449', '1452', '1453', '1454', '1455', '1457', '1458', '1466', '1468', '1469', '1474', '1476', '1481', '1483', '1485', '1487', '1489', '1490', '1491', '1492', '1495', '1503', '1508', '1510', '1511', '1513', '1518', '1520', '1523', '1526', '1527', '1528', '1529', '1531', '1532', '1533', '1541', '1542', '1545', '1546', '1551', '1558', '1559', '1560', '1561', '1564', '1565', '1566', '1567', '1572', '1580', '1581', '1582', '1583', '1584', '1585', '1586', '1587', '1589', '1592', '1593', '1594', '1595', '1597', '1598', '1599', '1604', '1606', '1611', '1618', '1625', '1628', '1629', '1631', '1634', '1636', '1637', '1638', '1639', '1645', '1653', '1654', '1656', '1658', '1659', '1669', '1681', '1682', '1684', '1686', '1688', '1703', '1705', '1706', '1708', '1713', '1715', '1719', '1720', '1721', '1724', '1728', '1731', '1732', '1733', '1734', '1738', '1741', '1743', '1744', '1745', '1746', '1749', '1760', '1762', '1763', '1770', '1774', '1775', '1776', '1777', '1779', '1780', '1786', '1791', '1792', '1794', '1796', '1797', '1800', '1801', '1803', '1804', '1806', '1808', '1809', '1810', '1813', '1816', '1817', '1818', '1820', '1821', '1822', '1825', '1828', '1829', '1831', '1834', '1835', '1837', '1838', '1840', '1841', '1847', '1849', '1856', '1857', '1861', '1863', '1867', '1874', '1875', '1880', '1883', '1885', '1887', '1889', '1891', '1893', '1894', '1903', '1907', '1908', '1911', '1918', '1922', '1925', '1927', '1928', '1930', '1932', '1933', '1934', '1936', '1938', '1939', '1940', '1945', '1947', '1948', '1949', '1953', '1954', '1957', '1958', '1960', '1963', '1967', '1968', '1970', '1971', '1972', '1975', '1976', '1980', '1982', '1984', '1985', '1986', '1988', '1991', '1992', '1994', '1995', '1997', '1998', '2000']",False,4000,True,2,787347c4c7,0.0,1.0,1.0
./expes/v2_2021-03-27_issda-30_2000-prng-1-w4-p2,30_issda-2000,2000,first-2000,400,20,rng,num-start-1600,1600,25726,classic,1410.1908724308014,True,,True,1.0,1.0,1.0,1,"['7', '15', '20', '22', '27', '38', '41', '53', '55', '65', '71', '73', '76', '83', '84', '85', '88', '89', '92', '95', '106', '110', '114', '121', '122', '124', '127', '128', '137', '153', '154', '159', '160', '162', '164', '167', '170', '175', '178', '183', '185', '191', '195', '199', '207', '212', '218', '232', '233', '235', '238', '240', '251', '262', '280', '285', '291', '298', '307', '314', '318', '322', '326', '331', '332', '338', '339', '343', '346', '348', '354', '364', '365', '377', '385', '392', '393', '397', '400', '401', '407', '411', '414', '416', '421', '425', '426', '427', '432', '433', '440', '441', '442', '448', '449', '455', '456', '469', '475', '478', '479', '484', '487', '496', '497', '507', '510', '511', '513', '519', '521', '527', '528', '532', '534', '536', '537', '550', '552', '557', '566', '567', '569', '574', '575', '586', '591', '592', '593', '594', '595', '596', '598', '599', '600', '601', '607', '609', '615', '622', '625', '635', '638', '639', '645', '646', '657', '659', '662', '663', '666', '670', '678', '679', '690', '692', '694', '703', '711', '729', '732', '738', '743', '745', '748', '750', '763', '781', '782', '794', '795', '796', '800', '804', '809', '811', '812', '820', '823', '826', '827', '839', '841', '846', '848', '852', '855', '861', '863', '868', '869', '877', '881', '883', '889', '893', '899', '900', '901', '904', '909', '910', '925', '930', '932', '941', '948', '952', '966', '968', '970', '979', '981', '997', '1002', '1005', '1008', '1013', '1017', '1022', '1037', '1042', '1050', '1063', '1066', '1072', '1077', '1079', '1082', '1084', '1095', '1100', '1113', '1119', '1122', '1126', '1128', '1144', '1149', '1152', '1158', '1166', '1167', '1171', '1173', '1174', '1193', '1194', '1206', '1218', '1220', '1227', '1241', '1243', '1246', '1250', '1261', '1266', '1269', '1271', '1272', '1283', '1285', '1286', '1296', '1300', '1301', '1313', '1316', '1326', '1328', '1335', '1336', '1338', '1340', '1341', '1346', '1367', '1369', '1376', '1380', '1383', '1387', '1393', '1405', '1409', '1425', '1429', '1436', '1444', '1451', '1470', '1478', '1499', '1506', '1510', '1526', '1529', '1530', '1554', '1568', '1571', '1573', '1577', '1582', '1585', '1586', '1588', '1597', '1604', '1606', '1607', '1613', '1620', '1634', '1635', '1636', '1638', '1640', '1641', '1642', '1648', '1653', '1659', '1665', '1669', '1676', '1677', '1694', '1695', '1698', '1702', '1710', '1716', '1720', '1722', '1731', '1737', '1738', '1751', '1753', '1754', '1757', '1759', '1765', '1766', '1771', '1773', '1777', '1781', '1782', '1784', '1790', '1795', '1798', '1800', '1801', '1803', '1807', '1814', '1822', '1825', '1827', '1832', '1835', '1842', '1843', '1845', '1846', '1853', '1854', '1862', '1871', '1875', '1876', '1878', '1880', '1889', '1890', '1894', '1900', '1901', '1905', '1915', '1930', '1932', '1934', '1935', '1948', '1956', '1959', '1966', '1968', '1970', '1972', '1976', '1979', '1984', '1988', '1989']",False,4000,True,2,ec064e3a81,0.0,1.0,1.0
./expes/v2_2021-03-27_issda-30_2000-prng-1-w4-p2,30_issda-2000,2000,first-2000,600,30,rng,num-start-400,400,25726,classic,4052.7846672534943,False,,False,0,,,0,"['1', '3', '4', '5', '7', '17', '19', '20', '26', '28', '29', '30', '31', '32', '34', '39', '45', '47', '55', '57', '65', '68', '73', '74', '75', '78', '80', '81', '83', '84', '85', '87', '93', '94', '96', '99', '103', '119', '126', '128', '129', '131', '135', '136', '142', '144', '146', '148', '152', '162', '165', '166', '167', '169', '171', '172', '174', '179', '184', '187', '188', '192', '195', '201', '203', '204', '206', '207', '208', '215', '223', '224', '236', '237', '238', '240', '241', '244', '246', '254', '255', '256', '266', '267', '268', '272', '274', '277', '284', '286', '287', '292', '300', '301', '304', '305', '307', '310', '315', '317', '319', '320', '323', '325', '328', '330', '332', '336', '340', '342', '347', '350', '359', '366', '368', '370', '374', '377', '379', '383', '386', '387', '388', '390', '391', '392', '394', '399', '406', '407', '409', '414', '417', '419', '422', '425', '426', '432', '438', '441', '443', '445', '448', '449', '451', '452', '453', '455', '457', '461', '483', '489', '491', '492', '496', '498', '500', '514', '526', '527', '531', '532', '533', '534', '535', '553', '556', '563', '564', '565', '571', '574', '576', '578', '590', '593', '594', '595', '597', '601', '603', '613', '616', '617', '618', '619', '620', '622', '631', '636', '638', '640', '645', '648', '650', '652', '656', '660', '661', '665', '667', '668', '673', '677', '678', '682', '683', '685', '687', '688', '691', '692', '693', '697', '702', '704', '711', '718', '722', '725', '732', '734', '735', '736', '740', '741', '752', '753', '755', '759', '762', '763', '770', '775', '776', '777', '789', '795', '796', '802', '807', '809', '813', '816', '817', '823', '824', '826', '830', '832', '840', '849', '850', '851', '856', '857', '859', '862', '867', '872', '873', '874', '884', '890', '892', '894', '906', '907', '912', '913', '915', '918', '919', '923', '925', '928', '938', '939', '940', '957', '964', '966', '967', '971', '975', '976', '977', '980', '982', '986', '987', '996', '997', '998', '1000', '1001', '1003', '1009', '1011', '1013', '1015', '1019', '1020', '1021', '1022', '1032', '1034', '1041', '1042', '1048', '1058', '1063', '1067', '1068', '1069', '1072', '1075', '1076', '1077', '1081', '1083', '1085', '1091', '1095', '1102', '1107', '1108', '1112', '1113', '1115', '1120', '1121', '1122', '1124', '1129', '1132', '1140', '1144', '1147', '1149', '1150', '1155', '1157', '1163', '1164', '1166', '1167', '1176', '1179', '1180', '1188', '1194', '1195', '1198', '1199', '1203', '1204', '1208', '1209', '1218', '1222', '1223', '1233', '1234', '1235', '1236', '1237', '1241', '1242', '1245', '1246', '1249', '1250', '1252', '1254', '1255', '1267', '1271', '1272', '1277', '1281', '1284', '1286', '1291', '1297', '1298', '1299', '1301', '1306', '1308', '1309', '1312', '1313', '1314', '1320', '1321', '1325', '1330', '1333', '1339', '1343', '1345', '1347', '1353', '1357', '1364', '1369', '1373', '1378', '1380', '1384', '1385', '1387', '1390', '1391', '1392', '1393', '1394', '1395', '1396', '1400', '1401', '1408', '1411', '1415', '1429', '1431', '1433', '1435', '1437', '1438', '1442', '1445', '1446', '1447', '1448', '1453', '1455', '1459', '1464', '1466', '1470', '1471', '1472', '1474', '1486', '1490', '1493', '1495', '1496', '1497', '1499', '1505', '1514', '1519', '1530', '1533', '1535', '1536', '1541', '1546', '1548', '1552', '1553', '1555', '1561', '1572', '1582', '1592', '1597', '1604', '1606', '1608', '1615', '1616', '1618', '1623', '1625', '1628', '1634', '1635', '1638', '1639', '1640', '1645', '1646', '1649', '1651', '1653', '1655', '1657', '1660', '1663', '1664', '1669', '1671', '1674', '1676', '1683', '1684', '1685', '1690', '1691', '1694', '1696', '1698', '1699', '1700', '1701', '1708', '1712', '1716', '1717', '1721', '1723', '1726', '1729', '1730', '1731', '1732', '1734', '1740', '1742', '1744', '1747', '1749', '1752', '1756', '1765', '1766', '1769', '1773', '1777', '1780', '1783', '1785', '1786', '1790', '1791', '1792', '1793', '1796', '1798', '1811', '1813', '1819', '1824', '1827', '1832', '1834', '1840', '1841', '1842', '1844', '1848', '1849', '1850', '1853', '1860', '1861', '1864', '1870', '1872', '1875', '1876', '1878', '1879', '1880', '1881', '1882', '1884', '1885', '1888', '1889', '1890', '1891', '1892', '1908', '1911', '1913', '1918', '1919', '1922', '1939', '1940', '1942', '1945', '1946', '1953', '1969', '1972', '1973', '1974', '1978', '1980', '1982', '1983', '1988', '1996', '2000']",True,4000,True,2,0be79c2711,0.0,0.0,0.0
./expes/v2_2021-03-27_issda-30_2000-prng-1-w4-p2,30_issda-2000,2000,first-2000,1000,50,rng,num-start-4000,4000,25726,classic,4550.376552581787,True,,False,1.0,1.0,1.0,1,"['4', '5', '6', '8', '10', '11', '15', '16', '24', '27', '32', '37', '39', '40', '41', '42', '44', '46', '48', '49', '53', '55', '56', '57', '58', '59', '61', '62', '63', '64', '65', '67', '68', '70', '71', '72', '73', '74', '75', '76', '77', '81', '87', '88', '89', '91', '93', '94', '95', '99', '100', '102', '103', '104', '105', '107', '109', '110', '111', '113', '116', '117', '122', '123', '124', '125', '126', '130', '132', '135', '137', '140', '141', '142', '147', '148', '149', '157', '158', '159', '160', '164', '165', '166', '171', '176', '177', '180', '182', '184', '186', '187', '189', '190', '192', '194', '197', '199', '200', '204', '205', '209', '211', '212', '214', '215', '216', '219', '220', '221', '222', '223', '224', '226', '229', '230', '231', '233', '235', '236', '238', '242', '244', '245', '246', '248', '249', '251', '253', '254', '255', '256', '257', '260', '262', '264', '266', '267', '268', '270', '273', '275', '276', '278', '279', '280', '282', '284', '286', '290', '294', '295', '300', '301', '306', '307', '309', '311', '313', '316', '320', '322', '326', '327', '329', '330', '333', '335', '338', '345', '347', '348', '349', '350', '351', '352', '353', '355', '358', '362', '364', '366', '367', '369', '370', '372', '373', '376', '377', '378', '379', '380', '382', '383', '384', '388', '389', '391', '392', '393', '397', '400', '405', '407', '408', '409', '410', '411', '412', '414', '421', '422', '427', '428', '429', '431', '433', '434', '445', '446', '447', '448', '449', '451', '453', '455', '456', '459', '460', '461', '466', '470', '471', '475', '476', '479', '480', '481', '482', '484', '486', '487', '488', '489', '490', '491', '493', '495', '496', '501', '502', '507', '509', '512', '513', '514', '515', '518', '521', '523', '526', '529', '530', '532', '537', '540', '541', '542', '543', '544', '545', '547', '548', '550', '551', '552', '554', '555', '556', '561', '563', '564', '571', '572', '573', '581', '583', '584', '588', '589', '592', '595', '596', '598', '601', '602', '603', '606', '612', '614', '615', '616', '617', '621', '623', '624', '625', '630', '635', '638', '640', '641', '642', '643', '645', '646', '647', '648', '650', '651', '653', '656', '660', '662', '665', '667', '669', '672', '673', '674', '678', '679', '681', '682', '684', '685', '686', '690', '691', '694', '695', '696', '697', '699', '700', '704', '705', '707', '708', '710', '718', '719', '720', '721', '722', '723', '726', '731', '736', '738', '739', '741', '744', '746', '749', '752', '753', '755', '757', '758', '760', '763', '765', '767', '769', '770', '771', '772', '773', '774', '778', '779', '783', '784', '785', '786', '791', '793', '794', '797', '798', '799', '801', '802', '803', '807', '808', '809', '813', '814', '816', '818', '820', '822', '823', '825', '826', '827', '835', '836', '837', '839', '841', '846', '847', '848', '850', '851', '854', '857', '860', '861', '862', '863', '865', '867', '871', '873', '875', '878', '881', '884', '886', '890', '892', '894', '896', '898', '907', '908', '910', '911', '912', '917', '918', '922', '923', '924', '927', '931', '933', '935', '936', '938', '943', '944', '951', '952', '954', '955', '956', '957', '958', '959', '961', '964', '969', '970', '971', '972', '976', '977', '978', '981', '982', '983', '985', '986', '987', '988', '989', '991', '992', '994', '996', '998', '999', '1001', '1002', '1003', '1004', '1005', '1008', '1011', '1012', '1014', '1017', '1019', '1020', '1022', '1025', '1029', '1031', '1032', '1034', '1036', '1037', '1039', '1040', '1042', '1044', '1045', '1048', '1050', '1055', '1056', '1060', '1062', '1063', '1065', '1066', '1068', '1072', '1073', '1076', '1077', '1080', '1081', '1084', '1085', '1086', '1090', '1094', '1095', '1097', '1098', '1099', '1100', '1101', '1102', '1104', '1108', '1109', '1110', '1113', '1114', '1115', '1116', '1121', '1124', '1126', '1127', '1129', '1132', '1134', '1135', '1136', '1137', '1138', '1140', '1141', '1145', '1146', '1147', '1150', '1152', '1155', '1156', '1160', '1161', '1162', '1164', '1165', '1166', '1168', '1170', '1172', '1175', '1176', '1178', '1180', '1182', '1186', '1188', '1189', '1190', '1195', '1197', '1198', '1199', '1200', '1201', '1202', '1204', '1206', '1207', '1208', '1209', '1211', '1213', '1214', '1218', '1219', '1220', '1222', '1224', '1227', '1228', '1229', '1231', '1232', '1237', '1238', '1240', '1241', '1243', '1245', '1247', '1251', '1254', '1259', '1262', '1265', '1266', '1267', '1269', '1271', '1274', '1275', '1276', '1277', '1281', '1282', '1284', '1285', '1286', '1287', '1288', '1289', '1293', '1294', '1295', '1297', '1298', '1299', '1300', '1301', '1304', '1309', '1315', '1316', '1317', '1319', '1320', '1321', '1323', '1325', '1327', '1328', '1330', '1331', '1332', '1337', '1339', '1340', '1341', '1343', '1347', '1349', '1351', '1353', '1356', '1357', '1358', '1363', '1366', '1368', '1373', '1375', '1376', '1377', '1378', '1380', '1381', '1383', '1384', '1385', '1388', '1389', '1390', '1392', '1393', '1395', '1396', '1397', '1398', '1401', '1405', '1407', '1410', '1413', '1415', '1416', '1417', '1421', '1422', '1423', '1424', '1425', '1427', '1428', '1429', '1430', '1431', '1432', '1433', '1434', '1436', '1437', '1440', '1441', '1444', '1445', '1446', '1448', '1456', '1460', '1462', '1463', '1465', '1466', '1467', '1468', '1469', '1470', '1471', '1472', '1473', '1474', '1476', '1477', '1481', '1489', '1490', '1491', '1492', '1493', '1496', '1499', '1501', '1503', '1504', '1506', '1512', '1515', '1516', '1519', '1520', '1521', '1523', '1527', '1531', '1532', '1533', '1534', '1540', '1541', '1542', '1543', '1544', '1545', '1546', '1549', '1550', '1551', '1552', '1553', '1554', '1557', '1560', '1572', '1575', '1578', '1581', '1582', '1586', '1588', '1589', '1591', '1592', '1595', '1596', '1597', '1598', '1601', '1602', '1603', '1604', '1612', '1613', '1614', '1615', '1617', '1620', '1622', '1623', '1626', '1629', '1635', '1636', '1637', '1640', '1641', '1642', '1645', '1646', '1647', '1651', '1652', '1653', '1654', '1658', '1659', '1660', '1662', '1663', '1665', '1666', '1669', '1671', '1673', '1674', '1679', '1682', '1683', '1684', '1686', '1687', '1696', '1704', '1706', '1707', '1708', '1710', '1712', '1713', '1714', '1716', '1718', '1719', '1724', '1726', '1728', '1729', '1732', '1735', '1739', '1741', '1743', '1744', '1745', '1746', '1749', '1750', '1752', '1753', '1754', '1755', '1756', '1758', '1759', '1761', '1762', '1763', '1764', '1765', '1767', '1769', '1770', '1771', '1772', '1773', '1776', '1778', '1779', '1780', '1781', '1782', '1783', '1787', '1788', '1793', '1800', '1802', '1803', '1804', '1805', '1807', '1809', '1810', '1813', '1816', '1817', '1818', '1822', '1823', '1824', '1825', '1826', '1827', '1835', '1837', '1838', '1839', '1842', '1843', '1844', '1847', '1851', '1852', '1853', '1856', '1862', '1864', '1866', '1870', '1872', '1875', '1876', '1878', '1879', '1885', '1886', '1887', '1888', '1889', '1892', '1893', '1897', '1899', '1900', '1902', '1903', '1904', '1905', '1909', '1911', '1913', '1914', '1915', '1916', '1917', '1918', '1921', '1923', '1924', '1926', '1927', '1928', '1930', '1931', '1932', '1934', '1935', '1936', '1939', '1941', '1944', '1945', '1946', '1947', '1948', '1951', '1953', '1956', '1957', '1958', '1961', '1962', '1964', '1965', '1967', '1968', '1969', '1970', '1973', '1975', '1976', '1978', '1980', '1981', '1985', '1986', '1987', '1989', '1990', '1991', '1993', '1995', '1997']",True,4000,True,2,6b99d9f5b1,0.0,0.0,1.0
./expes/v2_2021-03-27_issda-30_2000-prng-1-w4-p2,30_issda-2000,2000,first-2000,100,5,rng,num-start-2400,2400,25726,classic,869.9812979698181,True,,True,1.0,1.0,1.0,1,"['15', '41', '53', '89', '95', '121', '137', '167', '178', '183', '185', '212', '218', '318', '331', '338', '354', '365', '397', '400', '440', '455', '478', '484', '507', '510', '532', '534', '537', '557', '567', '574', '575', '591', '593', '594', '598', '615', '622', '625', '635', '639', '692', '738', '763', '795', '812', '823', '848', '868', '883', '925', '948', '970', '981', '1037', '1042', '1063', '1066', '1095', '1100', '1122', '1126', '1173', '1227', '1241', '1283', '1285', '1313', '1328', '1376', '1444', '1478', '1499', '1568', '1597', '1634', '1640', '1653', '1665', '1676', '1694', '1698', '1722', '1731', '1737', '1738', '1751', '1773', '1777', '1803', '1807', '1862', '1880', '1900', '1915', '1930', '1932', '1935', '1968']",False,4000,True,2,6fce76489f,0.0,1.0,1.0
./expes/v2_2021-03-27_issda-30_2000-prng-1-w4-p2,30_issda-2000,2000,first-2000,500,25,rng,num-start-3600,3600,25726,classic,3189.118872642517,True,,True,1.0,1.0,1.0,1,"['2', '8', '11', '12', '14', '15', '17', '18', '25', '27', '31', '32', '36', '38', '40', '46', '49', '53', '54', '56', '59', '60', '61', '62', '70', '71', '74', '80', '84', '85', '89', '97', '100', '104', '106', '108', '109', '111', '113', '119', '121', '124', '125', '130', '132', '133', '135', '136', '137', '141', '142', '153', '155', '156', '161', '166', '167', '170', '171', '172', '173', '174', '176', '178', '180', '182', '189', '192', '194', '197', '203', '204', '205', '209', '212', '213', '218', '223', '226', '227', '228', '229', '230', '242', '246', '247', '249', '263', '266', '271', '272', '273', '282', '283', '284', '285', '289', '292', '298', '304', '305', '306', '322', '332', '333', '337', '345', '347', '350', '351', '354', '355', '361', '372', '382', '383', '387', '388', '394', '405', '406', '408', '409', '411', '416', '420', '428', '430', '431', '433', '438', '452', '453', '455', '456', '460', '466', '473', '474', '484', '485', '488', '498', '499', '507', '509', '515', '519', '526', '531', '538', '539', '547', '548', '550', '553', '562', '564', '567', '569', '576', '584', '595', '597', '603', '607', '615', '616', '617', '620', '630', '633', '646', '651', '659', '663', '666', '674', '675', '677', '684', '685', '687', '692', '693', '700', '709', '711', '712', '715', '724', '727', '747', '749', '750', '757', '761', '763', '764', '765', '776', '777', '782', '785', '786', '789', '791', '796', '797', '813', '816', '818', '822', '824', '825', '826', '833', '840', '843', '854', '855', '861', '864', '866', '870', '871', '878', '881', '888', '893', '900', '901', '910', '916', '920', '923', '925', '926', '929', '934', '936', '940', '946', '949', '950', '956', '958', '964', '971', '973', '974', '980', '985', '988', '1004', '1007', '1008', '1013', '1016', '1018', '1019', '1026', '1029', '1030', '1035', '1037', '1045', '1053', '1060', '1061', '1064', '1070', '1073', '1080', '1084', '1097', '1101', '1106', '1110', '1111', '1114', '1115', '1118', '1121', '1124', '1132', '1136', '1137', '1139', '1146', '1148', '1151', '1154', '1158', '1160', '1165', '1174', '1176', '1177', '1179', '1186', '1188', '1190', '1197', '1199', '1205', '1206', '1209', '1210', '1212', '1215', '1223', '1224', '1228', '1235', '1238', '1239', '1240', '1242', '1243', '1245', '1246', '1247', '1248', '1251', '1252', '1253', '1256', '1263', '1275', '1280', '1281', '1284', '1290', '1300', '1305', '1309', '1315', '1317', '1322', '1327', '1334', '1350', '1359', '1368', '1372', '1373', '1375', '1381', '1386', '1389', '1391', '1396', '1399', '1400', '1409', '1410', '1419', '1426', '1428', '1433', '1434', '1436', '1441', '1442', '1445', '1452', '1453', '1458', '1466', '1474', '1476', '1485', '1487', '1490', '1492', '1495', '1503', '1508', '1510', '1511', '1518', '1527', '1528', '1529', '1531', '1542', '1558', '1560', '1564', '1565', '1566', '1567', '1580', '1581', '1583', '1586', '1587', '1589', '1593', '1598', '1599', '1604', '1606', '1611', '1618', '1625', '1628', '1631', '1636', '1637', '1638', '1639', '1645', '1654', '1658', '1659', '1669', '1681', '1686', '1706', '1708', '1715', '1728', '1732', '1733', '1743', '1745', '1746', '1760', '1762', '1770', '1775', '1776', '1777', '1780', '1786', '1791', '1792', '1794', '1796', '1797', '1800', '1801', '1803', '1804', '1806', '1810', '1816', '1817', '1818', '1821', '1822', '1828', '1829', '1834', '1835', '1837', '1840', '1841', '1847', '1856', '1857', '1863', '1867', '1880', '1883', '1885', '1887', '1891', '1893', '1894', '1907', '1918', '1922', '1925', '1927', '1928', '1933', '1934', '1938', '1939', '1940', '1948', '1949', '1954', '1957', '1958', '1963', '1968', '1970', '1971', '1972', '1975', '1980', '1982', '1984', '1997', '1998', '2000']",False,4000,True,2,bd2d897d06,0.0,1.0,1.0
./expes/v2_2021-03-27_issda-30_2000-prng-1-w4-p2,30_issda-2000,2000,first-2000,800,40,rng,num-start-2000,2000,25726,classic,2107.4439766407013,True,,True,1.0,1.0,1.0,1,"['4', '8', '13', '14', '16', '17', '18', '22', '23', '26', '27', '35', '36', '39', '40', '43', '45', '49', '50', '51', '53', '56', '58', '59', '61', '63', '64', '67', '71', '76', '78', '81', '82', '88', '90', '93', '95', '101', '104', '106', '107', '108', '109', '116', '117', '119', '121', '125', '128', '132', '138', '146', '147', '148', '149', '150', '151', '153', '160', '166', '169', '170', '172', '173', '175', '179', '186', '187', '191', '199', '201', '202', '208', '210', '211', '212', '218', '222', '223', '225', '231', '232', '234', '236', '238', '240', '242', '245', '250', '251', '253', '256', '258', '260', '265', '270', '272', '275', '276', '277', '279', '280', '282', '284', '289', '290', '291', '292', '293', '297', '298', '300', '301', '304', '308', '311', '318', '319', '320', '325', '330', '333', '335', '336', '344', '347', '348', '349', '351', '352', '354', '355', '361', '363', '365', '368', '369', '373', '375', '377', '380', '385', '387', '388', '390', '393', '395', '399', '401', '402', '403', '404', '405', '408', '409', '410', '411', '413', '419', '420', '421', '423', '424', '425', '428', '429', '431', '432', '433', '435', '439', '451', '452', '455', '458', '460', '463', '466', '467', '468', '469', '471', '473', '475', '478', '482', '489', '490', '492', '495', '496', '504', '507', '512', '513', '516', '517', '522', '523', '526', '529', '531', '532', '534', '536', '538', '540', '545', '546', '549', '550', '551', '555', '560', '561', '562', '566', '567', '568', '569', '570', '571', '572', '573', '574', '578', '579', '580', '584', '585', '587', '588', '594', '597', '599', '600', '601', '607', '608', '611', '614', '617', '626', '628', '630', '632', '635', '636', '637', '638', '639', '640', '641', '644', '648', '651', '658', '660', '661', '663', '669', '671', '673', '676', '677', '681', '687', '688', '689', '690', '691', '696', '697', '699', '700', '702', '704', '705', '710', '712', '714', '717', '718', '724', '725', '727', '728', '729', '730', '734', '735', '736', '737', '738', '740', '741', '742', '743', '744', '745', '746', '747', '748', '749', '751', '752', '753', '755', '761', '763', '767', '768', '775', '776', '778', '779', '781', '782', '787', '788', '789', '790', '796', '797', '800', '801', '803', '805', '807', '808', '810', '814', '818', '819', '820', '821', '825', '829', '831', '832', '834', '835', '837', '845', '848', '850', '851', '856', '858', '861', '862', '866', '867', '868', '869', '875', '879', '881', '884', '886', '888', '889', '892', '893', '898', '901', '902', '904', '909', '912', '919', '920', '928', '932', '934', '936', '939', '941', '942', '943', '944', '952', '954', '958', '962', '967', '972', '974', '976', '977', '978', '981', '985', '986', '989', '991', '994', '995', '997', '1000', '1003', '1004', '1005', '1007', '1008', '1009', '1012', '1013', '1021', '1024', '1025', '1026', '1027', '1028', '1029', '1030', '1032', '1033', '1035', '1039', '1043', '1048', '1049', '1052', '1053', '1056', '1057', '1058', '1059', '1063', '1065', '1066', '1067', '1068', '1070', '1071', '1074', '1077', '1078', '1080', '1081', '1083', '1084', '1088', '1092', '1094', '1095', '1096', '1098', '1099', '1101', '1102', '1105', '1108', '1109', '1110', '1113', '1115', '1119', '1120', '1123', '1124', '1125', '1126', '1127', '1130', '1135', '1137', '1138', '1141', '1143', '1144', '1147', '1151', '1154', '1156', '1157', '1164', '1166', '1168', '1169', '1174', '1181', '1183', '1189', '1190', '1202', '1203', '1206', '1208', '1209', '1215', '1217', '1221', '1226', '1227', '1230', '1232', '1234', '1235', '1243', '1244', '1245', '1247', '1248', '1252', '1255', '1262', '1264', '1265', '1266', '1268', '1269', '1271', '1272', '1273', '1275', '1276', '1279', '1280', '1285', '1286', '1289', '1295', '1296', '1299', '1302', '1305', '1307', '1310', '1312', '1313', '1316', '1318', '1320', '1327', '1331', '1332', '1335', '1338', '1340', '1344', '1347', '1349', '1351', '1354', '1355', '1356', '1357', '1359', '1360', '1365', '1367', '1369', '1370', '1371', '1372', '1376', '1377', '1380', '1384', '1388', '1389', '1390', '1391', '1392', '1395', '1396', '1398', '1400', '1402', '1403', '1404', '1405', '1407', '1409', '1410', '1411', '1412', '1414', '1415', '1419', '1422', '1425', '1426', '1428', '1430', '1432', '1435', '1436', '1444', '1446', '1455', '1463', '1465', '1466', '1467', '1473', '1477', '1487', '1488', '1498', '1500', '1504', '1505', '1507', '1510', '1514', '1520', '1523', '1526', '1530', '1533', '1534', '1538', '1540', '1543', '1544', '1548', '1550', '1551', '1552', '1556', '1558', '1560', '1561', '1565', '1567', '1568', '1570', '1575', '1579', '1581', '1582', '1585', '1588', '1592', '1596', '1606', '1607', '1609', '1611', '1613', '1616', '1617', '1618', '1621', '1622', '1623', '1625', '1629', '1631', '1632', '1634', '1635', '1638', '1639', '1640', '1641', '1642', '1646', '1651', '1654', '1655', '1657', '1659', '1660', '1662', '1665', '1669', '1671', '1677', '1678', '1679', '1681', '1682', '1685', '1688', '1690', '1692', '1693', '1701', '1702', '1704', '1705', '1707', '1710', '1711', '1712', '1714', '1716', '1718', '1719', '1722', '1723', '1724', '1726', '1727', '1728', '1729', '1731', '1732', '1734', '1735', '1739', '1740', '1747', '1751', '1753', '1758', '1760', '1761', '1762', '1763', '1766', '1767', '1771', '1773', '1774', '1779', '1781', '1788', '1789', '1802', '1806', '1807', '1812', '1814', '1816', '1818', '1822', '1824', '1829', '1832', '1835', '1836', '1838', '1839', '1845', '1846', '1849', '1850', '1851', '1856', '1857', '1858', '1863', '1865', '1866', '1868', '1874', '1875', '1877', '1878', '1882', '1885', '1892', '1893', '1895', '1897', '1899', '1900', '1908', '1909', '1911', '1912', '1913', '1915', '1918', '1920', '1921', '1925', '1926', '1928', '1933', '1934', '1939', '1941', '1945', '1951', '1952', '1955', '1958', '1959', '1960', '1964', '1965', '1968', '1971', '1972', '1975', '1978', '1979', '1981', '1982', '1989', '1990', '1992', '1999', '2000']",False,4000,True,2,0933b9d4bf,0.0,1.0,1.0
./expes/v2_2021-03-27_issda-30_2000-prng-1-w4-p2,30_issda-2000,2000,first-2000,500,25,rng,num-start-1000,1000,25726,classic,4139.125756978989,True,,False,1.0,1.0,1.0,1,"['1', '2', '10', '14', '20', '23', '24', '26', '30', '31', '32', '34', '35', '37', '40', '41', '44', '46', '51', '61', '62', '65', '69', '72', '74', '75', '80', '84', '85', '86', '87', '92', '96', '97', '98', '108', '122', '123', '124', '130', '132', '137', '138', '141', '142', '144', '148', '149', '150', '151', '152', '153', '154', '155', '160', '161', '165', '171', '172', '174', '175', '179', '180', '185', '186', '189', '193', '203', '206', '207', '213', '221', '222', '224', '232', '237', '239', '242', '259', '261', '266', '267', '269', '270', '276', '278', '279', '280', '284', '288', '289', '291', '294', '300', '316', '323', '325', '327', '347', '348', '360', '361', '364', '366', '367', '375', '379', '382', '384', '386', '389', '390', '391', '401', '403', '404', '406', '407', '409', '411', '415', '418', '420', '428', '430', '432', '435', '436', '437', '438', '439', '450', '459', '464', '468', '471', '472', '479', '487', '489', '495', '496', '498', '505', '511', '514', '521', '523', '524', '525', '527', '529', '546', '552', '553', '558', '564', '567', '570', '574', '576', '578', '592', '596', '601', '603', '607', '617', '622', '623', '633', '636', '637', '638', '639', '646', '649', '654', '657', '669', '670', '674', '677', '678', '682', '690', '700', '702', '703', '709', '719', '721', '726', '733', '742', '754', '756', '762', '769', '772', '777', '784', '786', '788', '791', '792', '795', '796', '803', '806', '808', '809', '812', '814', '821', '829', '830', '834', '840', '841', '843', '848', '853', '855', '859', '860', '862', '864', '883', '903', '905', '906', '913', '915', '917', '923', '926', '927', '928', '929', '932', '937', '938', '948', '950', '951', '953', '954', '963', '966', '968', '970', '973', '974', '975', '982', '985', '988', '989', '991', '996', '998', '1006', '1012', '1017', '1019', '1021', '1024', '1025', '1030', '1041', '1043', '1049', '1050', '1051', '1054', '1062', '1063', '1064', '1065', '1066', '1069', '1083', '1088', '1096', '1097', '1104', '1106', '1109', '1119', '1127', '1129', '1135', '1146', '1147', '1154', '1156', '1160', '1165', '1169', '1172', '1174', '1177', '1182', '1190', '1194', '1195', '1197', '1203', '1209', '1211', '1214', '1220', '1222', '1226', '1229', '1232', '1233', '1237', '1245', '1247', '1250', '1251', '1253', '1258', '1259', '1261', '1262', '1275', '1277', '1280', '1282', '1285', '1289', '1290', '1291', '1299', '1300', '1303', '1304', '1310', '1311', '1312', '1313', '1315', '1319', '1330', '1332', '1334', '1337', '1339', '1340', '1342', '1346', '1352', '1357', '1364', '1377', '1383', '1389', '1390', '1397', '1402', '1403', '1404', '1407', '1416', '1421', '1422', '1429', '1431', '1434', '1436', '1442', '1443', '1448', '1450', '1452', '1457', '1463', '1467', '1476', '1479', '1480', '1486', '1492', '1497', '1499', '1501', '1506', '1510', '1514', '1515', '1516', '1534', '1537', '1544', '1546', '1547', '1549', '1553', '1570', '1576', '1583', '1594', '1595', '1596', '1598', '1600', '1620', '1622', '1625', '1632', '1633', '1646', '1647', '1651', '1654', '1659', '1675', '1676', '1679', '1684', '1687', '1688', '1698', '1700', '1701', '1702', '1704', '1705', '1715', '1717', '1719', '1721', '1725', '1726', '1734', '1736', '1739', '1746', '1750', '1752', '1755', '1756', '1769', '1771', '1774', '1775', '1785', '1788', '1801', '1802', '1803', '1807', '1813', '1818', '1824', '1825', '1827', '1829', '1835', '1836', '1844', '1845', '1854', '1855', '1856', '1861', '1864', '1865', '1873', '1874', '1879', '1886', '1890', '1892', '1893', '1896', '1899', '1904', '1906', '1909', '1910', '1914', '1918', '1926', '1934', '1940', '1946', '1961', '1963', '1965', '1972', '1974', '1975', '1976', '1989', '1993', '1997']",True,4000,True,2,bb5f47a33e,0.0,0.0,1.0
./expes/v2_2021-03-27_issda-30_2000-prng-1-w4-p2,30_issda-2000,2000,first-2000,100,5,rng,num-start-1000,1000,25726,classic,1182.2841849327087,True,,True,1.0,1.0,1.0,1,"['77', '96', '99', '102', '119', '122', '123', '127', '129', '144', '149', '150', '168', '177', '186', '193', '200', '212', '242', '254', '273', '296', '309', '338', '369', '371', '385', '422', '440', '453', '458', '493', '500', '509', '590', '594', '614', '615', '632', '644', '664', '704', '741', '749', '763', '809', '813', '857', '859', '870', '876', '889', '920', '929', '954', '1014', '1017', '1040', '1049', '1076', '1089', '1098', '1108', '1122', '1129', '1141', '1148', '1156', '1159', '1170', '1177', '1182', '1192', '1194', '1200', '1248', '1268', '1285', '1292', '1309', '1334', '1394', '1397', '1432', '1459', '1494', '1551', '1592', '1598', '1627', '1672', '1682', '1694', '1759', '1793', '1864', '1892', '1941', '1942', '2000']",False,4000,True,2,09590c5e6d,0.0,1.0,1.0
./expes/v2_2021-03-27_issda-30_2000-prng-1-w4-p2,30_issda-2000,2000,first-2000,200,10,rng,num-start-1600,1600,25726,classic,2259.9764392375946,True,,True,1.0,1.0,1.0,1,"['1', '2', '10', '20', '23', '31', '32', '35', '41', '61', '62', '74', '86', '87', '108', '122', '123', '130', '137', '144', '150', '151', '153', '171', '175', '179', '185', '186', '193', '206', '207', '221', '222', '239', '242', '261', '269', '276', '278', '291', '300', '316', '323', '364', '375', '379', '382', '384', '386', '389', '390', '391', '401', '407', '428', '430', '432', '436', '437', '438', '471', '479', '496', '498', '505', '521', '529', '553', '570', '592', '596', '603', '607', '622', '623', '638', '646', '669', '674', '682', '690', '756', '762', '769', '786', '791', '792', '808', '809', '812', '814', '821', '834', '840', '859', '860', '862', '903', '905', '915', '917', '926', '927', '928', '929', '937', '951', '953', '954', '963', '975', '991', '998', '1024', '1041', '1043', '1049', '1051', '1064', '1083', '1104', '1129', '1146', '1147', '1154', '1160', '1177', '1182', '1194', '1203', '1211', '1214', '1220', '1229', '1232', '1233', '1250', '1258', '1261', '1275', '1277', '1285', '1290', '1300', '1304', '1312', '1315', '1319', '1332', '1340', '1342', '1357', '1383', '1397', '1403', '1421', '1448', '1450', '1452', '1499', '1514', '1553', '1570', '1576', '1583', '1594', '1595', '1600', '1625', '1633', '1646', '1647', '1659', '1701', '1704', '1705', '1721', '1726', '1734', '1736', '1750', '1752', '1755', '1771', '1774', '1775', '1802', '1813', '1824', '1865', '1890', '1893', '1899', '1909', '1963', '1965', '1975', '1976', '1989', '1997']",False,4000,True,2,4afbf30777,0.0,1.0,1.0
