expe,clients,clients_size,clients_subset,agg_size,agg_size_pc,method,days,days_size,days_total,noise_method,time,valid,valid_sum,success,score_avg,score_min,score_max,nsols,oracle,wall_hit,wall_time,pooled,pool_size,uuid,infeasible,optimal,valid_sums
./expes/v2_2021-03-27_issda-30_2000-prng-1-w4-p2,30_issda-2000,2000,first-2000,300,15,rng,num-start-600,600,25726,classic,4078.4172084331512,False,,False,0,,,0,"['1', '4', '22', '36', '40', '43', '52', '57', '58', '65', '72', '88', '95', '105', '106', '112', '127', '137', '141', '144', '149', '158', '171', '184', '185', '191', '194', '195', '196', '199', '201', '210', '212', '218', '219', '229', '234', '236', '243', '249', '252', '258', '264', '267', '289', '294', '300', '301', '307', '325', '330', '332', '338', '345', '350', '353', '372', '374', '387', '395', '397', '405', '408', '411', '419', '426', '434', '447', '455', '456', '458', '472', '484', '502', '506', '507', '510', '513', '516', '522', '524', '525', '526', '530', '534', '539', '540', '542', '545', '547', '555', '556', '562', '564', '571', '575', '577', '579', '597', '620', '621', '634', '640', '644', '647', '661', '680', '691', '696', '712', '724', '729', '734', '739', '746', '749', '751', '754', '755', '756', '780', '783', '787', '792', '795', '807', '808', '813', '827', '831', '833', '844', '856', '858', '867', '871', '874', '880', '896', '899', '904', '912', '917', '921', '922', '927', '933', '942', '956', '960', '961', '962', '963', '965', '972', '984', '993', '994', '997', '998', '1000', '1002', '1005', '1025', '1026', '1038', '1041', '1053', '1058', '1069', '1077', '1080', '1086', '1096', '1109', '1111', '1116', '1119', '1130', '1134', '1142', '1147', '1150', '1166', '1167', '1171', '1184', '1186', '1195', '1201', '1207', '1219', '1220', '1221', '1237', '1245', '1255', '1261', '1262', '1279', '1287', '1294', '1296', '1298', '1306', '1313', '1315', '1318', '1321', '1322', '1325', '1327', '1335', '1336', '1345', '1346', '1349', '1360', '1363', '1369', '1377', '1393', '1402', '1404', '1406', '1407', '1418', '1439', '1441', '1442', '1444', '1454', '1478', '1486', '1504', '1506', '1517', '1519', '1530', '1547', '1551', '1560', '1585', '1588', '1593', '1608', '1613', '1634', '1635', '1648', '1654', '1655', '1656', '1676', '1680', '1686', '1687', '1691', '1694', '1698', '1720', '1724', '1750', '1762', '1770', '1772', '1773', '1776', '1784', '1788', '1791', '1792', '1815', '1835', '1836', '1837', '1847', '1861', '1862', '1864', '1875', '1879', '1886', '1888', '1902', '1908', '1911', '1912', '1913', '1914', '1918', '1924', '1926', '1930', '1934', '1951', '1959', '1965', '1967', '1995']",True,4000,True,2,7712c15da9,0.0,0.0,0.0
./expes/v2_2021-03-27_issda-30_2000-prng-1-w4-p2,30_issda-2000,2000,first-2000,500,25,rng,num-start-1400,1400,25726,classic,1280.915774822235,True,,True,1.0,1.0,1.0,1,"['4', '5', '12', '18', '19', '22', '26', '30', '35', '36', '37', '38', '43', '45', '46', '49', '53', '56', '58', '59', '60', '61', '63', '67', '71', '73', '77', '78', '81', '82', '83', '90', '94', '98', '115', '121', '129', '130', '132', '134', '143', '145', '150', '157', '168', '171', '174', '178', '188', '193', '198', '203', '205', '206', '210', '211', '214', '221', '222', '223', '225', '234', '235', '236', '237', '242', '248', '257', '258', '265', '268', '273', '276', '277', '278', '300', '302', '322', '325', '326', '327', '329', '332', '336', '342', '343', '345', '346', '348', '349', '352', '355', '363', '371', '379', '381', '385', '386', '389', '398', '409', '410', '411', '412', '421', '422', '426', '429', '430', '435', '437', '444', '446', '449', '452', '455', '458', '459', '462', '465', '469', '471', '473', '476', '478', '481', '482', '491', '495', '498', '512', '517', '519', '520', '523', '530', '546', '547', '549', '551', '552', '559', '568', '576', '577', '582', '594', '595', '597', '603', '604', '606', '607', '608', '611', '612', '622', '628', '632', '636', '639', '642', '645', '650', '651', '656', '657', '658', '660', '667', '672', '679', '681', '682', '694', '695', '697', '699', '704', '705', '706', '708', '709', '711', '724', '731', '747', '748', '752', '754', '759', '768', '775', '777', '778', '779', '781', '786', '792', '799', '802', '806', '807', '809', '814', '817', '824', '828', '829', '833', '847', '849', '853', '863', '865', '873', '874', '880', '885', '887', '892', '897', '899', '913', '921', '922', '924', '928', '932', '938', '939', '941', '942', '944', '962', '968', '971', '977', '984', '986', '993', '994', '1000', '1002', '1003', '1009', '1015', '1016', '1017', '1023', '1024', '1026', '1029', '1033', '1034', '1035', '1037', '1040', '1042', '1043', '1045', '1050', '1053', '1058', '1063', '1067', '1073', '1081', '1091', '1095', '1103', '1106', '1107', '1109', '1112', '1116', '1122', '1123', '1124', '1127', '1128', '1129', '1133', '1136', '1140', '1149', '1150', '1154', '1156', '1157', '1160', '1166', '1168', '1169', '1175', '1180', '1184', '1185', '1188', '1197', '1202', '1204', '1207', '1210', '1211', '1212', '1215', '1222', '1229', '1230', '1232', '1237', '1241', '1245', '1248', '1254', '1255', '1257', '1260', '1276', '1277', '1280', '1289', '1292', '1293', '1302', '1316', '1326', '1328', '1329', '1331', '1335', '1336', '1345', '1351', '1352', '1360', '1362', '1364', '1373', '1374', '1379', '1381', '1382', '1383', '1387', '1389', '1395', '1406', '1408', '1424', '1426', '1439', '1440', '1441', '1442', '1444', '1457', '1458', '1465', '1473', '1478', '1483', '1486', '1487', '1488', '1494', '1496', '1501', '1511', '1512', '1517', '1522', '1524', '1545', '1548', '1555', '1559', '1562', '1565', '1572', '1573', '1578', '1579', '1589', '1593', '1595', '1597', '1598', '1602', '1603', '1605', '1609', '1611', '1612', '1615', '1616', '1618', '1631', '1633', '1634', '1636', '1643', '1644', '1646', '1648', '1652', '1658', '1662', '1666', '1673', '1674', '1676', '1679', '1681', '1692', '1696', '1697', '1700', '1705', '1712', '1716', '1721', '1723', '1724', '1731', '1734', '1736', '1738', '1742', '1744', '1748', '1756', '1757', '1759', '1762', '1764', '1774', '1777', '1778', '1782', '1786', '1794', '1800', '1805', '1808', '1813', '1815', '1818', '1825', '1830', '1835', '1837', '1843', '1845', '1847', '1863', '1864', '1865', '1866', '1871', '1873', '1877', '1879', '1885', '1889', '1895', '1896', '1897', '1898', '1907', '1910', '1918', '1921', '1922', '1924', '1927', '1928', '1933', '1934', '1936', '1946', '1950', '1951', '1955', '1956', '1961', '1966', '1971', '1976', '1978', '1981', '1983', '1985', '1987', '1988', '1994', '1995', '1998', '1999']",False,4000,True,2,6f2741b64f,0.0,1.0,1.0
./expes/v2_2021-03-27_issda-30_2000-prng-1-w4-p2,30_issda-2000,2000,first-2000,1000,50,rng,num-start-4000,4000,25726,classic,4556.922611713409,True,,False,1.0,1.0,1.0,1,"['6', '7', '8', '9', '11', '12', '15', '16', '21', '25', '26', '28', '29', '30', '31', '33', '34', '36', '39', '46', '48', '52', '54', '56', '57', '59', '64', '65', '66', '67', '68', '69', '71', '73', '74', '75', '76', '77', '85', '86', '87', '88', '89', '90', '91', '92', '95', '98', '99', '100', '102', '103', '104', '107', '108', '109', '110', '113', '114', '116', '118', '120', '121', '122', '123', '124', '129', '133', '134', '135', '136', '139', '140', '143', '144', '145', '147', '148', '151', '152', '154', '156', '159', '160', '161', '164', '165', '166', '167', '170', '172', '175', '177', '181', '182', '183', '186', '187', '190', '194', '196', '197', '198', '199', '203', '205', '211', '215', '217', '219', '220', '223', '224', '232', '235', '237', '238', '239', '241', '243', '245', '246', '247', '248', '253', '256', '257', '260', '261', '262', '263', '267', '268', '273', '275', '278', '279', '285', '286', '289', '290', '291', '294', '299', '301', '306', '307', '308', '310', '312', '313', '314', '315', '316', '317', '318', '320', '321', '324', '325', '329', '331', '334', '335', '337', '338', '339', '340', '341', '342', '345', '346', '347', '348', '350', '351', '352', '355', '357', '358', '359', '360', '361', '362', '364', '365', '366', '367', '374', '375', '377', '381', '382', '384', '387', '388', '390', '391', '392', '393', '394', '395', '397', '399', '400', '401', '407', '408', '410', '413', '415', '422', '423', '426', '428', '429', '430', '433', '434', '439', '447', '451', '453', '454', '457', '458', '459', '460', '465', '466', '469', '470', '474', '481', '482', '483', '487', '489', '490', '491', '492', '494', '495', '496', '497', '501', '502', '503', '505', '506', '508', '509', '512', '518', '519', '522', '524', '526', '531', '532', '533', '534', '537', '538', '540', '544', '545', '547', '552', '554', '557', '562', '563', '568', '569', '570', '579', '581', '582', '585', '587', '589', '590', '591', '593', '594', '596', '599', '600', '601', '603', '604', '607', '608', '612', '613', '614', '617', '619', '620', '621', '622', '627', '628', '630', '631', '632', '636', '637', '638', '642', '644', '646', '649', '650', '655', '656', '659', '660', '662', '665', '667', '670', '671', '672', '673', '674', '680', '682', '684', '686', '688', '694', '695', '698', '700', '702', '703', '704', '708', '712', '713', '714', '715', '716', '717', '718', '719', '721', '724', '725', '728', '729', '730', '731', '732', '735', '737', '738', '739', '740', '743', '747', '750', '751', '752', '753', '755', '766', '767', '769', '771', '772', '776', '778', '779', '782', '783', '788', '790', '791', '792', '795', '796', '797', '798', '800', '803', '804', '806', '807', '811', '812', '813', '814', '817', '818', '819', '820', '821', '822', '825', '827', '829', '830', '831', '833', '834', '836', '837', '841', '846', '848', '849', '851', '852', '854', '857', '858', '860', '861', '862', '863', '864', '866', '867', '868', '869', '874', '876', '877', '879', '880', '881', '882', '887', '888', '889', '891', '892', '893', '894', '896', '897', '899', '900', '901', '904', '905', '906', '910', '911', '913', '915', '916', '917', '918', '921', '923', '924', '925', '930', '931', '933', '934', '936', '938', '939', '940', '941', '942', '944', '946', '947', '948', '949', '950', '951', '952', '956', '957', '958', '959', '962', '963', '965', '968', '970', '972', '974', '975', '976', '977', '978', '979', '981', '983', '984', '986', '988', '989', '990', '993', '994', '996', '1001', '1002', '1003', '1004', '1005', '1007', '1010', '1014', '1016', '1018', '1023', '1024', '1026', '1027', '1028', '1030', '1033', '1038', '1040', '1041', '1044', '1046', '1047', '1051', '1052', '1056', '1058', '1059', '1060', '1065', '1066', '1067', '1069', '1070', '1071', '1072', '1075', '1076', '1082', '1087', '1088', '1089', '1091', '1093', '1096', '1097', '1099', '1100', '1103', '1104', '1106', '1107', '1108', '1109', '1110', '1113', '1116', '1117', '1125', '1126', '1128', '1129', '1130', '1131', '1138', '1139', '1140', '1144', '1145', '1146', '1147', '1151', '1153', '1156', '1157', '1158', '1160', '1161', '1162', '1164', '1167', '1168', '1169', '1171', '1172', '1173', '1177', '1179', '1180', '1182', '1184', '1185', '1188', '1190', '1191', '1193', '1194', '1198', '1200', '1203', '1206', '1207', '1210', '1212', '1213', '1216', '1219', '1220', '1222', '1224', '1225', '1226', '1232', '1233', '1234', '1235', '1236', '1238', '1240', '1241', '1242', '1243', '1245', '1246', '1247', '1248', '1249', '1250', '1256', '1257', '1259', '1265', '1267', '1268', '1270', '1275', '1279', '1281', '1282', '1283', '1284', '1285', '1286', '1288', '1291', '1293', '1295', '1297', '1299', '1301', '1303', '1305', '1308', '1309', '1310', '1311', '1314', '1315', '1317', '1324', '1325', '1326', '1329', '1331', '1335', '1336', '1337', '1338', '1339', '1340', '1345', '1346', '1347', '1348', '1349', '1351', '1353', '1356', '1359', '1361', '1363', '1364', '1366', '1371', '1373', '1380', '1381', '1383', '1387', '1392', '1394', '1395', '1396', '1400', '1402', '1405', '1406', '1408', '1413', '1415', '1416', '1418', '1420', '1421', '1424', '1425', '1428', '1430', '1431', '1434', '1435', '1436', '1437', '1438', '1440', '1441', '1444', '1445', '1447', '1453', '1455', '1458', '1459', '1460', '1461', '1462', '1463', '1464', '1466', '1471', '1473', '1474', '1475', '1476', '1478', '1479', '1480', '1481', '1482', '1484', '1488', '1489', '1490', '1494', '1495', '1502', '1503', '1508', '1513', '1515', '1517', '1522', '1523', '1524', '1526', '1527', '1528', '1535', '1539', '1541', '1543', '1544', '1545', '1546', '1550', '1551', '1555', '1556', '1559', '1560', '1561', '1563', '1564', '1565', '1570', '1571', '1572', '1573', '1575', '1577', '1579', '1580', '1582', '1583', '1584', '1587', '1589', '1590', '1592', '1593', '1595', '1597', '1604', '1612', '1613', '1615', '1616', '1617', '1620', '1624', '1626', '1631', '1632', '1633', '1638', '1639', '1641', '1643', '1645', '1648', '1650', '1653', '1654', '1655', '1656', '1657', '1659', '1661', '1662', '1664', '1666', '1667', '1670', '1671', '1673', '1674', '1675', '1676', '1679', '1680', '1681', '1682', '1685', '1686', '1687', '1688', '1689', '1690', '1691', '1694', '1695', '1698', '1699', '1700', '1705', '1707', '1708', '1709', '1710', '1712', '1713', '1714', '1715', '1717', '1718', '1725', '1729', '1735', '1736', '1737', '1740', '1741', '1742', '1743', '1744', '1746', '1748', '1749', '1750', '1751', '1752', '1756', '1759', '1761', '1762', '1763', '1766', '1768', '1771', '1772', '1773', '1776', '1781', '1783', '1785', '1786', '1790', '1791', '1792', '1794', '1795', '1796', '1797', '1800', '1802', '1803', '1805', '1808', '1813', '1815', '1818', '1819', '1821', '1822', '1823', '1825', '1826', '1830', '1831', '1835', '1837', '1839', '1840', '1841', '1842', '1845', '1846', '1847', '1851', '1852', '1853', '1856', '1858', '1860', '1862', '1863', '1864', '1865', '1866', '1870', '1871', '1872', '1874', '1875', '1878', '1881', '1882', '1883', '1884', '1886', '1887', '1889', '1890', '1893', '1896', '1897', '1900', '1903', '1905', '1907', '1910', '1911', '1912', '1916', '1917', '1918', '1921', '1923', '1927', '1928', '1930', '1932', '1935', '1936', '1937', '1941', '1943', '1946', '1948', '1949', '1951', '1952', '1955', '1956', '1958', '1959', '1962', '1965', '1966', '1967', '1968', '1969', '1971', '1973', '1974', '1976', '1984', '1985', '1986', '1987', '1988', '1993', '1995', '1997', '1999']",True,4000,True,2,5304f6d9a1,0.0,0.0,1.0
./expes/v2_2021-03-27_issda-30_2000-prng-1-w4-p2,30_issda-2000,2000,first-2000,300,15,rng,num-start-200,200,25726,classic,4026.3564190864563,False,,False,0,,,0,"['2', '8', '11', '14', '17', '25', '27', '31', '36', '38', '49', '53', '61', '71', '84', '85', '89', '100', '104', '106', '111', '113', '125', '130', '135', '136', '137', '141', '166', '171', '172', '173', '174', '178', '180', '182', '192', '197', '204', '209', '212', '226', '228', '229', '230', '242', '247', '249', '263', '272', '273', '282', '284', '285', '289', '292', '298', '304', '306', '322', '332', '333', '337', '345', '347', '351', '354', '355', '361', '382', '394', '405', '406', '408', '409', '416', '420', '428', '430', '431', '438', '455', '456', '460', '473', '485', '488', '509', '531', '538', '539', '547', '548', '550', '553', '562', '567', '569', '576', '584', '595', '597', '603', '607', '630', '666', '674', '677', '685', '693', '700', '709', '712', '715', '727', '749', '750', '757', '764', '765', '776', '777', '782', '785', '786', '796', '797', '813', '816', '822', '824', '825', '843', '861', '864', '866', '870', '871', '878', '888', '910', '923', '925', '926', '936', '949', '950', '971', '985', '988', '1008', '1013', '1018', '1019', '1026', '1030', '1035', '1037', '1045', '1060', '1070', '1084', '1097', '1101', '1106', '1118', '1124', '1136', '1137', '1139', '1146', '1148', '1151', '1158', '1160', '1174', '1177', '1179', '1186', '1188', '1197', '1205', '1209', '1210', '1212', '1215', '1223', '1224', '1239', '1242', '1243', '1245', '1247', '1248', '1252', '1253', '1256', '1263', '1290', '1309', '1327', '1334', '1359', '1368', '1381', '1386', '1400', '1409', '1410', '1419', '1426', '1434', '1436', '1441', '1442', '1445', '1452', '1453', '1466', '1474', '1485', '1487', '1492', '1508', '1510', '1511', '1527', '1528', '1529', '1531', '1558', '1566', '1567', '1581', '1583', '1586', '1587', '1593', '1598', '1599', '1606', '1611', '1618', '1625', '1628', '1636', '1638', '1645', '1654', '1658', '1659', '1669', '1681', '1728', '1732', '1733', '1743', '1745', '1746', '1760', '1762', '1770', '1775', '1777', '1780', '1786', '1794', '1801', '1803', '1806', '1816', '1817', '1818', '1822', '1828', '1834', '1835', '1840', '1856', '1857', '1867', '1880', '1883', '1887', '1891', '1893', '1918', '1925', '1928', '1938', '1939', '1940', '1948', '1949', '1958', '1963', '1970', '1975', '1980', '1998']",True,4000,True,2,1047e19b03,0.0,0.0,0.0
./expes/v2_2021-03-27_issda-30_2000-prng-1-w4-p2,30_issda-2000,2000,first-2000,1000,50,rng,num-start-3200,3200,25726,classic,3528.055837869644,True,,True,1.0,1.0,1.0,1,"['4', '7', '8', '9', '10', '11', '13', '18', '19', '22', '24', '26', '33', '36', '37', '38', '40', '41', '44', '49', '50', '51', '52', '57', '58', '60', '61', '63', '64', '65', '66', '69', '70', '73', '74', '75', '77', '79', '81', '84', '86', '89', '94', '95', '96', '97', '98', '100', '101', '102', '105', '109', '110', '111', '113', '116', '117', '120', '121', '123', '124', '126', '127', '130', '133', '135', '137', '139', '144', '145', '146', '148', '149', '150', '151', '152', '155', '157', '158', '159', '164', '165', '167', '169', '170', '173', '174', '177', '178', '180', '183', '186', '188', '189', '191', '192', '193', '194', '195', '197', '201', '204', '205', '206', '207', '208', '209', '210', '213', '214', '216', '218', '222', '228', '230', '232', '236', '238', '239', '243', '245', '250', '252', '261', '262', '263', '264', '265', '268', '270', '271', '272', '274', '275', '277', '278', '280', '282', '283', '284', '286', '287', '288', '290', '291', '292', '295', '296', '297', '301', '307', '309', '310', '311', '315', '320', '321', '322', '323', '325', '326', '329', '331', '333', '334', '337', '341', '343', '347', '348', '350', '353', '354', '355', '356', '358', '359', '361', '362', '364', '370', '372', '373', '377', '380', '382', '385', '389', '391', '392', '393', '394', '399', '402', '406', '407', '409', '412', '414', '416', '419', '420', '423', '425', '426', '427', '428', '431', '432', '434', '435', '436', '437', '438', '440', '441', '442', '443', '444', '446', '449', '452', '453', '455', '456', '459', '460', '461', '462', '465', '466', '467', '468', '470', '473', '474', '475', '476', '477', '478', '481', '484', '485', '487', '488', '489', '492', '493', '494', '495', '502', '505', '506', '508', '510', '511', '512', '513', '514', '515', '516', '519', '520', '521', '522', '523', '524', '525', '526', '527', '529', '531', '532', '536', '537', '538', '541', '545', '547', '550', '551', '557', '558', '559', '560', '562', '568', '569', '571', '572', '573', '574', '575', '579', '583', '584', '586', '588', '594', '596', '598', '604', '605', '607', '608', '610', '613', '620', '622', '623', '627', '631', '632', '634', '635', '636', '639', '640', '641', '642', '643', '645', '648', '649', '653', '654', '657', '658', '659', '665', '666', '669', '672', '674', '675', '678', '679', '683', '684', '686', '689', '690', '691', '692', '693', '698', '699', '700', '701', '702', '703', '705', '707', '709', '712', '718', '719', '725', '730', '733', '735', '736', '737', '738', '739', '740', '742', '743', '746', '747', '750', '751', '753', '757', '761', '762', '763', '764', '765', '766', '768', '770', '773', '775', '777', '779', '782', '784', '785', '788', '790', '791', '794', '799', '800', '801', '802', '803', '804', '805', '806', '807', '809', '810', '816', '819', '820', '822', '823', '825', '826', '828', '829', '830', '833', '834', '838', '842', '844', '845', '846', '850', '851', '854', '857', '858', '859', '860', '861', '862', '867', '868', '872', '876', '881', '882', '883', '889', '890', '894', '896', '899', '903', '904', '906', '907', '909', '911', '912', '913', '916', '917', '918', '919', '925', '928', '929', '930', '931', '932', '933', '934', '936', '937', '938', '941', '943', '945', '949', '951', '952', '953', '954', '955', '956', '957', '958', '961', '962', '964', '966', '968', '969', '970', '971', '973', '974', '976', '977', '979', '981', '983', '987', '988', '989', '991', '992', '994', '995', '996', '997', '998', '1001', '1002', '1004', '1005', '1008', '1010', '1015', '1016', '1020', '1021', '1023', '1025', '1026', '1029', '1030', '1033', '1034', '1039', '1040', '1041', '1042', '1043', '1045', '1046', '1047', '1048', '1049', '1052', '1053', '1054', '1055', '1056', '1058', '1061', '1062', '1064', '1065', '1067', '1070', '1071', '1072', '1073', '1074', '1075', '1076', '1077', '1078', '1081', '1083', '1087', '1090', '1091', '1092', '1093', '1097', '1102', '1103', '1104', '1106', '1107', '1108', '1109', '1111', '1112', '1114', '1115', '1116', '1117', '1119', '1121', '1122', '1124', '1128', '1130', '1140', '1142', '1143', '1145', '1147', '1148', '1150', '1152', '1156', '1157', '1160', '1163', '1166', '1171', '1175', '1177', '1180', '1182', '1188', '1189', '1190', '1191', '1198', '1200', '1201', '1205', '1206', '1208', '1211', '1212', '1216', '1218', '1219', '1222', '1224', '1225', '1233', '1235', '1240', '1241', '1242', '1243', '1251', '1253', '1254', '1255', '1257', '1260', '1261', '1262', '1263', '1267', '1269', '1273', '1274', '1275', '1276', '1277', '1278', '1279', '1281', '1283', '1285', '1286', '1288', '1290', '1295', '1297', '1298', '1301', '1303', '1304', '1305', '1306', '1307', '1308', '1310', '1313', '1314', '1315', '1317', '1320', '1322', '1324', '1327', '1328', '1329', '1330', '1332', '1335', '1338', '1339', '1340', '1342', '1349', '1350', '1351', '1353', '1354', '1356', '1359', '1361', '1362', '1364', '1366', '1368', '1370', '1371', '1372', '1373', '1374', '1378', '1382', '1383', '1384', '1386', '1390', '1391', '1393', '1394', '1395', '1396', '1397', '1398', '1402', '1403', '1404', '1407', '1408', '1412', '1413', '1414', '1417', '1419', '1420', '1422', '1425', '1432', '1433', '1436', '1439', '1440', '1441', '1442', '1443', '1444', '1445', '1446', '1447', '1449', '1451', '1454', '1456', '1457', '1458', '1460', '1461', '1462', '1463', '1465', '1466', '1467', '1468', '1469', '1470', '1472', '1473', '1474', '1475', '1476', '1477', '1479', '1481', '1482', '1483', '1484', '1487', '1491', '1492', '1493', '1494', '1497', '1498', '1500', '1504', '1505', '1508', '1509', '1513', '1516', '1521', '1525', '1526', '1528', '1532', '1535', '1537', '1538', '1539', '1540', '1541', '1544', '1545', '1546', '1547', '1548', '1556', '1557', '1558', '1560', '1561', '1563', '1566', '1568', '1569', '1570', '1571', '1573', '1574', '1580', '1582', '1584', '1588', '1592', '1595', '1600', '1603', '1604', '1606', '1607', '1611', '1613', '1615', '1616', '1618', '1622', '1623', '1627', '1629', '1630', '1631', '1632', '1634', '1635', '1636', '1637', '1639', '1641', '1642', '1644', '1646', '1647', '1648', '1651', '1652', '1656', '1657', '1659', '1662', '1664', '1666', '1668', '1669', '1670', '1671', '1672', '1675', '1677', '1679', '1680', '1681', '1684', '1685', '1686', '1687', '1688', '1689', '1690', '1691', '1703', '1707', '1708', '1711', '1712', '1713', '1714', '1715', '1716', '1718', '1722', '1732', '1734', '1738', '1739', '1741', '1743', '1746', '1749', '1754', '1755', '1758', '1759', '1760', '1762', '1764', '1766', '1767', '1768', '1770', '1774', '1779', '1781', '1783', '1784', '1785', '1791', '1792', '1794', '1796', '1798', '1799', '1800', '1804', '1805', '1806', '1807', '1809', '1811', '1812', '1813', '1815', '1818', '1819', '1822', '1827', '1831', '1833', '1834', '1840', '1841', '1842', '1843', '1845', '1846', '1848', '1849', '1850', '1852', '1855', '1857', '1859', '1860', '1861', '1865', '1867', '1868', '1873', '1874', '1875', '1876', '1877', '1878', '1880', '1882', '1885', '1886', '1887', '1888', '1889', '1890', '1892', '1895', '1897', '1903', '1904', '1909', '1910', '1914', '1915', '1916', '1917', '1919', '1920', '1922', '1923', '1926', '1927', '1930', '1931', '1932', '1933', '1934', '1935', '1937', '1941', '1942', '1943', '1944', '1945', '1946', '1955', '1956', '1958', '1961', '1962', '1964', '1965', '1966', '1968', '1969', '1970', '1971', '1973', '1976', '1980', '1981', '1983', '1985', '1986', '1988', '1989', '1990', '1992', '1995']",False,4000,True,2,f9474c7f23,0.0,1.0,1.0
./expes/v2_2021-03-27_issda-30_2000-prng-1-w4-p2,30_issda-2000,2000,first-2000,400,20,rng,num-start-1200,1200,25726,classic,3835.017278432846,True,,True,1.0,1.0,1.0,1,"['1', '2', '10', '20', '23', '24', '26', '30', '31', '32', '34', '35', '37', '41', '44', '46', '61', '62', '69', '72', '74', '80', '86', '87', '92', '96', '98', '108', '122', '123', '124', '130', '137', '138', '141', '142', '144', '148', '149', '150', '151', '152', '153', '154', '155', '160', '161', '165', '171', '172', '174', '175', '179', '180', '185', '186', '189', '193', '206', '207', '213', '221', '222', '224', '232', '237', '239', '242', '259', '261', '266', '269', '270', '276', '278', '279', '280', '284', '288', '291', '294', '300', '316', '323', '325', '348', '360', '361', '364', '375', '379', '382', '384', '386', '389', '390', '391', '401', '403', '407', '411', '415', '418', '428', '430', '432', '435', '436', '437', '438', '439', '450', '468', '471', '472', '479', '489', '495', '496', '498', '505', '511', '514', '521', '523', '524', '527', '529', '552', '553', '570', '574', '578', '592', '596', '601', '603', '607', '617', '622', '623', '636', '637', '638', '639', '646', '649', '654', '669', '670', '674', '677', '678', '682', '690', '700', '702', '719', '721', '733', '742', '754', '756', '762', '769', '777', '784', '786', '788', '791', '792', '796', '803', '808', '809', '812', '814', '821', '829', '834', '840', '843', '853', '855', '859', '860', '862', '864', '883', '903', '905', '906', '913', '915', '917', '923', '926', '927', '928', '929', '937', '938', '948', '951', '953', '954', '963', '970', '973', '975', '982', '985', '988', '989', '991', '996', '998', '1006', '1017', '1019', '1021', '1024', '1041', '1043', '1049', '1050', '1051', '1054', '1062', '1063', '1064', '1066', '1069', '1083', '1088', '1104', '1109', '1119', '1129', '1135', '1146', '1147', '1154', '1160', '1172', '1174', '1177', '1182', '1190', '1194', '1195', '1197', '1203', '1209', '1211', '1214', '1220', '1222', '1226', '1229', '1232', '1233', '1237', '1247', '1250', '1251', '1253', '1258', '1259', '1261', '1262', '1275', '1277', '1280', '1285', '1289', '1290', '1299', '1300', '1303', '1304', '1310', '1312', '1315', '1319', '1332', '1339', '1340', '1342', '1346', '1352', '1357', '1364', '1383', '1389', '1397', '1403', '1404', '1407', '1416', '1421', '1422', '1431', '1436', '1442', '1443', '1448', '1450', '1452', '1476', '1486', '1492', '1497', '1499', '1501', '1506', '1510', '1514', '1515', '1516', '1534', '1537', '1544', '1546', '1553', '1570', '1576', '1583', '1594', '1595', '1598', '1600', '1620', '1625', '1633', '1646', '1647', '1651', '1659', '1675', '1687', '1701', '1704', '1705', '1717', '1721', '1726', '1734', '1736', '1746', '1750', '1752', '1755', '1756', '1769', '1771', '1774', '1775', '1785', '1802', '1803', '1807', '1813', '1824', '1825', '1827', '1836', '1844', '1845', '1854', '1855', '1861', '1865', '1873', '1874', '1879', '1886', '1890', '1892', '1893', '1899', '1904', '1906', '1909', '1914', '1918', '1926', '1934', '1940', '1946', '1961', '1963', '1965', '1972', '1974', '1975', '1976', '1989', '1993', '1997']",False,4000,True,2,5099abb7e7,0.0,1.0,1.0
./expes/v2_2021-03-27_issda-30_2000-prng-1-w4-p2,30_issda-2000,2000,first-2000,800,40,rng,num-start-1800,1800,25726,classic,1949.731654882431,True,,True,1.0,1.0,1.0,1,"['1', '3', '4', '6', '7', '10', '11', '13', '20', '21', '22', '24', '26', '27', '29', '31', '35', '38', '40', '42', '45', '58', '59', '62', '63', '64', '66', '67', '68', '70', '73', '76', '78', '82', '85', '93', '94', '103', '104', '106', '107', '111', '112', '116', '117', '118', '120', '121', '122', '123', '125', '126', '128', '130', '131', '137', '140', '142', '145', '152', '153', '154', '156', '157', '159', '160', '161', '166', '170', '172', '176', '178', '180', '181', '183', '184', '185', '186', '190', '191', '192', '193', '194', '197', '200', '206', '208', '209', '213', '215', '216', '223', '225', '227', '229', '230', '233', '234', '235', '240', '245', '246', '248', '252', '253', '256', '258', '260', '261', '262', '263', '270', '272', '273', '276', '278', '280', '281', '283', '286', '291', '292', '296', '297', '299', '302', '303', '306', '308', '309', '310', '312', '316', '317', '318', '323', '324', '325', '329', '330', '333', '334', '335', '337', '346', '347', '349', '352', '353', '355', '359', '361', '362', '365', '373', '374', '376', '377', '379', '380', '381', '385', '386', '387', '391', '394', '395', '396', '397', '398', '402', '403', '404', '406', '407', '408', '412', '414', '418', '429', '430', '439', '442', '443', '446', '449', '453', '454', '457', '458', '461', '462', '464', '472', '475', '476', '479', '489', '493', '498', '499', '501', '502', '503', '512', '513', '515', '516', '517', '519', '522', '523', '524', '525', '536', '539', '540', '541', '544', '545', '549', '552', '554', '557', '559', '560', '562', '563', '565', '567', '569', '570', '574', '577', '586', '588', '593', '596', '597', '598', '602', '603', '613', '616', '620', '622', '623', '624', '625', '627', '634', '640', '649', '652', '655', '656', '657', '663', '667', '674', '675', '678', '681', '682', '688', '689', '692', '693', '698', '704', '705', '709', '717', '718', '719', '721', '732', '736', '738', '739', '740', '741', '742', '744', '745', '747', '751', '752', '753', '759', '760', '761', '763', '765', '767', '768', '771', '773', '774', '778', '779', '780', '781', '787', '788', '792', '796', '798', '799', '806', '815', '816', '818', '819', '827', '829', '834', '835', '838', '840', '841', '844', '848', '849', '856', '859', '864', '865', '867', '870', '872', '873', '874', '879', '881', '882', '883', '887', '893', '897', '899', '900', '901', '903', '904', '909', '910', '912', '913', '914', '916', '919', '921', '925', '926', '928', '933', '934', '938', '939', '948', '950', '951', '957', '961', '964', '965', '968', '969', '971', '973', '975', '978', '979', '980', '981', '982', '983', '984', '989', '991', '994', '995', '996', '997', '999', '1000', '1001', '1002', '1007', '1008', '1013', '1015', '1018', '1019', '1024', '1025', '1026', '1029', '1030', '1032', '1033', '1035', '1038', '1039', '1040', '1052', '1055', '1059', '1060', '1065', '1066', '1068', '1070', '1075', '1076', '1077', '1078', '1080', '1081', '1088', '1089', '1093', '1097', '1100', '1102', '1103', '1105', '1107', '1109', '1110', '1112', '1113', '1114', '1116', '1117', '1118', '1121', '1129', '1130', '1134', '1139', '1141', '1143', '1144', '1147', '1149', '1154', '1155', '1156', '1158', '1165', '1166', '1167', '1169', '1172', '1173', '1175', '1176', '1180', '1182', '1187', '1198', '1202', '1205', '1206', '1207', '1208', '1210', '1212', '1213', '1214', '1215', '1217', '1218', '1220', '1224', '1233', '1234', '1236', '1239', '1243', '1246', '1248', '1250', '1253', '1254', '1257', '1258', '1262', '1263', '1266', '1267', '1268', '1269', '1271', '1274', '1275', '1278', '1281', '1282', '1283', '1284', '1287', '1288', '1289', '1292', '1293', '1298', '1300', '1301', '1306', '1307', '1308', '1310', '1312', '1315', '1317', '1319', '1320', '1321', '1322', '1323', '1324', '1328', '1331', '1333', '1334', '1340', '1341', '1343', '1344', '1345', '1351', '1355', '1356', '1357', '1358', '1359', '1360', '1362', '1366', '1367', '1369', '1373', '1375', '1380', '1385', '1387', '1390', '1391', '1394', '1395', '1397', '1401', '1405', '1406', '1409', '1411', '1414', '1415', '1416', '1418', '1421', '1422', '1423', '1425', '1430', '1433', '1436', '1437', '1438', '1439', '1442', '1444', '1446', '1449', '1451', '1457', '1459', '1460', '1462', '1463', '1465', '1468', '1470', '1472', '1473', '1474', '1478', '1480', '1483', '1484', '1488', '1490', '1491', '1492', '1493', '1494', '1495', '1499', '1503', '1504', '1505', '1511', '1514', '1516', '1518', '1522', '1524', '1526', '1527', '1529', '1530', '1534', '1537', '1539', '1542', '1543', '1547', '1548', '1551', '1553', '1555', '1556', '1557', '1561', '1562', '1563', '1564', '1567', '1568', '1572', '1574', '1576', '1578', '1585', '1588', '1591', '1592', '1594', '1595', '1596', '1598', '1603', '1606', '1611', '1613', '1620', '1621', '1625', '1628', '1629', '1631', '1632', '1634', '1639', '1642', '1643', '1646', '1647', '1649', '1650', '1651', '1652', '1656', '1658', '1663', '1667', '1670', '1671', '1672', '1673', '1675', '1676', '1677', '1680', '1684', '1696', '1697', '1701', '1703', '1705', '1706', '1709', '1712', '1715', '1717', '1718', '1722', '1724', '1725', '1729', '1730', '1731', '1741', '1747', '1748', '1751', '1752', '1758', '1760', '1761', '1765', '1770', '1773', '1777', '1781', '1782', '1783', '1785', '1787', '1793', '1795', '1800', '1801', '1803', '1807', '1808', '1809', '1810', '1811', '1813', '1819', '1821', '1822', '1823', '1825', '1828', '1829', '1830', '1831', '1836', '1842', '1843', '1849', '1853', '1860', '1862', '1863', '1865', '1867', '1868', '1870', '1871', '1877', '1878', '1883', '1884', '1887', '1889', '1891', '1893', '1894', '1898', '1899', '1900', '1902', '1903', '1911', '1913', '1914', '1919', '1921', '1922', '1925', '1927', '1931', '1933', '1936', '1937', '1941', '1942', '1943', '1946', '1948', '1949', '1950', '1954', '1963', '1971', '1976', '1977', '1978', '1979', '1981', '1982', '1984', '1985', '1986', '1987', '1988', '1989', '1990', '1992', '1994', '1995', '1997', '1998', '2000']",False,4000,True,2,49b16bcf16,0.0,1.0,1.0
./expes/v2_2021-03-27_issda-30_2000-prng-1-w4-p2,30_issda-2000,2000,first-2000,600,30,rng,num-start-2400,2400,25726,classic,2394.465394973755,True,,True,1.0,1.0,1.0,1,"['2', '4', '6', '7', '11', '19', '21', '24', '27', '28', '30', '34', '38', '41', '45', '47', '49', '53', '55', '57', '60', '66', '68', '71', '74', '75', '76', '82', '86', '90', '96', '100', '101', '107', '111', '115', '117', '118', '121', '129', '130', '134', '136', '138', '141', '148', '161', '162', '166', '175', '183', '187', '188', '189', '195', '209', '219', '221', '222', '227', '228', '231', '232', '236', '243', '244', '250', '251', '253', '259', '260', '265', '268', '271', '272', '273', '274', '276', '280', '285', '289', '290', '291', '292', '293', '294', '299', '301', '304', '305', '306', '307', '315', '317', '322', '326', '327', '328', '331', '339', '340', '341', '346', '347', '352', '354', '361', '364', '366', '368', '369', '370', '371', '372', '373', '375', '379', '380', '392', '397', '401', '403', '404', '407', '408', '419', '420', '425', '427', '429', '437', '442', '444', '449', '464', '472', '487', '488', '499', '503', '504', '505', '511', '513', '514', '515', '517', '524', '525', '533', '541', '543', '548', '549', '555', '558', '561', '562', '565', '571', '573', '574', '576', '579', '580', '586', '587', '592', '593', '597', '600', '601', '602', '604', '605', '606', '608', '612', '616', '617', '618', '620', '622', '627', '628', '630', '634', '635', '637', '640', '643', '645', '647', '649', '650', '651', '654', '667', '668', '678', '680', '683', '685', '689', '693', '694', '696', '697', '698', '705', '706', '708', '713', '717', '718', '720', '721', '727', '728', '729', '731', '733', '735', '740', '742', '743', '745', '747', '750', '753', '757', '762', '764', '766', '770', '771', '773', '777', '778', '779', '780', '783', '784', '785', '787', '790', '798', '803', '804', '817', '827', '828', '830', '831', '832', '836', '837', '839', '840', '848', '850', '851', '854', '858', '859', '862', '864', '872', '876', '880', '885', '887', '890', '897', '904', '909', '912', '922', '928', '929', '934', '947', '948', '949', '951', '953', '954', '958', '961', '963', '966', '968', '972', '973', '975', '977', '978', '980', '982', '983', '984', '985', '986', '987', '989', '991', '995', '997', '1000', '1003', '1004', '1008', '1009', '1011', '1017', '1020', '1023', '1025', '1030', '1050', '1051', '1056', '1058', '1062', '1070', '1075', '1085', '1086', '1090', '1091', '1093', '1102', '1103', '1105', '1109', '1114', '1117', '1118', '1121', '1123', '1125', '1127', '1133', '1134', '1138', '1146', '1148', '1155', '1156', '1159', '1170', '1176', '1179', '1185', '1190', '1193', '1200', '1201', '1202', '1204', '1208', '1209', '1210', '1217', '1219', '1221', '1230', '1231', '1236', '1237', '1246', '1247', '1251', '1253', '1257', '1259', '1260', '1264', '1265', '1266', '1271', '1274', '1275', '1276', '1278', '1279', '1282', '1284', '1285', '1290', '1292', '1293', '1295', '1305', '1308', '1316', '1320', '1321', '1323', '1326', '1328', '1329', '1330', '1331', '1332', '1334', '1336', '1352', '1353', '1356', '1357', '1360', '1364', '1369', '1374', '1376', '1380', '1389', '1397', '1398', '1404', '1405', '1408', '1410', '1411', '1412', '1415', '1417', '1423', '1424', '1427', '1437', '1439', '1443', '1444', '1446', '1450', '1451', '1460', '1467', '1471', '1472', '1474', '1475', '1476', '1477', '1478', '1480', '1495', '1496', '1498', '1499', '1501', '1512', '1516', '1517', '1518', '1520', '1521', '1523', '1526', '1527', '1533', '1536', '1548', '1553', '1555', '1556', '1558', '1561', '1569', '1577', '1585', '1587', '1589', '1590', '1595', '1596', '1599', '1600', '1601', '1602', '1610', '1614', '1622', '1629', '1633', '1634', '1636', '1642', '1643', '1654', '1663', '1665', '1666', '1673', '1675', '1677', '1679', '1682', '1684', '1689', '1693', '1694', '1697', '1700', '1703', '1711', '1713', '1714', '1718', '1722', '1723', '1724', '1725', '1727', '1729', '1731', '1745', '1746', '1749', '1751', '1753', '1759', '1761', '1769', '1775', '1776', '1777', '1778', '1779', '1782', '1785', '1787', '1795', '1796', '1800', '1804', '1819', '1821', '1826', '1827', '1829', '1830', '1831', '1833', '1837', '1841', '1846', '1848', '1850', '1866', '1868', '1872', '1877', '1878', '1881', '1889', '1892', '1893', '1904', '1916', '1917', '1918', '1920', '1921', '1924', '1928', '1930', '1931', '1932', '1936', '1937', '1945', '1946', '1948', '1950', '1951', '1953', '1955', '1957', '1959', '1960', '1961', '1963', '1966', '1967', '1968', '1969', '1970', '1976', '1977', '1980', '1983', '1984', '1992', '1993', '1998', '1999', '2000']",False,4000,True,2,dbc34f563b,0.0,1.0,1.0
./expes/v2_2021-03-27_issda-30_2000-prng-1-w4-p2,30_issda-2000,2000,first-2000,200,10,rng,num-start-1000,1000,25726,classic,538.1139996051788,True,,True,1.0,1.0,1.0,1,"['6', '9', '11', '31', '66', '67', '71', '73', '76', '90', '91', '92', '104', '129', '133', '134', '148', '156', '164', '166', '190', '198', '203', '223', '232', '245', '273', '275', '279', '285', '294', '307', '312', '321', '325', '329', '338', '340', '341', '357', '358', '361', '366', '392', '400', '423', '459', '460', '483', '489', '491', '492', '495', '497', '503', '512', '537', '538', '547', '557', '563', '569', '581', '617', '620', '621', '644', '655', '665', '672', '680', '712', '715', '716', '717', '728', '740', '743', '750', '767', '769', '782', '788', '795', '800', '822', '830', '846', '849', '851', '861', '862', '863', '879', '888', '891', '893', '899', '901', '904', '905', '913', '918', '923', '930', '934', '936', '946', '948', '963', '984', '989', '1003', '1004', '1007', '1016', '1018', '1024', '1028', '1066', '1067', '1069', '1076', '1093', '1097', '1099', '1104', '1109', '1116', '1125', '1145', '1162', '1171', '1184', '1194', '1198', '1232', '1234', '1236', '1243', '1246', '1257', '1265', '1329', '1338', '1339', '1348', '1353', '1356', '1366', '1380', '1381', '1383', '1395', '1405', '1438', '1460', '1508', '1527', '1573', '1582', '1583', '1584', '1589', '1593', '1654', '1661', '1666', '1676', '1682', '1687', '1694', '1698', '1725', '1729', '1752', '1762', '1772', '1781', '1786', '1830', '1837', '1840', '1863', '1865', '1870', '1886', '1893', '1928', '1932', '1937', '1941', '1951', '1952', '1974', '1984', '1986', '1987', '1988', '1995']",False,4000,True,2,88b8e4ef7d,0.0,1.0,1.0
./expes/v2_2021-03-27_issda-30_2000-prng-1-w4-p2,30_issda-2000,2000,first-2000,200,10,rng,num-start-3600,3600,25726,classic,1823.5957856178284,True,,True,1.0,1.0,1.0,1,"['15', '20', '38', '41', '53', '88', '89', '92', '95', '114', '121', '122', '127', '128', '137', '160', '167', '170', '178', '183', '185', '199', '207', '212', '218', '233', '251', '280', '298', '314', '318', '326', '331', '338', '346', '348', '354', '364', '365', '377', '393', '397', '400', '401', '407', '416', '425', '426', '440', '455', '469', '478', '484', '487', '507', '510', '513', '532', '534', '537', '557', '566', '567', '569', '574', '575', '586', '591', '592', '593', '594', '595', '596', '598', '599', '601', '615', '622', '625', '635', '639', '657', '659', '662', '663', '670', '679', '692', '703', '729', '732', '738', '743', '745', '748', '763', '782', '795', '812', '823', '841', '846', '848', '868', '869', '883', '893', '900', '904', '910', '925', '932', '941', '948', '966', '970', '981', '1037', '1042', '1063', '1066', '1095', '1100', '1122', '1126', '1144', '1171', '1173', '1174', '1193', '1206', '1227', '1241', '1261', '1266', '1271', '1283', '1285', '1296', '1300', '1301', '1313', '1328', '1336', '1376', '1380', '1383', '1393', '1429', '1436', '1444', '1451', '1478', '1499', '1506', '1510', '1530', '1568', '1588', '1597', '1606', '1634', '1640', '1648', '1653', '1665', '1676', '1694', '1698', '1720', '1722', '1731', '1737', '1738', '1751', '1765', '1766', '1773', '1777', '1781', '1803', '1807', '1832', '1835', '1853', '1862', '1871', '1878', '1880', '1900', '1915', '1930', '1932', '1935', '1956', '1966', '1968', '1970', '1976', '1979']",False,4000,True,2,0b7580e1a9,0.0,1.0,1.0
./expes/v2_2021-03-27_issda-30_2000-prng-1-w4-p2,30_issda-2000,2000,first-2000,800,40,rng,num-start-800,800,25726,classic,4107.125960111618,False,,False,0,,,0,"['6', '8', '9', '11', '12', '15', '16', '21', '25', '26', '28', '30', '31', '33', '34', '36', '39', '48', '52', '54', '56', '57', '64', '65', '66', '67', '68', '69', '71', '73', '74', '75', '76', '77', '85', '88', '89', '90', '91', '92', '95', '98', '99', '100', '102', '103', '104', '107', '109', '110', '113', '114', '116', '122', '123', '124', '129', '133', '134', '135', '139', '140', '143', '144', '145', '147', '148', '151', '152', '154', '156', '160', '161', '164', '165', '166', '167', '172', '175', '181', '182', '183', '186', '187', '190', '194', '196', '197', '198', '199', '203', '205', '211', '215', '217', '219', '223', '232', '237', '238', '239', '241', '243', '245', '247', '248', '253', '256', '257', '260', '261', '262', '267', '273', '275', '279', '285', '286', '289', '290', '294', '299', '301', '306', '307', '310', '312', '313', '314', '315', '316', '317', '318', '320', '321', '324', '325', '329', '331', '334', '337', '338', '339', '340', '341', '342', '345', '346', '348', '350', '351', '352', '355', '357', '358', '359', '360', '361', '362', '364', '365', '366', '367', '374', '375', '381', '382', '384', '387', '390', '391', '392', '393', '394', '395', '397', '399', '400', '401', '410', '413', '422', '423', '426', '428', '429', '430', '433', '434', '439', '447', '451', '453', '454', '458', '459', '460', '465', '469', '482', '483', '487', '489', '491', '492', '494', '495', '497', '501', '503', '505', '506', '508', '512', '519', '522', '531', '532', '533', '537', '538', '540', '544', '545', '547', '557', '562', '563', '568', '569', '570', '579', '581', '582', '585', '589', '590', '593', '594', '596', '601', '603', '607', '612', '613', '614', '617', '620', '621', '627', '628', '631', '632', '637', '638', '644', '649', '650', '655', '660', '662', '665', '667', '670', '672', '673', '680', '684', '686', '688', '694', '695', '700', '703', '704', '708', '712', '713', '715', '716', '717', '724', '725', '728', '729', '735', '738', '739', '740', '743', '747', '750', '751', '752', '766', '767', '769', '771', '776', '778', '779', '782', '783', '788', '790', '791', '792', '795', '796', '798', '800', '803', '804', '807', '811', '812', '813', '814', '817', '818', '819', '820', '821', '822', '825', '829', '830', '831', '833', '834', '837', '846', '849', '851', '852', '854', '857', '858', '860', '861', '862', '863', '864', '866', '867', '868', '869', '874', '876', '877', '879', '880', '882', '887', '888', '889', '891', '892', '893', '894', '899', '900', '901', '904', '905', '906', '910', '911', '913', '915', '916', '917', '918', '923', '924', '925', '930', '931', '933', '934', '936', '938', '939', '940', '941', '942', '944', '946', '947', '948', '950', '951', '956', '959', '962', '963', '965', '968', '972', '974', '976', '977', '978', '979', '981', '983', '984', '989', '990', '993', '994', '1002', '1003', '1004', '1007', '1010', '1014', '1016', '1018', '1023', '1024', '1027', '1028', '1038', '1040', '1044', '1046', '1047', '1051', '1052', '1056', '1058', '1060', '1065', '1066', '1067', '1069', '1070', '1071', '1072', '1075', '1076', '1082', '1088', '1089', '1091', '1093', '1097', '1099', '1100', '1103', '1104', '1106', '1107', '1109', '1113', '1116', '1117', '1125', '1128', '1129', '1130', '1138', '1139', '1140', '1144', '1145', '1146', '1151', '1153', '1156', '1157', '1158', '1160', '1162', '1164', '1167', '1168', '1169', '1171', '1172', '1173', '1177', '1179', '1180', '1182', '1184', '1185', '1188', '1191', '1194', '1198', '1203', '1206', '1207', '1210', '1212', '1216', '1219', '1220', '1224', '1225', '1226', '1232', '1234', '1235', '1236', '1238', '1240', '1241', '1242', '1243', '1245', '1246', '1247', '1248', '1249', '1250', '1257', '1259', '1265', '1267', '1268', '1270', '1275', '1279', '1281', '1282', '1285', '1286', '1288', '1291', '1295', '1297', '1299', '1301', '1303', '1305', '1308', '1309', '1310', '1311', '1314', '1315', '1317', '1324', '1329', '1331', '1335', '1336', '1338', '1339', '1345', '1346', '1347', '1348', '1351', '1353', '1356', '1359', '1361', '1363', '1364', '1366', '1371', '1373', '1380', '1381', '1383', '1387', '1395', '1402', '1405', '1406', '1408', '1413', '1416', '1418', '1420', '1421', '1424', '1425', '1428', '1430', '1431', '1435', '1438', '1440', '1445', '1447', '1453', '1455', '1458', '1460', '1461', '1463', '1471', '1474', '1475', '1476', '1478', '1479', '1480', '1481', '1482', '1484', '1488', '1489', '1494', '1503', '1508', '1513', '1515', '1517', '1523', '1524', '1526', '1527', '1528', '1535', '1539', '1541', '1543', '1544', '1556', '1559', '1561', '1564', '1565', '1571', '1572', '1573', '1575', '1579', '1582', '1583', '1584', '1587', '1589', '1590', '1592', '1593', '1604', '1612', '1613', '1615', '1616', '1617', '1620', '1624', '1626', '1633', '1638', '1641', '1648', '1650', '1653', '1654', '1656', '1657', '1659', '1661', '1662', '1664', '1666', '1670', '1673', '1674', '1675', '1676', '1679', '1681', '1682', '1685', '1687', '1688', '1689', '1690', '1691', '1694', '1695', '1698', '1699', '1700', '1707', '1708', '1709', '1712', '1713', '1714', '1715', '1717', '1718', '1725', '1729', '1736', '1737', '1740', '1742', '1743', '1744', '1748', '1749', '1750', '1751', '1752', '1759', '1761', '1762', '1763', '1766', '1768', '1771', '1772', '1773', '1781', '1783', '1785', '1786', '1790', '1791', '1792', '1794', '1796', '1797', '1800', '1802', '1805', '1808', '1818', '1819', '1821', '1823', '1825', '1826', '1830', '1837', '1839', '1840', '1842', '1846', '1847', '1852', '1853', '1856', '1858', '1860', '1863', '1865', '1866', '1870', '1871', '1872', '1874', '1878', '1882', '1884', '1886', '1887', '1890', '1893', '1907', '1910', '1911', '1912', '1916', '1917', '1918', '1921', '1923', '1928', '1932', '1935', '1937', '1941', '1943', '1946', '1948', '1949', '1951', '1952', '1955', '1956', '1958', '1959', '1965', '1966', '1967', '1968', '1971', '1973', '1974', '1976', '1984', '1985', '1986', '1987', '1988', '1995', '1997']",True,4000,True,2,f04e49198b,0.0,0.0,0.0
./expes/v2_2021-03-27_issda-30_2000-prng-1-w4-p2,30_issda-2000,2000,first-2000,700,35,rng,num-start-1400,1400,25726,classic,1637.0983519554138,True,,True,1.0,1.0,1.0,1,"['1', '4', '6', '10', '11', '13', '20', '21', '22', '24', '26', '27', '31', '35', '38', '40', '42', '45', '58', '59', '62', '63', '64', '66', '67', '68', '70', '76', '78', '82', '85', '93', '94', '103', '104', '106', '107', '111', '117', '121', '122', '123', '126', '128', '131', '137', '140', '142', '145', '152', '153', '154', '156', '157', '159', '166', '170', '172', '176', '178', '180', '181', '183', '184', '190', '191', '192', '193', '197', '200', '206', '208', '209', '213', '215', '216', '223', '225', '227', '230', '233', '234', '235', '240', '245', '246', '248', '253', '256', '258', '260', '261', '262', '263', '270', '272', '273', '276', '278', '280', '281', '283', '286', '291', '292', '296', '297', '299', '302', '303', '306', '308', '309', '310', '312', '317', '318', '323', '324', '325', '329', '330', '334', '335', '337', '346', '347', '349', '353', '355', '359', '361', '362', '365', '373', '374', '377', '380', '381', '385', '386', '387', '394', '395', '396', '397', '398', '402', '403', '404', '406', '407', '408', '412', '414', '429', '430', '439', '442', '443', '454', '457', '458', '461', '462', '464', '472', '475', '476', '479', '489', '493', '498', '499', '501', '502', '503', '512', '513', '515', '516', '519', '522', '523', '524', '525', '536', '540', '541', '544', '545', '549', '552', '554', '557', '559', '560', '562', '563', '565', '567', '569', '574', '577', '586', '588', '593', '596', '597', '598', '602', '603', '613', '622', '624', '625', '627', '640', '649', '652', '655', '656', '663', '667', '674', '675', '678', '681', '682', '688', '689', '692', '693', '698', '704', '705', '709', '718', '719', '732', '738', '739', '740', '741', '742', '744', '745', '747', '751', '752', '753', '759', '760', '761', '763', '765', '768', '771', '773', '774', '778', '779', '780', '781', '787', '788', '792', '796', '798', '799', '806', '815', '816', '818', '819', '829', '834', '835', '838', '840', '841', '844', '848', '856', '859', '864', '865', '867', '870', '872', '874', '879', '881', '883', '887', '893', '897', '901', '903', '904', '909', '910', '912', '913', '914', '916', '919', '921', '925', '926', '933', '934', '938', '939', '948', '950', '951', '957', '961', '964', '965', '968', '969', '971', '973', '978', '979', '980', '981', '982', '983', '984', '991', '994', '995', '996', '997', '999', '1000', '1001', '1002', '1007', '1008', '1013', '1018', '1019', '1024', '1025', '1029', '1030', '1032', '1035', '1038', '1039', '1052', '1055', '1059', '1060', '1065', '1066', '1070', '1075', '1076', '1077', '1078', '1080', '1081', '1088', '1089', '1097', '1102', '1103', '1105', '1107', '1109', '1110', '1112', '1113', '1114', '1116', '1118', '1121', '1129', '1130', '1134', '1143', '1144', '1147', '1149', '1154', '1155', '1156', '1158', '1165', '1166', '1167', '1172', '1173', '1175', '1176', '1180', '1187', '1198', '1202', '1205', '1206', '1207', '1208', '1210', '1212', '1213', '1214', '1217', '1220', '1224', '1233', '1234', '1236', '1239', '1243', '1246', '1250', '1253', '1254', '1257', '1258', '1262', '1263', '1266', '1267', '1269', '1271', '1275', '1278', '1281', '1282', '1283', '1284', '1287', '1288', '1289', '1292', '1293', '1298', '1300', '1301', '1306', '1308', '1310', '1315', '1320', '1321', '1322', '1323', '1324', '1328', '1331', '1333', '1334', '1340', '1341', '1343', '1345', '1351', '1355', '1356', '1358', '1360', '1362', '1366', '1367', '1369', '1373', '1375', '1380', '1385', '1387', '1390', '1391', '1394', '1395', '1397', '1401', '1405', '1409', '1411', '1414', '1415', '1416', '1418', '1421', '1422', '1423', '1425', '1430', '1433', '1436', '1437', '1438', '1444', '1446', '1451', '1457', '1459', '1460', '1462', '1463', '1465', '1468', '1472', '1473', '1474', '1478', '1480', '1483', '1484', '1488', '1491', '1493', '1494', '1495', '1499', '1504', '1505', '1511', '1514', '1516', '1522', '1524', '1526', '1527', '1529', '1537', '1539', '1542', '1543', '1547', '1548', '1551', '1553', '1555', '1556', '1557', '1561', '1562', '1563', '1564', '1568', '1572', '1574', '1578', '1585', '1588', '1591', '1592', '1594', '1595', '1596', '1598', '1603', '1606', '1611', '1613', '1620', '1621', '1625', '1628', '1629', '1631', '1632', '1634', '1639', '1642', '1643', '1646', '1647', '1649', '1650', '1651', '1652', '1656', '1658', '1663', '1667', '1671', '1672', '1673', '1676', '1677', '1680', '1684', '1696', '1697', '1701', '1703', '1705', '1706', '1709', '1712', '1715', '1717', '1718', '1722', '1724', '1725', '1730', '1731', '1741', '1748', '1751', '1752', '1758', '1760', '1761', '1765', '1770', '1773', '1777', '1781', '1782', '1783', '1785', '1787', '1795', '1801', '1803', '1808', '1809', '1813', '1819', '1821', '1822', '1828', '1829', '1830', '1831', '1842', '1843', '1849', '1853', '1860', '1862', '1863', '1865', '1867', '1868', '1870', '1871', '1877', '1878', '1883', '1884', '1887', '1889', '1891', '1893', '1898', '1899', '1900', '1902', '1903', '1911', '1913', '1914', '1919', '1922', '1925', '1927', '1931', '1933', '1936', '1937', '1941', '1942', '1943', '1946', '1948', '1949', '1950', '1954', '1963', '1971', '1976', '1977', '1978', '1979', '1981', '1982', '1984', '1985', '1986', '1987', '1989', '1990', '1992', '1994', '1995', '1997', '1998', '2000']",False,4000,True,2,ed81daa06c,0.0,1.0,1.0
./expes/v2_2021-03-27_issda-30_2000-prng-1-w4-p2,30_issda-2000,2000,first-2000,500,25,rng,num-start-600,600,25726,classic,4082.0856182575226,False,,False,0,,,0,"['1', '2', '4', '10', '16', '22', '32', '36', '40', '41', '43', '49', '52', '53', '57', '58', '60', '63', '65', '72', '83', '88', '92', '95', '98', '103', '105', '106', '112', '114', '122', '127', '137', '140', '141', '143', '144', '149', '153', '154', '158', '167', '171', '184', '185', '186', '191', '194', '195', '196', '199', '201', '210', '212', '218', '219', '220', '227', '229', '230', '232', '234', '235', '236', '243', '247', '249', '252', '253', '258', '264', '267', '270', '273', '277', '281', '289', '294', '300', '301', '307', '316', '325', '330', '332', '338', '345', '350', '352', '353', '358', '360', '364', '372', '374', '377', '387', '389', '395', '397', '400', '405', '407', '408', '409', '411', '415', '419', '421', '426', '429', '434', '443', '447', '455', '456', '458', '461', '464', '468', '472', '483', '484', '496', '501', '502', '505', '506', '507', '509', '510', '513', '516', '517', '522', '523', '524', '525', '526', '530', '534', '539', '540', '542', '545', '547', '555', '556', '558', '562', '564', '571', '575', '577', '578', '579', '580', '597', '601', '606', '607', '616', '620', '621', '625', '626', '629', '634', '637', '640', '644', '647', '661', '680', '683', '684', '687', '691', '696', '697', '709', '712', '714', '718', '720', '722', '724', '729', '734', '739', '746', '748', '749', '751', '754', '755', '756', '764', '772', '777', '780', '783', '784', '787', '788', '791', '792', '795', '807', '808', '813', '815', '825', '827', '831', '833', '844', '856', '858', '866', '867', '869', '871', '874', '880', '886', '896', '898', '899', '904', '905', '907', '912', '913', '917', '921', '922', '927', '929', '933', '942', '944', '956', '960', '961', '962', '963', '965', '969', '972', '974', '975', '984', '993', '994', '996', '997', '998', '1000', '1002', '1005', '1015', '1020', '1025', '1026', '1038', '1039', '1041', '1049', '1053', '1058', '1065', '1068', '1069', '1073', '1077', '1080', '1082', '1086', '1094', '1095', '1096', '1103', '1109', '1111', '1113', '1116', '1117', '1119', '1124', '1130', '1134', '1138', '1142', '1144', '1147', '1150', '1161', '1166', '1167', '1171', '1182', '1184', '1186', '1195', '1197', '1201', '1206', '1207', '1211', '1216', '1218', '1219', '1220', '1221', '1232', '1234', '1237', '1240', '1245', '1249', '1255', '1261', '1262', '1279', '1281', '1287', '1294', '1296', '1298', '1301', '1304', '1306', '1313', '1315', '1318', '1321', '1322', '1323', '1324', '1325', '1327', '1331', '1335', '1336', '1345', '1346', '1349', '1356', '1360', '1363', '1369', '1374', '1377', '1383', '1386', '1393', '1394', '1395', '1396', '1398', '1402', '1404', '1406', '1407', '1416', '1418', '1439', '1441', '1442', '1444', '1446', '1454', '1466', '1471', '1472', '1478', '1484', '1485', '1486', '1504', '1506', '1514', '1515', '1517', '1519', '1525', '1530', '1540', '1546', '1547', '1551', '1557', '1560', '1564', '1565', '1575', '1577', '1578', '1585', '1587', '1588', '1593', '1602', '1607', '1608', '1613', '1621', '1623', '1626', '1627', '1632', '1634', '1635', '1648', '1652', '1654', '1655', '1656', '1660', '1664', '1668', '1676', '1680', '1682', '1685', '1686', '1687', '1691', '1694', '1696', '1697', '1698', '1711', '1720', '1724', '1739', '1740', '1741', '1748', '1750', '1752', '1756', '1761', '1762', '1765', '1768', '1770', '1771', '1772', '1773', '1776', '1784', '1788', '1791', '1792', '1795', '1810', '1815', '1816', '1835', '1836', '1837', '1840', '1841', '1842', '1845', '1846', '1847', '1848', '1852', '1853', '1861', '1862', '1864', '1875', '1879', '1886', '1888', '1902', '1908', '1910', '1911', '1912', '1913', '1914', '1917', '1918', '1924', '1926', '1930', '1934', '1951', '1959', '1965', '1967', '1983', '1990', '1995', '2000']",True,4000,True,2,c7afc55560,0.0,0.0,0.0
./expes/v2_2021-03-27_issda-30_2000-prng-1-w4-p2,30_issda-2000,2000,first-2000,1000,50,rng,num-start-1800,1800,25726,classic,1988.5504355430603,True,,True,1.0,1.0,1.0,1,"['2', '4', '6', '7', '8', '10', '11', '12', '15', '17', '18', '20', '22', '27', '32', '37', '38', '39', '41', '42', '44', '47', '48', '53', '55', '56', '58', '61', '62', '65', '66', '67', '70', '71', '72', '73', '75', '76', '77', '78', '79', '80', '83', '84', '85', '88', '89', '92', '93', '95', '97', '102', '106', '109', '110', '112', '114', '118', '121', '122', '124', '126', '127', '128', '131', '133', '136', '137', '138', '139', '142', '145', '147', '148', '152', '153', '154', '156', '158', '159', '160', '161', '162', '164', '165', '166', '167', '168', '170', '171', '175', '176', '178', '182', '183', '185', '188', '189', '190', '191', '192', '195', '196', '199', '202', '207', '212', '213', '214', '218', '220', '227', '230', '232', '233', '234', '235', '236', '238', '240', '242', '243', '245', '248', '250', '251', '262', '267', '272', '273', '275', '278', '280', '283', '284', '285', '286', '287', '288', '289', '291', '294', '295', '297', '298', '305', '306', '307', '309', '312', '313', '314', '316', '318', '320', '321', '322', '323', '325', '326', '329', '331', '332', '333', '334', '335', '336', '338', '339', '340', '341', '343', '345', '346', '348', '349', '352', '353', '354', '355', '358', '359', '361', '362', '363', '364', '365', '368', '370', '371', '372', '374', '375', '377', '379', '380', '385', '391', '392', '393', '397', '399', '400', '401', '402', '404', '405', '407', '408', '409', '410', '411', '412', '414', '416', '418', '421', '423', '425', '426', '427', '429', '431', '432', '433', '434', '435', '436', '437', '440', '441', '442', '443', '448', '449', '450', '453', '455', '456', '460', '464', '469', '470', '472', '474', '475', '476', '478', '479', '484', '487', '488', '489', '494', '496', '497', '501', '503', '507', '510', '511', '512', '513', '515', '516', '519', '520', '521', '524', '525', '527', '528', '529', '530', '532', '534', '536', '537', '538', '539', '540', '550', '552', '555', '557', '558', '562', '566', '567', '568', '569', '571', '573', '574', '575', '576', '579', '580', '581', '582', '585', '586', '589', '590', '591', '592', '593', '594', '595', '596', '597', '598', '599', '600', '601', '605', '606', '607', '608', '609', '611', '612', '613', '615', '616', '620', '621', '622', '623', '624', '625', '626', '628', '630', '632', '635', '638', '639', '640', '641', '642', '644', '645', '646', '648', '649', '657', '658', '659', '660', '661', '662', '663', '665', '666', '669', '670', '673', '676', '677', '678', '679', '682', '687', '689', '690', '692', '694', '695', '696', '697', '698', '703', '705', '707', '708', '710', '711', '712', '714', '718', '719', '724', '729', '731', '732', '734', '736', '737', '738', '742', '743', '745', '747', '748', '750', '753', '762', '763', '770', '778', '781', '782', '784', '786', '793', '794', '795', '796', '800', '802', '803', '804', '805', '809', '811', '812', '815', '820', '821', '823', '825', '826', '827', '828', '832', '834', '839', '841', '843', '844', '845', '846', '847', '848', '850', '852', '854', '855', '857', '861', '863', '866', '867', '868', '869', '870', '871', '877', '881', '883', '888', '889', '892', '893', '894', '895', '896', '898', '899', '900', '901', '903', '904', '906', '909', '910', '915', '917', '925', '926', '927', '930', '932', '934', '936', '939', '940', '941', '948', '950', '952', '957', '965', '966', '968', '970', '973', '974', '976', '977', '978', '979', '980', '981', '982', '987', '991', '992', '997', '1002', '1004', '1005', '1008', '1012', '1013', '1015', '1016', '1017', '1019', '1021', '1022', '1023', '1030', '1037', '1038', '1040', '1042', '1043', '1044', '1046', '1047', '1048', '1050', '1052', '1055', '1060', '1061', '1063', '1064', '1065', '1066', '1067', '1072', '1074', '1075', '1076', '1077', '1078', '1079', '1080', '1082', '1084', '1085', '1087', '1091', '1095', '1097', '1099', '1100', '1101', '1102', '1103', '1104', '1107', '1108', '1109', '1110', '1113', '1114', '1115', '1117', '1118', '1119', '1121', '1122', '1125', '1126', '1128', '1129', '1132', '1134', '1144', '1147', '1149', '1150', '1152', '1158', '1162', '1164', '1166', '1167', '1168', '1169', '1171', '1173', '1174', '1176', '1180', '1186', '1188', '1192', '1193', '1194', '1197', '1199', '1203', '1205', '1206', '1211', '1215', '1216', '1218', '1220', '1223', '1224', '1225', '1227', '1228', '1229', '1230', '1231', '1232', '1233', '1236', '1237', '1239', '1240', '1241', '1243', '1246', '1248', '1249', '1250', '1256', '1260', '1261', '1265', '1266', '1269', '1270', '1271', '1272', '1274', '1275', '1277', '1280', '1281', '1283', '1284', '1285', '1286', '1288', '1291', '1292', '1294', '1295', '1296', '1300', '1301', '1305', '1311', '1312', '1313', '1314', '1316', '1317', '1318', '1319', '1322', '1323', '1325', '1326', '1328', '1335', '1336', '1338', '1340', '1341', '1342', '1346', '1349', '1351', '1353', '1354', '1356', '1362', '1367', '1368', '1369', '1370', '1373', '1376', '1379', '1380', '1383', '1384', '1385', '1386', '1387', '1388', '1393', '1395', '1398', '1400', '1402', '1405', '1409', '1413', '1414', '1415', '1416', '1418', '1420', '1421', '1425', '1427', '1429', '1430', '1431', '1436', '1438', '1441', '1443', '1444', '1447', '1448', '1451', '1453', '1456', '1457', '1461', '1462', '1465', '1466', '1467', '1470', '1472', '1473', '1474', '1478', '1483', '1485', '1495', '1498', '1499', '1500', '1502', '1506', '1508', '1510', '1512', '1513', '1516', '1523', '1524', '1526', '1527', '1528', '1529', '1530', '1533', '1537', '1539', '1544', '1545', '1546', '1548', '1549', '1553', '1554', '1555', '1557', '1558', '1561', '1566', '1568', '1571', '1573', '1577', '1578', '1580', '1582', '1585', '1586', '1588', '1591', '1594', '1597', '1601', '1603', '1604', '1606', '1607', '1608', '1611', '1612', '1613', '1616', '1617', '1619', '1620', '1626', '1631', '1634', '1635', '1636', '1638', '1640', '1641', '1642', '1643', '1644', '1645', '1648', '1653', '1654', '1657', '1659', '1665', '1669', '1671', '1675', '1676', '1677', '1680', '1681', '1687', '1690', '1691', '1692', '1694', '1695', '1698', '1700', '1702', '1703', '1704', '1708', '1709', '1710', '1711', '1714', '1716', '1717', '1718', '1719', '1720', '1722', '1725', '1727', '1729', '1730', '1731', '1733', '1735', '1736', '1737', '1738', '1747', '1748', '1749', '1751', '1753', '1754', '1757', '1758', '1759', '1761', '1765', '1766', '1767', '1770', '1771', '1773', '1774', '1777', '1781', '1782', '1784', '1790', '1791', '1792', '1795', '1796', '1798', '1800', '1801', '1803', '1804', '1805', '1807', '1808', '1809', '1814', '1816', '1817', '1819', '1820', '1821', '1822', '1823', '1824', '1825', '1826', '1827', '1828', '1830', '1832', '1833', '1835', '1837', '1838', '1842', '1843', '1845', '1846', '1848', '1850', '1851', '1852', '1853', '1854', '1858', '1859', '1861', '1862', '1865', '1866', '1867', '1868', '1870', '1871', '1873', '1875', '1876', '1878', '1879', '1880', '1881', '1882', '1885', '1887', '1889', '1890', '1891', '1893', '1894', '1896', '1900', '1901', '1902', '1903', '1905', '1906', '1909', '1911', '1914', '1915', '1916', '1918', '1919', '1920', '1921', '1922', '1923', '1924', '1925', '1927', '1928', '1929', '1930', '1932', '1934', '1935', '1942', '1945', '1946', '1947', '1948', '1949', '1951', '1953', '1955', '1956', '1957', '1958', '1959', '1964', '1965', '1966', '1967', '1968', '1970', '1972', '1974', '1975', '1976', '1977', '1979', '1984', '1986', '1988', '1989', '1990', '1991', '1994', '1995', '1997', '1998']",False,4000,True,2,ccfd12b438,0.0,1.0,1.0
./expes/v2_2021-03-27_issda-30_2000-prng-1-w4-p2,30_issda-2000,2000,first-2000,500,25,rng,num-start-200,200,25726,classic,4027.3151462078094,False,,False,0,,,0,"['6', '9', '11', '16', '31', '33', '34', '52', '64', '66', '67', '68', '71', '73', '75', '76', '77', '85', '88', '90', '91', '92', '95', '98', '102', '103', '104', '107', '110', '114', '123', '129', '133', '134', '135', '144', '148', '152', '156', '160', '164', '166', '172', '181', '183', '190', '196', '197', '198', '199', '203', '205', '217', '223', '232', '238', '239', '241', '245', '273', '275', '279', '285', '286', '290', '294', '299', '307', '312', '313', '314', '315', '321', '324', '325', '329', '334', '337', '338', '339', '340', '341', '345', '346', '352', '355', '357', '358', '359', '361', '362', '366', '374', '381', '382', '384', '390', '391', '392', '393', '394', '397', '399', '400', '401', '410', '413', '423', '426', '428', '430', '451', '458', '459', '460', '483', '487', '489', '491', '492', '494', '495', '497', '503', '505', '512', '522', '531', '537', '538', '540', '545', '547', '557', '563', '568', '569', '579', '581', '585', '593', '603', '607', '617', '620', '621', '628', '631', '632', '637', '644', '655', '660', '662', '665', '670', '672', '673', '680', '695', '700', '703', '704', '708', '712', '713', '715', '716', '717', '725', '728', '738', '739', '740', '743', '747', '750', '752', '766', '767', '769', '771', '782', '783', '788', '795', '796', '800', '804', '811', '813', '814', '821', '822', '829', '830', '831', '837', '846', '849', '851', '852', '861', '862', '863', '864', '867', '868', '869', '874', '879', '887', '888', '891', '892', '893', '894', '899', '900', '901', '904', '905', '906', '911', '913', '915', '916', '917', '918', '923', '925', '930', '934', '936', '939', '940', '946', '948', '950', '956', '959', '963', '965', '977', '978', '981', '983', '984', '989', '994', '1003', '1004', '1007', '1016', '1018', '1023', '1024', '1027', '1028', '1038', '1040', '1047', '1051', '1052', '1065', '1066', '1067', '1069', '1070', '1071', '1072', '1076', '1093', '1097', '1099', '1100', '1104', '1106', '1109', '1116', '1125', '1128', '1138', '1139', '1145', '1146', '1156', '1157', '1158', '1162', '1167', '1168', '1171', '1172', '1177', '1179', '1184', '1185', '1188', '1191', '1194', '1198', '1203', '1206', '1212', '1216', '1219', '1220', '1224', '1225', '1232', '1234', '1235', '1236', '1238', '1240', '1241', '1242', '1243', '1246', '1249', '1250', '1257', '1265', '1268', '1285', '1288', '1299', '1303', '1308', '1310', '1311', '1314', '1315', '1317', '1329', '1331', '1335', '1336', '1338', '1339', '1347', '1348', '1353', '1356', '1361', '1366', '1373', '1380', '1381', '1383', '1395', '1402', '1405', '1408', '1413', '1418', '1424', '1428', '1430', '1438', '1447', '1460', '1471', '1475', '1476', '1479', '1480', '1481', '1488', '1503', '1508', '1515', '1517', '1523', '1524', '1526', '1527', '1535', '1539', '1541', '1556', '1564', '1565', '1571', '1573', '1579', '1582', '1583', '1584', '1587', '1589', '1592', '1593', '1604', '1612', '1616', '1617', '1620', '1626', '1633', '1638', '1641', '1648', '1650', '1654', '1657', '1659', '1661', '1664', '1666', '1673', '1674', '1676', '1682', '1685', '1687', '1688', '1690', '1694', '1695', '1698', '1699', '1707', '1712', '1713', '1714', '1725', '1729', '1736', '1737', '1742', '1744', '1748', '1752', '1759', '1761', '1762', '1766', '1768', '1771', '1772', '1773', '1781', '1783', '1785', '1786', '1792', '1800', '1802', '1805', '1818', '1819', '1821', '1823', '1830', '1837', '1839', '1840', '1846', '1853', '1856', '1860', '1863', '1865', '1866', '1870', '1871', '1874', '1884', '1886', '1887', '1890', '1893', '1910', '1911', '1916', '1917', '1928', '1932', '1937', '1941', '1946', '1948', '1951', '1952', '1956', '1958', '1959', '1967', '1971', '1973', '1974', '1976', '1984', '1986', '1987', '1988', '1995', '1997']",True,4000,True,2,a504d4592e,0.0,0.0,0.0
