expe,clients,clients_size,clients_subset,agg_size,agg_size_pc,method,days,days_size,days_total,noise_method,time,valid,valid_sum,success,score_avg,score_min,score_max,nsols,oracle,wall_hit,wall_time,pooled,pool_size,uuid,infeasible,optimal,valid_sums
./expes/v2_2021-03-27_issda-30_2000-prng-1-w4-p2,30_issda-2000,2000,first-2000,300,15,rng,num-start-3200,3200,25726,classic,1626.8745365142822,True,,True,1.0,1.0,1.0,1,"['7', '10', '14', '25', '28', '35', '41', '47', '53', '63', '68', '69', '70', '77', '90', '101', '105', '119', '125', '129', '130', '132', '144', '147', '164', '165', '171', '175', '177', '184', '186', '192', '195', '199', '200', '219', '221', '222', '223', '229', '233', '239', '248', '250', '259', '277', '281', '285', '288', '292', '304', '305', '308', '315', '317', '325', '330', '341', '349', '353', '359', '365', '389', '394', '396', '398', '402', '405', '411', '414', '426', '429', '431', '433', '451', '459', '462', '465', '470', '475', '480', '481', '500', '507', '522', '530', '547', '583', '586', '592', '594', '606', '608', '612', '614', '615', '619', '633', '643', '658', '664', '667', '692', '694', '698', '701', '703', '705', '720', '729', '731', '732', '738', '739', '746', '750', '757', '759', '769', '772', '773', '777', '780', '781', '787', '792', '800', '807', '812', '821', '825', '826', '834', '835', '840', '854', '856', '860', '868', '873', '883', '886', '893', '901', '905', '912', '914', '928', '929', '933', '935', '941', '966', '970', '972', '994', '999', '1000', '1001', '1014', '1019', '1020', '1022', '1028', '1030', '1032', '1035', '1038', '1040', '1045', '1054', '1058', '1059', '1065', '1066', '1067', '1077', '1080', '1082', '1083', '1090', '1106', '1117', '1121', '1142', '1155', '1156', '1166', '1174', '1175', '1186', '1188', '1190', '1191', '1197', '1206', '1230', '1231', '1232', '1238', '1240', '1243', '1253', '1256', '1265', '1271', '1278', '1281', '1296', '1315', '1319', '1323', '1326', '1327', '1331', '1342', '1346', '1347', '1349', '1354', '1358', '1359', '1414', '1416', '1436', '1437', '1438', '1444', '1445', '1451', '1466', '1469', '1474', '1477', '1486', '1487', '1493', '1518', '1523', '1524', '1525', '1534', '1548', '1555', '1556', '1566', '1570', '1619', '1632', '1653', '1655', '1656', '1662', '1668', '1673', '1678', '1699', '1701', '1703', '1709', '1712', '1713', '1728', '1742', '1746', '1752', '1755', '1762', '1780', '1793', '1799', '1805', '1809', '1826', '1838', '1847', '1848', '1850', '1851', '1854', '1857', '1858', '1860', '1862', '1867', '1870', '1900', '1902', '1910', '1918', '1929', '1938', '1946', '1961', '1971', '1977', '1983', '1987', '1993', '1997']",False,4000,True,2,951d9bd215,0.0,1.0,1.0
./expes/v2_2021-03-27_issda-30_2000-prng-1-w4-p2,30_issda-2000,2000,first-2000,700,35,rng,num-start-2800,2800,25726,classic,1891.8312158584595,True,,True,1.0,1.0,1.0,1,"['1', '3', '4', '5', '7', '17', '19', '20', '26', '28', '29', '30', '31', '32', '34', '39', '42', '45', '47', '55', '57', '65', '67', '68', '69', '73', '74', '75', '78', '79', '80', '81', '83', '84', '85', '87', '93', '94', '96', '97', '99', '103', '114', '119', '124', '126', '128', '129', '131', '135', '136', '142', '144', '146', '148', '152', '157', '162', '165', '166', '167', '168', '169', '171', '172', '174', '179', '184', '186', '187', '188', '192', '195', '201', '203', '204', '206', '207', '208', '215', '216', '223', '224', '228', '236', '237', '238', '240', '241', '244', '246', '249', '254', '255', '256', '261', '266', '267', '268', '272', '274', '277', '284', '286', '287', '289', '292', '300', '301', '304', '305', '307', '310', '311', '315', '317', '319', '320', '323', '325', '328', '330', '332', '336', '340', '342', '347', '350', '359', '366', '368', '370', '373', '374', '377', '379', '383', '386', '387', '388', '390', '391', '392', '394', '399', '400', '406', '407', '409', '414', '417', '419', '422', '423', '425', '426', '432', '438', '441', '443', '445', '448', '449', '451', '452', '453', '455', '457', '461', '479', '483', '489', '490', '491', '492', '496', '498', '500', '514', '522', '526', '527', '531', '532', '533', '534', '535', '537', '553', '556', '563', '564', '565', '571', '574', '576', '578', '588', '590', '593', '594', '595', '597', '601', '602', '603', '607', '613', '616', '617', '618', '619', '620', '621', '622', '631', '636', '638', '640', '645', '648', '650', '652', '656', '660', '661', '664', '665', '667', '668', '673', '677', '678', '682', '683', '685', '687', '688', '691', '692', '693', '697', '702', '704', '710', '711', '718', '722', '723', '725', '732', '734', '735', '736', '740', '741', '752', '753', '755', '759', '761', '762', '763', '770', '775', '776', '777', '783', '786', '787', '789', '792', '794', '795', '796', '802', '803', '807', '809', '813', '816', '817', '823', '824', '826', '830', '832', '836', '840', '843', '849', '850', '851', '856', '857', '859', '862', '867', '872', '873', '874', '884', '890', '892', '894', '906', '907', '912', '913', '915', '918', '919', '923', '925', '928', '938', '939', '940', '944', '955', '957', '964', '965', '966', '967', '971', '975', '976', '977', '980', '982', '986', '987', '988', '996', '997', '998', '1000', '1001', '1003', '1005', '1008', '1009', '1011', '1013', '1015', '1019', '1020', '1021', '1022', '1029', '1032', '1034', '1035', '1039', '1041', '1042', '1048', '1058', '1061', '1063', '1067', '1068', '1069', '1072', '1075', '1076', '1077', '1081', '1083', '1085', '1086', '1091', '1095', '1097', '1102', '1107', '1108', '1112', '1113', '1115', '1120', '1121', '1122', '1124', '1125', '1129', '1132', '1140', '1144', '1147', '1149', '1150', '1155', '1157', '1163', '1164', '1166', '1167', '1168', '1176', '1179', '1180', '1188', '1194', '1195', '1198', '1199', '1201', '1203', '1204', '1208', '1209', '1218', '1222', '1223', '1226', '1230', '1233', '1234', '1235', '1236', '1237', '1241', '1242', '1245', '1246', '1249', '1250', '1252', '1253', '1254', '1255', '1259', '1265', '1267', '1271', '1272', '1274', '1277', '1281', '1284', '1286', '1291', '1295', '1297', '1298', '1299', '1301', '1306', '1308', '1309', '1312', '1313', '1314', '1320', '1321', '1325', '1330', '1333', '1339', '1343', '1344', '1345', '1346', '1347', '1353', '1357', '1364', '1369', '1373', '1378', '1380', '1384', '1385', '1387', '1390', '1391', '1392', '1393', '1394', '1395', '1396', '1398', '1400', '1401', '1408', '1411', '1415', '1429', '1431', '1433', '1434', '1435', '1436', '1437', '1438', '1442', '1445', '1446', '1447', '1448', '1453', '1455', '1459', '1462', '1464', '1466', '1469', '1470', '1471', '1472', '1474', '1486', '1490', '1493', '1494', '1495', '1496', '1497', '1499', '1505', '1514', '1518', '1519', '1528', '1530', '1533', '1535', '1536', '1541', '1546', '1548', '1552', '1553', '1555', '1561', '1572', '1582', '1583', '1591', '1592', '1593', '1594', '1597', '1602', '1604', '1605', '1606', '1608', '1609', '1615', '1616', '1618', '1621', '1623', '1625', '1627', '1628', '1634', '1635', '1638', '1639', '1640', '1645', '1646', '1649', '1651', '1653', '1655', '1657', '1659', '1660', '1663', '1664', '1669', '1671', '1674', '1676', '1683', '1684', '1685', '1690', '1691', '1692', '1694', '1696', '1698', '1699', '1700', '1701', '1708', '1712', '1716', '1717', '1721', '1723', '1726', '1729', '1730', '1731', '1732', '1734', '1740', '1742', '1744', '1747', '1749', '1752', '1756', '1762', '1763', '1765', '1766', '1769', '1772', '1773', '1777', '1780', '1783', '1785', '1786', '1787', '1790', '1791', '1792', '1793', '1796', '1798', '1805', '1811', '1813', '1814', '1819', '1823', '1824', '1827', '1832', '1834', '1840', '1841', '1842', '1844', '1846', '1848', '1849', '1850', '1853', '1856', '1860', '1861', '1864', '1868', '1870', '1872', '1875', '1876', '1878', '1879', '1880', '1881', '1882', '1884', '1885', '1888', '1889', '1890', '1891', '1892', '1908', '1911', '1913', '1916', '1918', '1919', '1922', '1929', '1932', '1939', '1940', '1942', '1945', '1946', '1953', '1962', '1963', '1969', '1972', '1973', '1974', '1978', '1980', '1982', '1983', '1984', '1986', '1988', '1992', '1996', '2000']",False,4000,True,2,34bf0123bd,0.0,1.0,1.0
./expes/v2_2021-03-27_issda-30_2000-prng-1-w4-p2,30_issda-2000,2000,first-2000,100,5,rng,num-start-2800,2800,25726,classic,1694.1142838001251,True,,True,1.0,1.0,1.0,1,"['1', '45', '59', '76', '94', '166', '181', '184', '191', '193', '200', '240', '245', '299', '396', '397', '404', '406', '408', '412', '502', '513', '536', '544', '559', '597', '624', '655', '688', '732', '739', '741', '742', '765', '840', '848', '870', '881', '912', '964', '994', '997', '1002', '1025', '1032', '1055', '1076', '1103', '1105', '1134', '1154', '1176', '1180', '1202', '1206', '1207', '1233', '1250', '1298', '1301', '1321', '1343', '1358', '1390', '1397', '1405', '1430', '1433', '1436', '1493', '1495', '1505', '1548', '1556', '1562', '1578', '1625', '1632', '1639', '1643', '1646', '1649', '1650', '1684', '1696', '1706', '1730', '1787', '1803', '1828', '1849', '1863', '1865', '1870', '1877', '1911', '1949', '1978', '1987', '2000']",False,4000,True,2,1b9e93f6b6,0.0,1.0,1.0
./expes/v2_2021-03-27_issda-30_2000-prng-1-w4-p2,30_issda-2000,2000,first-2000,500,25,rng,num-start-2200,2200,25726,classic,1553.6737830638885,True,,True,1.0,1.0,1.0,1,"['6', '9', '11', '16', '31', '33', '34', '52', '64', '66', '67', '68', '71', '73', '75', '76', '77', '85', '88', '90', '91', '92', '95', '98', '102', '103', '104', '107', '110', '114', '123', '129', '133', '134', '135', '144', '148', '152', '156', '160', '164', '166', '172', '181', '183', '190', '196', '197', '198', '199', '203', '205', '217', '223', '232', '238', '239', '241', '245', '273', '275', '279', '285', '286', '290', '294', '299', '307', '312', '313', '314', '315', '321', '324', '325', '329', '334', '337', '338', '339', '340', '341', '345', '346', '352', '355', '357', '358', '359', '361', '362', '366', '374', '381', '382', '384', '390', '391', '392', '393', '394', '397', '399', '400', '401', '410', '413', '423', '426', '428', '430', '451', '458', '459', '460', '483', '487', '489', '491', '492', '494', '495', '497', '503', '505', '512', '522', '531', '537', '538', '540', '545', '547', '557', '563', '568', '569', '579', '581', '585', '593', '603', '607', '617', '620', '621', '628', '631', '632', '637', '644', '655', '660', '662', '665', '670', '672', '673', '680', '695', '700', '703', '704', '708', '712', '713', '715', '716', '717', '725', '728', '738', '739', '740', '743', '747', '750', '752', '766', '767', '769', '771', '782', '783', '788', '795', '796', '800', '804', '811', '813', '814', '821', '822', '829', '830', '831', '837', '846', '849', '851', '852', '861', '862', '863', '864', '867', '868', '869', '874', '879', '887', '888', '891', '892', '893', '894', '899', '900', '901', '904', '905', '906', '911', '913', '915', '916', '917', '918', '923', '925', '930', '934', '936', '939', '940', '946', '948', '950', '956', '959', '963', '965', '977', '978', '981', '983', '984', '989', '994', '1003', '1004', '1007', '1016', '1018', '1023', '1024', '1027', '1028', '1038', '1040', '1047', '1051', '1052', '1065', '1066', '1067', '1069', '1070', '1071', '1072', '1076', '1093', '1097', '1099', '1100', '1104', '1106', '1109', '1116', '1125', '1128', '1138', '1139', '1145', '1146', '1156', '1157', '1158', '1162', '1167', '1168', '1171', '1172', '1177', '1179', '1184', '1185', '1188', '1191', '1194', '1198', '1203', '1206', '1212', '1216', '1219', '1220', '1224', '1225', '1232', '1234', '1235', '1236', '1238', '1240', '1241', '1242', '1243', '1246', '1249', '1250', '1257', '1265', '1268', '1285', '1288', '1299', '1303', '1308', '1310', '1311', '1314', '1315', '1317', '1329', '1331', '1335', '1336', '1338', '1339', '1347', '1348', '1353', '1356', '1361', '1366', '1373', '1380', '1381', '1383', '1395', '1402', '1405', '1408', '1413', '1418', '1424', '1428', '1430', '1438', '1447', '1460', '1471', '1475', '1476', '1479', '1480', '1481', '1488', '1503', '1508', '1515', '1517', '1523', '1524', '1526', '1527', '1535', '1539', '1541', '1556', '1564', '1565', '1571', '1573', '1579', '1582', '1583', '1584', '1587', '1589', '1592', '1593', '1604', '1612', '1616', '1617', '1620', '1626', '1633', '1638', '1641', '1648', '1650', '1654', '1657', '1659', '1661', '1664', '1666', '1673', '1674', '1676', '1682', '1685', '1687', '1688', '1690', '1694', '1695', '1698', '1699', '1707', '1712', '1713', '1714', '1725', '1729', '1736', '1737', '1742', '1744', '1748', '1752', '1759', '1761', '1762', '1766', '1768', '1771', '1772', '1773', '1781', '1783', '1785', '1786', '1792', '1800', '1802', '1805', '1818', '1819', '1821', '1823', '1830', '1837', '1839', '1840', '1846', '1853', '1856', '1860', '1863', '1865', '1866', '1870', '1871', '1874', '1884', '1886', '1887', '1890', '1893', '1910', '1911', '1916', '1917', '1928', '1932', '1937', '1941', '1946', '1948', '1951', '1952', '1956', '1958', '1959', '1967', '1971', '1973', '1974', '1976', '1984', '1986', '1987', '1988', '1995', '1997']",False,4000,True,2,f96096fa67,0.0,1.0,1.0
./expes/v2_2021-03-27_issda-30_2000-prng-1-w4-p2,30_issda-2000,2000,first-2000,200,10,rng,num-start-800,800,25726,classic,1593.7207057476044,True,,True,1.0,1.0,1.0,1,"['9', '25', '47', '77', '81', '96', '99', '102', '119', '121', '122', '123', '125', '127', '129', '134', '141', '144', '149', '150', '159', '166', '168', '170', '177', '186', '192', '193', '200', '212', '240', '242', '254', '265', '273', '281', '296', '309', '310', '312', '338', '341', '345', '361', '369', '371', '374', '385', '422', '440', '447', '453', '458', '473', '476', '478', '493', '500', '508', '509', '539', '553', '570', '571', '578', '583', '589', '590', '594', '614', '615', '632', '635', '643', '644', '664', '697', '701', '704', '711', '718', '728', '735', '741', '749', '763', '780', '791', '801', '809', '813', '815', '823', '851', '857', '859', '864', '870', '876', '882', '889', '913', '920', '929', '935', '946', '954', '971', '994', '1002', '1012', '1014', '1017', '1018', '1040', '1049', '1076', '1089', '1098', '1108', '1122', '1126', '1127', '1129', '1141', '1143', '1148', '1156', '1159', '1170', '1174', '1177', '1182', '1184', '1188', '1192', '1194', '1200', '1207', '1218', '1248', '1252', '1268', '1285', '1292', '1309', '1326', '1334', '1349', '1361', '1369', '1370', '1394', '1396', '1397', '1399', '1424', '1428', '1432', '1437', '1447', '1459', '1468', '1494', '1498', '1513', '1551', '1566', '1574', '1592', '1598', '1617', '1627', '1633', '1672', '1676', '1678', '1682', '1684', '1694', '1703', '1721', '1759', '1770', '1785', '1793', '1810', '1811', '1817', '1864', '1878', '1892', '1912', '1927', '1935', '1941', '1942', '1962', '1971', '2000']",False,4000,True,2,7a8832a0ef,0.0,1.0,1.0
./expes/v2_2021-03-27_issda-30_2000-prng-1-w4-p2,30_issda-2000,2000,first-2000,200,10,rng,num-start-600,600,25726,classic,1149.1036040782928,True,,True,1.0,1.0,1.0,1,"['18', '44', '49', '52', '57', '66', '74', '84', '101', '116', '117', '121', '124', '139', '155', '170', '174', '188', '218', '236', '262', '280', '325', '331', '337', '341', '347', '353', '356', '362', '364', '373', '392', '426', '432', '435', '455', '465', '473', '484', '502', '511', '512', '516', '524', '545', '550', '560', '572', '622', '632', '634', '639', '653', '665', '666', '700', '719', '725', '737', '738', '740', '742', '743', '746', '751', '762', '765', '779', '806', '819', '833', '850', '867', '868', '883', '912', '913', '932', '936', '945', '953', '983', '997', '1002', '1004', '1021', '1026', '1029', '1033', '1040', '1043', '1045', '1049', '1053', '1056', '1061', '1070', '1076', '1077', '1087', '1115', '1142', '1147', '1148', '1152', '1163', '1177', '1191', '1205', '1212', '1216', '1241', '1243', '1262', '1263', '1277', '1308', '1335', '1338', '1342', '1350', '1356', '1372', '1378', '1382', '1396', '1398', '1402', '1433', '1447', '1465', '1469', '1481', '1483', '1487', '1494', '1497', '1505', '1508', '1513', '1526', '1545', '1556', '1563', '1584', '1607', '1618', '1631', '1632', '1637', '1646', '1657', '1666', '1669', '1670', '1681', '1690', '1703', '1711', '1712', '1739', '1749', '1760', '1762', '1768', '1784', '1794', '1796', '1804', '1807', '1809', '1811', '1827', '1831', '1840', '1843', '1846', '1850', '1857', '1859', '1860', '1861', '1867', '1876', '1882', '1885', '1895', '1909', '1914', '1917', '1927', '1933', '1942', '1945', '1955', '1956', '1958', '1961', '1970']",False,4000,True,2,2fc821a47b,0.0,1.0,1.0
./expes/v2_2021-03-27_issda-30_2000-prng-1-w4-p2,30_issda-2000,2000,first-2000,300,15,rng,num-start-800,800,25726,classic,1355.0624945163727,True,,True,1.0,1.0,1.0,1,"['15', '24', '27', '32', '42', '44', '46', '56', '59', '64', '65', '70', '74', '87', '88', '91', '93', '124', '125', '130', '132', '135', '137', '158', '164', '182', '199', '200', '209', '211', '214', '215', '222', '244', '248', '255', '268', '270', '273', '275', '279', '284', '309', '311', '320', '327', '335', '347', '364', '376', '380', '384', '391', '393', '405', '433', '445', '447', '456', '460', '461', '475', '476', '480', '484', '487', '488', '489', '515', '529', '532', '540', '541', '547', '552', '555', '556', '571', '572', '573', '584', '598', '602', '612', '616', '617', '621', '635', '641', '643', '645', '646', '656', '660', '669', '672', '678', '681', '684', '690', '695', '696', '697', '705', '719', '723', '738', '746', '749', '757', '758', '772', '773', '774', '791', '794', '799', '809', '814', '835', '836', '841', '851', '863', '875', '884', '892', '894', '896', '898', '911', '924', '935', '943', '955', '961', '964', '969', '971', '976', '988', '991', '1003', '1014', '1025', '1036', '1039', '1066', '1068', '1072', '1085', '1094', '1097', '1108', '1110', '1115', '1124', '1126', '1129', '1146', '1165', '1166', '1172', '1175', '1176', '1178', '1182', '1188', '1190', '1197', '1199', '1201', '1207', '1208', '1211', '1214', '1219', '1220', '1229', '1231', '1232', '1237', '1240', '1241', '1247', '1251', '1259', '1262', '1271', '1282', '1284', '1285', '1287', '1295', '1297', '1298', '1300', '1301', '1309', '1319', '1331', '1332', '1339', '1343', '1375', '1376', '1377', '1383', '1385', '1389', '1392', '1395', '1397', '1401', '1413', '1425', '1430', '1431', '1448', '1462', '1463', '1466', '1469', '1472', '1473', '1476', '1492', '1506', '1512', '1519', '1520', '1553', '1560', '1575', '1582', '1592', '1596', '1598', '1612', '1613', '1615', '1640', '1641', '1647', '1653', '1659', '1662', '1666', '1687', '1704', '1707', '1708', '1713', '1714', '1716', '1718', '1729', '1749', '1752', '1753', '1754', '1763', '1764', '1765', '1769', '1773', '1776', '1778', '1782', '1788', '1800', '1805', '1813', '1837', '1838', '1852', '1853', '1862', '1876', '1879', '1885', '1887', '1889', '1897', '1903', '1917', '1918', '1927', '1944', '1956', '1961', '1962', '1964', '1968', '1973', '1975', '1976', '1978', '1990', '1993']",False,4000,True,2,b3197526f5,0.0,1.0,1.0
./expes/v2_2021-03-27_issda-30_2000-prng-1-w4-p2,30_issda-2000,2000,first-2000,600,30,rng,num-start-3600,3600,25726,classic,2386.737515926361,True,,True,1.0,1.0,1.0,1,"['6', '8', '10', '16', '17', '19', '24', '31', '32', '35', '36', '39', '49', '59', '60', '63', '64', '70', '75', '80', '85', '87', '89', '91', '98', '99', '112', '113', '115', '116', '121', '122', '124', '127', '128', '132', '134', '135', '138', '141', '145', '150', '151', '152', '161', '162', '168', '174', '183', '187', '190', '198', '202', '204', '205', '206', '222', '223', '231', '237', '239', '240', '247', '248', '249', '252', '256', '264', '267', '270', '282', '285', '288', '292', '295', '296', '298', '301', '302', '306', '311', '312', '315', '319', '321', '322', '324', '325', '328', '330', '331', '335', '337', '341', '344', '347', '348', '349', '351', '353', '355', '361', '367', '368', '376', '379', '383', '401', '402', '421', '423', '428', '436', '438', '440', '441', '444', '449', '450', '451', '453', '454', '456', '458', '462', '463', '467', '469', '470', '474', '475', '476', '479', '481', '482', '490', '491', '493', '497', '500', '507', '511', '514', '515', '516', '521', '523', '524', '526', '533', '535', '536', '537', '540', '553', '556', '558', '560', '562', '575', '587', '588', '589', '595', '606', '607', '620', '623', '626', '628', '636', '638', '639', '642', '645', '646', '649', '652', '653', '659', '660', '661', '663', '666', '674', '676', '677', '678', '679', '680', '681', '683', '685', '686', '688', '689', '691', '693', '694', '697', '702', '704', '705', '706', '712', '713', '723', '724', '725', '728', '729', '732', '736', '738', '740', '753', '755', '756', '760', '763', '771', '775', '778', '781', '789', '793', '796', '797', '799', '800', '804', '807', '810', '815', '818', '823', '825', '829', '830', '831', '835', '836', '849', '855', '857', '860', '862', '864', '867', '874', '878', '883', '886', '889', '890', '894', '900', '901', '903', '905', '906', '910', '912', '913', '920', '922', '923', '924', '926', '931', '933', '939', '942', '945', '947', '951', '955', '956', '957', '958', '959', '960', '963', '964', '970', '972', '974', '976', '981', '983', '986', '987', '988', '992', '995', '1003', '1005', '1008', '1009', '1012', '1014', '1015', '1017', '1020', '1021', '1022', '1024', '1025', '1027', '1029', '1036', '1037', '1039', '1041', '1046', '1048', '1050', '1057', '1061', '1062', '1064', '1065', '1066', '1068', '1071', '1085', '1086', '1089', '1094', '1097', '1098', '1114', '1115', '1119', '1122', '1124', '1127', '1130', '1135', '1137', '1141', '1147', '1157', '1158', '1161', '1167', '1168', '1169', '1170', '1172', '1178', '1180', '1183', '1186', '1191', '1196', '1197', '1199', '1202', '1203', '1209', '1216', '1220', '1222', '1225', '1236', '1239', '1251', '1254', '1257', '1258', '1260', '1263', '1265', '1267', '1271', '1275', '1280', '1283', '1286', '1288', '1293', '1300', '1302', '1303', '1307', '1314', '1322', '1323', '1324', '1325', '1328', '1329', '1330', '1336', '1342', '1343', '1344', '1346', '1349', '1350', '1352', '1357', '1362', '1363', '1370', '1371', '1376', '1379', '1386', '1387', '1388', '1390', '1396', '1398', '1402', '1404', '1410', '1412', '1414', '1415', '1417', '1419', '1422', '1423', '1425', '1427', '1428', '1436', '1438', '1445', '1450', '1451', '1454', '1459', '1472', '1473', '1476', '1477', '1478', '1482', '1483', '1486', '1489', '1493', '1506', '1508', '1511', '1515', '1518', '1520', '1522', '1524', '1526', '1527', '1537', '1538', '1539', '1544', '1547', '1551', '1554', '1557', '1558', '1572', '1574', '1581', '1585', '1586', '1592', '1593', '1595', '1602', '1604', '1606', '1608', '1615', '1616', '1623', '1625', '1627', '1631', '1634', '1636', '1637', '1640', '1645', '1646', '1648', '1649', '1650', '1651', '1659', '1660', '1662', '1667', '1681', '1683', '1686', '1690', '1695', '1701', '1711', '1716', '1717', '1718', '1721', '1722', '1724', '1728', '1729', '1735', '1736', '1737', '1743', '1748', '1749', '1752', '1753', '1756', '1757', '1763', '1768', '1769', '1773', '1776', '1777', '1780', '1781', '1783', '1787', '1792', '1793', '1797', '1800', '1802', '1806', '1809', '1812', '1813', '1816', '1817', '1823', '1827', '1829', '1830', '1831', '1842', '1847', '1848', '1854', '1857', '1858', '1859', '1862', '1863', '1867', '1870', '1874', '1877', '1884', '1886', '1888', '1889', '1890', '1893', '1895', '1896', '1900', '1901', '1906', '1908', '1913', '1914', '1915', '1916', '1918', '1922', '1927', '1935', '1936', '1938', '1940', '1942', '1945', '1947', '1948', '1950', '1953', '1958', '1965', '1967', '1971', '1977', '1981', '1982', '1983', '1987', '1992', '2000']",False,4000,True,2,786674572b,0.0,1.0,1.0
./expes/v2_2021-03-27_issda-30_2000-prng-1-w4-p2,30_issda-2000,2000,first-2000,600,30,rng,num-start-2400,2400,25726,classic,1764.9741795063019,True,,True,1.0,1.0,1.0,1,"['4', '8', '10', '11', '15', '16', '24', '27', '32', '37', '41', '42', '44', '46', '49', '53', '56', '58', '59', '64', '65', '67', '68', '70', '72', '73', '74', '75', '87', '88', '89', '91', '93', '95', '102', '103', '105', '109', '110', '113', '124', '125', '126', '130', '132', '135', '137', '140', '141', '147', '158', '159', '164', '171', '176', '177', '182', '189', '197', '199', '200', '204', '205', '209', '211', '212', '214', '215', '219', '222', '223', '233', '236', '244', '245', '246', '248', '249', '251', '253', '254', '255', '256', '257', '260', '262', '264', '266', '267', '268', '270', '273', '275', '279', '280', '284', '294', '301', '306', '309', '311', '320', '322', '327', '329', '333', '335', '347', '351', '352', '364', '366', '367', '369', '370', '376', '380', '382', '384', '391', '392', '393', '405', '407', '408', '409', '433', '445', '447', '448', '453', '455', '456', '460', '461', '466', '475', '476', '480', '482', '484', '487', '488', '489', '490', '491', '496', '501', '502', '509', '512', '515', '518', '529', '532', '537', '540', '541', '543', '547', '548', '551', '552', '554', '555', '556', '561', '571', '572', '573', '583', '584', '588', '592', '595', '598', '602', '612', '614', '615', '616', '617', '621', '623', '635', '641', '643', '645', '646', '647', '653', '656', '660', '662', '665', '667', '669', '672', '674', '678', '681', '684', '690', '695', '696', '697', '699', '700', '705', '708', '710', '718', '719', '720', '721', '723', '738', '739', '746', '749', '753', '757', '758', '763', '765', '767', '769', '770', '771', '772', '773', '774', '779', '791', '794', '797', '798', '799', '807', '809', '813', '814', '820', '822', '835', '836', '839', '841', '846', '847', '848', '851', '854', '857', '860', '862', '863', '867', '871', '873', '875', '878', '881', '884', '890', '892', '894', '896', '898', '908', '911', '924', '931', '935', '936', '943', '944', '951', '952', '955', '961', '964', '969', '970', '971', '976', '978', '986', '987', '988', '989', '991', '999', '1003', '1004', '1014', '1017', '1020', '1025', '1029', '1031', '1036', '1039', '1045', '1048', '1050', '1056', '1060', '1062', '1063', '1065', '1066', '1068', '1072', '1076', '1080', '1084', '1085', '1086', '1090', '1094', '1095', '1097', '1098', '1100', '1108', '1109', '1110', '1114', '1115', '1124', '1126', '1127', '1129', '1134', '1136', '1138', '1140', '1145', '1146', '1155', '1156', '1161', '1164', '1165', '1166', '1170', '1172', '1175', '1176', '1178', '1182', '1186', '1188', '1190', '1197', '1199', '1201', '1202', '1204', '1206', '1207', '1208', '1209', '1211', '1214', '1219', '1220', '1228', '1229', '1231', '1232', '1237', '1238', '1240', '1241', '1247', '1251', '1254', '1259', '1262', '1266', '1269', '1271', '1276', '1282', '1284', '1285', '1286', '1287', '1288', '1295', '1297', '1298', '1299', '1300', '1301', '1304', '1309', '1315', '1317', '1319', '1323', '1325', '1331', '1332', '1339', '1343', '1351', '1357', '1358', '1368', '1375', '1376', '1377', '1380', '1381', '1383', '1385', '1389', '1392', '1395', '1397', '1401', '1405', '1413', '1415', '1421', '1422', '1424', '1425', '1427', '1430', '1431', '1434', '1440', '1448', '1460', '1462', '1463', '1465', '1466', '1467', '1468', '1469', '1472', '1473', '1476', '1481', '1492', '1499', '1503', '1506', '1512', '1519', '1520', '1527', '1531', '1532', '1533', '1534', '1541', '1543', '1544', '1549', '1550', '1553', '1557', '1560', '1572', '1575', '1582', '1586', '1588', '1591', '1592', '1596', '1598', '1603', '1612', '1613', '1615', '1620', '1622', '1623', '1626', '1629', '1636', '1640', '1641', '1645', '1647', '1651', '1652', '1653', '1654', '1659', '1660', '1662', '1663', '1666', '1673', '1679', '1687', '1696', '1704', '1706', '1707', '1708', '1713', '1714', '1716', '1718', '1724', '1728', '1729', '1741', '1746', '1749', '1750', '1752', '1753', '1754', '1756', '1758', '1763', '1764', '1765', '1767', '1769', '1773', '1776', '1778', '1781', '1782', '1783', '1788', '1800', '1802', '1803', '1804', '1805', '1810', '1813', '1816', '1818', '1822', '1823', '1837', '1838', '1839', '1843', '1851', '1852', '1853', '1862', '1870', '1876', '1878', '1879', '1885', '1886', '1887', '1888', '1889', '1893', '1897', '1900', '1903', '1904', '1914', '1917', '1918', '1923', '1924', '1927', '1931', '1932', '1944', '1946', '1947', '1948', '1951', '1956', '1961', '1962', '1964', '1968', '1973', '1975', '1976', '1978', '1980', '1981', '1985', '1989', '1990', '1991', '1993', '1997']",False,4000,True,2,65159aebb9,0.0,1.0,1.0
./expes/v2_2021-03-27_issda-30_2000-prng-1-w4-p2,30_issda-2000,2000,first-2000,700,35,rng,num-start-4000,4000,25726,classic,2961.482952594757,True,,True,1.0,1.0,1.0,1,"['6', '8', '9', '11', '12', '16', '21', '26', '28', '30', '31', '33', '34', '36', '39', '52', '54', '56', '57', '64', '65', '66', '67', '68', '69', '71', '73', '74', '75', '76', '77', '85', '88', '89', '90', '91', '92', '95', '98', '100', '102', '103', '104', '107', '109', '110', '113', '114', '116', '122', '123', '124', '129', '133', '134', '135', '139', '143', '144', '145', '148', '152', '154', '156', '160', '161', '164', '166', '167', '172', '181', '183', '187', '190', '194', '196', '197', '198', '199', '203', '205', '215', '217', '219', '223', '232', '237', '238', '239', '241', '243', '245', '247', '253', '256', '257', '261', '262', '267', '273', '275', '279', '285', '286', '289', '290', '294', '299', '301', '306', '307', '310', '312', '313', '314', '315', '316', '317', '321', '324', '325', '329', '334', '337', '338', '339', '340', '341', '345', '346', '348', '351', '352', '355', '357', '358', '359', '360', '361', '362', '365', '366', '367', '374', '375', '381', '382', '384', '387', '390', '391', '392', '393', '394', '397', '399', '400', '401', '410', '413', '422', '423', '426', '428', '430', '433', '434', '439', '447', '451', '454', '458', '459', '460', '469', '482', '483', '487', '489', '491', '492', '494', '495', '497', '501', '503', '505', '506', '512', '519', '522', '531', '532', '537', '538', '540', '544', '545', '547', '557', '562', '563', '568', '569', '570', '579', '581', '585', '589', '590', '593', '594', '596', '603', '607', '614', '617', '620', '621', '627', '628', '631', '632', '637', '644', '649', '650', '655', '660', '662', '665', '670', '672', '673', '680', '686', '688', '694', '695', '700', '703', '704', '708', '712', '713', '715', '716', '717', '724', '725', '728', '735', '738', '739', '740', '743', '747', '750', '752', '766', '767', '769', '771', '778', '779', '782', '783', '788', '790', '792', '795', '796', '798', '800', '803', '804', '811', '813', '814', '817', '818', '820', '821', '822', '825', '829', '830', '831', '837', '846', '849', '851', '852', '858', '861', '862', '863', '864', '866', '867', '868', '869', '874', '876', '879', '882', '887', '888', '889', '891', '892', '893', '894', '899', '900', '901', '904', '905', '906', '911', '913', '915', '916', '917', '918', '923', '925', '930', '933', '934', '936', '938', '939', '940', '941', '942', '944', '946', '948', '950', '951', '956', '959', '962', '963', '965', '972', '974', '976', '977', '978', '979', '981', '983', '984', '989', '994', '1002', '1003', '1004', '1007', '1014', '1016', '1018', '1023', '1024', '1027', '1028', '1038', '1040', '1044', '1046', '1047', '1051', '1052', '1058', '1060', '1065', '1066', '1067', '1069', '1070', '1071', '1072', '1075', '1076', '1082', '1088', '1091', '1093', '1097', '1099', '1100', '1104', '1106', '1109', '1116', '1117', '1125', '1128', '1129', '1130', '1138', '1139', '1140', '1144', '1145', '1146', '1153', '1156', '1157', '1158', '1160', '1162', '1167', '1168', '1171', '1172', '1177', '1179', '1180', '1182', '1184', '1185', '1188', '1191', '1194', '1198', '1203', '1206', '1210', '1212', '1216', '1219', '1220', '1224', '1225', '1232', '1234', '1235', '1236', '1238', '1240', '1241', '1242', '1243', '1245', '1246', '1247', '1248', '1249', '1250', '1257', '1259', '1265', '1267', '1268', '1270', '1275', '1279', '1281', '1282', '1285', '1286', '1288', '1299', '1301', '1303', '1305', '1308', '1309', '1310', '1311', '1314', '1315', '1317', '1324', '1329', '1331', '1335', '1336', '1338', '1339', '1345', '1347', '1348', '1351', '1353', '1356', '1361', '1363', '1364', '1366', '1371', '1373', '1380', '1381', '1383', '1387', '1395', '1402', '1405', '1408', '1413', '1416', '1418', '1420', '1421', '1424', '1428', '1430', '1435', '1438', '1440', '1445', '1447', '1453', '1455', '1460', '1461', '1471', '1475', '1476', '1478', '1479', '1480', '1481', '1482', '1488', '1489', '1503', '1508', '1513', '1515', '1517', '1523', '1524', '1526', '1527', '1535', '1539', '1541', '1544', '1556', '1559', '1561', '1564', '1565', '1571', '1572', '1573', '1575', '1579', '1582', '1583', '1584', '1587', '1589', '1590', '1592', '1593', '1604', '1612', '1613', '1616', '1617', '1620', '1626', '1633', '1638', '1641', '1648', '1650', '1653', '1654', '1657', '1659', '1661', '1662', '1664', '1666', '1673', '1674', '1675', '1676', '1681', '1682', '1685', '1687', '1688', '1690', '1691', '1694', '1695', '1698', '1699', '1707', '1708', '1709', '1712', '1713', '1714', '1715', '1718', '1725', '1729', '1736', '1737', '1740', '1742', '1744', '1748', '1751', '1752', '1759', '1761', '1762', '1763', '1766', '1768', '1771', '1772', '1773', '1781', '1783', '1785', '1786', '1790', '1792', '1794', '1800', '1802', '1805', '1808', '1818', '1819', '1821', '1823', '1825', '1826', '1830', '1837', '1839', '1840', '1842', '1846', '1847', '1852', '1853', '1856', '1858', '1860', '1863', '1865', '1866', '1870', '1871', '1872', '1874', '1878', '1882', '1884', '1886', '1887', '1890', '1893', '1907', '1910', '1911', '1912', '1916', '1917', '1918', '1923', '1928', '1932', '1937', '1941', '1946', '1948', '1951', '1952', '1956', '1958', '1959', '1965', '1966', '1967', '1968', '1971', '1973', '1974', '1976', '1984', '1985', '1986', '1987', '1988', '1995', '1997']",False,4000,True,2,13a051cb1f,0.0,1.0,1.0
./expes/v2_2021-03-27_issda-30_2000-prng-1-w4-p2,30_issda-2000,2000,first-2000,800,40,rng,num-start-4000,4000,25726,classic,3315.6245617866516,True,,True,1.0,1.0,1.0,1,"['1', '2', '10', '11', '14', '20', '22', '23', '24', '25', '26', '28', '30', '31', '32', '33', '34', '35', '37', '40', '41', '44', '46', '47', '48', '50', '51', '57', '59', '61', '62', '65', '69', '72', '73', '74', '75', '77', '80', '84', '85', '86', '87', '91', '92', '96', '97', '98', '102', '104', '108', '122', '123', '124', '127', '130', '132', '135', '137', '138', '141', '142', '144', '145', '148', '149', '150', '151', '152', '153', '154', '155', '158', '159', '160', '161', '165', '170', '171', '172', '174', '175', '177', '179', '180', '181', '185', '186', '189', '191', '193', '195', '196', '197', '199', '202', '203', '206', '207', '213', '215', '218', '221', '222', '223', '224', '232', '235', '236', '237', '239', '242', '245', '250', '252', '253', '259', '261', '266', '267', '269', '270', '272', '273', '275', '276', '278', '279', '280', '284', '288', '289', '290', '291', '294', '300', '301', '305', '316', '319', '323', '324', '325', '327', '328', '337', '339', '342', '347', '348', '354', '355', '360', '361', '364', '366', '367', '371', '372', '373', '375', '378', '379', '382', '384', '386', '388', '389', '390', '391', '392', '393', '398', '399', '400', '401', '403', '404', '405', '406', '407', '409', '411', '412', '415', '418', '419', '420', '424', '427', '428', '430', '431', '432', '435', '436', '437', '438', '439', '443', '447', '448', '450', '454', '459', '464', '466', '468', '471', '472', '476', '477', '479', '486', '487', '489', '491', '495', '496', '497', '498', '501', '505', '511', '514', '521', '523', '524', '525', '526', '527', '529', '530', '532', '533', '537', '546', '552', '553', '558', '560', '564', '565', '567', '570', '573', '574', '576', '578', '580', '582', '592', '595', '596', '601', '603', '607', '613', '617', '618', '622', '623', '624', '633', '635', '636', '637', '638', '639', '646', '647', '649', '650', '654', '657', '660', '663', '669', '670', '674', '676', '677', '678', '682', '687', '690', '692', '696', '699', '700', '701', '702', '703', '704', '709', '712', '714', '719', '721', '726', '727', '728', '729', '733', '737', '740', '742', '754', '756', '758', '759', '762', '765', '769', '770', '772', '773', '777', '781', '784', '786', '788', '791', '792', '795', '796', '798', '800', '801', '803', '806', '808', '809', '810', '812', '814', '821', '823', '825', '828', '829', '830', '831', '832', '834', '836', '840', '841', '842', '843', '847', '848', '852', '853', '855', '859', '860', '862', '864', '874', '879', '881', '883', '885', '889', '891', '895', '900', '902', '903', '905', '906', '909', '913', '915', '917', '923', '926', '927', '928', '929', '930', '932', '937', '938', '940', '947', '948', '950', '951', '953', '954', '957', '961', '963', '964', '966', '968', '970', '973', '974', '975', '976', '982', '985', '986', '988', '989', '991', '996', '998', '999', '1006', '1009', '1010', '1012', '1017', '1019', '1020', '1021', '1022', '1024', '1025', '1030', '1031', '1033', '1034', '1036', '1041', '1043', '1046', '1049', '1050', '1051', '1054', '1055', '1056', '1057', '1058', '1062', '1063', '1064', '1065', '1066', '1067', '1069', '1071', '1074', '1076', '1079', '1083', '1085', '1087', '1088', '1092', '1094', '1096', '1097', '1098', '1100', '1103', '1104', '1106', '1107', '1109', '1112', '1113', '1115', '1116', '1119', '1127', '1128', '1129', '1130', '1135', '1145', '1146', '1147', '1151', '1153', '1154', '1156', '1160', '1164', '1165', '1167', '1168', '1169', '1172', '1174', '1177', '1178', '1182', '1186', '1188', '1190', '1193', '1194', '1195', '1197', '1198', '1202', '1203', '1209', '1211', '1214', '1220', '1222', '1226', '1228', '1229', '1231', '1232', '1233', '1236', '1237', '1239', '1240', '1245', '1247', '1249', '1250', '1251', '1253', '1257', '1258', '1259', '1261', '1262', '1266', '1270', '1275', '1277', '1278', '1280', '1282', '1285', '1286', '1287', '1289', '1290', '1291', '1293', '1297', '1299', '1300', '1303', '1304', '1308', '1309', '1310', '1311', '1312', '1313', '1315', '1316', '1319', '1328', '1330', '1332', '1334', '1337', '1339', '1340', '1342', '1346', '1352', '1357', '1364', '1365', '1375', '1377', '1379', '1383', '1389', '1390', '1395', '1397', '1398', '1402', '1403', '1404', '1405', '1407', '1408', '1412', '1416', '1421', '1422', '1423', '1429', '1431', '1434', '1436', '1437', '1438', '1442', '1443', '1444', '1448', '1450', '1452', '1457', '1463', '1467', '1470', '1472', '1476', '1479', '1480', '1482', '1486', '1489', '1492', '1493', '1497', '1499', '1501', '1506', '1510', '1514', '1515', '1516', '1518', '1522', '1525', '1534', '1537', '1544', '1546', '1547', '1549', '1553', '1560', '1561', '1562', '1567', '1568', '1570', '1572', '1574', '1576', '1583', '1594', '1595', '1596', '1598', '1600', '1614', '1618', '1620', '1622', '1623', '1625', '1632', '1633', '1635', '1637', '1639', '1640', '1641', '1642', '1645', '1646', '1647', '1649', '1651', '1654', '1658', '1659', '1660', '1669', '1671', '1675', '1676', '1679', '1682', '1684', '1687', '1688', '1690', '1698', '1700', '1701', '1702', '1703', '1704', '1705', '1706', '1715', '1717', '1719', '1721', '1725', '1726', '1728', '1730', '1732', '1734', '1736', '1739', '1743', '1744', '1745', '1746', '1750', '1752', '1753', '1755', '1756', '1763', '1769', '1770', '1771', '1774', '1775', '1777', '1782', '1785', '1788', '1794', '1800', '1801', '1802', '1803', '1807', '1813', '1818', '1819', '1821', '1824', '1825', '1827', '1829', '1830', '1835', '1836', '1837', '1844', '1845', '1846', '1849', '1854', '1855', '1856', '1858', '1861', '1862', '1864', '1865', '1867', '1873', '1874', '1876', '1879', '1884', '1885', '1886', '1888', '1890', '1892', '1893', '1895', '1896', '1899', '1904', '1906', '1907', '1909', '1910', '1913', '1914', '1917', '1918', '1925', '1926', '1928', '1934', '1935', '1937', '1940', '1944', '1946', '1949', '1956', '1960', '1961', '1963', '1965', '1969', '1972', '1974', '1975', '1976', '1981', '1984', '1986', '1989', '1993', '1997']",False,4000,True,2,2925f6c7dc,0.0,1.0,1.0
./expes/v2_2021-03-27_issda-30_2000-prng-1-w4-p2,30_issda-2000,2000,first-2000,100,5,rng,num-start-1200,1200,25726,classic,289.16558742523193,True,,True,1.0,1.0,1.0,1,"['4', '23', '39', '63', '106', '121', '125', '153', '170', '172', '179', '187', '231', '277', '293', '298', '333', '335', '351', '393', '409', '431', '458', '467', '536', '551', '562', '641', '691', '696', '717', '730', '744', '753', '768', '782', '788', '790', '821', '829', '858', '867', '868', '902', '909', '943', '962', '972', '977', '989', '1039', '1043', '1052', '1084', '1105', '1109', '1137', '1144', '1181', '1221', '1232', '1245', '1248', '1273', '1279', '1313', '1318', '1347', '1354', '1355', '1356', '1360', '1365', '1369', '1396', '1407', '1414', '1415', '1428', '1488', '1613', '1635', '1660', '1671', '1677', '1678', '1679', '1726', '1771', '1774', '1807', '1814', '1856', '1874', '1882', '1928', '1939', '1982', '1990', '2000']",False,4000,True,2,1cee362b16,0.0,1.0,1.0
./expes/v2_2021-03-27_issda-30_2000-prng-1-w4-p2,30_issda-2000,2000,first-2000,100,5,rng,num-start-400,400,25726,classic,429.8906018733978,True,,True,1.0,1.0,1.0,1,"['24', '35', '36', '39', '75', '98', '113', '135', '151', '162', '205', '239', '240', '288', '302', '311', '324', '353', '401', '423', '428', '458', '469', '474', '490', '491', '540', '575', '587', '606', '626', '642', '646', '693', '706', '728', '729', '738', '753', '804', '810', '823', '830', '860', '862', '900', '923', '933', '945', '956', '960', '1003', '1005', '1014', '1048', '1068', '1086', '1094', '1137', '1157', '1167', '1183', '1258', '1323', '1396', '1415', '1422', '1423', '1451', '1473', '1486', '1489', '1508', '1592', '1608', '1634', '1637', '1649', '1659', '1718', '1722', '1729', '1753', '1756', '1757', '1769', '1792', '1802', '1817', '1827', '1870', '1888', '1890', '1895', '1906', '1915', '1922', '1936', '1965', '1977']",False,4000,True,2,3eefa2e6f6,0.0,1.0,1.0
./expes/v2_2021-03-27_issda-30_2000-prng-1-w4-p2,30_issda-2000,2000,first-2000,1000,50,rng,num-start-3600,3600,25726,classic,4453.916641235352,True,,False,1.0,1.0,1.0,1,"['2', '4', '6', '7', '8', '10', '11', '12', '15', '17', '18', '20', '22', '27', '32', '37', '38', '39', '41', '42', '44', '47', '48', '53', '55', '56', '58', '61', '62', '65', '66', '67', '70', '71', '72', '73', '75', '76', '77', '78', '79', '80', '83', '84', '85', '88', '89', '92', '93', '95', '97', '102', '106', '109', '110', '112', '114', '118', '121', '122', '124', '126', '127', '128', '131', '133', '136', '137', '138', '139', '142', '145', '147', '148', '152', '153', '154', '156', '158', '159', '160', '161', '162', '164', '165', '166', '167', '168', '170', '171', '175', '176', '178', '182', '183', '185', '188', '189', '190', '191', '192', '195', '196', '199', '202', '207', '212', '213', '214', '218', '220', '227', '230', '232', '233', '234', '235', '236', '238', '240', '242', '243', '245', '248', '250', '251', '262', '267', '272', '273', '275', '278', '280', '283', '284', '285', '286', '287', '288', '289', '291', '294', '295', '297', '298', '305', '306', '307', '309', '312', '313', '314', '316', '318', '320', '321', '322', '323', '325', '326', '329', '331', '332', '333', '334', '335', '336', '338', '339', '340', '341', '343', '345', '346', '348', '349', '352', '353', '354', '355', '358', '359', '361', '362', '363', '364', '365', '368', '370', '371', '372', '374', '375', '377', '379', '380', '385', '391', '392', '393', '397', '399', '400', '401', '402', '404', '405', '407', '408', '409', '410', '411', '412', '414', '416', '418', '421', '423', '425', '426', '427', '429', '431', '432', '433', '434', '435', '436', '437', '440', '441', '442', '443', '448', '449', '450', '453', '455', '456', '460', '464', '469', '470', '472', '474', '475', '476', '478', '479', '484', '487', '488', '489', '494', '496', '497', '501', '503', '507', '510', '511', '512', '513', '515', '516', '519', '520', '521', '524', '525', '527', '528', '529', '530', '532', '534', '536', '537', '538', '539', '540', '550', '552', '555', '557', '558', '562', '566', '567', '568', '569', '571', '573', '574', '575', '576', '579', '580', '581', '582', '585', '586', '589', '590', '591', '592', '593', '594', '595', '596', '597', '598', '599', '600', '601', '605', '606', '607', '608', '609', '611', '612', '613', '615', '616', '620', '621', '622', '623', '624', '625', '626', '628', '630', '632', '635', '638', '639', '640', '641', '642', '644', '645', '646', '648', '649', '657', '658', '659', '660', '661', '662', '663', '665', '666', '669', '670', '673', '676', '677', '678', '679', '682', '687', '689', '690', '692', '694', '695', '696', '697', '698', '703', '705', '707', '708', '710', '711', '712', '714', '718', '719', '724', '729', '731', '732', '734', '736', '737', '738', '742', '743', '745', '747', '748', '750', '753', '762', '763', '770', '778', '781', '782', '784', '786', '793', '794', '795', '796', '800', '802', '803', '804', '805', '809', '811', '812', '815', '820', '821', '823', '825', '826', '827', '828', '832', '834', '839', '841', '843', '844', '845', '846', '847', '848', '850', '852', '854', '855', '857', '861', '863', '866', '867', '868', '869', '870', '871', '877', '881', '883', '888', '889', '892', '893', '894', '895', '896', '898', '899', '900', '901', '903', '904', '906', '909', '910', '915', '917', '925', '926', '927', '930', '932', '934', '936', '939', '940', '941', '948', '950', '952', '957', '965', '966', '968', '970', '973', '974', '976', '977', '978', '979', '980', '981', '982', '987', '991', '992', '997', '1002', '1004', '1005', '1008', '1012', '1013', '1015', '1016', '1017', '1019', '1021', '1022', '1023', '1030', '1037', '1038', '1040', '1042', '1043', '1044', '1046', '1047', '1048', '1050', '1052', '1055', '1060', '1061', '1063', '1064', '1065', '1066', '1067', '1072', '1074', '1075', '1076', '1077', '1078', '1079', '1080', '1082', '1084', '1085', '1087', '1091', '1095', '1097', '1099', '1100', '1101', '1102', '1103', '1104', '1107', '1108', '1109', '1110', '1113', '1114', '1115', '1117', '1118', '1119', '1121', '1122', '1125', '1126', '1128', '1129', '1132', '1134', '1144', '1147', '1149', '1150', '1152', '1158', '1162', '1164', '1166', '1167', '1168', '1169', '1171', '1173', '1174', '1176', '1180', '1186', '1188', '1192', '1193', '1194', '1197', '1199', '1203', '1205', '1206', '1211', '1215', '1216', '1218', '1220', '1223', '1224', '1225', '1227', '1228', '1229', '1230', '1231', '1232', '1233', '1236', '1237', '1239', '1240', '1241', '1243', '1246', '1248', '1249', '1250', '1256', '1260', '1261', '1265', '1266', '1269', '1270', '1271', '1272', '1274', '1275', '1277', '1280', '1281', '1283', '1284', '1285', '1286', '1288', '1291', '1292', '1294', '1295', '1296', '1300', '1301', '1305', '1311', '1312', '1313', '1314', '1316', '1317', '1318', '1319', '1322', '1323', '1325', '1326', '1328', '1335', '1336', '1338', '1340', '1341', '1342', '1346', '1349', '1351', '1353', '1354', '1356', '1362', '1367', '1368', '1369', '1370', '1373', '1376', '1379', '1380', '1383', '1384', '1385', '1386', '1387', '1388', '1393', '1395', '1398', '1400', '1402', '1405', '1409', '1413', '1414', '1415', '1416', '1418', '1420', '1421', '1425', '1427', '1429', '1430', '1431', '1436', '1438', '1441', '1443', '1444', '1447', '1448', '1451', '1453', '1456', '1457', '1461', '1462', '1465', '1466', '1467', '1470', '1472', '1473', '1474', '1478', '1483', '1485', '1495', '1498', '1499', '1500', '1502', '1506', '1508', '1510', '1512', '1513', '1516', '1523', '1524', '1526', '1527', '1528', '1529', '1530', '1533', '1537', '1539', '1544', '1545', '1546', '1548', '1549', '1553', '1554', '1555', '1557', '1558', '1561', '1566', '1568', '1571', '1573', '1577', '1578', '1580', '1582', '1585', '1586', '1588', '1591', '1594', '1597', '1601', '1603', '1604', '1606', '1607', '1608', '1611', '1612', '1613', '1616', '1617', '1619', '1620', '1626', '1631', '1634', '1635', '1636', '1638', '1640', '1641', '1642', '1643', '1644', '1645', '1648', '1653', '1654', '1657', '1659', '1665', '1669', '1671', '1675', '1676', '1677', '1680', '1681', '1687', '1690', '1691', '1692', '1694', '1695', '1698', '1700', '1702', '1703', '1704', '1708', '1709', '1710', '1711', '1714', '1716', '1717', '1718', '1719', '1720', '1722', '1725', '1727', '1729', '1730', '1731', '1733', '1735', '1736', '1737', '1738', '1747', '1748', '1749', '1751', '1753', '1754', '1757', '1758', '1759', '1761', '1765', '1766', '1767', '1770', '1771', '1773', '1774', '1777', '1781', '1782', '1784', '1790', '1791', '1792', '1795', '1796', '1798', '1800', '1801', '1803', '1804', '1805', '1807', '1808', '1809', '1814', '1816', '1817', '1819', '1820', '1821', '1822', '1823', '1824', '1825', '1826', '1827', '1828', '1830', '1832', '1833', '1835', '1837', '1838', '1842', '1843', '1845', '1846', '1848', '1850', '1851', '1852', '1853', '1854', '1858', '1859', '1861', '1862', '1865', '1866', '1867', '1868', '1870', '1871', '1873', '1875', '1876', '1878', '1879', '1880', '1881', '1882', '1885', '1887', '1889', '1890', '1891', '1893', '1894', '1896', '1900', '1901', '1902', '1903', '1905', '1906', '1909', '1911', '1914', '1915', '1916', '1918', '1919', '1920', '1921', '1922', '1923', '1924', '1925', '1927', '1928', '1929', '1930', '1932', '1934', '1935', '1942', '1945', '1946', '1947', '1948', '1949', '1951', '1953', '1955', '1956', '1957', '1958', '1959', '1964', '1965', '1966', '1967', '1968', '1970', '1972', '1974', '1975', '1976', '1977', '1979', '1984', '1986', '1988', '1989', '1990', '1991', '1994', '1995', '1997', '1998']",True,4000,True,2,67fb098ad7,0.0,0.0,1.0
./expes/v2_2021-03-27_issda-30_2000-prng-1-w4-p2,30_issda-2000,2000,first-2000,100,5,rng,num-start-2200,2200,25726,classic,1520.507786989212,True,,True,1.0,1.0,1.0,1,"['30', '62', '146', '174', '241', '259', '267', '268', '277', '286', '301', '302', '362', '368', '381', '384', '415', '439', '462', '473', '480', '519', '526', '531', '537', '538', '539', '565', '574', '596', '601', '604', '643', '709', '729', '730', '746', '761', '811', '880', '881', '884', '895', '902', '909', '919', '924', '941', '997', '1006', '1071', '1089', '1098', '1126', '1136', '1156', '1183', '1218', '1241', '1247', '1252', '1298', '1308', '1313', '1336', '1342', '1365', '1374', '1387', '1401', '1402', '1404', '1416', '1493', '1504', '1526', '1533', '1547', '1626', '1627', '1635', '1643', '1651', '1659', '1679', '1693', '1709', '1716', '1733', '1740', '1741', '1781', '1785', '1797', '1820', '1822', '1823', '1840', '1863', '1945']",False,4000,True,2,7655be550a,0.0,1.0,1.0
./expes/v2_2021-03-27_issda-30_2000-prng-1-w4-p2,30_issda-2000,2000,first-2000,500,25,rng,num-start-3200,3200,25726,classic,1963.8540170192719,True,,True,1.0,1.0,1.0,1,"['6', '8', '10', '19', '24', '31', '32', '35', '36', '39', '49', '59', '63', '64', '70', '75', '85', '89', '98', '113', '115', '116', '121', '122', '124', '127', '132', '135', '138', '141', '145', '150', '151', '152', '161', '162', '168', '174', '190', '198', '202', '204', '205', '206', '222', '223', '237', '239', '240', '247', '249', '256', '264', '267', '270', '288', '292', '295', '301', '302', '306', '311', '312', '319', '321', '322', '324', '325', '328', '330', '331', '335', '337', '341', '347', '349', '351', '353', '355', '361', '367', '368', '379', '383', '401', '402', '421', '423', '428', '436', '438', '440', '441', '444', '450', '451', '453', '458', '462', '463', '467', '469', '470', '474', '475', '476', '479', '481', '482', '490', '491', '493', '497', '500', '507', '511', '514', '515', '516', '521', '523', '524', '526', '533', '537', '540', '553', '556', '558', '560', '562', '575', '587', '588', '589', '595', '606', '620', '623', '626', '628', '636', '638', '639', '642', '645', '646', '652', '653', '659', '660', '663', '666', '674', '677', '678', '679', '681', '683', '685', '686', '688', '689', '691', '693', '694', '697', '702', '704', '706', '712', '713', '723', '725', '728', '729', '732', '738', '753', '755', '756', '760', '763', '771', '775', '778', '781', '789', '793', '796', '799', '800', '804', '807', '810', '818', '823', '825', '829', '830', '831', '835', '836', '849', '857', '860', '862', '867', '878', '883', '886', '889', '900', '905', '906', '910', '912', '913', '920', '922', '923', '924', '926', '931', '933', '939', '942', '945', '947', '951', '955', '956', '957', '958', '959', '960', '963', '964', '970', '972', '976', '981', '983', '986', '987', '992', '995', '1003', '1005', '1008', '1009', '1012', '1014', '1017', '1020', '1021', '1022', '1024', '1025', '1027', '1029', '1036', '1037', '1046', '1048', '1050', '1061', '1062', '1064', '1065', '1066', '1068', '1085', '1086', '1089', '1094', '1097', '1114', '1115', '1122', '1124', '1127', '1130', '1137', '1141', '1147', '1157', '1158', '1161', '1167', '1169', '1170', '1172', '1178', '1180', '1183', '1186', '1191', '1196', '1197', '1202', '1203', '1216', '1220', '1222', '1239', '1251', '1254', '1257', '1258', '1260', '1263', '1265', '1267', '1283', '1286', '1288', '1302', '1314', '1322', '1323', '1324', '1325', '1328', '1329', '1330', '1336', '1342', '1343', '1346', '1349', '1350', '1352', '1357', '1362', '1363', '1370', '1371', '1379', '1386', '1387', '1388', '1390', '1396', '1398', '1402', '1404', '1410', '1412', '1415', '1417', '1419', '1422', '1423', '1425', '1427', '1428', '1436', '1438', '1445', '1450', '1451', '1454', '1473', '1477', '1478', '1482', '1483', '1486', '1489', '1493', '1506', '1508', '1511', '1515', '1518', '1520', '1522', '1526', '1537', '1539', '1544', '1547', '1551', '1554', '1557', '1558', '1585', '1586', '1592', '1593', '1595', '1602', '1604', '1606', '1608', '1615', '1616', '1623', '1627', '1631', '1634', '1637', '1640', '1646', '1648', '1649', '1651', '1659', '1660', '1667', '1683', '1686', '1690', '1695', '1701', '1711', '1716', '1717', '1718', '1721', '1722', '1724', '1728', '1729', '1735', '1737', '1743', '1748', '1752', '1753', '1756', '1757', '1763', '1768', '1769', '1773', '1776', '1777', '1780', '1781', '1783', '1787', '1792', '1793', '1797', '1800', '1802', '1806', '1812', '1813', '1816', '1817', '1823', '1827', '1829', '1830', '1831', '1842', '1847', '1848', '1854', '1858', '1859', '1862', '1867', '1870', '1874', '1877', '1884', '1888', '1889', '1890', '1895', '1896', '1900', '1901', '1906', '1913', '1915', '1916', '1918', '1922', '1935', '1936', '1938', '1940', '1942', '1945', '1947', '1948', '1953', '1958', '1965', '1967', '1971', '1977', '1982', '1992', '2000']",False,4000,True,2,f73a62f14c,0.0,1.0,1.0
./expes/v2_2021-03-27_issda-30_2000-prng-1-w4-p2,30_issda-2000,2000,first-2000,1000,50,rng,num-start-600,600,25726,classic,4074.0184977054596,False,,False,0,,,0,"['1', '2', '3', '4', '6', '7', '11', '13', '19', '21', '24', '26', '27', '28', '30', '34', '35', '36', '38', '39', '41', '42', '45', '46', '47', '49', '52', '53', '55', '56', '57', '58', '60', '61', '66', '68', '69', '70', '71', '74', '75', '76', '78', '81', '82', '86', '90', '93', '96', '97', '99', '100', '101', '104', '106', '107', '108', '110', '111', '115', '117', '118', '121', '124', '125', '126', '128', '129', '130', '131', '134', '136', '137', '138', '141', '146', '148', '155', '158', '160', '161', '162', '166', '168', '172', '173', '175', '178', '179', '180', '181', '183', '187', '188', '189', '193', '195', '196', '199', '202', '203', '205', '209', '213', '219', '221', '222', '224', '226', '227', '228', '231', '232', '236', '237', '238', '242', '243', '244', '248', '250', '251', '253', '256', '257', '259', '260', '265', '266', '267', '268', '269', '270', '271', '272', '273', '274', '276', '280', '282', '284', '285', '287', '289', '290', '291', '292', '293', '294', '295', '299', '301', '304', '305', '306', '307', '309', '310', '312', '315', '317', '320', '322', '326', '327', '328', '329', '331', '332', '335', '339', '340', '341', '343', '346', '347', '348', '351', '352', '354', '360', '361', '364', '365', '366', '368', '369', '370', '371', '372', '373', '375', '378', '379', '380', '382', '386', '392', '393', '397', '399', '401', '403', '404', '407', '408', '409', '410', '412', '413', '415', '419', '420', '424', '425', '426', '427', '428', '429', '434', '436', '437', '440', '441', '442', '444', '449', '452', '457', '459', '464', '468', '472', '473', '474', '479', '481', '482', '483', '486', '487', '488', '489', '490', '492', '493', '495', '499', '502', '503', '504', '505', '509', '510', '511', '513', '514', '515', '517', '521', '524', '525', '529', '533', '538', '540', '541', '543', '548', '549', '550', '555', '558', '561', '562', '563', '565', '568', '569', '571', '573', '574', '576', '577', '579', '580', '581', '582', '585', '586', '587', '588', '592', '593', '594', '595', '597', '600', '601', '602', '604', '605', '606', '607', '608', '612', '616', '617', '618', '620', '622', '626', '627', '628', '629', '630', '634', '635', '637', '639', '640', '641', '643', '645', '647', '648', '649', '650', '651', '654', '658', '659', '662', '663', '664', '665', '667', '668', '677', '678', '680', '683', '685', '689', '693', '694', '696', '697', '698', '700', '701', '705', '706', '708', '713', '714', '715', '716', '717', '718', '720', '721', '724', '726', '727', '728', '729', '731', '732', '733', '734', '735', '740', '741', '742', '743', '744', '745', '746', '747', '750', '751', '753', '756', '757', '761', '762', '764', '766', '767', '768', '770', '771', '772', '773', '775', '777', '778', '779', '780', '782', '783', '784', '785', '787', '788', '790', '791', '792', '797', '798', '799', '800', '803', '804', '805', '806', '811', '814', '817', '818', '821', '822', '825', '827', '828', '830', '831', '832', '835', '836', '837', '839', '840', '841', '847', '848', '850', '851', '854', '858', '859', '860', '862', '864', '867', '868', '872', '875', '876', '878', '879', '880', '882', '885', '887', '888', '890', '893', '897', '904', '905', '906', '909', '912', '914', '920', '922', '928', '929', '930', '934', '936', '945', '946', '947', '948', '949', '951', '953', '954', '958', '959', '961', '962', '963', '966', '967', '968', '970', '972', '973', '975', '976', '977', '978', '980', '982', '983', '984', '985', '986', '987', '988', '989', '990', '991', '995', '997', '1000', '1003', '1004', '1006', '1007', '1008', '1009', '1011', '1013', '1017', '1019', '1020', '1023', '1025', '1027', '1030', '1036', '1038', '1042', '1049', '1050', '1051', '1052', '1056', '1057', '1058', '1059', '1060', '1062', '1063', '1070', '1075', '1081', '1083', '1085', '1086', '1087', '1089', '1090', '1091', '1093', '1094', '1100', '1102', '1103', '1105', '1106', '1109', '1110', '1111', '1114', '1115', '1117', '1118', '1121', '1123', '1124', '1125', '1127', '1130', '1131', '1133', '1134', '1136', '1137', '1138', '1139', '1142', '1146', '1148', '1151', '1152', '1155', '1156', '1158', '1159', '1165', '1170', '1171', '1174', '1175', '1176', '1178', '1179', '1182', '1185', '1187', '1189', '1190', '1193', '1197', '1200', '1201', '1202', '1204', '1208', '1209', '1210', '1214', '1216', '1217', '1219', '1221', '1222', '1226', '1230', '1231', '1236', '1237', '1240', '1241', '1246', '1247', '1250', '1251', '1252', '1253', '1254', '1257', '1259', '1260', '1264', '1265', '1266', '1269', '1271', '1272', '1274', '1275', '1276', '1277', '1278', '1279', '1280', '1281', '1282', '1284', '1285', '1290', '1292', '1293', '1295', '1305', '1308', '1312', '1316', '1320', '1321', '1323', '1326', '1327', '1328', '1329', '1330', '1331', '1332', '1334', '1336', '1338', '1339', '1340', '1342', '1343', '1344', '1345', '1352', '1353', '1355', '1356', '1357', '1359', '1360', '1363', '1364', '1365', '1368', '1369', '1370', '1373', '1374', '1375', '1376', '1377', '1380', '1382', '1385', '1388', '1389', '1392', '1394', '1395', '1396', '1397', '1398', '1399', '1404', '1405', '1408', '1409', '1410', '1411', '1412', '1415', '1417', '1419', '1423', '1424', '1425', '1427', '1428', '1429', '1435', '1437', '1439', '1441', '1443', '1444', '1445', '1446', '1448', '1450', '1451', '1453', '1460', '1461', '1464', '1465', '1467', '1468', '1470', '1471', '1472', '1474', '1475', '1476', '1477', '1478', '1480', '1481', '1485', '1487', '1488', '1489', '1491', '1494', '1495', '1496', '1498', '1499', '1500', '1501', '1509', '1512', '1513', '1514', '1516', '1517', '1518', '1520', '1521', '1523', '1526', '1527', '1533', '1536', '1537', '1538', '1539', '1541', '1543', '1544', '1547', '1548', '1549', '1553', '1555', '1556', '1558', '1561', '1565', '1566', '1567', '1569', '1572', '1574', '1576', '1577', '1582', '1585', '1587', '1589', '1590', '1595', '1596', '1598', '1599', '1600', '1601', '1602', '1609', '1610', '1614', '1620', '1622', '1627', '1628', '1629', '1631', '1632', '1633', '1634', '1636', '1640', '1641', '1642', '1643', '1645', '1648', '1650', '1654', '1655', '1657', '1663', '1664', '1665', '1666', '1668', '1671', '1673', '1675', '1677', '1679', '1681', '1682', '1683', '1684', '1689', '1693', '1694', '1697', '1700', '1703', '1704', '1706', '1707', '1711', '1712', '1713', '1714', '1715', '1717', '1718', '1721', '1722', '1723', '1724', '1725', '1727', '1729', '1731', '1738', '1739', '1741', '1742', '1745', '1746', '1749', '1751', '1753', '1755', '1759', '1761', '1768', '1769', '1775', '1776', '1777', '1778', '1779', '1780', '1782', '1785', '1787', '1793', '1795', '1796', '1800', '1803', '1804', '1806', '1808', '1814', '1817', '1819', '1821', '1822', '1823', '1826', '1827', '1829', '1830', '1831', '1833', '1836', '1837', '1838', '1841', '1843', '1844', '1846', '1848', '1850', '1861', '1862', '1865', '1866', '1867', '1868', '1870', '1872', '1874', '1877', '1878', '1881', '1886', '1887', '1888', '1889', '1892', '1893', '1894', '1899', '1903', '1904', '1906', '1910', '1915', '1916', '1917', '1918', '1920', '1921', '1923', '1924', '1925', '1926', '1927', '1928', '1930', '1931', '1932', '1935', '1936', '1937', '1945', '1946', '1947', '1948', '1949', '1950', '1951', '1953', '1955', '1956', '1957', '1959', '1960', '1961', '1963', '1966', '1967', '1968', '1969', '1970', '1973', '1976', '1977', '1980', '1982', '1983', '1984', '1985', '1986', '1990', '1992', '1993', '1994', '1997', '1998', '1999', '2000']",True,4000,True,2,de480aa554,0.0,0.0,0.0
./expes/v2_2021-03-27_issda-30_2000-prng-1-w4-p2,30_issda-2000,2000,first-2000,400,20,rng,num-start-200,200,25726,classic,4022.414061307907,False,,False,0,,,0,"['1', '10', '13', '26', '31', '35', '38', '42', '45', '59', '62', '63', '64', '66', '67', '70', '76', '78', '93', '94', '107', '111', '117', '128', '131', '142', '152', '154', '156', '157', '159', '166', '172', '176', '181', '183', '184', '191', '193', '197', '200', '206', '216', '230', '234', '240', '245', '253', '258', '260', '261', '263', '278', '281', '283', '292', '296', '297', '299', '308', '310', '317', '323', '324', '330', '334', '335', '347', '353', '355', '374', '377', '380', '381', '385', '387', '394', '395', '396', '397', '402', '404', '406', '408', '412', '429', '430', '454', '457', '476', '489', '493', '499', '502', '503', '512', '513', '515', '522', '525', '536', '544', '545', '549', '552', '559', '562', '565', '567', '574', '577', '586', '593', '596', '597', '598', '622', '624', '627', '640', '649', '652', '655', '656', '663', '675', '682', '688', '689', '704', '718', '732', '738', '739', '740', '741', '742', '745', '751', '759', '760', '761', '765', '768', '771', '773', '774', '778', '779', '796', '798', '815', '816', '819', '838', '840', '841', '848', '859', '864', '865', '867', '870', '874', '881', '883', '887', '901', '903', '904', '910', '912', '914', '916', '921', '925', '926', '948', '951', '957', '961', '964', '965', '969', '973', '978', '979', '981', '982', '991', '994', '995', '997', '999', '1000', '1001', '1002', '1007', '1008', '1013', '1018', '1019', '1024', '1025', '1029', '1030', '1032', '1039', '1055', '1059', '1066', '1070', '1075', '1076', '1077', '1081', '1097', '1102', '1103', '1105', '1121', '1130', '1134', '1143', '1144', '1147', '1149', '1154', '1156', '1165', '1167', '1173', '1176', '1180', '1187', '1202', '1206', '1207', '1208', '1217', '1224', '1233', '1234', '1236', '1239', '1243', '1246', '1250', '1254', '1257', '1263', '1266', '1267', '1269', '1271', '1278', '1282', '1287', '1289', '1293', '1298', '1300', '1301', '1306', '1308', '1310', '1321', '1323', '1324', '1328', '1340', '1343', '1345', '1351', '1358', '1369', '1373', '1375', '1385', '1390', '1391', '1394', '1395', '1397', '1405', '1415', '1421', '1423', '1425', '1430', '1433', '1436', '1437', '1446', '1451', '1460', '1462', '1463', '1465', '1472', '1473', '1478', '1480', '1483', '1493', '1494', '1495', '1499', '1505', '1514', '1516', '1522', '1527', '1529', '1539', '1548', '1551', '1556', '1562', '1568', '1578', '1585', '1594', '1595', '1603', '1606', '1611', '1621', '1625', '1631', '1632', '1639', '1643', '1646', '1649', '1650', '1651', '1652', '1667', '1672', '1673', '1676', '1684', '1696', '1703', '1706', '1709', '1718', '1730', '1741', '1748', '1758', '1773', '1783', '1787', '1795', '1801', '1803', '1813', '1822', '1828', '1830', '1843', '1849', '1853', '1860', '1862', '1863', '1865', '1867', '1870', '1871', '1877', '1883', '1889', '1891', '1893', '1899', '1900', '1911', '1914', '1919', '1922', '1925', '1927', '1933', '1936', '1941', '1946', '1949', '1950', '1971', '1976', '1977', '1978', '1979', '1987', '1989', '1997', '2000']",True,4000,True,2,233a5bd667,0.0,0.0,0.0
./expes/v2_2021-03-27_issda-30_2000-prng-1-w4-p2,30_issda-2000,2000,first-2000,300,15,rng,num-start-1000,1000,25726,classic,2183.038198709488,True,,True,1.0,1.0,1.0,1,"['1', '13', '26', '31', '35', '38', '42', '45', '59', '62', '64', '76', '78', '93', '94', '111', '117', '128', '142', '156', '157', '166', '172', '176', '181', '183', '184', '191', '193', '197', '200', '206', '216', '230', '240', '245', '253', '260', '261', '281', '283', '292', '296', '297', '299', '317', '324', '330', '334', '347', '353', '374', '380', '385', '387', '394', '395', '396', '397', '402', '404', '406', '408', '412', '430', '457', '476', '499', '502', '503', '513', '515', '522', '525', '536', '544', '545', '549', '552', '559', '593', '596', '597', '622', '624', '627', '640', '652', '655', '656', '663', '675', '682', '688', '732', '739', '740', '741', '742', '751', '760', '765', '768', '771', '773', '774', '778', '779', '798', '815', '816', '838', '840', '841', '848', '864', '865', '867', '870', '874', '881', '904', '912', '914', '916', '921', '925', '926', '948', '957', '961', '964', '965', '973', '979', '981', '991', '994', '995', '997', '999', '1000', '1001', '1002', '1007', '1008', '1018', '1019', '1024', '1025', '1030', '1032', '1055', '1059', '1070', '1075', '1076', '1081', '1102', '1103', '1105', '1130', '1134', '1143', '1147', '1154', '1167', '1176', '1180', '1202', '1206', '1207', '1208', '1217', '1224', '1233', '1234', '1236', '1243', '1246', '1250', '1254', '1257', '1263', '1266', '1267', '1269', '1271', '1278', '1282', '1287', '1289', '1293', '1298', '1300', '1301', '1306', '1321', '1323', '1324', '1328', '1340', '1343', '1345', '1351', '1358', '1369', '1373', '1375', '1390', '1391', '1394', '1395', '1397', '1405', '1421', '1423', '1430', '1433', '1436', '1437', '1446', '1463', '1472', '1473', '1478', '1480', '1483', '1493', '1494', '1495', '1505', '1529', '1548', '1556', '1562', '1578', '1585', '1594', '1603', '1606', '1621', '1625', '1631', '1632', '1639', '1643', '1646', '1649', '1650', '1651', '1652', '1667', '1673', '1684', '1696', '1703', '1706', '1709', '1718', '1730', '1748', '1773', '1783', '1787', '1795', '1801', '1803', '1822', '1828', '1830', '1843', '1849', '1853', '1860', '1863', '1865', '1867', '1870', '1871', '1877', '1883', '1891', '1893', '1899', '1900', '1911', '1919', '1922', '1927', '1941', '1949', '1971', '1976', '1977', '1978', '1987', '1989', '1997', '2000']",False,4000,True,2,034ad3fb31,0.0,1.0,1.0
./expes/v2_2021-03-27_issda-30_2000-prng-1-w4-p2,30_issda-2000,2000,first-2000,200,10,rng,num-start-1800,1800,25726,classic,1495.8592221736908,True,,True,1.0,1.0,1.0,1,"['3', '29', '34', '68', '80', '83', '128', '129', '142', '152', '165', '169', '184', '187', '188', '192', '195', '203', '207', '224', '237', '240', '256', '267', '286', '287', '292', '301', '307', '350', '377', '383', '388', '390', '392', '417', '419', '441', '448', '452', '455', '483', '489', '496', '498', '500', '514', '531', '533', '534', '556', '564', '565', '578', '590', '595', '597', '618', '622', '636', '648', '650', '656', '665', '667', '677', '682', '683', '687', '725', '732', '734', '762', '789', '802', '817', '830', '859', '862', '890', '907', '912', '918', '923', '967', '976', '977', '996', '997', '1003', '1009', '1011', '1034', '1041', '1048', '1068', '1069', '1075', '1091', '1107', '1108', '1113', '1121', '1122', '1124', '1129', '1132', '1147', '1163', '1179', '1188', '1195', '1203', '1204', '1208', '1222', '1233', '1236', '1252', '1254', '1255', '1267', '1281', '1291', '1312', '1314', '1345', '1353', '1369', '1391', '1392', '1400', '1401', '1433', '1435', '1442', '1445', '1448', '1455', '1474', '1495', '1496', '1499', '1548', '1552', '1553', '1606', '1608', '1625', '1628', '1635', '1638', '1645', '1646', '1649', '1660', '1663', '1669', '1683', '1690', '1691', '1696', '1699', '1700', '1716', '1721', '1726', '1730', '1731', '1740', '1742', '1773', '1777', '1783', '1793', '1796', '1824', '1827', '1834', '1840', '1841', '1848', '1860', '1864', '1870', '1876', '1878', '1879', '1881', '1882', '1889', '1891', '1892', '1911', '1946', '1974', '1978', '1980', '1982', '1983']",False,4000,True,2,35301e1667,0.0,1.0,1.0
