,expe,clients,clients_size,clients_subset,agg_size,agg_size_pc,method,days,days_size,days_total,noise_method,time,valid,valid_sum,success,score_avg,score_min,score_max,nsols,oracle,wall_hit,wall_time,pooled,pool_size,optimal,valid_sums,uuid
0,./expes/v3_2021-01-29_di_300-prng-1-w1-p10,daily_issda-300,300,first-300,84,28,rng,num-start-101,101,536,classic,14.325159549713137,True,,True,1.0,1.0,1.0,1,"Index(['1', '8', '17', '20', '21', '32', '33', '36', '38', '42', '46', '47',
       '48', '49', '51', '52', '56', '64', '67', '72', '73', '76', '77', '95',
       '96', '97', '98', '105', '111', '112', '114', '121', '123', '124',
       '125', '129', '133', '134', '142', '145', '148', '149', '150', '155',
       '156', '159', '162', '163', '164', '167', '170', '171', '182', '184',
       '198', '201', '205', '208', '216', '223', '227', '228', '230', '242',
       '244', '245', '249', '251', '253', '259', '261', '262', '267', '268',
       '269', '273', '277', '279', '281', '283', '287', '291', '295', '299'],
      dtype='object')",False,1000,True,10,1.0,1.0,33833d8f91
1,./expes/v3_2021-01-29_di_300-prng-1-w1-p10,daily_issda-300,300,first-300,126,42,rng,num-start-161,161,536,classic,6.999685287475586,True,,True,1.0,1.0,1.0,1,"Index(['1', '4', '7', '8', '9', '10', '12', '15', '16', '19',
       ...
       '276', '277', '283', '284', '286', '287', '289', '292', '294', '295'],
      dtype='object', length=126)",False,1000,True,10,1.0,1.0,da8ab745c6
2,./expes/v3_2021-01-29_di_300-prng-1-w1-p10,daily_issda-300,300,first-300,14,4,rng,num-start-11,11,536,classic,1000.900853395462,False,,False,0.0,,,0,"Index(['14', '57', '90', '128', '130', '143', '149', '156', '188', '197',
       '213', '215', '268', '277'],
      dtype='object')",True,1000,True,10,0.0,0.0,0275d6db5a
3,./expes/v3_2021-01-29_di_300-prng-1-w1-p10,daily_issda-300,300,first-300,70,23,rng,num-start-261,261,536,classic,11.262261152267456,True,,True,1.0,1.0,1.0,1,"Index(['13', '15', '19', '29', '44', '47', '70', '82', '83', '85', '86', '87',
       '89', '91', '94', '107', '109', '114', '119', '121', '128', '129',
       '138', '143', '156', '158', '159', '160', '164', '167', '180', '182',
       '185', '186', '187', '191', '195', '202', '205', '209', '213', '217',
       '221', '228', '229', '233', '234', '237', '239', '246', '250', '251',
       '256', '257', '258', '259', '260', '261', '262', '264', '266', '269',
       '270', '272', '279', '286', '287', '288', '291', '298'],
      dtype='object')",False,1000,True,10,1.0,1.0,504ded632d
4,./expes/v3_2021-01-29_di_300-prng-1-w1-p10,daily_issda-300,300,first-300,28,9,rng,num-start-211,211,536,classic,8.959741830825806,True,,True,1.0,1.0,1.0,1,"Index(['61', '63', '87', '90', '93', '94', '101', '102', '103', '104', '111',
       '121', '122', '123', '130', '136', '152', '167', '172', '188', '230',
       '235', '246', '251', '253', '260', '268', '295'],
      dtype='object')",False,1000,True,10,1.0,1.0,da56cd2ac3
5,./expes/v3_2021-01-29_di_300-prng-1-w1-p10,daily_issda-300,300,first-300,7,2,rng,num-start-41,41,536,classic,1.6479530334472656,True,,True,1.0,1.0,1.0,1,"Index(['1', '19', '42', '75', '134', '249', '294'], dtype='object')",False,1000,True,10,1.0,1.0,4f4cb40938
6,./expes/v3_2021-01-29_di_300-prng-1-w1-p10,daily_issda-300,300,first-300,133,44,rng,num-start-201,201,536,classic,8.75440263748169,True,,True,1.0,1.0,1.0,1,"Index(['1', '7', '8', '9', '12', '14', '17', '19', '20', '21',
       ...
       '279', '281', '283', '287', '291', '292', '294', '295', '297', '299'],
      dtype='object', length=133)",False,1000,True,10,1.0,1.0,f8e2ae5ae1
7,./expes/v3_2021-01-29_di_300-prng-1-w1-p10,daily_issda-300,300,first-300,112,37,rng,num-start-211,211,536,classic,8.10635781288147,True,,True,1.0,1.0,1.0,1,"Index(['1', '3', '5', '6', '8', '9', '11', '16', '19', '22',
       ...
       '271', '276', '283', '284', '287', '289', '290', '295', '296', '299'],
      dtype='object', length=112)",False,1000,True,10,1.0,1.0,0819708589
8,./expes/v3_2021-01-29_di_300-prng-1-w1-p10,daily_issda-300,300,first-300,105,35,rng,num-start-11,11,536,classic,1000.4396369457244,False,,False,0.0,,,0,"Index(['3', '5', '10', '11', '14', '26', '27', '28', '30', '32',
       ...
       '279', '283', '284', '285', '286', '287', '289', '293', '295', '297'],
      dtype='object', length=105)",True,1000,True,10,0.0,0.0,2f92284b98
9,./expes/v3_2021-01-29_di_300-prng-1-w1-p10,daily_issda-300,300,first-300,105,35,rng,num-start-61,61,536,classic,1002.13760471344,False,,False,0.0,,,0,"Index(['3', '4', '5', '6', '7', '8', '11', '12', '15', '16',
       ...
       '258', '262', '265', '268', '270', '277', '278', '289', '297', '299'],
      dtype='object', length=105)",True,1000,True,10,0.0,0.0,b65f90d25d
10,./expes/v3_2021-01-29_di_300-prng-1-w1-p10,daily_issda-300,300,first-300,91,30,rng,num-start-181,181,536,classic,7.834007024765015,True,,True,1.0,1.0,1.0,1,"Index(['5', '13', '15', '17', '19', '26', '29', '30', '31', '35', '39', '43',
       '44', '47', '55', '59', '70', '82', '83', '85', '86', '87', '89', '91',
       '94', '98', '107', '108', '109', '114', '117', '119', '121', '126',
       '128', '129', '137', '138', '140', '143', '156', '158', '159', '160',
       '164', '167', '175', '180', '182', '185', '186', '187', '188', '191',
       '195', '202', '205', '209', '213', '217', '221', '228', '229', '233',
       '234', '237', '239', '246', '250', '251', '256', '257', '258', '259',
       '260', '261', '262', '263', '264', '266', '268', '269', '270', '272',
       '279', '286', '287', '288', '291', '295', '298'],
      dtype='object')",False,1000,True,10,1.0,1.0,112c90fda0
11,./expes/v3_2021-01-29_di_300-prng-1-w1-p10,daily_issda-300,300,first-300,119,39,rng,num-start-131,131,536,classic,6.23555850982666,True,,True,1.0,1.0,1.0,1,"Index(['1', '3', '5', '11', '13', '15', '16', '17', '19', '21',
       ...
       '270', '272', '279', '283', '286', '287', '288', '291', '295', '298'],
      dtype='object', length=119)",False,1000,True,10,1.0,1.0,3d18aa2136
12,./expes/v3_2021-01-29_di_300-prng-1-w1-p10,daily_issda-300,300,first-300,112,37,rng,num-start-261,261,536,classic,11.096704483032228,True,,True,1.0,1.0,1.0,1,"Index(['3', '5', '10', '11', '14', '26', '27', '28', '30', '32',
       ...
       '279', '283', '284', '285', '286', '287', '289', '293', '295', '297'],
      dtype='object', length=112)",False,1000,True,10,1.0,1.0,7bc278ba74
13,./expes/v3_2021-01-29_di_300-prng-1-w1-p10,daily_issda-300,300,first-300,42,14,rng,num-start-91,91,536,classic,5.380654335021973,True,,True,1.0,1.0,1.0,1,"Index(['2', '5', '12', '14', '15', '16', '33', '49', '52', '53', '61', '69',
       '108', '111', '113', '114', '118', '119', '120', '131', '137', '149',
       '163', '177', '195', '196', '200', '214', '217', '222', '225', '229',
       '231', '236', '242', '250', '254', '271', '278', '284', '285', '292'],
      dtype='object')",False,1000,True,10,1.0,1.0,e5ded29b8c
14,./expes/v3_2021-01-29_di_300-prng-1-w1-p10,daily_issda-300,300,first-300,119,39,rng,num-start-101,101,536,classic,1003.516970872879,False,,False,0.0,,,0,"Index(['4', '6', '7', '8', '11', '12', '15', '16', '17', '19',
       ...
       '282', '283', '287', '292', '293', '294', '296', '297', '298', '300'],
      dtype='object', length=119)",True,1000,True,10,0.0,0.0,9eece6059c
15,./expes/v3_2021-01-29_di_300-prng-1-w1-p10,daily_issda-300,300,first-300,98,32,rng,num-start-161,161,536,classic,7.132259607315064,True,,True,1.0,1.0,1.0,1,"Index(['1', '3', '5', '6', '8', '9', '11', '16', '19', '22', '27', '31', '33',
       '35', '36', '38', '39', '43', '44', '45', '47', '49', '52', '56', '60',
       '61', '68', '69', '73', '75', '81', '91', '95', '96', '97', '98', '101',
       '102', '107', '108', '109', '110', '118', '120', '124', '125', '127',
       '131', '133', '139', '143', '148', '149', '151', '152', '156', '160',
       '162', '168', '169', '171', '173', '189', '191', '193', '197', '198',
       '202', '203', '204', '206', '209', '210', '215', '216', '226', '227',
       '229', '230', '232', '235', '238', '239', '241', '244', '250', '256',
       '261', '263', '266', '271', '276', '283', '287', '289', '290', '296',
       '299'],
      dtype='object')",False,1000,True,10,1.0,1.0,df6667df38
16,./expes/v3_2021-01-29_di_300-prng-1-w1-p10,daily_issda-300,300,first-300,112,37,rng,num-start-281,281,536,classic,11.900522708892822,True,,True,1.0,1.0,1.0,1,"Index(['2', '5', '6', '8', '9', '10', '16', '19', '22', '23',
       ...
       '266', '267', '272', '274', '279', '281', '285', '290', '292', '296'],
      dtype='object', length=112)",False,1000,True,10,1.0,1.0,0062e28c38
17,./expes/v3_2021-01-29_di_300-prng-1-w1-p10,daily_issda-300,300,first-300,14,4,rng,num-start-161,161,536,classic,6.210808515548706,True,,True,1.0,1.0,1.0,1,"Index(['7', '34', '67', '99', '120', '122', '133', '190', '241', '243', '277',
       '279', '283', '298'],
      dtype='object')",False,1000,True,10,1.0,1.0,647f404565
