,expe,clients,clients_size,clients_subset,agg_size,agg_size_pc,method,days,days_size,days_total,noise_method,time,valid,valid_sum,success,score_avg,score_min,score_max,nsols,oracle,wall_hit,wall_time,pooled,pool_size,optimal,valid_sums,uuid
0,./expes/v3_2021-01-29_di_300-prng-1-w1-p10,daily_issda-300,300,first-300,91,30,rng,num-start-141,141,536,classic,7.259976148605347,True,,True,1.0,1.0,1.0,1,"Index(['1', '2', '3', '5', '7', '10', '12', '15', '19', '24', '27', '30', '34',
       '37', '47', '53', '56', '58', '61', '65', '68', '72', '75', '76', '81',
       '82', '85', '86', '91', '93', '94', '95', '101', '102', '105', '107',
       '108', '111', '126', '127', '128', '129', '131', '132', '136', '142',
       '144', '149', '152', '153', '155', '157', '159', '161', '162', '170',
       '174', '175', '177', '182', '184', '185', '186', '188', '189', '191',
       '193', '195', '197', '200', '207', '209', '213', '215', '222', '228',
       '232', '237', '239', '241', '242', '247', '263', '269', '272', '277',
       '279', '280', '282', '294', '297'],
      dtype='object')",False,1000,True,10,1.0,1.0,12c0c69d7c
1,./expes/v3_2021-01-29_di_300-prng-1-w1-p10,daily_issda-300,300,first-300,42,14,rng,num-start-181,181,536,classic,5.639200448989868,True,,True,1.0,1.0,1.0,1,"Index(['11', '16', '23', '30', '33', '44', '45', '46', '50', '56', '59', '65',
       '71', '99', '108', '117', '120', '121', '127', '133', '137', '174',
       '190', '193', '194', '195', '198', '200', '206', '207', '209', '233',
       '236', '243', '249', '250', '254', '255', '260', '265', '267', '294'],
      dtype='object')",False,1000,True,10,1.0,1.0,24c3856e61
2,./expes/v3_2021-01-29_di_300-prng-1-w1-p10,daily_issda-300,300,first-300,133,44,rng,num-start-51,51,536,classic,1001.2764828205108,False,,False,0.0,,,0,"Index(['2', '3', '8', '13', '17', '18', '19', '23', '24', '26',
       ...
       '278', '279', '282', '287', '291', '293', '295', '296', '299', '300'],
      dtype='object', length=133)",True,1000,True,10,0.0,0.0,65bcb8cddf
3,./expes/v3_2021-01-29_di_300-prng-1-w1-p10,daily_issda-300,300,first-300,119,39,rng,num-start-111,111,536,classic,8.39891004562378,True,,True,1.0,1.0,1.0,1,"Index(['4', '5', '10', '11', '14', '19', '21', '22', '23', '24',
       ...
       '271', '274', '275', '280', '281', '282', '286', '293', '294', '299'],
      dtype='object', length=119)",False,1000,True,10,1.0,1.0,3e99a7b0cd
4,./expes/v3_2021-01-29_di_300-prng-1-w1-p10,daily_issda-300,300,first-300,21,7,rng,num-start-111,111,536,classic,3.4767212867736816,True,,True,1.0,1.0,1.0,1,"Index(['38', '55', '61', '77', '115', '127', '131', '134', '135', '139', '150',
       '156', '162', '184', '185', '202', '204', '231', '239', '265', '270'],
      dtype='object')",False,1000,True,10,1.0,1.0,830eda2d3f
5,./expes/v3_2021-01-29_di_300-prng-1-w1-p10,daily_issda-300,300,first-300,28,9,rng,num-start-31,31,536,classic,1000.9343762397766,False,,False,0.0,,,0,"Index(['2', '5', '12', '14', '15', '16', '33', '49', '53', '61', '69', '108',
       '111', '118', '131', '137', '163', '195', '196', '200', '222', '229',
       '231', '242', '250', '254', '278', '292'],
      dtype='object')",True,1000,True,10,0.0,0.0,3d85e2c5d1
6,./expes/v3_2021-01-29_di_300-prng-1-w1-p10,daily_issda-300,300,first-300,119,39,rng,num-start-111,111,536,classic,13.618019819259644,True,,True,1.0,1.0,1.0,1,"Index(['3', '4', '5', '10', '30', '34', '40', '41', '45', '46',
       ...
       '281', '283', '285', '286', '287', '291', '293', '294', '295', '297'],
      dtype='object', length=119)",False,1000,True,10,1.0,1.0,695fdb24e6
7,./expes/v3_2021-01-29_di_300-prng-1-w1-p10,daily_issda-300,300,first-300,105,35,rng,num-start-131,131,536,classic,10.118632316589355,True,,True,1.0,1.0,1.0,1,"Index(['1', '4', '5', '6', '10', '14', '15', '16', '17', '19',
       ...
       '264', '266', '271', '277', '278', '282', '285', '286', '294', '296'],
      dtype='object', length=105)",False,1000,True,10,1.0,1.0,61da685cb1
8,./expes/v3_2021-01-29_di_300-prng-1-w1-p10,daily_issda-300,300,first-300,21,7,rng,num-start-71,71,536,classic,2.028351306915283,True,,True,1.0,1.0,1.0,1,"Index(['1', '12', '19', '42', '49', '75', '99', '102', '134', '140', '164',
       '192', '212', '241', '249', '251', '276', '277', '284', '289', '294'],
      dtype='object')",False,1000,True,10,1.0,1.0,3529883609
9,./expes/v3_2021-01-29_di_300-prng-1-w1-p10,daily_issda-300,300,first-300,70,23,rng,num-start-281,281,536,classic,8.214823961257935,True,,True,1.0,1.0,1.0,1,"Index(['6', '9', '10', '19', '25', '29', '34', '38', '41', '52', '60', '72',
       '76', '78', '81', '85', '89', '92', '101', '106', '107', '115', '118',
       '119', '121', '123', '135', '144', '147', '152', '157', '159', '160',
       '161', '162', '163', '174', '177', '182', '183', '185', '189', '199',
       '201', '203', '206', '208', '215', '216', '225', '231', '234', '237',
       '239', '240', '244', '251', '252', '254', '257', '258', '262', '267',
       '272', '274', '279', '285', '290', '292', '296'],
      dtype='object')",False,1000,True,10,1.0,1.0,e6a1fca332
10,./expes/v3_2021-01-29_di_300-prng-1-w1-p10,daily_issda-300,300,first-300,7,2,rng,num-start-181,181,536,classic,5.225092649459839,True,,True,1.0,1.0,1.0,1,"Index(['63', '93', '102', '123', '172', '230', '251'], dtype='object')",False,1000,True,10,1.0,1.0,5644dc9d8b
11,./expes/v3_2021-01-29_di_300-prng-1-w1-p10,daily_issda-300,300,first-300,112,37,rng,num-start-61,61,536,classic,1001.4652807712556,False,,False,0.0,,,0,"Index(['7', '9', '11', '14', '16', '18', '20', '23', '30', '33',
       ...
       '273', '277', '280', '286', '289', '292', '294', '297', '298', '300'],
      dtype='object', length=112)",True,1000,True,10,0.0,0.0,92f5da5413
12,./expes/v3_2021-01-29_di_300-prng-1-w1-p10,daily_issda-300,300,first-300,56,18,rng,num-start-141,141,536,classic,4.933518886566162,True,,True,1.0,1.0,1.0,1,"Index(['20', '24', '25', '26', '30', '31', '32', '33', '36', '38', '45', '47',
       '49', '50', '53', '61', '64', '69', '74', '78', '93', '97', '106',
       '110', '114', '115', '124', '149', '158', '161', '166', '188', '191',
       '203', '204', '215', '218', '219', '223', '239', '255', '260', '273',
       '275', '277', '281', '283', '286', '287', '289', '290', '293', '296',
       '298', '299', '300'],
      dtype='object')",False,1000,True,10,1.0,1.0,58521b6f30
13,./expes/v3_2021-01-29_di_300-prng-1-w1-p10,daily_issda-300,300,first-300,133,44,rng,num-start-61,61,536,classic,1001.4535264968872,False,,False,0.0,,,0,"Index(['1', '7', '8', '9', '12', '14', '17', '19', '20', '21',
       ...
       '279', '281', '283', '287', '291', '292', '294', '295', '297', '299'],
      dtype='object', length=133)",True,1000,True,10,0.0,0.0,396f9511ca
14,./expes/v3_2021-01-29_di_300-prng-1-w1-p10,daily_issda-300,300,first-300,49,16,rng,num-start-161,161,536,classic,5.064103603363037,True,,True,1.0,1.0,1.0,1,"Index(['3', '8', '17', '18', '23', '34', '39', '69', '72', '81', '83', '90',
       '100', '106', '121', '123', '128', '135', '143', '146', '156', '161',
       '167', '168', '182', '185', '186', '188', '193', '196', '216', '220',
       '224', '226', '231', '234', '237', '241', '248', '251', '252', '257',
       '267', '275', '282', '293', '296', '299', '300'],
      dtype='object')",False,1000,True,10,1.0,1.0,bbcd7e2e84
15,./expes/v3_2021-01-29_di_300-prng-1-w1-p10,daily_issda-300,300,first-300,84,28,rng,num-start-191,191,536,classic,6.747926473617554,True,,True,1.0,1.0,1.0,1,"Index(['3', '8', '17', '18', '19', '23', '34', '37', '39', '42', '50', '58',
       '62', '69', '72', '74', '77', '81', '83', '85', '86', '90', '91', '92',
       '98', '100', '106', '115', '121', '123', '126', '128', '135', '137',
       '141', '143', '146', '155', '156', '161', '167', '168', '170', '178',
       '179', '182', '185', '186', '188', '192', '193', '196', '197', '212',
       '213', '216', '220', '222', '223', '224', '226', '227', '229', '231',
       '234', '237', '241', '246', '248', '251', '252', '255', '257', '267',
       '268', '274', '275', '279', '282', '291', '293', '296', '299', '300'],
      dtype='object')",False,1000,True,10,1.0,1.0,79d1b00cd8
16,./expes/v3_2021-01-29_di_300-prng-1-w1-p10,daily_issda-300,300,first-300,63,21,rng,num-start-21,21,536,classic,1000.6570641994476,False,,False,0.0,,,0,"Index(['1', '6', '10', '16', '27', '31', '32', '39', '43', '45', '47', '58',
       '59', '70', '74', '75', '84', '88', '99', '103', '108', '115', '117',
       '121', '130', '134', '138', '141', '159', '161', '172', '173', '174',
       '180', '183', '186', '187', '189', '191', '192', '196', '197', '198',
       '206', '208', '215', '217', '226', '228', '236', '241', '243', '245',
       '248', '260', '261', '263', '271', '277', '278', '285', '286', '296'],
      dtype='object')",True,1000,True,10,0.0,0.0,f86b1760b6
17,./expes/v3_2021-01-29_di_300-prng-1-w1-p10,daily_issda-300,300,first-300,133,44,rng,num-start-131,131,536,classic,4.643226861953735,True,,True,1.0,1.0,1.0,1,"Index(['1', '4', '7', '8', '9', '10', '11', '12', '15', '16',
       ...
       '277', '283', '284', '286', '287', '289', '292', '294', '295', '297'],
      dtype='object', length=133)",False,1000,True,10,1.0,1.0,736d263473
18,./expes/v3_2021-01-29_di_300-prng-1-w1-p10,daily_issda-300,300,first-300,14,4,rng,num-start-71,71,536,classic,1.848508596420288,True,,True,1.0,1.0,1.0,1,"Index(['11', '31', '35', '47', '53', '80', '114', '121', '149', '156', '203',
       '206', '246', '282'],
      dtype='object')",False,1000,True,10,1.0,1.0,513f25b7d6
19,./expes/v3_2021-01-29_di_300-prng-1-w1-p10,daily_issda-300,300,first-300,7,2,rng,num-start-251,251,536,classic,5.803699970245361,True,,True,1.0,1.0,1.0,1,"Index(['23', '44', '65', '99', '117', '190', '193'], dtype='object')",False,1000,True,10,1.0,1.0,76d21fe4b7
20,./expes/v3_2021-01-29_di_300-prng-1-w1-p10,daily_issda-300,300,first-300,14,4,rng,num-start-181,181,536,classic,5.774395227432251,True,,True,1.0,1.0,1.0,1,"Index(['7', '34', '67', '99', '120', '122', '133', '190', '241', '243', '277',
       '279', '283', '298'],
      dtype='object')",False,1000,True,10,1.0,1.0,e0017fbcac
21,./expes/v3_2021-01-29_di_300-prng-1-w1-p10,daily_issda-300,300,first-300,42,14,rng,num-start-51,51,536,classic,1001.2508540153505,False,,False,0.0,,,0,"Index(['6', '15', '36', '38', '43', '49', '55', '58', '61', '63', '77', '83',
       '85', '93', '105', '115', '127', '131', '134', '135', '139', '141',
       '150', '156', '162', '173', '184', '185', '187', '196', '202', '204',
       '207', '225', '231', '239', '250', '265', '270', '283', '297', '299'],
      dtype='object')",True,1000,True,10,0.0,0.0,cfcd192829
22,./expes/v3_2021-01-29_di_300-prng-1-w1-p10,daily_issda-300,300,first-300,42,14,rng,num-start-31,31,536,classic,1000.9879953861235,False,,False,0.0,,,0,"Index(['3', '8', '16', '19', '22', '31', '33', '43', '44', '47', '49', '73',
       '81', '95', '96', '98', '101', '120', '124', '131', '143', '151', '156',
       '162', '168', '203', '209', '226', '229', '232', '235', '238', '239',
       '244', '256', '261', '263', '266', '271', '276', '283', '287'],
      dtype='object')",True,1000,True,10,0.0,0.0,4791b94383
23,./expes/v3_2021-01-29_di_300-prng-1-w1-p10,daily_issda-300,300,first-300,70,23,rng,num-start-111,111,536,classic,8.330172061920166,True,,True,1.0,1.0,1.0,1,"Index(['3', '10', '14', '26', '27', '30', '32', '33', '36', '42', '49', '57',
       '60', '64', '67', '71', '72', '73', '78', '88', '90', '99', '101',
       '108', '110', '123', '128', '129', '130', '137', '142', '143', '149',
       '156', '158', '159', '163', '164', '170', '171', '173', '179', '182',
       '185', '188', '191', '192', '197', '206', '208', '210', '213', '215',
       '222', '243', '245', '257', '260', '268', '270', '273', '277', '283',
       '284', '285', '286', '287', '293', '295', '297'],
      dtype='object')",False,1000,True,10,1.0,1.0,025a730e65
24,./expes/v3_2021-01-29_di_300-prng-1-w1-p10,daily_issda-300,300,first-300,105,35,rng,num-start-91,91,536,classic,1001.979697227478,False,,False,0.0,,,0,"Index(['4', '6', '7', '8', '11', '15', '16', '17', '19', '22',
       ...
       '282', '283', '287', '292', '293', '294', '296', '297', '298', '300'],
      dtype='object', length=105)",True,1000,True,10,0.0,0.0,88bf55bd45
25,./expes/v3_2021-01-29_di_300-prng-1-w1-p10,daily_issda-300,300,first-300,98,32,rng,num-start-101,101,536,classic,10.55887484550476,True,,True,1.0,1.0,1.0,1,"Index(['1', '3', '5', '6', '8', '9', '11', '16', '19', '22', '27', '31', '33',
       '35', '36', '38', '39', '43', '44', '45', '47', '49', '52', '56', '60',
       '61', '68', '69', '73', '75', '81', '91', '95', '96', '97', '98', '101',
       '102', '107', '108', '109', '110', '118', '120', '124', '125', '127',
       '131', '133', '139', '143', '148', '149', '151', '152', '156', '160',
       '162', '168', '169', '171', '173', '189', '191', '193', '197', '198',
       '202', '203', '204', '206', '209', '210', '215', '216', '226', '227',
       '229', '230', '232', '235', '238', '239', '241', '244', '250', '256',
       '261', '263', '266', '271', '276', '283', '287', '289', '290', '296',
       '299'],
      dtype='object')",False,1000,True,10,1.0,1.0,cdd7cd3d82
26,./expes/v3_2021-01-29_di_300-prng-1-w1-p10,daily_issda-300,300,first-300,14,4,rng,num-start-261,261,536,classic,6.5363757610321045,True,,True,1.0,1.0,1.0,1,"Index(['7', '34', '67', '99', '120', '122', '133', '190', '241', '243', '277',
       '279', '283', '298'],
      dtype='object')",False,1000,True,10,1.0,1.0,04a1fd46f9
27,./expes/v3_2021-01-29_di_300-prng-1-w1-p10,daily_issda-300,300,first-300,105,35,rng,num-start-291,291,536,classic,8.71076512336731,True,,True,1.0,1.0,1.0,1,"Index(['1', '2', '3', '4', '5', '9', '10', '13', '14', '18',
       ...
       '276', '277', '284', '285', '287', '290', '294', '295', '297', '300'],
      dtype='object', length=105)",False,1000,True,10,1.0,1.0,817b9c88ac
28,./expes/v3_2021-01-29_di_300-prng-1-w1-p10,daily_issda-300,300,first-300,35,11,rng,num-start-101,101,536,classic,3.025787830352783,True,,True,1.0,1.0,1.0,1,"Index(['2', '5', '12', '14', '15', '16', '33', '49', '53', '61', '69', '108',
       '111', '114', '118', '120', '131', '137', '163', '177', '195', '196',
       '200', '217', '222', '225', '229', '231', '242', '250', '254', '271',
       '278', '284', '292'],
      dtype='object')",False,1000,True,10,1.0,1.0,4dbcb3b40c
29,./expes/v3_2021-01-29_di_300-prng-1-w1-p10,daily_issda-300,300,first-300,49,16,rng,num-start-291,291,536,classic,8.747323751449585,True,,True,1.0,1.0,1.0,1,"Index(['9', '12', '23', '37', '38', '51', '54', '56', '59', '62', '69', '71',
       '76', '82', '99', '103', '104', '107', '120', '134', '138', '149',
       '154', '160', '167', '168', '178', '199', '200', '202', '203', '209',
       '211', '213', '217', '226', '234', '253', '258', '262', '267', '271',
       '278', '280', '292', '293', '296', '297', '300'],
      dtype='object')",False,1000,True,10,1.0,1.0,86904eb667
30,./expes/v3_2021-01-29_di_300-prng-1-w1-p10,daily_issda-300,300,first-300,42,14,rng,num-start-1,1,536,classic,9.141372203826904,False,,True,0.5118379366452658,0.4958367308037117,0.5301747282731831,100,"Index(['3', '8', '16', '19', '22', '31', '33', '43', '44', '47', '49', '73',
       '81', '95', '96', '98', '101', '120', '124', '131', '143', '151', '156',
       '162', '168', '203', '209', '226', '229', '232', '235', '238', '239',
       '244', '256', '261', '263', '266', '271', '276', '283', '287'],
      dtype='object')",False,1000,True,10,1.0,1.0,78354b9f11
31,./expes/v3_2021-01-29_di_300-prng-1-w1-p10,daily_issda-300,300,first-300,7,2,rng,num-start-121,121,536,classic,3.865882635116577,True,,True,1.0,1.0,1.0,1,"Index(['67', '76', '96', '116', '119', '133', '149'], dtype='object')",False,1000,True,10,1.0,1.0,23d821434f
32,./expes/v3_2021-01-29_di_300-prng-1-w1-p10,daily_issda-300,300,first-300,49,16,rng,num-start-71,71,536,classic,23.46670603752136,True,,True,1.0,1.0,1.0,1,"Index(['3', '8', '16', '19', '22', '31', '33', '36', '43', '44', '47', '49',
       '56', '73', '81', '95', '96', '98', '101', '118', '120', '124', '131',
       '143', '148', '149', '151', '156', '162', '168', '203', '206', '209',
       '226', '229', '232', '235', '238', '239', '244', '256', '261', '263',
       '266', '271', '276', '283', '287', '289'],
      dtype='object')",False,1000,True,10,1.0,1.0,4976073e7f
33,./expes/v3_2021-01-29_di_300-prng-1-w1-p10,daily_issda-300,300,first-300,7,2,rng,num-start-41,41,536,classic,1.159895658493042,True,,True,1.0,1.0,1.0,1,"Index(['8', '17', '106', '220', '248', '293', '296'], dtype='object')",False,1000,True,10,1.0,1.0,af7c6039f3
34,./expes/v3_2021-01-29_di_300-prng-1-w1-p10,daily_issda-300,300,first-300,42,14,rng,num-start-91,91,536,classic,5.075559377670288,True,,True,1.0,1.0,1.0,1,"Index(['10', '14', '27', '32', '36', '42', '57', '64', '71', '72', '73', '78',
       '90', '101', '108', '128', '130', '143', '149', '156', '159', '163',
       '170', '173', '182', '188', '191', '197', '206', '210', '213', '215',
       '222', '243', '257', '260', '268', '273', '277', '283', '287', '293'],
      dtype='object')",False,1000,True,10,1.0,1.0,a979ed3541
35,./expes/v3_2021-01-29_di_300-prng-1-w1-p10,daily_issda-300,300,first-300,98,32,rng,num-start-11,11,536,classic,1000.3459167480468,False,,False,0.0,,,0,"Index(['1', '2', '3', '5', '7', '10', '12', '15', '19', '24', '27', '30', '34',
       '37', '41', '47', '48', '53', '56', '58', '61', '65', '68', '72', '75',
       '76', '77', '81', '82', '83', '85', '86', '91', '93', '94', '95', '101',
       '102', '105', '107', '108', '111', '126', '127', '128', '129', '131',
       '132', '136', '142', '144', '149', '152', '153', '155', '157', '159',
       '160', '161', '162', '163', '170', '174', '175', '177', '182', '184',
       '185', '186', '188', '189', '191', '193', '195', '197', '200', '207',
       '209', '213', '215', '222', '228', '232', '237', '239', '241', '242',
       '247', '248', '263', '269', '272', '277', '279', '280', '282', '294',
       '297'],
      dtype='object')",True,1000,True,10,0.0,0.0,375cd78ea8
36,./expes/v3_2021-01-29_di_300-prng-1-w1-p10,daily_issda-300,300,first-300,63,21,rng,num-start-61,61,536,classic,1001.3708474636078,False,,False,0.0,,,0,"Index(['13', '15', '19', '29', '44', '47', '70', '82', '83', '85', '86', '87',
       '89', '91', '94', '109', '114', '119', '121', '128', '129', '138',
       '143', '156', '158', '159', '164', '167', '180', '182', '185', '186',
       '187', '191', '195', '202', '205', '213', '217', '221', '228', '229',
       '233', '234', '237', '239', '246', '250', '251', '256', '257', '258',
       '261', '262', '264', '269', '270', '272', '279', '286', '287', '291',
       '298'],
      dtype='object')",True,1000,True,10,0.0,0.0,978a9788e6
37,./expes/v3_2021-01-29_di_300-prng-1-w1-p10,daily_issda-300,300,first-300,35,11,rng,num-start-61,61,536,classic,6.461196660995483,True,,True,1.0,1.0,1.0,1,"Index(['21', '32', '38', '49', '51', '52', '72', '76', '105', '112', '129',
       '133', '134', '145', '156', '159', '162', '170', '182', '184', '198',
       '208', '216', '223', '227', '242', '245', '249', '259', '262', '267',
       '273', '283', '287', '299'],
      dtype='object')",False,1000,True,10,1.0,1.0,354be6e623
38,./expes/v3_2021-01-29_di_300-prng-1-w1-p10,daily_issda-300,300,first-300,28,9,rng,num-start-221,221,536,classic,5.192612886428833,True,,True,1.0,1.0,1.0,1,"Index(['3', '6', '11', '12', '15', '73', '79', '113', '114', '115', '117',
       '122', '130', '133', '146', '152', '155', '159', '172', '186', '210',
       '214', '216', '229', '234', '238', '241', '247'],
      dtype='object')",False,1000,True,10,1.0,1.0,8dc876536d
39,./expes/v3_2021-01-29_di_300-prng-1-w1-p10,daily_issda-300,300,first-300,105,35,rng,num-start-151,151,536,classic,4.8507280349731445,True,,True,1.0,1.0,1.0,1,"Index(['1', '3', '5', '6', '8', '9', '11', '16', '19', '22',
       ...
       '266', '271', '276', '283', '287', '289', '290', '295', '296', '299'],
      dtype='object', length=105)",False,1000,True,10,1.0,1.0,0b074a168b
40,./expes/v3_2021-01-29_di_300-prng-1-w1-p10,daily_issda-300,300,first-300,28,9,rng,num-start-81,81,536,classic,4.183254718780518,True,,True,1.0,1.0,1.0,1,"Index(['21', '38', '49', '51', '52', '72', '76', '112', '129', '133', '145',
       '156', '159', '170', '182', '184', '198', '208', '216', '223', '242',
       '245', '249', '259', '262', '273', '287', '299'],
      dtype='object')",False,1000,True,10,1.0,1.0,c8a3a67bb7
41,./expes/v3_2021-01-29_di_300-prng-1-w1-p10,daily_issda-300,300,first-300,84,28,rng,num-start-211,211,536,classic,6.684800624847412,True,,True,1.0,1.0,1.0,1,"Index(['2', '5', '7', '12', '14', '15', '16', '18', '23', '33', '45', '49',
       '52', '53', '56', '61', '62', '69', '84', '87', '88', '89', '96', '98',
       '103', '108', '111', '113', '114', '117', '118', '119', '120', '125',
       '131', '137', '146', '149', '152', '156', '158', '163', '171', '177',
       '188', '190', '192', '195', '196', '200', '202', '207', '208', '213',
       '214', '217', '222', '225', '229', '231', '236', '241', '242', '246',
       '250', '251', '254', '256', '257', '258', '259', '260', '261', '264',
       '267', '271', '277', '278', '281', '284', '285', '292', '296', '297'],
      dtype='object')",False,1000,True,10,1.0,1.0,3f91a87eaa
42,./expes/v3_2021-01-29_di_300-prng-1-w1-p10,daily_issda-300,300,first-300,63,21,rng,num-start-71,71,536,classic,61.22550058364868,True,,True,1.0,1.0,1.0,1,"Index(['4', '46', '52', '59', '61', '63', '68', '75', '83', '87', '90', '93',
       '94', '98', '101', '102', '103', '104', '106', '111', '113', '121',
       '122', '123', '130', '133', '136', '139', '140', '145', '152', '154',
       '156', '167', '172', '174', '176', '178', '188', '208', '209', '224',
       '230', '235', '241', '245', '246', '251', '252', '253', '254', '257',
       '260', '263', '268', '270', '274', '276', '279', '283', '291', '294',
       '295'],
      dtype='object')",False,1000,True,10,1.0,1.0,f5a8466590
43,./expes/v3_2021-01-29_di_300-prng-1-w1-p10,daily_issda-300,300,first-300,77,25,rng,num-start-201,201,536,classic,6.103727579116821,True,,True,1.0,1.0,1.0,1,"Index(['2', '8', '16', '20', '22', '23', '37', '38', '44', '61', '65', '67',
       '68', '70', '71', '72', '73', '76', '82', '91', '92', '96', '100',
       '104', '109', '110', '116', '119', '120', '121', '122', '129', '130',
       '132', '133', '135', '142', '144', '149', '151', '161', '178', '180',
       '183', '184', '187', '188', '191', '192', '200', '203', '212', '218',
       '220', '221', '224', '226', '228', '230', '231', '236', '238', '250',
       '252', '255', '267', '268', '273', '275', '282', '284', '289', '290',
       '292', '296', '298', '299'],
      dtype='object')",False,1000,True,10,1.0,1.0,266a0dd701
44,./expes/v3_2021-01-29_di_300-prng-1-w1-p10,daily_issda-300,300,first-300,49,16,rng,num-start-11,11,536,classic,1000.4163200855256,False,,False,0.0,,,0,"Index(['13', '15', '19', '29', '44', '47', '70', '82', '83', '85', '87', '89',
       '91', '94', '109', '119', '121', '128', '129', '138', '158', '164',
       '167', '182', '185', '186', '187', '191', '195', '202', '205', '213',
       '217', '221', '228', '229', '237', '239', '251', '258', '261', '262',
       '264', '269', '270', '272', '279', '287', '298'],
      dtype='object')",True,1000,True,10,0.0,0.0,cc10b862f0
45,./expes/v3_2021-01-29_di_300-prng-1-w1-p10,daily_issda-300,300,first-300,91,30,rng,num-start-21,21,536,classic,1000.5879855155944,False,,False,0.0,,,0,"Index(['5', '13', '15', '17', '19', '26', '29', '30', '31', '35', '39', '43',
       '44', '47', '55', '59', '70', '82', '83', '85', '86', '87', '89', '91',
       '94', '98', '107', '108', '109', '114', '117', '119', '121', '126',
       '128', '129', '137', '138', '140', '143', '156', '158', '159', '160',
       '164', '167', '175', '180', '182', '185', '186', '187', '188', '191',
       '195', '202', '205', '209', '213', '217', '221', '228', '229', '233',
       '234', '237', '239', '246', '250', '251', '256', '257', '258', '259',
       '260', '261', '262', '263', '264', '266', '268', '269', '270', '272',
       '279', '286', '287', '288', '291', '295', '298'],
      dtype='object')",True,1000,True,10,0.0,0.0,6f577cf051
