expe,clients,clients_size,clients_subset,agg_size,method,days,days_size,days_total,time,valid,valid_sum,success,nsols,wall_hit,wall_time,pooled,valid_sums
./expes/v2_2020-11-27_di_500-prng-3,daily_issda_500,500,first-500,61,rng,num-start-41,41,536,1002.435289144516,False,,False,0,True,1000,True,0.0
./expes/v2_2020-11-27_di_500-prng-3,daily_issda_500,500,first-500,11,rng,num-start-211,211,536,12.701439380645752,True,,True,1,False,1000,True,1.0
./expes/v2_2020-11-27_di_500-prng-3,daily_issda_500,500,first-500,101,rng,num-start-121,121,536,1006.0341854095459,False,,False,0,True,1000,True,0.0
./expes/v2_2020-11-27_di_500-prng-3,daily_issda_500,500,first-500,11,rng,num-start-141,141,536,8.661264419555664,True,,True,1,False,1000,True,1.0
./expes/v2_2020-11-27_di_500-prng-3,daily_issda_500,500,first-500,241,rng,num-start-111,111,536,1005.4870498180389,False,,False,0,True,1000,True,0.0
./expes/v2_2020-11-27_di_500-prng-3,daily_issda_500,500,first-500,261,rng,num-start-131,131,536,1006.6444597244263,False,,False,0,True,1000,True,0.0
./expes/v2_2020-11-27_di_500-prng-3,daily_issda_500,500,first-500,491,rng,num-start-121,121,536,7.059270858764648,True,,True,1,False,1000,True,1.0
./expes/v2_2020-11-27_di_500-prng-3,daily_issda_500,500,first-500,481,rng,num-start-61,61,536,4.273845672607422,True,,True,1,False,1000,True,1.0
./expes/v2_2020-11-27_di_500-prng-3,daily_issda_500,500,first-500,361,rng,num-start-51,51,536,1002.4710574150085,False,,False,0,True,1000,True,0.0
./expes/v2_2020-11-27_di_500-prng-3,daily_issda_500,500,first-500,211,rng,num-start-271,271,536,17.15385890007019,True,,True,1,False,1000,True,1.0
./expes/v2_2020-11-27_di_500-prng-3,daily_issda_500,500,first-500,391,rng,num-start-1,1,536,3.639982223510742,False,,False,2,False,1000,True,1.0
./expes/v2_2020-11-27_di_500-prng-3,daily_issda_500,500,first-500,161,rng,num-start-91,91,536,1004.5298829078674,False,,False,0,True,1000,True,0.0
./expes/v2_2020-11-27_di_500-prng-3,daily_issda_500,500,first-500,481,rng,num-start-191,191,536,11.296074867248535,True,,True,1,False,1000,True,1.0
./expes/v2_2020-11-27_di_500-prng-3,daily_issda_500,500,first-500,111,rng,num-start-261,261,536,18.152883768081665,True,,True,1,False,1000,True,1.0
./expes/v2_2020-11-27_di_500-prng-3,daily_issda_500,500,first-500,81,rng,num-start-151,151,536,15.569406509399414,True,,True,1,False,1000,True,1.0
./expes/v2_2020-11-27_di_500-prng-3,daily_issda_500,500,first-500,471,rng,num-start-81,81,536,8.308940649032593,True,,True,1,False,1000,True,1.0
./expes/v2_2020-11-27_di_500-prng-3,daily_issda_500,500,first-500,101,rng,num-start-151,151,536,69.06074905395508,True,,True,1,False,1000,True,1.0
./expes/v2_2020-11-27_di_500-prng-3,daily_issda_500,500,first-500,91,rng,num-start-211,211,536,13.6394522190094,True,,True,1,False,1000,True,1.0
./expes/v2_2020-11-27_di_500-prng-3,daily_issda_500,500,first-500,31,rng,num-start-141,141,536,13.9062340259552,True,,True,1,False,1000,True,1.0
./expes/v2_2020-11-27_di_500-prng-3,daily_issda_500,500,first-500,361,rng,num-start-81,81,536,1004.0656492710114,False,,False,0,True,1000,True,0.0
./expes/v2_2020-11-27_di_500-prng-3,daily_issda_500,500,first-500,451,rng,num-start-271,271,536,16.305150508880615,True,,True,1,False,1000,True,1.0
./expes/v2_2020-11-27_di_500-prng-3,daily_issda_500,500,first-500,291,rng,num-start-141,141,536,1006.8713014125824,False,,False,0,True,1000,True,0.0
./expes/v2_2020-11-27_di_500-prng-3,daily_issda_500,500,first-500,231,rng,num-start-11,11,536,1000.6314904689789,False,,False,0,True,1000,True,0.0
./expes/v2_2020-11-27_di_500-prng-3,daily_issda_500,500,first-500,101,rng,num-start-281,281,536,17.739894151687622,True,,True,1,False,1000,True,1.0
./expes/v2_2020-11-27_di_500-prng-3,daily_issda_500,500,first-500,191,rng,num-start-181,181,536,1009.054388999939,False,,False,0,True,1000,True,0.0
./expes/v2_2020-11-27_di_500-prng-3,daily_issda_500,500,first-500,441,rng,num-start-231,231,536,14.982203960418701,True,,True,1,False,1000,True,1.0
./expes/v2_2020-11-27_di_500-prng-3,daily_issda_500,500,first-500,431,rng,num-start-101,101,536,1004.923757314682,False,,False,0,True,1000,True,0.0
./expes/v2_2020-11-27_di_500-prng-3,daily_issda_500,500,first-500,291,rng,num-start-101,101,536,1004.7961828708649,False,,False,0,True,1000,True,0.0
./expes/v2_2020-11-27_di_500-prng-3,daily_issda_500,500,first-500,431,rng,num-start-131,131,536,23.69956111907959,True,,True,1,False,1000,True,1.0
./expes/v2_2020-11-27_di_500-prng-3,daily_issda_500,500,first-500,61,rng,num-start-151,151,536,17.56934642791748,True,,True,1,False,1000,True,1.0
./expes/v2_2020-11-27_di_500-prng-3,daily_issda_500,500,first-500,171,rng,num-start-221,221,536,34.116265296936035,True,,True,1,False,1000,True,1.0
./expes/v2_2020-11-27_di_500-prng-3,daily_issda_500,500,first-500,261,rng,num-start-251,251,536,16.565642833709717,True,,True,1,False,1000,True,1.0
./expes/v2_2020-11-27_di_500-prng-3,daily_issda_500,500,first-500,271,rng,num-start-141,141,536,1007.03546667099,False,,False,0,True,1000,True,0.0
./expes/v2_2020-11-27_di_500-prng-3,daily_issda_500,500,first-500,361,rng,num-start-21,21,536,1001.0551137924194,False,,False,0,True,1000,True,0.0
./expes/v2_2020-11-27_di_500-prng-3,daily_issda_500,500,first-500,211,rng,num-start-261,261,536,17.859267950057983,True,,True,1,False,1000,True,1.0
./expes/v2_2020-11-27_di_500-prng-3,daily_issda_500,500,first-500,351,rng,num-start-31,31,536,1001.5925347805023,False,,False,0,True,1000,True,0.0
./expes/v2_2020-11-27_di_500-prng-3,daily_issda_500,500,first-500,41,rng,num-start-291,291,536,16.94071054458618,True,,True,1,False,1000,True,1.0
./expes/v2_2020-11-27_di_500-prng-3,daily_issda_500,500,first-500,331,rng,num-start-291,291,536,20.71981191635132,True,,True,1,False,1000,True,1.0
./expes/v2_2020-11-27_di_500-prng-3,daily_issda_500,500,first-500,161,rng,num-start-191,191,536,28.62739324569702,True,,True,1,False,1000,True,1.0
./expes/v2_2020-11-27_di_500-prng-3,daily_issda_500,500,first-500,91,rng,num-start-251,251,536,17.946043252944946,True,,True,1,False,1000,True,1.0
./expes/v2_2020-11-27_di_500-prng-3,daily_issda_500,500,first-500,161,rng,num-start-211,211,536,28.619900465011597,True,,True,1,False,1000,True,1.0
./expes/v2_2020-11-27_di_500-prng-3,daily_issda_500,500,first-500,381,rng,num-start-111,111,536,1005.3309743404388,False,,False,0,True,1000,True,0.0
./expes/v2_2020-11-27_di_500-prng-3,daily_issda_500,500,first-500,271,rng,num-start-11,11,536,1000.5828895568848,False,,False,0,True,1000,True,0.0
./expes/v2_2020-11-27_di_500-prng-3,daily_issda_500,500,first-500,111,rng,num-start-251,251,536,16.01389789581299,True,,True,1,False,1000,True,1.0
./expes/v2_2020-11-27_di_500-prng-3,daily_issda_500,500,first-500,391,rng,num-start-181,181,536,14.228267431259155,True,,True,1,False,1000,True,1.0
./expes/v2_2020-11-27_di_500-prng-3,daily_issda_500,500,first-500,81,rng,num-start-11,11,536,1000.6440432071686,False,,False,0,True,1000,True,0.0
./expes/v2_2020-11-27_di_500-prng-3,daily_issda_500,500,first-500,181,rng,num-start-231,231,536,17.3347225189209,True,,True,1,False,1000,True,1.0
./expes/v2_2020-11-27_di_500-prng-3,daily_issda_500,500,first-500,421,rng,num-start-291,291,536,18.224405527114868,True,,True,1,False,1000,True,1.0
./expes/v2_2020-11-27_di_500-prng-3,daily_issda_500,500,first-500,1,rng,num-start-31,31,536,1.5874173641204834,True,,True,1,False,1000,True,1.0
./expes/v2_2020-11-27_di_500-prng-3,daily_issda_500,500,first-500,11,rng,num-start-211,211,536,12.652546644210815,True,,True,1,False,1000,True,1.0
./expes/v2_2020-11-27_di_500-prng-3,daily_issda_500,500,first-500,281,rng,num-start-61,61,536,1003.1014533042908,False,,False,0,True,1000,True,0.0
./expes/v2_2020-11-27_di_500-prng-3,daily_issda_500,500,first-500,371,rng,num-start-101,101,536,1005.1335990428925,False,,False,0,True,1000,True,0.0
./expes/v2_2020-11-27_di_500-prng-3,daily_issda_500,500,first-500,211,rng,num-start-51,51,536,1002.67360663414,False,,False,0,True,1000,True,0.0
./expes/v2_2020-11-27_di_500-prng-3,daily_issda_500,500,first-500,221,rng,num-start-181,181,536,1008.6735985279083,False,,False,0,True,1000,True,0.0
./expes/v2_2020-11-27_di_500-prng-3,daily_issda_500,500,first-500,361,rng,num-start-51,51,536,1002.6751351356506,False,,False,0,True,1000,True,0.0
./expes/v2_2020-11-27_di_500-prng-3,daily_issda_500,500,first-500,441,rng,num-start-41,41,536,1002.0348887443542,False,,False,0,True,1000,True,0.0
./expes/v2_2020-11-27_di_500-prng-3,daily_issda_500,500,first-500,51,rng,num-start-261,261,536,15.728221654891968,True,,True,1,False,1000,True,1.0
./expes/v2_2020-11-27_di_500-prng-3,daily_issda_500,500,first-500,451,rng,num-start-151,151,536,9.020331859588623,True,,True,1,False,1000,True,1.0
./expes/v2_2020-11-27_di_500-prng-3,daily_issda_500,500,first-500,111,rng,num-start-11,11,536,1000.5953900814056,False,,False,0,True,1000,True,0.0
./expes/v2_2020-11-27_di_500-prng-3,daily_issda_500,500,first-500,471,rng,num-start-11,11,536,1000.5437426567078,False,,False,0,True,1000,True,0.0
./expes/v2_2020-11-27_di_500-prng-3,daily_issda_500,500,first-500,461,rng,num-start-131,131,536,7.921507120132446,True,,True,1,False,1000,True,1.0
./expes/v2_2020-11-27_di_500-prng-3,daily_issda_500,500,first-500,231,rng,num-start-61,61,536,1003.0000667572021,False,,False,0,True,1000,True,0.0
./expes/v2_2020-11-27_di_500-prng-3,daily_issda_500,500,first-500,21,rng,num-start-61,61,536,7.197940826416016,True,,True,1,False,1000,True,1.0
./expes/v2_2020-11-27_di_500-prng-3,daily_issda_500,500,first-500,231,rng,num-start-151,151,536,1007.1621890068054,False,,False,0,True,1000,True,0.0
./expes/v2_2020-11-27_di_500-prng-3,daily_issda_500,500,first-500,291,rng,num-start-251,251,536,17.451258182525635,True,,True,1,False,1000,True,1.0
./expes/v2_2020-11-27_di_500-prng-3,daily_issda_500,500,first-500,231,rng,num-start-161,161,536,1008.1567990779877,False,,False,0,True,1000,True,0.0
./expes/v2_2020-11-27_di_500-prng-3,daily_issda_500,500,first-500,111,rng,num-start-41,41,536,1002.1075503826141,False,,False,0,True,1000,True,0.0
./expes/v2_2020-11-27_di_500-prng-3,daily_issda_500,500,first-500,1,rng,num-start-291,291,536,14.781917333602905,True,,True,1,False,1000,True,1.0
./expes/v2_2020-11-27_di_500-prng-3,daily_issda_500,500,first-500,331,rng,num-start-261,261,536,16.661699056625366,True,,True,1,False,1000,True,1.0
./expes/v2_2020-11-27_di_500-prng-3,daily_issda_500,500,first-500,301,rng,num-start-201,201,536,471.0072054862976,True,,True,1,False,1000,True,1.0
./expes/v2_2020-11-27_di_500-prng-3,daily_issda_500,500,first-500,71,rng,num-start-181,181,536,10.995089530944824,True,,True,1,False,1000,True,1.0
./expes/v2_2020-11-27_di_500-prng-3,daily_issda_500,500,first-500,431,rng,num-start-71,71,536,1003.4079802036285,False,,False,0,True,1000,True,0.0
./expes/v2_2020-11-27_di_500-prng-3,daily_issda_500,500,first-500,51,rng,num-start-41,41,536,1001.9809448719025,False,,False,0,True,1000,True,0.0
./expes/v2_2020-11-27_di_500-prng-3,daily_issda_500,500,first-500,351,rng,num-start-291,291,536,18.339243173599243,True,,True,1,False,1000,True,1.0
./expes/v2_2020-11-27_di_500-prng-3,daily_issda_500,500,first-500,381,rng,num-start-131,131,536,1006.4331984519958,False,,False,0,True,1000,True,0.0
./expes/v2_2020-11-27_di_500-prng-3,daily_issda_500,500,first-500,181,rng,num-start-21,21,536,1001.0612108707428,False,,False,0,True,1000,True,0.0
./expes/v2_2020-11-27_di_500-prng-3,daily_issda_500,500,first-500,331,rng,num-start-191,191,536,50.70952796936035,True,,True,1,False,1000,True,1.0
./expes/v2_2020-11-27_di_500-prng-3,daily_issda_500,500,first-500,441,rng,num-start-151,151,536,15.584390878677368,True,,True,1,False,1000,True,1.0
./expes/v2_2020-11-27_di_500-prng-3,daily_issda_500,500,first-500,41,rng,num-start-71,71,536,1003.2822842597961,False,,False,0,True,1000,True,0.0
./expes/v2_2020-11-27_di_500-prng-3,daily_issda_500,500,first-500,111,rng,num-start-141,141,536,1006.4878811836243,False,,False,0,True,1000,True,0.0
./expes/v2_2020-11-27_di_500-prng-3,daily_issda_500,500,first-500,481,rng,num-start-291,291,536,16.40975332260132,True,,True,1,False,1000,True,1.0
./expes/v2_2020-11-27_di_500-prng-3,daily_issda_500,500,first-500,191,rng,num-start-21,21,536,1001.0508375167847,False,,False,0,True,1000,True,0.0
./expes/v2_2020-11-27_di_500-prng-3,daily_issda_500,500,first-500,241,rng,num-start-121,121,536,1005.6523380279541,False,,False,0,True,1000,True,0.0
./expes/v2_2020-11-27_di_500-prng-3,daily_issda_500,500,first-500,91,rng,num-start-151,151,536,19.58552098274231,True,,True,1,False,1000,True,1.0
./expes/v2_2020-11-27_di_500-prng-3,daily_issda_500,500,first-500,491,rng,num-start-21,21,536,4.051069498062134,True,,True,1,False,1000,True,1.0
./expes/v2_2020-11-27_di_500-prng-3,daily_issda_500,500,first-500,61,rng,num-start-291,291,536,20.546616792678833,True,,True,1,False,1000,True,1.0
./expes/v2_2020-11-27_di_500-prng-3,daily_issda_500,500,first-500,81,rng,num-start-261,261,536,16.1158447265625,True,,True,1,False,1000,True,1.0
./expes/v2_2020-11-27_di_500-prng-3,daily_issda_500,500,first-500,91,rng,num-start-81,81,536,1003.9904124736786,False,,False,0,True,1000,True,0.0
./expes/v2_2020-11-27_di_500-prng-3,daily_issda_500,500,first-500,401,rng,num-start-1,1,536,2.715200424194336,False,,False,2,False,1000,True,1.0
./expes/v2_2020-11-27_di_500-prng-3,daily_issda_500,500,first-500,251,rng,num-start-11,11,536,1000.5420598983765,False,,False,0,True,1000,True,0.0
./expes/v2_2020-11-27_di_500-prng-3,daily_issda_500,500,first-500,51,rng,num-start-41,41,536,1002.0088229179382,False,,False,0,True,1000,True,0.0
./expes/v2_2020-11-27_di_500-prng-3,daily_issda_500,500,first-500,421,rng,num-start-201,201,536,11.898282289505005,True,,True,1,False,1000,True,1.0
./expes/v2_2020-11-27_di_500-prng-3,daily_issda_500,500,first-500,11,rng,num-start-251,251,536,12.800875902175903,True,,True,1,False,1000,True,1.0
./expes/v2_2020-11-27_di_500-prng-3,daily_issda_500,500,first-500,361,rng,num-start-81,81,536,1003.8903057575226,False,,False,0,True,1000,True,0.0
./expes/v2_2020-11-27_di_500-prng-3,daily_issda_500,500,first-500,441,rng,num-start-161,161,536,10.108979225158691,True,,True,1,False,1000,True,1.0
./expes/v2_2020-11-27_di_500-prng-3,daily_issda_500,500,first-500,351,rng,num-start-271,271,536,16.553566694259644,True,,True,1,False,1000,True,1.0
./expes/v2_2020-11-27_di_500-prng-3,daily_issda_500,500,first-500,121,rng,num-start-21,21,536,1001.1272587776184,False,,False,0,True,1000,True,0.0
./expes/v2_2020-11-27_di_500-prng-3,daily_issda_500,500,first-500,241,rng,num-start-111,111,536,1005.4802746772766,False,,False,0,True,1000,True,0.0
./expes/v2_2020-11-27_di_500-prng-3,daily_issda_500,500,first-500,171,rng,num-start-131,131,536,1006.3509702682495,False,,False,0,True,1000,True,0.0
./expes/v2_2020-11-27_di_500-prng-3,daily_issda_500,500,first-500,271,rng,num-start-271,271,536,19.87163209915161,True,,True,1,False,1000,True,1.0
./expes/v2_2020-11-27_di_500-prng-3,daily_issda_500,500,first-500,341,rng,num-start-51,51,536,1002.4579105377197,False,,False,0,True,1000,True,0.0
./expes/v2_2020-11-27_di_500-prng-3,daily_issda_500,500,first-500,401,rng,num-start-171,171,536,23.946305751800537,True,,True,1,False,1000,True,1.0
./expes/v2_2020-11-27_di_500-prng-3,daily_issda_500,500,first-500,331,rng,num-start-151,151,536,1007.1154508590698,False,,False,0,True,1000,True,0.0
./expes/v2_2020-11-27_di_500-prng-3,daily_issda_500,500,first-500,291,rng,num-start-91,91,536,1004.4515991210938,False,,False,0,True,1000,True,0.0
./expes/v2_2020-11-27_di_500-prng-3,daily_issda_500,500,first-500,21,rng,num-start-161,161,536,9.224792957305908,True,,True,1,False,1000,True,1.0
./expes/v2_2020-11-27_di_500-prng-3,daily_issda_500,500,first-500,421,rng,num-start-221,221,536,12.92899465560913,True,,True,1,False,1000,True,1.0
./expes/v2_2020-11-27_di_500-prng-3,daily_issda_500,500,first-500,301,rng,num-start-121,121,536,1005.7157602310181,False,,False,0,True,1000,True,0.0
./expes/v2_2020-11-27_di_500-prng-3,daily_issda_500,500,first-500,161,rng,num-start-11,11,536,1000.6451179981232,False,,False,0,True,1000,True,0.0
./expes/v2_2020-11-27_di_500-prng-3,daily_issda_500,500,first-500,161,rng,num-start-111,111,536,1005.2963137626648,False,,False,0,True,1000,True,0.0
./expes/v2_2020-11-27_di_500-prng-3,daily_issda_500,500,first-500,481,rng,num-start-191,191,536,10.741374254226685,True,,True,1,False,1000,True,1.0
./expes/v2_2020-11-27_di_500-prng-3,daily_issda_500,500,first-500,181,rng,num-start-1,1,536,2.67708683013916,False,,False,2,False,1000,True,1.0
./expes/v2_2020-11-27_di_500-prng-3,daily_issda_500,500,first-500,371,rng,num-start-221,221,536,15.119716882705688,True,,True,1,False,1000,True,1.0
./expes/v2_2020-11-27_di_500-prng-3,daily_issda_500,500,first-500,231,rng,num-start-261,261,536,19.784139156341553,True,,True,1,False,1000,True,1.0
./expes/v2_2020-11-27_di_500-prng-3,daily_issda_500,500,first-500,361,rng,num-start-61,61,536,1003.1114904880524,False,,False,0,True,1000,True,0.0
./expes/v2_2020-11-27_di_500-prng-3,daily_issda_500,500,first-500,401,rng,num-start-61,61,536,1002.9692094326019,False,,False,0,True,1000,True,0.0
./expes/v2_2020-11-27_di_500-prng-3,daily_issda_500,500,first-500,101,rng,num-start-171,171,536,24.488465785980225,True,,True,1,False,1000,True,1.0
./expes/v2_2020-11-27_di_500-prng-3,daily_issda_500,500,first-500,151,rng,num-start-71,71,536,1003.5688695907593,False,,False,0,True,1000,True,0.0
./expes/v2_2020-11-27_di_500-prng-3,daily_issda_500,500,first-500,391,rng,num-start-141,141,536,1006.7620325088501,False,,False,0,True,1000,True,0.0
./expes/v2_2020-11-27_di_500-prng-3,daily_issda_500,500,first-500,121,rng,num-start-111,111,536,1005.513237953186,False,,False,0,True,1000,True,0.0
./expes/v2_2020-11-27_di_500-prng-3,daily_issda_500,500,first-500,201,rng,num-start-11,11,536,1000.5560822486877,False,,False,0,True,1000,True,0.0
./expes/v2_2020-11-27_di_500-prng-3,daily_issda_500,500,first-500,271,rng,num-start-131,131,536,1006.3082928657532,False,,False,0,True,1000,True,0.0
./expes/v2_2020-11-27_di_500-prng-3,daily_issda_500,500,first-500,91,rng,num-start-251,251,536,14.681985139846802,True,,True,1,False,1000,True,1.0
./expes/v2_2020-11-27_di_500-prng-3,daily_issda_500,500,first-500,441,rng,num-start-81,81,536,1003.7669169902802,False,,False,0,True,1000,True,0.0
./expes/v2_2020-11-27_di_500-prng-3,daily_issda_500,500,first-500,21,rng,num-start-101,101,536,7.743089199066162,True,,True,1,False,1000,True,1.0
./expes/v2_2020-11-27_di_500-prng-3,daily_issda_500,500,first-500,21,rng,num-start-271,271,536,16.185444831848145,True,,True,1,False,1000,True,1.0
./expes/v2_2020-11-27_di_500-prng-3,daily_issda_500,500,first-500,41,rng,num-start-211,211,536,13.398535966873169,True,,True,1,False,1000,True,1.0
./expes/v2_2020-11-27_di_500-prng-3,daily_issda_500,500,first-500,491,rng,num-start-241,241,536,12.299086332321167,True,,True,1,False,1000,True,1.0
./expes/v2_2020-11-27_di_500-prng-3,daily_issda_500,500,first-500,371,rng,num-start-211,211,536,22.542420148849487,True,,True,1,False,1000,True,1.0
./expes/v2_2020-11-27_di_500-prng-3,daily_issda_500,500,first-500,211,rng,num-start-271,271,536,16.99114441871643,True,,True,1,False,1000,True,1.0
./expes/v2_2020-11-27_di_500-prng-3,daily_issda_500,500,first-500,1,rng,num-start-71,71,536,3.39567494392395,True,,True,1,False,1000,True,1.0
./expes/v2_2020-11-27_di_500-prng-3,daily_issda_500,500,first-500,171,rng,num-start-11,11,536,1000.5381147861481,False,,False,0,True,1000,True,0.0
./expes/v2_2020-11-27_di_500-prng-3,daily_issda_500,500,first-500,411,rng,num-start-141,141,536,1006.5623149871826,False,,False,0,True,1000,True,0.0
./expes/v2_2020-11-27_di_500-prng-3,daily_issda_500,500,first-500,171,rng,num-start-141,141,536,1006.6531529426575,False,,False,0,True,1000,True,0.0
./expes/v2_2020-11-27_di_500-prng-3,daily_issda_500,500,first-500,221,rng,num-start-231,231,536,29.523549556732178,True,,True,1,False,1000,True,1.0
./expes/v2_2020-11-27_di_500-prng-3,daily_issda_500,500,first-500,221,rng,num-start-31,31,536,1001.5724105834961,False,,False,0,True,1000,True,0.0
./expes/v2_2020-11-27_di_500-prng-3,daily_issda_500,500,first-500,471,rng,num-start-261,261,536,13.772819519042969,True,,True,1,False,1000,True,1.0
./expes/v2_2020-11-27_di_500-prng-3,daily_issda_500,500,first-500,391,rng,num-start-181,181,536,25.771505117416382,True,,True,1,False,1000,True,1.0
./expes/v2_2020-11-27_di_500-prng-3,daily_issda_500,500,first-500,381,rng,num-start-271,271,536,15.556679487228394,True,,True,1,False,1000,True,1.0
./expes/v2_2020-11-27_di_500-prng-3,daily_issda_500,500,first-500,421,rng,num-start-121,121,536,1005.766369342804,False,,False,1,True,1000,True,0.0
./expes/v2_2020-11-27_di_500-prng-3,daily_issda_500,500,first-500,21,rng,num-start-221,221,536,14.302428483963013,True,,True,1,False,1000,True,1.0
./expes/v2_2020-11-27_di_500-prng-3,daily_issda_500,500,first-500,11,rng,num-start-81,81,536,4.51296329498291,True,,True,1,False,1000,True,1.0
./expes/v2_2020-11-27_di_500-prng-3,daily_issda_500,500,first-500,381,rng,num-start-1,1,536,2.2142739295959473,False,,False,2,False,1000,True,1.0
./expes/v2_2020-11-27_di_500-prng-3,daily_issda_500,500,first-500,91,rng,num-start-271,271,536,15.901231527328491,True,,True,1,False,1000,True,1.0
./expes/v2_2020-11-27_di_500-prng-3,daily_issda_500,500,first-500,411,rng,num-start-171,171,536,21.328908443450928,True,,True,1,False,1000,True,1.0
./expes/v2_2020-11-27_di_500-prng-3,daily_issda_500,500,first-500,341,rng,num-start-81,81,536,1003.8662588596344,False,,False,0,True,1000,True,0.0
./expes/v2_2020-11-27_di_500-prng-3,daily_issda_500,500,first-500,481,rng,num-start-31,31,536,1001.6267876625061,False,,False,0,True,1000,True,0.0
./expes/v2_2020-11-27_di_500-prng-3,daily_issda_500,500,first-500,451,rng,num-start-11,11,536,1000.5372347831726,False,,False,0,True,1000,True,0.0
./expes/v2_2020-11-27_di_500-prng-3,daily_issda_500,500,first-500,241,rng,num-start-141,141,536,1006.6287758350372,False,,False,0,True,1000,True,0.0
./expes/v2_2020-11-27_di_500-prng-3,daily_issda_500,500,first-500,331,rng,num-start-11,11,536,1000.5092329978943,False,,False,0,True,1000,True,0.0
./expes/v2_2020-11-27_di_500-prng-3,daily_issda_500,500,first-500,461,rng,num-start-171,171,536,10.390152215957642,True,,True,1,False,1000,True,1.0
./expes/v2_2020-11-27_di_500-prng-3,daily_issda_500,500,first-500,491,rng,num-start-81,81,536,4.330899000167847,True,,True,1,False,1000,True,1.0
./expes/v2_2020-11-27_di_500-prng-3,daily_issda_500,500,first-500,71,rng,num-start-31,31,536,1001.4416480064392,False,,False,0,True,1000,True,0.0
./expes/v2_2020-11-27_di_500-prng-3,daily_issda_500,500,first-500,481,rng,num-start-51,51,536,67.04834532737732,True,,True,1,False,1000,True,1.0
./expes/v2_2020-11-27_di_500-prng-3,daily_issda_500,500,first-500,281,rng,num-start-11,11,536,1000.5166049003601,False,,False,0,True,1000,True,0.0
./expes/v2_2020-11-27_di_500-prng-3,daily_issda_500,500,first-500,371,rng,num-start-11,11,536,1000.5263104438782,False,,False,0,True,1000,True,0.0
./expes/v2_2020-11-27_di_500-prng-3,daily_issda_500,500,first-500,71,rng,num-start-41,41,536,1001.9522686004639,False,,False,0,True,1000,True,0.0
./expes/v2_2020-11-27_di_500-prng-3,daily_issda_500,500,first-500,111,rng,num-start-161,161,536,37.1609263420105,True,,True,1,False,1000,True,1.0
./expes/v2_2020-11-27_di_500-prng-3,daily_issda_500,500,first-500,101,rng,num-start-101,101,536,1004.7520020008087,False,,False,0,True,1000,True,0.0
./expes/v2_2020-11-27_di_500-prng-3,daily_issda_500,500,first-500,181,rng,num-start-151,151,536,1006.9670739173889,False,,False,0,True,1000,True,0.0
./expes/v2_2020-11-27_di_500-prng-3,daily_issda_500,500,first-500,291,rng,num-start-181,181,536,1008.4208192825317,False,,False,0,True,1000,True,0.0
./expes/v2_2020-11-27_di_500-prng-3,daily_issda_500,500,first-500,261,rng,num-start-81,81,536,1004.0086333751678,False,,False,0,True,1000,True,0.0
./expes/v2_2020-11-27_di_500-prng-3,daily_issda_500,500,first-500,21,rng,num-start-131,131,536,7.40209174156189,True,,True,1,False,1000,True,1.0
./expes/v2_2020-11-27_di_500-prng-3,daily_issda_500,500,first-500,141,rng,num-start-131,131,536,1006.2113394737244,False,,False,0,True,1000,True,0.0
./expes/v2_2020-11-27_di_500-prng-3,daily_issda_500,500,first-500,51,rng,num-start-221,221,536,14.63205361366272,True,,True,1,False,1000,True,1.0
./expes/v2_2020-11-27_di_500-prng-3,daily_issda_500,500,first-500,151,rng,num-start-101,101,536,1004.7472169399261,False,,False,0,True,1000,True,0.0
./expes/v2_2020-11-27_di_500-prng-3,daily_issda_500,500,first-500,81,rng,num-start-161,161,536,18.87774085998535,True,,True,1,False,1000,True,1.0
./expes/v2_2020-11-27_di_500-prng-3,daily_issda_500,500,first-500,351,rng,num-start-181,181,536,47.73768711090088,True,,True,1,False,1000,True,1.0
./expes/v2_2020-11-27_di_500-prng-3,daily_issda_500,500,first-500,481,rng,num-start-161,161,536,8.780117511749268,True,,True,1,False,1000,True,1.0
./expes/v2_2020-11-27_di_500-prng-3,daily_issda_500,500,first-500,41,rng,num-start-261,261,536,15.26463794708252,True,,True,1,False,1000,True,1.0
./expes/v2_2020-11-27_di_500-prng-3,daily_issda_500,500,first-500,331,rng,num-start-271,271,536,18.30146026611328,True,,True,1,False,1000,True,1.0
./expes/v2_2020-11-27_di_500-prng-3,daily_issda_500,500,first-500,251,rng,num-start-51,51,536,1002.4541707038879,False,,False,0,True,1000,True,0.0
./expes/v2_2020-11-27_di_500-prng-3,daily_issda_500,500,first-500,81,rng,num-start-281,281,536,18.95914340019226,True,,True,1,False,1000,True,1.0
./expes/v2_2020-11-27_di_500-prng-3,daily_issda_500,500,first-500,361,rng,num-start-61,61,536,1002.8398373126984,False,,False,0,True,1000,True,0.0
./expes/v2_2020-11-27_di_500-prng-3,daily_issda_500,500,first-500,71,rng,num-start-1,1,536,2.5160703659057617,False,,False,2,False,1000,True,1.0
./expes/v2_2020-11-27_di_500-prng-3,daily_issda_500,500,first-500,41,rng,num-start-191,191,536,12.407225370407104,True,,True,1,False,1000,True,1.0
./expes/v2_2020-11-27_di_500-prng-3,daily_issda_500,500,first-500,101,rng,num-start-81,81,536,1003.9428899288177,False,,False,0,True,1000,True,0.0
