expe,clients,clients_size,clients_subset,agg_size,method,days,days_size,days_total,time,valid,valid_sum,success,nsols,wall_hit,wall_time,pooled,valid_sums
./expes/v2_2020-11-04_dbh_150-prng-1,daily_base_hphc_150,150,first-150,131,rng,num-start-41,41,365,1.9293713569641113,True,,True,1,False,1000,True,1.0
./expes/v2_2020-11-04_dbh_150-prng-1,daily_base_hphc_150,150,first-150,131,rng,num-start-281,281,365,2.6462206840515137,True,,True,1,False,1000,True,1.0
./expes/v2_2020-11-04_dbh_150-prng-1,daily_base_hphc_150,150,first-150,51,rng,num-start-31,31,365,1000.3302688598633,False,,False,0,True,1000,True,0.0
