,expe,clients,clients_size,clients_subset,agg_size,agg_size_pc,method,days,days_size,days_total,noise_method,time,valid,valid_sum,success,score_avg,score_min,score_max,nsols,oracle,wall_hit,wall_time,pooled,pool_size,optimal,valid_sums,uuid
0,./expes/v3_2021-01-29_hi_300-prng-1-w1-p100,30_issda-300,300,first-300,126,42,rng,num-start-13300,13300,25726,classic,538.6626150608063,True,,True,1.0,1.0,1.0,1,"Index(['1', '8', '9', '12', '14', '17', '19', '20', '21', '24',
       ...
       '279', '281', '283', '287', '291', '292', '294', '295', '297', '299'],
      dtype='object', length=126)",False,1000,True,100,1.0,1.0,de4922fc41
1,./expes/v3_2021-01-29_hi_300-prng-1-w1-p100,30_issda-300,300,first-300,84,28,rng,num-start-61,61,25726,classic,1002.1565797328948,False,,False,0.0,,,0,"Index(['1', '7', '9', '12', '15', '19', '24', '28', '40', '42', '44', '46',
       '48', '49', '50', '60', '62', '65', '71', '75', '87', '89', '95', '97',
       '99', '100', '101', '102', '103', '108', '115', '126', '129', '134',
       '136', '137', '138', '140', '149', '150', '156', '157', '160', '164',
       '171', '172', '183', '185', '186', '192', '194', '195', '200', '204',
       '210', '212', '217', '218', '219', '221', '226', '228', '229', '232',
       '241', '242', '248', '249', '250', '251', '257', '258', '264', '265',
       '268', '269', '271', '276', '277', '284', '286', '289', '294', '295'],
      dtype='object')",True,1000,True,100,0.0,0.0,86226bfb6c
2,./expes/v3_2021-01-29_hi_300-prng-1-w1-p100,30_issda-300,300,first-300,49,16,rng,num-start-10300,10300,25726,classic,386.7227268218994,True,,True,1.0,1.0,1.0,1,"Index(['1', '12', '15', '19', '24', '42', '46', '48', '49', '50', '62', '75',
       '99', '100', '101', '102', '103', '126', '129', '134', '136', '140',
       '150', '156', '164', '172', '183', '185', '186', '192', '210', '212',
       '218', '221', '228', '241', '249', '250', '251', '257', '258', '264',
       '269', '276', '277', '284', '289', '294', '295'],
      dtype='object')",False,1000,True,100,1.0,1.0,1cef2bd3bd
3,./expes/v3_2021-01-29_hi_300-prng-1-w1-p100,30_issda-300,300,first-300,49,16,rng,num-start-3800,3800,25726,classic,136.58627724647522,True,,True,1.0,1.0,1.0,1,"Index(['3', '8', '17', '18', '23', '34', '39', '69', '72', '81', '83', '90',
       '100', '106', '121', '123', '128', '135', '143', '146', '156', '161',
       '167', '168', '182', '185', '186', '188', '193', '196', '216', '220',
       '224', '226', '231', '234', '237', '241', '248', '251', '252', '257',
       '267', '275', '282', '293', '296', '299', '300'],
      dtype='object')",False,1000,True,100,1.0,1.0,4bf152e319
4,./expes/v3_2021-01-29_hi_300-prng-1-w1-p100,30_issda-300,300,first-300,105,35,rng,num-start-5800,5800,25726,classic,235.33787178993225,True,,True,1.0,1.0,1.0,1,"Index(['1', '2', '3', '5', '7', '12', '14', '15', '16', '18',
       ...
       '276', '277', '278', '281', '284', '285', '288', '292', '296', '297'],
      dtype='object', length=105)",False,1000,True,100,1.0,1.0,a7624f90d8
5,./expes/v3_2021-01-29_hi_300-prng-1-w1-p100,30_issda-300,300,first-300,70,23,rng,num-start-3300,3300,25726,classic,130.29915499687195,True,,True,1.0,1.0,1.0,1,"Index(['1', '6', '10', '15', '16', '17', '27', '31', '32', '39', '43', '45',
       '47', '58', '59', '70', '74', '75', '84', '88', '92', '99', '103',
       '108', '115', '117', '121', '130', '134', '138', '141', '159', '161',
       '172', '173', '174', '180', '183', '186', '187', '189', '191', '192',
       '196', '197', '198', '206', '208', '215', '217', '221', '226', '228',
       '236', '241', '243', '245', '248', '257', '260', '261', '262', '263',
       '271', '277', '278', '285', '286', '294', '296'],
      dtype='object')",False,1000,True,100,1.0,1.0,663cd3b29f
