,expe,clients,clients_size,clients_subset,agg_size,agg_size_pc,method,days,days_size,days_total,noise_method,time,valid,valid_sum,success,score_avg,score_min,score_max,nsols,oracle,wall_hit,wall_time,pooled,pool_size,optimal,valid_sums,uuid
0,./expes/v3_2021-01-29_hi_300-prng-1-w1-p100,30_issda-300,300,first-300,21,7,rng,num-start-281,281,25726,classic,10.708760738372805,True,,True,1.0,1.0,1.0,1,"Index(['15', '19', '29', '44', '47', '82', '87', '109', '129', '138', '158',
       '185', '187', '191', '202', '221', '228', '258', '261', '279', '298'],
      dtype='object')",False,1000,True,100,1.0,1.0,e6d2542a52
1,./expes/v3_2021-01-29_hi_300-prng-1-w1-p100,30_issda-300,300,first-300,140,46,rng,num-start-8300,8300,25726,classic,336.55347657203674,True,,True,1.0,1.0,1.0,1,"Index(['2', '4', '5', '9', '12', '13', '14', '17', '21', '23',
       ...
       '278', '280', '281', '284', '288', '292', '293', '296', '297', '300'],
      dtype='object', length=140)",False,1000,True,100,1.0,1.0,9689e552a1
2,./expes/v3_2021-01-29_hi_300-prng-1-w1-p100,30_issda-300,300,first-300,63,21,rng,num-start-121,121,25726,classic,5.380122661590576,True,,True,1.0,1.0,1.0,1,"Index(['3', '8', '17', '18', '19', '23', '34', '37', '39', '42', '50', '58',
       '69', '72', '77', '81', '83', '90', '100', '106', '115', '121', '123',
       '128', '135', '143', '146', '155', '156', '161', '167', '168', '182',
       '185', '186', '188', '192', '193', '196', '197', '212', '216', '220',
       '224', '226', '231', '234', '237', '241', '248', '251', '252', '255',
       '257', '267', '274', '275', '282', '291', '293', '296', '299', '300'],
      dtype='object')",False,1000,True,100,1.0,1.0,5fbf6e9b63
3,./expes/v3_2021-01-29_hi_300-prng-1-w1-p100,30_issda-300,300,first-300,56,18,rng,num-start-271,271,25726,classic,10.191171169281006,True,,True,1.0,1.0,1.0,1,"Index(['1', '6', '10', '16', '27', '31', '32', '39', '43', '45', '47', '58',
       '70', '74', '75', '84', '88', '99', '103', '108', '115', '117', '134',
       '138', '141', '161', '173', '174', '180', '183', '186', '189', '192',
       '196', '197', '198', '206', '208', '215', '217', '226', '228', '236',
       '241', '243', '245', '248', '260', '261', '263', '271', '277', '278',
       '285', '286', '296'],
      dtype='object')",False,1000,True,100,1.0,1.0,d217d5701f
4,./expes/v3_2021-01-29_hi_300-prng-1-w1-p100,30_issda-300,300,first-300,105,35,rng,num-start-6300,6300,25726,classic,263.80001997947693,True,,True,1.0,1.0,1.0,1,"Index(['1', '4', '5', '6', '10', '14', '15', '16', '17', '19',
       ...
       '264', '266', '271', '277', '278', '282', '285', '286', '294', '296'],
      dtype='object', length=105)",False,1000,True,100,1.0,1.0,b29b4b9971
5,./expes/v3_2021-01-29_hi_300-prng-1-w1-p100,30_issda-300,300,first-300,98,32,rng,num-start-300,300,25726,classic,12.428605556488035,True,,True,1.0,1.0,1.0,1,"Index(['1', '6', '10', '11', '13', '15', '18', '22', '35', '36', '38', '43',
       '46', '48', '49', '51', '53', '55', '58', '59', '61', '63', '74', '77',
       '83', '85', '87', '93', '97', '99', '100', '105', '112', '115', '121',
       '127', '131', '132', '134', '135', '137', '139', '141', '143', '144',
       '145', '150', '155', '156', '159', '160', '162', '173', '178', '183',
       '184', '185', '187', '189', '196', '198', '199', '202', '204', '207',
       '208', '211', '214', '217', '218', '224', '225', '226', '231', '232',
       '234', '236', '239', '241', '242', '243', '246', '249', '250', '251',
       '257', '260', '264', '265', '270', '272', '274', '283', '287', '292',
       '293', '297', '299'],
      dtype='object')",False,1000,True,100,1.0,1.0,5e5e584634
6,./expes/v3_2021-01-29_hi_300-prng-1-w1-p100,30_issda-300,300,first-300,28,9,rng,num-start-3800,3800,25726,classic,142.34944772720337,True,,True,1.0,1.0,1.0,1,"Index(['6', '9', '19', '29', '60', '76', '81', '106', '107', '115', '118',
       '119', '123', '135', '144', '157', '161', '174', '177', '182', '183',
       '189', '201', '216', '239', '262', '267', '296'],
      dtype='object')",False,1000,True,100,1.0,1.0,f9d3d53e95
7,./expes/v3_2021-01-29_hi_300-prng-1-w1-p100,30_issda-300,300,first-300,14,4,rng,num-start-191,191,25726,classic,7.136415958404541,True,,True,1.0,1.0,1.0,1,"Index(['21', '72', '112', '133', '156', '184', '198', '208', '216', '245',
       '249', '259', '262', '299'],
      dtype='object')",False,1000,True,100,1.0,1.0,c40edd9bf9
8,./expes/v3_2021-01-29_hi_300-prng-1-w1-p100,30_issda-300,300,first-300,105,35,rng,num-start-141,141,25726,classic,8.855798244476318,True,,True,1.0,1.0,1.0,1,"Index(['1', '2', '3', '4', '5', '9', '10', '13', '14', '18',
       ...
       '276', '277', '284', '285', '287', '290', '294', '295', '297', '300'],
      dtype='object', length=105)",False,1000,True,100,1.0,1.0,52db77885b
9,./expes/v3_2021-01-29_hi_300-prng-1-w1-p100,30_issda-300,300,first-300,42,14,rng,num-start-11,11,25726,classic,1000.467936515808,False,,False,0.0,,,0,"Index(['4', '59', '61', '63', '87', '90', '93', '94', '101', '102', '103',
       '104', '111', '113', '121', '122', '123', '130', '136', '139', '140',
       '152', '154', '156', '167', '172', '176', '178', '188', '208', '230',
       '235', '246', '251', '253', '260', '268', '270', '276', '283', '294',
       '295'],
      dtype='object')",True,1000,True,100,0.0,0.0,b3fc6701b3
10,./expes/v3_2021-01-29_hi_300-prng-1-w1-p100,30_issda-300,300,first-300,98,32,rng,num-start-91,91,25726,classic,524.5324256420135,True,,True,1.0,1.0,1.0,1,"Index(['5', '11', '13', '15', '17', '19', '21', '26', '29', '30', '31', '35',
       '39', '43', '44', '47', '55', '59', '66', '70', '81', '82', '83', '85',
       '86', '87', '89', '91', '94', '95', '98', '107', '108', '109', '114',
       '117', '119', '121', '126', '128', '129', '131', '137', '138', '140',
       '143', '156', '158', '159', '160', '164', '167', '175', '180', '182',
       '185', '186', '187', '188', '191', '192', '195', '202', '205', '209',
       '213', '217', '221', '228', '229', '233', '234', '237', '239', '246',
       '250', '251', '256', '257', '258', '259', '260', '261', '262', '263',
       '264', '266', '268', '269', '270', '272', '279', '286', '287', '288',
       '291', '295', '298'],
      dtype='object')",False,1000,True,100,1.0,1.0,9e7d12199d
11,./expes/v3_2021-01-29_hi_300-prng-1-w1-p100,30_issda-300,300,first-300,140,46,rng,num-start-13800,13800,25726,classic,567.804762840271,True,,True,1.0,1.0,1.0,1,"Index(['1', '7', '8', '9', '12', '14', '17', '19', '20', '21',
       ...
       '281', '283', '287', '288', '291', '292', '294', '295', '297', '299'],
      dtype='object', length=140)",False,1000,True,100,1.0,1.0,d077276d85
12,./expes/v3_2021-01-29_hi_300-prng-1-w1-p100,30_issda-300,300,first-300,21,7,rng,num-start-1,1,25726,classic,1.412379026412964,False,,True,0.6455223437166612,0.6342415220202724,0.6627873451634121,100,"Index(['61', '63', '87', '90', '93', '94', '101', '102', '121', '123', '130',
       '136', '152', '167', '172', '230', '235', '246', '251', '253', '268'],
      dtype='object')",False,1000,True,100,1.0,1.0,487d053639
13,./expes/v3_2021-01-29_hi_300-prng-1-w1-p100,30_issda-300,300,first-300,126,42,rng,num-start-1,1,25726,classic,2.472715139389038,False,,True,0.2842565033324396,0.2639252619014224,0.3108582236144247,100,"Index(['1', '8', '9', '12', '14', '17', '19', '20', '21', '24',
       ...
       '279', '281', '283', '287', '291', '292', '294', '295', '297', '299'],
      dtype='object', length=126)",False,1000,True,100,1.0,1.0,d91c5f855f
