expe,clients,clients_size,clients_subset,agg_size,agg_size_pc,method,days,days_size,days_total,noise_method,time,valid,valid_sum,success,score_avg,score_min,score_max,nsols,oracle,wall_hit,wall_time,pooled,pool_size,uuid,infeasible,optimal,valid_sums
./expes/v2_2021-04-12_issda-daily_500-prng-1-w1-p2,daily_issda-500,500,first-500,150,30,rng,num-start-250,250,536,classic,17.148019075393677,True,,True,1.0,1.0,1.0,1,"['5', '13', '15', '19', '26', '29', '31', '39', '44', '47', '55', '70', '82', '83', '85', '86', '87', '89', '91', '94', '98', '107', '109', '114', '117', '119', '121', '128', '129', '138', '140', '143', '156', '158', '159', '160', '164', '167', '175', '180', '182', '185', '186', '187', '188', '191', '195', '202', '205', '209', '213', '217', '221', '228', '229', '233', '234', '237', '239', '246', '250', '251', '256', '257', '258', '259', '260', '261', '262', '263', '264', '266', '269', '270', '272', '279', '286', '287', '288', '291', '295', '298', '302', '303', '304', '311', '316', '320', '327', '334', '335', '336', '338', '339', '343', '346', '349', '350', '351', '359', '362', '367', '371', '372', '375', '377', '379', '382', '387', '391', '396', '402', '405', '408', '410', '412', '415', '418', '421', '426', '428', '435', '438', '440', '441', '442', '446', '449', '452', '453', '457', '458', '461', '462', '463', '465', '466', '467', '472', '474', '478', '479', '480', '482', '486', '487', '489', '490', '491', '493']",False,1000,True,2,d695814d3d,0.0,1.0,1.0
./expes/v2_2021-04-12_issda-daily_500-prng-1-w1-p2,daily_issda-500,500,first-500,200,40,rng,num-start-400,400,536,classic,24.38888382911682,True,,True,1.0,1.0,1.0,1,"['1', '2', '3', '5', '7', '12', '14', '15', '16', '17', '18', '23', '29', '33', '37', '43', '45', '47', '49', '52', '53', '56', '61', '62', '67', '69', '84', '87', '88', '89', '91', '93', '96', '98', '103', '106', '108', '111', '113', '114', '117', '118', '119', '120', '125', '131', '137', '138', '146', '149', '152', '156', '158', '163', '170', '171', '177', '178', '181', '183', '187', '188', '190', '192', '195', '196', '197', '200', '202', '207', '208', '212', '213', '214', '217', '219', '222', '225', '229', '231', '235', '236', '241', '242', '246', '247', '249', '250', '251', '254', '256', '257', '258', '259', '260', '261', '263', '264', '266', '267', '271', '276', '277', '278', '281', '282', '283', '284', '285', '288', '292', '296', '297', '300', '301', '302', '303', '304', '308', '312', '314', '315', '320', '323', '326', '329', '332', '333', '334', '338', '340', '341', '344', '345', '346', '347', '352', '357', '360', '361', '365', '370', '371', '372', '374', '376', '378', '380', '381', '390', '391', '392', '393', '395', '398', '399', '402', '403', '404', '409', '411', '412', '415', '417', '419', '421', '425', '428', '429', '431', '434', '435', '436', '437', '439', '441', '446', '452', '454', '458', '459', '462', '466', '467', '470', '472', '473', '475', '477', '480', '481', '482', '484', '487', '488', '489', '491', '496', '497', '499']",False,1000,True,2,7015efdc58,0.0,1.0,1.0
