expe,clients,clients_size,clients_subset,agg_size,agg_size_pc,method,days,days_size,days_total,noise_method,time,valid,valid_sum,success,score_avg,score_min,score_max,nsols,oracle,wall_hit,wall_time,pooled,pool_size,uuid,infeasible,optimal,valid_sums
./expes/v2_2021-04-12_issda-daily_500-prng-1-w1-p2,daily_issda-500,500,first-500,250,50,rng,num-start-450,450,536,classic,31.1793429851532,True,,True,1.0,1.0,1.0,1,"['1', '3', '5', '10', '11', '13', '15', '16', '17', '18', '19', '21', '23', '24', '26', '29', '30', '31', '35', '38', '39', '42', '43', '44', '45', '47', '48', '50', '52', '53', '54', '55', '57', '58', '59', '66', '68', '70', '72', '74', '78', '79', '81', '82', '83', '85', '86', '87', '88', '89', '91', '94', '95', '98', '107', '108', '109', '112', '114', '116', '117', '119', '120', '121', '124', '126', '127', '128', '129', '130', '131', '132', '133', '135', '136', '137', '138', '140', '143', '147', '156', '158', '159', '160', '162', '164', '167', '168', '173', '175', '177', '180', '182', '185', '186', '187', '188', '191', '192', '195', '197', '198', '202', '205', '206', '209', '210', '213', '215', '217', '221', '228', '229', '230', '233', '234', '237', '239', '243', '246', '250', '251', '256', '257', '258', '259', '260', '261', '262', '263', '264', '266', '267', '268', '269', '270', '272', '279', '283', '286', '287', '288', '291', '295', '298', '300', '302', '303', '304', '310', '311', '316', '319', '320', '322', '326', '327', '334', '335', '336', '338', '339', '343', '344', '345', '346', '349', '350', '351', '352', '355', '359', '362', '363', '364', '366', '367', '368', '371', '372', '374', '375', '377', '379', '381', '382', '383', '385', '387', '389', '391', '393', '396', '400', '402', '404', '405', '406', '407', '408', '410', '412', '415', '417', '418', '421', '423', '426', '428', '430', '435', '438', '440', '441', '442', '446', '448', '449', '451', '452', '453', '457', '458', '460', '461', '462', '463', '465', '466', '467', '469', '470', '471', '472', '474', '478', '479', '480', '481', '482', '484', '486', '487', '489', '490', '491', '492', '493', '497', '498']",False,1000,True,2,bf3a2658ef,0.0,1.0,1.0
./expes/v2_2021-04-12_issda-daily_500-prng-1-w1-p2,daily_issda-500,500,first-500,200,40,rng,num-start-500,500,536,classic,44.1048698425293,True,,True,1.0,1.0,1.0,1,"['1', '8', '9', '12', '14', '17', '19', '20', '21', '24', '32', '33', '36', '37', '38', '42', '43', '46', '47', '48', '49', '51', '52', '56', '60', '62', '64', '67', '72', '73', '75', '76', '77', '88', '95', '96', '97', '98', '100', '105', '108', '111', '112', '113', '114', '121', '123', '124', '125', '129', '133', '134', '139', '141', '142', '145', '148', '149', '150', '155', '156', '159', '162', '163', '164', '167', '170', '171', '172', '180', '182', '183', '184', '190', '191', '198', '201', '205', '208', '215', '216', '218', '219', '223', '227', '228', '230', '231', '242', '244', '245', '246', '249', '250', '251', '253', '259', '261', '262', '267', '268', '269', '273', '274', '277', '279', '281', '283', '287', '291', '294', '295', '297', '299', '301', '302', '306', '309', '311', '313', '314', '317', '318', '321', '323', '325', '326', '328', '329', '332', '337', '339', '343', '348', '349', '350', '351', '358', '359', '361', '362', '364', '368', '369', '373', '374', '375', '387', '388', '389', '401', '402', '407', '409', '410', '412', '413', '415', '416', '418', '419', '421', '423', '424', '425', '426', '427', '428', '429', '431', '432', '433', '435', '436', '438', '444', '445', '446', '449', '456', '457', '459', '460', '461', '462', '465', '466', '468', '469', '470', '471', '473', '478', '480', '487', '493', '494', '495', '496', '497']",False,1000,True,2,663961804a,0.0,1.0,1.0
./expes/v2_2021-04-12_issda-daily_500-prng-1-w1-p2,daily_issda-500,500,first-500,350,70,rng,num-start-450,450,536,classic,36.82645106315613,True,,True,1.0,1.0,1.0,1,"['1', '2', '3', '5', '6', '7', '8', '9', '10', '11', '12', '13', '14', '15', '16', '17', '18', '19', '20', '21', '23', '24', '25', '29', '31', '33', '34', '36', '37', '38', '40', '42', '43', '44', '45', '46', '47', '49', '50', '51', '52', '53', '54', '56', '57', '58', '59', '60', '61', '62', '65', '67', '69', '70', '75', '76', '81', '82', '83', '84', '86', '87', '88', '89', '91', '93', '94', '95', '96', '97', '98', '100', '102', '103', '106', '107', '108', '109', '110', '111', '112', '113', '114', '115', '116', '117', '118', '119', '120', '121', '123', '124', '125', '127', '128', '129', '130', '131', '133', '137', '138', '140', '142', '144', '145', '146', '149', '150', '151', '152', '153', '156', '157', '158', '159', '160', '161', '162', '163', '164', '165', '167', '168', '170', '171', '174', '175', '176', '177', '178', '181', '183', '185', '187', '188', '189', '190', '192', '194', '195', '196', '197', '198', '200', '201', '202', '203', '204', '205', '206', '207', '208', '209', '212', '213', '214', '216', '217', '219', '220', '222', '223', '225', '229', '231', '232', '233', '234', '235', '236', '241', '242', '243', '245', '246', '247', '249', '250', '251', '253', '254', '255', '256', '257', '258', '259', '260', '261', '262', '263', '264', '265', '266', '267', '269', '271', '273', '274', '276', '277', '278', '279', '281', '282', '283', '284', '285', '288', '289', '290', '292', '293', '294', '295', '296', '297', '300', '301', '302', '303', '304', '306', '308', '310', '311', '312', '314', '315', '317', '319', '320', '323', '324', '326', '329', '332', '333', '334', '337', '338', '339', '340', '341', '344', '345', '346', '347', '348', '349', '352', '353', '356', '357', '360', '361', '365', '367', '369', '370', '371', '372', '374', '376', '378', '380', '381', '387', '389', '390', '391', '392', '393', '394', '395', '398', '399', '400', '401', '402', '403', '404', '405', '408', '409', '411', '412', '413', '415', '416', '417', '419', '420', '421', '423', '424', '425', '427', '428', '429', '431', '433', '434', '435', '436', '437', '439', '440', '441', '444', '445', '446', '447', '449', '450', '452', '454', '455', '457', '458', '459', '460', '461', '462', '466', '467', '468', '469', '470', '472', '473', '474', '475', '477', '478', '480', '481', '482', '484', '487', '488', '489', '491', '492', '493', '494', '495', '496', '497', '499', '500']",False,1000,True,2,8553eacee8,0.0,1.0,1.0
