expe,clients,clients_size,clients_subset,agg_size,agg_size_pc,method,days,days_size,days_total,noise_method,time,valid,valid_sum,success,score_avg,score_min,score_max,nsols,oracle,wall_hit,wall_time,pooled,pool_size,uuid,optimal,valid_sums
./expes/v3_2021-02-03_hi_2000-prng-1-w1-p10,30_issda-2000,2000,first-2000,750,37,rng,num-start-9800,9800,25726,classic,2844.0895676612854,True,,False,1.0,1.0,1.0,1,"Index(['2', '7', '8', '11', '12', '14', '15', '17', '18', '20',
       ...
       '1980', '1982', '1984', '1985', '1988', '1992', '1995', '1997', '1998',
       '2000'],
      dtype='object', length=750)",True,1000,True,10,608e5f43a1,0.0,1.0
./expes/v3_2021-02-03_hi_2000-prng-1-w1-p10,30_issda-2000,2000,first-2000,850,42,rng,num-start-41,41,25726,classic,1007.7348771095276,False,,False,0,,,0,"Index(['1', '3', '4', '5', '7', '15', '17', '18', '19', '20',
       ...
       '1978', '1980', '1982', '1983', '1984', '1986', '1988', '1992', '1996',
       '2000'],
      dtype='object', length=850)",True,1000,True,10,b704d93f78,0.0,0.0
./expes/v3_2021-02-03_hi_2000-prng-1-w1-p10,30_issda-2000,2000,first-2000,50,2,rng,num-start-14300,14300,25726,classic,3623.092334985733,True,,False,1.0,1.0,1.0,1,"Index(['83', '152', '195', '203', '207', '286', '287', '301', '448', '514',
       '531', '578', '622', '636', '677', '725', '734', '789', '830', '862',
       '967', '977', '996', '1034', '1048', '1091', '1147', '1195', '1233',
       '1267', '1401', '1445', '1495', '1548', '1553', '1606', '1638', '1660',
       '1700', '1730', '1742', '1824', '1827', '1841', '1848', '1860', '1864',
       '1881', '1978', '1983'],
      dtype='object')",True,1000,True,10,206870f67c,0.0,1.0
./expes/v3_2021-02-03_hi_2000-prng-1-w1-p10,30_issda-2000,2000,first-2000,400,20,rng,num-start-121,121,25726,classic,1024.6155667304993,False,,False,0,,,0,"Index(['6', '8', '10', '19', '24', '31', '32', '35', '36', '39',
       ...
       '1940', '1942', '1953', '1965', '1967', '1971', '1977', '1982', '1992',
       '2000'],
      dtype='object', length=400)",True,1000,True,10,c150dee3e9,0.0,0.0
./expes/v3_2021-02-03_hi_2000-prng-1-w1-p10,30_issda-2000,2000,first-2000,950,47,rng,num-start-13800,13800,25726,classic,3488.164594888687,True,,False,1.0,1.0,1.0,1,"Index(['1', '3', '4', '6', '7', '10', '11', '13', '14', '20',
       ...
       '1987', '1988', '1989', '1990', '1992', '1994', '1995', '1997', '1998',
       '2000'],
      dtype='object', length=950)",True,1000,True,10,d8158b5157,0.0,1.0
./expes/v3_2021-02-03_hi_2000-prng-1-w1-p10,30_issda-2000,2000,first-2000,1000,50,rng,num-start-3800,3800,25726,classic,1721.9539301395416,True,,False,1.0,1.0,1.0,1,"Index(['1', '3', '4', '9', '12', '13', '14', '16', '18', '19',
       ...
       '1981', '1982', '1983', '1985', '1986', '1987', '1993', '1994', '1998',
       '1999'],
      dtype='object', length=1000)",True,1000,True,10,d60c9786e8,0.0,1.0
./expes/v3_2021-02-03_hi_2000-prng-1-w1-p10,30_issda-2000,2000,first-2000,950,47,rng,num-start-4300,4300,25726,classic,1751.9326140880585,True,,False,1.0,1.0,1.0,1,"Index(['6', '8', '10', '11', '13', '14', '16', '17', '19', '23',
       ...
       '1980', '1981', '1982', '1983', '1984', '1985', '1987', '1992', '1998',
       '2000'],
      dtype='object', length=950)",True,1000,True,10,91f4639b38,0.0,1.0
./expes/v3_2021-02-03_hi_2000-prng-1-w1-p10,30_issda-2000,2000,first-2000,950,47,rng,num-start-211,211,25726,classic,1039.7808413505554,False,,False,0,,,0,"Index(['6', '8', '10', '11', '13', '14', '16', '17', '19', '23',
       ...
       '1980', '1981', '1982', '1983', '1984', '1985', '1987', '1992', '1998',
       '2000'],
      dtype='object', length=950)",True,1000,True,10,c4c8f1c7d2,0.0,0.0
./expes/v3_2021-02-03_hi_2000-prng-1-w1-p10,30_issda-2000,2000,first-2000,900,45,rng,num-start-10300,10300,25726,classic,2823.2973306179047,True,,False,1.0,1.0,1.0,1,"Index(['1', '2', '4', '6', '8', '10', '16', '21', '22', '25',
       ...
       '1977', '1980', '1983', '1984', '1990', '1991', '1992', '1993', '1995',
       '2000'],
      dtype='object', length=900)",True,1000,True,10,8362168e86,0.0,1.0
./expes/v3_2021-02-03_hi_2000-prng-1-w1-p10,30_issda-2000,2000,first-2000,350,17,rng,num-start-101,101,25726,classic,1016.9075870513916,False,,False,0,,,0,"Index(['12', '13', '14', '18', '23', '27', '36', '38', '43', '94',
       ...
       '1919', '1934', '1935', '1938', '1946', '1950', '1962', '1981', '1993',
       '1999'],
      dtype='object', length=350)",True,1000,True,10,27e4be30d4,0.0,0.0
./expes/v3_2021-02-03_hi_2000-prng-1-w1-p10,30_issda-2000,2000,first-2000,150,7,rng,num-start-800,800,25726,classic,608.647519826889,True,,True,1.0,1.0,1.0,1,"Index(['11', '20', '37', '40', '43', '56', '104', '106', '111', '120',
       ...
       '1878', '1880', '1885', '1925', '1936', '1949', '1957', '1961', '1966',
       '1968'],
      dtype='object', length=150)",False,1000,True,10,9d69893a9b,1.0,1.0
./expes/v3_2021-02-03_hi_2000-prng-1-w1-p10,30_issda-2000,2000,first-2000,350,17,rng,num-start-2800,2800,25726,classic,1113.9738337993622,True,,True,1.0,1.0,1.0,1,"Index(['6', '15', '18', '34', '35', '47', '51', '54', '55', '66',
       ...
       '1957', '1959', '1960', '1963', '1973', '1977', '1983', '1987', '1989',
       '1993'],
      dtype='object', length=350)",False,1000,True,10,071ea43241,1.0,1.0
./expes/v3_2021-02-03_hi_2000-prng-1-w1-p10,30_issda-2000,2000,first-2000,700,35,rng,num-start-211,211,25726,classic,1035.3686909675598,False,,False,0,,,0,"Index(['1', '3', '4', '5', '7', '17', '19', '20', '26', '28',
       ...
       '1978', '1980', '1982', '1983', '1984', '1986', '1988', '1992', '1996',
       '2000'],
      dtype='object', length=700)",True,1000,True,10,98746f1bb6,0.0,0.0
./expes/v3_2021-02-03_hi_2000-prng-1-w1-p10,30_issda-2000,2000,first-2000,400,20,rng,num-start-181,181,25726,classic,1030.0972409248352,False,,False,0,,,0,"Index(['10', '15', '24', '27', '32', '41', '42', '44', '46', '56',
       ...
       '1964', '1968', '1973', '1975', '1976', '1978', '1989', '1990', '1991',
       '1993'],
      dtype='object', length=400)",True,1000,True,10,3a82131cfe,0.0,0.0
./expes/v3_2021-02-03_hi_2000-prng-1-w1-p10,30_issda-2000,2000,first-2000,50,2,rng,num-start-181,181,25726,classic,1030.021695137024,False,,False,0,,,0,"Index(['35', '47', '89', '145', '151', '202', '204', '221', '234', '248',
       '304', '409', '413', '415', '534', '535', '549', '593', '638', '667',
       '671', '712', '796', '806', '844', '849', '867', '934', '1048', '1066',
       '1084', '1111', '1166', '1186', '1198', '1219', '1265', '1387', '1491',
       '1503', '1584', '1608', '1645', '1710', '1774', '1801', '1834', '1838',
       '1885', '1983'],
      dtype='object')",True,1000,True,10,3abfb75790,0.0,0.0
./expes/v3_2021-02-03_hi_2000-prng-1-w1-p10,30_issda-2000,2000,first-2000,650,32,rng,num-start-281,281,25726,classic,1046.6220726966858,False,,False,0,,,0,"Index(['7', '11', '15', '16', '17', '20', '22', '24', '25', '32',
       ...
       '1975', '1976', '1982', '1987', '1990', '1992', '1994', '1996', '1997',
       '1998'],
      dtype='object', length=650)",True,1000,True,10,adc7a80d19,0.0,0.0
./expes/v3_2021-02-03_hi_2000-prng-1-w1-p10,30_issda-2000,2000,first-2000,150,7,rng,num-start-151,151,25726,classic,1025.1178059577942,False,,False,0,,,0,"Index(['3', '29', '68', '80', '83', '128', '129', '142', '152', '165',
       ...
       '1881', '1882', '1889', '1892', '1911', '1974', '1978', '1980', '1982',
       '1983'],
      dtype='object', length=150)",True,1000,True,10,bcf1476cc2,0.0,0.0
./expes/v3_2021-02-03_hi_2000-prng-1-w1-p10,30_issda-2000,2000,first-2000,550,27,rng,num-start-171,171,25726,classic,1028.458865404129,False,,False,0,,,0,"Index(['4', '7', '10', '12', '15', '20', '22', '27', '38', '41',
       ...
       '1968', '1970', '1972', '1976', '1979', '1984', '1986', '1988', '1989',
       '1995'],
      dtype='object', length=550)",True,1000,True,10,d00a8e0e17,0.0,0.0
./expes/v3_2021-02-03_hi_2000-prng-1-w1-p10,30_issda-2000,2000,first-2000,650,32,rng,num-start-10300,10300,25726,classic,2699.788423538208,True,,False,1.0,1.0,1.0,1,"Index(['6', '8', '9', '11', '12', '16', '26', '28', '30', '31',
       ...
       '1973', '1974', '1976', '1984', '1985', '1986', '1987', '1988', '1995',
       '1997'],
      dtype='object', length=650)",True,1000,True,10,a079f16949,0.0,1.0
./expes/v3_2021-02-03_hi_2000-prng-1-w1-p10,30_issda-2000,2000,first-2000,250,12,rng,num-start-281,281,25726,classic,1048.906911611557,False,,False,0,,,0,"Index(['6', '9', '11', '31', '52', '66', '67', '68', '71', '73',
       ...
       '1941', '1951', '1952', '1971', '1974', '1984', '1986', '1987', '1988',
       '1995'],
      dtype='object', length=250)",True,1000,True,10,8ada168a4f,0.0,0.0
./expes/v3_2021-02-03_hi_2000-prng-1-w1-p10,30_issda-2000,2000,first-2000,100,5,rng,num-start-4800,4800,25726,classic,1596.443109512329,True,,True,1.0,1.0,1.0,1,"Index(['77', '96', '99', '102', '119', '122', '123', '127', '129', '144',
       '149', '150', '168', '177', '186', '193', '200', '212', '242', '254',
       '273', '296', '309', '338', '369', '371', '385', '422', '440', '453',
       '458', '493', '500', '509', '590', '594', '614', '615', '632', '644',
       '664', '704', '741', '749', '763', '809', '813', '857', '859', '870',
       '876', '889', '920', '929', '954', '1014', '1017', '1040', '1049',
       '1076', '1089', '1098', '1108', '1122', '1129', '1141', '1148', '1156',
       '1159', '1170', '1177', '1182', '1192', '1194', '1200', '1248', '1268',
       '1285', '1292', '1309', '1334', '1394', '1397', '1432', '1459', '1494',
       '1551', '1592', '1598', '1627', '1672', '1682', '1694', '1759', '1793',
       '1864', '1892', '1941', '1942', '2000'],
      dtype='object')",False,1000,True,10,5d5d9e58ff,1.0,1.0
./expes/v3_2021-02-03_hi_2000-prng-1-w1-p10,30_issda-2000,2000,first-2000,400,20,rng,num-start-151,151,25726,classic,1025.058837890625,False,,False,0,,,0,"Index(['1', '2', '10', '20', '23', '24', '26', '30', '31', '32',
       ...
       '1961', '1963', '1965', '1972', '1974', '1975', '1976', '1989', '1993',
       '1997'],
      dtype='object', length=400)",True,1000,True,10,7c894f64bb,0.0,0.0
./expes/v3_2021-02-03_hi_2000-prng-1-w1-p10,30_issda-2000,2000,first-2000,50,2,rng,num-start-131,131,25726,classic,1021.6404445171356,False,,False,0,,,0,"Index(['57', '74', '116', '174', '188', '325', '347', '435', '516', '550',
       '632', '653', '740', '746', '762', '779', '806', '868', '883', '912',
       '953', '1029', '1043', '1077', '1115', '1191', '1241', '1243', '1308',
       '1372', '1396', '1481', '1508', '1646', '1657', '1712', '1739', '1749',
       '1762', '1768', '1784', '1811', '1827', '1846', '1860', '1909', '1917',
       '1942', '1945', '1958'],
      dtype='object')",True,1000,True,10,ef19f5f2e0,0.0,0.0
./expes/v3_2021-02-03_hi_2000-prng-1-w1-p10,30_issda-2000,2000,first-2000,300,15,rng,num-start-231,231,25726,classic,1038.5715594291687,False,,False,0,,,0,"Index(['3', '26', '28', '29', '34', '45', '47', '55', '68', '75',
       ...
       '1918', '1919', '1946', '1969', '1974', '1978', '1980', '1982', '1983',
       '1988'],
      dtype='object', length=300)",True,1000,True,10,b1d2397507,0.0,0.0
./expes/v3_2021-02-03_hi_2000-prng-1-w1-p10,30_issda-2000,2000,first-2000,1000,50,rng,num-start-221,221,25726,classic,1036.54163646698,False,,False,0,,,0,"Index(['6', '7', '8', '9', '11', '12', '15', '16', '21', '25',
       ...
       '1976', '1984', '1985', '1986', '1987', '1988', '1993', '1995', '1997',
       '1999'],
      dtype='object', length=1000)",True,1000,True,10,465f2c4832,0.0,0.0
./expes/v3_2021-02-03_hi_2000-prng-1-w1-p10,30_issda-2000,2000,first-2000,900,45,rng,num-start-2800,2800,25726,classic,1462.0673911571503,True,,False,1.0,1.0,1.0,1,"Index(['7', '10', '11', '12', '15', '16', '17', '19', '20', '22',
       ...
       '1981', '1982', '1987', '1990', '1992', '1994', '1995', '1996', '1997',
       '1998'],
      dtype='object', length=900)",True,1000,True,10,3a6237d28a,0.0,1.0
./expes/v3_2021-02-03_hi_2000-prng-1-w1-p10,30_issda-2000,2000,first-2000,1000,50,rng,num-start-41,41,25726,classic,1007.1006834506989,False,,False,0,,,0,"Index(['1', '3', '4', '9', '12', '13', '14', '16', '18', '19',
       ...
       '1981', '1982', '1983', '1985', '1986', '1987', '1993', '1994', '1998',
       '1999'],
      dtype='object', length=1000)",True,1000,True,10,ffafd4e4cb,0.0,0.0
./expes/v3_2021-02-03_hi_2000-prng-1-w1-p10,30_issda-2000,2000,first-2000,700,35,rng,num-start-11300,11300,25726,classic,2886.071785926819,True,,False,1.0,1.0,1.0,1,"Index(['1', '7', '10', '12', '14', '23', '25', '28', '29', '30',
       ...
       '1976', '1977', '1978', '1981', '1983', '1987', '1989', '1990', '1993',
       '1997'],
      dtype='object', length=700)",True,1000,True,10,1bc166dce3,0.0,1.0
./expes/v3_2021-02-03_hi_2000-prng-1-w1-p10,30_issda-2000,2000,first-2000,650,32,rng,num-start-7800,7800,25726,classic,2292.050576210022,True,,False,1.0,1.0,1.0,1,"Index(['4', '6', '7', '10', '12', '15', '20', '22', '27', '32',
       ...
       '1970', '1972', '1976', '1977', '1979', '1984', '1986', '1988', '1989',
       '1995'],
      dtype='object', length=650)",True,1000,True,10,f8ce828a56,0.0,1.0
./expes/v3_2021-02-03_hi_2000-prng-1-w1-p10,30_issda-2000,2000,first-2000,450,22,rng,num-start-5800,5800,25726,classic,1962.4879751205444,True,,False,1.0,1.0,1.0,1,"Index(['4', '7', '10', '12', '15', '20', '22', '27', '38', '41',
       ...
       '1966', '1968', '1970', '1972', '1976', '1979', '1984', '1988', '1989',
       '1995'],
      dtype='object', length=450)",True,1000,True,10,b31920accf,0.0,1.0
./expes/v3_2021-02-03_hi_2000-prng-1-w1-p10,30_issda-2000,2000,first-2000,350,17,rng,num-start-3800,3800,25726,classic,1669.3525967597961,True,,False,1.0,1.0,1.0,1,"Index(['7', '15', '20', '27', '38', '41', '53', '65', '73', '76',
       ...
       '1959', '1966', '1968', '1970', '1972', '1976', '1979', '1984', '1988',
       '1989'],
      dtype='object', length=350)",True,1000,True,10,5e05217e12,0.0,1.0
./expes/v3_2021-02-03_hi_2000-prng-1-w1-p10,30_issda-2000,2000,first-2000,600,30,rng,num-start-111,111,25726,classic,1018.3973121643066,False,,False,0,,,0,"Index(['1', '2', '10', '11', '14', '20', '23', '24', '26', '30',
       ...
       '1965', '1972', '1974', '1975', '1976', '1984', '1986', '1989', '1993',
       '1997'],
      dtype='object', length=600)",True,1000,True,10,1d7d05de99,0.0,0.0
./expes/v3_2021-02-03_hi_2000-prng-1-w1-p10,30_issda-2000,2000,first-2000,50,2,rng,num-start-201,201,25726,classic,132.12627172470093,True,,True,1.0,1.0,1.0,1,"Index(['12', '21', '42', '46', '57', '291', '316', '452', '456', '460', '465',
       '488', '520', '531', '584', '607', '608', '619', '635', '636', '687',
       '741', '839', '854', '915', '936', '952', '961', '985', '1227', '1234',
       '1235', '1242', '1284', '1293', '1301', '1347', '1366', '1367', '1441',
       '1457', '1523', '1603', '1617', '1655', '1669', '1750', '1830', '1950',
       '1959'],
      dtype='object')",False,1000,True,10,3dd80f3dcc,1.0,1.0
./expes/v3_2021-02-03_hi_2000-prng-1-w1-p10,30_issda-2000,2000,first-2000,600,30,rng,num-start-41,41,25726,classic,1006.9967284202576,False,,False,0,,,0,"Index(['1', '3', '4', '5', '7', '17', '19', '20', '26', '28',
       ...
       '1972', '1973', '1974', '1978', '1980', '1982', '1983', '1988', '1996',
       '2000'],
      dtype='object', length=600)",True,1000,True,10,df54ef324e,0.0,0.0
./expes/v3_2021-02-03_hi_2000-prng-1-w1-p10,30_issda-2000,2000,first-2000,300,15,rng,num-start-261,261,25726,classic,1045.403873205185,False,,False,0,,,0,"Index(['12', '13', '14', '18', '23', '38', '94', '120', '133', '156',
       ...
       '1910', '1919', '1934', '1938', '1946', '1950', '1962', '1981', '1993',
       '1999'],
      dtype='object', length=300)",True,1000,True,10,9fddc08633,0.0,0.0
./expes/v3_2021-02-03_hi_2000-prng-1-w1-p10,30_issda-2000,2000,first-2000,50,2,rng,num-start-121,121,25726,classic,1020.2716896533966,False,,False,0,,,0,"Index(['22', '144', '149', '219', '243', '252', '307', '330', '338', '458',
       '506', '524', '534', '540', '556', '564', '597', '621', '647', '734',
       '739', '807', '813', '922', '956', '1058', '1080', '1130', '1219',
       '1262', '1294', '1296', '1335', '1336', '1349', '1360', '1363', '1402',
       '1439', '1504', '1506', '1547', '1593', '1648', '1655', '1784', '1788',
       '1847', '1862', '1926'],
      dtype='object')",True,1000,True,10,ea240c018a,0.0,0.0
