expe,clients,clients_size,clients_subset,agg_size,agg_size_pc,method,days,days_size,days_total,noise_method,time,valid,valid_sum,success,score_avg,score_min,score_max,nsols,oracle,wall_hit,wall_time,pooled,pool_size,uuid,optimal,valid_sums
./expes/v3_2021-02-03_hi_2000-prng-1-w1-p10,30_issda-2000,2000,first-2000,450,22,rng,num-start-13800,13800,25726,classic,3549.4565908908844,True,,False,1.0,1.0,1.0,1,"Index(['2', '4', '7', '11', '19', '24', '27', '38', '41', '45',
       ...
       '1970', '1976', '1977', '1980', '1983', '1984', '1992', '1998', '1999',
       '2000'],
      dtype='object', length=450)",True,1000,True,10,4e8e71d528,0.0,1.0
./expes/v3_2021-02-03_hi_2000-prng-1-w1-p10,30_issda-2000,2000,first-2000,500,25,rng,num-start-800,800,25726,classic,1146.070457458496,False,,False,0,,,0,"Index(['1', '3', '4', '5', '7', '19', '26', '28', '29', '30',
       ...
       '1969', '1973', '1974', '1978', '1980', '1982', '1983', '1988', '1996',
       '2000'],
      dtype='object', length=500)",True,1000,True,10,a5ae8ede78,0.0,0.0
./expes/v3_2021-02-03_hi_2000-prng-1-w1-p10,30_issda-2000,2000,first-2000,900,45,rng,num-start-11300,11300,25726,classic,3056.0143060684204,True,,False,1.0,1.0,1.0,1,"Index(['1', '5', '6', '9', '11', '14', '15', '18', '26', '27',
       ...
       '1981', '1983', '1984', '1987', '1989', '1990', '1991', '1993', '1995',
       '1999'],
      dtype='object', length=900)",True,1000,True,10,f9445f5604,0.0,1.0
./expes/v3_2021-02-03_hi_2000-prng-1-w1-p10,30_issda-2000,2000,first-2000,750,37,rng,num-start-12300,12300,25726,classic,3219.8651349544525,True,,False,1.0,1.0,1.0,1,"Index(['3', '5', '7', '8', '9', '11', '12', '20', '24', '27',
       ...
       '1970', '1977', '1982', '1983', '1985', '1987', '1989', '1990', '1991',
       '1996'],
      dtype='object', length=750)",True,1000,True,10,2ec2a6678c,0.0,1.0
./expes/v3_2021-02-03_hi_2000-prng-1-w1-p10,30_issda-2000,2000,first-2000,950,47,rng,num-start-61,61,25726,classic,1011.112640619278,False,,False,0,,,0,"Index(['1', '5', '6', '9', '11', '14', '15', '18', '26', '27',
       ...
       '1981', '1983', '1984', '1987', '1989', '1990', '1991', '1993', '1995',
       '1999'],
      dtype='object', length=950)",True,1000,True,10,934e351829,0.0,0.0
./expes/v3_2021-02-03_hi_2000-prng-1-w1-p10,30_issda-2000,2000,first-2000,1000,50,rng,num-start-2800,2800,25726,classic,1524.1019079685211,True,,False,1.0,1.0,1.0,1,"Index(['1', '3', '4', '9', '12', '13', '14', '16', '18', '19',
       ...
       '1981', '1982', '1983', '1985', '1986', '1987', '1993', '1994', '1998',
       '1999'],
      dtype='object', length=1000)",True,1000,True,10,9868cb22e8,0.0,1.0
./expes/v3_2021-02-03_hi_2000-prng-1-w1-p10,30_issda-2000,2000,first-2000,200,10,rng,num-start-6800,6800,25726,classic,2183.471315383911,True,,False,1.0,1.0,1.0,1,"Index(['15', '20', '38', '41', '53', '88', '89', '92', '95', '114',
       ...
       '1915', '1930', '1932', '1935', '1956', '1966', '1968', '1970', '1976',
       '1979'],
      dtype='object', length=200)",True,1000,True,10,550cb44bb3,0.0,1.0
./expes/v3_2021-02-03_hi_2000-prng-1-w1-p10,30_issda-2000,2000,first-2000,600,30,rng,num-start-31,31,25726,classic,1005.5869905948639,False,,False,0,,,0,"Index(['1', '3', '4', '5', '7', '17', '19', '20', '26', '28',
       ...
       '1972', '1973', '1974', '1978', '1980', '1982', '1983', '1988', '1996',
       '2000'],
      dtype='object', length=600)",True,1000,True,10,f5167dc84c,0.0,0.0
./expes/v3_2021-02-03_hi_2000-prng-1-w1-p10,30_issda-2000,2000,first-2000,250,12,rng,num-start-211,211,25726,classic,1034.533187866211,False,,False,0,,,0,"Index(['15', '24', '27', '32', '42', '44', '46', '56', '59', '64',
       ...
       '1944', '1956', '1961', '1964', '1973', '1975', '1976', '1978', '1990',
       '1993'],
      dtype='object', length=250)",True,1000,True,10,a5854eb92b,0.0,0.0
./expes/v3_2021-02-03_hi_2000-prng-1-w1-p10,30_issda-2000,2000,first-2000,400,20,rng,num-start-181,181,25726,classic,1029.5936992168427,False,,False,0,,,0,"Index(['2', '8', '11', '14', '17', '18', '25', '27', '31', '36',
       ...
       '1957', '1958', '1963', '1970', '1972', '1975', '1980', '1984', '1998',
       '2000'],
      dtype='object', length=400)",True,1000,True,10,6f763de43e,0.0,0.0
