expe,clients,clients_size,clients_subset,agg_size,agg_size_pc,method,days,days_size,days_total,noise_method,time,valid,valid_sum,success,score_avg,score_min,score_max,nsols,oracle,wall_hit,wall_time,pooled,pool_size,uuid,optimal,valid_sums
./expes/v3_2021-02-03_hi_2000-prng-1-w1-p10,30_issda-2000,2000,first-2000,650,32,rng,num-start-271,271,25726,classic,1047.9755206108093,False,,False,0,,,0,"Index(['1', '2', '4', '6', '10', '16', '21', '22', '31', '32',
       ...
       '1968', '1974', '1977', '1983', '1990', '1991', '1992', '1993', '1995',
       '2000'],
      dtype='object', length=650)",True,1000,True,10,8648ccd8fe,0.0,0.0
./expes/v3_2021-02-03_hi_2000-prng-1-w1-p10,30_issda-2000,2000,first-2000,400,20,rng,num-start-13300,13300,25726,classic,3380.477189540863,True,,False,1.0,1.0,1.0,1,"Index(['1', '2', '10', '20', '23', '24', '26', '30', '31', '32',
       ...
       '1961', '1963', '1965', '1972', '1974', '1975', '1976', '1989', '1993',
       '1997'],
      dtype='object', length=400)",True,1000,True,10,f75a4211e2,0.0,1.0
