expe,clients,clients_size,clients_subset,agg_size,method,days,days_size,days_total,time,valid,valid_sum,success,nsols,wall_hit,wall_time,pooled,valid_sums
./expes/v2_2020-12-17_dh_1000-prng-1,30_issda_1000,1000,rng-1000,501,rng,num-start-14001,14001,25726,3090.190540075302,True,,True,1,False,5000,True,1.0
./expes/v2_2020-12-17_dh_1000-prng-1,30_issda_1000,1000,rng-1000,1,rng,num-start-4001,4001,25726,354.7570617198944,True,,True,1,False,5000,True,1.0
./expes/v2_2020-12-17_dh_1000-prng-1,30_issda_1000,1000,rng-1000,401,rng,num-start-14001,14001,25726,2705.18577504158,True,,True,1,False,5000,True,1.0
./expes/v2_2020-12-17_dh_1000-prng-1,30_issda_1000,1000,rng-1000,1,rng,num-start-4001,4001,25726,354.8865966796875,True,,True,1,False,5000,True,1.0
./expes/v2_2020-12-17_dh_1000-prng-1,30_issda_1000,1000,rng-1000,301,rng,num-start-9001,9001,25726,1657.1724271774292,True,,True,1,False,5000,True,1.0
./expes/v2_2020-12-17_dh_1000-prng-1,30_issda_1000,1000,rng-1000,901,rng,num-start-9001,9001,25726,1172.80526137352,True,,True,1,False,5000,True,1.0
./expes/v2_2020-12-17_dh_1000-prng-1,30_issda_1000,1000,rng-1000,201,rng,num-start-14001,14001,25726,2553.7841987609863,True,,True,1,False,5000,True,1.0
./expes/v2_2020-12-17_dh_1000-prng-1,30_issda_1000,1000,rng-1000,701,rng,num-start-6001,6001,25726,1299.8472769260406,True,,True,1,False,5000,True,1.0
./expes/v2_2020-12-17_dh_1000-prng-1,30_issda_1000,1000,rng-1000,101,rng,num-start-13001,13001,25726,1785.3892171382904,True,,True,1,False,5000,True,1.0
./expes/v2_2020-12-17_dh_1000-prng-1,30_issda_1000,1000,rng-1000,601,rng,num-start-16001,16001,25726,3105.460592985153,True,,True,1,False,5000,True,1.0
./expes/v2_2020-12-17_dh_1000-prng-1,30_issda_1000,1000,rng-1000,701,rng,num-start-11001,11001,25726,1779.8534297943115,True,,True,1,False,5000,True,1.0
./expes/v2_2020-12-17_dh_1000-prng-1,30_issda_1000,1000,rng-1000,801,rng,num-start-6001,6001,25726,937.4474375247955,True,,True,1,False,5000,True,1.0
./expes/v2_2020-12-17_dh_1000-prng-1,30_issda_1000,1000,rng-1000,401,rng,num-start-9001,9001,25726,1352.60076546669,True,,True,1,False,5000,True,1.0
./expes/v2_2020-12-17_dh_1000-prng-1,30_issda_1000,1000,rng-1000,801,rng,num-start-13001,13001,25726,1591.2842502593994,True,,True,1,False,5000,True,1.0
./expes/v2_2020-12-17_dh_1000-prng-1,30_issda_1000,1000,rng-1000,801,rng,num-start-2001,2001,25726,299.4720358848572,True,,True,1,False,5000,True,1.0
./expes/v2_2020-12-17_dh_1000-prng-1,30_issda_1000,1000,rng-1000,801,rng,num-start-15001,15001,25726,2199.539376974106,True,,True,1,False,5000,True,1.0
./expes/v2_2020-12-17_dh_1000-prng-1,30_issda_1000,1000,rng-1000,801,rng,num-start-14001,14001,25726,2682.418676137924,True,,True,1,False,5000,True,1.0
./expes/v2_2020-12-17_dh_1000-prng-1,30_issda_1000,1000,rng-1000,701,rng,num-start-2001,2001,25726,321.1762943267822,True,,True,1,False,5000,True,1.0
./expes/v2_2020-12-17_dh_1000-prng-1,30_issda_1000,1000,rng-1000,801,rng,num-start-15001,15001,25726,1989.4865942001343,True,,True,1,False,5000,True,1.0
./expes/v2_2020-12-17_dh_1000-prng-1,30_issda_1000,1000,rng-1000,701,rng,num-start-14001,14001,25726,2344.0303943157196,True,,True,1,False,5000,True,1.0
./expes/v2_2020-12-17_dh_1000-prng-1,30_issda_1000,1000,rng-1000,101,rng,num-start-1001,1001,25726,150.3400330543518,True,,True,1,False,5000,True,1.0
./expes/v2_2020-12-17_dh_1000-prng-1,30_issda_1000,1000,rng-1000,601,rng,num-start-9001,9001,25726,1559.342559337616,True,,True,1,False,5000,True,1.0
./expes/v2_2020-12-17_dh_1000-prng-1,30_issda_1000,1000,rng-1000,801,rng,num-start-15001,15001,25726,2429.474859237671,True,,True,1,False,5000,True,1.0
./expes/v2_2020-12-17_dh_1000-prng-1,30_issda_1000,1000,rng-1000,301,rng,num-start-4001,4001,25726,705.4521625041962,True,,True,1,False,5000,True,1.0
./expes/v2_2020-12-17_dh_1000-prng-1,30_issda_1000,1000,rng-1000,401,rng,num-start-10001,10001,25726,1928.904770374298,True,,True,1,False,5000,True,1.0
./expes/v2_2020-12-17_dh_1000-prng-1,30_issda_1000,1000,rng-1000,901,rng,num-start-3001,3001,25726,435.911190032959,True,,True,1,False,5000,True,1.0
./expes/v2_2020-12-17_dh_1000-prng-1,30_issda_1000,1000,rng-1000,301,rng,num-start-12001,12001,25726,2207.7718374729156,True,,True,1,False,5000,True,1.0
./expes/v2_2020-12-17_dh_1000-prng-1,30_issda_1000,1000,rng-1000,701,rng,num-start-8001,8001,25726,1479.9817955493927,True,,True,1,False,5000,True,1.0
./expes/v2_2020-12-17_dh_1000-prng-1,30_issda_1000,1000,rng-1000,1,rng,num-start-1,1,25726,0.11806225776672363,True,,True,1,False,5000,True,1.0
./expes/v2_2020-12-17_dh_1000-prng-1,30_issda_1000,1000,rng-1000,501,rng,num-start-1001,1001,25726,237.86247277259827,True,,True,1,False,5000,True,1.0
./expes/v2_2020-12-17_dh_1000-prng-1,30_issda_1000,1000,rng-1000,701,rng,num-start-14001,14001,25726,2395.285168647766,True,,True,1,False,5000,True,1.0
./expes/v2_2020-12-17_dh_1000-prng-1,30_issda_1000,1000,rng-1000,801,rng,num-start-3001,3001,25726,344.58814787864685,True,,True,1,False,5000,True,1.0
./expes/v2_2020-12-17_dh_1000-prng-1,30_issda_1000,1000,rng-1000,101,rng,num-start-9001,9001,25726,1424.6074113845825,True,,True,1,False,5000,True,1.0
./expes/v2_2020-12-17_dh_1000-prng-1,30_issda_1000,1000,rng-1000,201,rng,num-start-10001,10001,25726,1763.5555968284607,True,,True,1,False,5000,True,1.0
./expes/v2_2020-12-17_dh_1000-prng-1,30_issda_1000,1000,rng-1000,801,rng,num-start-10001,10001,25726,1683.014033794403,True,,True,1,False,5000,True,1.0
./expes/v2_2020-12-17_dh_1000-prng-1,30_issda_1000,1000,rng-1000,801,rng,num-start-9001,9001,25726,1480.5990986824036,True,,True,1,False,5000,True,1.0
./expes/v2_2020-12-17_dh_1000-prng-1,30_issda_1000,1000,rng-1000,901,rng,num-start-9001,9001,25726,1258.3848369121552,True,,True,1,False,5000,True,1.0
