expe,clients,clients_size,clients_subset,agg_size,method,days,days_size,days_total,time,valid,valid_sum,success,nsols,wall_hit,wall_time,pooled,valid_sums
./expes/v2_2020-12-17_dh_1000-prng-1-w5,30_issda_1000,1000,rng-1000,901,rng,num-start-5001,5001,25726,804.7696747779846,True,,True,1,False,5000,True,1.0
./expes/v2_2020-12-17_dh_1000-prng-1-w5,30_issda_1000,1000,rng-1000,201,rng,num-start-10001,10001,25726,2083.8529164791107,True,,True,1,False,5000,True,1.0
./expes/v2_2020-12-17_dh_1000-prng-1-w5,30_issda_1000,1000,rng-1000,601,rng,num-start-11001,11001,25726,3040.3182339668274,True,,True,1,False,5000,True,1.0
./expes/v2_2020-12-17_dh_1000-prng-1-w5,30_issda_1000,1000,rng-1000,801,rng,num-start-3001,3001,25726,798.7553172111511,True,,True,1,False,5000,True,1.0
./expes/v2_2020-12-17_dh_1000-prng-1-w5,30_issda_1000,1000,rng-1000,1,rng,num-start-4001,4001,25726,275.0872642993927,True,,True,1,False,5000,True,1.0
./expes/v2_2020-12-17_dh_1000-prng-1-w5,30_issda_1000,1000,rng-1000,801,rng,num-start-10001,10001,25726,2289.5670607089996,True,,True,1,False,5000,True,1.0
./expes/v2_2020-12-17_dh_1000-prng-1-w5,30_issda_1000,1000,rng-1000,801,rng,num-start-12001,12001,25726,2609.7198650836945,True,,True,1,False,5000,True,1.0
./expes/v2_2020-12-17_dh_1000-prng-1-w5,30_issda_1000,1000,rng-1000,201,rng,num-start-3001,3001,25726,654.5929205417633,True,,True,1,False,5000,True,1.0
./expes/v2_2020-12-17_dh_1000-prng-1-w5,30_issda_1000,1000,rng-1000,701,rng,num-start-1,1,25726,0.20053529739379883,False,,False,2,False,5000,True,1.0
./expes/v2_2020-12-17_dh_1000-prng-1-w5,30_issda_1000,1000,rng-1000,201,rng,num-start-7001,7001,25726,1590.988151550293,True,,True,1,False,5000,True,1.0
./expes/v2_2020-12-17_dh_1000-prng-1-w5,30_issda_1000,1000,rng-1000,901,rng,num-start-1,1,25726,0.19098329544067383,False,,False,2,False,5000,True,1.0
./expes/v2_2020-12-17_dh_1000-prng-1-w5,30_issda_1000,1000,rng-1000,701,rng,num-start-1001,1001,25726,207.92910313606262,True,,True,1,False,5000,True,1.0
./expes/v2_2020-12-17_dh_1000-prng-1-w5,30_issda_1000,1000,rng-1000,301,rng,num-start-13001,13001,25726,2515.296838760376,True,,True,1,False,5000,True,1.0
./expes/v2_2020-12-17_dh_1000-prng-1-w5,30_issda_1000,1000,rng-1000,201,rng,num-start-6001,6001,25726,1176.2448153495789,True,,True,1,False,5000,True,1.0
./expes/v2_2020-12-17_dh_1000-prng-1-w5,30_issda_1000,1000,rng-1000,401,rng,num-start-1001,1001,25726,302.3989040851593,True,,True,1,False,5000,True,1.0
./expes/v2_2020-12-17_dh_1000-prng-1-w5,30_issda_1000,1000,rng-1000,101,rng,num-start-11001,11001,25726,1822.7438011169434,True,,True,1,False,5000,True,1.0
./expes/v2_2020-12-17_dh_1000-prng-1-w5,30_issda_1000,1000,rng-1000,101,rng,num-start-8001,8001,25726,1114.7119677066803,True,,True,1,False,5000,True,1.0
./expes/v2_2020-12-17_dh_1000-prng-1-w5,30_issda_1000,1000,rng-1000,701,rng,num-start-14001,14001,25726,3695.448901414871,True,,True,1,False,5000,True,1.0
./expes/v2_2020-12-17_dh_1000-prng-1-w5,30_issda_1000,1000,rng-1000,901,rng,num-start-14001,14001,25726,2521.9423413276672,True,,True,1,False,5000,True,1.0
./expes/v2_2020-12-17_dh_1000-prng-1-w5,30_issda_1000,1000,rng-1000,901,rng,num-start-9001,9001,25726,1335.1248540878296,True,,True,1,False,5000,True,1.0
./expes/v2_2020-12-17_dh_1000-prng-1-w5,30_issda_1000,1000,rng-1000,701,rng,num-start-6001,6001,25726,1289.0163853168488,True,,True,1,False,5000,True,1.0
./expes/v2_2020-12-17_dh_1000-prng-1-w5,30_issda_1000,1000,rng-1000,301,rng,num-start-9001,9001,25726,2034.941125869751,True,,True,1,False,5000,True,1.0
./expes/v2_2020-12-17_dh_1000-prng-1-w5,30_issda_1000,1000,rng-1000,401,rng,num-start-1001,1001,25726,343.98412108421326,True,,True,1,False,5000,True,1.0
./expes/v2_2020-12-17_dh_1000-prng-1-w5,30_issda_1000,1000,rng-1000,401,rng,num-start-10001,10001,25726,3142.217022418976,True,,True,1,False,5000,True,1.0
./expes/v2_2020-12-17_dh_1000-prng-1-w5,30_issda_1000,1000,rng-1000,701,rng,num-start-15001,15001,25726,3344.7469651699066,True,,True,1,False,5000,True,1.0
./expes/v2_2020-12-17_dh_1000-prng-1-w5,30_issda_1000,1000,rng-1000,201,rng,num-start-4001,4001,25726,720.2914433479309,True,,True,1,False,5000,True,1.0
./expes/v2_2020-12-17_dh_1000-prng-1-w5,30_issda_1000,1000,rng-1000,801,rng,num-start-4001,4001,25726,695.1272621154785,True,,True,1,False,5000,True,1.0
./expes/v2_2020-12-17_dh_1000-prng-1-w5,30_issda_1000,1000,rng-1000,601,rng,num-start-16001,16001,25726,3944.3355712890625,True,,True,1,False,5000,True,1.0
./expes/v2_2020-12-17_dh_1000-prng-1-w5,30_issda_1000,1000,rng-1000,101,rng,num-start-14001,14001,25726,2456.4787380695343,True,,True,1,False,5000,True,1.0
./expes/v2_2020-12-17_dh_1000-prng-1-w5,30_issda_1000,1000,rng-1000,901,rng,num-start-14001,14001,25726,2305.047930240631,True,,True,1,False,5000,True,1.0
./expes/v2_2020-12-17_dh_1000-prng-1-w5,30_issda_1000,1000,rng-1000,501,rng,num-start-4001,4001,25726,1164.4217066764832,True,,True,1,False,5000,True,1.0
./expes/v2_2020-12-17_dh_1000-prng-1-w5,30_issda_1000,1000,rng-1000,701,rng,num-start-6001,6001,25726,1812.5116119384766,True,,True,1,False,5000,True,1.0
./expes/v2_2020-12-17_dh_1000-prng-1-w5,30_issda_1000,1000,rng-1000,601,rng,num-start-4001,4001,25726,902.3826062679291,True,,True,1,False,5000,True,1.0
./expes/v2_2020-12-17_dh_1000-prng-1-w5,30_issda_1000,1000,rng-1000,801,rng,num-start-1,1,25726,0.19427013397216797,False,,False,2,False,5000,True,1.0
./expes/v2_2020-12-17_dh_1000-prng-1-w5,30_issda_1000,1000,rng-1000,801,rng,num-start-12001,12001,25726,2772.7462918758392,True,,True,1,False,5000,True,1.0
./expes/v2_2020-12-17_dh_1000-prng-1-w5,30_issda_1000,1000,rng-1000,301,rng,num-start-11001,11001,25726,2340.0033419132233,True,,True,1,False,5000,True,1.0
./expes/v2_2020-12-17_dh_1000-prng-1-w5,30_issda_1000,1000,rng-1000,801,rng,num-start-6001,6001,25726,1263.1697483062744,True,,True,1,False,5000,True,1.0
./expes/v2_2020-12-17_dh_1000-prng-1-w5,30_issda_1000,1000,rng-1000,201,rng,num-start-6001,6001,25726,1186.0506114959717,True,,True,1,False,5000,True,1.0
./expes/v2_2020-12-17_dh_1000-prng-1-w5,30_issda_1000,1000,rng-1000,1,rng,num-start-1,1,25726,0.22139906883239746,True,,False,2,False,5000,True,1.0
./expes/v2_2020-12-17_dh_1000-prng-1-w5,30_issda_1000,1000,rng-1000,101,rng,num-start-12001,12001,25726,1936.8549416065216,True,,True,1,False,5000,True,1.0
./expes/v2_2020-12-17_dh_1000-prng-1-w5,30_issda_1000,1000,rng-1000,701,rng,num-start-15001,15001,25726,4219.967683792114,True,,True,1,False,5000,True,1.0
./expes/v2_2020-12-17_dh_1000-prng-1-w5,30_issda_1000,1000,rng-1000,1,rng,num-start-3001,3001,25726,202.68154406547546,True,,True,1,False,5000,True,1.0
./expes/v2_2020-12-17_dh_1000-prng-1-w5,30_issda_1000,1000,rng-1000,301,rng,num-start-12001,12001,25726,2664.409766435623,True,,True,1,False,5000,True,1.0
./expes/v2_2020-12-17_dh_1000-prng-1-w5,30_issda_1000,1000,rng-1000,601,rng,num-start-10001,10001,25726,3114.5869541168213,True,,True,1,False,5000,True,1.0
./expes/v2_2020-12-17_dh_1000-prng-1-w5,30_issda_1000,1000,rng-1000,601,rng,num-start-4001,4001,25726,933.3257241249084,True,,True,1,False,5000,True,1.0
./expes/v2_2020-12-17_dh_1000-prng-1-w5,30_issda_1000,1000,rng-1000,501,rng,num-start-4001,4001,25726,1091.5731647014618,True,,True,1,False,5000,True,1.0
./expes/v2_2020-12-17_dh_1000-prng-1-w5,30_issda_1000,1000,rng-1000,401,rng,num-start-13001,13001,25726,4013.0944640636444,True,,True,1,False,5000,True,1.0
./expes/v2_2020-12-17_dh_1000-prng-1-w5,30_issda_1000,1000,rng-1000,601,rng,num-start-2001,2001,25726,658.1166062355042,True,,True,1,False,5000,True,1.0
./expes/v2_2020-12-17_dh_1000-prng-1-w5,30_issda_1000,1000,rng-1000,201,rng,num-start-5001,5001,25726,1222.6160893440247,True,,True,1,False,5000,True,1.0
./expes/v2_2020-12-17_dh_1000-prng-1-w5,30_issda_1000,1000,rng-1000,401,rng,num-start-7001,7001,25726,2110.9768216609955,True,,True,1,False,5000,True,1.0
