expe,clients,clients_size,clients_subset,agg_size,method,days,days_size,days_total,time,valid,valid_sum,success,nsols,wall_hit,wall_time,pooled,valid_sums
./expes/v2_2020-12-17_dh_1000-prng-1-w5,30_issda_1000,1000,rng-1000,801,rng,num-start-1001,1001,25726,204.35583686828613,True,,True,1,False,5000,True,1.0
./expes/v2_2020-12-17_dh_1000-prng-1-w5,30_issda_1000,1000,rng-1000,401,rng,num-start-8001,8001,25726,2751.279146194458,True,,True,1,False,5000,True,1.0
./expes/v2_2020-12-17_dh_1000-prng-1-w5,30_issda_1000,1000,rng-1000,701,rng,num-start-2001,2001,25726,495.35071778297424,True,,True,1,False,5000,True,1.0
./expes/v2_2020-12-17_dh_1000-prng-1-w5,30_issda_1000,1000,rng-1000,401,rng,num-start-14001,14001,25726,4018.518408536911,True,,True,1,False,5000,True,1.0
./expes/v2_2020-12-17_dh_1000-prng-1-w5,30_issda_1000,1000,rng-1000,101,rng,num-start-13001,13001,25726,1972.2636342048645,True,,True,1,False,5000,True,1.0
./expes/v2_2020-12-17_dh_1000-prng-1-w5,30_issda_1000,1000,rng-1000,901,rng,num-start-4001,4001,25726,759.2226409912109,True,,True,1,False,5000,True,1.0
./expes/v2_2020-12-17_dh_1000-prng-1-w5,30_issda_1000,1000,rng-1000,1,rng,num-start-8001,8001,25726,550.6427400112152,True,,True,1,False,5000,True,1.0
./expes/v2_2020-12-17_dh_1000-prng-1-w5,30_issda_1000,1000,rng-1000,1,rng,num-start-6001,6001,25726,411.01514410972595,True,,True,1,False,5000,True,1.0
./expes/v2_2020-12-17_dh_1000-prng-1-w5,30_issda_1000,1000,rng-1000,201,rng,num-start-3001,3001,25726,630.1348760128021,True,,True,1,False,5000,True,1.0
./expes/v2_2020-12-17_dh_1000-prng-1-w5,30_issda_1000,1000,rng-1000,401,rng,num-start-7001,7001,25726,1856.4571011066437,True,,True,1,False,5000,True,1.0
./expes/v2_2020-12-17_dh_1000-prng-1-w5,30_issda_1000,1000,rng-1000,801,rng,num-start-9001,9001,25726,1872.0492913722992,True,,True,1,False,5000,True,1.0
./expes/v2_2020-12-17_dh_1000-prng-1-w5,30_issda_1000,1000,rng-1000,201,rng,num-start-1001,1001,25726,340.3752324581146,True,,True,1,False,5000,True,1.0
./expes/v2_2020-12-17_dh_1000-prng-1-w5,30_issda_1000,1000,rng-1000,1,rng,num-start-15001,15001,25726,1038.2227687835693,True,,True,1,False,5000,True,1.0
./expes/v2_2020-12-17_dh_1000-prng-1-w5,30_issda_1000,1000,rng-1000,801,rng,num-start-8001,8001,25726,1399.0807223320007,True,,True,1,False,5000,True,1.0
./expes/v2_2020-12-17_dh_1000-prng-1-w5,30_issda_1000,1000,rng-1000,901,rng,num-start-11001,11001,25726,1469.2220516204834,True,,True,1,False,5000,True,1.0
./expes/v2_2020-12-17_dh_1000-prng-1-w5,30_issda_1000,1000,rng-1000,101,rng,num-start-9001,9001,25726,1486.8083765506744,True,,True,1,False,5000,True,1.0
./expes/v2_2020-12-17_dh_1000-prng-1-w5,30_issda_1000,1000,rng-1000,501,rng,num-start-4001,4001,25726,1053.8333542346954,True,,True,1,False,5000,True,1.0
./expes/v2_2020-12-17_dh_1000-prng-1-w5,30_issda_1000,1000,rng-1000,801,rng,num-start-8001,8001,25726,1581.0927529335022,True,,True,1,False,5000,True,1.0
./expes/v2_2020-12-17_dh_1000-prng-1-w5,30_issda_1000,1000,rng-1000,701,rng,num-start-15001,15001,25726,6038.154435634613,False,,False,1,True,5000,True,0.0
./expes/v2_2020-12-17_dh_1000-prng-1-w5,30_issda_1000,1000,rng-1000,101,rng,num-start-9001,9001,25726,1441.2319135665894,True,,True,1,False,5000,True,1.0
./expes/v2_2020-12-17_dh_1000-prng-1-w5,30_issda_1000,1000,rng-1000,601,rng,num-start-4001,4001,25726,1388.6753203868866,True,,True,1,False,5000,True,1.0
./expes/v2_2020-12-17_dh_1000-prng-1-w5,30_issda_1000,1000,rng-1000,401,rng,num-start-11001,11001,25726,2834.507114171982,True,,True,1,False,5000,True,1.0
./expes/v2_2020-12-17_dh_1000-prng-1-w5,30_issda_1000,1000,rng-1000,501,rng,num-start-6001,6001,25726,1735.9283347129822,True,,True,1,False,5000,True,1.0
./expes/v2_2020-12-17_dh_1000-prng-1-w5,30_issda_1000,1000,rng-1000,401,rng,num-start-5001,5001,25726,1634.7377030849457,True,,True,1,False,5000,True,1.0
./expes/v2_2020-12-17_dh_1000-prng-1-w5,30_issda_1000,1000,rng-1000,401,rng,num-start-9001,9001,25726,3135.6090042591095,True,,True,1,False,5000,True,1.0
./expes/v2_2020-12-17_dh_1000-prng-1-w5,30_issda_1000,1000,rng-1000,101,rng,num-start-8001,8001,25726,1748.336841583252,True,,True,1,False,5000,True,1.0
./expes/v2_2020-12-17_dh_1000-prng-1-w5,30_issda_1000,1000,rng-1000,101,rng,num-start-10001,10001,25726,2866.6327929496765,True,,True,1,False,5000,True,1.0
./expes/v2_2020-12-17_dh_1000-prng-1-w5,30_issda_1000,1000,rng-1000,501,rng,num-start-1,1,25726,0.11036467552185059,False,,False,2,False,5000,True,1.0
./expes/v2_2020-12-17_dh_1000-prng-1-w5,30_issda_1000,1000,rng-1000,801,rng,num-start-15001,15001,25726,4770.1550989151,True,,True,1,False,5000,True,1.0
./expes/v2_2020-12-17_dh_1000-prng-1-w5,30_issda_1000,1000,rng-1000,801,rng,num-start-7001,7001,25726,1474.7150700092316,True,,True,1,False,5000,True,1.0
./expes/v2_2020-12-17_dh_1000-prng-1-w5,30_issda_1000,1000,rng-1000,501,rng,num-start-15001,15001,25726,4633.410206794739,True,,True,1,False,5000,True,1.0
./expes/v2_2020-12-17_dh_1000-prng-1-w5,30_issda_1000,1000,rng-1000,301,rng,num-start-11001,11001,25726,3192.085410118103,True,,True,1,False,5000,True,1.0
./expes/v2_2020-12-17_dh_1000-prng-1-w5,30_issda_1000,1000,rng-1000,801,rng,num-start-8001,8001,25726,2689.1090064048767,True,,True,1,False,5000,True,1.0
./expes/v2_2020-12-17_dh_1000-prng-1-w5,30_issda_1000,1000,rng-1000,601,rng,num-start-15001,15001,25726,3511.3385756015778,True,,True,1,False,5000,True,1.0
./expes/v2_2020-12-17_dh_1000-prng-1-w5,30_issda_1000,1000,rng-1000,101,rng,num-start-10001,10001,25726,1782.9593980312347,True,,True,1,False,5000,True,1.0
./expes/v2_2020-12-17_dh_1000-prng-1-w5,30_issda_1000,1000,rng-1000,701,rng,num-start-12001,12001,25726,3401.9647591114044,True,,True,1,False,5000,True,1.0
./expes/v2_2020-12-17_dh_1000-prng-1-w5,30_issda_1000,1000,rng-1000,901,rng,num-start-8001,8001,25726,1277.930127620697,True,,True,1,False,5000,True,1.0
./expes/v2_2020-12-17_dh_1000-prng-1-w5,30_issda_1000,1000,rng-1000,301,rng,num-start-10001,10001,25726,2091.152309656143,True,,True,1,False,5000,True,1.0
./expes/v2_2020-12-17_dh_1000-prng-1-w5,30_issda_1000,1000,rng-1000,801,rng,num-start-7001,7001,25726,1505.260601758957,True,,True,1,False,5000,True,1.0
./expes/v2_2020-12-17_dh_1000-prng-1-w5,30_issda_1000,1000,rng-1000,601,rng,num-start-9001,9001,25726,3040.9817044734955,True,,True,1,False,5000,True,1.0
./expes/v2_2020-12-17_dh_1000-prng-1-w5,30_issda_1000,1000,rng-1000,301,rng,num-start-1,1,25726,0.19356369972229004,False,,False,2,False,5000,True,1.0
./expes/v2_2020-12-17_dh_1000-prng-1-w5,30_issda_1000,1000,rng-1000,101,rng,num-start-11001,11001,25726,1386.3719379901886,True,,True,1,False,5000,True,1.0
./expes/v2_2020-12-17_dh_1000-prng-1-w5,30_issda_1000,1000,rng-1000,301,rng,num-start-11001,11001,25726,2436.894546985626,True,,True,1,False,5000,True,1.0
