expe,clients,clients_size,clients_subset,agg_size,method,days,days_size,days_total,time,valid,valid_sum,success,nsols,wall_hit,wall_time,pooled,valid_sums
./expes/v2_2020-12-17_dh_1000-prng-1-w5,30_issda_1000,1000,rng-1000,401,rng,num-start-11001,11001,25726,3080.6156022548676,True,,True,1,False,5000,True,1.0
./expes/v2_2020-12-17_dh_1000-prng-1-w5,30_issda_1000,1000,rng-1000,1,rng,num-start-2001,2001,25726,133.5124340057373,True,,True,1,False,5000,True,1.0
./expes/v2_2020-12-17_dh_1000-prng-1-w5,30_issda_1000,1000,rng-1000,601,rng,num-start-10001,10001,25726,2953.008224248886,True,,True,1,False,5000,True,1.0
./expes/v2_2020-12-17_dh_1000-prng-1-w5,30_issda_1000,1000,rng-1000,401,rng,num-start-3001,3001,25726,856.5041801929474,True,,True,1,False,5000,True,1.0
./expes/v2_2020-12-17_dh_1000-prng-1-w5,30_issda_1000,1000,rng-1000,301,rng,num-start-3001,3001,25726,775.8504762649536,True,,True,1,False,5000,True,1.0
./expes/v2_2020-12-17_dh_1000-prng-1-w5,30_issda_1000,1000,rng-1000,901,rng,num-start-14001,14001,25726,3826.8029446601868,True,,True,1,False,5000,True,1.0
./expes/v2_2020-12-17_dh_1000-prng-1-w5,30_issda_1000,1000,rng-1000,601,rng,num-start-9001,9001,25726,2232.583103656769,True,,True,1,False,5000,True,1.0
./expes/v2_2020-12-17_dh_1000-prng-1-w5,30_issda_1000,1000,rng-1000,201,rng,num-start-14001,14001,25726,3031.168734550476,True,,True,1,False,5000,True,1.0
./expes/v2_2020-12-17_dh_1000-prng-1-w5,30_issda_1000,1000,rng-1000,1,rng,num-start-11001,11001,25726,701.1797659397125,True,,True,1,False,5000,True,1.0
./expes/v2_2020-12-17_dh_1000-prng-1-w5,30_issda_1000,1000,rng-1000,301,rng,num-start-5001,5001,25726,953.5565969944,True,,True,1,False,5000,True,1.0
./expes/v2_2020-12-17_dh_1000-prng-1-w5,30_issda_1000,1000,rng-1000,201,rng,num-start-3001,3001,25726,504.361798286438,True,,True,1,False,5000,True,1.0
./expes/v2_2020-12-17_dh_1000-prng-1-w5,30_issda_1000,1000,rng-1000,901,rng,num-start-16001,16001,25726,2212.1019921302795,True,,True,1,False,5000,True,1.0
./expes/v2_2020-12-17_dh_1000-prng-1-w5,30_issda_1000,1000,rng-1000,201,rng,num-start-7001,7001,25726,1155.027573108673,True,,True,1,False,5000,True,1.0
./expes/v2_2020-12-17_dh_1000-prng-1-w5,30_issda_1000,1000,rng-1000,1,rng,num-start-12001,12001,25726,807.1006090641022,True,,True,1,False,5000,True,1.0
./expes/v2_2020-12-17_dh_1000-prng-1-w5,30_issda_1000,1000,rng-1000,601,rng,num-start-2001,2001,25726,573.8409395217896,True,,True,1,False,5000,True,1.0
./expes/v2_2020-12-17_dh_1000-prng-1-w5,30_issda_1000,1000,rng-1000,201,rng,num-start-5001,5001,25726,1194.9466359615326,True,,True,1,False,5000,True,1.0
./expes/v2_2020-12-17_dh_1000-prng-1-w5,30_issda_1000,1000,rng-1000,501,rng,num-start-12001,12001,25726,3111.867024898529,True,,True,1,False,5000,True,1.0
./expes/v2_2020-12-17_dh_1000-prng-1-w5,30_issda_1000,1000,rng-1000,701,rng,num-start-1,1,25726,0.19156837463378906,False,,False,2,False,5000,True,1.0
./expes/v2_2020-12-17_dh_1000-prng-1-w5,30_issda_1000,1000,rng-1000,801,rng,num-start-7001,7001,25726,2161.4755861759186,True,,True,1,False,5000,True,1.0
./expes/v2_2020-12-17_dh_1000-prng-1-w5,30_issda_1000,1000,rng-1000,1,rng,num-start-10001,10001,25726,689.4047815799713,True,,True,1,False,5000,True,1.0
./expes/v2_2020-12-17_dh_1000-prng-1-w5,30_issda_1000,1000,rng-1000,401,rng,num-start-12001,12001,25726,2599.2302877902985,True,,True,1,False,5000,True,1.0
./expes/v2_2020-12-17_dh_1000-prng-1-w5,30_issda_1000,1000,rng-1000,501,rng,num-start-6001,6001,25726,1445.4246201515198,True,,True,1,False,5000,True,1.0
./expes/v2_2020-12-17_dh_1000-prng-1-w5,30_issda_1000,1000,rng-1000,801,rng,num-start-5001,5001,25726,1270.4425883293152,True,,True,1,False,5000,True,1.0
./expes/v2_2020-12-17_dh_1000-prng-1-w5,30_issda_1000,1000,rng-1000,801,rng,num-start-2001,2001,25726,394.0760555267334,True,,True,1,False,5000,True,1.0
./expes/v2_2020-12-17_dh_1000-prng-1-w5,30_issda_1000,1000,rng-1000,201,rng,num-start-1001,1001,25726,255.76233553886414,True,,True,1,False,5000,True,1.0
./expes/v2_2020-12-17_dh_1000-prng-1-w5,30_issda_1000,1000,rng-1000,701,rng,num-start-11001,11001,25726,2162.447139978409,True,,True,1,False,5000,True,1.0
./expes/v2_2020-12-17_dh_1000-prng-1-w5,30_issda_1000,1000,rng-1000,101,rng,num-start-6001,6001,25726,888.3030495643616,True,,True,1,False,5000,True,1.0
./expes/v2_2020-12-17_dh_1000-prng-1-w5,30_issda_1000,1000,rng-1000,101,rng,num-start-1,1,25726,0.17448663711547852,False,,False,2,False,5000,True,1.0
./expes/v2_2020-12-17_dh_1000-prng-1-w5,30_issda_1000,1000,rng-1000,401,rng,num-start-3001,3001,25726,988.6526837348938,True,,True,1,False,5000,True,1.0
./expes/v2_2020-12-17_dh_1000-prng-1-w5,30_issda_1000,1000,rng-1000,701,rng,num-start-14001,14001,25726,3084.553158521652,True,,True,1,False,5000,True,1.0
./expes/v2_2020-12-17_dh_1000-prng-1-w5,30_issda_1000,1000,rng-1000,301,rng,num-start-5001,5001,25726,968.5944166183472,True,,True,1,False,5000,True,1.0
./expes/v2_2020-12-17_dh_1000-prng-1-w5,30_issda_1000,1000,rng-1000,301,rng,num-start-1001,1001,25726,241.04324293136597,True,,True,1,False,5000,True,1.0
./expes/v2_2020-12-17_dh_1000-prng-1-w5,30_issda_1000,1000,rng-1000,1,rng,num-start-9001,9001,25726,610.5727362632751,True,,True,1,False,5000,True,1.0
./expes/v2_2020-12-17_dh_1000-prng-1-w5,30_issda_1000,1000,rng-1000,201,rng,num-start-9001,9001,25726,1736.4645121097565,True,,True,1,False,5000,True,1.0
./expes/v2_2020-12-17_dh_1000-prng-1-w5,30_issda_1000,1000,rng-1000,101,rng,num-start-4001,4001,25726,701.8235454559326,True,,True,1,False,5000,True,1.0
./expes/v2_2020-12-17_dh_1000-prng-1-w5,30_issda_1000,1000,rng-1000,801,rng,num-start-9001,9001,25726,1865.7535927295685,True,,True,1,False,5000,True,1.0
./expes/v2_2020-12-17_dh_1000-prng-1-w5,30_issda_1000,1000,rng-1000,901,rng,num-start-7001,7001,25726,1196.5759270191193,True,,True,1,False,5000,True,1.0
./expes/v2_2020-12-17_dh_1000-prng-1-w5,30_issda_1000,1000,rng-1000,1,rng,num-start-6001,6001,25726,402.85068249702454,True,,True,1,False,5000,True,1.0
./expes/v2_2020-12-17_dh_1000-prng-1-w5,30_issda_1000,1000,rng-1000,501,rng,num-start-2001,2001,25726,574.9341886043549,True,,True,1,False,5000,True,1.0
./expes/v2_2020-12-17_dh_1000-prng-1-w5,30_issda_1000,1000,rng-1000,501,rng,num-start-14001,14001,25726,3766.282177209854,True,,True,1,False,5000,True,1.0
./expes/v2_2020-12-17_dh_1000-prng-1-w5,30_issda_1000,1000,rng-1000,901,rng,num-start-8001,8001,25726,1003.833153963089,True,,True,1,False,5000,True,1.0
./expes/v2_2020-12-17_dh_1000-prng-1-w5,30_issda_1000,1000,rng-1000,901,rng,num-start-16001,16001,25726,3621.63010764122,True,,True,1,False,5000,True,1.0
./expes/v2_2020-12-17_dh_1000-prng-1-w5,30_issda_1000,1000,rng-1000,501,rng,num-start-8001,8001,25726,2202.9352753162384,True,,True,1,False,5000,True,1.0
./expes/v2_2020-12-17_dh_1000-prng-1-w5,30_issda_1000,1000,rng-1000,701,rng,num-start-12001,12001,25726,4298.845317363739,True,,True,1,False,5000,True,1.0
./expes/v2_2020-12-17_dh_1000-prng-1-w5,30_issda_1000,1000,rng-1000,801,rng,num-start-15001,15001,25726,2863.8718979358673,True,,True,1,False,5000,True,1.0
./expes/v2_2020-12-17_dh_1000-prng-1-w5,30_issda_1000,1000,rng-1000,701,rng,num-start-9001,9001,25726,2744.3825743198395,True,,True,1,False,5000,True,1.0
./expes/v2_2020-12-17_dh_1000-prng-1-w5,30_issda_1000,1000,rng-1000,701,rng,num-start-7001,7001,25726,1745.2461290359497,True,,True,1,False,5000,True,1.0
./expes/v2_2020-12-17_dh_1000-prng-1-w5,30_issda_1000,1000,rng-1000,901,rng,num-start-2001,2001,25726,290.244606256485,True,,True,1,False,5000,True,1.0
./expes/v2_2020-12-17_dh_1000-prng-1-w5,30_issda_1000,1000,rng-1000,1,rng,num-start-13001,13001,25726,883.178126335144,True,,True,1,False,5000,True,1.0
./expes/v2_2020-12-17_dh_1000-prng-1-w5,30_issda_1000,1000,rng-1000,301,rng,num-start-11001,11001,25726,2845.2712321281433,True,,True,1,False,5000,True,1.0
./expes/v2_2020-12-17_dh_1000-prng-1-w5,30_issda_1000,1000,rng-1000,301,rng,num-start-1,1,25726,0.12111473083496094,False,,False,2,False,5000,True,1.0
./expes/v2_2020-12-17_dh_1000-prng-1-w5,30_issda_1000,1000,rng-1000,101,rng,num-start-2001,2001,25726,291.5084493160248,True,,True,1,False,5000,True,1.0
./expes/v2_2020-12-17_dh_1000-prng-1-w5,30_issda_1000,1000,rng-1000,101,rng,num-start-11001,11001,25726,1425.1288599967957,True,,True,1,False,5000,True,1.0
./expes/v2_2020-12-17_dh_1000-prng-1-w5,30_issda_1000,1000,rng-1000,601,rng,num-start-6001,6001,25726,2230.169549703598,True,,True,1,False,5000,True,1.0
