expe,clients,clients_size,clients_subset,agg_size,agg_size_pc,method,days,days_size,days_total,noise_method,time,valid,valid_sum,success,score_avg,score_min,score_max,nsols,oracle,wall_hit,wall_time,pooled,pool_size,uuid,infeasible,optimal,valid_sums
./expes/v2_2021-03-23_issda-30_2000-prng-1-w8-p2,30_issda-2000,2000,first-2000,300,15,rng,num-start-3000,3000,25726,classic,3752.127138853073,True,,True,1.0,1.0,1.0,1,"['4', '8', '14', '18', '23', '36', '39', '49', '53', '56', '58', '59', '63', '64', '67', '76', '78', '81', '82', '90', '95', '106', '107', '121', '125', '150', '153', '160', '170', '172', '179', '187', '191', '202', '211', '231', '234', '238', '242', '256', '270', '277', '284', '293', '298', '318', '319', '330', '333', '335', '344', '351', '365', '368', '373', '387', '388', '393', '408', '409', '410', '411', '419', '428', '431', '435', '439', '451', '452', '455', '458', '467', '471', '482', '492', '495', '507', '517', '523', '529', '536', '538', '545', '550', '551', '555', '561', '562', '567', '570', '573', '578', '584', '597', '635', '640', '641', '661', '676', '687', '691', '696', '700', '705', '712', '717', '724', '725', '730', '740', '744', '745', '746', '753', '755', '761', '768', '778', '781', '782', '788', '789', '790', '796', '821', '829', '851', '856', '858', '861', '867', '868', '875', '881', '884', '888', '892', '902', '909', '912', '920', '934', '941', '943', '952', '962', '967', '972', '976', '977', '978', '986', '989', '1004', '1008', '1021', '1025', '1027', '1029', '1032', '1039', '1043', '1048', '1052', '1053', '1056', '1063', '1067', '1080', '1084', '1095', '1096', '1105', '1109', '1110', '1120', '1125', '1127', '1137', '1141', '1143', '1144', '1147', '1154', '1168', '1174', '1181', '1189', '1206', '1221', '1227', '1232', '1234', '1243', '1244', '1245', '1248', '1252', '1264', '1268', '1273', '1275', '1279', '1280', '1285', '1305', '1307', '1310', '1312', '1313', '1318', '1347', '1354', '1355', '1356', '1360', '1365', '1369', '1370', '1380', '1384', '1396', '1400', '1402', '1407', '1411', '1412', '1414', '1415', '1422', '1426', '1428', '1435', '1444', '1455', '1473', '1487', '1488', '1504', '1507', '1514', '1533', '1543', '1558', '1567', '1570', '1579', '1581', '1606', '1613', '1617', '1623', '1625', '1629', '1634', '1635', '1642', '1660', '1671', '1677', '1678', '1679', '1685', '1704', '1726', '1753', '1760', '1766', '1771', '1774', '1789', '1807', '1814', '1816', '1832', '1839', '1846', '1851', '1856', '1865', '1868', '1874', '1875', '1882', '1885', '1893', '1899', '1900', '1913', '1918', '1928', '1934', '1939', '1941', '1958', '1964', '1971', '1982', '1990', '2000']",False,8000,True,2,5596e9219f,0.0,1.0,1.0
./expes/v2_2021-03-23_issda-30_2000-prng-1-w8-p2,30_issda-2000,2000,first-2000,500,25,rng,num-start-1400,1400,25726,classic,6071.142794847488,True,,True,1.0,1.0,1.0,1,"['1', '4', '9', '25', '30', '39', '44', '47', '48', '53', '56', '57', '58', '60', '77', '81', '87', '96', '99', '102', '108', '111', '117', '119', '121', '122', '123', '125', '127', '128', '129', '130', '134', '138', '141', '144', '145', '149', '150', '159', '165', '166', '168', '170', '174', '176', '177', '178', '186', '187', '192', '193', '200', '201', '208', '210', '211', '212', '213', '218', '226', '237', '240', '242', '246', '247', '250', '252', '254', '258', '261', '265', '268', '269', '273', '281', '286', '290', '296', '299', '300', '301', '305', '307', '309', '310', '311', '312', '320', '326', '331', '333', '338', '341', '343', '345', '349', '353', '361', '366', '369', '371', '374', '376', '385', '391', '392', '397', '399', '400', '403', '409', '410', '415', '419', '421', '422', '426', '428', '433', '436', '440', '447', '452', '453', '457', '458', '465', '473', '476', '478', '491', '493', '500', '508', '509', '516', '517', '531', '532', '535', '539', '543', '553', '568', '570', '571', '573', '578', '583', '589', '590', '594', '600', '611', '614', '615', '632', '635', '639', '643', '644', '648', '653', '664', '667', '668', '676', '681', '692', '697', '701', '702', '704', '705', '706', '711', '712', '716', '718', '725', '728', '729', '735', '741', '745', '746', '747', '749', '752', '757', '763', '771', '780', '791', '796', '801', '804', '808', '809', '811', '813', '815', '816', '818', '821', '823', '851', '854', '857', '859', '862', '864', '870', '876', '882', '889', '902', '903', '906', '908', '913', '916', '917', '920', '927', '929', '935', '936', '939', '946', '949', '954', '955', '963', '968', '970', '971', '972', '980', '981', '982', '984', '987', '989', '991', '994', '1000', '1002', '1010', '1012', '1014', '1017', '1018', '1027', '1028', '1030', '1036', '1040', '1041', '1046', '1049', '1056', '1058', '1059', '1061', '1062', '1072', '1073', '1076', '1079', '1082', '1087', '1089', '1090', '1091', '1093', '1095', '1098', '1099', '1108', '1110', '1113', '1115', '1122', '1123', '1124', '1126', '1127', '1129', '1138', '1140', '1141', '1143', '1146', '1148', '1151', '1156', '1159', '1160', '1161', '1170', '1174', '1177', '1182', '1184', '1188', '1192', '1194', '1195', '1200', '1202', '1207', '1210', '1218', '1221', '1231', '1234', '1240', '1242', '1247', '1248', '1249', '1250', '1252', '1253', '1255', '1256', '1257', '1258', '1265', '1268', '1279', '1285', '1292', '1300', '1303', '1304', '1309', '1317', '1318', '1326', '1331', '1334', '1338', '1342', '1344', '1347', '1349', '1353', '1357', '1361', '1369', '1370', '1385', '1394', '1396', '1397', '1398', '1399', '1414', '1415', '1418', '1419', '1424', '1426', '1428', '1432', '1437', '1447', '1458', '1459', '1468', '1479', '1481', '1485', '1486', '1488', '1494', '1498', '1513', '1516', '1517', '1523', '1535', '1536', '1537', '1551', '1553', '1554', '1557', '1565', '1566', '1574', '1581', '1582', '1590', '1591', '1592', '1596', '1598', '1603', '1607', '1615', '1617', '1619', '1627', '1633', '1635', '1637', '1638', '1641', '1646', '1651', '1652', '1654', '1656', '1662', '1670', '1672', '1676', '1678', '1682', '1684', '1692', '1693', '1694', '1698', '1703', '1709', '1710', '1721', '1722', '1732', '1739', '1747', '1759', '1760', '1769', '1770', '1784', '1785', '1786', '1788', '1790', '1791', '1792', '1793', '1795', '1796', '1799', '1809', '1810', '1811', '1817', '1821', '1829', '1831', '1839', '1843', '1844', '1852', '1854', '1861', '1863', '1864', '1869', '1873', '1878', '1880', '1890', '1892', '1901', '1912', '1913', '1920', '1927', '1929', '1930', '1932', '1935', '1938', '1940', '1941', '1942', '1944', '1947', '1948', '1950', '1952', '1956', '1957', '1959', '1962', '1971', '1989', '1990', '1994', '1996', '2000']",False,8000,True,2,032266c6bb,0.0,1.0,1.0
