expe,clients,clients_size,clients_subset,agg_size,agg_size_pc,method,days,days_size,days_total,noise_method,time,valid,valid_sum,success,score_avg,score_min,score_max,nsols,oracle,wall_hit,wall_time,pooled,pool_size,uuid,infeasible,optimal,valid_sums
./expes/v2_2021-03-23_issda-30_2000-prng-1-w8-p2,30_issda-2000,2000,first-2000,200,10,rng,num-start-3600,3600,25726,classic,2449.898664712906,True,,True,1.0,1.0,1.0,1,"['12', '13', '14', '18', '38', '162', '179', '182', '190', '208', '236', '242', '252', '259', '265', '270', '273', '294', '298', '300', '303', '312', '329', '334', '347', '358', '372', '375', '389', '402', '406', '411', '413', '414', '418', '424', '443', '452', '481', '487', '491', '512', '520', '528', '532', '542', '543', '553', '555', '558', '577', '606', '613', '618', '621', '665', '686', '688', '694', '696', '702', '709', '722', '739', '749', '790', '806', '813', '820', '828', '829', '831', '832', '834', '851', '853', '865', '868', '874', '889', '895', '920', '939', '940', '962', '967', '978', '979', '980', '983', '984', '1003', '1007', '1012', '1016', '1026', '1040', '1052', '1054', '1070', '1079', '1091', '1095', '1102', '1109', '1114', '1116', '1124', '1131', '1140', '1144', '1145', '1164', '1171', '1174', '1176', '1179', '1186', '1206', '1216', '1229', '1244', '1251', '1252', '1261', '1287', '1290', '1293', '1326', '1328', '1336', '1347', '1355', '1383', '1388', '1393', '1396', '1401', '1406', '1412', '1417', '1432', '1438', '1444', '1449', '1452', '1467', '1490', '1496', '1505', '1513', '1522', '1549', '1553', '1562', '1574', '1575', '1578', '1581', '1584', '1605', '1613', '1620', '1623', '1625', '1627', '1652', '1654', '1660', '1662', '1663', '1674', '1676', '1688', '1691', '1695', '1706', '1712', '1713', '1729', '1733', '1736', '1769', '1774', '1780', '1789', '1811', '1817', '1825', '1827', '1841', '1842', '1865', '1869', '1891', '1910', '1934', '1950', '1981', '1999']",False,8000,True,2,762e6a0778,0.0,1.0,1.0
./expes/v2_2021-03-23_issda-30_2000-prng-1-w8-p2,30_issda-2000,2000,first-2000,100,5,rng,num-start-400,400,25726,classic,1041.3202731609344,True,,True,1.0,1.0,1.0,1,"['14', '208', '236', '242', '252', '270', '298', '329', '347', '358', '372', '375', '389', '402', '406', '411', '413', '414', '424', '443', '452', '481', '487', '491', '520', '542', '543', '553', '558', '577', '606', '613', '621', '665', '686', '702', '709', '749', '831', '832', '834', '895', '920', '939', '978', '983', '984', '1003', '1012', '1016', '1026', '1040', '1052', '1070', '1079', '1102', '1131', '1164', '1174', '1176', '1179', '1206', '1216', '1229', '1287', '1293', '1326', '1355', '1383', '1388', '1401', '1406', '1417', '1444', '1452', '1467', '1490', '1505', '1549', '1562', '1581', '1613', '1625', '1627', '1652', '1660', '1662', '1691', '1712', '1774', '1789', '1817', '1827', '1842', '1869', '1891', '1934', '1950', '1981', '1999']",False,8000,True,2,a37b3d06d5,0.0,1.0,1.0
./expes/v2_2021-03-23_issda-30_2000-prng-1-w8-p2,30_issda-2000,2000,first-2000,1000,50,rng,num-start-1600,1600,25726,classic,2363.3892245292664,True,,True,1.0,1.0,1.0,1,"['1', '2', '3', '4', '6', '7', '11', '13', '19', '21', '24', '26', '27', '28', '30', '34', '35', '36', '38', '39', '41', '42', '45', '46', '47', '49', '52', '53', '55', '56', '57', '58', '60', '61', '66', '68', '69', '70', '71', '74', '75', '76', '78', '81', '82', '86', '90', '93', '96', '97', '99', '100', '101', '104', '106', '107', '108', '110', '111', '115', '117', '118', '121', '124', '125', '126', '128', '129', '130', '131', '134', '136', '137', '138', '141', '146', '148', '155', '158', '160', '161', '162', '166', '168', '172', '173', '175', '178', '179', '180', '181', '183', '187', '188', '189', '193', '195', '196', '199', '202', '203', '205', '209', '213', '219', '221', '222', '224', '226', '227', '228', '231', '232', '236', '237', '238', '242', '243', '244', '248', '250', '251', '253', '256', '257', '259', '260', '265', '266', '267', '268', '269', '270', '271', '272', '273', '274', '276', '280', '282', '284', '285', '287', '289', '290', '291', '292', '293', '294', '295', '299', '301', '304', '305', '306', '307', '309', '310', '312', '315', '317', '320', '322', '326', '327', '328', '329', '331', '332', '335', '339', '340', '341', '343', '346', '347', '348', '351', '352', '354', '360', '361', '364', '365', '366', '368', '369', '370', '371', '372', '373', '375', '378', '379', '380', '382', '386', '392', '393', '397', '399', '401', '403', '404', '407', '408', '409', '410', '412', '413', '415', '419', '420', '424', '425', '426', '427', '428', '429', '434', '436', '437', '440', '441', '442', '444', '449', '452', '457', '459', '464', '468', '472', '473', '474', '479', '481', '482', '483', '486', '487', '488', '489', '490', '492', '493', '495', '499', '502', '503', '504', '505', '509', '510', '511', '513', '514', '515', '517', '521', '524', '525', '529', '533', '538', '540', '541', '543', '548', '549', '550', '555', '558', '561', '562', '563', '565', '568', '569', '571', '573', '574', '576', '577', '579', '580', '581', '582', '585', '586', '587', '588', '592', '593', '594', '595', '597', '600', '601', '602', '604', '605', '606', '607', '608', '612', '616', '617', '618', '620', '622', '626', '627', '628', '629', '630', '634', '635', '637', '639', '640', '641', '643', '645', '647', '648', '649', '650', '651', '654', '658', '659', '662', '663', '664', '665', '667', '668', '677', '678', '680', '683', '685', '689', '693', '694', '696', '697', '698', '700', '701', '705', '706', '708', '713', '714', '715', '716', '717', '718', '720', '721', '724', '726', '727', '728', '729', '731', '732', '733', '734', '735', '740', '741', '742', '743', '744', '745', '746', '747', '750', '751', '753', '756', '757', '761', '762', '764', '766', '767', '768', '770', '771', '772', '773', '775', '777', '778', '779', '780', '782', '783', '784', '785', '787', '788', '790', '791', '792', '797', '798', '799', '800', '803', '804', '805', '806', '811', '814', '817', '818', '821', '822', '825', '827', '828', '830', '831', '832', '835', '836', '837', '839', '840', '841', '847', '848', '850', '851', '854', '858', '859', '860', '862', '864', '867', '868', '872', '875', '876', '878', '879', '880', '882', '885', '887', '888', '890', '893', '897', '904', '905', '906', '909', '912', '914', '920', '922', '928', '929', '930', '934', '936', '945', '946', '947', '948', '949', '951', '953', '954', '958', '959', '961', '962', '963', '966', '967', '968', '970', '972', '973', '975', '976', '977', '978', '980', '982', '983', '984', '985', '986', '987', '988', '989', '990', '991', '995', '997', '1000', '1003', '1004', '1006', '1007', '1008', '1009', '1011', '1013', '1017', '1019', '1020', '1023', '1025', '1027', '1030', '1036', '1038', '1042', '1049', '1050', '1051', '1052', '1056', '1057', '1058', '1059', '1060', '1062', '1063', '1070', '1075', '1081', '1083', '1085', '1086', '1087', '1089', '1090', '1091', '1093', '1094', '1100', '1102', '1103', '1105', '1106', '1109', '1110', '1111', '1114', '1115', '1117', '1118', '1121', '1123', '1124', '1125', '1127', '1130', '1131', '1133', '1134', '1136', '1137', '1138', '1139', '1142', '1146', '1148', '1151', '1152', '1155', '1156', '1158', '1159', '1165', '1170', '1171', '1174', '1175', '1176', '1178', '1179', '1182', '1185', '1187', '1189', '1190', '1193', '1197', '1200', '1201', '1202', '1204', '1208', '1209', '1210', '1214', '1216', '1217', '1219', '1221', '1222', '1226', '1230', '1231', '1236', '1237', '1240', '1241', '1246', '1247', '1250', '1251', '1252', '1253', '1254', '1257', '1259', '1260', '1264', '1265', '1266', '1269', '1271', '1272', '1274', '1275', '1276', '1277', '1278', '1279', '1280', '1281', '1282', '1284', '1285', '1290', '1292', '1293', '1295', '1305', '1308', '1312', '1316', '1320', '1321', '1323', '1326', '1327', '1328', '1329', '1330', '1331', '1332', '1334', '1336', '1338', '1339', '1340', '1342', '1343', '1344', '1345', '1352', '1353', '1355', '1356', '1357', '1359', '1360', '1363', '1364', '1365', '1368', '1369', '1370', '1373', '1374', '1375', '1376', '1377', '1380', '1382', '1385', '1388', '1389', '1392', '1394', '1395', '1396', '1397', '1398', '1399', '1404', '1405', '1408', '1409', '1410', '1411', '1412', '1415', '1417', '1419', '1423', '1424', '1425', '1427', '1428', '1429', '1435', '1437', '1439', '1441', '1443', '1444', '1445', '1446', '1448', '1450', '1451', '1453', '1460', '1461', '1464', '1465', '1467', '1468', '1470', '1471', '1472', '1474', '1475', '1476', '1477', '1478', '1480', '1481', '1485', '1487', '1488', '1489', '1491', '1494', '1495', '1496', '1498', '1499', '1500', '1501', '1509', '1512', '1513', '1514', '1516', '1517', '1518', '1520', '1521', '1523', '1526', '1527', '1533', '1536', '1537', '1538', '1539', '1541', '1543', '1544', '1547', '1548', '1549', '1553', '1555', '1556', '1558', '1561', '1565', '1566', '1567', '1569', '1572', '1574', '1576', '1577', '1582', '1585', '1587', '1589', '1590', '1595', '1596', '1598', '1599', '1600', '1601', '1602', '1609', '1610', '1614', '1620', '1622', '1627', '1628', '1629', '1631', '1632', '1633', '1634', '1636', '1640', '1641', '1642', '1643', '1645', '1648', '1650', '1654', '1655', '1657', '1663', '1664', '1665', '1666', '1668', '1671', '1673', '1675', '1677', '1679', '1681', '1682', '1683', '1684', '1689', '1693', '1694', '1697', '1700', '1703', '1704', '1706', '1707', '1711', '1712', '1713', '1714', '1715', '1717', '1718', '1721', '1722', '1723', '1724', '1725', '1727', '1729', '1731', '1738', '1739', '1741', '1742', '1745', '1746', '1749', '1751', '1753', '1755', '1759', '1761', '1768', '1769', '1775', '1776', '1777', '1778', '1779', '1780', '1782', '1785', '1787', '1793', '1795', '1796', '1800', '1803', '1804', '1806', '1808', '1814', '1817', '1819', '1821', '1822', '1823', '1826', '1827', '1829', '1830', '1831', '1833', '1836', '1837', '1838', '1841', '1843', '1844', '1846', '1848', '1850', '1861', '1862', '1865', '1866', '1867', '1868', '1870', '1872', '1874', '1877', '1878', '1881', '1886', '1887', '1888', '1889', '1892', '1893', '1894', '1899', '1903', '1904', '1906', '1910', '1915', '1916', '1917', '1918', '1920', '1921', '1923', '1924', '1925', '1926', '1927', '1928', '1930', '1931', '1932', '1935', '1936', '1937', '1945', '1946', '1947', '1948', '1949', '1950', '1951', '1953', '1955', '1956', '1957', '1959', '1960', '1961', '1963', '1966', '1967', '1968', '1969', '1970', '1973', '1976', '1977', '1980', '1982', '1983', '1984', '1985', '1986', '1990', '1992', '1993', '1994', '1997', '1998', '1999', '2000']",False,8000,True,2,fff2a2de64,0.0,1.0,1.0
