expe,clients,clients_size,clients_subset,agg_size,agg_size_pc,method,days,days_size,days_total,noise_method,time,valid,valid_sum,success,score_avg,score_min,score_max,nsols,oracle,wall_hit,wall_time,pooled,pool_size,uuid,infeasible,optimal,valid_sums
./expes/v2_2021-03-23_issda-30_2000-prng-1-w8-p2,30_issda-2000,2000,first-2000,300,15,rng,num-start-3400,3400,25726,classic,2581.4494280815125,True,,True,1.0,1.0,1.0,1,"['1', '9', '25', '47', '48', '53', '56', '77', '81', '96', '99', '102', '108', '111', '119', '121', '122', '123', '125', '127', '128', '129', '134', '138', '141', '144', '145', '149', '150', '159', '166', '168', '170', '176', '177', '186', '187', '192', '193', '200', '208', '210', '212', '213', '226', '237', '240', '242', '252', '254', '258', '265', '273', '281', '296', '299', '301', '305', '309', '310', '312', '331', '333', '338', '341', '345', '361', '369', '371', '374', '385', '391', '421', '422', '426', '428', '440', '447', '453', '458', '473', '476', '478', '493', '500', '508', '509', '517', '535', '539', '543', '553', '570', '571', '578', '583', '589', '590', '594', '611', '614', '615', '632', '635', '639', '643', '644', '653', '664', '697', '701', '702', '704', '711', '712', '718', '728', '735', '741', '745', '746', '749', '752', '757', '763', '771', '780', '791', '801', '804', '808', '809', '813', '815', '816', '818', '821', '823', '851', '857', '859', '864', '870', '876', '882', '889', '903', '913', '920', '929', '935', '936', '946', '954', '955', '971', '972', '981', '984', '987', '991', '994', '1000', '1002', '1012', '1014', '1017', '1018', '1040', '1049', '1056', '1058', '1062', '1076', '1082', '1089', '1095', '1098', '1099', '1108', '1113', '1122', '1126', '1127', '1129', '1141', '1143', '1146', '1148', '1156', '1159', '1160', '1161', '1170', '1174', '1177', '1182', '1184', '1188', '1192', '1194', '1200', '1207', '1218', '1231', '1234', '1248', '1249', '1252', '1257', '1258', '1265', '1268', '1285', '1292', '1300', '1309', '1317', '1326', '1334', '1342', '1349', '1361', '1369', '1370', '1385', '1394', '1396', '1397', '1399', '1414', '1415', '1418', '1424', '1426', '1428', '1432', '1437', '1447', '1459', '1468', '1494', '1498', '1513', '1516', '1517', '1536', '1551', '1553', '1566', '1574', '1592', '1598', '1617', '1627', '1633', '1635', '1672', '1676', '1678', '1682', '1684', '1694', '1698', '1703', '1721', '1732', '1739', '1759', '1760', '1769', '1770', '1784', '1785', '1791', '1792', '1793', '1810', '1811', '1817', '1843', '1861', '1864', '1873', '1878', '1892', '1912', '1927', '1935', '1941', '1942', '1944', '1947', '1948', '1950', '1952', '1957', '1962', '1971', '2000']",False,8000,True,2,99a3219581,0.0,1.0,1.0
./expes/v2_2021-03-23_issda-30_2000-prng-1-w8-p2,30_issda-2000,2000,first-2000,400,20,rng,num-start-4000,4000,25726,classic,3364.0282616615295,True,,True,1.0,1.0,1.0,1,"['1', '3', '4', '5', '7', '26', '28', '29', '30', '31', '34', '45', '47', '55', '65', '68', '75', '80', '81', '83', '93', '94', '96', '103', '119', '126', '128', '129', '131', '142', '144', '148', '152', '162', '165', '166', '169', '171', '184', '187', '188', '192', '195', '201', '203', '206', '207', '208', '224', '237', '238', '240', '241', '244', '246', '254', '255', '256', '267', '268', '272', '277', '286', '287', '292', '300', '301', '307', '315', '323', '325', '328', '332', '340', '347', '350', '359', '370', '374', '377', '379', '383', '386', '387', '388', '390', '391', '392', '394', '399', '407', '409', '417', '419', '432', '438', '441', '448', '449', '452', '453', '455', '457', '483', '489', '491', '492', '496', '498', '500', '514', '531', '533', '534', '556', '564', '565', '574', '576', '578', '590', '595', '597', '617', '618', '620', '622', '636', '638', '640', '648', '650', '656', '665', '667', '668', '677', '682', '683', '685', '687', '688', '702', '718', '722', '725', '732', '734', '735', '736', '759', '762', '776', '789', '795', '796', '802', '817', '823', '824', '830', '840', '849', '851', '856', '857', '859', '862', '872', '873', '890', '894', '906', '907', '912', '913', '915', '918', '923', '938', '957', '964', '966', '967', '975', '976', '977', '982', '987', '996', '997', '998', '1003', '1009', '1011', '1013', '1032', '1034', '1041', '1042', '1048', '1068', '1069', '1075', '1081', '1083', '1085', '1091', '1095', '1107', '1108', '1113', '1115', '1121', '1122', '1124', '1129', '1132', '1147', '1149', '1150', '1163', '1164', '1166', '1167', '1176', '1179', '1180', '1188', '1195', '1203', '1204', '1208', '1209', '1218', '1222', '1223', '1233', '1234', '1236', '1237', '1241', '1242', '1246', '1250', '1252', '1254', '1255', '1267', '1271', '1272', '1281', '1291', '1297', '1298', '1299', '1301', '1306', '1312', '1314', '1325', '1330', '1333', '1345', '1347', '1353', '1357', '1364', '1369', '1378', '1380', '1384', '1385', '1390', '1391', '1392', '1394', '1396', '1400', '1401', '1411', '1415', '1429', '1431', '1433', '1435', '1437', '1438', '1442', '1445', '1448', '1453', '1455', '1466', '1470', '1471', '1474', '1486', '1490', '1495', '1496', '1499', '1514', '1519', '1533', '1546', '1548', '1552', '1553', '1561', '1572', '1582', '1604', '1606', '1608', '1616', '1625', '1628', '1635', '1638', '1640', '1645', '1646', '1649', '1657', '1660', '1663', '1664', '1669', '1671', '1674', '1683', '1685', '1690', '1691', '1696', '1698', '1699', '1700', '1701', '1708', '1712', '1716', '1717', '1721', '1726', '1730', '1731', '1732', '1740', '1742', '1749', '1752', '1773', '1777', '1783', '1786', '1790', '1792', '1793', '1796', '1811', '1813', '1824', '1827', '1834', '1840', '1841', '1844', '1848', '1853', '1860', '1864', '1870', '1876', '1878', '1879', '1880', '1881', '1882', '1888', '1889', '1891', '1892', '1911', '1918', '1919', '1940', '1945', '1946', '1953', '1969', '1973', '1974', '1978', '1980', '1982', '1983', '1988', '1996']",False,8000,True,2,62054659e7,0.0,1.0,1.0
./expes/v2_2021-03-23_issda-30_2000-prng-1-w8-p2,30_issda-2000,2000,first-2000,200,10,rng,num-start-3400,3400,25726,classic,2165.623059272766,True,,True,1.0,1.0,1.0,1,"['1', '4', '22', '40', '43', '52', '57', '58', '65', '72', '88', '137', '144', '149', '171', '184', '191', '194', '195', '196', '201', '210', '219', '229', '234', '243', '249', '252', '294', '300', '307', '330', '332', '338', '345', '372', '374', '387', '395', '397', '408', '419', '426', '447', '458', '472', '484', '506', '510', '513', '516', '522', '524', '525', '526', '534', '540', '542', '547', '555', '556', '562', '564', '571', '575', '577', '579', '597', '620', '621', '634', '640', '647', '680', '691', '712', '729', '734', '739', '746', '754', '756', '783', '792', '795', '807', '808', '813', '827', '831', '844', '856', '867', '871', '896', '899', '904', '921', '922', '927', '933', '942', '956', '962', '965', '972', '984', '993', '994', '997', '1002', '1025', '1026', '1038', '1053', '1058', '1069', '1077', '1080', '1086', '1096', '1130', '1147', '1150', '1166', '1167', '1171', '1186', '1195', '1201', '1207', '1219', '1220', '1221', '1237', '1245', '1261', '1262', '1279', '1287', '1294', '1296', '1298', '1306', '1313', '1335', '1336', '1349', '1360', '1363', '1377', '1393', '1402', '1404', '1406', '1407', '1439', '1441', '1444', '1454', '1478', '1504', '1506', '1517', '1519', '1530', '1547', '1551', '1560', '1588', '1593', '1613', '1634', '1635', '1648', '1655', '1676', '1691', '1694', '1750', '1772', '1773', '1784', '1788', '1792', '1815', '1835', '1836', '1847', '1862', '1879', '1888', '1914', '1918', '1924', '1926', '1930', '1934', '1959', '1995']",False,8000,True,2,8c1bbce44e,0.0,1.0,1.0
