expe,clients,clients_size,clients_subset,agg_size,method,days,days_size,days_total,time,valid,valid_sum,success,nsols,wall_hit,wall_time,pooled,valid_sums
./expes/v2_2020-11-04_hbh_250-prng-1,30_base_hphc_250,250,first-250,191,rng,num-start-781,781,17520,22.55290198326111,True,,True,1,False,1000,True,1.0
./expes/v2_2020-11-04_hbh_250-prng-1,30_base_hphc_250,250,first-250,101,rng,num-start-281,281,17520,8.974211692810059,True,,True,1,False,1000,True,1.0
./expes/v2_2020-11-04_hbh_250-prng-1,30_base_hphc_250,250,first-250,161,rng,num-start-31,31,17520,1000.8083634376526,False,,False,0,True,1000,True,0.0
./expes/v2_2020-11-04_hbh_250-prng-1,30_base_hphc_250,250,first-250,201,rng,num-start-191,191,17520,5.645921468734741,True,,True,1,False,1000,True,1.0
./expes/v2_2020-11-04_hbh_250-prng-1,30_base_hphc_250,250,first-250,11,rng,num-start-191,191,17520,5.727469205856323,True,,True,1,False,1000,True,1.0
./expes/v2_2020-11-04_hbh_250-prng-1,30_base_hphc_250,250,first-250,11,rng,num-start-71,71,17520,1.9991874694824219,True,,True,1,False,1000,True,1.0
./expes/v2_2020-11-04_hbh_250-prng-1,30_base_hphc_250,250,first-250,151,rng,num-start-91,91,17520,10.449156045913696,True,,True,1,False,1000,True,1.0
./expes/v2_2020-11-04_hbh_250-prng-1,30_base_hphc_250,250,first-250,21,rng,num-start-701,701,17520,19.196683883666992,True,,True,1,False,1000,True,1.0
./expes/v2_2020-11-04_hbh_250-prng-1,30_base_hphc_250,250,first-250,241,rng,num-start-161,161,17520,4.409411191940308,True,,True,1,False,1000,True,1.0
./expes/v2_2020-11-04_hbh_250-prng-1,30_base_hphc_250,250,first-250,31,rng,num-start-931,931,17520,27.276524543762207,True,,True,1,False,1000,True,1.0
./expes/v2_2020-11-04_hbh_250-prng-1,30_base_hphc_250,250,first-250,121,rng,num-start-371,371,17520,10.060992002487183,True,,True,1,False,1000,True,1.0
./expes/v2_2020-11-04_hbh_250-prng-1,30_base_hphc_250,250,first-250,81,rng,num-start-811,811,17520,21.513731718063354,True,,True,1,False,1000,True,1.0
./expes/v2_2020-11-04_hbh_250-prng-1,30_base_hphc_250,250,first-250,1,rng,num-start-681,681,17520,16.494679927825928,True,,True,1,False,1000,True,1.0
./expes/v2_2020-11-04_hbh_250-prng-1,30_base_hphc_250,250,first-250,161,rng,num-start-551,551,17520,15.20261025428772,True,,True,1,False,1000,True,1.0
./expes/v2_2020-11-04_hbh_250-prng-1,30_base_hphc_250,250,first-250,151,rng,num-start-71,71,17520,1001.7762491703033,False,,False,0,True,1000,True,0.0
./expes/v2_2020-11-04_hbh_250-prng-1,30_base_hphc_250,250,first-250,41,rng,num-start-431,431,17520,12.09384298324585,True,,True,1,False,1000,True,1.0
./expes/v2_2020-11-04_hbh_250-prng-1,30_base_hphc_250,250,first-250,51,rng,num-start-881,881,17520,24.061641931533813,True,,True,1,False,1000,True,1.0
./expes/v2_2020-11-04_hbh_250-prng-1,30_base_hphc_250,250,first-250,51,rng,num-start-381,381,17520,10.333334922790527,True,,True,1,False,1000,True,1.0
./expes/v2_2020-11-04_hbh_250-prng-1,30_base_hphc_250,250,first-250,151,rng,num-start-601,601,17520,18.19711685180664,True,,True,1,False,1000,True,1.0
./expes/v2_2020-11-04_hbh_250-prng-1,30_base_hphc_250,250,first-250,111,rng,num-start-591,591,17520,16.968937397003174,True,,True,1,False,1000,True,1.0
./expes/v2_2020-11-04_hbh_250-prng-1,30_base_hphc_250,250,first-250,131,rng,num-start-121,121,17520,3.7807974815368652,True,,True,1,False,1000,True,1.0
./expes/v2_2020-11-04_hbh_250-prng-1,30_base_hphc_250,250,first-250,61,rng,num-start-671,671,17520,19.161802768707275,True,,True,1,False,1000,True,1.0
./expes/v2_2020-11-04_hbh_250-prng-1,30_base_hphc_250,250,first-250,171,rng,num-start-251,251,17520,7.181252479553223,True,,True,1,False,1000,True,1.0
./expes/v2_2020-11-04_hbh_250-prng-1,30_base_hphc_250,250,first-250,91,rng,num-start-291,291,17520,8.241987466812134,True,,True,1,False,1000,True,1.0
./expes/v2_2020-11-04_hbh_250-prng-1,30_base_hphc_250,250,first-250,241,rng,num-start-471,471,17520,12.20780086517334,True,,True,1,False,1000,True,1.0
./expes/v2_2020-11-04_hbh_250-prng-1,30_base_hphc_250,250,first-250,161,rng,num-start-691,691,17520,19.407683849334717,True,,True,1,False,1000,True,1.0
./expes/v2_2020-11-04_hbh_250-prng-1,30_base_hphc_250,250,first-250,181,rng,num-start-531,531,17520,14.424445867538452,True,,True,1,False,1000,True,1.0
./expes/v2_2020-11-04_hbh_250-prng-1,30_base_hphc_250,250,first-250,131,rng,num-start-851,851,17520,23.827834606170654,True,,True,1,False,1000,True,1.0
./expes/v2_2020-11-04_hbh_250-prng-1,30_base_hphc_250,250,first-250,131,rng,num-start-541,541,17520,15.379173994064331,True,,True,1,False,1000,True,1.0
./expes/v2_2020-11-04_hbh_250-prng-1,30_base_hphc_250,250,first-250,181,rng,num-start-901,901,17520,25.472948789596558,True,,True,1,False,1000,True,1.0
./expes/v2_2020-11-04_hbh_250-prng-1,30_base_hphc_250,250,first-250,101,rng,num-start-371,371,17520,10.860944747924805,True,,True,1,False,1000,True,1.0
./expes/v2_2020-11-04_hbh_250-prng-1,30_base_hphc_250,250,first-250,171,rng,num-start-391,391,17520,10.750338077545166,True,,True,1,False,1000,True,1.0
./expes/v2_2020-11-04_hbh_250-prng-1,30_base_hphc_250,250,first-250,221,rng,num-start-721,721,17520,19.31415557861328,True,,True,1,False,1000,True,1.0
./expes/v2_2020-11-04_hbh_250-prng-1,30_base_hphc_250,250,first-250,211,rng,num-start-21,21,17520,1000.5628821849823,False,,False,0,True,1000,True,0.0
