expe,clients,clients_size,clients_subset,agg_size,method,days,days_size,days_total,time,valid,valid_sum,success,nsols,wall_hit,wall_time,pooled,valid_sums
./expes/v2_2020-11-04_hbh_250-prng-1,30_base_hphc_250,250,first-250,41,rng,num-start-381,381,17520,13.677264213562012,True,,True,1,False,1000,True,1.0
./expes/v2_2020-11-04_hbh_250-prng-1,30_base_hphc_250,250,first-250,171,rng,num-start-111,111,17520,7.741234302520752,True,,True,1,False,1000,True,1.0
./expes/v2_2020-11-04_hbh_250-prng-1,30_base_hphc_250,250,first-250,21,rng,num-start-991,991,17520,38.940165519714355,True,,True,1,False,1000,True,1.0
./expes/v2_2020-11-04_hbh_250-prng-1,30_base_hphc_250,250,first-250,161,rng,num-start-611,611,17520,23.221933364868164,True,,True,1,False,1000,True,1.0
./expes/v2_2020-11-04_hbh_250-prng-1,30_base_hphc_250,250,first-250,11,rng,num-start-711,711,17520,24.12670373916626,True,,True,1,False,1000,True,1.0
./expes/v2_2020-11-04_hbh_250-prng-1,30_base_hphc_250,250,first-250,91,rng,num-start-871,871,17520,34.037012577056885,True,,True,1,False,1000,True,1.0
./expes/v2_2020-11-04_hbh_250-prng-1,30_base_hphc_250,250,first-250,171,rng,num-start-611,611,17520,21.690285444259644,True,,True,1,False,1000,True,1.0
./expes/v2_2020-11-04_hbh_250-prng-1,30_base_hphc_250,250,first-250,91,rng,num-start-71,71,17520,1002.3330659866333,False,,False,0,True,1000,True,0.0
./expes/v2_2020-11-04_hbh_250-prng-1,30_base_hphc_250,250,first-250,161,rng,num-start-381,381,17520,14.100879192352295,True,,True,1,False,1000,True,1.0
./expes/v2_2020-11-04_hbh_250-prng-1,30_base_hphc_250,250,first-250,241,rng,num-start-981,981,17520,30.854609966278076,True,,True,1,False,1000,True,1.0
./expes/v2_2020-11-04_hbh_250-prng-1,30_base_hphc_250,250,first-250,91,rng,num-start-191,191,17520,7.551417827606201,True,,True,1,False,1000,True,1.0
./expes/v2_2020-11-04_hbh_250-prng-1,30_base_hphc_250,250,first-250,21,rng,num-start-831,831,17520,29.92957067489624,True,,True,1,False,1000,True,1.0
./expes/v2_2020-11-04_hbh_250-prng-1,30_base_hphc_250,250,first-250,1,rng,num-start-861,861,17520,26.828897953033447,True,,True,1,False,1000,True,1.0
./expes/v2_2020-11-04_hbh_250-prng-1,30_base_hphc_250,250,first-250,31,rng,num-start-481,481,17520,16.911922454833984,True,,True,1,False,1000,True,1.0
./expes/v2_2020-11-04_hbh_250-prng-1,30_base_hphc_250,250,first-250,61,rng,num-start-811,811,17520,30.727492332458496,True,,True,1,False,1000,True,1.0
./expes/v2_2020-11-04_hbh_250-prng-1,30_base_hphc_250,250,first-250,1,rng,num-start-591,591,17520,18.4340922832489,True,,True,1,False,1000,True,1.0
./expes/v2_2020-11-04_hbh_250-prng-1,30_base_hphc_250,250,first-250,41,rng,num-start-351,351,17520,12.895532369613647,True,,True,1,False,1000,True,1.0
./expes/v2_2020-11-04_hbh_250-prng-1,30_base_hphc_250,250,first-250,51,rng,num-start-921,921,17520,34.45645618438721,True,,True,1,False,1000,True,1.0
./expes/v2_2020-11-04_hbh_250-prng-1,30_base_hphc_250,250,first-250,21,rng,num-start-731,731,17520,27.52527689933777,True,,True,1,False,1000,True,1.0
./expes/v2_2020-11-04_hbh_250-prng-1,30_base_hphc_250,250,first-250,11,rng,num-start-971,971,17520,34.42910385131836,True,,True,1,False,1000,True,1.0
./expes/v2_2020-11-04_hbh_250-prng-1,30_base_hphc_250,250,first-250,201,rng,num-start-651,651,17520,24.124751806259155,True,,True,1,False,1000,True,1.0
./expes/v2_2020-11-04_hbh_250-prng-1,30_base_hphc_250,250,first-250,131,rng,num-start-571,571,17520,22.171376705169678,True,,True,1,False,1000,True,1.0
./expes/v2_2020-11-04_hbh_250-prng-1,30_base_hphc_250,250,first-250,141,rng,num-start-841,841,17520,32.46530246734619,True,,True,1,False,1000,True,1.0
./expes/v2_2020-11-04_hbh_250-prng-1,30_base_hphc_250,250,first-250,211,rng,num-start-41,41,17520,1001.3346869945526,False,,False,0,True,1000,True,0.0
./expes/v2_2020-11-04_hbh_250-prng-1,30_base_hphc_250,250,first-250,191,rng,num-start-651,651,17520,23.0928156375885,True,,True,1,False,1000,True,1.0
./expes/v2_2020-11-04_hbh_250-prng-1,30_base_hphc_250,250,first-250,121,rng,num-start-691,691,17520,26.42091155052185,True,,True,1,False,1000,True,1.0
./expes/v2_2020-11-04_hbh_250-prng-1,30_base_hphc_250,250,first-250,61,rng,num-start-641,641,17520,23.707286834716797,True,,True,1,False,1000,True,1.0
./expes/v2_2020-11-04_hbh_250-prng-1,30_base_hphc_250,250,first-250,111,rng,num-start-631,631,17520,23.156760454177856,True,,True,1,False,1000,True,1.0
./expes/v2_2020-11-04_hbh_250-prng-1,30_base_hphc_250,250,first-250,71,rng,num-start-21,21,17520,1000.6777760982513,False,,False,0,True,1000,True,0.0
