expe,clients,clients_size,clients_subset,agg_size,method,days,days_size,days_total,time,valid,valid_sum,success,nsols,wall_hit,wall_time,pooled,valid_sums
./expes/v2_2020-11-04_hbh_250-prng-1,30_base_hphc_250,250,first-250,161,rng,num-start-361,361,17520,10.422208786010742,True,,True,1,False,1000,True,1.0
./expes/v2_2020-11-04_hbh_250-prng-1,30_base_hphc_250,250,first-250,41,rng,num-start-841,841,17520,23.689023733139038,True,,True,1,False,1000,True,1.0
./expes/v2_2020-11-04_hbh_250-prng-1,30_base_hphc_250,250,first-250,51,rng,num-start-161,161,17520,5.210625171661377,True,,True,1,False,1000,True,1.0
./expes/v2_2020-11-04_hbh_250-prng-1,30_base_hphc_250,250,first-250,211,rng,num-start-401,401,17520,11.070898056030273,True,,True,1,False,1000,True,1.0
./expes/v2_2020-11-04_hbh_250-prng-1,30_base_hphc_250,250,first-250,71,rng,num-start-191,191,17520,5.8271403312683105,True,,True,1,False,1000,True,1.0
./expes/v2_2020-11-04_hbh_250-prng-1,30_base_hphc_250,250,first-250,131,rng,num-start-151,151,17520,4.801000595092773,True,,True,1,False,1000,True,1.0
./expes/v2_2020-11-04_hbh_250-prng-1,30_base_hphc_250,250,first-250,181,rng,num-start-461,461,17520,13.583532333374023,True,,True,1,False,1000,True,1.0
./expes/v2_2020-11-04_hbh_250-prng-1,30_base_hphc_250,250,first-250,221,rng,num-start-841,841,17520,23.43690824508667,True,,True,1,False,1000,True,1.0
./expes/v2_2020-11-04_hbh_250-prng-1,30_base_hphc_250,250,first-250,41,rng,num-start-931,931,17520,27.709937810897827,True,,True,1,False,1000,True,1.0
./expes/v2_2020-11-04_hbh_250-prng-1,30_base_hphc_250,250,first-250,221,rng,num-start-701,701,17520,19.54767894744873,True,,True,1,False,1000,True,1.0
./expes/v2_2020-11-04_hbh_250-prng-1,30_base_hphc_250,250,first-250,181,rng,num-start-191,191,17520,6.0543787479400635,True,,True,1,False,1000,True,1.0
./expes/v2_2020-11-04_hbh_250-prng-1,30_base_hphc_250,250,first-250,21,rng,num-start-231,231,17520,7.0470616817474365,True,,True,1,False,1000,True,1.0
./expes/v2_2020-11-04_hbh_250-prng-1,30_base_hphc_250,250,first-250,211,rng,num-start-941,941,17520,27.003973245620728,True,,True,1,False,1000,True,1.0
./expes/v2_2020-11-04_hbh_250-prng-1,30_base_hphc_250,250,first-250,101,rng,num-start-101,101,17520,7.368006467819214,True,,True,1,False,1000,True,1.0
./expes/v2_2020-11-04_hbh_250-prng-1,30_base_hphc_250,250,first-250,81,rng,num-start-511,511,17520,15.06473422050476,True,,True,1,False,1000,True,1.0
./expes/v2_2020-11-04_hbh_250-prng-1,30_base_hphc_250,250,first-250,41,rng,num-start-241,241,17520,7.45927357673645,True,,True,1,False,1000,True,1.0
./expes/v2_2020-11-04_hbh_250-prng-1,30_base_hphc_250,250,first-250,211,rng,num-start-361,361,17520,11.719441890716553,True,,True,1,False,1000,True,1.0
./expes/v2_2020-11-04_hbh_250-prng-1,30_base_hphc_250,250,first-250,211,rng,num-start-851,851,17520,25.64635443687439,True,,True,1,False,1000,True,1.0
./expes/v2_2020-11-04_hbh_250-prng-1,30_base_hphc_250,250,first-250,21,rng,num-start-221,221,17520,6.804502010345459,True,,True,1,False,1000,True,1.0
./expes/v2_2020-11-04_hbh_250-prng-1,30_base_hphc_250,250,first-250,111,rng,num-start-351,351,17520,10.621005535125732,True,,True,1,False,1000,True,1.0
./expes/v2_2020-11-04_hbh_250-prng-1,30_base_hphc_250,250,first-250,11,rng,num-start-891,891,17520,25.898728370666504,True,,True,1,False,1000,True,1.0
./expes/v2_2020-11-04_hbh_250-prng-1,30_base_hphc_250,250,first-250,211,rng,num-start-771,771,17520,23.362163066864014,True,,True,1,False,1000,True,1.0
./expes/v2_2020-11-04_hbh_250-prng-1,30_base_hphc_250,250,first-250,241,rng,num-start-451,451,17520,12.802165985107422,True,,True,1,False,1000,True,1.0
./expes/v2_2020-11-04_hbh_250-prng-1,30_base_hphc_250,250,first-250,101,rng,num-start-301,301,17520,9.101912498474121,True,,True,1,False,1000,True,1.0
./expes/v2_2020-11-04_hbh_250-prng-1,30_base_hphc_250,250,first-250,161,rng,num-start-651,651,17520,19.479912281036377,True,,True,1,False,1000,True,1.0
./expes/v2_2020-11-04_hbh_250-prng-1,30_base_hphc_250,250,first-250,61,rng,num-start-801,801,17520,24.455337524414062,True,,True,1,False,1000,True,1.0
./expes/v2_2020-11-04_hbh_250-prng-1,30_base_hphc_250,250,first-250,181,rng,num-start-801,801,17520,23.718339920043945,True,,True,1,False,1000,True,1.0
./expes/v2_2020-11-04_hbh_250-prng-1,30_base_hphc_250,250,first-250,191,rng,num-start-231,231,17520,7.402334928512573,True,,True,1,False,1000,True,1.0
./expes/v2_2020-11-04_hbh_250-prng-1,30_base_hphc_250,250,first-250,41,rng,num-start-61,61,17520,5.272048711776733,True,,True,1,False,1000,True,1.0
./expes/v2_2020-11-04_hbh_250-prng-1,30_base_hphc_250,250,first-250,151,rng,num-start-61,61,17520,1001.645468711853,False,,False,0,True,1000,True,0.0
./expes/v2_2020-11-04_hbh_250-prng-1,30_base_hphc_250,250,first-250,81,rng,num-start-201,201,17520,6.2269957065582275,True,,True,1,False,1000,True,1.0
./expes/v2_2020-11-04_hbh_250-prng-1,30_base_hphc_250,250,first-250,151,rng,num-start-141,141,17520,4.357425928115845,True,,True,1,False,1000,True,1.0
./expes/v2_2020-11-04_hbh_250-prng-1,30_base_hphc_250,250,first-250,1,rng,num-start-781,781,17520,20.186136484146118,True,,True,1,False,1000,True,1.0
./expes/v2_2020-11-04_hbh_250-prng-1,30_base_hphc_250,250,first-250,201,rng,num-start-811,811,17520,22.949730157852173,True,,True,1,False,1000,True,1.0
./expes/v2_2020-11-04_hbh_250-prng-1,30_base_hphc_250,250,first-250,61,rng,num-start-281,281,17520,8.397302865982056,True,,True,1,False,1000,True,1.0
./expes/v2_2020-11-04_hbh_250-prng-1,30_base_hphc_250,250,first-250,241,rng,num-start-811,811,17520,22.16783595085144,True,,True,1,False,1000,True,1.0
./expes/v2_2020-11-04_hbh_250-prng-1,30_base_hphc_250,250,first-250,211,rng,num-start-911,911,17520,26.643463134765625,True,,True,1,False,1000,True,1.0
./expes/v2_2020-11-04_hbh_250-prng-1,30_base_hphc_250,250,first-250,161,rng,num-start-141,141,17520,4.459023475646973,True,,True,1,False,1000,True,1.0
./expes/v2_2020-11-04_hbh_250-prng-1,30_base_hphc_250,250,first-250,131,rng,num-start-931,931,17520,27.402166843414307,True,,True,1,False,1000,True,1.0
./expes/v2_2020-11-04_hbh_250-prng-1,30_base_hphc_250,250,first-250,191,rng,num-start-11,11,17520,1000.3084030151367,False,,False,0,True,1000,True,0.0
./expes/v2_2020-11-04_hbh_250-prng-1,30_base_hphc_250,250,first-250,21,rng,num-start-11,11,17520,1000.7498104572296,False,,False,0,True,1000,True,0.0
