expe,clients,clients_size,clients_subset,agg_size,agg_size_pc,method,days,days_size,days_total,noise_method,time,valid,valid_sum,success,score_avg,score_min,score_max,nsols,oracle,wall_hit,wall_time,pooled,pool_size,uuid,infeasible,optimal,valid_sums
./expes/v2_2021-03-19_issda-30_2000-prng-1-w5-p2,30_issda-2000,2000,first-2000,400,20,rng,num-start-1400,1400,25726,classic,2911.070914745331,True,,True,1.0,1.0,1.0,1,"['1', '2', '10', '20', '23', '24', '26', '30', '31', '32', '34', '35', '37', '41', '44', '46', '61', '62', '69', '72', '74', '80', '86', '87', '92', '96', '98', '108', '122', '123', '124', '130', '137', '138', '141', '142', '144', '148', '149', '150', '151', '152', '153', '154', '155', '160', '161', '165', '171', '172', '174', '175', '179', '180', '185', '186', '189', '193', '206', '207', '213', '221', '222', '224', '232', '237', '239', '242', '259', '261', '266', '269', '270', '276', '278', '279', '280', '284', '288', '291', '294', '300', '316', '323', '325', '348', '360', '361', '364', '375', '379', '382', '384', '386', '389', '390', '391', '401', '403', '407', '411', '415', '418', '428', '430', '432', '435', '436', '437', '438', '439', '450', '468', '471', '472', '479', '489', '495', '496', '498', '505', '511', '514', '521', '523', '524', '527', '529', '552', '553', '570', '574', '578', '592', '596', '601', '603', '607', '617', '622', '623', '636', '637', '638', '639', '646', '649', '654', '669', '670', '674', '677', '678', '682', '690', '700', '702', '719', '721', '733', '742', '754', '756', '762', '769', '777', '784', '786', '788', '791', '792', '796', '803', '808', '809', '812', '814', '821', '829', '834', '840', '843', '853', '855', '859', '860', '862', '864', '883', '903', '905', '906', '913', '915', '917', '923', '926', '927', '928', '929', '937', '938', '948', '951', '953', '954', '963', '970', '973', '975', '982', '985', '988', '989', '991', '996', '998', '1006', '1017', '1019', '1021', '1024', '1041', '1043', '1049', '1050', '1051', '1054', '1062', '1063', '1064', '1066', '1069', '1083', '1088', '1104', '1109', '1119', '1129', '1135', '1146', '1147', '1154', '1160', '1172', '1174', '1177', '1182', '1190', '1194', '1195', '1197', '1203', '1209', '1211', '1214', '1220', '1222', '1226', '1229', '1232', '1233', '1237', '1247', '1250', '1251', '1253', '1258', '1259', '1261', '1262', '1275', '1277', '1280', '1285', '1289', '1290', '1299', '1300', '1303', '1304', '1310', '1312', '1315', '1319', '1332', '1339', '1340', '1342', '1346', '1352', '1357', '1364', '1383', '1389', '1397', '1403', '1404', '1407', '1416', '1421', '1422', '1431', '1436', '1442', '1443', '1448', '1450', '1452', '1476', '1486', '1492', '1497', '1499', '1501', '1506', '1510', '1514', '1515', '1516', '1534', '1537', '1544', '1546', '1553', '1570', '1576', '1583', '1594', '1595', '1598', '1600', '1620', '1625', '1633', '1646', '1647', '1651', '1659', '1675', '1687', '1701', '1704', '1705', '1717', '1721', '1726', '1734', '1736', '1746', '1750', '1752', '1755', '1756', '1769', '1771', '1774', '1775', '1785', '1802', '1803', '1807', '1813', '1824', '1825', '1827', '1836', '1844', '1845', '1854', '1855', '1861', '1865', '1873', '1874', '1879', '1886', '1890', '1892', '1893', '1899', '1904', '1906', '1909', '1914', '1918', '1926', '1934', '1940', '1946', '1961', '1963', '1965', '1972', '1974', '1975', '1976', '1989', '1993', '1997']",False,5000,True,2,eac21b51c7,0.0,1.0,1.0
./expes/v2_2021-03-19_issda-30_2000-prng-1-w5-p2,30_issda-2000,2000,first-2000,800,40,rng,num-start-1000,1000,25726,classic,5125.480149745941,True,,False,1.0,1.0,1.0,1,"['2', '4', '6', '7', '10', '12', '15', '17', '18', '20', '22', '27', '32', '37', '38', '39', '41', '42', '48', '53', '55', '58', '62', '65', '66', '70', '71', '73', '76', '77', '79', '80', '83', '84', '85', '88', '89', '92', '95', '97', '106', '109', '110', '114', '121', '122', '124', '126', '127', '128', '131', '136', '137', '138', '139', '142', '147', '153', '154', '156', '158', '159', '160', '162', '164', '167', '168', '170', '171', '175', '176', '178', '182', '183', '185', '188', '189', '191', '192', '195', '199', '202', '207', '212', '213', '218', '220', '227', '232', '233', '234', '235', '238', '240', '243', '248', '250', '251', '262', '267', '272', '273', '280', '283', '285', '289', '291', '295', '297', '298', '305', '306', '307', '313', '314', '316', '318', '320', '321', '322', '323', '325', '326', '331', '332', '334', '335', '338', '339', '340', '341', '343', '345', '346', '348', '349', '353', '354', '355', '358', '359', '362', '363', '364', '365', '368', '370', '374', '377', '380', '385', '392', '393', '397', '400', '401', '402', '405', '407', '411', '412', '414', '416', '418', '421', '425', '426', '427', '431', '432', '433', '434', '435', '437', '440', '441', '442', '443', '448', '449', '453', '455', '456', '464', '469', '470', '472', '474', '475', '476', '478', '479', '484', '487', '489', '496', '497', '501', '503', '507', '510', '511', '512', '513', '515', '516', '519', '520', '521', '524', '525', '527', '528', '529', '530', '532', '534', '536', '537', '538', '540', '550', '552', '555', '557', '562', '566', '567', '569', '571', '573', '574', '575', '580', '582', '585', '586', '589', '591', '592', '593', '594', '595', '596', '598', '599', '600', '601', '607', '609', '611', '612', '613', '615', '616', '620', '621', '622', '623', '625', '626', '630', '632', '635', '638', '639', '640', '641', '642', '645', '646', '648', '649', '657', '658', '659', '660', '661', '662', '663', '666', '669', '670', '673', '676', '678', '679', '689', '690', '692', '694', '695', '697', '698', '703', '707', '711', '712', '718', '724', '729', '731', '732', '736', '737', '738', '742', '743', '745', '747', '748', '750', '753', '762', '763', '770', '778', '781', '782', '793', '794', '795', '796', '800', '802', '803', '804', '809', '811', '812', '815', '820', '821', '823', '825', '826', '827', '828', '832', '834', '839', '841', '843', '844', '845', '846', '847', '848', '850', '852', '855', '861', '863', '866', '867', '868', '869', '877', '881', '883', '888', '889', '893', '896', '898', '899', '900', '901', '903', '904', '906', '909', '910', '925', '926', '927', '930', '932', '934', '939', '940', '941', '948', '952', '957', '966', '968', '970', '973', '976', '977', '978', '979', '980', '981', '982', '991', '992', '997', '1002', '1004', '1005', '1008', '1012', '1013', '1015', '1017', '1021', '1022', '1023', '1030', '1037', '1038', '1040', '1042', '1043', '1044', '1046', '1047', '1048', '1050', '1055', '1063', '1064', '1066', '1067', '1072', '1074', '1077', '1078', '1079', '1080', '1082', '1084', '1085', '1087', '1091', '1095', '1100', '1101', '1103', '1107', '1110', '1113', '1115', '1117', '1118', '1119', '1121', '1122', '1126', '1128', '1132', '1134', '1144', '1147', '1149', '1150', '1152', '1158', '1164', '1166', '1167', '1168', '1171', '1173', '1174', '1176', '1180', '1186', '1192', '1193', '1194', '1197', '1203', '1205', '1206', '1211', '1218', '1220', '1223', '1225', '1227', '1230', '1231', '1233', '1237', '1239', '1241', '1243', '1246', '1248', '1249', '1250', '1256', '1260', '1261', '1265', '1266', '1269', '1270', '1271', '1272', '1275', '1277', '1281', '1283', '1284', '1285', '1286', '1288', '1292', '1294', '1295', '1296', '1300', '1301', '1305', '1311', '1313', '1314', '1316', '1318', '1322', '1323', '1325', '1326', '1328', '1335', '1336', '1338', '1340', '1341', '1342', '1346', '1349', '1353', '1354', '1356', '1367', '1369', '1370', '1376', '1380', '1383', '1384', '1385', '1386', '1387', '1393', '1395', '1398', '1400', '1405', '1409', '1415', '1420', '1421', '1425', '1427', '1429', '1431', '1436', '1438', '1441', '1443', '1444', '1447', '1448', '1451', '1453', '1456', '1457', '1461', '1462', '1466', '1470', '1472', '1474', '1478', '1483', '1498', '1499', '1502', '1506', '1510', '1512', '1513', '1526', '1527', '1528', '1529', '1530', '1533', '1537', '1539', '1545', '1546', '1548', '1553', '1554', '1557', '1566', '1568', '1571', '1573', '1577', '1580', '1582', '1585', '1586', '1588', '1591', '1594', '1597', '1601', '1603', '1604', '1606', '1607', '1611', '1612', '1613', '1616', '1617', '1619', '1620', '1626', '1631', '1634', '1635', '1636', '1638', '1640', '1641', '1642', '1644', '1645', '1648', '1653', '1654', '1657', '1659', '1665', '1669', '1671', '1675', '1676', '1677', '1681', '1687', '1690', '1691', '1692', '1694', '1695', '1698', '1700', '1702', '1703', '1704', '1708', '1709', '1710', '1714', '1716', '1719', '1720', '1722', '1725', '1729', '1730', '1731', '1736', '1737', '1738', '1747', '1751', '1753', '1754', '1757', '1758', '1759', '1761', '1765', '1766', '1767', '1770', '1771', '1773', '1777', '1781', '1782', '1784', '1790', '1791', '1792', '1795', '1796', '1798', '1800', '1801', '1803', '1804', '1805', '1807', '1809', '1814', '1816', '1817', '1821', '1822', '1823', '1824', '1825', '1827', '1828', '1830', '1832', '1835', '1837', '1838', '1842', '1843', '1845', '1846', '1848', '1850', '1852', '1853', '1854', '1859', '1861', '1862', '1865', '1866', '1867', '1868', '1870', '1871', '1873', '1875', '1876', '1878', '1880', '1885', '1887', '1889', '1890', '1893', '1894', '1896', '1900', '1901', '1902', '1905', '1906', '1909', '1911', '1914', '1915', '1916', '1918', '1919', '1920', '1921', '1925', '1927', '1930', '1932', '1934', '1935', '1942', '1945', '1946', '1948', '1951', '1953', '1955', '1956', '1957', '1959', '1965', '1966', '1967', '1968', '1970', '1972', '1976', '1977', '1979', '1984', '1986', '1988', '1989', '1991', '1994', '1995', '1997', '1998']",True,5000,True,2,75fe08475d,0.0,0.0,1.0
./expes/v2_2021-03-19_issda-30_2000-prng-1-w5-p2,30_issda-2000,2000,first-2000,700,35,rng,num-start-600,600,25726,classic,5056.32768702507,False,,False,0,,,0,"['1', '2', '10', '11', '14', '20', '23', '24', '25', '26', '30', '31', '32', '33', '34', '35', '37', '40', '41', '44', '46', '47', '48', '50', '51', '57', '59', '61', '62', '65', '69', '72', '73', '74', '75', '77', '80', '84', '85', '86', '87', '91', '92', '96', '97', '98', '108', '122', '123', '124', '130', '132', '135', '137', '138', '141', '142', '144', '145', '148', '149', '150', '151', '152', '153', '154', '155', '160', '161', '165', '170', '171', '172', '174', '175', '177', '179', '180', '181', '185', '186', '189', '191', '193', '197', '199', '203', '206', '207', '213', '215', '218', '221', '222', '223', '224', '232', '235', '237', '239', '242', '250', '252', '253', '259', '261', '266', '267', '269', '270', '272', '275', '276', '278', '279', '280', '284', '288', '289', '290', '291', '294', '300', '301', '305', '316', '319', '323', '325', '327', '328', '337', '342', '347', '348', '355', '360', '361', '364', '366', '367', '371', '375', '378', '379', '382', '384', '386', '388', '389', '390', '391', '393', '398', '399', '401', '403', '404', '405', '406', '407', '409', '411', '412', '415', '418', '419', '420', '427', '428', '430', '432', '435', '436', '437', '438', '439', '443', '447', '448', '450', '454', '459', '464', '466', '468', '471', '472', '477', '479', '487', '489', '491', '495', '496', '497', '498', '501', '505', '511', '514', '521', '523', '524', '525', '526', '527', '529', '532', '533', '537', '546', '552', '553', '558', '560', '564', '567', '570', '574', '576', '578', '582', '592', '595', '596', '601', '603', '607', '617', '622', '623', '624', '633', '635', '636', '637', '638', '639', '646', '647', '649', '650', '654', '657', '660', '669', '670', '674', '677', '678', '682', '687', '690', '696', '700', '701', '702', '703', '704', '709', '712', '714', '719', '721', '726', '728', '733', '740', '742', '754', '756', '762', '769', '770', '772', '773', '777', '781', '784', '786', '788', '791', '792', '795', '796', '800', '803', '806', '808', '809', '812', '814', '821', '825', '828', '829', '830', '834', '840', '841', '842', '843', '847', '848', '853', '855', '859', '860', '862', '864', '879', '883', '889', '891', '895', '900', '902', '903', '905', '906', '913', '915', '917', '923', '926', '927', '928', '929', '932', '937', '938', '940', '948', '950', '951', '953', '954', '963', '964', '966', '968', '970', '973', '974', '975', '976', '982', '985', '986', '988', '989', '991', '996', '998', '999', '1006', '1009', '1010', '1012', '1017', '1019', '1020', '1021', '1022', '1024', '1025', '1030', '1031', '1034', '1036', '1041', '1043', '1046', '1049', '1050', '1051', '1054', '1055', '1057', '1058', '1062', '1063', '1064', '1065', '1066', '1069', '1071', '1074', '1076', '1079', '1083', '1085', '1087', '1088', '1092', '1094', '1096', '1097', '1098', '1100', '1103', '1104', '1106', '1109', '1112', '1113', '1115', '1116', '1119', '1127', '1128', '1129', '1130', '1135', '1145', '1146', '1147', '1151', '1153', '1154', '1156', '1160', '1165', '1168', '1169', '1172', '1174', '1177', '1182', '1186', '1190', '1193', '1194', '1195', '1197', '1202', '1203', '1209', '1211', '1214', '1220', '1222', '1226', '1229', '1232', '1233', '1236', '1237', '1240', '1245', '1247', '1249', '1250', '1251', '1253', '1257', '1258', '1259', '1261', '1262', '1266', '1270', '1275', '1277', '1280', '1282', '1285', '1286', '1287', '1289', '1290', '1291', '1293', '1297', '1299', '1300', '1303', '1304', '1308', '1309', '1310', '1311', '1312', '1313', '1315', '1319', '1330', '1332', '1334', '1337', '1339', '1340', '1342', '1346', '1352', '1357', '1364', '1375', '1377', '1383', '1389', '1390', '1397', '1398', '1402', '1403', '1404', '1405', '1407', '1408', '1412', '1416', '1421', '1422', '1429', '1431', '1434', '1436', '1437', '1438', '1442', '1443', '1444', '1448', '1450', '1452', '1457', '1463', '1467', '1470', '1472', '1476', '1479', '1480', '1482', '1486', '1489', '1492', '1493', '1497', '1499', '1501', '1506', '1510', '1514', '1515', '1516', '1518', '1534', '1537', '1544', '1546', '1547', '1549', '1553', '1561', '1570', '1574', '1576', '1583', '1594', '1595', '1596', '1598', '1600', '1614', '1618', '1620', '1622', '1625', '1632', '1633', '1635', '1637', '1639', '1640', '1641', '1645', '1646', '1647', '1651', '1654', '1658', '1659', '1660', '1671', '1675', '1676', '1679', '1682', '1684', '1687', '1688', '1690', '1698', '1700', '1701', '1702', '1703', '1704', '1705', '1706', '1715', '1717', '1719', '1721', '1725', '1726', '1728', '1732', '1734', '1736', '1739', '1743', '1744', '1745', '1746', '1750', '1752', '1753', '1755', '1756', '1769', '1770', '1771', '1774', '1775', '1777', '1782', '1785', '1788', '1800', '1801', '1802', '1803', '1807', '1813', '1818', '1821', '1824', '1825', '1827', '1829', '1835', '1836', '1844', '1845', '1846', '1849', '1854', '1855', '1856', '1858', '1861', '1864', '1865', '1867', '1873', '1874', '1876', '1879', '1884', '1885', '1886', '1890', '1892', '1893', '1895', '1896', '1899', '1904', '1906', '1907', '1909', '1910', '1914', '1917', '1918', '1926', '1928', '1934', '1937', '1940', '1944', '1946', '1956', '1960', '1961', '1963', '1965', '1972', '1974', '1975', '1976', '1984', '1986', '1989', '1993', '1997']",True,5000,True,2,1079649785,0.0,0.0,0.0
./expes/v2_2021-03-19_issda-30_2000-prng-1-w5-p2,30_issda-2000,2000,first-2000,100,5,rng,num-start-1000,1000,25726,classic,1016.4021008014679,True,,True,1.0,1.0,1.0,1,"['2', '10', '31', '35', '61', '62', '74', '86', '122', '130', '137', '144', '171', '175', '186', '193', '221', '222', '291', '323', '379', '382', '389', '390', '401', '430', '438', '471', '479', '496', '521', '570', '592', '596', '603', '622', '646', '669', '792', '812', '821', '834', '903', '915', '926', '927', '928', '937', '951', '954', '975', '1024', '1041', '1049', '1051', '1064', '1083', '1104', '1129', '1147', '1154', '1203', '1211', '1220', '1229', '1258', '1261', '1277', '1290', '1300', '1312', '1332', '1340', '1342', '1357', '1403', '1421', '1450', '1514', '1553', '1570', '1594', '1600', '1625', '1647', '1659', '1704', '1721', '1726', '1734', '1736', '1752', '1755', '1774', '1802', '1824', '1893', '1909', '1963', '1976']",False,5000,True,2,cab52db0d5,0.0,1.0,1.0
./expes/v2_2021-03-19_issda-30_2000-prng-1-w5-p2,30_issda-2000,2000,first-2000,900,45,rng,num-start-2000,2000,25726,classic,1943.300555229187,True,,True,1.0,1.0,1.0,1,"['1', '5', '6', '9', '11', '14', '15', '18', '26', '27', '30', '31', '32', '34', '35', '37', '39', '41', '43', '45', '47', '48', '49', '50', '51', '52', '54', '55', '57', '66', '69', '71', '73', '75', '81', '84', '86', '87', '89', '90', '93', '96', '98', '100', '102', '110', '114', '118', '123', '127', '128', '130', '131', '132', '133', '135', '137', '140', '141', '142', '145', '147', '148', '149', '151', '153', '155', '159', '162', '164', '167', '171', '172', '175', '176', '177', '178', '180', '181', '184', '187', '188', '190', '192', '193', '194', '195', '196', '199', '202', '204', '207', '208', '210', '211', '212', '215', '216', '219', '220', '221', '223', '227', '228', '230', '232', '233', '234', '236', '238', '239', '242', '245', '246', '248', '249', '251', '253', '257', '258', '259', '262', '263', '264', '265', '267', '271', '272', '273', '274', '276', '279', '280', '282', '284', '286', '287', '288', '290', '294', '297', '300', '304', '305', '307', '309', '310', '312', '314', '316', '317', '320', '325', '326', '336', '337', '338', '340', '341', '342', '349', '351', '352', '354', '359', '361', '362', '363', '365', '366', '369', '370', '371', '372', '376', '377', '380', '382', '383', '384', '385', '387', '388', '389', '390', '392', '393', '396', '397', '399', '402', '404', '409', '410', '413', '414', '415', '416', '421', '422', '425', '428', '429', '430', '431', '432', '436', '441', '444', '450', '453', '456', '459', '461', '462', '464', '465', '466', '472', '477', '486', '489', '493', '494', '495', '496', '500', '502', '503', '509', '511', '512', '515', '517', '519', '520', '521', '523', '530', '533', '534', '535', '537', '539', '540', '542', '549', '550', '551', '555', '556', '557', '560', '562', '563', '564', '567', '568', '571', '572', '576', '579', '581', '582', '585', '586', '591', '592', '593', '594', '597', '599', '601', '602', '603', '606', '609', '612', '613', '614', '616', '617', '619', '623', '624', '627', '630', '632', '633', '634', '636', '637', '638', '641', '642', '646', '648', '650', '651', '660', '663', '665', '667', '671', '672', '674', '675', '676', '680', '682', '684', '689', '690', '696', '698', '700', '703', '707', '710', '711', '712', '716', '718', '720', '721', '723', '724', '725', '726', '731', '734', '735', '737', '742', '743', '744', '745', '746', '747', '750', '751', '752', '755', '756', '757', '758', '760', '763', '771', '772', '776', '777', '781', '785', '788', '792', '793', '794', '795', '796', '800', '801', '803', '804', '806', '812', '813', '817', '819', '821', '823', '827', '829', '830', '831', '833', '843', '844', '845', '846', '847', '848', '849', '852', '855', '856', '857', '862', '867', '872', '874', '875', '878', '879', '880', '881', '882', '888', '890', '893', '895', '896', '897', '898', '899', '901', '902', '906', '908', '910', '912', '914', '915', '917', '921', '922', '923', '925', '926', '928', '930', '931', '932', '933', '934', '937', '938', '939', '941', '943', '945', '947', '949', '950', '952', '955', '956', '957', '959', '960', '962', '963', '964', '967', '968', '969', '975', '978', '979', '980', '982', '983', '984', '986', '987', '989', '991', '994', '995', '996', '998', '999', '1001', '1002', '1003', '1004', '1006', '1008', '1011', '1012', '1015', '1018', '1019', '1021', '1022', '1025', '1026', '1028', '1029', '1030', '1034', '1036', '1043', '1048', '1049', '1050', '1051', '1054', '1056', '1057', '1058', '1065', '1066', '1067', '1069', '1072', '1073', '1075', '1077', '1078', '1080', '1083', '1084', '1085', '1087', '1089', '1090', '1094', '1095', '1098', '1099', '1100', '1102', '1105', '1106', '1110', '1111', '1115', '1117', '1118', '1120', '1121', '1124', '1125', '1126', '1129', '1134', '1135', '1136', '1137', '1141', '1143', '1145', '1151', '1152', '1153', '1156', '1165', '1166', '1167', '1169', '1175', '1178', '1179', '1181', '1184', '1186', '1188', '1190', '1193', '1194', '1195', '1198', '1199', '1204', '1206', '1208', '1210', '1211', '1213', '1215', '1216', '1217', '1218', '1219', '1221', '1222', '1223', '1224', '1226', '1227', '1229', '1232', '1243', '1246', '1248', '1249', '1251', '1254', '1256', '1259', '1261', '1265', '1267', '1268', '1269', '1270', '1271', '1272', '1274', '1280', '1282', '1283', '1286', '1287', '1290', '1292', '1293', '1299', '1301', '1302', '1303', '1305', '1308', '1310', '1311', '1313', '1320', '1323', '1325', '1329', '1330', '1331', '1333', '1337', '1339', '1344', '1345', '1347', '1349', '1351', '1352', '1355', '1356', '1360', '1364', '1367', '1368', '1370', '1371', '1372', '1374', '1376', '1378', '1380', '1381', '1385', '1387', '1388', '1389', '1394', '1396', '1397', '1398', '1401', '1405', '1406', '1408', '1409', '1410', '1411', '1420', '1423', '1426', '1427', '1428', '1429', '1432', '1435', '1438', '1442', '1445', '1452', '1454', '1461', '1463', '1465', '1467', '1468', '1470', '1473', '1474', '1475', '1485', '1486', '1490', '1491', '1497', '1498', '1503', '1507', '1509', '1510', '1512', '1513', '1514', '1519', '1523', '1524', '1525', '1526', '1528', '1532', '1534', '1540', '1541', '1543', '1545', '1546', '1548', '1550', '1553', '1556', '1557', '1559', '1560', '1561', '1565', '1568', '1570', '1572', '1577', '1584', '1586', '1587', '1588', '1591', '1594', '1595', '1601', '1602', '1604', '1605', '1607', '1608', '1609', '1611', '1612', '1614', '1617', '1618', '1622', '1623', '1624', '1625', '1626', '1629', '1630', '1632', '1639', '1642', '1645', '1646', '1647', '1648', '1653', '1655', '1661', '1662', '1663', '1667', '1670', '1673', '1675', '1679', '1684', '1686', '1688', '1689', '1690', '1692', '1696', '1698', '1702', '1704', '1705', '1708', '1710', '1712', '1715', '1720', '1722', '1724', '1729', '1730', '1731', '1732', '1733', '1735', '1737', '1738', '1740', '1741', '1742', '1744', '1745', '1747', '1748', '1752', '1753', '1754', '1755', '1762', '1763', '1766', '1767', '1768', '1770', '1774', '1777', '1779', '1786', '1790', '1795', '1799', '1800', '1801', '1804', '1809', '1811', '1812', '1814', '1815', '1816', '1820', '1822', '1824', '1831', '1832', '1833', '1834', '1836', '1837', '1838', '1839', '1843', '1849', '1850', '1851', '1853', '1854', '1856', '1859', '1860', '1862', '1863', '1865', '1874', '1876', '1883', '1884', '1885', '1887', '1892', '1893', '1896', '1898', '1901', '1903', '1905', '1907', '1908', '1911', '1913', '1914', '1915', '1916', '1917', '1918', '1919', '1921', '1924', '1925', '1929', '1932', '1933', '1936', '1937', '1938', '1941', '1942', '1945', '1946', '1947', '1949', '1952', '1954', '1956', '1957', '1959', '1960', '1963', '1964', '1970', '1973', '1974', '1977', '1978', '1979', '1980', '1981', '1983', '1984', '1987', '1989', '1990', '1991', '1993', '1995', '1999']",False,5000,True,2,6ad7daeb2e,0.0,1.0,1.0
./expes/v2_2021-03-19_issda-30_2000-prng-1-w5-p2,30_issda-2000,2000,first-2000,400,20,rng,num-start-2000,2000,25726,classic,1785.3036365509033,True,,True,1.0,1.0,1.0,1,"['4', '9', '10', '11', '18', '33', '37', '40', '41', '44', '49', '50', '51', '52', '57', '64', '65', '66', '69', '73', '74', '75', '84', '89', '94', '101', '105', '116', '117', '121', '123', '124', '139', '151', '152', '155', '157', '165', '170', '174', '180', '188', '192', '193', '197', '205', '208', '209', '216', '218', '228', '232', '236', '238', '243', '250', '252', '262', '270', '280', '287', '288', '295', '310', '311', '315', '322', '325', '329', '331', '337', '341', '347', '350', '353', '356', '362', '364', '372', '373', '377', '392', '394', '407', '426', '427', '431', '432', '435', '436', '446', '449', '455', '462', '465', '468', '473', '475', '477', '484', '494', '502', '506', '508', '511', '512', '514', '516', '519', '521', '524', '526', '531', '537', '541', '545', '550', '560', '571', '572', '583', '586', '594', '622', '627', '632', '634', '635', '639', '648', '653', '665', '666', '672', '686', '691', '699', '700', '705', '707', '719', '725', '737', '738', '740', '742', '743', '746', '750', '751', '762', '763', '764', '765', '779', '788', '790', '801', '803', '805', '806', '810', '819', '823', '833', '838', '842', '845', '850', '857', '860', '867', '868', '872', '883', '889', '911', '912', '913', '918', '919', '925', '929', '930', '932', '936', '945', '949', '952', '953', '969', '983', '996', '997', '998', '1001', '1002', '1004', '1005', '1021', '1026', '1029', '1033', '1040', '1041', '1043', '1045', '1048', '1049', '1053', '1055', '1056', '1061', '1062', '1064', '1067', '1070', '1072', '1076', '1077', '1078', '1087', '1097', '1115', '1130', '1142', '1143', '1147', '1148', '1152', '1163', '1171', '1177', '1191', '1198', '1205', '1206', '1208', '1211', '1212', '1216', '1240', '1241', '1242', '1243', '1251', '1257', '1261', '1262', '1263', '1274', '1277', '1278', '1279', '1286', '1301', '1306', '1308', '1313', '1315', '1335', '1338', '1342', '1350', '1354', '1356', '1359', '1372', '1374', '1378', '1382', '1396', '1398', '1402', '1403', '1404', '1408', '1414', '1417', '1433', '1445', '1447', '1451', '1454', '1463', '1465', '1467', '1469', '1481', '1482', '1483', '1487', '1493', '1494', '1497', '1505', '1508', '1513', '1516', '1521', '1526', '1532', '1538', '1544', '1545', '1547', '1548', '1556', '1558', '1563', '1569', '1584', '1588', '1600', '1607', '1615', '1618', '1622', '1627', '1631', '1632', '1637', '1639', '1644', '1646', '1651', '1657', '1664', '1666', '1669', '1670', '1681', '1690', '1691', '1703', '1711', '1712', '1718', '1722', '1739', '1741', '1749', '1760', '1762', '1767', '1768', '1784', '1791', '1792', '1794', '1796', '1804', '1806', '1807', '1809', '1811', '1818', '1822', '1827', '1831', '1840', '1843', '1846', '1848', '1850', '1857', '1859', '1860', '1861', '1867', '1876', '1877', '1882', '1885', '1886', '1888', '1895', '1903', '1909', '1910', '1914', '1916', '1917', '1922', '1927', '1933', '1942', '1945', '1955', '1956', '1958', '1961', '1964', '1965', '1966', '1968', '1970', '1973', '1988', '1989']",False,5000,True,2,6bd5bf68ae,0.0,1.0,1.0
./expes/v2_2021-03-19_issda-30_2000-prng-1-w5-p2,30_issda-2000,2000,first-2000,600,30,rng,num-start-200,200,25726,classic,5017.467304229736,False,,False,0,,,0,"['5', '6', '15', '18', '26', '27', '34', '35', '37', '39', '41', '45', '47', '48', '50', '51', '52', '54', '55', '66', '69', '71', '73', '75', '81', '84', '86', '87', '89', '90', '93', '96', '98', '100', '102', '114', '123', '127', '128', '130', '131', '132', '135', '137', '140', '141', '142', '145', '147', '148', '149', '151', '153', '155', '159', '167', '172', '175', '177', '181', '187', '188', '192', '193', '194', '195', '196', '202', '204', '207', '208', '210', '211', '212', '215', '219', '221', '223', '230', '233', '234', '238', '239', '245', '246', '248', '249', '253', '258', '259', '262', '263', '271', '272', '276', '279', '280', '282', '284', '286', '287', '297', '300', '304', '305', '309', '312', '314', '317', '320', '325', '326', '336', '337', '340', '341', '342', '349', '351', '354', '359', '363', '369', '370', '376', '380', '382', '383', '384', '385', '388', '389', '390', '392', '393', '397', '404', '409', '413', '414', '415', '416', '425', '428', '429', '431', '432', '441', '453', '459', '461', '462', '464', '466', '472', '477', '486', '494', '496', '500', '502', '503', '509', '511', '512', '515', '517', '519', '523', '530', '534', '535', '537', '539', '542', '549', '551', '556', '557', '562', '563', '568', '571', '572', '576', '579', '582', '585', '586', '593', '594', '597', '599', '601', '602', '606', '613', '617', '623', '624', '627', '630', '632', '633', '634', '636', '637', '638', '646', '650', '651', '663', '665', '667', '671', '674', '676', '680', '682', '684', '689', '690', '700', '710', '711', '712', '716', '718', '720', '721', '725', '731', '742', '744', '746', '752', '756', '757', '758', '763', '772', '777', '781', '785', '788', '792', '793', '795', '796', '800', '803', '804', '806', '812', '813', '819', '821', '823', '827', '830', '831', '833', '844', '847', '849', '852', '855', '862', '867', '872', '875', '878', '879', '880', '881', '893', '895', '896', '898', '899', '902', '910', '912', '915', '917', '921', '922', '923', '925', '926', '928', '930', '931', '934', '938', '939', '943', '945', '949', '952', '955', '956', '957', '959', '960', '962', '963', '975', '978', '980', '982', '983', '984', '987', '989', '995', '996', '998', '999', '1002', '1004', '1006', '1008', '1011', '1012', '1025', '1029', '1030', '1034', '1036', '1043', '1048', '1051', '1054', '1056', '1065', '1066', '1067', '1069', '1073', '1075', '1077', '1080', '1083', '1084', '1085', '1090', '1094', '1095', '1099', '1100', '1102', '1106', '1110', '1111', '1115', '1117', '1118', '1120', '1121', '1124', '1129', '1136', '1137', '1141', '1145', '1152', '1153', '1165', '1166', '1167', '1169', '1175', '1178', '1179', '1181', '1184', '1186', '1190', '1195', '1198', '1199', '1204', '1206', '1208', '1211', '1213', '1215', '1216', '1217', '1219', '1221', '1222', '1223', '1226', '1227', '1246', '1248', '1249', '1251', '1256', '1259', '1261', '1265', '1270', '1271', '1272', '1283', '1286', '1290', '1293', '1299', '1302', '1303', '1305', '1308', '1310', '1311', '1313', '1323', '1325', '1329', '1330', '1333', '1337', '1339', '1345', '1347', '1349', '1351', '1352', '1355', '1360', '1367', '1368', '1370', '1371', '1372', '1376', '1381', '1385', '1387', '1388', '1396', '1398', '1401', '1406', '1408', '1410', '1411', '1420', '1423', '1426', '1427', '1432', '1438', '1445', '1454', '1465', '1467', '1468', '1470', '1474', '1475', '1485', '1486', '1491', '1497', '1498', '1503', '1507', '1512', '1513', '1514', '1519', '1524', '1525', '1528', '1532', '1540', '1541', '1545', '1546', '1548', '1550', '1553', '1568', '1572', '1584', '1586', '1587', '1588', '1594', '1602', '1605', '1607', '1608', '1609', '1612', '1614', '1617', '1622', '1629', '1630', '1632', '1642', '1645', '1646', '1647', '1648', '1655', '1661', '1663', '1670', '1679', '1689', '1692', '1702', '1704', '1708', '1710', '1712', '1724', '1729', '1730', '1731', '1740', '1741', '1742', '1747', '1748', '1753', '1755', '1762', '1766', '1774', '1779', '1786', '1790', '1799', '1800', '1801', '1809', '1812', '1814', '1816', '1824', '1831', '1832', '1834', '1836', '1837', '1838', '1853', '1854', '1856', '1860', '1863', '1874', '1885', '1887', '1892', '1896', '1898', '1901', '1903', '1905', '1907', '1908', '1911', '1916', '1917', '1918', '1919', '1924', '1929', '1933', '1936', '1937', '1938', '1941', '1946', '1954', '1956', '1957', '1959', '1960', '1963', '1970', '1973', '1974', '1977', '1978', '1979', '1981', '1983', '1984', '1987', '1989', '1993']",True,5000,True,2,f964039087,0.0,0.0,0.0
./expes/v2_2021-03-19_issda-30_2000-prng-1-w5-p2,30_issda-2000,2000,first-2000,500,25,rng,num-start-1000,1000,25726,classic,5006.597114086151,True,,True,1.0,1.0,1.0,1,"['1', '2', '4', '10', '16', '22', '32', '36', '40', '41', '43', '49', '52', '53', '57', '58', '60', '63', '65', '72', '83', '88', '92', '95', '98', '103', '105', '106', '112', '114', '122', '127', '137', '140', '141', '143', '144', '149', '153', '154', '158', '167', '171', '184', '185', '186', '191', '194', '195', '196', '199', '201', '210', '212', '218', '219', '220', '227', '229', '230', '232', '234', '235', '236', '243', '247', '249', '252', '253', '258', '264', '267', '270', '273', '277', '281', '289', '294', '300', '301', '307', '316', '325', '330', '332', '338', '345', '350', '352', '353', '358', '360', '364', '372', '374', '377', '387', '389', '395', '397', '400', '405', '407', '408', '409', '411', '415', '419', '421', '426', '429', '434', '443', '447', '455', '456', '458', '461', '464', '468', '472', '483', '484', '496', '501', '502', '505', '506', '507', '509', '510', '513', '516', '517', '522', '523', '524', '525', '526', '530', '534', '539', '540', '542', '545', '547', '555', '556', '558', '562', '564', '571', '575', '577', '578', '579', '580', '597', '601', '606', '607', '616', '620', '621', '625', '626', '629', '634', '637', '640', '644', '647', '661', '680', '683', '684', '687', '691', '696', '697', '709', '712', '714', '718', '720', '722', '724', '729', '734', '739', '746', '748', '749', '751', '754', '755', '756', '764', '772', '777', '780', '783', '784', '787', '788', '791', '792', '795', '807', '808', '813', '815', '825', '827', '831', '833', '844', '856', '858', '866', '867', '869', '871', '874', '880', '886', '896', '898', '899', '904', '905', '907', '912', '913', '917', '921', '922', '927', '929', '933', '942', '944', '956', '960', '961', '962', '963', '965', '969', '972', '974', '975', '984', '993', '994', '996', '997', '998', '1000', '1002', '1005', '1015', '1020', '1025', '1026', '1038', '1039', '1041', '1049', '1053', '1058', '1065', '1068', '1069', '1073', '1077', '1080', '1082', '1086', '1094', '1095', '1096', '1103', '1109', '1111', '1113', '1116', '1117', '1119', '1124', '1130', '1134', '1138', '1142', '1144', '1147', '1150', '1161', '1166', '1167', '1171', '1182', '1184', '1186', '1195', '1197', '1201', '1206', '1207', '1211', '1216', '1218', '1219', '1220', '1221', '1232', '1234', '1237', '1240', '1245', '1249', '1255', '1261', '1262', '1279', '1281', '1287', '1294', '1296', '1298', '1301', '1304', '1306', '1313', '1315', '1318', '1321', '1322', '1323', '1324', '1325', '1327', '1331', '1335', '1336', '1345', '1346', '1349', '1356', '1360', '1363', '1369', '1374', '1377', '1383', '1386', '1393', '1394', '1395', '1396', '1398', '1402', '1404', '1406', '1407', '1416', '1418', '1439', '1441', '1442', '1444', '1446', '1454', '1466', '1471', '1472', '1478', '1484', '1485', '1486', '1504', '1506', '1514', '1515', '1517', '1519', '1525', '1530', '1540', '1546', '1547', '1551', '1557', '1560', '1564', '1565', '1575', '1577', '1578', '1585', '1587', '1588', '1593', '1602', '1607', '1608', '1613', '1621', '1623', '1626', '1627', '1632', '1634', '1635', '1648', '1652', '1654', '1655', '1656', '1660', '1664', '1668', '1676', '1680', '1682', '1685', '1686', '1687', '1691', '1694', '1696', '1697', '1698', '1711', '1720', '1724', '1739', '1740', '1741', '1748', '1750', '1752', '1756', '1761', '1762', '1765', '1768', '1770', '1771', '1772', '1773', '1776', '1784', '1788', '1791', '1792', '1795', '1810', '1815', '1816', '1835', '1836', '1837', '1840', '1841', '1842', '1845', '1846', '1847', '1848', '1852', '1853', '1861', '1862', '1864', '1875', '1879', '1886', '1888', '1902', '1908', '1910', '1911', '1912', '1913', '1914', '1917', '1918', '1924', '1926', '1930', '1934', '1951', '1959', '1965', '1967', '1983', '1990', '1995', '2000']",False,5000,True,2,67c4dd238d,0.0,1.0,1.0
./expes/v2_2021-03-19_issda-30_2000-prng-1-w5-p2,30_issda-2000,2000,first-2000,800,40,rng,num-start-1600,1600,25726,classic,1796.731817483902,True,,True,1.0,1.0,1.0,1,"['1', '2', '10', '11', '14', '20', '22', '23', '24', '25', '26', '28', '30', '31', '32', '33', '34', '35', '37', '40', '41', '44', '46', '47', '48', '50', '51', '57', '59', '61', '62', '65', '69', '72', '73', '74', '75', '77', '80', '84', '85', '86', '87', '91', '92', '96', '97', '98', '102', '104', '108', '122', '123', '124', '127', '130', '132', '135', '137', '138', '141', '142', '144', '145', '148', '149', '150', '151', '152', '153', '154', '155', '158', '159', '160', '161', '165', '170', '171', '172', '174', '175', '177', '179', '180', '181', '185', '186', '189', '191', '193', '195', '196', '197', '199', '202', '203', '206', '207', '213', '215', '218', '221', '222', '223', '224', '232', '235', '236', '237', '239', '242', '245', '250', '252', '253', '259', '261', '266', '267', '269', '270', '272', '273', '275', '276', '278', '279', '280', '284', '288', '289', '290', '291', '294', '300', '301', '305', '316', '319', '323', '324', '325', '327', '328', '337', '339', '342', '347', '348', '354', '355', '360', '361', '364', '366', '367', '371', '372', '373', '375', '378', '379', '382', '384', '386', '388', '389', '390', '391', '392', '393', '398', '399', '400', '401', '403', '404', '405', '406', '407', '409', '411', '412', '415', '418', '419', '420', '424', '427', '428', '430', '431', '432', '435', '436', '437', '438', '439', '443', '447', '448', '450', '454', '459', '464', '466', '468', '471', '472', '476', '477', '479', '486', '487', '489', '491', '495', '496', '497', '498', '501', '505', '511', '514', '521', '523', '524', '525', '526', '527', '529', '530', '532', '533', '537', '546', '552', '553', '558', '560', '564', '565', '567', '570', '573', '574', '576', '578', '580', '582', '592', '595', '596', '601', '603', '607', '613', '617', '618', '622', '623', '624', '633', '635', '636', '637', '638', '639', '646', '647', '649', '650', '654', '657', '660', '663', '669', '670', '674', '676', '677', '678', '682', '687', '690', '692', '696', '699', '700', '701', '702', '703', '704', '709', '712', '714', '719', '721', '726', '727', '728', '729', '733', '737', '740', '742', '754', '756', '758', '759', '762', '765', '769', '770', '772', '773', '777', '781', '784', '786', '788', '791', '792', '795', '796', '798', '800', '801', '803', '806', '808', '809', '810', '812', '814', '821', '823', '825', '828', '829', '830', '831', '832', '834', '836', '840', '841', '842', '843', '847', '848', '852', '853', '855', '859', '860', '862', '864', '874', '879', '881', '883', '885', '889', '891', '895', '900', '902', '903', '905', '906', '909', '913', '915', '917', '923', '926', '927', '928', '929', '930', '932', '937', '938', '940', '947', '948', '950', '951', '953', '954', '957', '961', '963', '964', '966', '968', '970', '973', '974', '975', '976', '982', '985', '986', '988', '989', '991', '996', '998', '999', '1006', '1009', '1010', '1012', '1017', '1019', '1020', '1021', '1022', '1024', '1025', '1030', '1031', '1033', '1034', '1036', '1041', '1043', '1046', '1049', '1050', '1051', '1054', '1055', '1056', '1057', '1058', '1062', '1063', '1064', '1065', '1066', '1067', '1069', '1071', '1074', '1076', '1079', '1083', '1085', '1087', '1088', '1092', '1094', '1096', '1097', '1098', '1100', '1103', '1104', '1106', '1107', '1109', '1112', '1113', '1115', '1116', '1119', '1127', '1128', '1129', '1130', '1135', '1145', '1146', '1147', '1151', '1153', '1154', '1156', '1160', '1164', '1165', '1167', '1168', '1169', '1172', '1174', '1177', '1178', '1182', '1186', '1188', '1190', '1193', '1194', '1195', '1197', '1198', '1202', '1203', '1209', '1211', '1214', '1220', '1222', '1226', '1228', '1229', '1231', '1232', '1233', '1236', '1237', '1239', '1240', '1245', '1247', '1249', '1250', '1251', '1253', '1257', '1258', '1259', '1261', '1262', '1266', '1270', '1275', '1277', '1278', '1280', '1282', '1285', '1286', '1287', '1289', '1290', '1291', '1293', '1297', '1299', '1300', '1303', '1304', '1308', '1309', '1310', '1311', '1312', '1313', '1315', '1316', '1319', '1328', '1330', '1332', '1334', '1337', '1339', '1340', '1342', '1346', '1352', '1357', '1364', '1365', '1375', '1377', '1379', '1383', '1389', '1390', '1395', '1397', '1398', '1402', '1403', '1404', '1405', '1407', '1408', '1412', '1416', '1421', '1422', '1423', '1429', '1431', '1434', '1436', '1437', '1438', '1442', '1443', '1444', '1448', '1450', '1452', '1457', '1463', '1467', '1470', '1472', '1476', '1479', '1480', '1482', '1486', '1489', '1492', '1493', '1497', '1499', '1501', '1506', '1510', '1514', '1515', '1516', '1518', '1522', '1525', '1534', '1537', '1544', '1546', '1547', '1549', '1553', '1560', '1561', '1562', '1567', '1568', '1570', '1572', '1574', '1576', '1583', '1594', '1595', '1596', '1598', '1600', '1614', '1618', '1620', '1622', '1623', '1625', '1632', '1633', '1635', '1637', '1639', '1640', '1641', '1642', '1645', '1646', '1647', '1649', '1651', '1654', '1658', '1659', '1660', '1669', '1671', '1675', '1676', '1679', '1682', '1684', '1687', '1688', '1690', '1698', '1700', '1701', '1702', '1703', '1704', '1705', '1706', '1715', '1717', '1719', '1721', '1725', '1726', '1728', '1730', '1732', '1734', '1736', '1739', '1743', '1744', '1745', '1746', '1750', '1752', '1753', '1755', '1756', '1763', '1769', '1770', '1771', '1774', '1775', '1777', '1782', '1785', '1788', '1794', '1800', '1801', '1802', '1803', '1807', '1813', '1818', '1819', '1821', '1824', '1825', '1827', '1829', '1830', '1835', '1836', '1837', '1844', '1845', '1846', '1849', '1854', '1855', '1856', '1858', '1861', '1862', '1864', '1865', '1867', '1873', '1874', '1876', '1879', '1884', '1885', '1886', '1888', '1890', '1892', '1893', '1895', '1896', '1899', '1904', '1906', '1907', '1909', '1910', '1913', '1914', '1917', '1918', '1925', '1926', '1928', '1934', '1935', '1937', '1940', '1944', '1946', '1949', '1956', '1960', '1961', '1963', '1965', '1969', '1972', '1974', '1975', '1976', '1981', '1984', '1986', '1989', '1993', '1997']",False,5000,True,2,8dd9ca391a,0.0,1.0,1.0
./expes/v2_2021-03-19_issda-30_2000-prng-1-w5-p2,30_issda-2000,2000,first-2000,1000,50,rng,num-start-600,600,25726,classic,5045.794830560684,False,,False,0,,,0,"['1', '3', '7', '10', '12', '14', '22', '23', '25', '26', '27', '28', '29', '30', '32', '33', '34', '35', '36', '41', '43', '44', '45', '46', '47', '48', '53', '56', '57', '58', '61', '62', '63', '66', '67', '68', '69', '70', '71', '72', '75', '76', '77', '80', '81', '82', '85', '88', '90', '91', '93', '101', '103', '105', '108', '112', '114', '115', '118', '119', '122', '123', '125', '129', '130', '132', '133', '134', '136', '140', '141', '144', '145', '147', '148', '152', '153', '154', '164', '165', '167', '168', '169', '170', '171', '172', '173', '175', '176', '177', '178', '179', '181', '182', '183', '184', '186', '190', '192', '194', '195', '196', '197', '199', '200', '201', '205', '206', '208', '209', '210', '212', '216', '217', '218', '219', '220', '221', '222', '223', '224', '227', '228', '229', '230', '231', '233', '234', '237', '239', '240', '241', '242', '243', '245', '248', '250', '254', '255', '259', '261', '262', '263', '267', '269', '272', '277', '278', '279', '280', '281', '282', '285', '286', '287', '288', '289', '292', '294', '299', '300', '301', '302', '303', '304', '305', '307', '308', '315', '316', '317', '320', '322', '325', '327', '328', '330', '331', '332', '335', '336', '338', '340', '341', '347', '348', '349', '350', '351', '353', '355', '356', '357', '359', '362', '364', '365', '372', '373', '375', '378', '379', '384', '387', '388', '389', '392', '393', '394', '396', '398', '401', '402', '405', '407', '408', '411', '412', '414', '415', '417', '421', '425', '426', '427', '429', '431', '433', '434', '438', '446', '447', '450', '451', '453', '454', '456', '459', '462', '464', '465', '470', '473', '475', '477', '480', '481', '483', '485', '487', '490', '492', '495', '497', '500', '501', '504', '505', '506', '507', '508', '509', '512', '519', '520', '522', '523', '529', '530', '534', '535', '539', '542', '545', '546', '547', '549', '551', '555', '560', '562', '563', '564', '566', '567', '568', '576', '579', '583', '584', '586', '589', '590', '591', '592', '593', '594', '595', '597', '598', '599', '601', '605', '606', '607', '608', '611', '612', '614', '615', '617', '618', '619', '620', '623', '625', '631', '633', '634', '635', '636', '637', '638', '639', '641', '642', '643', '644', '645', '646', '648', '649', '654', '655', '656', '658', '661', '663', '664', '667', '670', '672', '673', '674', '676', '682', '684', '686', '687', '690', '691', '692', '693', '694', '698', '699', '701', '702', '703', '705', '706', '709', '710', '711', '713', '714', '720', '722', '724', '727', '729', '731', '732', '733', '734', '735', '738', '739', '741', '742', '745', '746', '748', '750', '751', '754', '756', '757', '758', '759', '761', '762', '763', '764', '768', '769', '772', '773', '776', '777', '779', '780', '781', '786', '787', '788', '791', '792', '794', '795', '798', '799', '800', '801', '807', '808', '809', '812', '813', '814', '815', '818', '820', '821', '822', '825', '826', '832', '834', '835', '836', '840', '843', '844', '849', '850', '854', '856', '859', '860', '864', '868', '869', '870', '871', '872', '873', '876', '880', '883', '884', '886', '890', '891', '893', '894', '895', '898', '899', '901', '902', '903', '905', '908', '909', '910', '911', '912', '914', '915', '916', '918', '919', '920', '922', '928', '929', '931', '933', '935', '937', '938', '941', '942', '948', '949', '959', '961', '963', '966', '967', '970', '971', '972', '975', '977', '978', '981', '987', '991', '992', '994', '995', '997', '998', '999', '1000', '1001', '1003', '1004', '1005', '1006', '1013', '1014', '1018', '1019', '1020', '1021', '1022', '1023', '1024', '1025', '1028', '1029', '1030', '1031', '1032', '1033', '1034', '1035', '1037', '1038', '1039', '1040', '1041', '1043', '1045', '1046', '1047', '1049', '1050', '1053', '1054', '1058', '1059', '1063', '1065', '1066', '1067', '1069', '1070', '1072', '1073', '1076', '1077', '1079', '1080', '1081', '1082', '1083', '1084', '1089', '1090', '1093', '1095', '1104', '1106', '1108', '1113', '1114', '1117', '1119', '1120', '1121', '1122', '1123', '1126', '1131', '1134', '1136', '1138', '1139', '1142', '1146', '1147', '1149', '1150', '1152', '1153', '1154', '1155', '1156', '1160', '1161', '1163', '1165', '1166', '1170', '1171', '1173', '1174', '1175', '1180', '1181', '1185', '1186', '1188', '1190', '1191', '1195', '1197', '1199', '1200', '1206', '1209', '1213', '1217', '1218', '1222', '1224', '1226', '1229', '1230', '1231', '1232', '1235', '1238', '1239', '1240', '1243', '1244', '1249', '1250', '1251', '1253', '1255', '1256', '1257', '1259', '1264', '1265', '1271', '1272', '1273', '1277', '1278', '1279', '1280', '1281', '1285', '1286', '1287', '1288', '1289', '1291', '1294', '1295', '1296', '1298', '1299', '1302', '1303', '1310', '1312', '1314', '1315', '1319', '1323', '1324', '1326', '1327', '1331', '1332', '1333', '1335', '1337', '1339', '1340', '1341', '1342', '1344', '1345', '1346', '1347', '1348', '1349', '1354', '1358', '1359', '1362', '1363', '1366', '1367', '1368', '1370', '1371', '1373', '1379', '1382', '1385', '1386', '1389', '1390', '1393', '1396', '1399', '1401', '1402', '1403', '1407', '1409', '1410', '1414', '1415', '1416', '1418', '1419', '1420', '1422', '1423', '1424', '1426', '1427', '1428', '1431', '1432', '1436', '1437', '1438', '1439', '1441', '1442', '1443', '1444', '1445', '1446', '1451', '1452', '1453', '1454', '1455', '1456', '1460', '1463', '1466', '1467', '1469', '1470', '1472', '1473', '1474', '1475', '1477', '1478', '1480', '1481', '1482', '1484', '1485', '1486', '1487', '1491', '1492', '1493', '1497', '1502', '1505', '1508', '1509', '1510', '1511', '1518', '1519', '1522', '1523', '1524', '1525', '1531', '1533', '1534', '1535', '1536', '1543', '1547', '1548', '1549', '1551', '1554', '1555', '1556', '1559', '1560', '1561', '1562', '1563', '1564', '1566', '1569', '1570', '1571', '1573', '1575', '1577', '1581', '1586', '1592', '1595', '1597', '1598', '1600', '1602', '1605', '1608', '1610', '1611', '1612', '1616', '1619', '1620', '1623', '1625', '1628', '1630', '1632', '1636', '1637', '1641', '1644', '1645', '1648', '1649', '1653', '1654', '1655', '1656', '1661', '1662', '1665', '1666', '1668', '1669', '1670', '1673', '1674', '1678', '1682', '1685', '1686', '1690', '1691', '1695', '1696', '1697', '1698', '1699', '1700', '1701', '1703', '1707', '1709', '1712', '1713', '1715', '1716', '1717', '1719', '1721', '1724', '1726', '1728', '1729', '1730', '1731', '1733', '1735', '1740', '1742', '1746', '1751', '1752', '1755', '1756', '1758', '1759', '1760', '1762', '1772', '1775', '1779', '1780', '1781', '1784', '1786', '1791', '1793', '1795', '1796', '1797', '1799', '1802', '1805', '1806', '1807', '1809', '1810', '1811', '1813', '1814', '1818', '1820', '1822', '1824', '1826', '1827', '1829', '1830', '1834', '1837', '1838', '1840', '1844', '1847', '1848', '1850', '1851', '1854', '1855', '1857', '1858', '1860', '1862', '1863', '1864', '1865', '1867', '1869', '1870', '1872', '1876', '1877', '1879', '1882', '1883', '1884', '1885', '1886', '1887', '1888', '1890', '1892', '1894', '1895', '1896', '1900', '1902', '1903', '1908', '1910', '1911', '1913', '1918', '1919', '1922', '1925', '1929', '1930', '1932', '1935', '1937', '1938', '1939', '1941', '1942', '1946', '1949', '1950', '1954', '1958', '1959', '1961', '1962', '1963', '1964', '1965', '1971', '1975', '1976', '1977', '1978', '1981', '1983', '1985', '1987', '1989', '1990', '1993', '1996', '1997', '1999', '2000']",True,5000,True,2,b9d112e0c4,0.0,0.0,0.0
