expe,clients,clients_size,clients_subset,agg_size,method,days,days_size,days_total,time,valid,valid_sum,success,nsols,wall_hit,wall_time,pooled,valid_sums
./expes/v2_2020-12-06_dh_200-prng-1,30_issda_200,200,rng-200,31,rng,num-start-641,641,25726,15.999043226242065,True,,True,1,False,1000,True,1.0
./expes/v2_2020-12-06_dh_200-prng-1,30_issda_200,200,rng-200,81,rng,num-start-121,121,25726,3.1289093494415283,True,,True,1,False,1000,True,1.0
./expes/v2_2020-12-06_dh_200-prng-1,30_issda_200,200,rng-200,31,rng,num-start-61,61,25726,2.2730114459991455,True,,True,1,False,1000,True,1.0
./expes/v2_2020-12-06_dh_200-prng-1,30_issda_200,200,rng-200,121,rng,num-start-901,901,25726,21.294150590896606,True,,True,1,False,1000,True,1.0
./expes/v2_2020-12-06_dh_200-prng-1,30_issda_200,200,rng-200,31,rng,num-start-421,421,25726,10.336030960083008,True,,True,1,False,1000,True,1.0
./expes/v2_2020-12-06_dh_200-prng-1,30_issda_200,200,rng-200,11,rng,num-start-191,191,25726,4.4961347579956055,True,,True,1,False,1000,True,1.0
./expes/v2_2020-12-06_dh_200-prng-1,30_issda_200,200,rng-200,181,rng,num-start-161,161,25726,3.8819122314453125,True,,True,1,False,1000,True,1.0
./expes/v2_2020-12-06_dh_200-prng-1,30_issda_200,200,rng-200,171,rng,num-start-731,731,25726,16.654450178146362,True,,True,1,False,1000,True,1.0
./expes/v2_2020-12-06_dh_200-prng-1,30_issda_200,200,rng-200,121,rng,num-start-381,381,25726,9.702182292938232,True,,True,1,False,1000,True,1.0
./expes/v2_2020-12-06_dh_200-prng-1,30_issda_200,200,rng-200,61,rng,num-start-471,471,25726,10.926185846328735,True,,True,1,False,1000,True,1.0
./expes/v2_2020-12-06_dh_200-prng-1,30_issda_200,200,rng-200,151,rng,num-start-541,541,25726,13.393928289413452,True,,True,1,False,1000,True,1.0
./expes/v2_2020-12-06_dh_200-prng-1,30_issda_200,200,rng-200,91,rng,num-start-171,171,25726,4.459349632263184,True,,True,1,False,1000,True,1.0
./expes/v2_2020-12-06_dh_200-prng-1,30_issda_200,200,rng-200,151,rng,num-start-311,311,25726,7.479605674743652,True,,True,1,False,1000,True,1.0
./expes/v2_2020-12-06_dh_200-prng-1,30_issda_200,200,rng-200,151,rng,num-start-721,721,25726,17.897042512893677,True,,True,1,False,1000,True,1.0
./expes/v2_2020-12-06_dh_200-prng-1,30_issda_200,200,rng-200,1,rng,num-start-631,631,25726,13.374213695526123,True,,True,1,False,1000,True,1.0
./expes/v2_2020-12-06_dh_200-prng-1,30_issda_200,200,rng-200,41,rng,num-start-231,231,25726,5.849839687347412,True,,True,1,False,1000,True,1.0
./expes/v2_2020-12-06_dh_200-prng-1,30_issda_200,200,rng-200,161,rng,num-start-831,831,25726,20.656005382537842,True,,True,1,False,1000,True,1.0
./expes/v2_2020-12-06_dh_200-prng-1,30_issda_200,200,rng-200,161,rng,num-start-451,451,25726,11.296191930770874,True,,True,1,False,1000,True,1.0
./expes/v2_2020-12-06_dh_200-prng-1,30_issda_200,200,rng-200,81,rng,num-start-621,621,25726,15.310766696929932,True,,True,1,False,1000,True,1.0
./expes/v2_2020-12-06_dh_200-prng-1,30_issda_200,200,rng-200,101,rng,num-start-971,971,25726,24.42989420890808,True,,True,1,False,1000,True,1.0
./expes/v2_2020-12-06_dh_200-prng-1,30_issda_200,200,rng-200,141,rng,num-start-501,501,25726,11.788443326950073,True,,True,1,False,1000,True,1.0
./expes/v2_2020-12-06_dh_200-prng-1,30_issda_200,200,rng-200,51,rng,num-start-961,961,25726,23.484330654144287,True,,True,1,False,1000,True,1.0
./expes/v2_2020-12-06_dh_200-prng-1,30_issda_200,200,rng-200,31,rng,num-start-891,891,25726,22.29650044441223,True,,True,1,False,1000,True,1.0
./expes/v2_2020-12-06_dh_200-prng-1,30_issda_200,200,rng-200,141,rng,num-start-821,821,25726,20.228691339492798,True,,True,1,False,1000,True,1.0
./expes/v2_2020-12-06_dh_200-prng-1,30_issda_200,200,rng-200,151,rng,num-start-881,881,25726,21.981058597564697,True,,True,1,False,1000,True,1.0
./expes/v2_2020-12-06_dh_200-prng-1,30_issda_200,200,rng-200,111,rng,num-start-771,771,25726,19.116053104400635,True,,True,1,False,1000,True,1.0
./expes/v2_2020-12-06_dh_200-prng-1,30_issda_200,200,rng-200,111,rng,num-start-831,831,25726,20.55428719520569,True,,True,1,False,1000,True,1.0
./expes/v2_2020-12-06_dh_200-prng-1,30_issda_200,200,rng-200,71,rng,num-start-761,761,25726,18.63237977027893,True,,True,1,False,1000,True,1.0
./expes/v2_2020-12-06_dh_200-prng-1,30_issda_200,200,rng-200,171,rng,num-start-31,31,25726,1.6884586811065674,True,,True,1,False,1000,True,1.0
./expes/v2_2020-12-06_dh_200-prng-1,30_issda_200,200,rng-200,11,rng,num-start-971,971,25726,21.973928451538086,True,,True,1,False,1000,True,1.0
./expes/v2_2020-12-06_dh_200-prng-1,30_issda_200,200,rng-200,141,rng,num-start-481,481,25726,12.212711334228516,True,,True,1,False,1000,True,1.0
./expes/v2_2020-12-06_dh_200-prng-1,30_issda_200,200,rng-200,131,rng,num-start-341,341,25726,8.791245698928833,True,,True,1,False,1000,True,1.0
./expes/v2_2020-12-06_dh_200-prng-1,30_issda_200,200,rng-200,131,rng,num-start-471,471,25726,11.365421056747437,True,,True,1,False,1000,True,1.0
./expes/v2_2020-12-06_dh_200-prng-1,30_issda_200,200,rng-200,121,rng,num-start-801,801,25726,20.25872564315796,True,,True,1,False,1000,True,1.0
./expes/v2_2020-12-06_dh_200-prng-1,30_issda_200,200,rng-200,141,rng,num-start-741,741,25726,17.801696300506592,True,,True,1,False,1000,True,1.0
./expes/v2_2020-12-06_dh_200-prng-1,30_issda_200,200,rng-200,21,rng,num-start-941,941,25726,22.376764059066772,True,,True,1,False,1000,True,1.0
./expes/v2_2020-12-06_dh_200-prng-1,30_issda_200,200,rng-200,191,rng,num-start-121,121,25726,2.9142050743103027,True,,True,1,False,1000,True,1.0
./expes/v2_2020-12-06_dh_200-prng-1,30_issda_200,200,rng-200,31,rng,num-start-551,551,25726,14.24566912651062,True,,True,1,False,1000,True,1.0
./expes/v2_2020-12-06_dh_200-prng-1,30_issda_200,200,rng-200,31,rng,num-start-41,41,25726,11.348459243774414,True,,True,1,False,1000,True,1.0
./expes/v2_2020-12-06_dh_200-prng-1,30_issda_200,200,rng-200,41,rng,num-start-421,421,25726,10.94556999206543,True,,True,1,False,1000,True,1.0
./expes/v2_2020-12-06_dh_200-prng-1,30_issda_200,200,rng-200,31,rng,num-start-501,501,25726,12.218775749206543,True,,True,1,False,1000,True,1.0
./expes/v2_2020-12-06_dh_200-prng-1,30_issda_200,200,rng-200,1,rng,num-start-901,901,25726,19.952271223068237,True,,True,1,False,1000,True,1.0
./expes/v2_2020-12-06_dh_200-prng-1,30_issda_200,200,rng-200,141,rng,num-start-131,131,25726,3.4908761978149414,True,,True,1,False,1000,True,1.0
./expes/v2_2020-12-06_dh_200-prng-1,30_issda_200,200,rng-200,191,rng,num-start-411,411,25726,9.00780987739563,True,,True,1,False,1000,True,1.0
./expes/v2_2020-12-06_dh_200-prng-1,30_issda_200,200,rng-200,41,rng,num-start-331,331,25726,8.267890930175781,True,,True,1,False,1000,True,1.0
./expes/v2_2020-12-06_dh_200-prng-1,30_issda_200,200,rng-200,1,rng,num-start-781,781,25726,16.823627948760986,True,,True,1,False,1000,True,1.0
./expes/v2_2020-12-06_dh_200-prng-1,30_issda_200,200,rng-200,91,rng,num-start-151,151,25726,3.8460795879364014,True,,True,1,False,1000,True,1.0
./expes/v2_2020-12-06_dh_200-prng-1,30_issda_200,200,rng-200,121,rng,num-start-491,491,25726,12.634199380874634,True,,True,1,False,1000,True,1.0
./expes/v2_2020-12-06_dh_200-prng-1,30_issda_200,200,rng-200,91,rng,num-start-61,61,25726,6.876081228256226,True,,True,1,False,1000,True,1.0
./expes/v2_2020-12-06_dh_200-prng-1,30_issda_200,200,rng-200,61,rng,num-start-991,991,25726,23.308554649353027,True,,True,1,False,1000,True,1.0
./expes/v2_2020-12-06_dh_200-prng-1,30_issda_200,200,rng-200,91,rng,num-start-731,731,25726,17.962130069732666,True,,True,1,False,1000,True,1.0
./expes/v2_2020-12-06_dh_200-prng-1,30_issda_200,200,rng-200,121,rng,num-start-121,121,25726,3.1902217864990234,True,,True,1,False,1000,True,1.0
./expes/v2_2020-12-06_dh_200-prng-1,30_issda_200,200,rng-200,11,rng,num-start-741,741,25726,18.703057527542114,True,,True,1,False,1000,True,1.0
./expes/v2_2020-12-06_dh_200-prng-1,30_issda_200,200,rng-200,141,rng,num-start-641,641,25726,15.987827777862549,True,,True,1,False,1000,True,1.0
./expes/v2_2020-12-06_dh_200-prng-1,30_issda_200,200,rng-200,91,rng,num-start-981,981,25726,23.65105128288269,True,,True,1,False,1000,True,1.0
./expes/v2_2020-12-06_dh_200-prng-1,30_issda_200,200,rng-200,151,rng,num-start-401,401,25726,9.285272598266602,True,,True,1,False,1000,True,1.0
./expes/v2_2020-12-06_dh_200-prng-1,30_issda_200,200,rng-200,91,rng,num-start-791,791,25726,19.385777235031128,True,,True,1,False,1000,True,1.0
./expes/v2_2020-12-06_dh_200-prng-1,30_issda_200,200,rng-200,71,rng,num-start-431,431,25726,10.359923362731934,True,,True,1,False,1000,True,1.0
./expes/v2_2020-12-06_dh_200-prng-1,30_issda_200,200,rng-200,131,rng,num-start-251,251,25726,6.054141998291016,True,,True,1,False,1000,True,1.0
./expes/v2_2020-12-06_dh_200-prng-1,30_issda_200,200,rng-200,1,rng,num-start-751,751,25726,15.921087980270386,True,,True,1,False,1000,True,1.0
./expes/v2_2020-12-06_dh_200-prng-1,30_issda_200,200,rng-200,161,rng,num-start-1,1,25726,0.1137540340423584,False,,False,2,False,1000,True,1.0
./expes/v2_2020-12-06_dh_200-prng-1,30_issda_200,200,rng-200,191,rng,num-start-301,301,25726,6.494571208953857,True,,True,1,False,1000,True,1.0
./expes/v2_2020-12-06_dh_200-prng-1,30_issda_200,200,rng-200,81,rng,num-start-651,651,25726,15.786529064178467,True,,True,1,False,1000,True,1.0
./expes/v2_2020-12-06_dh_200-prng-1,30_issda_200,200,rng-200,61,rng,num-start-771,771,25726,18.881531476974487,True,,True,1,False,1000,True,1.0
./expes/v2_2020-12-06_dh_200-prng-1,30_issda_200,200,rng-200,71,rng,num-start-491,491,25726,11.443274021148682,True,,True,1,False,1000,True,1.0
./expes/v2_2020-12-06_dh_200-prng-1,30_issda_200,200,rng-200,101,rng,num-start-431,431,25726,10.000943183898926,True,,True,1,False,1000,True,1.0
./expes/v2_2020-12-06_dh_200-prng-1,30_issda_200,200,rng-200,91,rng,num-start-711,711,25726,17.653428077697754,True,,True,1,False,1000,True,1.0
./expes/v2_2020-12-06_dh_200-prng-1,30_issda_200,200,rng-200,101,rng,num-start-631,631,25726,14.578478813171387,True,,True,1,False,1000,True,1.0
./expes/v2_2020-12-06_dh_200-prng-1,30_issda_200,200,rng-200,71,rng,num-start-971,971,25726,22.847482681274414,True,,True,1,False,1000,True,1.0
./expes/v2_2020-12-06_dh_200-prng-1,30_issda_200,200,rng-200,31,rng,num-start-21,21,25726,1003.1820387840271,False,,False,0,True,1000,True,0.0
./expes/v2_2020-12-06_dh_200-prng-1,30_issda_200,200,rng-200,161,rng,num-start-411,411,25726,9.33040714263916,True,,True,1,False,1000,True,1.0
./expes/v2_2020-12-06_dh_200-prng-1,30_issda_200,200,rng-200,51,rng,num-start-131,131,25726,3.2560765743255615,True,,True,1,False,1000,True,1.0
./expes/v2_2020-12-06_dh_200-prng-1,30_issda_200,200,rng-200,191,rng,num-start-21,21,25726,1.0343432426452637,True,,True,1,False,1000,True,1.0
./expes/v2_2020-12-06_dh_200-prng-1,30_issda_200,200,rng-200,11,rng,num-start-511,511,25726,11.377277374267578,True,,True,1,False,1000,True,1.0
./expes/v2_2020-12-06_dh_200-prng-1,30_issda_200,200,rng-200,51,rng,num-start-351,351,25726,9.023308038711548,True,,True,1,False,1000,True,1.0
./expes/v2_2020-12-06_dh_200-prng-1,30_issda_200,200,rng-200,151,rng,num-start-211,211,25726,5.560669183731079,True,,True,1,False,1000,True,1.0
./expes/v2_2020-12-06_dh_200-prng-1,30_issda_200,200,rng-200,11,rng,num-start-491,491,25726,10.610155820846558,True,,True,1,False,1000,True,1.0
./expes/v2_2020-12-06_dh_200-prng-1,30_issda_200,200,rng-200,191,rng,num-start-261,261,25726,5.722933769226074,True,,True,1,False,1000,True,1.0
./expes/v2_2020-12-06_dh_200-prng-1,30_issda_200,200,rng-200,1,rng,num-start-331,331,25726,7.077739477157593,True,,True,1,False,1000,True,1.0
./expes/v2_2020-12-06_dh_200-prng-1,30_issda_200,200,rng-200,91,rng,num-start-721,721,25726,18.182464838027954,True,,True,1,False,1000,True,1.0
./expes/v2_2020-12-06_dh_200-prng-1,30_issda_200,200,rng-200,111,rng,num-start-271,271,25726,6.964642286300659,True,,True,1,False,1000,True,1.0
./expes/v2_2020-12-06_dh_200-prng-1,30_issda_200,200,rng-200,121,rng,num-start-791,791,25726,18.21359896659851,True,,True,1,False,1000,True,1.0
./expes/v2_2020-12-06_dh_200-prng-1,30_issda_200,200,rng-200,41,rng,num-start-891,891,25726,20.806789875030518,True,,True,1,False,1000,True,1.0
./expes/v2_2020-12-06_dh_200-prng-1,30_issda_200,200,rng-200,81,rng,num-start-921,921,25726,23.752849102020264,True,,True,1,False,1000,True,1.0
./expes/v2_2020-12-06_dh_200-prng-1,30_issda_200,200,rng-200,41,rng,num-start-571,571,25726,13.260310649871826,True,,True,1,False,1000,True,1.0
./expes/v2_2020-12-06_dh_200-prng-1,30_issda_200,200,rng-200,121,rng,num-start-241,241,25726,6.152101039886475,True,,True,1,False,1000,True,1.0
./expes/v2_2020-12-06_dh_200-prng-1,30_issda_200,200,rng-200,11,rng,num-start-331,331,25726,8.099725246429443,True,,True,1,False,1000,True,1.0
./expes/v2_2020-12-06_dh_200-prng-1,30_issda_200,200,rng-200,11,rng,num-start-131,131,25726,3.060224771499634,True,,True,1,False,1000,True,1.0
./expes/v2_2020-12-06_dh_200-prng-1,30_issda_200,200,rng-200,151,rng,num-start-641,641,25726,16.165499210357666,True,,True,1,False,1000,True,1.0
./expes/v2_2020-12-06_dh_200-prng-1,30_issda_200,200,rng-200,91,rng,num-start-221,221,25726,5.609320163726807,True,,True,1,False,1000,True,1.0
./expes/v2_2020-12-06_dh_200-prng-1,30_issda_200,200,rng-200,181,rng,num-start-541,541,25726,12.463216543197632,True,,True,1,False,1000,True,1.0
./expes/v2_2020-12-06_dh_200-prng-1,30_issda_200,200,rng-200,21,rng,num-start-31,31,25726,2.705792188644409,True,,True,1,False,1000,True,1.0
./expes/v2_2020-12-06_dh_200-prng-1,30_issda_200,200,rng-200,31,rng,num-start-841,841,25726,21.4509494304657,True,,True,1,False,1000,True,1.0
./expes/v2_2020-12-06_dh_200-prng-1,30_issda_200,200,rng-200,131,rng,num-start-691,691,25726,16.140352487564087,True,,True,1,False,1000,True,1.0
./expes/v2_2020-12-06_dh_200-prng-1,30_issda_200,200,rng-200,191,rng,num-start-661,661,25726,14.919116497039795,True,,True,1,False,1000,True,1.0
./expes/v2_2020-12-06_dh_200-prng-1,30_issda_200,200,rng-200,61,rng,num-start-761,761,25726,18.648849725723267,True,,True,1,False,1000,True,1.0
./expes/v2_2020-12-06_dh_200-prng-1,30_issda_200,200,rng-200,121,rng,num-start-971,971,25726,24.484991788864136,True,,True,1,False,1000,True,1.0
./expes/v2_2020-12-06_dh_200-prng-1,30_issda_200,200,rng-200,111,rng,num-start-341,341,25726,7.8565874099731445,True,,True,1,False,1000,True,1.0
./expes/v2_2020-12-06_dh_200-prng-1,30_issda_200,200,rng-200,101,rng,num-start-41,41,25726,1000.9557774066925,False,,False,0,True,1000,True,0.0
./expes/v2_2020-12-06_dh_200-prng-1,30_issda_200,200,rng-200,101,rng,num-start-341,341,25726,7.955181837081909,True,,True,1,False,1000,True,1.0
./expes/v2_2020-12-06_dh_200-prng-1,30_issda_200,200,rng-200,21,rng,num-start-301,301,25726,7.1068456172943115,True,,True,1,False,1000,True,1.0
./expes/v2_2020-12-06_dh_200-prng-1,30_issda_200,200,rng-200,111,rng,num-start-681,681,25726,15.942636966705322,True,,True,1,False,1000,True,1.0
./expes/v2_2020-12-06_dh_200-prng-1,30_issda_200,200,rng-200,181,rng,num-start-771,771,25726,18.00050640106201,True,,True,1,False,1000,True,1.0
./expes/v2_2020-12-06_dh_200-prng-1,30_issda_200,200,rng-200,181,rng,num-start-221,221,25726,5.243958473205566,True,,True,1,False,1000,True,1.0
./expes/v2_2020-12-06_dh_200-prng-1,30_issda_200,200,rng-200,171,rng,num-start-21,21,25726,1000.4927570819855,False,,False,0,True,1000,True,0.0
./expes/v2_2020-12-06_dh_200-prng-1,30_issda_200,200,rng-200,51,rng,num-start-501,501,25726,12.216922283172607,True,,True,1,False,1000,True,1.0
./expes/v2_2020-12-06_dh_200-prng-1,30_issda_200,200,rng-200,21,rng,num-start-81,81,25726,2.0200448036193848,True,,True,1,False,1000,True,1.0
./expes/v2_2020-12-06_dh_200-prng-1,30_issda_200,200,rng-200,81,rng,num-start-121,121,25726,2.955399990081787,True,,True,1,False,1000,True,1.0
./expes/v2_2020-12-06_dh_200-prng-1,30_issda_200,200,rng-200,171,rng,num-start-231,231,25726,5.74886679649353,True,,True,1,False,1000,True,1.0
./expes/v2_2020-12-06_dh_200-prng-1,30_issda_200,200,rng-200,51,rng,num-start-761,761,25726,17.594557285308838,True,,True,1,False,1000,True,1.0
./expes/v2_2020-12-06_dh_200-prng-1,30_issda_200,200,rng-200,11,rng,num-start-841,841,25726,17.8653085231781,True,,True,1,False,1000,True,1.0
./expes/v2_2020-12-06_dh_200-prng-1,30_issda_200,200,rng-200,11,rng,num-start-321,321,25726,7.151098012924194,True,,True,1,False,1000,True,1.0
./expes/v2_2020-12-06_dh_200-prng-1,30_issda_200,200,rng-200,131,rng,num-start-431,431,25726,9.614431142807007,True,,True,1,False,1000,True,1.0
./expes/v2_2020-12-06_dh_200-prng-1,30_issda_200,200,rng-200,1,rng,num-start-911,911,25726,19.038370847702026,True,,True,1,False,1000,True,1.0
./expes/v2_2020-12-06_dh_200-prng-1,30_issda_200,200,rng-200,151,rng,num-start-751,751,25726,17.223410606384277,True,,True,1,False,1000,True,1.0
./expes/v2_2020-12-06_dh_200-prng-1,30_issda_200,200,rng-200,151,rng,num-start-631,631,25726,15.128037691116333,True,,True,1,False,1000,True,1.0
./expes/v2_2020-12-06_dh_200-prng-1,30_issda_200,200,rng-200,11,rng,num-start-661,661,25726,14.084157705307007,True,,True,1,False,1000,True,1.0
./expes/v2_2020-12-06_dh_200-prng-1,30_issda_200,200,rng-200,81,rng,num-start-471,471,25726,11.06836485862732,True,,True,1,False,1000,True,1.0
./expes/v2_2020-12-06_dh_200-prng-1,30_issda_200,200,rng-200,21,rng,num-start-541,541,25726,12.388164758682251,True,,True,1,False,1000,True,1.0
./expes/v2_2020-12-06_dh_200-prng-1,30_issda_200,200,rng-200,21,rng,num-start-621,621,25726,14.358136177062988,True,,True,1,False,1000,True,1.0
./expes/v2_2020-12-06_dh_200-prng-1,30_issda_200,200,rng-200,131,rng,num-start-731,731,25726,17.02524471282959,True,,True,1,False,1000,True,1.0
./expes/v2_2020-12-06_dh_200-prng-1,30_issda_200,200,rng-200,171,rng,num-start-841,841,25726,19.275775909423828,True,,True,1,False,1000,True,1.0
./expes/v2_2020-12-06_dh_200-prng-1,30_issda_200,200,rng-200,71,rng,num-start-201,201,25726,5.255318641662598,True,,True,1,False,1000,True,1.0
./expes/v2_2020-12-06_dh_200-prng-1,30_issda_200,200,rng-200,141,rng,num-start-581,581,25726,14.149436473846436,True,,True,1,False,1000,True,1.0
./expes/v2_2020-12-06_dh_200-prng-1,30_issda_200,200,rng-200,91,rng,num-start-891,891,25726,20.68573021888733,True,,True,1,False,1000,True,1.0
./expes/v2_2020-12-06_dh_200-prng-1,30_issda_200,200,rng-200,91,rng,num-start-641,641,25726,15.229422569274902,True,,True,1,False,1000,True,1.0
./expes/v2_2020-12-06_dh_200-prng-1,30_issda_200,200,rng-200,1,rng,num-start-811,811,25726,17.032833576202393,True,,True,1,False,1000,True,1.0
./expes/v2_2020-12-06_dh_200-prng-1,30_issda_200,200,rng-200,151,rng,num-start-521,521,25726,11.793330430984497,True,,True,1,False,1000,True,1.0
./expes/v2_2020-12-06_dh_200-prng-1,30_issda_200,200,rng-200,21,rng,num-start-471,471,25726,11.707115411758423,True,,True,1,False,1000,True,1.0
./expes/v2_2020-12-06_dh_200-prng-1,30_issda_200,200,rng-200,11,rng,num-start-681,681,25726,14.433074474334717,True,,True,1,False,1000,True,1.0
./expes/v2_2020-12-06_dh_200-prng-1,30_issda_200,200,rng-200,21,rng,num-start-561,561,25726,12.87745189666748,True,,True,1,False,1000,True,1.0
./expes/v2_2020-12-06_dh_200-prng-1,30_issda_200,200,rng-200,41,rng,num-start-641,641,25726,15.029588222503662,True,,True,1,False,1000,True,1.0
./expes/v2_2020-12-06_dh_200-prng-1,30_issda_200,200,rng-200,171,rng,num-start-381,381,25726,9.419620513916016,True,,True,1,False,1000,True,1.0
./expes/v2_2020-12-06_dh_200-prng-1,30_issda_200,200,rng-200,51,rng,num-start-911,911,25726,21.03615713119507,True,,True,1,False,1000,True,1.0
./expes/v2_2020-12-06_dh_200-prng-1,30_issda_200,200,rng-200,121,rng,num-start-261,261,25726,6.257347345352173,True,,True,1,False,1000,True,1.0
./expes/v2_2020-12-06_dh_200-prng-1,30_issda_200,200,rng-200,131,rng,num-start-241,241,25726,5.910821199417114,True,,True,1,False,1000,True,1.0
./expes/v2_2020-12-06_dh_200-prng-1,30_issda_200,200,rng-200,91,rng,num-start-811,811,25726,19.05879020690918,True,,True,1,False,1000,True,1.0
./expes/v2_2020-12-06_dh_200-prng-1,30_issda_200,200,rng-200,131,rng,num-start-341,341,25726,8.207802295684814,True,,True,1,False,1000,True,1.0
./expes/v2_2020-12-06_dh_200-prng-1,30_issda_200,200,rng-200,1,rng,num-start-831,831,25726,17.508286714553833,True,,True,1,False,1000,True,1.0
./expes/v2_2020-12-06_dh_200-prng-1,30_issda_200,200,rng-200,91,rng,num-start-741,741,25726,18.64969229698181,True,,True,1,False,1000,True,1.0
./expes/v2_2020-12-06_dh_200-prng-1,30_issda_200,200,rng-200,121,rng,num-start-311,311,25726,7.458080291748047,True,,True,1,False,1000,True,1.0
./expes/v2_2020-12-06_dh_200-prng-1,30_issda_200,200,rng-200,111,rng,num-start-461,461,25726,10.807002544403076,True,,True,1,False,1000,True,1.0
./expes/v2_2020-12-06_dh_200-prng-1,30_issda_200,200,rng-200,21,rng,num-start-431,431,25726,10.153543949127197,True,,True,1,False,1000,True,1.0
./expes/v2_2020-12-06_dh_200-prng-1,30_issda_200,200,rng-200,11,rng,num-start-661,661,25726,14.783208847045898,True,,True,1,False,1000,True,1.0
./expes/v2_2020-12-06_dh_200-prng-1,30_issda_200,200,rng-200,181,rng,num-start-931,931,25726,21.211780786514282,True,,True,1,False,1000,True,1.0
./expes/v2_2020-12-06_dh_200-prng-1,30_issda_200,200,rng-200,1,rng,num-start-11,11,25726,0.24629426002502441,True,,True,1,False,1000,True,1.0
./expes/v2_2020-12-06_dh_200-prng-1,30_issda_200,200,rng-200,131,rng,num-start-71,71,25726,3.1631221771240234,True,,True,1,False,1000,True,1.0
./expes/v2_2020-12-06_dh_200-prng-1,30_issda_200,200,rng-200,71,rng,num-start-821,821,25726,19.132840633392334,True,,True,1,False,1000,True,1.0
./expes/v2_2020-12-06_dh_200-prng-1,30_issda_200,200,rng-200,51,rng,num-start-301,301,25726,7.160566329956055,True,,True,1,False,1000,True,1.0
./expes/v2_2020-12-06_dh_200-prng-1,30_issda_200,200,rng-200,111,rng,num-start-91,91,25726,3.6912524700164795,True,,True,1,False,1000,True,1.0
./expes/v2_2020-12-06_dh_200-prng-1,30_issda_200,200,rng-200,61,rng,num-start-111,111,25726,2.835706949234009,True,,True,1,False,1000,True,1.0
./expes/v2_2020-12-06_dh_200-prng-1,30_issda_200,200,rng-200,111,rng,num-start-841,841,25726,20.249768257141113,True,,True,1,False,1000,True,1.0
./expes/v2_2020-12-06_dh_200-prng-1,30_issda_200,200,rng-200,31,rng,num-start-121,121,25726,3.058558464050293,True,,True,1,False,1000,True,1.0
./expes/v2_2020-12-06_dh_200-prng-1,30_issda_200,200,rng-200,161,rng,num-start-211,211,25726,5.286907196044922,True,,True,1,False,1000,True,1.0
./expes/v2_2020-12-06_dh_200-prng-1,30_issda_200,200,rng-200,41,rng,num-start-961,961,25726,23.451924085617065,True,,True,1,False,1000,True,1.0
./expes/v2_2020-12-06_dh_200-prng-1,30_issda_200,200,rng-200,191,rng,num-start-111,111,25726,2.640679121017456,True,,True,1,False,1000,True,1.0
./expes/v2_2020-12-06_dh_200-prng-1,30_issda_200,200,rng-200,61,rng,num-start-921,921,25726,22.23829936981201,True,,True,1,False,1000,True,1.0
./expes/v2_2020-12-06_dh_200-prng-1,30_issda_200,200,rng-200,81,rng,num-start-131,131,25726,3.5644874572753906,True,,True,1,False,1000,True,1.0
./expes/v2_2020-12-06_dh_200-prng-1,30_issda_200,200,rng-200,11,rng,num-start-791,791,25726,17.214519023895264,True,,True,1,False,1000,True,1.0
./expes/v2_2020-12-06_dh_200-prng-1,30_issda_200,200,rng-200,101,rng,num-start-291,291,25726,7.25907301902771,True,,True,1,False,1000,True,1.0
./expes/v2_2020-12-06_dh_200-prng-1,30_issda_200,200,rng-200,191,rng,num-start-971,971,25726,22.25003170967102,True,,True,1,False,1000,True,1.0
./expes/v2_2020-12-06_dh_200-prng-1,30_issda_200,200,rng-200,41,rng,num-start-311,311,25726,7.75156569480896,True,,True,1,False,1000,True,1.0
./expes/v2_2020-12-06_dh_200-prng-1,30_issda_200,200,rng-200,101,rng,num-start-761,761,25726,27.09036946296692,True,,True,1,False,1000,True,1.0
./expes/v2_2020-12-06_dh_200-prng-1,30_issda_200,200,rng-200,151,rng,num-start-241,241,25726,6.118507385253906,True,,True,1,False,1000,True,1.0
./expes/v2_2020-12-06_dh_200-prng-1,30_issda_200,200,rng-200,101,rng,num-start-711,711,25726,17.421091079711914,True,,True,1,False,1000,True,1.0
./expes/v2_2020-12-06_dh_200-prng-1,30_issda_200,200,rng-200,91,rng,num-start-211,211,25726,5.706310033798218,True,,True,1,False,1000,True,1.0
./expes/v2_2020-12-06_dh_200-prng-1,30_issda_200,200,rng-200,31,rng,num-start-401,401,25726,9.383125066757202,True,,True,1,False,1000,True,1.0
./expes/v2_2020-12-06_dh_200-prng-1,30_issda_200,200,rng-200,61,rng,num-start-201,201,25726,5.602315902709961,True,,True,1,False,1000,True,1.0
./expes/v2_2020-12-06_dh_200-prng-1,30_issda_200,200,rng-200,141,rng,num-start-311,311,25726,8.066768884658813,True,,True,1,False,1000,True,1.0
./expes/v2_2020-12-06_dh_200-prng-1,30_issda_200,200,rng-200,91,rng,num-start-551,551,25726,12.560004711151123,True,,True,1,False,1000,True,1.0
./expes/v2_2020-12-06_dh_200-prng-1,30_issda_200,200,rng-200,141,rng,num-start-491,491,25726,19.029510259628296,True,,True,1,False,1000,True,1.0
./expes/v2_2020-12-06_dh_200-prng-1,30_issda_200,200,rng-200,81,rng,num-start-341,341,25726,9.451223134994507,True,,True,1,False,1000,True,1.0
./expes/v2_2020-12-06_dh_200-prng-1,30_issda_200,200,rng-200,111,rng,num-start-541,541,25726,13.182983875274658,True,,True,1,False,1000,True,1.0
./expes/v2_2020-12-06_dh_200-prng-1,30_issda_200,200,rng-200,1,rng,num-start-791,791,25726,16.77043628692627,True,,True,1,False,1000,True,1.0
./expes/v2_2020-12-06_dh_200-prng-1,30_issda_200,200,rng-200,151,rng,num-start-31,31,25726,1002.5070149898529,False,,False,0,True,1000,True,0.0
./expes/v2_2020-12-06_dh_200-prng-1,30_issda_200,200,rng-200,121,rng,num-start-81,81,25726,4.013258695602417,True,,True,1,False,1000,True,1.0
./expes/v2_2020-12-06_dh_200-prng-1,30_issda_200,200,rng-200,71,rng,num-start-61,61,25726,18.21049189567566,True,,True,1,False,1000,True,1.0
./expes/v2_2020-12-06_dh_200-prng-1,30_issda_200,200,rng-200,131,rng,num-start-611,611,25726,19.305420637130737,True,,True,1,False,1000,True,1.0
./expes/v2_2020-12-06_dh_200-prng-1,30_issda_200,200,rng-200,111,rng,num-start-741,741,25726,44.40391969680786,True,,True,1,False,1000,True,1.0
./expes/v2_2020-12-06_dh_200-prng-1,30_issda_200,200,rng-200,91,rng,num-start-571,571,25726,37.37544512748718,True,,True,1,False,1000,True,1.0
./expes/v2_2020-12-06_dh_200-prng-1,30_issda_200,200,rng-200,11,rng,num-start-591,591,25726,26.5154550075531,True,,True,1,False,1000,True,1.0
./expes/v2_2020-12-06_dh_200-prng-1,30_issda_200,200,rng-200,51,rng,num-start-161,161,25726,5.012561321258545,True,,True,1,False,1000,True,1.0
./expes/v2_2020-12-06_dh_200-prng-1,30_issda_200,200,rng-200,191,rng,num-start-901,901,25726,40.70392179489136,True,,True,1,False,1000,True,1.0
./expes/v2_2020-12-06_dh_200-prng-1,30_issda_200,200,rng-200,81,rng,num-start-961,961,25726,33.81299924850464,True,,True,1,False,1000,True,1.0
./expes/v2_2020-12-06_dh_200-prng-1,30_issda_200,200,rng-200,161,rng,num-start-121,121,25726,3.6256613731384277,True,,True,1,False,1000,True,1.0
./expes/v2_2020-12-06_dh_200-prng-1,30_issda_200,200,rng-200,121,rng,num-start-911,911,25726,31.27804970741272,True,,True,1,False,1000,True,1.0
./expes/v2_2020-12-06_dh_200-prng-1,30_issda_200,200,rng-200,11,rng,num-start-801,801,25726,22.906496286392212,True,,True,1,False,1000,True,1.0
./expes/v2_2020-12-06_dh_200-prng-1,30_issda_200,200,rng-200,151,rng,num-start-441,441,25726,15.144268035888672,True,,True,1,False,1000,True,1.0
./expes/v2_2020-12-06_dh_200-prng-1,30_issda_200,200,rng-200,81,rng,num-start-861,861,25726,55.33989930152893,True,,True,1,False,1000,True,1.0
./expes/v2_2020-12-06_dh_200-prng-1,30_issda_200,200,rng-200,161,rng,num-start-131,131,25726,19.615337371826172,True,,True,1,False,1000,True,1.0
./expes/v2_2020-12-06_dh_200-prng-1,30_issda_200,200,rng-200,81,rng,num-start-261,261,25726,6.536317825317383,True,,True,1,False,1000,True,1.0
./expes/v2_2020-12-06_dh_200-prng-1,30_issda_200,200,rng-200,71,rng,num-start-461,461,25726,25.000489473342896,True,,True,1,False,1000,True,1.0
./expes/v2_2020-12-06_dh_200-prng-1,30_issda_200,200,rng-200,171,rng,num-start-531,531,25726,13.240888118743896,True,,True,1,False,1000,True,1.0
./expes/v2_2020-12-06_dh_200-prng-1,30_issda_200,200,rng-200,101,rng,num-start-721,721,25726,19.550458669662476,True,,True,1,False,1000,True,1.0
./expes/v2_2020-12-06_dh_200-prng-1,30_issda_200,200,rng-200,41,rng,num-start-271,271,25726,7.035999536514282,True,,True,1,False,1000,True,1.0
./expes/v2_2020-12-06_dh_200-prng-1,30_issda_200,200,rng-200,101,rng,num-start-461,461,25726,14.400893926620483,True,,True,1,False,1000,True,1.0
./expes/v2_2020-12-06_dh_200-prng-1,30_issda_200,200,rng-200,131,rng,num-start-171,171,25726,4.81427788734436,True,,True,1,False,1000,True,1.0
./expes/v2_2020-12-06_dh_200-prng-1,30_issda_200,200,rng-200,11,rng,num-start-341,341,25726,10.092541456222534,True,,True,1,False,1000,True,1.0
./expes/v2_2020-12-06_dh_200-prng-1,30_issda_200,200,rng-200,121,rng,num-start-121,121,25726,3.1524240970611572,True,,True,1,False,1000,True,1.0
./expes/v2_2020-12-06_dh_200-prng-1,30_issda_200,200,rng-200,121,rng,num-start-121,121,25726,3.4332523345947266,True,,True,1,False,1000,True,1.0
./expes/v2_2020-12-06_dh_200-prng-1,30_issda_200,200,rng-200,81,rng,num-start-271,271,25726,9.031389236450195,True,,True,1,False,1000,True,1.0
./expes/v2_2020-12-06_dh_200-prng-1,30_issda_200,200,rng-200,111,rng,num-start-771,771,25726,26.71129822731018,True,,True,1,False,1000,True,1.0
./expes/v2_2020-12-06_dh_200-prng-1,30_issda_200,200,rng-200,41,rng,num-start-811,811,25726,24.649109601974487,True,,True,1,False,1000,True,1.0
./expes/v2_2020-12-06_dh_200-prng-1,30_issda_200,200,rng-200,71,rng,num-start-401,401,25726,9.476203441619873,True,,True,1,False,1000,True,1.0
./expes/v2_2020-12-06_dh_200-prng-1,30_issda_200,200,rng-200,171,rng,num-start-671,671,25726,16.03262686729431,True,,True,1,False,1000,True,1.0
./expes/v2_2020-12-06_dh_200-prng-1,30_issda_200,200,rng-200,131,rng,num-start-191,191,25726,7.696033000946045,True,,True,1,False,1000,True,1.0
./expes/v2_2020-12-06_dh_200-prng-1,30_issda_200,200,rng-200,151,rng,num-start-701,701,25726,24.554609537124634,True,,True,1,False,1000,True,1.0
./expes/v2_2020-12-06_dh_200-prng-1,30_issda_200,200,rng-200,91,rng,num-start-151,151,25726,8.873204946517944,True,,True,1,False,1000,True,1.0
./expes/v2_2020-12-06_dh_200-prng-1,30_issda_200,200,rng-200,141,rng,num-start-131,131,25726,3.3263535499572754,True,,True,1,False,1000,True,1.0
./expes/v2_2020-12-06_dh_200-prng-1,30_issda_200,200,rng-200,21,rng,num-start-641,641,25726,15.613864421844482,True,,True,1,False,1000,True,1.0
./expes/v2_2020-12-06_dh_200-prng-1,30_issda_200,200,rng-200,101,rng,num-start-151,151,25726,5.374515056610107,True,,True,1,False,1000,True,1.0
./expes/v2_2020-12-06_dh_200-prng-1,30_issda_200,200,rng-200,121,rng,num-start-951,951,25726,23.30461049079895,True,,True,1,False,1000,True,1.0
./expes/v2_2020-12-06_dh_200-prng-1,30_issda_200,200,rng-200,81,rng,num-start-921,921,25726,22.571830987930298,True,,True,1,False,1000,True,1.0
./expes/v2_2020-12-06_dh_200-prng-1,30_issda_200,200,rng-200,91,rng,num-start-131,131,25726,3.3253378868103027,True,,True,1,False,1000,True,1.0
./expes/v2_2020-12-06_dh_200-prng-1,30_issda_200,200,rng-200,111,rng,num-start-31,31,25726,1001.1993565559387,False,,False,0,True,1000,True,0.0
./expes/v2_2020-12-06_dh_200-prng-1,30_issda_200,200,rng-200,111,rng,num-start-721,721,25726,17.80978798866272,True,,True,1,False,1000,True,1.0
./expes/v2_2020-12-06_dh_200-prng-1,30_issda_200,200,rng-200,181,rng,num-start-131,131,25726,3.242842435836792,True,,True,1,False,1000,True,1.0
./expes/v2_2020-12-06_dh_200-prng-1,30_issda_200,200,rng-200,1,rng,num-start-121,121,25726,2.790083885192871,True,,True,1,False,1000,True,1.0
./expes/v2_2020-12-06_dh_200-prng-1,30_issda_200,200,rng-200,71,rng,num-start-271,271,25726,6.85219669342041,True,,True,1,False,1000,True,1.0
./expes/v2_2020-12-06_dh_200-prng-1,30_issda_200,200,rng-200,31,rng,num-start-821,821,25726,34.644997358322144,True,,True,1,False,1000,True,1.0
./expes/v2_2020-12-06_dh_200-prng-1,30_issda_200,200,rng-200,41,rng,num-start-191,191,25726,11.259838581085205,True,,True,1,False,1000,True,1.0
./expes/v2_2020-12-06_dh_200-prng-1,30_issda_200,200,rng-200,151,rng,num-start-871,871,25726,24.636036157608032,True,,True,1,False,1000,True,1.0
./expes/v2_2020-12-06_dh_200-prng-1,30_issda_200,200,rng-200,141,rng,num-start-91,91,25726,3.4767680168151855,True,,True,1,False,1000,True,1.0
./expes/v2_2020-12-06_dh_200-prng-1,30_issda_200,200,rng-200,61,rng,num-start-211,211,25726,9.549162149429321,True,,True,1,False,1000,True,1.0
./expes/v2_2020-12-06_dh_200-prng-1,30_issda_200,200,rng-200,191,rng,num-start-211,211,25726,4.6897008419036865,True,,True,1,False,1000,True,1.0
./expes/v2_2020-12-06_dh_200-prng-1,30_issda_200,200,rng-200,171,rng,num-start-481,481,25726,11.511854648590088,True,,True,1,False,1000,True,1.0
./expes/v2_2020-12-06_dh_200-prng-1,30_issda_200,200,rng-200,131,rng,num-start-321,321,25726,13.12905216217041,True,,True,1,False,1000,True,1.0
./expes/v2_2020-12-06_dh_200-prng-1,30_issda_200,200,rng-200,181,rng,num-start-61,61,25726,11.475245475769043,True,,True,1,False,1000,True,1.0
./expes/v2_2020-12-06_dh_200-prng-1,30_issda_200,200,rng-200,81,rng,num-start-281,281,25726,14.001147031784058,True,,True,1,False,1000,True,1.0
./expes/v2_2020-12-06_dh_200-prng-1,30_issda_200,200,rng-200,91,rng,num-start-91,91,25726,4.363744020462036,True,,True,1,False,1000,True,1.0
./expes/v2_2020-12-06_dh_200-prng-1,30_issda_200,200,rng-200,191,rng,num-start-881,881,25726,19.084089517593384,True,,True,1,False,1000,True,1.0
./expes/v2_2020-12-06_dh_200-prng-1,30_issda_200,200,rng-200,161,rng,num-start-791,791,25726,23.14522433280945,True,,True,1,False,1000,True,1.0
./expes/v2_2020-12-06_dh_200-prng-1,30_issda_200,200,rng-200,171,rng,num-start-791,791,25726,19.258312940597534,True,,True,1,False,1000,True,1.0
./expes/v2_2020-12-06_dh_200-prng-1,30_issda_200,200,rng-200,151,rng,num-start-811,811,25726,22.162136793136597,True,,True,1,False,1000,True,1.0
./expes/v2_2020-12-06_dh_200-prng-1,30_issda_200,200,rng-200,131,rng,num-start-941,941,25726,22.358835220336914,True,,True,1,False,1000,True,1.0
./expes/v2_2020-12-06_dh_200-prng-1,30_issda_200,200,rng-200,21,rng,num-start-381,381,25726,14.00226616859436,True,,True,1,False,1000,True,1.0
./expes/v2_2020-12-06_dh_200-prng-1,30_issda_200,200,rng-200,11,rng,num-start-511,511,25726,11.389548540115356,True,,True,1,False,1000,True,1.0
./expes/v2_2020-12-06_dh_200-prng-1,30_issda_200,200,rng-200,21,rng,num-start-701,701,25726,25.048946142196655,True,,True,1,False,1000,True,1.0
./expes/v2_2020-12-06_dh_200-prng-1,30_issda_200,200,rng-200,111,rng,num-start-921,921,25726,23.45192289352417,True,,True,1,False,1000,True,1.0
./expes/v2_2020-12-06_dh_200-prng-1,30_issda_200,200,rng-200,181,rng,num-start-791,791,25726,20.580181121826172,True,,True,1,False,1000,True,1.0
./expes/v2_2020-12-06_dh_200-prng-1,30_issda_200,200,rng-200,191,rng,num-start-521,521,25726,11.768592357635498,True,,True,1,False,1000,True,1.0
./expes/v2_2020-12-06_dh_200-prng-1,30_issda_200,200,rng-200,91,rng,num-start-841,841,25726,19.95233941078186,True,,True,1,False,1000,True,1.0
./expes/v2_2020-12-06_dh_200-prng-1,30_issda_200,200,rng-200,81,rng,num-start-681,681,25726,19.607679843902588,True,,True,1,False,1000,True,1.0
./expes/v2_2020-12-06_dh_200-prng-1,30_issda_200,200,rng-200,171,rng,num-start-851,851,25726,25.572605848312378,True,,True,1,False,1000,True,1.0
./expes/v2_2020-12-06_dh_200-prng-1,30_issda_200,200,rng-200,21,rng,num-start-331,331,25726,10.946268320083618,True,,True,1,False,1000,True,1.0
./expes/v2_2020-12-06_dh_200-prng-1,30_issda_200,200,rng-200,51,rng,num-start-321,321,25726,8.790959119796753,True,,True,1,False,1000,True,1.0
./expes/v2_2020-12-06_dh_200-prng-1,30_issda_200,200,rng-200,141,rng,num-start-611,611,25726,38.752540826797485,True,,True,1,False,1000,True,1.0
./expes/v2_2020-12-06_dh_200-prng-1,30_issda_200,200,rng-200,41,rng,num-start-691,691,25726,15.376970529556274,True,,True,1,False,1000,True,1.0
./expes/v2_2020-12-06_dh_200-prng-1,30_issda_200,200,rng-200,161,rng,num-start-511,511,25726,22.708074808120728,True,,True,1,False,1000,True,1.0
./expes/v2_2020-12-06_dh_200-prng-1,30_issda_200,200,rng-200,131,rng,num-start-151,151,25726,3.727261543273926,True,,True,1,False,1000,True,1.0
./expes/v2_2020-12-06_dh_200-prng-1,30_issda_200,200,rng-200,61,rng,num-start-231,231,25726,5.830188989639282,True,,True,1,False,1000,True,1.0
./expes/v2_2020-12-06_dh_200-prng-1,30_issda_200,200,rng-200,91,rng,num-start-531,531,25726,13.991870403289795,True,,True,1,False,1000,True,1.0
./expes/v2_2020-12-06_dh_200-prng-1,30_issda_200,200,rng-200,31,rng,num-start-331,331,25726,8.987869262695312,True,,True,1,False,1000,True,1.0
./expes/v2_2020-12-06_dh_200-prng-1,30_issda_200,200,rng-200,71,rng,num-start-281,281,25726,15.74915623664856,True,,True,1,False,1000,True,1.0
./expes/v2_2020-12-06_dh_200-prng-1,30_issda_200,200,rng-200,171,rng,num-start-711,711,25726,21.579180240631104,True,,True,1,False,1000,True,1.0
./expes/v2_2020-12-06_dh_200-prng-1,30_issda_200,200,rng-200,61,rng,num-start-191,191,25726,6.270183324813843,True,,True,1,False,1000,True,1.0
./expes/v2_2020-12-06_dh_200-prng-1,30_issda_200,200,rng-200,121,rng,num-start-791,791,25726,17.856279134750366,True,,True,1,False,1000,True,1.0
./expes/v2_2020-12-06_dh_200-prng-1,30_issda_200,200,rng-200,21,rng,num-start-901,901,25726,21.544231176376343,True,,True,1,False,1000,True,1.0
./expes/v2_2020-12-06_dh_200-prng-1,30_issda_200,200,rng-200,151,rng,num-start-871,871,25726,19.550946712493896,True,,True,1,False,1000,True,1.0
./expes/v2_2020-12-06_dh_200-prng-1,30_issda_200,200,rng-200,31,rng,num-start-621,621,25726,17.626785278320312,True,,True,1,False,1000,True,1.0
./expes/v2_2020-12-06_dh_200-prng-1,30_issda_200,200,rng-200,51,rng,num-start-531,531,25726,26.423231601715088,True,,True,1,False,1000,True,1.0
./expes/v2_2020-12-06_dh_200-prng-1,30_issda_200,200,rng-200,81,rng,num-start-851,851,25726,28.20796275138855,True,,True,1,False,1000,True,1.0
./expes/v2_2020-12-06_dh_200-prng-1,30_issda_200,200,rng-200,141,rng,num-start-211,211,25726,9.037237405776978,True,,True,1,False,1000,True,1.0
./expes/v2_2020-12-06_dh_200-prng-1,30_issda_200,200,rng-200,121,rng,num-start-221,221,25726,26.17023515701294,True,,True,1,False,1000,True,1.0
./expes/v2_2020-12-06_dh_200-prng-1,30_issda_200,200,rng-200,11,rng,num-start-141,141,25726,3.6813573837280273,True,,True,1,False,1000,True,1.0
./expes/v2_2020-12-06_dh_200-prng-1,30_issda_200,200,rng-200,181,rng,num-start-251,251,25726,6.303409814834595,True,,True,1,False,1000,True,1.0
./expes/v2_2020-12-06_dh_200-prng-1,30_issda_200,200,rng-200,1,rng,num-start-501,501,25726,14.802482843399048,True,,True,1,False,1000,True,1.0
./expes/v2_2020-12-06_dh_200-prng-1,30_issda_200,200,rng-200,61,rng,num-start-601,601,25726,15.710036516189575,True,,True,1,False,1000,True,1.0
./expes/v2_2020-12-06_dh_200-prng-1,30_issda_200,200,rng-200,181,rng,num-start-261,261,25726,34.023773193359375,True,,True,1,False,1000,True,1.0
./expes/v2_2020-12-06_dh_200-prng-1,30_issda_200,200,rng-200,81,rng,num-start-811,811,25726,31.083491325378418,True,,True,1,False,1000,True,1.0
./expes/v2_2020-12-06_dh_200-prng-1,30_issda_200,200,rng-200,171,rng,num-start-381,381,25726,9.83953332901001,True,,True,1,False,1000,True,1.0
./expes/v2_2020-12-06_dh_200-prng-1,30_issda_200,200,rng-200,41,rng,num-start-231,231,25726,8.479729413986206,True,,True,1,False,1000,True,1.0
./expes/v2_2020-12-06_dh_200-prng-1,30_issda_200,200,rng-200,1,rng,num-start-81,81,25726,11.066578388214111,True,,True,1,False,1000,True,1.0
./expes/v2_2020-12-06_dh_200-prng-1,30_issda_200,200,rng-200,131,rng,num-start-731,731,25726,27.596238613128662,True,,True,1,False,1000,True,1.0
./expes/v2_2020-12-06_dh_200-prng-1,30_issda_200,200,rng-200,151,rng,num-start-191,191,25726,6.3013014793396,True,,True,1,False,1000,True,1.0
./expes/v2_2020-12-06_dh_200-prng-1,30_issda_200,200,rng-200,61,rng,num-start-981,981,25726,28.795989513397217,True,,True,1,False,1000,True,1.0
./expes/v2_2020-12-06_dh_200-prng-1,30_issda_200,200,rng-200,191,rng,num-start-641,641,25726,15.16478943824768,True,,True,1,False,1000,True,1.0
./expes/v2_2020-12-06_dh_200-prng-1,30_issda_200,200,rng-200,111,rng,num-start-181,181,25726,9.661299228668213,True,,True,1,False,1000,True,1.0
./expes/v2_2020-12-06_dh_200-prng-1,30_issda_200,200,rng-200,21,rng,num-start-581,581,25726,14.004263877868652,True,,True,1,False,1000,True,1.0
./expes/v2_2020-12-06_dh_200-prng-1,30_issda_200,200,rng-200,141,rng,num-start-201,201,25726,16.78416419029236,True,,True,1,False,1000,True,1.0
./expes/v2_2020-12-06_dh_200-prng-1,30_issda_200,200,rng-200,61,rng,num-start-231,231,25726,5.632128715515137,True,,True,1,False,1000,True,1.0
./expes/v2_2020-12-06_dh_200-prng-1,30_issda_200,200,rng-200,191,rng,num-start-151,151,25726,5.564262866973877,True,,True,1,False,1000,True,1.0
./expes/v2_2020-12-06_dh_200-prng-1,30_issda_200,200,rng-200,111,rng,num-start-641,641,25726,17.97135353088379,True,,True,1,False,1000,True,1.0
./expes/v2_2020-12-06_dh_200-prng-1,30_issda_200,200,rng-200,91,rng,num-start-981,981,25726,23.015170574188232,True,,True,1,False,1000,True,1.0
./expes/v2_2020-12-06_dh_200-prng-1,30_issda_200,200,rng-200,21,rng,num-start-951,951,25726,22.099799871444702,True,,True,1,False,1000,True,1.0
./expes/v2_2020-12-06_dh_200-prng-1,30_issda_200,200,rng-200,71,rng,num-start-391,391,25726,10.238564729690552,True,,True,1,False,1000,True,1.0
./expes/v2_2020-12-06_dh_200-prng-1,30_issda_200,200,rng-200,71,rng,num-start-381,381,25726,10.209742546081543,True,,True,1,False,1000,True,1.0
./expes/v2_2020-12-06_dh_200-prng-1,30_issda_200,200,rng-200,131,rng,num-start-801,801,25726,18.172719717025757,True,,True,1,False,1000,True,1.0
./expes/v2_2020-12-06_dh_200-prng-1,30_issda_200,200,rng-200,161,rng,num-start-21,21,25726,1001.6220037937164,False,,False,0,True,1000,True,0.0
./expes/v2_2020-12-06_dh_200-prng-1,30_issda_200,200,rng-200,181,rng,num-start-161,161,25726,10.226844787597656,True,,True,1,False,1000,True,1.0
./expes/v2_2020-12-06_dh_200-prng-1,30_issda_200,200,rng-200,131,rng,num-start-161,161,25726,9.883221864700317,True,,True,1,False,1000,True,1.0
./expes/v2_2020-12-06_dh_200-prng-1,30_issda_200,200,rng-200,91,rng,num-start-41,41,25726,1001.3435928821564,False,,False,0,True,1000,True,0.0
./expes/v2_2020-12-06_dh_200-prng-1,30_issda_200,200,rng-200,1,rng,num-start-181,181,25726,3.8832051753997803,True,,True,1,False,1000,True,1.0
./expes/v2_2020-12-06_dh_200-prng-1,30_issda_200,200,rng-200,11,rng,num-start-171,171,25726,3.997349739074707,True,,True,1,False,1000,True,1.0
./expes/v2_2020-12-06_dh_200-prng-1,30_issda_200,200,rng-200,41,rng,num-start-201,201,25726,4.913096904754639,True,,True,1,False,1000,True,1.0
./expes/v2_2020-12-06_dh_200-prng-1,30_issda_200,200,rng-200,11,rng,num-start-301,301,25726,6.906406879425049,True,,True,1,False,1000,True,1.0
./expes/v2_2020-12-06_dh_200-prng-1,30_issda_200,200,rng-200,41,rng,num-start-691,691,25726,16.99544358253479,True,,True,1,False,1000,True,1.0
./expes/v2_2020-12-06_dh_200-prng-1,30_issda_200,200,rng-200,161,rng,num-start-161,161,25726,4.0779500007629395,True,,True,1,False,1000,True,1.0
./expes/v2_2020-12-06_dh_200-prng-1,30_issda_200,200,rng-200,71,rng,num-start-641,641,25726,18.77432131767273,True,,True,1,False,1000,True,1.0
./expes/v2_2020-12-06_dh_200-prng-1,30_issda_200,200,rng-200,191,rng,num-start-101,101,25726,2.3680405616760254,True,,True,1,False,1000,True,1.0
./expes/v2_2020-12-06_dh_200-prng-1,30_issda_200,200,rng-200,101,rng,num-start-701,701,25726,18.603630781173706,True,,True,1,False,1000,True,1.0
./expes/v2_2020-12-06_dh_200-prng-1,30_issda_200,200,rng-200,191,rng,num-start-541,541,25726,13.285709857940674,True,,True,1,False,1000,True,1.0
./expes/v2_2020-12-06_dh_200-prng-1,30_issda_200,200,rng-200,11,rng,num-start-51,51,25726,1.283390998840332,True,,True,1,False,1000,True,1.0
./expes/v2_2020-12-06_dh_200-prng-1,30_issda_200,200,rng-200,161,rng,num-start-121,121,25726,18.002771139144897,True,,True,1,False,1000,True,1.0
./expes/v2_2020-12-06_dh_200-prng-1,30_issda_200,200,rng-200,81,rng,num-start-261,261,25726,16.584469079971313,True,,True,1,False,1000,True,1.0
./expes/v2_2020-12-06_dh_200-prng-1,30_issda_200,200,rng-200,21,rng,num-start-351,351,25726,23.04966115951538,True,,True,1,False,1000,True,1.0
./expes/v2_2020-12-06_dh_200-prng-1,30_issda_200,200,rng-200,41,rng,num-start-571,571,25726,17.550095796585083,True,,True,1,False,1000,True,1.0
./expes/v2_2020-12-06_dh_200-prng-1,30_issda_200,200,rng-200,111,rng,num-start-231,231,25726,10.403873205184937,True,,True,1,False,1000,True,1.0
./expes/v2_2020-12-06_dh_200-prng-1,30_issda_200,200,rng-200,121,rng,num-start-561,561,25726,13.891932964324951,True,,True,1,False,1000,True,1.0
./expes/v2_2020-12-06_dh_200-prng-1,30_issda_200,200,rng-200,61,rng,num-start-781,781,25726,19.176831007003784,True,,True,1,False,1000,True,1.0
./expes/v2_2020-12-06_dh_200-prng-1,30_issda_200,200,rng-200,161,rng,num-start-751,751,25726,18.5402615070343,True,,True,1,False,1000,True,1.0
./expes/v2_2020-12-06_dh_200-prng-1,30_issda_200,200,rng-200,131,rng,num-start-301,301,25726,7.550702333450317,True,,True,1,False,1000,True,1.0
./expes/v2_2020-12-06_dh_200-prng-1,30_issda_200,200,rng-200,151,rng,num-start-651,651,25726,18.55457067489624,True,,True,1,False,1000,True,1.0
./expes/v2_2020-12-06_dh_200-prng-1,30_issda_200,200,rng-200,101,rng,num-start-341,341,25726,8.100130081176758,True,,True,1,False,1000,True,1.0
./expes/v2_2020-12-06_dh_200-prng-1,30_issda_200,200,rng-200,101,rng,num-start-301,301,25726,26.809303045272827,True,,True,1,False,1000,True,1.0
./expes/v2_2020-12-06_dh_200-prng-1,30_issda_200,200,rng-200,111,rng,num-start-781,781,25726,21.298568725585938,True,,True,1,False,1000,True,1.0
./expes/v2_2020-12-06_dh_200-prng-1,30_issda_200,200,rng-200,111,rng,num-start-641,641,25726,17.79520845413208,True,,True,1,False,1000,True,1.0
./expes/v2_2020-12-06_dh_200-prng-1,30_issda_200,200,rng-200,141,rng,num-start-981,981,25726,23.491556882858276,True,,True,1,False,1000,True,1.0
./expes/v2_2020-12-06_dh_200-prng-1,30_issda_200,200,rng-200,121,rng,num-start-581,581,25726,14.97802472114563,True,,True,1,False,1000,True,1.0
./expes/v2_2020-12-06_dh_200-prng-1,30_issda_200,200,rng-200,61,rng,num-start-921,921,25726,29.172828435897827,True,,True,1,False,1000,True,1.0
./expes/v2_2020-12-06_dh_200-prng-1,30_issda_200,200,rng-200,181,rng,num-start-321,321,25726,18.738783836364746,True,,True,1,False,1000,True,1.0
./expes/v2_2020-12-06_dh_200-prng-1,30_issda_200,200,rng-200,101,rng,num-start-931,931,25726,38.33676075935364,True,,True,1,False,1000,True,1.0
./expes/v2_2020-12-06_dh_200-prng-1,30_issda_200,200,rng-200,21,rng,num-start-791,791,25726,23.630694150924683,True,,True,1,False,1000,True,1.0
./expes/v2_2020-12-06_dh_200-prng-1,30_issda_200,200,rng-200,101,rng,num-start-611,611,25726,19.353744745254517,True,,True,1,False,1000,True,1.0
./expes/v2_2020-12-06_dh_200-prng-1,30_issda_200,200,rng-200,191,rng,num-start-841,841,25726,17.812111616134644,True,,True,1,False,1000,True,1.0
./expes/v2_2020-12-06_dh_200-prng-1,30_issda_200,200,rng-200,111,rng,num-start-681,681,25726,17.46708035469055,True,,True,1,False,1000,True,1.0
./expes/v2_2020-12-06_dh_200-prng-1,30_issda_200,200,rng-200,101,rng,num-start-221,221,25726,5.38521933555603,True,,True,1,False,1000,True,1.0
./expes/v2_2020-12-06_dh_200-prng-1,30_issda_200,200,rng-200,1,rng,num-start-401,401,25726,9.326023578643799,True,,True,1,False,1000,True,1.0
./expes/v2_2020-12-06_dh_200-prng-1,30_issda_200,200,rng-200,31,rng,num-start-491,491,25726,11.910270929336548,True,,True,1,False,1000,True,1.0
./expes/v2_2020-12-06_dh_200-prng-1,30_issda_200,200,rng-200,181,rng,num-start-731,731,25726,16.833510160446167,True,,True,1,False,1000,True,1.0
./expes/v2_2020-12-06_dh_200-prng-1,30_issda_200,200,rng-200,131,rng,num-start-541,541,25726,12.862671852111816,True,,True,1,False,1000,True,1.0
./expes/v2_2020-12-06_dh_200-prng-1,30_issda_200,200,rng-200,91,rng,num-start-671,671,25726,15.41864013671875,True,,True,1,False,1000,True,1.0
./expes/v2_2020-12-06_dh_200-prng-1,30_issda_200,200,rng-200,181,rng,num-start-331,331,25726,7.29378342628479,True,,True,1,False,1000,True,1.0
./expes/v2_2020-12-06_dh_200-prng-1,30_issda_200,200,rng-200,41,rng,num-start-581,581,25726,13.068498134613037,True,,True,1,False,1000,True,1.0
./expes/v2_2020-12-06_dh_200-prng-1,30_issda_200,200,rng-200,51,rng,num-start-181,181,25726,4.478086471557617,True,,True,1,False,1000,True,1.0
./expes/v2_2020-12-06_dh_200-prng-1,30_issda_200,200,rng-200,121,rng,num-start-921,921,25726,21.57751989364624,True,,True,1,False,1000,True,1.0
./expes/v2_2020-12-06_dh_200-prng-1,30_issda_200,200,rng-200,41,rng,num-start-561,561,25726,12.574685096740723,True,,True,1,False,1000,True,1.0
./expes/v2_2020-12-06_dh_200-prng-1,30_issda_200,200,rng-200,151,rng,num-start-941,941,25726,21.059746026992798,True,,True,1,False,1000,True,1.0
./expes/v2_2020-12-06_dh_200-prng-1,30_issda_200,200,rng-200,161,rng,num-start-241,241,25726,5.9070885181427,True,,True,1,False,1000,True,1.0
./expes/v2_2020-12-06_dh_200-prng-1,30_issda_200,200,rng-200,91,rng,num-start-521,521,25726,12.996585607528687,True,,True,1,False,1000,True,1.0
./expes/v2_2020-12-06_dh_200-prng-1,30_issda_200,200,rng-200,91,rng,num-start-621,621,25726,14.866831302642822,True,,True,1,False,1000,True,1.0
./expes/v2_2020-12-06_dh_200-prng-1,30_issda_200,200,rng-200,81,rng,num-start-81,81,25726,3.8054044246673584,True,,True,1,False,1000,True,1.0
./expes/v2_2020-12-06_dh_200-prng-1,30_issda_200,200,rng-200,111,rng,num-start-761,761,25726,19.45113253593445,True,,True,1,False,1000,True,1.0
./expes/v2_2020-12-06_dh_200-prng-1,30_issda_200,200,rng-200,141,rng,num-start-481,481,25726,11.365015983581543,True,,True,1,False,1000,True,1.0
./expes/v2_2020-12-06_dh_200-prng-1,30_issda_200,200,rng-200,1,rng,num-start-761,761,25726,16.474124670028687,True,,True,1,False,1000,True,1.0
./expes/v2_2020-12-06_dh_200-prng-1,30_issda_200,200,rng-200,131,rng,num-start-271,271,25726,7.018733263015747,True,,True,1,False,1000,True,1.0
./expes/v2_2020-12-06_dh_200-prng-1,30_issda_200,200,rng-200,81,rng,num-start-491,491,25726,12.342406034469604,True,,True,1,False,1000,True,1.0
./expes/v2_2020-12-06_dh_200-prng-1,30_issda_200,200,rng-200,161,rng,num-start-621,621,25726,15.682759523391724,True,,True,1,False,1000,True,1.0
./expes/v2_2020-12-06_dh_200-prng-1,30_issda_200,200,rng-200,191,rng,num-start-691,691,25726,15.328416585922241,True,,True,1,False,1000,True,1.0
./expes/v2_2020-12-06_dh_200-prng-1,30_issda_200,200,rng-200,31,rng,num-start-511,511,25726,12.905200958251953,True,,True,1,False,1000,True,1.0
./expes/v2_2020-12-06_dh_200-prng-1,30_issda_200,200,rng-200,1,rng,num-start-891,891,25726,19.509643077850342,True,,True,1,False,1000,True,1.0
./expes/v2_2020-12-06_dh_200-prng-1,30_issda_200,200,rng-200,61,rng,num-start-331,331,25726,8.495975732803345,True,,True,1,False,1000,True,1.0
./expes/v2_2020-12-06_dh_200-prng-1,30_issda_200,200,rng-200,171,rng,num-start-31,31,25726,1047.0298130512238,False,,False,1,True,1000,True,0.0
./expes/v2_2020-12-06_dh_200-prng-1,30_issda_200,200,rng-200,1,rng,num-start-971,971,25726,32.85909819602966,True,,True,1,False,1000,True,1.0
./expes/v2_2020-12-06_dh_200-prng-1,30_issda_200,200,rng-200,191,rng,num-start-511,511,25726,21.06619644165039,True,,True,1,False,1000,True,1.0
./expes/v2_2020-12-06_dh_200-prng-1,30_issda_200,200,rng-200,191,rng,num-start-701,701,25726,22.264952659606934,True,,True,1,False,1000,True,1.0
./expes/v2_2020-12-06_dh_200-prng-1,30_issda_200,200,rng-200,21,rng,num-start-511,511,25726,13.319097518920898,True,,True,1,False,1000,True,1.0
./expes/v2_2020-12-06_dh_200-prng-1,30_issda_200,200,rng-200,171,rng,num-start-431,431,25726,12.968775033950806,True,,True,1,False,1000,True,1.0
./expes/v2_2020-12-06_dh_200-prng-1,30_issda_200,200,rng-200,151,rng,num-start-361,361,25726,10.595799684524536,True,,True,1,False,1000,True,1.0
./expes/v2_2020-12-06_dh_200-prng-1,30_issda_200,200,rng-200,141,rng,num-start-951,951,25726,25.281880855560303,True,,True,1,False,1000,True,1.0
./expes/v2_2020-12-06_dh_200-prng-1,30_issda_200,200,rng-200,121,rng,num-start-1,1,25726,0.10109305381774902,False,,False,2,False,1000,True,1.0
./expes/v2_2020-12-06_dh_200-prng-1,30_issda_200,200,rng-200,51,rng,num-start-221,221,25726,7.018237352371216,True,,True,1,False,1000,True,1.0
./expes/v2_2020-12-06_dh_200-prng-1,30_issda_200,200,rng-200,151,rng,num-start-281,281,25726,8.444272756576538,True,,True,1,False,1000,True,1.0
./expes/v2_2020-12-06_dh_200-prng-1,30_issda_200,200,rng-200,161,rng,num-start-241,241,25726,8.355451345443726,True,,True,1,False,1000,True,1.0
./expes/v2_2020-12-06_dh_200-prng-1,30_issda_200,200,rng-200,141,rng,num-start-591,591,25726,24.05918836593628,True,,True,1,False,1000,True,1.0
./expes/v2_2020-12-06_dh_200-prng-1,30_issda_200,200,rng-200,181,rng,num-start-891,891,25726,21.08339500427246,True,,True,1,False,1000,True,1.0
./expes/v2_2020-12-06_dh_200-prng-1,30_issda_200,200,rng-200,61,rng,num-start-871,871,25726,22.33520483970642,True,,True,1,False,1000,True,1.0
./expes/v2_2020-12-06_dh_200-prng-1,30_issda_200,200,rng-200,101,rng,num-start-681,681,25726,17.831737756729126,True,,True,1,False,1000,True,1.0
./expes/v2_2020-12-06_dh_200-prng-1,30_issda_200,200,rng-200,1,rng,num-start-911,911,25726,20.98193645477295,True,,True,1,False,1000,True,1.0
./expes/v2_2020-12-06_dh_200-prng-1,30_issda_200,200,rng-200,51,rng,num-start-161,161,25726,7.822150468826294,True,,True,1,False,1000,True,1.0
./expes/v2_2020-12-06_dh_200-prng-1,30_issda_200,200,rng-200,191,rng,num-start-31,31,25726,1.0452136993408203,True,,True,1,False,1000,True,1.0
./expes/v2_2020-12-06_dh_200-prng-1,30_issda_200,200,rng-200,91,rng,num-start-391,391,25726,9.615240097045898,True,,True,1,False,1000,True,1.0
./expes/v2_2020-12-06_dh_200-prng-1,30_issda_200,200,rng-200,81,rng,num-start-361,361,25726,14.535822629928589,True,,True,1,False,1000,True,1.0
./expes/v2_2020-12-06_dh_200-prng-1,30_issda_200,200,rng-200,41,rng,num-start-971,971,25726,24.64182758331299,True,,True,1,False,1000,True,1.0
./expes/v2_2020-12-06_dh_200-prng-1,30_issda_200,200,rng-200,131,rng,num-start-811,811,25726,19.864490509033203,True,,True,1,False,1000,True,1.0
./expes/v2_2020-12-06_dh_200-prng-1,30_issda_200,200,rng-200,51,rng,num-start-781,781,25726,19.914544582366943,True,,True,1,False,1000,True,1.0
./expes/v2_2020-12-06_dh_200-prng-1,30_issda_200,200,rng-200,151,rng,num-start-281,281,25726,6.880334377288818,True,,True,1,False,1000,True,1.0
./expes/v2_2020-12-06_dh_200-prng-1,30_issda_200,200,rng-200,131,rng,num-start-711,711,25726,17.39212131500244,True,,True,1,False,1000,True,1.0
./expes/v2_2020-12-06_dh_200-prng-1,30_issda_200,200,rng-200,111,rng,num-start-521,521,25726,12.581559181213379,True,,True,1,False,1000,True,1.0
./expes/v2_2020-12-06_dh_200-prng-1,30_issda_200,200,rng-200,1,rng,num-start-501,501,25726,11.423880815505981,True,,True,1,False,1000,True,1.0
./expes/v2_2020-12-06_dh_200-prng-1,30_issda_200,200,rng-200,71,rng,num-start-791,791,25726,20.351457595825195,True,,True,1,False,1000,True,1.0
./expes/v2_2020-12-06_dh_200-prng-1,30_issda_200,200,rng-200,131,rng,num-start-661,661,25726,16.19687032699585,True,,True,1,False,1000,True,1.0
./expes/v2_2020-12-06_dh_200-prng-1,30_issda_200,200,rng-200,101,rng,num-start-261,261,25726,7.7025017738342285,True,,True,1,False,1000,True,1.0
./expes/v2_2020-12-06_dh_200-prng-1,30_issda_200,200,rng-200,91,rng,num-start-1,1,25726,0.3829686641693115,False,,False,2,False,1000,True,1.0
./expes/v2_2020-12-06_dh_200-prng-1,30_issda_200,200,rng-200,31,rng,num-start-531,531,25726,12.95885443687439,True,,True,1,False,1000,True,1.0
./expes/v2_2020-12-06_dh_200-prng-1,30_issda_200,200,rng-200,1,rng,num-start-761,761,25726,17.023300170898438,True,,True,1,False,1000,True,1.0
./expes/v2_2020-12-06_dh_200-prng-1,30_issda_200,200,rng-200,31,rng,num-start-791,791,25726,20.186521530151367,True,,True,1,False,1000,True,1.0
./expes/v2_2020-12-06_dh_200-prng-1,30_issda_200,200,rng-200,161,rng,num-start-11,11,25726,1000.5635046958923,False,,False,0,True,1000,True,0.0
./expes/v2_2020-12-06_dh_200-prng-1,30_issda_200,200,rng-200,61,rng,num-start-581,581,25726,15.218384504318237,True,,True,1,False,1000,True,1.0
./expes/v2_2020-12-06_dh_200-prng-1,30_issda_200,200,rng-200,81,rng,num-start-591,591,25726,13.956121921539307,True,,True,1,False,1000,True,1.0
./expes/v2_2020-12-06_dh_200-prng-1,30_issda_200,200,rng-200,121,rng,num-start-171,171,25726,4.493714809417725,True,,True,1,False,1000,True,1.0
./expes/v2_2020-12-06_dh_200-prng-1,30_issda_200,200,rng-200,81,rng,num-start-631,631,25726,14.863712310791016,True,,True,1,False,1000,True,1.0
./expes/v2_2020-12-06_dh_200-prng-1,30_issda_200,200,rng-200,51,rng,num-start-271,271,25726,11.066661834716797,True,,True,1,False,1000,True,1.0
./expes/v2_2020-12-06_dh_200-prng-1,30_issda_200,200,rng-200,181,rng,num-start-211,211,25726,4.7401649951934814,True,,True,1,False,1000,True,1.0
./expes/v2_2020-12-06_dh_200-prng-1,30_issda_200,200,rng-200,41,rng,num-start-81,81,25726,10.93851923942566,True,,True,1,False,1000,True,1.0
./expes/v2_2020-12-06_dh_200-prng-1,30_issda_200,200,rng-200,141,rng,num-start-861,861,25726,21.043338537216187,True,,True,1,False,1000,True,1.0
./expes/v2_2020-12-06_dh_200-prng-1,30_issda_200,200,rng-200,21,rng,num-start-521,521,25726,17.007815837860107,True,,True,1,False,1000,True,1.0
./expes/v2_2020-12-06_dh_200-prng-1,30_issda_200,200,rng-200,91,rng,num-start-921,921,25726,21.254083395004272,True,,True,1,False,1000,True,1.0
./expes/v2_2020-12-06_dh_200-prng-1,30_issda_200,200,rng-200,151,rng,num-start-221,221,25726,5.733234405517578,True,,True,1,False,1000,True,1.0
./expes/v2_2020-12-06_dh_200-prng-1,30_issda_200,200,rng-200,171,rng,num-start-341,341,25726,8.226959943771362,True,,True,1,False,1000,True,1.0
./expes/v2_2020-12-06_dh_200-prng-1,30_issda_200,200,rng-200,11,rng,num-start-571,571,25726,11.687933206558228,True,,True,1,False,1000,True,1.0
./expes/v2_2020-12-06_dh_200-prng-1,30_issda_200,200,rng-200,91,rng,num-start-731,731,25726,18.741056442260742,True,,True,1,False,1000,True,1.0
./expes/v2_2020-12-06_dh_200-prng-1,30_issda_200,200,rng-200,121,rng,num-start-311,311,25726,7.338990211486816,True,,True,1,False,1000,True,1.0
./expes/v2_2020-12-06_dh_200-prng-1,30_issda_200,200,rng-200,91,rng,num-start-151,151,25726,4.979215383529663,True,,True,1,False,1000,True,1.0
./expes/v2_2020-12-06_dh_200-prng-1,30_issda_200,200,rng-200,141,rng,num-start-911,911,25726,29.36208200454712,True,,True,1,False,1000,True,1.0
./expes/v2_2020-12-06_dh_200-prng-1,30_issda_200,200,rng-200,41,rng,num-start-771,771,25726,21.135613203048706,True,,True,1,False,1000,True,1.0
./expes/v2_2020-12-06_dh_200-prng-1,30_issda_200,200,rng-200,161,rng,num-start-271,271,25726,5.904212951660156,True,,True,1,False,1000,True,1.0
./expes/v2_2020-12-06_dh_200-prng-1,30_issda_200,200,rng-200,171,rng,num-start-921,921,25726,21.897944927215576,True,,True,1,False,1000,True,1.0
./expes/v2_2020-12-06_dh_200-prng-1,30_issda_200,200,rng-200,181,rng,num-start-941,941,25726,35.30910515785217,True,,True,1,False,1000,True,1.0
./expes/v2_2020-12-06_dh_200-prng-1,30_issda_200,200,rng-200,1,rng,num-start-571,571,25726,31.62621259689331,True,,True,1,False,1000,True,1.0
./expes/v2_2020-12-06_dh_200-prng-1,30_issda_200,200,rng-200,101,rng,num-start-201,201,25726,5.11819863319397,True,,True,1,False,1000,True,1.0
./expes/v2_2020-12-06_dh_200-prng-1,30_issda_200,200,rng-200,141,rng,num-start-261,261,25726,7.100544452667236,True,,True,1,False,1000,True,1.0
./expes/v2_2020-12-06_dh_200-prng-1,30_issda_200,200,rng-200,151,rng,num-start-451,451,25726,23.641353130340576,True,,True,1,False,1000,True,1.0
./expes/v2_2020-12-06_dh_200-prng-1,30_issda_200,200,rng-200,41,rng,num-start-911,911,25726,20.65396809577942,True,,True,1,False,1000,True,1.0
./expes/v2_2020-12-06_dh_200-prng-1,30_issda_200,200,rng-200,91,rng,num-start-191,191,25726,8.89090347290039,True,,True,1,False,1000,True,1.0
./expes/v2_2020-12-06_dh_200-prng-1,30_issda_200,200,rng-200,181,rng,num-start-661,661,25726,21.64591908454895,True,,True,1,False,1000,True,1.0
./expes/v2_2020-12-06_dh_200-prng-1,30_issda_200,200,rng-200,111,rng,num-start-891,891,25726,20.418977975845337,True,,True,1,False,1000,True,1.0
./expes/v2_2020-12-06_dh_200-prng-1,30_issda_200,200,rng-200,41,rng,num-start-261,261,25726,7.0626702308654785,True,,True,1,False,1000,True,1.0
./expes/v2_2020-12-06_dh_200-prng-1,30_issda_200,200,rng-200,41,rng,num-start-631,631,25726,27.775687217712402,True,,True,1,False,1000,True,1.0
./expes/v2_2020-12-06_dh_200-prng-1,30_issda_200,200,rng-200,51,rng,num-start-31,31,25726,1005.2837388515472,False,,False,0,True,1000,True,0.0
./expes/v2_2020-12-06_dh_200-prng-1,30_issda_200,200,rng-200,61,rng,num-start-41,41,25726,1001.381498336792,False,,False,0,True,1000,True,0.0
./expes/v2_2020-12-06_dh_200-prng-1,30_issda_200,200,rng-200,151,rng,num-start-81,81,25726,34.307537317276,True,,True,1,False,1000,True,1.0
./expes/v2_2020-12-06_dh_200-prng-1,30_issda_200,200,rng-200,81,rng,num-start-321,321,25726,7.948636531829834,True,,True,1,False,1000,True,1.0
./expes/v2_2020-12-06_dh_200-prng-1,30_issda_200,200,rng-200,81,rng,num-start-531,531,25726,12.847240924835205,True,,True,1,False,1000,True,1.0
./expes/v2_2020-12-06_dh_200-prng-1,30_issda_200,200,rng-200,81,rng,num-start-421,421,25726,10.456597805023193,True,,True,1,False,1000,True,1.0
./expes/v2_2020-12-06_dh_200-prng-1,30_issda_200,200,rng-200,41,rng,num-start-401,401,25726,9.632595300674438,True,,True,1,False,1000,True,1.0
./expes/v2_2020-12-06_dh_200-prng-1,30_issda_200,200,rng-200,111,rng,num-start-171,171,25726,22.864295959472656,True,,True,1,False,1000,True,1.0
./expes/v2_2020-12-06_dh_200-prng-1,30_issda_200,200,rng-200,31,rng,num-start-741,741,25726,16.760459899902344,True,,True,1,False,1000,True,1.0
./expes/v2_2020-12-06_dh_200-prng-1,30_issda_200,200,rng-200,71,rng,num-start-871,871,25726,21.058403730392456,True,,True,1,False,1000,True,1.0
./expes/v2_2020-12-06_dh_200-prng-1,30_issda_200,200,rng-200,141,rng,num-start-691,691,25726,16.622474193572998,True,,True,1,False,1000,True,1.0
./expes/v2_2020-12-06_dh_200-prng-1,30_issda_200,200,rng-200,181,rng,num-start-861,861,25726,18.983003854751587,True,,True,1,False,1000,True,1.0
./expes/v2_2020-12-06_dh_200-prng-1,30_issda_200,200,rng-200,111,rng,num-start-681,681,25726,15.300889492034912,True,,True,1,False,1000,True,1.0
./expes/v2_2020-12-06_dh_200-prng-1,30_issda_200,200,rng-200,121,rng,num-start-211,211,25726,17.146018028259277,True,,True,1,False,1000,True,1.0
./expes/v2_2020-12-06_dh_200-prng-1,30_issda_200,200,rng-200,151,rng,num-start-41,41,25726,1001.6489043235779,False,,False,0,True,1000,True,0.0
./expes/v2_2020-12-06_dh_200-prng-1,30_issda_200,200,rng-200,121,rng,num-start-611,611,25726,14.688762903213501,True,,True,1,False,1000,True,1.0
./expes/v2_2020-12-06_dh_200-prng-1,30_issda_200,200,rng-200,141,rng,num-start-511,511,25726,19.859935522079468,True,,True,1,False,1000,True,1.0
./expes/v2_2020-12-06_dh_200-prng-1,30_issda_200,200,rng-200,31,rng,num-start-731,731,25726,18.288861989974976,True,,True,1,False,1000,True,1.0
./expes/v2_2020-12-06_dh_200-prng-1,30_issda_200,200,rng-200,151,rng,num-start-991,991,25726,23.777923822402954,True,,True,1,False,1000,True,1.0
./expes/v2_2020-12-06_dh_200-prng-1,30_issda_200,200,rng-200,11,rng,num-start-341,341,25726,7.922201871871948,True,,True,1,False,1000,True,1.0
./expes/v2_2020-12-06_dh_200-prng-1,30_issda_200,200,rng-200,21,rng,num-start-781,781,25726,23.25535225868225,True,,True,1,False,1000,True,1.0
./expes/v2_2020-12-06_dh_200-prng-1,30_issda_200,200,rng-200,141,rng,num-start-511,511,25726,30.568583250045776,True,,True,1,False,1000,True,1.0
./expes/v2_2020-12-06_dh_200-prng-1,30_issda_200,200,rng-200,1,rng,num-start-901,901,25726,20.432273387908936,True,,True,1,False,1000,True,1.0
./expes/v2_2020-12-06_dh_200-prng-1,30_issda_200,200,rng-200,141,rng,num-start-281,281,25726,7.026545524597168,True,,True,1,False,1000,True,1.0
./expes/v2_2020-12-06_dh_200-prng-1,30_issda_200,200,rng-200,91,rng,num-start-771,771,25726,19.98050308227539,True,,True,1,False,1000,True,1.0
./expes/v2_2020-12-06_dh_200-prng-1,30_issda_200,200,rng-200,151,rng,num-start-991,991,25726,28.63841676712036,True,,True,1,False,1000,True,1.0
./expes/v2_2020-12-06_dh_200-prng-1,30_issda_200,200,rng-200,151,rng,num-start-931,931,25726,22.134891748428345,True,,True,1,False,1000,True,1.0
./expes/v2_2020-12-06_dh_200-prng-1,30_issda_200,200,rng-200,151,rng,num-start-471,471,25726,11.00803017616272,True,,True,1,False,1000,True,1.0
./expes/v2_2020-12-06_dh_200-prng-1,30_issda_200,200,rng-200,171,rng,num-start-751,751,25726,22.83204674720764,True,,True,1,False,1000,True,1.0
./expes/v2_2020-12-06_dh_200-prng-1,30_issda_200,200,rng-200,191,rng,num-start-171,171,25726,4.052071809768677,True,,True,1,False,1000,True,1.0
./expes/v2_2020-12-06_dh_200-prng-1,30_issda_200,200,rng-200,121,rng,num-start-901,901,25726,29.317803144454956,True,,True,1,False,1000,True,1.0
./expes/v2_2020-12-06_dh_200-prng-1,30_issda_200,200,rng-200,111,rng,num-start-511,511,25726,18.5063898563385,True,,True,1,False,1000,True,1.0
./expes/v2_2020-12-06_dh_200-prng-1,30_issda_200,200,rng-200,91,rng,num-start-741,741,25726,20.30650019645691,True,,True,1,False,1000,True,1.0
./expes/v2_2020-12-06_dh_200-prng-1,30_issda_200,200,rng-200,181,rng,num-start-21,21,25726,389.02228689193726,True,,True,1,False,1000,True,1.0
./expes/v2_2020-12-06_dh_200-prng-1,30_issda_200,200,rng-200,111,rng,num-start-521,521,25726,20.76113748550415,True,,True,1,False,1000,True,1.0
./expes/v2_2020-12-06_dh_200-prng-1,30_issda_200,200,rng-200,101,rng,num-start-301,301,25726,13.792766809463501,True,,True,1,False,1000,True,1.0
./expes/v2_2020-12-06_dh_200-prng-1,30_issda_200,200,rng-200,181,rng,num-start-671,671,25726,28.08821988105774,True,,True,1,False,1000,True,1.0
./expes/v2_2020-12-06_dh_200-prng-1,30_issda_200,200,rng-200,61,rng,num-start-291,291,25726,8.592803955078125,True,,True,1,False,1000,True,1.0
./expes/v2_2020-12-06_dh_200-prng-1,30_issda_200,200,rng-200,191,rng,num-start-351,351,25726,8.448861837387085,True,,True,1,False,1000,True,1.0
./expes/v2_2020-12-06_dh_200-prng-1,30_issda_200,200,rng-200,51,rng,num-start-331,331,25726,21.020643711090088,True,,True,1,False,1000,True,1.0
./expes/v2_2020-12-06_dh_200-prng-1,30_issda_200,200,rng-200,1,rng,num-start-241,241,25726,5.703256130218506,True,,True,1,False,1000,True,1.0
./expes/v2_2020-12-06_dh_200-prng-1,30_issda_200,200,rng-200,71,rng,num-start-881,881,25726,25.356444358825684,True,,True,1,False,1000,True,1.0
./expes/v2_2020-12-06_dh_200-prng-1,30_issda_200,200,rng-200,81,rng,num-start-591,591,25726,15.014861345291138,True,,True,1,False,1000,True,1.0
./expes/v2_2020-12-06_dh_200-prng-1,30_issda_200,200,rng-200,111,rng,num-start-781,781,25726,19.132466077804565,True,,True,1,False,1000,True,1.0
./expes/v2_2020-12-06_dh_200-prng-1,30_issda_200,200,rng-200,21,rng,num-start-821,821,25726,20.34432339668274,True,,True,1,False,1000,True,1.0
./expes/v2_2020-12-06_dh_200-prng-1,30_issda_200,200,rng-200,191,rng,num-start-281,281,25726,7.017137765884399,True,,True,1,False,1000,True,1.0
./expes/v2_2020-12-06_dh_200-prng-1,30_issda_200,200,rng-200,101,rng,num-start-731,731,25726,23.732975482940674,True,,True,1,False,1000,True,1.0
./expes/v2_2020-12-06_dh_200-prng-1,30_issda_200,200,rng-200,161,rng,num-start-901,901,25726,25.067106246948242,True,,True,1,False,1000,True,1.0
./expes/v2_2020-12-06_dh_200-prng-1,30_issda_200,200,rng-200,61,rng,num-start-141,141,25726,3.6909537315368652,True,,True,1,False,1000,True,1.0
./expes/v2_2020-12-06_dh_200-prng-1,30_issda_200,200,rng-200,151,rng,num-start-721,721,25726,18.500820636749268,True,,True,1,False,1000,True,1.0
./expes/v2_2020-12-06_dh_200-prng-1,30_issda_200,200,rng-200,71,rng,num-start-591,591,25726,15.289375066757202,True,,True,1,False,1000,True,1.0
./expes/v2_2020-12-06_dh_200-prng-1,30_issda_200,200,rng-200,51,rng,num-start-581,581,25726,14.771149158477783,True,,True,1,False,1000,True,1.0
./expes/v2_2020-12-06_dh_200-prng-1,30_issda_200,200,rng-200,151,rng,num-start-121,121,25726,3.1543350219726562,True,,True,1,False,1000,True,1.0
./expes/v2_2020-12-06_dh_200-prng-1,30_issda_200,200,rng-200,31,rng,num-start-401,401,25726,11.480562686920166,True,,True,1,False,1000,True,1.0
./expes/v2_2020-12-06_dh_200-prng-1,30_issda_200,200,rng-200,41,rng,num-start-51,51,25726,15.948075532913208,True,,True,1,False,1000,True,1.0
./expes/v2_2020-12-06_dh_200-prng-1,30_issda_200,200,rng-200,181,rng,num-start-751,751,25726,18.24923062324524,True,,True,1,False,1000,True,1.0
./expes/v2_2020-12-06_dh_200-prng-1,30_issda_200,200,rng-200,31,rng,num-start-21,21,25726,1015.4254553318024,False,,False,0,True,1000,True,0.0
./expes/v2_2020-12-06_dh_200-prng-1,30_issda_200,200,rng-200,161,rng,num-start-791,791,25726,30.013996362686157,True,,True,1,False,1000,True,1.0
./expes/v2_2020-12-06_dh_200-prng-1,30_issda_200,200,rng-200,111,rng,num-start-621,621,25726,26.14260959625244,True,,True,1,False,1000,True,1.0
./expes/v2_2020-12-06_dh_200-prng-1,30_issda_200,200,rng-200,131,rng,num-start-741,741,25726,43.49827289581299,True,,True,1,False,1000,True,1.0
./expes/v2_2020-12-06_dh_200-prng-1,30_issda_200,200,rng-200,181,rng,num-start-171,171,25726,4.030677556991577,True,,True,1,False,1000,True,1.0
./expes/v2_2020-12-06_dh_200-prng-1,30_issda_200,200,rng-200,171,rng,num-start-351,351,25726,9.241770267486572,True,,True,1,False,1000,True,1.0
./expes/v2_2020-12-06_dh_200-prng-1,30_issda_200,200,rng-200,81,rng,num-start-171,171,25726,4.273831844329834,True,,True,1,False,1000,True,1.0
./expes/v2_2020-12-06_dh_200-prng-1,30_issda_200,200,rng-200,181,rng,num-start-441,441,25726,10.267704963684082,True,,True,1,False,1000,True,1.0
./expes/v2_2020-12-06_dh_200-prng-1,30_issda_200,200,rng-200,51,rng,num-start-441,441,25726,15.98263955116272,True,,True,1,False,1000,True,1.0
./expes/v2_2020-12-06_dh_200-prng-1,30_issda_200,200,rng-200,81,rng,num-start-231,231,25726,6.295126914978027,True,,True,1,False,1000,True,1.0
./expes/v2_2020-12-06_dh_200-prng-1,30_issda_200,200,rng-200,121,rng,num-start-971,971,25726,29.582037210464478,True,,True,1,False,1000,True,1.0
./expes/v2_2020-12-06_dh_200-prng-1,30_issda_200,200,rng-200,111,rng,num-start-391,391,25726,13.804002046585083,True,,True,1,False,1000,True,1.0
./expes/v2_2020-12-06_dh_200-prng-1,30_issda_200,200,rng-200,41,rng,num-start-951,951,25726,25.987887620925903,True,,True,1,False,1000,True,1.0
./expes/v2_2020-12-06_dh_200-prng-1,30_issda_200,200,rng-200,191,rng,num-start-371,371,25726,11.165557861328125,True,,True,1,False,1000,True,1.0
./expes/v2_2020-12-06_dh_200-prng-1,30_issda_200,200,rng-200,131,rng,num-start-131,131,25726,3.3683435916900635,True,,True,1,False,1000,True,1.0
./expes/v2_2020-12-06_dh_200-prng-1,30_issda_200,200,rng-200,91,rng,num-start-511,511,25726,13.329721450805664,True,,True,1,False,1000,True,1.0
./expes/v2_2020-12-06_dh_200-prng-1,30_issda_200,200,rng-200,171,rng,num-start-891,891,25726,30.632418632507324,True,,True,1,False,1000,True,1.0
./expes/v2_2020-12-06_dh_200-prng-1,30_issda_200,200,rng-200,31,rng,num-start-251,251,25726,6.261894702911377,True,,True,1,False,1000,True,1.0
./expes/v2_2020-12-06_dh_200-prng-1,30_issda_200,200,rng-200,161,rng,num-start-91,91,25726,4.394453287124634,True,,True,1,False,1000,True,1.0
./expes/v2_2020-12-06_dh_200-prng-1,30_issda_200,200,rng-200,41,rng,num-start-541,541,25726,25.04771614074707,True,,True,1,False,1000,True,1.0
./expes/v2_2020-12-06_dh_200-prng-1,30_issda_200,200,rng-200,181,rng,num-start-661,661,25726,17.709168434143066,True,,True,1,False,1000,True,1.0
./expes/v2_2020-12-06_dh_200-prng-1,30_issda_200,200,rng-200,41,rng,num-start-941,941,25726,24.892140865325928,True,,True,1,False,1000,True,1.0
./expes/v2_2020-12-06_dh_200-prng-1,30_issda_200,200,rng-200,171,rng,num-start-11,11,25726,1001.0006062984467,False,,False,0,True,1000,True,0.0
./expes/v2_2020-12-06_dh_200-prng-1,30_issda_200,200,rng-200,151,rng,num-start-211,211,25726,22.383171558380127,True,,True,1,False,1000,True,1.0
./expes/v2_2020-12-06_dh_200-prng-1,30_issda_200,200,rng-200,91,rng,num-start-11,11,25726,1000.3816168308258,False,,False,0,True,1000,True,0.0
./expes/v2_2020-12-06_dh_200-prng-1,30_issda_200,200,rng-200,11,rng,num-start-71,71,25726,1.8773658275604248,True,,True,1,False,1000,True,1.0
./expes/v2_2020-12-06_dh_200-prng-1,30_issda_200,200,rng-200,21,rng,num-start-441,441,25726,10.898575067520142,True,,True,1,False,1000,True,1.0
./expes/v2_2020-12-06_dh_200-prng-1,30_issda_200,200,rng-200,101,rng,num-start-721,721,25726,17.2488911151886,True,,True,1,False,1000,True,1.0
./expes/v2_2020-12-06_dh_200-prng-1,30_issda_200,200,rng-200,131,rng,num-start-871,871,25726,31.736684322357178,True,,True,1,False,1000,True,1.0
./expes/v2_2020-12-06_dh_200-prng-1,30_issda_200,200,rng-200,81,rng,num-start-461,461,25726,25.315216779708862,True,,True,1,False,1000,True,1.0
./expes/v2_2020-12-06_dh_200-prng-1,30_issda_200,200,rng-200,61,rng,num-start-261,261,25726,6.383134126663208,True,,True,1,False,1000,True,1.0
./expes/v2_2020-12-06_dh_200-prng-1,30_issda_200,200,rng-200,131,rng,num-start-921,921,25726,22.543065786361694,True,,True,1,False,1000,True,1.0
./expes/v2_2020-12-06_dh_200-prng-1,30_issda_200,200,rng-200,31,rng,num-start-181,181,25726,4.858702898025513,True,,True,1,False,1000,True,1.0
./expes/v2_2020-12-06_dh_200-prng-1,30_issda_200,200,rng-200,141,rng,num-start-611,611,25726,18.7176730632782,True,,True,1,False,1000,True,1.0
./expes/v2_2020-12-06_dh_200-prng-1,30_issda_200,200,rng-200,171,rng,num-start-321,321,25726,7.887794494628906,True,,True,1,False,1000,True,1.0
./expes/v2_2020-12-06_dh_200-prng-1,30_issda_200,200,rng-200,191,rng,num-start-801,801,25726,40.56691241264343,True,,True,1,False,1000,True,1.0
./expes/v2_2020-12-06_dh_200-prng-1,30_issda_200,200,rng-200,31,rng,num-start-281,281,25726,14.509855270385742,True,,True,1,False,1000,True,1.0
./expes/v2_2020-12-06_dh_200-prng-1,30_issda_200,200,rng-200,91,rng,num-start-111,111,25726,11.128221273422241,True,,True,1,False,1000,True,1.0
./expes/v2_2020-12-06_dh_200-prng-1,30_issda_200,200,rng-200,1,rng,num-start-541,541,25726,28.51625156402588,True,,True,1,False,1000,True,1.0
./expes/v2_2020-12-06_dh_200-prng-1,30_issda_200,200,rng-200,21,rng,num-start-441,441,25726,11.029157161712646,True,,True,1,False,1000,True,1.0
./expes/v2_2020-12-06_dh_200-prng-1,30_issda_200,200,rng-200,151,rng,num-start-61,61,25726,3.9724252223968506,True,,True,1,False,1000,True,1.0
./expes/v2_2020-12-06_dh_200-prng-1,30_issda_200,200,rng-200,121,rng,num-start-301,301,25726,7.33695650100708,True,,True,1,False,1000,True,1.0
./expes/v2_2020-12-06_dh_200-prng-1,30_issda_200,200,rng-200,191,rng,num-start-781,781,25726,17.48635244369507,True,,True,1,False,1000,True,1.0
./expes/v2_2020-12-06_dh_200-prng-1,30_issda_200,200,rng-200,131,rng,num-start-91,91,25726,5.706753969192505,True,,True,1,False,1000,True,1.0
./expes/v2_2020-12-06_dh_200-prng-1,30_issda_200,200,rng-200,101,rng,num-start-521,521,25726,24.877400398254395,True,,True,1,False,1000,True,1.0
./expes/v2_2020-12-06_dh_200-prng-1,30_issda_200,200,rng-200,181,rng,num-start-441,441,25726,26.959855556488037,True,,True,1,False,1000,True,1.0
./expes/v2_2020-12-06_dh_200-prng-1,30_issda_200,200,rng-200,21,rng,num-start-201,201,25726,4.727341651916504,True,,True,1,False,1000,True,1.0
./expes/v2_2020-12-06_dh_200-prng-1,30_issda_200,200,rng-200,61,rng,num-start-701,701,25726,17.15626835823059,True,,True,1,False,1000,True,1.0
./expes/v2_2020-12-06_dh_200-prng-1,30_issda_200,200,rng-200,81,rng,num-start-541,541,25726,12.700842142105103,True,,True,1,False,1000,True,1.0
./expes/v2_2020-12-06_dh_200-prng-1,30_issda_200,200,rng-200,11,rng,num-start-301,301,25726,7.373816251754761,True,,True,1,False,1000,True,1.0
./expes/v2_2020-12-06_dh_200-prng-1,30_issda_200,200,rng-200,121,rng,num-start-771,771,25726,28.87037491798401,True,,True,1,False,1000,True,1.0
./expes/v2_2020-12-06_dh_200-prng-1,30_issda_200,200,rng-200,141,rng,num-start-761,761,25726,18.59541630744934,True,,True,1,False,1000,True,1.0
./expes/v2_2020-12-06_dh_200-prng-1,30_issda_200,200,rng-200,51,rng,num-start-841,841,25726,23.057435512542725,True,,True,1,False,1000,True,1.0
./expes/v2_2020-12-06_dh_200-prng-1,30_issda_200,200,rng-200,51,rng,num-start-701,701,25726,17.091112852096558,True,,True,1,False,1000,True,1.0
./expes/v2_2020-12-06_dh_200-prng-1,30_issda_200,200,rng-200,71,rng,num-start-191,191,25726,12.42918086051941,True,,True,1,False,1000,True,1.0
./expes/v2_2020-12-06_dh_200-prng-1,30_issda_200,200,rng-200,111,rng,num-start-851,851,25726,21.18923807144165,True,,True,1,False,1000,True,1.0
./expes/v2_2020-12-06_dh_200-prng-1,30_issda_200,200,rng-200,41,rng,num-start-941,941,25726,22.649219036102295,True,,True,1,False,1000,True,1.0
./expes/v2_2020-12-06_dh_200-prng-1,30_issda_200,200,rng-200,171,rng,num-start-821,821,25726,20.111940383911133,True,,True,1,False,1000,True,1.0
./expes/v2_2020-12-06_dh_200-prng-1,30_issda_200,200,rng-200,121,rng,num-start-921,921,25726,23.964014768600464,True,,True,1,False,1000,True,1.0
./expes/v2_2020-12-06_dh_200-prng-1,30_issda_200,200,rng-200,91,rng,num-start-881,881,25726,30.275142192840576,True,,True,1,False,1000,True,1.0
./expes/v2_2020-12-06_dh_200-prng-1,30_issda_200,200,rng-200,171,rng,num-start-561,561,25726,14.060753107070923,True,,True,1,False,1000,True,1.0
./expes/v2_2020-12-06_dh_200-prng-1,30_issda_200,200,rng-200,121,rng,num-start-991,991,25726,47.47208786010742,True,,True,1,False,1000,True,1.0
./expes/v2_2020-12-06_dh_200-prng-1,30_issda_200,200,rng-200,131,rng,num-start-641,641,25726,15.413891315460205,True,,True,1,False,1000,True,1.0
./expes/v2_2020-12-06_dh_200-prng-1,30_issda_200,200,rng-200,181,rng,num-start-391,391,25726,9.715531826019287,True,,True,1,False,1000,True,1.0
./expes/v2_2020-12-06_dh_200-prng-1,30_issda_200,200,rng-200,131,rng,num-start-141,141,25726,3.395768165588379,True,,True,1,False,1000,True,1.0
./expes/v2_2020-12-06_dh_200-prng-1,30_issda_200,200,rng-200,101,rng,num-start-31,31,25726,1005.334064245224,False,,False,0,True,1000,True,0.0
./expes/v2_2020-12-06_dh_200-prng-1,30_issda_200,200,rng-200,191,rng,num-start-201,201,25726,6.180208206176758,True,,True,1,False,1000,True,1.0
./expes/v2_2020-12-06_dh_200-prng-1,30_issda_200,200,rng-200,191,rng,num-start-181,181,25726,23.706019401550293,True,,True,1,False,1000,True,1.0
./expes/v2_2020-12-06_dh_200-prng-1,30_issda_200,200,rng-200,51,rng,num-start-471,471,25726,18.15302562713623,True,,True,1,False,1000,True,1.0
./expes/v2_2020-12-06_dh_200-prng-1,30_issda_200,200,rng-200,71,rng,num-start-351,351,25726,9.714860439300537,True,,True,1,False,1000,True,1.0
./expes/v2_2020-12-06_dh_200-prng-1,30_issda_200,200,rng-200,91,rng,num-start-491,491,25726,42.69245266914368,True,,True,1,False,1000,True,1.0
./expes/v2_2020-12-06_dh_200-prng-1,30_issda_200,200,rng-200,31,rng,num-start-971,971,25726,23.23038077354431,True,,True,1,False,1000,True,1.0
./expes/v2_2020-12-06_dh_200-prng-1,30_issda_200,200,rng-200,21,rng,num-start-961,961,25726,26.88021492958069,True,,True,1,False,1000,True,1.0
./expes/v2_2020-12-06_dh_200-prng-1,30_issda_200,200,rng-200,11,rng,num-start-381,381,25726,18.81509041786194,True,,True,1,False,1000,True,1.0
./expes/v2_2020-12-06_dh_200-prng-1,30_issda_200,200,rng-200,81,rng,num-start-751,751,25726,18.625566482543945,True,,True,1,False,1000,True,1.0
./expes/v2_2020-12-06_dh_200-prng-1,30_issda_200,200,rng-200,31,rng,num-start-121,121,25726,2.906141519546509,True,,True,1,False,1000,True,1.0
./expes/v2_2020-12-06_dh_200-prng-1,30_issda_200,200,rng-200,71,rng,num-start-981,981,25726,22.315900087356567,True,,True,1,False,1000,True,1.0
./expes/v2_2020-12-06_dh_200-prng-1,30_issda_200,200,rng-200,11,rng,num-start-121,121,25726,3.2971160411834717,True,,True,1,False,1000,True,1.0
./expes/v2_2020-12-06_dh_200-prng-1,30_issda_200,200,rng-200,61,rng,num-start-561,561,25726,15.785187721252441,True,,True,1,False,1000,True,1.0
./expes/v2_2020-12-06_dh_200-prng-1,30_issda_200,200,rng-200,151,rng,num-start-561,561,25726,14.649105548858643,True,,True,1,False,1000,True,1.0
./expes/v2_2020-12-06_dh_200-prng-1,30_issda_200,200,rng-200,101,rng,num-start-371,371,25726,10.081544876098633,True,,True,1,False,1000,True,1.0
./expes/v2_2020-12-06_dh_200-prng-1,30_issda_200,200,rng-200,141,rng,num-start-271,271,25726,12.907670736312866,True,,True,1,False,1000,True,1.0
./expes/v2_2020-12-06_dh_200-prng-1,30_issda_200,200,rng-200,11,rng,num-start-651,651,25726,14.880534887313843,True,,True,1,False,1000,True,1.0
./expes/v2_2020-12-06_dh_200-prng-1,30_issda_200,200,rng-200,51,rng,num-start-761,761,25726,19.1690514087677,True,,True,1,False,1000,True,1.0
./expes/v2_2020-12-06_dh_200-prng-1,30_issda_200,200,rng-200,111,rng,num-start-481,481,25726,11.441231727600098,True,,True,1,False,1000,True,1.0
./expes/v2_2020-12-06_dh_200-prng-1,30_issda_200,200,rng-200,131,rng,num-start-241,241,25726,6.476341009140015,True,,True,1,False,1000,True,1.0
./expes/v2_2020-12-06_dh_200-prng-1,30_issda_200,200,rng-200,191,rng,num-start-31,31,25726,1.0641684532165527,True,,True,1,False,1000,True,1.0
./expes/v2_2020-12-06_dh_200-prng-1,30_issda_200,200,rng-200,111,rng,num-start-11,11,25726,1000.6657667160034,False,,False,0,True,1000,True,0.0
./expes/v2_2020-12-06_dh_200-prng-1,30_issda_200,200,rng-200,41,rng,num-start-611,611,25726,14.429812669754028,True,,True,1,False,1000,True,1.0
./expes/v2_2020-12-06_dh_200-prng-1,30_issda_200,200,rng-200,11,rng,num-start-581,581,25726,13.179379224777222,True,,True,1,False,1000,True,1.0
./expes/v2_2020-12-06_dh_200-prng-1,30_issda_200,200,rng-200,191,rng,num-start-521,521,25726,10.982428550720215,True,,True,1,False,1000,True,1.0
./expes/v2_2020-12-06_dh_200-prng-1,30_issda_200,200,rng-200,111,rng,num-start-601,601,25726,14.278555870056152,True,,True,1,False,1000,True,1.0
./expes/v2_2020-12-06_dh_200-prng-1,30_issda_200,200,rng-200,171,rng,num-start-211,211,25726,4.851022958755493,True,,True,1,False,1000,True,1.0
./expes/v2_2020-12-06_dh_200-prng-1,30_issda_200,200,rng-200,151,rng,num-start-221,221,25726,5.23117733001709,True,,True,1,False,1000,True,1.0
./expes/v2_2020-12-06_dh_200-prng-1,30_issda_200,200,rng-200,91,rng,num-start-311,311,25726,7.469890832901001,True,,True,1,False,1000,True,1.0
./expes/v2_2020-12-06_dh_200-prng-1,30_issda_200,200,rng-200,1,rng,num-start-231,231,25726,4.697035789489746,True,,True,1,False,1000,True,1.0
./expes/v2_2020-12-06_dh_200-prng-1,30_issda_200,200,rng-200,101,rng,num-start-591,591,25726,13.539759397506714,True,,True,1,False,1000,True,1.0
./expes/v2_2020-12-06_dh_200-prng-1,30_issda_200,200,rng-200,111,rng,num-start-591,591,25726,13.58275580406189,True,,True,1,False,1000,True,1.0
./expes/v2_2020-12-06_dh_200-prng-1,30_issda_200,200,rng-200,151,rng,num-start-951,951,25726,21.493770599365234,True,,True,1,False,1000,True,1.0
./expes/v2_2020-12-06_dh_200-prng-1,30_issda_200,200,rng-200,151,rng,num-start-341,341,25726,7.965893507003784,True,,True,1,False,1000,True,1.0
./expes/v2_2020-12-06_dh_200-prng-1,30_issda_200,200,rng-200,191,rng,num-start-891,891,25726,18.614429235458374,True,,True,1,False,1000,True,1.0
./expes/v2_2020-12-06_dh_200-prng-1,30_issda_200,200,rng-200,151,rng,num-start-931,931,25726,20.959370374679565,True,,True,1,False,1000,True,1.0
./expes/v2_2020-12-06_dh_200-prng-1,30_issda_200,200,rng-200,81,rng,num-start-611,611,25726,15.239312887191772,True,,True,1,False,1000,True,1.0
./expes/v2_2020-12-06_dh_200-prng-1,30_issda_200,200,rng-200,81,rng,num-start-671,671,25726,15.649582862854004,True,,True,1,False,1000,True,1.0
./expes/v2_2020-12-06_dh_200-prng-1,30_issda_200,200,rng-200,1,rng,num-start-941,941,25726,19.26028323173523,True,,True,1,False,1000,True,1.0
./expes/v2_2020-12-06_dh_200-prng-1,30_issda_200,200,rng-200,21,rng,num-start-991,991,25726,22.94369649887085,True,,True,1,False,1000,True,1.0
./expes/v2_2020-12-06_dh_200-prng-1,30_issda_200,200,rng-200,41,rng,num-start-571,571,25726,13.882585525512695,True,,True,1,False,1000,True,1.0
./expes/v2_2020-12-06_dh_200-prng-1,30_issda_200,200,rng-200,141,rng,num-start-431,431,25726,10.904883623123169,True,,True,1,False,1000,True,1.0
./expes/v2_2020-12-06_dh_200-prng-1,30_issda_200,200,rng-200,31,rng,num-start-91,91,25726,2.197335958480835,True,,True,1,False,1000,True,1.0
./expes/v2_2020-12-06_dh_200-prng-1,30_issda_200,200,rng-200,81,rng,num-start-751,751,25726,18.09589147567749,True,,True,1,False,1000,True,1.0
./expes/v2_2020-12-06_dh_200-prng-1,30_issda_200,200,rng-200,71,rng,num-start-311,311,25726,7.020543336868286,True,,True,1,False,1000,True,1.0
./expes/v2_2020-12-06_dh_200-prng-1,30_issda_200,200,rng-200,41,rng,num-start-731,731,25726,18.034653186798096,True,,True,1,False,1000,True,1.0
./expes/v2_2020-12-06_dh_200-prng-1,30_issda_200,200,rng-200,81,rng,num-start-901,901,25726,21.17556595802307,True,,True,1,False,1000,True,1.0
./expes/v2_2020-12-06_dh_200-prng-1,30_issda_200,200,rng-200,101,rng,num-start-11,11,25726,1000.5364615917206,False,,False,0,True,1000,True,0.0
./expes/v2_2020-12-06_dh_200-prng-1,30_issda_200,200,rng-200,51,rng,num-start-481,481,25726,11.585727214813232,True,,True,1,False,1000,True,1.0
./expes/v2_2020-12-06_dh_200-prng-1,30_issda_200,200,rng-200,71,rng,num-start-991,991,25726,24.949514389038086,True,,True,1,False,1000,True,1.0
./expes/v2_2020-12-06_dh_200-prng-1,30_issda_200,200,rng-200,1,rng,num-start-751,751,25726,15.788387775421143,True,,True,1,False,1000,True,1.0
./expes/v2_2020-12-06_dh_200-prng-1,30_issda_200,200,rng-200,41,rng,num-start-971,971,25726,23.303792476654053,True,,True,1,False,1000,True,1.0
./expes/v2_2020-12-06_dh_200-prng-1,30_issda_200,200,rng-200,181,rng,num-start-351,351,25726,8.156816482543945,True,,True,1,False,1000,True,1.0
./expes/v2_2020-12-06_dh_200-prng-1,30_issda_200,200,rng-200,111,rng,num-start-211,211,25726,5.107871770858765,True,,True,1,False,1000,True,1.0
./expes/v2_2020-12-06_dh_200-prng-1,30_issda_200,200,rng-200,131,rng,num-start-961,961,25726,23.153851985931396,True,,True,1,False,1000,True,1.0
./expes/v2_2020-12-06_dh_200-prng-1,30_issda_200,200,rng-200,181,rng,num-start-731,731,25726,16.311748266220093,True,,True,1,False,1000,True,1.0
./expes/v2_2020-12-06_dh_200-prng-1,30_issda_200,200,rng-200,101,rng,num-start-271,271,25726,6.589251279830933,True,,True,1,False,1000,True,1.0
./expes/v2_2020-12-06_dh_200-prng-1,30_issda_200,200,rng-200,91,rng,num-start-351,351,25726,8.679014444351196,True,,True,1,False,1000,True,1.0
./expes/v2_2020-12-06_dh_200-prng-1,30_issda_200,200,rng-200,31,rng,num-start-241,241,25726,5.762244701385498,True,,True,1,False,1000,True,1.0
./expes/v2_2020-12-06_dh_200-prng-1,30_issda_200,200,rng-200,41,rng,num-start-451,451,25726,10.555081844329834,True,,True,1,False,1000,True,1.0
./expes/v2_2020-12-06_dh_200-prng-1,30_issda_200,200,rng-200,11,rng,num-start-591,591,25726,12.748563766479492,True,,True,1,False,1000,True,1.0
./expes/v2_2020-12-06_dh_200-prng-1,30_issda_200,200,rng-200,151,rng,num-start-511,511,25726,11.557109355926514,True,,True,1,False,1000,True,1.0
./expes/v2_2020-12-06_dh_200-prng-1,30_issda_200,200,rng-200,51,rng,num-start-671,671,25726,15.700085639953613,True,,True,1,False,1000,True,1.0
./expes/v2_2020-12-06_dh_200-prng-1,30_issda_200,200,rng-200,111,rng,num-start-611,611,25726,14.260308027267456,True,,True,1,False,1000,True,1.0
./expes/v2_2020-12-06_dh_200-prng-1,30_issda_200,200,rng-200,101,rng,num-start-991,991,25726,24.22614574432373,True,,True,1,False,1000,True,1.0
./expes/v2_2020-12-06_dh_200-prng-1,30_issda_200,200,rng-200,171,rng,num-start-161,161,25726,4.153821229934692,True,,True,1,False,1000,True,1.0
./expes/v2_2020-12-06_dh_200-prng-1,30_issda_200,200,rng-200,31,rng,num-start-41,41,25726,2.0067262649536133,True,,True,1,False,1000,True,1.0
./expes/v2_2020-12-06_dh_200-prng-1,30_issda_200,200,rng-200,21,rng,num-start-431,431,25726,9.899705648422241,True,,True,1,False,1000,True,1.0
./expes/v2_2020-12-06_dh_200-prng-1,30_issda_200,200,rng-200,71,rng,num-start-451,451,25726,11.161109685897827,True,,True,1,False,1000,True,1.0
./expes/v2_2020-12-06_dh_200-prng-1,30_issda_200,200,rng-200,171,rng,num-start-461,461,25726,10.831043004989624,True,,True,1,False,1000,True,1.0
./expes/v2_2020-12-06_dh_200-prng-1,30_issda_200,200,rng-200,121,rng,num-start-921,921,25726,22.322548389434814,True,,True,1,False,1000,True,1.0
./expes/v2_2020-12-06_dh_200-prng-1,30_issda_200,200,rng-200,131,rng,num-start-351,351,25726,9.041786909103394,True,,True,1,False,1000,True,1.0
./expes/v2_2020-12-06_dh_200-prng-1,30_issda_200,200,rng-200,61,rng,num-start-11,11,25726,1000.3319537639618,False,,False,0,True,1000,True,0.0
./expes/v2_2020-12-06_dh_200-prng-1,30_issda_200,200,rng-200,51,rng,num-start-91,91,25726,2.207751512527466,True,,True,1,False,1000,True,1.0
./expes/v2_2020-12-06_dh_200-prng-1,30_issda_200,200,rng-200,131,rng,num-start-541,541,25726,12.871063470840454,True,,True,1,False,1000,True,1.0
./expes/v2_2020-12-06_dh_200-prng-1,30_issda_200,200,rng-200,1,rng,num-start-151,151,25726,3.1240766048431396,True,,True,1,False,1000,True,1.0
./expes/v2_2020-12-06_dh_200-prng-1,30_issda_200,200,rng-200,121,rng,num-start-271,271,25726,6.033299207687378,True,,True,1,False,1000,True,1.0
./expes/v2_2020-12-06_dh_200-prng-1,30_issda_200,200,rng-200,111,rng,num-start-141,141,25726,3.4681684970855713,True,,True,1,False,1000,True,1.0
./expes/v2_2020-12-06_dh_200-prng-1,30_issda_200,200,rng-200,71,rng,num-start-571,571,25726,13.287600040435791,True,,True,1,False,1000,True,1.0
./expes/v2_2020-12-06_dh_200-prng-1,30_issda_200,200,rng-200,91,rng,num-start-631,631,25726,14.639117002487183,True,,True,1,False,1000,True,1.0
./expes/v2_2020-12-06_dh_200-prng-1,30_issda_200,200,rng-200,171,rng,num-start-741,741,25726,16.780867338180542,True,,True,1,False,1000,True,1.0
./expes/v2_2020-12-06_dh_200-prng-1,30_issda_200,200,rng-200,161,rng,num-start-51,51,25726,4.258243799209595,True,,True,1,False,1000,True,1.0
./expes/v2_2020-12-06_dh_200-prng-1,30_issda_200,200,rng-200,21,rng,num-start-311,311,25726,8.043335914611816,True,,True,1,False,1000,True,1.0
./expes/v2_2020-12-06_dh_200-prng-1,30_issda_200,200,rng-200,151,rng,num-start-361,361,25726,9.11195683479309,True,,True,1,False,1000,True,1.0
./expes/v2_2020-12-06_dh_200-prng-1,30_issda_200,200,rng-200,181,rng,num-start-941,941,25726,22.432227611541748,True,,True,1,False,1000,True,1.0
./expes/v2_2020-12-06_dh_200-prng-1,30_issda_200,200,rng-200,151,rng,num-start-711,711,25726,17.34513783454895,True,,True,1,False,1000,True,1.0
./expes/v2_2020-12-06_dh_200-prng-1,30_issda_200,200,rng-200,121,rng,num-start-111,111,25726,2.9516215324401855,True,,True,1,False,1000,True,1.0
./expes/v2_2020-12-06_dh_200-prng-1,30_issda_200,200,rng-200,161,rng,num-start-631,631,25726,15.39875340461731,True,,True,1,False,1000,True,1.0
./expes/v2_2020-12-06_dh_200-prng-1,30_issda_200,200,rng-200,41,rng,num-start-251,251,25726,9.938748359680176,True,,True,1,False,1000,True,1.0
./expes/v2_2020-12-06_dh_200-prng-1,30_issda_200,200,rng-200,61,rng,num-start-271,271,25726,6.595656156539917,True,,True,1,False,1000,True,1.0
./expes/v2_2020-12-06_dh_200-prng-1,30_issda_200,200,rng-200,41,rng,num-start-141,141,25726,3.6174943447113037,True,,True,1,False,1000,True,1.0
./expes/v2_2020-12-06_dh_200-prng-1,30_issda_200,200,rng-200,131,rng,num-start-711,711,25726,17.69708752632141,True,,True,1,False,1000,True,1.0
./expes/v2_2020-12-06_dh_200-prng-1,30_issda_200,200,rng-200,191,rng,num-start-81,81,25726,2.032606601715088,True,,True,1,False,1000,True,1.0
./expes/v2_2020-12-06_dh_200-prng-1,30_issda_200,200,rng-200,141,rng,num-start-301,301,25726,7.924780607223511,True,,True,1,False,1000,True,1.0
./expes/v2_2020-12-06_dh_200-prng-1,30_issda_200,200,rng-200,91,rng,num-start-11,11,25726,1000.8343880176544,False,,False,0,True,1000,True,0.0
./expes/v2_2020-12-06_dh_200-prng-1,30_issda_200,200,rng-200,61,rng,num-start-431,431,25726,10.44632077217102,True,,True,1,False,1000,True,1.0
./expes/v2_2020-12-06_dh_200-prng-1,30_issda_200,200,rng-200,101,rng,num-start-41,41,25726,1003.6586611270905,False,,False,0,True,1000,True,0.0
./expes/v2_2020-12-06_dh_200-prng-1,30_issda_200,200,rng-200,51,rng,num-start-251,251,25726,6.0469934940338135,True,,True,1,False,1000,True,1.0
./expes/v2_2020-12-06_dh_200-prng-1,30_issda_200,200,rng-200,81,rng,num-start-921,921,25726,21.639487743377686,True,,True,1,False,1000,True,1.0
./expes/v2_2020-12-06_dh_200-prng-1,30_issda_200,200,rng-200,41,rng,num-start-681,681,25726,17.09380531311035,True,,True,1,False,1000,True,1.0
./expes/v2_2020-12-06_dh_200-prng-1,30_issda_200,200,rng-200,21,rng,num-start-901,901,25726,21.032170295715332,True,,True,1,False,1000,True,1.0
./expes/v2_2020-12-06_dh_200-prng-1,30_issda_200,200,rng-200,51,rng,num-start-731,731,25726,17.918003797531128,True,,True,1,False,1000,True,1.0
./expes/v2_2020-12-06_dh_200-prng-1,30_issda_200,200,rng-200,101,rng,num-start-781,781,25726,19.100276470184326,True,,True,1,False,1000,True,1.0
./expes/v2_2020-12-06_dh_200-prng-1,30_issda_200,200,rng-200,41,rng,num-start-71,71,25726,2.7246623039245605,True,,True,1,False,1000,True,1.0
./expes/v2_2020-12-06_dh_200-prng-1,30_issda_200,200,rng-200,61,rng,num-start-791,791,25726,20.5769784450531,True,,True,1,False,1000,True,1.0
./expes/v2_2020-12-06_dh_200-prng-1,30_issda_200,200,rng-200,41,rng,num-start-311,311,25726,7.833503484725952,True,,True,1,False,1000,True,1.0
./expes/v2_2020-12-06_dh_200-prng-1,30_issda_200,200,rng-200,141,rng,num-start-251,251,25726,6.052312612533569,True,,True,1,False,1000,True,1.0
./expes/v2_2020-12-06_dh_200-prng-1,30_issda_200,200,rng-200,161,rng,num-start-91,91,25726,2.4040348529815674,True,,True,1,False,1000,True,1.0
./expes/v2_2020-12-06_dh_200-prng-1,30_issda_200,200,rng-200,61,rng,num-start-581,581,25726,14.63252067565918,True,,True,1,False,1000,True,1.0
./expes/v2_2020-12-06_dh_200-prng-1,30_issda_200,200,rng-200,81,rng,num-start-821,821,25726,20.086268663406372,True,,True,1,False,1000,True,1.0
./expes/v2_2020-12-06_dh_200-prng-1,30_issda_200,200,rng-200,11,rng,num-start-81,81,25726,1.9398150444030762,True,,True,1,False,1000,True,1.0
./expes/v2_2020-12-06_dh_200-prng-1,30_issda_200,200,rng-200,161,rng,num-start-21,21,25726,1004.0983138084412,False,,False,0,True,1000,True,0.0
