expe,clients,clients_size,clients_subset,agg_size,method,days,days_size,days_total,time,valid,valid_sum,success,nsols,wall_hit,wall_time,pooled,valid_sums
./expes/v2_2020-12-06_dh_200-prng-1,30_issda_200,200,rng-200,181,rng,num-start-261,261,25726,5.980005264282227,True,,True,1,False,1000,True,1.0
./expes/v2_2020-12-06_dh_200-prng-1,30_issda_200,200,rng-200,191,rng,num-start-761,761,25726,16.47023296356201,True,,True,1,False,1000,True,1.0
./expes/v2_2020-12-06_dh_200-prng-1,30_issda_200,200,rng-200,91,rng,num-start-1,1,25726,0.07168030738830566,False,,False,2,False,1000,True,1.0
./expes/v2_2020-12-06_dh_200-prng-1,30_issda_200,200,rng-200,51,rng,num-start-221,221,25726,5.178319931030273,True,,True,1,False,1000,True,1.0
./expes/v2_2020-12-06_dh_200-prng-1,30_issda_200,200,rng-200,101,rng,num-start-471,471,25726,11.123582124710083,True,,True,1,False,1000,True,1.0
./expes/v2_2020-12-06_dh_200-prng-1,30_issda_200,200,rng-200,141,rng,num-start-681,681,25726,16.02225613594055,True,,True,1,False,1000,True,1.0
./expes/v2_2020-12-06_dh_200-prng-1,30_issda_200,200,rng-200,121,rng,num-start-171,171,25726,4.33573055267334,True,,True,1,False,1000,True,1.0
./expes/v2_2020-12-06_dh_200-prng-1,30_issda_200,200,rng-200,71,rng,num-start-991,991,25726,24.73202157020569,True,,True,1,False,1000,True,1.0
./expes/v2_2020-12-06_dh_200-prng-1,30_issda_200,200,rng-200,71,rng,num-start-991,991,25726,25.225770950317383,True,,True,1,False,1000,True,1.0
./expes/v2_2020-12-06_dh_200-prng-1,30_issda_200,200,rng-200,91,rng,num-start-781,781,25726,19.204735040664673,True,,True,1,False,1000,True,1.0
./expes/v2_2020-12-06_dh_200-prng-1,30_issda_200,200,rng-200,141,rng,num-start-221,221,25726,5.702358961105347,True,,True,1,False,1000,True,1.0
./expes/v2_2020-12-06_dh_200-prng-1,30_issda_200,200,rng-200,101,rng,num-start-661,661,25726,17.698192596435547,True,,True,1,False,1000,True,1.0
./expes/v2_2020-12-06_dh_200-prng-1,30_issda_200,200,rng-200,161,rng,num-start-321,321,25726,7.5624542236328125,True,,True,1,False,1000,True,1.0
./expes/v2_2020-12-06_dh_200-prng-1,30_issda_200,200,rng-200,191,rng,num-start-401,401,25726,8.994389533996582,True,,True,1,False,1000,True,1.0
./expes/v2_2020-12-06_dh_200-prng-1,30_issda_200,200,rng-200,181,rng,num-start-451,451,25726,10.574094772338867,True,,True,1,False,1000,True,1.0
./expes/v2_2020-12-06_dh_200-prng-1,30_issda_200,200,rng-200,41,rng,num-start-301,301,25726,7.670919179916382,True,,True,1,False,1000,True,1.0
./expes/v2_2020-12-06_dh_200-prng-1,30_issda_200,200,rng-200,31,rng,num-start-551,551,25726,12.545727729797363,True,,True,1,False,1000,True,1.0
./expes/v2_2020-12-06_dh_200-prng-1,30_issda_200,200,rng-200,31,rng,num-start-951,951,25726,22.967636823654175,True,,True,1,False,1000,True,1.0
./expes/v2_2020-12-06_dh_200-prng-1,30_issda_200,200,rng-200,111,rng,num-start-951,951,25726,21.837305307388306,True,,True,1,False,1000,True,1.0
./expes/v2_2020-12-06_dh_200-prng-1,30_issda_200,200,rng-200,31,rng,num-start-831,831,25726,19.813666820526123,True,,True,1,False,1000,True,1.0
./expes/v2_2020-12-06_dh_200-prng-1,30_issda_200,200,rng-200,81,rng,num-start-1,1,25726,0.06140542030334473,False,,False,2,False,1000,True,1.0
./expes/v2_2020-12-06_dh_200-prng-1,30_issda_200,200,rng-200,81,rng,num-start-871,871,25726,20.550859689712524,True,,True,1,False,1000,True,1.0
./expes/v2_2020-12-06_dh_200-prng-1,30_issda_200,200,rng-200,141,rng,num-start-381,381,25726,9.754634380340576,True,,True,1,False,1000,True,1.0
./expes/v2_2020-12-06_dh_200-prng-1,30_issda_200,200,rng-200,191,rng,num-start-731,731,25726,15.954666376113892,True,,True,1,False,1000,True,1.0
./expes/v2_2020-12-06_dh_200-prng-1,30_issda_200,200,rng-200,181,rng,num-start-891,891,25726,20.510257482528687,True,,True,1,False,1000,True,1.0
./expes/v2_2020-12-06_dh_200-prng-1,30_issda_200,200,rng-200,151,rng,num-start-251,251,25726,6.110488176345825,True,,True,1,False,1000,True,1.0
./expes/v2_2020-12-06_dh_200-prng-1,30_issda_200,200,rng-200,1,rng,num-start-451,451,25726,9.485601425170898,True,,True,1,False,1000,True,1.0
./expes/v2_2020-12-06_dh_200-prng-1,30_issda_200,200,rng-200,181,rng,num-start-711,711,25726,16.104119062423706,True,,True,1,False,1000,True,1.0
./expes/v2_2020-12-06_dh_200-prng-1,30_issda_200,200,rng-200,171,rng,num-start-411,411,25726,9.364944696426392,True,,True,1,False,1000,True,1.0
./expes/v2_2020-12-06_dh_200-prng-1,30_issda_200,200,rng-200,151,rng,num-start-171,171,25726,4.1770007610321045,True,,True,1,False,1000,True,1.0
./expes/v2_2020-12-06_dh_200-prng-1,30_issda_200,200,rng-200,131,rng,num-start-891,891,25726,21.452484369277954,True,,True,1,False,1000,True,1.0
./expes/v2_2020-12-06_dh_200-prng-1,30_issda_200,200,rng-200,41,rng,num-start-611,611,25726,14.436981916427612,True,,True,1,False,1000,True,1.0
./expes/v2_2020-12-06_dh_200-prng-1,30_issda_200,200,rng-200,151,rng,num-start-791,791,25726,18.51109004020691,True,,True,1,False,1000,True,1.0
./expes/v2_2020-12-06_dh_200-prng-1,30_issda_200,200,rng-200,31,rng,num-start-61,61,25726,2.167551040649414,True,,True,1,False,1000,True,1.0
./expes/v2_2020-12-06_dh_200-prng-1,30_issda_200,200,rng-200,101,rng,num-start-511,511,25726,12.297608613967896,True,,True,1,False,1000,True,1.0
./expes/v2_2020-12-06_dh_200-prng-1,30_issda_200,200,rng-200,121,rng,num-start-821,821,25726,19.250435829162598,True,,True,1,False,1000,True,1.0
./expes/v2_2020-12-06_dh_200-prng-1,30_issda_200,200,rng-200,11,rng,num-start-721,721,25726,16.219661951065063,True,,True,1,False,1000,True,1.0
./expes/v2_2020-12-06_dh_200-prng-1,30_issda_200,200,rng-200,1,rng,num-start-81,81,25726,1.7620699405670166,True,,True,1,False,1000,True,1.0
./expes/v2_2020-12-06_dh_200-prng-1,30_issda_200,200,rng-200,81,rng,num-start-181,181,25726,4.669522523880005,True,,True,1,False,1000,True,1.0
./expes/v2_2020-12-06_dh_200-prng-1,30_issda_200,200,rng-200,121,rng,num-start-791,791,25726,19.017135620117188,True,,True,1,False,1000,True,1.0
./expes/v2_2020-12-06_dh_200-prng-1,30_issda_200,200,rng-200,91,rng,num-start-651,651,25726,16.436811447143555,True,,True,1,False,1000,True,1.0
./expes/v2_2020-12-06_dh_200-prng-1,30_issda_200,200,rng-200,41,rng,num-start-681,681,25726,16.27734923362732,True,,True,1,False,1000,True,1.0
./expes/v2_2020-12-06_dh_200-prng-1,30_issda_200,200,rng-200,11,rng,num-start-561,561,25726,12.55775785446167,True,,True,1,False,1000,True,1.0
./expes/v2_2020-12-06_dh_200-prng-1,30_issda_200,200,rng-200,111,rng,num-start-431,431,25726,10.695908784866333,True,,True,1,False,1000,True,1.0
./expes/v2_2020-12-06_dh_200-prng-1,30_issda_200,200,rng-200,101,rng,num-start-501,501,25726,12.090063095092773,True,,True,1,False,1000,True,1.0
./expes/v2_2020-12-06_dh_200-prng-1,30_issda_200,200,rng-200,111,rng,num-start-221,221,25726,5.804944038391113,True,,True,1,False,1000,True,1.0
./expes/v2_2020-12-06_dh_200-prng-1,30_issda_200,200,rng-200,1,rng,num-start-71,71,25726,1.5624079704284668,True,,True,1,False,1000,True,1.0
./expes/v2_2020-12-06_dh_200-prng-1,30_issda_200,200,rng-200,101,rng,num-start-1,1,25726,0.0519559383392334,False,,False,2,False,1000,True,1.0
./expes/v2_2020-12-06_dh_200-prng-1,30_issda_200,200,rng-200,121,rng,num-start-811,811,25726,19.83383059501648,True,,True,1,False,1000,True,1.0
./expes/v2_2020-12-06_dh_200-prng-1,30_issda_200,200,rng-200,91,rng,num-start-621,621,25726,16.160658597946167,True,,True,1,False,1000,True,1.0
./expes/v2_2020-12-06_dh_200-prng-1,30_issda_200,200,rng-200,81,rng,num-start-491,491,25726,11.732059001922607,True,,True,1,False,1000,True,1.0
./expes/v2_2020-12-06_dh_200-prng-1,30_issda_200,200,rng-200,111,rng,num-start-531,531,25726,13.205991506576538,True,,True,1,False,1000,True,1.0
./expes/v2_2020-12-06_dh_200-prng-1,30_issda_200,200,rng-200,191,rng,num-start-431,431,25726,9.712300062179565,True,,True,1,False,1000,True,1.0
./expes/v2_2020-12-06_dh_200-prng-1,30_issda_200,200,rng-200,81,rng,num-start-941,941,25726,24.144348621368408,True,,True,1,False,1000,True,1.0
./expes/v2_2020-12-06_dh_200-prng-1,30_issda_200,200,rng-200,71,rng,num-start-181,181,25726,4.713436603546143,True,,True,1,False,1000,True,1.0
./expes/v2_2020-12-06_dh_200-prng-1,30_issda_200,200,rng-200,161,rng,num-start-991,991,25726,24.685508012771606,True,,True,1,False,1000,True,1.0
./expes/v2_2020-12-06_dh_200-prng-1,30_issda_200,200,rng-200,171,rng,num-start-581,581,25726,14.173288106918335,True,,True,1,False,1000,True,1.0
./expes/v2_2020-12-06_dh_200-prng-1,30_issda_200,200,rng-200,141,rng,num-start-181,181,25726,4.703228235244751,True,,True,1,False,1000,True,1.0
./expes/v2_2020-12-06_dh_200-prng-1,30_issda_200,200,rng-200,71,rng,num-start-601,601,25726,15.414549112319946,True,,True,1,False,1000,True,1.0
./expes/v2_2020-12-06_dh_200-prng-1,30_issda_200,200,rng-200,71,rng,num-start-471,471,25726,12.421754121780396,True,,True,1,False,1000,True,1.0
./expes/v2_2020-12-06_dh_200-prng-1,30_issda_200,200,rng-200,21,rng,num-start-121,121,25726,3.0717408657073975,True,,True,1,False,1000,True,1.0
./expes/v2_2020-12-06_dh_200-prng-1,30_issda_200,200,rng-200,101,rng,num-start-341,341,25726,9.11086654663086,True,,True,1,False,1000,True,1.0
./expes/v2_2020-12-06_dh_200-prng-1,30_issda_200,200,rng-200,191,rng,num-start-511,511,25726,11.715734958648682,True,,True,1,False,1000,True,1.0
./expes/v2_2020-12-06_dh_200-prng-1,30_issda_200,200,rng-200,101,rng,num-start-61,61,25726,13.320432424545288,True,,True,1,False,1000,True,1.0
./expes/v2_2020-12-06_dh_200-prng-1,30_issda_200,200,rng-200,191,rng,num-start-541,541,25726,11.921250104904175,True,,True,1,False,1000,True,1.0
./expes/v2_2020-12-06_dh_200-prng-1,30_issda_200,200,rng-200,31,rng,num-start-381,381,25726,10.171129941940308,True,,True,1,False,1000,True,1.0
./expes/v2_2020-12-06_dh_200-prng-1,30_issda_200,200,rng-200,131,rng,num-start-491,491,25726,12.536198377609253,True,,True,1,False,1000,True,1.0
./expes/v2_2020-12-06_dh_200-prng-1,30_issda_200,200,rng-200,61,rng,num-start-421,421,25726,10.814578533172607,True,,True,1,False,1000,True,1.0
./expes/v2_2020-12-06_dh_200-prng-1,30_issda_200,200,rng-200,61,rng,num-start-841,841,25726,21.410282850265503,True,,True,1,False,1000,True,1.0
./expes/v2_2020-12-06_dh_200-prng-1,30_issda_200,200,rng-200,21,rng,num-start-511,511,25726,12.602058172225952,True,,True,1,False,1000,True,1.0
./expes/v2_2020-12-06_dh_200-prng-1,30_issda_200,200,rng-200,171,rng,num-start-731,731,25726,18.023019552230835,True,,True,1,False,1000,True,1.0
./expes/v2_2020-12-06_dh_200-prng-1,30_issda_200,200,rng-200,131,rng,num-start-401,401,25726,9.6833975315094,True,,True,1,False,1000,True,1.0
./expes/v2_2020-12-06_dh_200-prng-1,30_issda_200,200,rng-200,131,rng,num-start-481,481,25726,11.637790203094482,True,,True,1,False,1000,True,1.0
./expes/v2_2020-12-06_dh_200-prng-1,30_issda_200,200,rng-200,111,rng,num-start-501,501,25726,13.025327920913696,True,,True,1,False,1000,True,1.0
./expes/v2_2020-12-06_dh_200-prng-1,30_issda_200,200,rng-200,31,rng,num-start-381,381,25726,9.411073923110962,True,,True,1,False,1000,True,1.0
./expes/v2_2020-12-06_dh_200-prng-1,30_issda_200,200,rng-200,31,rng,num-start-121,121,25726,2.9637575149536133,True,,True,1,False,1000,True,1.0
./expes/v2_2020-12-06_dh_200-prng-1,30_issda_200,200,rng-200,101,rng,num-start-221,221,25726,5.666170597076416,True,,True,1,False,1000,True,1.0
./expes/v2_2020-12-06_dh_200-prng-1,30_issda_200,200,rng-200,51,rng,num-start-731,731,25726,19.181546449661255,True,,True,1,False,1000,True,1.0
./expes/v2_2020-12-06_dh_200-prng-1,30_issda_200,200,rng-200,71,rng,num-start-971,971,25726,23.260953426361084,True,,True,1,False,1000,True,1.0
./expes/v2_2020-12-06_dh_200-prng-1,30_issda_200,200,rng-200,41,rng,num-start-91,91,25726,2.1930460929870605,True,,True,1,False,1000,True,1.0
./expes/v2_2020-12-06_dh_200-prng-1,30_issda_200,200,rng-200,151,rng,num-start-631,631,25726,14.680372714996338,True,,True,1,False,1000,True,1.0
./expes/v2_2020-12-06_dh_200-prng-1,30_issda_200,200,rng-200,61,rng,num-start-791,791,25726,19.289726734161377,True,,True,1,False,1000,True,1.0
./expes/v2_2020-12-06_dh_200-prng-1,30_issda_200,200,rng-200,31,rng,num-start-641,641,25726,14.197768688201904,True,,True,1,False,1000,True,1.0
./expes/v2_2020-12-06_dh_200-prng-1,30_issda_200,200,rng-200,71,rng,num-start-511,511,25726,12.807671785354614,True,,True,1,False,1000,True,1.0
./expes/v2_2020-12-06_dh_200-prng-1,30_issda_200,200,rng-200,1,rng,num-start-941,941,25726,19.708508491516113,True,,True,1,False,1000,True,1.0
./expes/v2_2020-12-06_dh_200-prng-1,30_issda_200,200,rng-200,181,rng,num-start-301,301,25726,6.941110610961914,True,,True,1,False,1000,True,1.0
./expes/v2_2020-12-06_dh_200-prng-1,30_issda_200,200,rng-200,71,rng,num-start-441,441,25726,10.365870475769043,True,,True,1,False,1000,True,1.0
./expes/v2_2020-12-06_dh_200-prng-1,30_issda_200,200,rng-200,101,rng,num-start-21,21,25726,1000.6437253952026,False,,False,0,True,1000,True,0.0
./expes/v2_2020-12-06_dh_200-prng-1,30_issda_200,200,rng-200,1,rng,num-start-221,221,25726,4.760300874710083,True,,True,1,False,1000,True,1.0
./expes/v2_2020-12-06_dh_200-prng-1,30_issda_200,200,rng-200,111,rng,num-start-121,121,25726,3.0082740783691406,True,,True,1,False,1000,True,1.0
./expes/v2_2020-12-06_dh_200-prng-1,30_issda_200,200,rng-200,1,rng,num-start-491,491,25726,10.579837322235107,True,,True,1,False,1000,True,1.0
./expes/v2_2020-12-06_dh_200-prng-1,30_issda_200,200,rng-200,21,rng,num-start-61,61,25726,1.5057721138000488,True,,True,1,False,1000,True,1.0
./expes/v2_2020-12-06_dh_200-prng-1,30_issda_200,200,rng-200,91,rng,num-start-471,471,25726,11.880178928375244,True,,True,1,False,1000,True,1.0
./expes/v2_2020-12-06_dh_200-prng-1,30_issda_200,200,rng-200,141,rng,num-start-491,491,25726,12.595305681228638,True,,True,1,False,1000,True,1.0
./expes/v2_2020-12-06_dh_200-prng-1,30_issda_200,200,rng-200,81,rng,num-start-791,791,25726,19.666765213012695,True,,True,1,False,1000,True,1.0
./expes/v2_2020-12-06_dh_200-prng-1,30_issda_200,200,rng-200,1,rng,num-start-631,631,25726,13.571488618850708,True,,True,1,False,1000,True,1.0
./expes/v2_2020-12-06_dh_200-prng-1,30_issda_200,200,rng-200,121,rng,num-start-421,421,25726,10.579890966415405,True,,True,1,False,1000,True,1.0
./expes/v2_2020-12-06_dh_200-prng-1,30_issda_200,200,rng-200,141,rng,num-start-111,111,25726,3.0638883113861084,True,,True,1,False,1000,True,1.0
./expes/v2_2020-12-06_dh_200-prng-1,30_issda_200,200,rng-200,61,rng,num-start-151,151,25726,3.8596415519714355,True,,True,1,False,1000,True,1.0
./expes/v2_2020-12-06_dh_200-prng-1,30_issda_200,200,rng-200,131,rng,num-start-961,961,25726,23.271707773208618,True,,True,1,False,1000,True,1.0
./expes/v2_2020-12-06_dh_200-prng-1,30_issda_200,200,rng-200,91,rng,num-start-351,351,25726,8.086551427841187,True,,True,1,False,1000,True,1.0
./expes/v2_2020-12-06_dh_200-prng-1,30_issda_200,200,rng-200,11,rng,num-start-471,471,25726,10.247155666351318,True,,True,1,False,1000,True,1.0
./expes/v2_2020-12-06_dh_200-prng-1,30_issda_200,200,rng-200,121,rng,num-start-481,481,25726,11.785534620285034,True,,True,1,False,1000,True,1.0
./expes/v2_2020-12-06_dh_200-prng-1,30_issda_200,200,rng-200,131,rng,num-start-841,841,25726,21.03939938545227,True,,True,1,False,1000,True,1.0
./expes/v2_2020-12-06_dh_200-prng-1,30_issda_200,200,rng-200,161,rng,num-start-21,21,25726,1001.6637811660767,False,,False,0,True,1000,True,0.0
./expes/v2_2020-12-06_dh_200-prng-1,30_issda_200,200,rng-200,121,rng,num-start-761,761,25726,18.864880561828613,True,,True,1,False,1000,True,1.0
./expes/v2_2020-12-06_dh_200-prng-1,30_issda_200,200,rng-200,81,rng,num-start-441,441,25726,11.294166088104248,True,,True,1,False,1000,True,1.0
./expes/v2_2020-12-06_dh_200-prng-1,30_issda_200,200,rng-200,1,rng,num-start-731,731,25726,16.146809339523315,True,,True,1,False,1000,True,1.0
./expes/v2_2020-12-06_dh_200-prng-1,30_issda_200,200,rng-200,21,rng,num-start-941,941,25726,24.34510898590088,True,,True,1,False,1000,True,1.0
./expes/v2_2020-12-06_dh_200-prng-1,30_issda_200,200,rng-200,131,rng,num-start-361,361,25726,9.387974500656128,True,,True,1,False,1000,True,1.0
./expes/v2_2020-12-06_dh_200-prng-1,30_issda_200,200,rng-200,21,rng,num-start-421,421,25726,10.347494840621948,True,,True,1,False,1000,True,1.0
./expes/v2_2020-12-06_dh_200-prng-1,30_issda_200,200,rng-200,91,rng,num-start-701,701,25726,18.516961812973022,True,,True,1,False,1000,True,1.0
./expes/v2_2020-12-06_dh_200-prng-1,30_issda_200,200,rng-200,121,rng,num-start-191,191,25726,4.9700305461883545,True,,True,1,False,1000,True,1.0
./expes/v2_2020-12-06_dh_200-prng-1,30_issda_200,200,rng-200,51,rng,num-start-91,91,25726,2.3662269115448,True,,True,1,False,1000,True,1.0
./expes/v2_2020-12-06_dh_200-prng-1,30_issda_200,200,rng-200,41,rng,num-start-791,791,25726,19.71840214729309,True,,True,1,False,1000,True,1.0
./expes/v2_2020-12-06_dh_200-prng-1,30_issda_200,200,rng-200,91,rng,num-start-841,841,25726,22.765151500701904,True,,True,1,False,1000,True,1.0
./expes/v2_2020-12-06_dh_200-prng-1,30_issda_200,200,rng-200,111,rng,num-start-301,301,25726,7.6075685024261475,True,,True,1,False,1000,True,1.0
./expes/v2_2020-12-06_dh_200-prng-1,30_issda_200,200,rng-200,21,rng,num-start-351,351,25726,8.27945590019226,True,,True,1,False,1000,True,1.0
./expes/v2_2020-12-06_dh_200-prng-1,30_issda_200,200,rng-200,101,rng,num-start-421,421,25726,10.497640609741211,True,,True,1,False,1000,True,1.0
./expes/v2_2020-12-06_dh_200-prng-1,30_issda_200,200,rng-200,41,rng,num-start-561,561,25726,13.998741149902344,True,,True,1,False,1000,True,1.0
./expes/v2_2020-12-06_dh_200-prng-1,30_issda_200,200,rng-200,111,rng,num-start-11,11,25726,1000.3668534755707,False,,False,0,True,1000,True,0.0
./expes/v2_2020-12-06_dh_200-prng-1,30_issda_200,200,rng-200,71,rng,num-start-911,911,25726,23.402996301651,True,,True,1,False,1000,True,1.0
./expes/v2_2020-12-06_dh_200-prng-1,30_issda_200,200,rng-200,181,rng,num-start-561,561,25726,12.827270030975342,True,,True,1,False,1000,True,1.0
./expes/v2_2020-12-06_dh_200-prng-1,30_issda_200,200,rng-200,31,rng,num-start-791,791,25726,18.272339820861816,True,,True,1,False,1000,True,1.0
./expes/v2_2020-12-06_dh_200-prng-1,30_issda_200,200,rng-200,151,rng,num-start-31,31,25726,1003.420999288559,False,,False,0,True,1000,True,0.0
./expes/v2_2020-12-06_dh_200-prng-1,30_issda_200,200,rng-200,91,rng,num-start-41,41,25726,1001.2427003383636,False,,False,0,True,1000,True,0.0
./expes/v2_2020-12-06_dh_200-prng-1,30_issda_200,200,rng-200,181,rng,num-start-811,811,25726,19.72957181930542,True,,True,1,False,1000,True,1.0
./expes/v2_2020-12-06_dh_200-prng-1,30_issda_200,200,rng-200,41,rng,num-start-401,401,25726,18.27377414703369,True,,True,1,False,1000,True,1.0
./expes/v2_2020-12-06_dh_200-prng-1,30_issda_200,200,rng-200,141,rng,num-start-951,951,25726,26.22927761077881,True,,True,1,False,1000,True,1.0
./expes/v2_2020-12-06_dh_200-prng-1,30_issda_200,200,rng-200,21,rng,num-start-591,591,25726,14.709755897521973,True,,True,1,False,1000,True,1.0
./expes/v2_2020-12-06_dh_200-prng-1,30_issda_200,200,rng-200,81,rng,num-start-301,301,25726,9.846816062927246,True,,True,1,False,1000,True,1.0
./expes/v2_2020-12-06_dh_200-prng-1,30_issda_200,200,rng-200,111,rng,num-start-301,301,25726,13.364447593688965,True,,True,1,False,1000,True,1.0
./expes/v2_2020-12-06_dh_200-prng-1,30_issda_200,200,rng-200,91,rng,num-start-71,71,25726,4.121125936508179,True,,True,1,False,1000,True,1.0
./expes/v2_2020-12-06_dh_200-prng-1,30_issda_200,200,rng-200,141,rng,num-start-881,881,25726,33.12259888648987,True,,True,1,False,1000,True,1.0
./expes/v2_2020-12-06_dh_200-prng-1,30_issda_200,200,rng-200,31,rng,num-start-651,651,25726,15.54013180732727,True,,True,1,False,1000,True,1.0
./expes/v2_2020-12-06_dh_200-prng-1,30_issda_200,200,rng-200,1,rng,num-start-101,101,25726,2.173902988433838,True,,True,1,False,1000,True,1.0
./expes/v2_2020-12-06_dh_200-prng-1,30_issda_200,200,rng-200,191,rng,num-start-251,251,25726,6.256582260131836,True,,True,1,False,1000,True,1.0
./expes/v2_2020-12-06_dh_200-prng-1,30_issda_200,200,rng-200,61,rng,num-start-131,131,25726,5.60792088508606,True,,True,1,False,1000,True,1.0
./expes/v2_2020-12-06_dh_200-prng-1,30_issda_200,200,rng-200,131,rng,num-start-551,551,25726,12.906266450881958,True,,True,1,False,1000,True,1.0
./expes/v2_2020-12-06_dh_200-prng-1,30_issda_200,200,rng-200,81,rng,num-start-371,371,25726,10.932860374450684,True,,True,1,False,1000,True,1.0
./expes/v2_2020-12-06_dh_200-prng-1,30_issda_200,200,rng-200,191,rng,num-start-141,141,25726,6.703030347824097,True,,True,1,False,1000,True,1.0
./expes/v2_2020-12-06_dh_200-prng-1,30_issda_200,200,rng-200,101,rng,num-start-1,1,25726,1.8562426567077637,False,,False,2,False,1000,True,1.0
./expes/v2_2020-12-06_dh_200-prng-1,30_issda_200,200,rng-200,131,rng,num-start-211,211,25726,5.541182279586792,True,,True,1,False,1000,True,1.0
./expes/v2_2020-12-06_dh_200-prng-1,30_issda_200,200,rng-200,21,rng,num-start-231,231,25726,12.986352682113647,True,,True,1,False,1000,True,1.0
./expes/v2_2020-12-06_dh_200-prng-1,30_issda_200,200,rng-200,11,rng,num-start-361,361,25726,7.548447370529175,True,,True,1,False,1000,True,1.0
./expes/v2_2020-12-06_dh_200-prng-1,30_issda_200,200,rng-200,21,rng,num-start-241,241,25726,6.514115810394287,True,,True,1,False,1000,True,1.0
./expes/v2_2020-12-06_dh_200-prng-1,30_issda_200,200,rng-200,81,rng,num-start-461,461,25726,12.938132286071777,True,,True,1,False,1000,True,1.0
./expes/v2_2020-12-06_dh_200-prng-1,30_issda_200,200,rng-200,121,rng,num-start-251,251,25726,7.715174436569214,True,,True,1,False,1000,True,1.0
./expes/v2_2020-12-06_dh_200-prng-1,30_issda_200,200,rng-200,101,rng,num-start-531,531,25726,17.34007453918457,True,,True,1,False,1000,True,1.0
./expes/v2_2020-12-06_dh_200-prng-1,30_issda_200,200,rng-200,191,rng,num-start-881,881,25726,24.583104133605957,True,,True,1,False,1000,True,1.0
./expes/v2_2020-12-06_dh_200-prng-1,30_issda_200,200,rng-200,121,rng,num-start-101,101,25726,3.9440560340881348,True,,True,1,False,1000,True,1.0
./expes/v2_2020-12-06_dh_200-prng-1,30_issda_200,200,rng-200,161,rng,num-start-421,421,25726,31.893418312072754,True,,True,1,False,1000,True,1.0
./expes/v2_2020-12-06_dh_200-prng-1,30_issda_200,200,rng-200,41,rng,num-start-741,741,25726,30.206390142440796,True,,True,1,False,1000,True,1.0
./expes/v2_2020-12-06_dh_200-prng-1,30_issda_200,200,rng-200,31,rng,num-start-441,441,25726,14.282497644424438,True,,True,1,False,1000,True,1.0
./expes/v2_2020-12-06_dh_200-prng-1,30_issda_200,200,rng-200,91,rng,num-start-371,371,25726,27.086397647857666,True,,True,1,False,1000,True,1.0
./expes/v2_2020-12-06_dh_200-prng-1,30_issda_200,200,rng-200,71,rng,num-start-591,591,25726,17.96276593208313,True,,True,1,False,1000,True,1.0
./expes/v2_2020-12-06_dh_200-prng-1,30_issda_200,200,rng-200,101,rng,num-start-261,261,25726,9.261598825454712,True,,True,1,False,1000,True,1.0
./expes/v2_2020-12-06_dh_200-prng-1,30_issda_200,200,rng-200,121,rng,num-start-551,551,25726,25.08918809890747,True,,True,1,False,1000,True,1.0
./expes/v2_2020-12-06_dh_200-prng-1,30_issda_200,200,rng-200,51,rng,num-start-61,61,25726,24.974584341049194,True,,True,1,False,1000,True,1.0
./expes/v2_2020-12-06_dh_200-prng-1,30_issda_200,200,rng-200,61,rng,num-start-551,551,25726,14.731319189071655,True,,True,1,False,1000,True,1.0
./expes/v2_2020-12-06_dh_200-prng-1,30_issda_200,200,rng-200,121,rng,num-start-431,431,25726,15.626510381698608,True,,True,1,False,1000,True,1.0
./expes/v2_2020-12-06_dh_200-prng-1,30_issda_200,200,rng-200,101,rng,num-start-301,301,25726,9.048765420913696,True,,True,1,False,1000,True,1.0
./expes/v2_2020-12-06_dh_200-prng-1,30_issda_200,200,rng-200,51,rng,num-start-181,181,25726,5.466193199157715,True,,True,1,False,1000,True,1.0
./expes/v2_2020-12-06_dh_200-prng-1,30_issda_200,200,rng-200,191,rng,num-start-91,91,25726,26.73812437057495,True,,True,1,False,1000,True,1.0
./expes/v2_2020-12-06_dh_200-prng-1,30_issda_200,200,rng-200,1,rng,num-start-651,651,25726,16.914108991622925,True,,True,1,False,1000,True,1.0
./expes/v2_2020-12-06_dh_200-prng-1,30_issda_200,200,rng-200,141,rng,num-start-761,761,25726,17.790695905685425,True,,True,1,False,1000,True,1.0
./expes/v2_2020-12-06_dh_200-prng-1,30_issda_200,200,rng-200,1,rng,num-start-31,31,25726,4.728728294372559,True,,True,1,False,1000,True,1.0
./expes/v2_2020-12-06_dh_200-prng-1,30_issda_200,200,rng-200,21,rng,num-start-631,631,25726,14.910887718200684,True,,True,1,False,1000,True,1.0
./expes/v2_2020-12-06_dh_200-prng-1,30_issda_200,200,rng-200,191,rng,num-start-821,821,25726,17.68652892112732,True,,True,1,False,1000,True,1.0
./expes/v2_2020-12-06_dh_200-prng-1,30_issda_200,200,rng-200,91,rng,num-start-511,511,25726,14.39309573173523,True,,True,1,False,1000,True,1.0
./expes/v2_2020-12-06_dh_200-prng-1,30_issda_200,200,rng-200,1,rng,num-start-411,411,25726,11.646846771240234,True,,True,1,False,1000,True,1.0
./expes/v2_2020-12-06_dh_200-prng-1,30_issda_200,200,rng-200,91,rng,num-start-421,421,25726,16.819377183914185,True,,True,1,False,1000,True,1.0
./expes/v2_2020-12-06_dh_200-prng-1,30_issda_200,200,rng-200,31,rng,num-start-711,711,25726,16.053507566452026,True,,True,1,False,1000,True,1.0
./expes/v2_2020-12-06_dh_200-prng-1,30_issda_200,200,rng-200,1,rng,num-start-371,371,25726,7.783540725708008,True,,True,1,False,1000,True,1.0
./expes/v2_2020-12-06_dh_200-prng-1,30_issda_200,200,rng-200,151,rng,num-start-191,191,25726,13.926386833190918,True,,True,1,False,1000,True,1.0
./expes/v2_2020-12-06_dh_200-prng-1,30_issda_200,200,rng-200,141,rng,num-start-481,481,25726,13.087766647338867,True,,True,1,False,1000,True,1.0
./expes/v2_2020-12-06_dh_200-prng-1,30_issda_200,200,rng-200,111,rng,num-start-411,411,25726,10.028151512145996,True,,True,1,False,1000,True,1.0
./expes/v2_2020-12-06_dh_200-prng-1,30_issda_200,200,rng-200,91,rng,num-start-921,921,25726,22.04959750175476,True,,True,1,False,1000,True,1.0
./expes/v2_2020-12-06_dh_200-prng-1,30_issda_200,200,rng-200,31,rng,num-start-781,781,25726,19.379832983016968,True,,True,1,False,1000,True,1.0
./expes/v2_2020-12-06_dh_200-prng-1,30_issda_200,200,rng-200,131,rng,num-start-481,481,25726,11.649654388427734,True,,True,1,False,1000,True,1.0
./expes/v2_2020-12-06_dh_200-prng-1,30_issda_200,200,rng-200,161,rng,num-start-251,251,25726,16.92657160758972,True,,True,1,False,1000,True,1.0
./expes/v2_2020-12-06_dh_200-prng-1,30_issda_200,200,rng-200,41,rng,num-start-521,521,25726,12.346302509307861,True,,True,1,False,1000,True,1.0
./expes/v2_2020-12-06_dh_200-prng-1,30_issda_200,200,rng-200,111,rng,num-start-981,981,25726,24.570317268371582,True,,True,1,False,1000,True,1.0
./expes/v2_2020-12-06_dh_200-prng-1,30_issda_200,200,rng-200,141,rng,num-start-31,31,25726,1001.0564210414886,False,,False,0,True,1000,True,0.0
./expes/v2_2020-12-06_dh_200-prng-1,30_issda_200,200,rng-200,71,rng,num-start-651,651,25726,18.28188467025757,True,,True,1,False,1000,True,1.0
./expes/v2_2020-12-06_dh_200-prng-1,30_issda_200,200,rng-200,51,rng,num-start-911,911,25726,24.06144380569458,True,,True,1,False,1000,True,1.0
./expes/v2_2020-12-06_dh_200-prng-1,30_issda_200,200,rng-200,111,rng,num-start-61,61,25726,1002.2699136734009,False,,False,1,True,1000,True,0.0
./expes/v2_2020-12-06_dh_200-prng-1,30_issda_200,200,rng-200,161,rng,num-start-681,681,25726,16.942872762680054,True,,True,1,False,1000,True,1.0
./expes/v2_2020-12-06_dh_200-prng-1,30_issda_200,200,rng-200,41,rng,num-start-491,491,25726,12.07121753692627,True,,True,1,False,1000,True,1.0
./expes/v2_2020-12-06_dh_200-prng-1,30_issda_200,200,rng-200,31,rng,num-start-841,841,25726,25.179824352264404,True,,True,1,False,1000,True,1.0
./expes/v2_2020-12-06_dh_200-prng-1,30_issda_200,200,rng-200,21,rng,num-start-331,331,25726,8.780274152755737,True,,True,1,False,1000,True,1.0
./expes/v2_2020-12-06_dh_200-prng-1,30_issda_200,200,rng-200,161,rng,num-start-561,561,25726,13.175187349319458,True,,True,1,False,1000,True,1.0
./expes/v2_2020-12-06_dh_200-prng-1,30_issda_200,200,rng-200,71,rng,num-start-981,981,25726,22.977543354034424,True,,True,1,False,1000,True,1.0
./expes/v2_2020-12-06_dh_200-prng-1,30_issda_200,200,rng-200,31,rng,num-start-381,381,25726,8.831866979598999,True,,True,1,False,1000,True,1.0
./expes/v2_2020-12-06_dh_200-prng-1,30_issda_200,200,rng-200,111,rng,num-start-121,121,25726,3.1937320232391357,True,,True,1,False,1000,True,1.0
./expes/v2_2020-12-06_dh_200-prng-1,30_issda_200,200,rng-200,121,rng,num-start-271,271,25726,6.556272745132446,True,,True,1,False,1000,True,1.0
./expes/v2_2020-12-06_dh_200-prng-1,30_issda_200,200,rng-200,91,rng,num-start-891,891,25726,22.560197114944458,True,,True,1,False,1000,True,1.0
./expes/v2_2020-12-06_dh_200-prng-1,30_issda_200,200,rng-200,91,rng,num-start-441,441,25726,16.977052450180054,True,,True,1,False,1000,True,1.0
./expes/v2_2020-12-06_dh_200-prng-1,30_issda_200,200,rng-200,191,rng,num-start-631,631,25726,14.037899017333984,True,,True,1,False,1000,True,1.0
./expes/v2_2020-12-06_dh_200-prng-1,30_issda_200,200,rng-200,191,rng,num-start-271,271,25726,8.000675678253174,True,,True,1,False,1000,True,1.0
./expes/v2_2020-12-06_dh_200-prng-1,30_issda_200,200,rng-200,151,rng,num-start-771,771,25726,21.472575426101685,True,,True,1,False,1000,True,1.0
./expes/v2_2020-12-06_dh_200-prng-1,30_issda_200,200,rng-200,91,rng,num-start-421,421,25726,11.49907112121582,True,,True,1,False,1000,True,1.0
./expes/v2_2020-12-06_dh_200-prng-1,30_issda_200,200,rng-200,11,rng,num-start-981,981,25726,21.009482622146606,True,,True,1,False,1000,True,1.0
./expes/v2_2020-12-06_dh_200-prng-1,30_issda_200,200,rng-200,91,rng,num-start-141,141,25726,3.6754226684570312,True,,True,1,False,1000,True,1.0
./expes/v2_2020-12-06_dh_200-prng-1,30_issda_200,200,rng-200,161,rng,num-start-901,901,25726,21.129597902297974,True,,True,1,False,1000,True,1.0
./expes/v2_2020-12-06_dh_200-prng-1,30_issda_200,200,rng-200,161,rng,num-start-141,141,25726,16.431991577148438,True,,True,1,False,1000,True,1.0
./expes/v2_2020-12-06_dh_200-prng-1,30_issda_200,200,rng-200,181,rng,num-start-891,891,25726,20.938523530960083,True,,True,1,False,1000,True,1.0
./expes/v2_2020-12-06_dh_200-prng-1,30_issda_200,200,rng-200,161,rng,num-start-671,671,25726,17.091801643371582,True,,True,1,False,1000,True,1.0
./expes/v2_2020-12-06_dh_200-prng-1,30_issda_200,200,rng-200,21,rng,num-start-971,971,25726,22.85110855102539,True,,True,1,False,1000,True,1.0
./expes/v2_2020-12-06_dh_200-prng-1,30_issda_200,200,rng-200,71,rng,num-start-561,561,25726,14.043343782424927,True,,True,1,False,1000,True,1.0
./expes/v2_2020-12-06_dh_200-prng-1,30_issda_200,200,rng-200,151,rng,num-start-351,351,25726,14.981271266937256,True,,True,1,False,1000,True,1.0
./expes/v2_2020-12-06_dh_200-prng-1,30_issda_200,200,rng-200,121,rng,num-start-851,851,25726,24.31371784210205,True,,True,1,False,1000,True,1.0
./expes/v2_2020-12-06_dh_200-prng-1,30_issda_200,200,rng-200,131,rng,num-start-241,241,25726,5.60755181312561,True,,True,1,False,1000,True,1.0
./expes/v2_2020-12-06_dh_200-prng-1,30_issda_200,200,rng-200,31,rng,num-start-511,511,25726,11.382399559020996,True,,True,1,False,1000,True,1.0
./expes/v2_2020-12-06_dh_200-prng-1,30_issda_200,200,rng-200,71,rng,num-start-501,501,25726,11.56674838066101,True,,True,1,False,1000,True,1.0
./expes/v2_2020-12-06_dh_200-prng-1,30_issda_200,200,rng-200,111,rng,num-start-971,971,25726,23.366570711135864,True,,True,1,False,1000,True,1.0
./expes/v2_2020-12-06_dh_200-prng-1,30_issda_200,200,rng-200,191,rng,num-start-981,981,25726,20.827194690704346,True,,True,1,False,1000,True,1.0
./expes/v2_2020-12-06_dh_200-prng-1,30_issda_200,200,rng-200,81,rng,num-start-341,341,25726,8.019431591033936,True,,True,1,False,1000,True,1.0
./expes/v2_2020-12-06_dh_200-prng-1,30_issda_200,200,rng-200,1,rng,num-start-511,511,25726,11.935809850692749,True,,True,1,False,1000,True,1.0
./expes/v2_2020-12-06_dh_200-prng-1,30_issda_200,200,rng-200,161,rng,num-start-561,561,25726,12.80211067199707,True,,True,1,False,1000,True,1.0
./expes/v2_2020-12-06_dh_200-prng-1,30_issda_200,200,rng-200,51,rng,num-start-851,851,25726,47.39808464050293,True,,True,1,False,1000,True,1.0
./expes/v2_2020-12-06_dh_200-prng-1,30_issda_200,200,rng-200,101,rng,num-start-351,351,25726,27.14638900756836,True,,True,1,False,1000,True,1.0
./expes/v2_2020-12-06_dh_200-prng-1,30_issda_200,200,rng-200,51,rng,num-start-211,211,25726,7.084214448928833,True,,True,1,False,1000,True,1.0
./expes/v2_2020-12-06_dh_200-prng-1,30_issda_200,200,rng-200,31,rng,num-start-481,481,25726,18.03517484664917,True,,True,1,False,1000,True,1.0
./expes/v2_2020-12-06_dh_200-prng-1,30_issda_200,200,rng-200,131,rng,num-start-421,421,25726,14.296511173248291,True,,True,1,False,1000,True,1.0
./expes/v2_2020-12-06_dh_200-prng-1,30_issda_200,200,rng-200,51,rng,num-start-311,311,25726,22.05973768234253,True,,True,1,False,1000,True,1.0
./expes/v2_2020-12-06_dh_200-prng-1,30_issda_200,200,rng-200,191,rng,num-start-131,131,25726,3.178560256958008,True,,True,1,False,1000,True,1.0
./expes/v2_2020-12-06_dh_200-prng-1,30_issda_200,200,rng-200,111,rng,num-start-531,531,25726,16.776909112930298,True,,True,1,False,1000,True,1.0
./expes/v2_2020-12-06_dh_200-prng-1,30_issda_200,200,rng-200,1,rng,num-start-671,671,25726,14.596231937408447,True,,True,1,False,1000,True,1.0
./expes/v2_2020-12-06_dh_200-prng-1,30_issda_200,200,rng-200,101,rng,num-start-561,561,25726,13.894617319107056,True,,True,1,False,1000,True,1.0
./expes/v2_2020-12-06_dh_200-prng-1,30_issda_200,200,rng-200,41,rng,num-start-641,641,25726,15.268884181976318,True,,True,1,False,1000,True,1.0
./expes/v2_2020-12-06_dh_200-prng-1,30_issda_200,200,rng-200,101,rng,num-start-831,831,25726,19.890231370925903,True,,True,1,False,1000,True,1.0
./expes/v2_2020-12-06_dh_200-prng-1,30_issda_200,200,rng-200,61,rng,num-start-81,81,25726,2.4359521865844727,True,,True,1,False,1000,True,1.0
./expes/v2_2020-12-06_dh_200-prng-1,30_issda_200,200,rng-200,1,rng,num-start-1,1,25726,3.154370069503784,True,,True,1,False,1000,True,1.0
./expes/v2_2020-12-06_dh_200-prng-1,30_issda_200,200,rng-200,181,rng,num-start-441,441,25726,11.24843978881836,True,,True,1,False,1000,True,1.0
./expes/v2_2020-12-06_dh_200-prng-1,30_issda_200,200,rng-200,71,rng,num-start-431,431,25726,20.737703323364258,True,,True,1,False,1000,True,1.0
./expes/v2_2020-12-06_dh_200-prng-1,30_issda_200,200,rng-200,111,rng,num-start-691,691,25726,27.175829648971558,True,,True,1,False,1000,True,1.0
./expes/v2_2020-12-06_dh_200-prng-1,30_issda_200,200,rng-200,101,rng,num-start-691,691,25726,19.301416397094727,True,,True,1,False,1000,True,1.0
./expes/v2_2020-12-06_dh_200-prng-1,30_issda_200,200,rng-200,121,rng,num-start-871,871,25726,21.49811363220215,True,,True,1,False,1000,True,1.0
./expes/v2_2020-12-06_dh_200-prng-1,30_issda_200,200,rng-200,111,rng,num-start-361,361,25726,19.0312716960907,True,,True,1,False,1000,True,1.0
./expes/v2_2020-12-06_dh_200-prng-1,30_issda_200,200,rng-200,81,rng,num-start-631,631,25726,15.54731559753418,True,,True,1,False,1000,True,1.0
./expes/v2_2020-12-06_dh_200-prng-1,30_issda_200,200,rng-200,21,rng,num-start-161,161,25726,3.9884297847747803,True,,True,1,False,1000,True,1.0
./expes/v2_2020-12-06_dh_200-prng-1,30_issda_200,200,rng-200,161,rng,num-start-991,991,25726,22.730209350585938,True,,True,1,False,1000,True,1.0
./expes/v2_2020-12-06_dh_200-prng-1,30_issda_200,200,rng-200,181,rng,num-start-191,191,25726,15.19112777709961,True,,True,1,False,1000,True,1.0
./expes/v2_2020-12-06_dh_200-prng-1,30_issda_200,200,rng-200,101,rng,num-start-261,261,25726,7.176801443099976,True,,True,1,False,1000,True,1.0
./expes/v2_2020-12-06_dh_200-prng-1,30_issda_200,200,rng-200,21,rng,num-start-111,111,25726,2.960141181945801,True,,True,1,False,1000,True,1.0
./expes/v2_2020-12-06_dh_200-prng-1,30_issda_200,200,rng-200,171,rng,num-start-281,281,25726,7.070772409439087,True,,True,1,False,1000,True,1.0
./expes/v2_2020-12-06_dh_200-prng-1,30_issda_200,200,rng-200,11,rng,num-start-621,621,25726,14.346376895904541,True,,True,1,False,1000,True,1.0
./expes/v2_2020-12-06_dh_200-prng-1,30_issda_200,200,rng-200,51,rng,num-start-161,161,25726,4.917357444763184,True,,True,1,False,1000,True,1.0
./expes/v2_2020-12-06_dh_200-prng-1,30_issda_200,200,rng-200,1,rng,num-start-281,281,25726,10.931820154190063,True,,True,1,False,1000,True,1.0
./expes/v2_2020-12-06_dh_200-prng-1,30_issda_200,200,rng-200,51,rng,num-start-481,481,25726,14.939868450164795,True,,True,1,False,1000,True,1.0
./expes/v2_2020-12-06_dh_200-prng-1,30_issda_200,200,rng-200,171,rng,num-start-411,411,25726,10.901590347290039,True,,True,1,False,1000,True,1.0
./expes/v2_2020-12-06_dh_200-prng-1,30_issda_200,200,rng-200,81,rng,num-start-161,161,25726,11.801491498947144,True,,True,1,False,1000,True,1.0
./expes/v2_2020-12-06_dh_200-prng-1,30_issda_200,200,rng-200,191,rng,num-start-931,931,25726,25.73421835899353,True,,True,1,False,1000,True,1.0
./expes/v2_2020-12-06_dh_200-prng-1,30_issda_200,200,rng-200,161,rng,num-start-131,131,25726,3.298861265182495,True,,True,1,False,1000,True,1.0
./expes/v2_2020-12-06_dh_200-prng-1,30_issda_200,200,rng-200,21,rng,num-start-321,321,25726,10.856317281723022,True,,True,1,False,1000,True,1.0
./expes/v2_2020-12-06_dh_200-prng-1,30_issda_200,200,rng-200,21,rng,num-start-321,321,25726,7.792859792709351,True,,True,1,False,1000,True,1.0
./expes/v2_2020-12-06_dh_200-prng-1,30_issda_200,200,rng-200,121,rng,num-start-251,251,25726,6.329315900802612,True,,True,1,False,1000,True,1.0
./expes/v2_2020-12-06_dh_200-prng-1,30_issda_200,200,rng-200,151,rng,num-start-431,431,25726,10.096394538879395,True,,True,1,False,1000,True,1.0
./expes/v2_2020-12-06_dh_200-prng-1,30_issda_200,200,rng-200,181,rng,num-start-411,411,25726,9.601020097732544,True,,True,1,False,1000,True,1.0
./expes/v2_2020-12-06_dh_200-prng-1,30_issda_200,200,rng-200,71,rng,num-start-151,151,25726,3.982048511505127,True,,True,1,False,1000,True,1.0
./expes/v2_2020-12-06_dh_200-prng-1,30_issda_200,200,rng-200,101,rng,num-start-141,141,25726,13.661912441253662,True,,True,1,False,1000,True,1.0
./expes/v2_2020-12-06_dh_200-prng-1,30_issda_200,200,rng-200,61,rng,num-start-341,341,25726,22.77128839492798,True,,True,1,False,1000,True,1.0
./expes/v2_2020-12-06_dh_200-prng-1,30_issda_200,200,rng-200,31,rng,num-start-761,761,25726,17.5483615398407,True,,True,1,False,1000,True,1.0
./expes/v2_2020-12-06_dh_200-prng-1,30_issda_200,200,rng-200,41,rng,num-start-581,581,25726,12.561400175094604,True,,True,1,False,1000,True,1.0
./expes/v2_2020-12-06_dh_200-prng-1,30_issda_200,200,rng-200,161,rng,num-start-291,291,25726,9.661579370498657,True,,True,1,False,1000,True,1.0
./expes/v2_2020-12-06_dh_200-prng-1,30_issda_200,200,rng-200,121,rng,num-start-91,91,25726,4.260806560516357,True,,True,1,False,1000,True,1.0
./expes/v2_2020-12-06_dh_200-prng-1,30_issda_200,200,rng-200,111,rng,num-start-311,311,25726,11.91635251045227,True,,True,1,False,1000,True,1.0
./expes/v2_2020-12-06_dh_200-prng-1,30_issda_200,200,rng-200,71,rng,num-start-251,251,25726,6.125074625015259,True,,True,1,False,1000,True,1.0
./expes/v2_2020-12-06_dh_200-prng-1,30_issda_200,200,rng-200,101,rng,num-start-241,241,25726,10.405727624893188,True,,True,1,False,1000,True,1.0
./expes/v2_2020-12-06_dh_200-prng-1,30_issda_200,200,rng-200,1,rng,num-start-151,151,25726,3.209986448287964,True,,True,1,False,1000,True,1.0
./expes/v2_2020-12-06_dh_200-prng-1,30_issda_200,200,rng-200,71,rng,num-start-281,281,25726,6.800060510635376,True,,True,1,False,1000,True,1.0
./expes/v2_2020-12-06_dh_200-prng-1,30_issda_200,200,rng-200,161,rng,num-start-861,861,25726,19.869887113571167,True,,True,1,False,1000,True,1.0
./expes/v2_2020-12-06_dh_200-prng-1,30_issda_200,200,rng-200,21,rng,num-start-511,511,25726,11.813565969467163,True,,True,1,False,1000,True,1.0
./expes/v2_2020-12-06_dh_200-prng-1,30_issda_200,200,rng-200,131,rng,num-start-681,681,25726,15.897727727890015,True,,True,1,False,1000,True,1.0
./expes/v2_2020-12-06_dh_200-prng-1,30_issda_200,200,rng-200,191,rng,num-start-391,391,25726,8.446725845336914,True,,True,1,False,1000,True,1.0
./expes/v2_2020-12-06_dh_200-prng-1,30_issda_200,200,rng-200,191,rng,num-start-171,171,25726,3.7814385890960693,True,,True,1,False,1000,True,1.0
./expes/v2_2020-12-06_dh_200-prng-1,30_issda_200,200,rng-200,51,rng,num-start-981,981,25726,23.832791805267334,True,,True,1,False,1000,True,1.0
./expes/v2_2020-12-06_dh_200-prng-1,30_issda_200,200,rng-200,121,rng,num-start-171,171,25726,4.556056261062622,True,,True,1,False,1000,True,1.0
./expes/v2_2020-12-06_dh_200-prng-1,30_issda_200,200,rng-200,61,rng,num-start-511,511,25726,12.051685571670532,True,,True,1,False,1000,True,1.0
./expes/v2_2020-12-06_dh_200-prng-1,30_issda_200,200,rng-200,111,rng,num-start-991,991,25726,23.51835346221924,True,,True,1,False,1000,True,1.0
./expes/v2_2020-12-06_dh_200-prng-1,30_issda_200,200,rng-200,151,rng,num-start-811,811,25726,20.750336170196533,True,,True,1,False,1000,True,1.0
./expes/v2_2020-12-06_dh_200-prng-1,30_issda_200,200,rng-200,121,rng,num-start-641,641,25726,16.89720368385315,True,,True,1,False,1000,True,1.0
./expes/v2_2020-12-06_dh_200-prng-1,30_issda_200,200,rng-200,161,rng,num-start-581,581,25726,25.5606951713562,True,,True,1,False,1000,True,1.0
./expes/v2_2020-12-06_dh_200-prng-1,30_issda_200,200,rng-200,81,rng,num-start-881,881,25726,22.76493239402771,True,,True,1,False,1000,True,1.0
./expes/v2_2020-12-06_dh_200-prng-1,30_issda_200,200,rng-200,21,rng,num-start-881,881,25726,21.950677156448364,True,,True,1,False,1000,True,1.0
./expes/v2_2020-12-06_dh_200-prng-1,30_issda_200,200,rng-200,121,rng,num-start-191,191,25726,5.433887958526611,True,,True,1,False,1000,True,1.0
./expes/v2_2020-12-06_dh_200-prng-1,30_issda_200,200,rng-200,171,rng,num-start-401,401,25726,10.868797540664673,True,,True,1,False,1000,True,1.0
./expes/v2_2020-12-06_dh_200-prng-1,30_issda_200,200,rng-200,1,rng,num-start-551,551,25726,11.942439556121826,True,,True,1,False,1000,True,1.0
./expes/v2_2020-12-06_dh_200-prng-1,30_issda_200,200,rng-200,41,rng,num-start-231,231,25726,9.199357271194458,True,,True,1,False,1000,True,1.0
./expes/v2_2020-12-06_dh_200-prng-1,30_issda_200,200,rng-200,91,rng,num-start-951,951,25726,26.3431179523468,True,,True,1,False,1000,True,1.0
./expes/v2_2020-12-06_dh_200-prng-1,30_issda_200,200,rng-200,81,rng,num-start-741,741,25726,24.197436332702637,True,,True,1,False,1000,True,1.0
./expes/v2_2020-12-06_dh_200-prng-1,30_issda_200,200,rng-200,121,rng,num-start-231,231,25726,16.02468752861023,True,,True,1,False,1000,True,1.0
./expes/v2_2020-12-06_dh_200-prng-1,30_issda_200,200,rng-200,21,rng,num-start-241,241,25726,5.8109235763549805,True,,True,1,False,1000,True,1.0
./expes/v2_2020-12-06_dh_200-prng-1,30_issda_200,200,rng-200,161,rng,num-start-871,871,25726,21.403472423553467,True,,True,1,False,1000,True,1.0
./expes/v2_2020-12-06_dh_200-prng-1,30_issda_200,200,rng-200,181,rng,num-start-171,171,25726,7.2938127517700195,True,,True,1,False,1000,True,1.0
./expes/v2_2020-12-06_dh_200-prng-1,30_issda_200,200,rng-200,1,rng,num-start-261,261,25726,21.027222633361816,True,,True,1,False,1000,True,1.0
./expes/v2_2020-12-06_dh_200-prng-1,30_issda_200,200,rng-200,101,rng,num-start-781,781,25726,20.96175789833069,True,,True,1,False,1000,True,1.0
./expes/v2_2020-12-06_dh_200-prng-1,30_issda_200,200,rng-200,91,rng,num-start-61,61,25726,21.931748628616333,True,,True,1,False,1000,True,1.0
./expes/v2_2020-12-06_dh_200-prng-1,30_issda_200,200,rng-200,151,rng,num-start-831,831,25726,20.684346437454224,True,,True,1,False,1000,True,1.0
./expes/v2_2020-12-06_dh_200-prng-1,30_issda_200,200,rng-200,191,rng,num-start-151,151,25726,3.599334955215454,True,,True,1,False,1000,True,1.0
./expes/v2_2020-12-06_dh_200-prng-1,30_issda_200,200,rng-200,131,rng,num-start-811,811,25726,19.39957880973816,True,,True,1,False,1000,True,1.0
./expes/v2_2020-12-06_dh_200-prng-1,30_issda_200,200,rng-200,111,rng,num-start-831,831,25726,20.363765954971313,True,,True,1,False,1000,True,1.0
./expes/v2_2020-12-06_dh_200-prng-1,30_issda_200,200,rng-200,191,rng,num-start-481,481,25726,10.54878544807434,True,,True,1,False,1000,True,1.0
./expes/v2_2020-12-06_dh_200-prng-1,30_issda_200,200,rng-200,21,rng,num-start-851,851,25726,19.983204126358032,True,,True,1,False,1000,True,1.0
./expes/v2_2020-12-06_dh_200-prng-1,30_issda_200,200,rng-200,31,rng,num-start-421,421,25726,10.201414585113525,True,,True,1,False,1000,True,1.0
./expes/v2_2020-12-06_dh_200-prng-1,30_issda_200,200,rng-200,131,rng,num-start-241,241,25726,8.451012372970581,True,,True,1,False,1000,True,1.0
./expes/v2_2020-12-06_dh_200-prng-1,30_issda_200,200,rng-200,111,rng,num-start-491,491,25726,13.122509241104126,True,,True,1,False,1000,True,1.0
./expes/v2_2020-12-06_dh_200-prng-1,30_issda_200,200,rng-200,111,rng,num-start-621,621,25726,19.09853434562683,True,,True,1,False,1000,True,1.0
./expes/v2_2020-12-06_dh_200-prng-1,30_issda_200,200,rng-200,31,rng,num-start-461,461,25726,11.401753425598145,True,,True,1,False,1000,True,1.0
./expes/v2_2020-12-06_dh_200-prng-1,30_issda_200,200,rng-200,181,rng,num-start-471,471,25726,10.891435623168945,True,,True,1,False,1000,True,1.0
./expes/v2_2020-12-06_dh_200-prng-1,30_issda_200,200,rng-200,71,rng,num-start-641,641,25726,26.026402235031128,True,,True,1,False,1000,True,1.0
./expes/v2_2020-12-06_dh_200-prng-1,30_issda_200,200,rng-200,61,rng,num-start-441,441,25726,49.94569492340088,True,,True,1,False,1000,True,1.0
./expes/v2_2020-12-06_dh_200-prng-1,30_issda_200,200,rng-200,181,rng,num-start-871,871,25726,33.837291955947876,True,,True,1,False,1000,True,1.0
./expes/v2_2020-12-06_dh_200-prng-1,30_issda_200,200,rng-200,41,rng,num-start-151,151,25726,18.47609567642212,True,,True,1,False,1000,True,1.0
./expes/v2_2020-12-06_dh_200-prng-1,30_issda_200,200,rng-200,51,rng,num-start-91,91,25726,2.5803933143615723,True,,True,1,False,1000,True,1.0
./expes/v2_2020-12-06_dh_200-prng-1,30_issda_200,200,rng-200,111,rng,num-start-871,871,25726,23.23323345184326,True,,True,1,False,1000,True,1.0
./expes/v2_2020-12-06_dh_200-prng-1,30_issda_200,200,rng-200,181,rng,num-start-701,701,25726,15.993597507476807,True,,True,1,False,1000,True,1.0
./expes/v2_2020-12-06_dh_200-prng-1,30_issda_200,200,rng-200,121,rng,num-start-181,181,25726,4.4027369022369385,True,,True,1,False,1000,True,1.0
./expes/v2_2020-12-06_dh_200-prng-1,30_issda_200,200,rng-200,111,rng,num-start-621,621,25726,22.778518438339233,True,,True,1,False,1000,True,1.0
./expes/v2_2020-12-06_dh_200-prng-1,30_issda_200,200,rng-200,141,rng,num-start-601,601,25726,14.035451889038086,True,,True,1,False,1000,True,1.0
./expes/v2_2020-12-06_dh_200-prng-1,30_issda_200,200,rng-200,161,rng,num-start-101,101,25726,2.9437618255615234,True,,True,1,False,1000,True,1.0
./expes/v2_2020-12-06_dh_200-prng-1,30_issda_200,200,rng-200,61,rng,num-start-91,91,25726,2.5349490642547607,True,,True,1,False,1000,True,1.0
./expes/v2_2020-12-06_dh_200-prng-1,30_issda_200,200,rng-200,61,rng,num-start-431,431,25726,11.485589027404785,True,,True,1,False,1000,True,1.0
./expes/v2_2020-12-06_dh_200-prng-1,30_issda_200,200,rng-200,191,rng,num-start-661,661,25726,13.925851106643677,True,,True,1,False,1000,True,1.0
./expes/v2_2020-12-06_dh_200-prng-1,30_issda_200,200,rng-200,101,rng,num-start-371,371,25726,8.91000247001648,True,,True,1,False,1000,True,1.0
./expes/v2_2020-12-06_dh_200-prng-1,30_issda_200,200,rng-200,31,rng,num-start-181,181,25726,4.390751123428345,True,,True,1,False,1000,True,1.0
./expes/v2_2020-12-06_dh_200-prng-1,30_issda_200,200,rng-200,51,rng,num-start-301,301,25726,7.17569375038147,True,,True,1,False,1000,True,1.0
./expes/v2_2020-12-06_dh_200-prng-1,30_issda_200,200,rng-200,81,rng,num-start-311,311,25726,7.202244520187378,True,,True,1,False,1000,True,1.0
./expes/v2_2020-12-06_dh_200-prng-1,30_issda_200,200,rng-200,41,rng,num-start-971,971,25726,21.962058782577515,True,,True,1,False,1000,True,1.0
./expes/v2_2020-12-06_dh_200-prng-1,30_issda_200,200,rng-200,71,rng,num-start-861,861,25726,20.102946281433105,True,,True,1,False,1000,True,1.0
./expes/v2_2020-12-06_dh_200-prng-1,30_issda_200,200,rng-200,141,rng,num-start-171,171,25726,4.180706739425659,True,,True,1,False,1000,True,1.0
./expes/v2_2020-12-06_dh_200-prng-1,30_issda_200,200,rng-200,181,rng,num-start-1,1,25726,0.0959620475769043,False,,False,2,False,1000,True,1.0
./expes/v2_2020-12-06_dh_200-prng-1,30_issda_200,200,rng-200,31,rng,num-start-11,11,25726,1000.3689103126526,False,,False,0,True,1000,True,0.0
./expes/v2_2020-12-06_dh_200-prng-1,30_issda_200,200,rng-200,11,rng,num-start-511,511,25726,11.385944843292236,True,,True,1,False,1000,True,1.0
./expes/v2_2020-12-06_dh_200-prng-1,30_issda_200,200,rng-200,11,rng,num-start-681,681,25726,14.587451457977295,True,,True,1,False,1000,True,1.0
./expes/v2_2020-12-06_dh_200-prng-1,30_issda_200,200,rng-200,191,rng,num-start-101,101,25726,2.3320095539093018,True,,True,1,False,1000,True,1.0
./expes/v2_2020-12-06_dh_200-prng-1,30_issda_200,200,rng-200,1,rng,num-start-621,621,25726,21.445160388946533,True,,True,1,False,1000,True,1.0
./expes/v2_2020-12-06_dh_200-prng-1,30_issda_200,200,rng-200,131,rng,num-start-211,211,25726,11.481593132019043,True,,True,1,False,1000,True,1.0
./expes/v2_2020-12-06_dh_200-prng-1,30_issda_200,200,rng-200,61,rng,num-start-201,201,25726,6.459340333938599,True,,True,1,False,1000,True,1.0
./expes/v2_2020-12-06_dh_200-prng-1,30_issda_200,200,rng-200,1,rng,num-start-311,311,25726,38.58028554916382,True,,True,1,False,1000,True,1.0
./expes/v2_2020-12-06_dh_200-prng-1,30_issda_200,200,rng-200,101,rng,num-start-291,291,25726,23.33564853668213,True,,True,1,False,1000,True,1.0
./expes/v2_2020-12-06_dh_200-prng-1,30_issda_200,200,rng-200,131,rng,num-start-791,791,25726,35.250667095184326,True,,True,1,False,1000,True,1.0
./expes/v2_2020-12-06_dh_200-prng-1,30_issda_200,200,rng-200,61,rng,num-start-371,371,25726,23.219449281692505,True,,True,1,False,1000,True,1.0
./expes/v2_2020-12-06_dh_200-prng-1,30_issda_200,200,rng-200,141,rng,num-start-1,1,25726,0.19486260414123535,False,,False,2,False,1000,True,1.0
./expes/v2_2020-12-06_dh_200-prng-1,30_issda_200,200,rng-200,161,rng,num-start-611,611,25726,19.40768599510193,True,,True,1,False,1000,True,1.0
./expes/v2_2020-12-06_dh_200-prng-1,30_issda_200,200,rng-200,81,rng,num-start-191,191,25726,7.478111982345581,True,,True,1,False,1000,True,1.0
./expes/v2_2020-12-06_dh_200-prng-1,30_issda_200,200,rng-200,181,rng,num-start-191,191,25726,4.928473234176636,True,,True,1,False,1000,True,1.0
./expes/v2_2020-12-06_dh_200-prng-1,30_issda_200,200,rng-200,11,rng,num-start-511,511,25726,12.18392038345337,True,,True,1,False,1000,True,1.0
./expes/v2_2020-12-06_dh_200-prng-1,30_issda_200,200,rng-200,51,rng,num-start-81,81,25726,6.426432371139526,True,,True,1,False,1000,True,1.0
./expes/v2_2020-12-06_dh_200-prng-1,30_issda_200,200,rng-200,91,rng,num-start-771,771,25726,19.401429891586304,True,,True,1,False,1000,True,1.0
./expes/v2_2020-12-06_dh_200-prng-1,30_issda_200,200,rng-200,71,rng,num-start-621,621,25726,18.978796243667603,True,,True,1,False,1000,True,1.0
./expes/v2_2020-12-06_dh_200-prng-1,30_issda_200,200,rng-200,31,rng,num-start-681,681,25726,17.238287925720215,True,,True,1,False,1000,True,1.0
./expes/v2_2020-12-06_dh_200-prng-1,30_issda_200,200,rng-200,71,rng,num-start-841,841,25726,30.207252979278564,True,,True,1,False,1000,True,1.0
./expes/v2_2020-12-06_dh_200-prng-1,30_issda_200,200,rng-200,61,rng,num-start-741,741,25726,36.37462401390076,True,,True,1,False,1000,True,1.0
./expes/v2_2020-12-06_dh_200-prng-1,30_issda_200,200,rng-200,1,rng,num-start-791,791,25726,21.661375045776367,True,,True,1,False,1000,True,1.0
./expes/v2_2020-12-06_dh_200-prng-1,30_issda_200,200,rng-200,131,rng,num-start-991,991,25726,22.69667100906372,True,,True,1,False,1000,True,1.0
./expes/v2_2020-12-06_dh_200-prng-1,30_issda_200,200,rng-200,91,rng,num-start-431,431,25726,10.197371482849121,True,,True,1,False,1000,True,1.0
./expes/v2_2020-12-06_dh_200-prng-1,30_issda_200,200,rng-200,181,rng,num-start-241,241,25726,13.39255976676941,True,,True,1,False,1000,True,1.0
./expes/v2_2020-12-06_dh_200-prng-1,30_issda_200,200,rng-200,91,rng,num-start-851,851,25726,19.429625511169434,True,,True,1,False,1000,True,1.0
./expes/v2_2020-12-06_dh_200-prng-1,30_issda_200,200,rng-200,131,rng,num-start-461,461,25726,10.992124319076538,True,,True,1,False,1000,True,1.0
./expes/v2_2020-12-06_dh_200-prng-1,30_issda_200,200,rng-200,61,rng,num-start-281,281,25726,20.043782472610474,True,,True,1,False,1000,True,1.0
./expes/v2_2020-12-06_dh_200-prng-1,30_issda_200,200,rng-200,71,rng,num-start-221,221,25726,19.514049530029297,True,,True,1,False,1000,True,1.0
./expes/v2_2020-12-06_dh_200-prng-1,30_issda_200,200,rng-200,11,rng,num-start-31,31,25726,1.1206262111663818,True,,True,1,False,1000,True,1.0
./expes/v2_2020-12-06_dh_200-prng-1,30_issda_200,200,rng-200,131,rng,num-start-941,941,25726,23.328765869140625,True,,True,1,False,1000,True,1.0
./expes/v2_2020-12-06_dh_200-prng-1,30_issda_200,200,rng-200,171,rng,num-start-361,361,25726,7.681999921798706,True,,True,1,False,1000,True,1.0
./expes/v2_2020-12-06_dh_200-prng-1,30_issda_200,200,rng-200,31,rng,num-start-471,471,25726,11.19895625114441,True,,True,1,False,1000,True,1.0
./expes/v2_2020-12-06_dh_200-prng-1,30_issda_200,200,rng-200,11,rng,num-start-241,241,25726,11.461877346038818,True,,True,1,False,1000,True,1.0
./expes/v2_2020-12-06_dh_200-prng-1,30_issda_200,200,rng-200,141,rng,num-start-401,401,25726,11.178552150726318,True,,True,1,False,1000,True,1.0
./expes/v2_2020-12-06_dh_200-prng-1,30_issda_200,200,rng-200,141,rng,num-start-721,721,25726,20.110788583755493,True,,True,1,False,1000,True,1.0
./expes/v2_2020-12-06_dh_200-prng-1,30_issda_200,200,rng-200,111,rng,num-start-331,331,25726,9.006059646606445,True,,True,1,False,1000,True,1.0
./expes/v2_2020-12-06_dh_200-prng-1,30_issda_200,200,rng-200,81,rng,num-start-881,881,25726,22.74054479598999,True,,True,1,False,1000,True,1.0
./expes/v2_2020-12-06_dh_200-prng-1,30_issda_200,200,rng-200,31,rng,num-start-101,101,25726,2.649078607559204,True,,True,1,False,1000,True,1.0
./expes/v2_2020-12-06_dh_200-prng-1,30_issda_200,200,rng-200,61,rng,num-start-201,201,25726,5.154754161834717,True,,True,1,False,1000,True,1.0
./expes/v2_2020-12-06_dh_200-prng-1,30_issda_200,200,rng-200,141,rng,num-start-791,791,25726,19.292170763015747,True,,True,1,False,1000,True,1.0
./expes/v2_2020-12-06_dh_200-prng-1,30_issda_200,200,rng-200,151,rng,num-start-281,281,25726,6.5304131507873535,True,,True,1,False,1000,True,1.0
./expes/v2_2020-12-06_dh_200-prng-1,30_issda_200,200,rng-200,81,rng,num-start-651,651,25726,15.652707576751709,True,,True,1,False,1000,True,1.0
./expes/v2_2020-12-06_dh_200-prng-1,30_issda_200,200,rng-200,11,rng,num-start-931,931,25726,25.799256324768066,True,,True,1,False,1000,True,1.0
./expes/v2_2020-12-06_dh_200-prng-1,30_issda_200,200,rng-200,61,rng,num-start-731,731,25726,31.234076499938965,True,,True,1,False,1000,True,1.0
./expes/v2_2020-12-06_dh_200-prng-1,30_issda_200,200,rng-200,181,rng,num-start-381,381,25726,9.934380769729614,True,,True,1,False,1000,True,1.0
./expes/v2_2020-12-06_dh_200-prng-1,30_issda_200,200,rng-200,41,rng,num-start-351,351,25726,25.39340615272522,True,,True,1,False,1000,True,1.0
./expes/v2_2020-12-06_dh_200-prng-1,30_issda_200,200,rng-200,61,rng,num-start-751,751,25726,18.853429079055786,True,,True,1,False,1000,True,1.0
./expes/v2_2020-12-06_dh_200-prng-1,30_issda_200,200,rng-200,1,rng,num-start-671,671,25726,17.118008375167847,True,,True,1,False,1000,True,1.0
./expes/v2_2020-12-06_dh_200-prng-1,30_issda_200,200,rng-200,21,rng,num-start-951,951,25726,23.71817660331726,True,,True,1,False,1000,True,1.0
./expes/v2_2020-12-06_dh_200-prng-1,30_issda_200,200,rng-200,171,rng,num-start-211,211,25726,5.698204755783081,True,,True,1,False,1000,True,1.0
./expes/v2_2020-12-06_dh_200-prng-1,30_issda_200,200,rng-200,11,rng,num-start-871,871,25726,18.56678295135498,True,,True,1,False,1000,True,1.0
./expes/v2_2020-12-06_dh_200-prng-1,30_issda_200,200,rng-200,141,rng,num-start-761,761,25726,19.42590618133545,True,,True,1,False,1000,True,1.0
./expes/v2_2020-12-06_dh_200-prng-1,30_issda_200,200,rng-200,41,rng,num-start-941,941,25726,22.860220193862915,True,,True,1,False,1000,True,1.0
./expes/v2_2020-12-06_dh_200-prng-1,30_issda_200,200,rng-200,81,rng,num-start-11,11,25726,1000.4258177280426,False,,False,0,True,1000,True,0.0
./expes/v2_2020-12-06_dh_200-prng-1,30_issda_200,200,rng-200,31,rng,num-start-461,461,25726,10.529874563217163,True,,True,1,False,1000,True,1.0
./expes/v2_2020-12-06_dh_200-prng-1,30_issda_200,200,rng-200,11,rng,num-start-51,51,25726,2.938387632369995,True,,True,1,False,1000,True,1.0
./expes/v2_2020-12-06_dh_200-prng-1,30_issda_200,200,rng-200,191,rng,num-start-291,291,25726,6.2330427169799805,True,,True,1,False,1000,True,1.0
./expes/v2_2020-12-06_dh_200-prng-1,30_issda_200,200,rng-200,91,rng,num-start-681,681,25726,26.61868643760681,True,,True,1,False,1000,True,1.0
./expes/v2_2020-12-06_dh_200-prng-1,30_issda_200,200,rng-200,101,rng,num-start-351,351,25726,10.74037790298462,True,,True,1,False,1000,True,1.0
./expes/v2_2020-12-06_dh_200-prng-1,30_issda_200,200,rng-200,111,rng,num-start-791,791,25726,19.011788845062256,True,,True,1,False,1000,True,1.0
./expes/v2_2020-12-06_dh_200-prng-1,30_issda_200,200,rng-200,101,rng,num-start-491,491,25726,14.177813291549683,True,,True,1,False,1000,True,1.0
./expes/v2_2020-12-06_dh_200-prng-1,30_issda_200,200,rng-200,161,rng,num-start-381,381,25726,8.93649673461914,True,,True,1,False,1000,True,1.0
./expes/v2_2020-12-06_dh_200-prng-1,30_issda_200,200,rng-200,71,rng,num-start-331,331,25726,8.572103023529053,True,,True,1,False,1000,True,1.0
./expes/v2_2020-12-06_dh_200-prng-1,30_issda_200,200,rng-200,191,rng,num-start-911,911,25726,19.316184759140015,True,,True,1,False,1000,True,1.0
./expes/v2_2020-12-06_dh_200-prng-1,30_issda_200,200,rng-200,91,rng,num-start-521,521,25726,13.597071886062622,True,,True,1,False,1000,True,1.0
./expes/v2_2020-12-06_dh_200-prng-1,30_issda_200,200,rng-200,151,rng,num-start-101,101,25726,6.956435918807983,True,,True,1,False,1000,True,1.0
./expes/v2_2020-12-06_dh_200-prng-1,30_issda_200,200,rng-200,31,rng,num-start-581,581,25726,13.949468612670898,True,,True,1,False,1000,True,1.0
./expes/v2_2020-12-06_dh_200-prng-1,30_issda_200,200,rng-200,61,rng,num-start-421,421,25726,12.374801397323608,True,,True,1,False,1000,True,1.0
./expes/v2_2020-12-06_dh_200-prng-1,30_issda_200,200,rng-200,31,rng,num-start-901,901,25726,23.59791326522827,True,,True,1,False,1000,True,1.0
./expes/v2_2020-12-06_dh_200-prng-1,30_issda_200,200,rng-200,71,rng,num-start-91,91,25726,5.557162046432495,True,,True,1,False,1000,True,1.0
./expes/v2_2020-12-06_dh_200-prng-1,30_issda_200,200,rng-200,91,rng,num-start-551,551,25726,23.68576145172119,True,,True,1,False,1000,True,1.0
./expes/v2_2020-12-06_dh_200-prng-1,30_issda_200,200,rng-200,141,rng,num-start-841,841,25726,21.79650115966797,True,,True,1,False,1000,True,1.0
./expes/v2_2020-12-06_dh_200-prng-1,30_issda_200,200,rng-200,171,rng,num-start-711,711,25726,15.994837999343872,True,,True,1,False,1000,True,1.0
./expes/v2_2020-12-06_dh_200-prng-1,30_issda_200,200,rng-200,71,rng,num-start-661,661,25726,16.439401626586914,True,,True,1,False,1000,True,1.0
./expes/v2_2020-12-06_dh_200-prng-1,30_issda_200,200,rng-200,51,rng,num-start-81,81,25726,16.197396278381348,True,,True,1,False,1000,True,1.0
./expes/v2_2020-12-06_dh_200-prng-1,30_issda_200,200,rng-200,51,rng,num-start-581,581,25726,13.796610116958618,True,,True,1,False,1000,True,1.0
./expes/v2_2020-12-06_dh_200-prng-1,30_issda_200,200,rng-200,171,rng,num-start-431,431,25726,18.756358861923218,True,,True,1,False,1000,True,1.0
./expes/v2_2020-12-06_dh_200-prng-1,30_issda_200,200,rng-200,161,rng,num-start-311,311,25726,13.456901788711548,True,,True,1,False,1000,True,1.0
./expes/v2_2020-12-06_dh_200-prng-1,30_issda_200,200,rng-200,181,rng,num-start-601,601,25726,15.698652982711792,True,,True,1,False,1000,True,1.0
./expes/v2_2020-12-06_dh_200-prng-1,30_issda_200,200,rng-200,71,rng,num-start-621,621,25726,16.947439193725586,True,,True,1,False,1000,True,1.0
./expes/v2_2020-12-06_dh_200-prng-1,30_issda_200,200,rng-200,21,rng,num-start-341,341,25726,8.711055517196655,True,,True,1,False,1000,True,1.0
./expes/v2_2020-12-06_dh_200-prng-1,30_issda_200,200,rng-200,171,rng,num-start-871,871,25726,20.080414295196533,True,,True,1,False,1000,True,1.0
./expes/v2_2020-12-06_dh_200-prng-1,30_issda_200,200,rng-200,171,rng,num-start-111,111,25726,7.72560977935791,True,,True,1,False,1000,True,1.0
./expes/v2_2020-12-06_dh_200-prng-1,30_issda_200,200,rng-200,191,rng,num-start-641,641,25726,23.95875334739685,True,,True,1,False,1000,True,1.0
./expes/v2_2020-12-06_dh_200-prng-1,30_issda_200,200,rng-200,151,rng,num-start-281,281,25726,6.793501138687134,True,,True,1,False,1000,True,1.0
./expes/v2_2020-12-06_dh_200-prng-1,30_issda_200,200,rng-200,181,rng,num-start-601,601,25726,13.168587923049927,True,,True,1,False,1000,True,1.0
./expes/v2_2020-12-06_dh_200-prng-1,30_issda_200,200,rng-200,101,rng,num-start-441,441,25726,9.701326608657837,True,,True,1,False,1000,True,1.0
./expes/v2_2020-12-06_dh_200-prng-1,30_issda_200,200,rng-200,171,rng,num-start-951,951,25726,21.799350023269653,True,,True,1,False,1000,True,1.0
./expes/v2_2020-12-06_dh_200-prng-1,30_issda_200,200,rng-200,81,rng,num-start-91,91,25726,2.332679033279419,True,,True,1,False,1000,True,1.0
./expes/v2_2020-12-06_dh_200-prng-1,30_issda_200,200,rng-200,121,rng,num-start-801,801,25726,20.290367364883423,True,,True,1,False,1000,True,1.0
./expes/v2_2020-12-06_dh_200-prng-1,30_issda_200,200,rng-200,151,rng,num-start-541,541,25726,12.442760705947876,True,,True,1,False,1000,True,1.0
./expes/v2_2020-12-06_dh_200-prng-1,30_issda_200,200,rng-200,121,rng,num-start-451,451,25726,11.043164014816284,True,,True,1,False,1000,True,1.0
./expes/v2_2020-12-06_dh_200-prng-1,30_issda_200,200,rng-200,21,rng,num-start-831,831,25726,18.683513164520264,True,,True,1,False,1000,True,1.0
./expes/v2_2020-12-06_dh_200-prng-1,30_issda_200,200,rng-200,121,rng,num-start-341,341,25726,12.862537384033203,True,,True,1,False,1000,True,1.0
./expes/v2_2020-12-06_dh_200-prng-1,30_issda_200,200,rng-200,181,rng,num-start-21,21,25726,1000.7805309295654,False,,False,0,True,1000,True,0.0
./expes/v2_2020-12-06_dh_200-prng-1,30_issda_200,200,rng-200,111,rng,num-start-481,481,25726,11.49729871749878,True,,True,1,False,1000,True,1.0
./expes/v2_2020-12-06_dh_200-prng-1,30_issda_200,200,rng-200,1,rng,num-start-421,421,25726,8.507091045379639,True,,True,1,False,1000,True,1.0
./expes/v2_2020-12-06_dh_200-prng-1,30_issda_200,200,rng-200,151,rng,num-start-571,571,25726,29.527031183242798,True,,True,1,False,1000,True,1.0
./expes/v2_2020-12-06_dh_200-prng-1,30_issda_200,200,rng-200,181,rng,num-start-651,651,25726,31.81619882583618,True,,True,1,False,1000,True,1.0
./expes/v2_2020-12-06_dh_200-prng-1,30_issda_200,200,rng-200,131,rng,num-start-971,971,25726,26.39972162246704,True,,True,1,False,1000,True,1.0
./expes/v2_2020-12-06_dh_200-prng-1,30_issda_200,200,rng-200,11,rng,num-start-501,501,25726,35.769744873046875,True,,True,1,False,1000,True,1.0
./expes/v2_2020-12-06_dh_200-prng-1,30_issda_200,200,rng-200,21,rng,num-start-441,441,25726,19.48308038711548,True,,True,1,False,1000,True,1.0
./expes/v2_2020-12-06_dh_200-prng-1,30_issda_200,200,rng-200,101,rng,num-start-891,891,25726,34.7866895198822,True,,True,1,False,1000,True,1.0
./expes/v2_2020-12-06_dh_200-prng-1,30_issda_200,200,rng-200,141,rng,num-start-881,881,25726,37.19866991043091,True,,True,1,False,1000,True,1.0
./expes/v2_2020-12-06_dh_200-prng-1,30_issda_200,200,rng-200,141,rng,num-start-781,781,25726,19.448494911193848,True,,True,1,False,1000,True,1.0
./expes/v2_2020-12-06_dh_200-prng-1,30_issda_200,200,rng-200,151,rng,num-start-461,461,25726,11.40740966796875,True,,True,1,False,1000,True,1.0
./expes/v2_2020-12-06_dh_200-prng-1,30_issda_200,200,rng-200,1,rng,num-start-271,271,25726,5.847638845443726,True,,True,1,False,1000,True,1.0
./expes/v2_2020-12-06_dh_200-prng-1,30_issda_200,200,rng-200,21,rng,num-start-431,431,25726,10.129973888397217,True,,True,1,False,1000,True,1.0
./expes/v2_2020-12-06_dh_200-prng-1,30_issda_200,200,rng-200,1,rng,num-start-111,111,25726,7.705451011657715,True,,True,1,False,1000,True,1.0
./expes/v2_2020-12-06_dh_200-prng-1,30_issda_200,200,rng-200,51,rng,num-start-521,521,25726,12.308923959732056,True,,True,1,False,1000,True,1.0
./expes/v2_2020-12-06_dh_200-prng-1,30_issda_200,200,rng-200,131,rng,num-start-11,11,25726,1000.4101321697235,False,,False,0,True,1000,True,0.0
./expes/v2_2020-12-06_dh_200-prng-1,30_issda_200,200,rng-200,171,rng,num-start-801,801,25726,19.691940307617188,True,,True,1,False,1000,True,1.0
./expes/v2_2020-12-06_dh_200-prng-1,30_issda_200,200,rng-200,71,rng,num-start-641,641,25726,16.849486827850342,True,,True,1,False,1000,True,1.0
./expes/v2_2020-12-06_dh_200-prng-1,30_issda_200,200,rng-200,121,rng,num-start-41,41,25726,1001.1682007312775,False,,False,0,True,1000,True,0.0
./expes/v2_2020-12-06_dh_200-prng-1,30_issda_200,200,rng-200,1,rng,num-start-721,721,25726,15.627385139465332,True,,True,1,False,1000,True,1.0
./expes/v2_2020-12-06_dh_200-prng-1,30_issda_200,200,rng-200,171,rng,num-start-521,521,25726,12.874788284301758,True,,True,1,False,1000,True,1.0
./expes/v2_2020-12-06_dh_200-prng-1,30_issda_200,200,rng-200,1,rng,num-start-681,681,25726,15.747371912002563,True,,True,1,False,1000,True,1.0
./expes/v2_2020-12-06_dh_200-prng-1,30_issda_200,200,rng-200,131,rng,num-start-351,351,25726,15.099340438842773,True,,True,1,False,1000,True,1.0
./expes/v2_2020-12-06_dh_200-prng-1,30_issda_200,200,rng-200,41,rng,num-start-271,271,25726,6.813414096832275,True,,True,1,False,1000,True,1.0
./expes/v2_2020-12-06_dh_200-prng-1,30_issda_200,200,rng-200,21,rng,num-start-21,21,25726,1033.4245691299438,False,,False,1,True,1000,True,0.0
./expes/v2_2020-12-06_dh_200-prng-1,30_issda_200,200,rng-200,21,rng,num-start-711,711,25726,20.155613660812378,True,,True,1,False,1000,True,1.0
./expes/v2_2020-12-06_dh_200-prng-1,30_issda_200,200,rng-200,51,rng,num-start-541,541,25726,14.293156385421753,True,,True,1,False,1000,True,1.0
./expes/v2_2020-12-06_dh_200-prng-1,30_issda_200,200,rng-200,71,rng,num-start-61,61,25726,10.16296911239624,True,,True,1,False,1000,True,1.0
./expes/v2_2020-12-06_dh_200-prng-1,30_issda_200,200,rng-200,11,rng,num-start-681,681,25726,14.619658470153809,True,,True,1,False,1000,True,1.0
./expes/v2_2020-12-06_dh_200-prng-1,30_issda_200,200,rng-200,31,rng,num-start-341,341,25726,8.146921873092651,True,,True,1,False,1000,True,1.0
./expes/v2_2020-12-06_dh_200-prng-1,30_issda_200,200,rng-200,191,rng,num-start-331,331,25726,8.907813310623169,True,,True,1,False,1000,True,1.0
./expes/v2_2020-12-06_dh_200-prng-1,30_issda_200,200,rng-200,161,rng,num-start-441,441,25726,9.914750814437866,True,,True,1,False,1000,True,1.0
./expes/v2_2020-12-06_dh_200-prng-1,30_issda_200,200,rng-200,11,rng,num-start-961,961,25726,21.228777408599854,True,,True,1,False,1000,True,1.0
./expes/v2_2020-12-06_dh_200-prng-1,30_issda_200,200,rng-200,81,rng,num-start-11,11,25726,1009.5278074741364,False,,False,0,True,1000,True,0.0
./expes/v2_2020-12-06_dh_200-prng-1,30_issda_200,200,rng-200,21,rng,num-start-391,391,25726,14.169732332229614,True,,True,1,False,1000,True,1.0
./expes/v2_2020-12-06_dh_200-prng-1,30_issda_200,200,rng-200,71,rng,num-start-111,111,25726,2.942566394805908,True,,True,1,False,1000,True,1.0
./expes/v2_2020-12-06_dh_200-prng-1,30_issda_200,200,rng-200,151,rng,num-start-841,841,25726,29.911016702651978,True,,False,2,False,1000,True,1.0
./expes/v2_2020-12-06_dh_200-prng-1,30_issda_200,200,rng-200,81,rng,num-start-751,751,25726,18.278459787368774,True,,True,1,False,1000,True,1.0
./expes/v2_2020-12-06_dh_200-prng-1,30_issda_200,200,rng-200,21,rng,num-start-661,661,25726,19.280795335769653,True,,True,1,False,1000,True,1.0
./expes/v2_2020-12-06_dh_200-prng-1,30_issda_200,200,rng-200,81,rng,num-start-291,291,25726,13.679426431655884,True,,True,1,False,1000,True,1.0
./expes/v2_2020-12-06_dh_200-prng-1,30_issda_200,200,rng-200,141,rng,num-start-211,211,25726,13.615716457366943,True,,True,1,False,1000,True,1.0
./expes/v2_2020-12-06_dh_200-prng-1,30_issda_200,200,rng-200,101,rng,num-start-761,761,25726,21.308688640594482,True,,True,1,False,1000,True,1.0
./expes/v2_2020-12-06_dh_200-prng-1,30_issda_200,200,rng-200,131,rng,num-start-921,921,25726,21.97931480407715,True,,True,1,False,1000,True,1.0
./expes/v2_2020-12-06_dh_200-prng-1,30_issda_200,200,rng-200,61,rng,num-start-691,691,25726,19.415989875793457,True,,True,1,False,1000,True,1.0
./expes/v2_2020-12-06_dh_200-prng-1,30_issda_200,200,rng-200,171,rng,num-start-101,101,25726,2.5279664993286133,True,,True,1,False,1000,True,1.0
./expes/v2_2020-12-06_dh_200-prng-1,30_issda_200,200,rng-200,161,rng,num-start-281,281,25726,7.087713003158569,True,,True,1,False,1000,True,1.0
./expes/v2_2020-12-06_dh_200-prng-1,30_issda_200,200,rng-200,31,rng,num-start-21,21,25726,1010.7926828861237,False,,False,0,True,1000,True,0.0
./expes/v2_2020-12-06_dh_200-prng-1,30_issda_200,200,rng-200,131,rng,num-start-831,831,25726,19.677449464797974,True,,True,1,False,1000,True,1.0
./expes/v2_2020-12-06_dh_200-prng-1,30_issda_200,200,rng-200,171,rng,num-start-401,401,25726,11.851395606994629,True,,True,1,False,1000,True,1.0
./expes/v2_2020-12-06_dh_200-prng-1,30_issda_200,200,rng-200,91,rng,num-start-661,661,25726,27.343546867370605,True,,True,1,False,1000,True,1.0
./expes/v2_2020-12-06_dh_200-prng-1,30_issda_200,200,rng-200,111,rng,num-start-561,561,25726,24.411630868911743,True,,True,1,False,1000,True,1.0
./expes/v2_2020-12-06_dh_200-prng-1,30_issda_200,200,rng-200,181,rng,num-start-211,211,25726,5.587695837020874,True,,True,1,False,1000,True,1.0
./expes/v2_2020-12-06_dh_200-prng-1,30_issda_200,200,rng-200,161,rng,num-start-851,851,25726,29.57500171661377,True,,True,1,False,1000,True,1.0
./expes/v2_2020-12-06_dh_200-prng-1,30_issda_200,200,rng-200,91,rng,num-start-461,461,25726,11.725653409957886,True,,True,1,False,1000,True,1.0
./expes/v2_2020-12-06_dh_200-prng-1,30_issda_200,200,rng-200,191,rng,num-start-351,351,25726,10.261188268661499,True,,True,1,False,1000,True,1.0
./expes/v2_2020-12-06_dh_200-prng-1,30_issda_200,200,rng-200,191,rng,num-start-781,781,25726,17.209263563156128,True,,True,1,False,1000,True,1.0
./expes/v2_2020-12-06_dh_200-prng-1,30_issda_200,200,rng-200,111,rng,num-start-161,161,25726,6.960721015930176,True,,True,1,False,1000,True,1.0
./expes/v2_2020-12-06_dh_200-prng-1,30_issda_200,200,rng-200,91,rng,num-start-331,331,25726,12.058918237686157,True,,True,1,False,1000,True,1.0
./expes/v2_2020-12-06_dh_200-prng-1,30_issda_200,200,rng-200,141,rng,num-start-751,751,25726,27.240776300430298,True,,True,1,False,1000,True,1.0
./expes/v2_2020-12-06_dh_200-prng-1,30_issda_200,200,rng-200,171,rng,num-start-471,471,25726,14.298309564590454,True,,True,1,False,1000,True,1.0
./expes/v2_2020-12-06_dh_200-prng-1,30_issda_200,200,rng-200,41,rng,num-start-181,181,25726,4.159482955932617,True,,True,1,False,1000,True,1.0
./expes/v2_2020-12-06_dh_200-prng-1,30_issda_200,200,rng-200,61,rng,num-start-591,591,25726,19.502530336380005,True,,True,1,False,1000,True,1.0
./expes/v2_2020-12-06_dh_200-prng-1,30_issda_200,200,rng-200,111,rng,num-start-691,691,25726,21.66935443878174,True,,True,1,False,1000,True,1.0
./expes/v2_2020-12-06_dh_200-prng-1,30_issda_200,200,rng-200,31,rng,num-start-581,581,25726,12.9510817527771,True,,True,1,False,1000,True,1.0
./expes/v2_2020-12-06_dh_200-prng-1,30_issda_200,200,rng-200,121,rng,num-start-261,261,25726,6.283271789550781,True,,True,1,False,1000,True,1.0
./expes/v2_2020-12-06_dh_200-prng-1,30_issda_200,200,rng-200,71,rng,num-start-901,901,25726,23.48558282852173,True,,True,1,False,1000,True,1.0
./expes/v2_2020-12-06_dh_200-prng-1,30_issda_200,200,rng-200,61,rng,num-start-821,821,25726,20.95213294029236,True,,True,1,False,1000,True,1.0
./expes/v2_2020-12-06_dh_200-prng-1,30_issda_200,200,rng-200,171,rng,num-start-41,41,25726,37.8301568031311,True,,True,1,False,1000,True,1.0
./expes/v2_2020-12-06_dh_200-prng-1,30_issda_200,200,rng-200,111,rng,num-start-221,221,25726,6.750005483627319,True,,True,1,False,1000,True,1.0
./expes/v2_2020-12-06_dh_200-prng-1,30_issda_200,200,rng-200,71,rng,num-start-411,411,25726,9.784125804901123,True,,True,1,False,1000,True,1.0
./expes/v2_2020-12-06_dh_200-prng-1,30_issda_200,200,rng-200,151,rng,num-start-151,151,25726,3.866058349609375,True,,True,1,False,1000,True,1.0
./expes/v2_2020-12-06_dh_200-prng-1,30_issda_200,200,rng-200,61,rng,num-start-971,971,25726,38.614907026290894,True,,True,1,False,1000,True,1.0
./expes/v2_2020-12-06_dh_200-prng-1,30_issda_200,200,rng-200,101,rng,num-start-561,561,25726,14.62932276725769,True,,True,1,False,1000,True,1.0
./expes/v2_2020-12-06_dh_200-prng-1,30_issda_200,200,rng-200,51,rng,num-start-51,51,25726,3.7325239181518555,True,,True,1,False,1000,True,1.0
./expes/v2_2020-12-06_dh_200-prng-1,30_issda_200,200,rng-200,21,rng,num-start-541,541,25726,18.26199769973755,True,,True,1,False,1000,True,1.0
./expes/v2_2020-12-06_dh_200-prng-1,30_issda_200,200,rng-200,91,rng,num-start-761,761,25726,25.853330850601196,True,,True,1,False,1000,True,1.0
./expes/v2_2020-12-06_dh_200-prng-1,30_issda_200,200,rng-200,71,rng,num-start-241,241,25726,6.288612365722656,True,,True,1,False,1000,True,1.0
./expes/v2_2020-12-06_dh_200-prng-1,30_issda_200,200,rng-200,111,rng,num-start-281,281,25726,13.413990020751953,True,,True,1,False,1000,True,1.0
./expes/v2_2020-12-06_dh_200-prng-1,30_issda_200,200,rng-200,61,rng,num-start-371,371,25726,9.49265193939209,True,,True,1,False,1000,True,1.0
./expes/v2_2020-12-06_dh_200-prng-1,30_issda_200,200,rng-200,141,rng,num-start-641,641,25726,18.42193102836609,True,,True,1,False,1000,True,1.0
./expes/v2_2020-12-06_dh_200-prng-1,30_issda_200,200,rng-200,171,rng,num-start-41,41,25726,14.479612350463867,True,,True,1,False,1000,True,1.0
./expes/v2_2020-12-06_dh_200-prng-1,30_issda_200,200,rng-200,151,rng,num-start-411,411,25726,19.124880075454712,True,,True,1,False,1000,True,1.0
./expes/v2_2020-12-06_dh_200-prng-1,30_issda_200,200,rng-200,191,rng,num-start-341,341,25726,12.815367698669434,True,,True,1,False,1000,True,1.0
./expes/v2_2020-12-06_dh_200-prng-1,30_issda_200,200,rng-200,21,rng,num-start-661,661,25726,27.253820419311523,True,,True,1,False,1000,True,1.0
./expes/v2_2020-12-06_dh_200-prng-1,30_issda_200,200,rng-200,41,rng,num-start-141,141,25726,5.969553232192993,True,,True,1,False,1000,True,1.0
./expes/v2_2020-12-06_dh_200-prng-1,30_issda_200,200,rng-200,181,rng,num-start-101,101,25726,2.875699520111084,True,,True,1,False,1000,True,1.0
./expes/v2_2020-12-06_dh_200-prng-1,30_issda_200,200,rng-200,181,rng,num-start-561,561,25726,13.392646789550781,True,,True,1,False,1000,True,1.0
./expes/v2_2020-12-06_dh_200-prng-1,30_issda_200,200,rng-200,181,rng,num-start-371,371,25726,9.043875455856323,True,,True,1,False,1000,True,1.0
./expes/v2_2020-12-06_dh_200-prng-1,30_issda_200,200,rng-200,161,rng,num-start-831,831,25726,19.615628480911255,True,,True,1,False,1000,True,1.0
./expes/v2_2020-12-06_dh_200-prng-1,30_issda_200,200,rng-200,131,rng,num-start-401,401,25726,10.640050411224365,True,,True,1,False,1000,True,1.0
./expes/v2_2020-12-06_dh_200-prng-1,30_issda_200,200,rng-200,91,rng,num-start-531,531,25726,27.939542293548584,True,,True,1,False,1000,True,1.0
./expes/v2_2020-12-06_dh_200-prng-1,30_issda_200,200,rng-200,61,rng,num-start-861,861,25726,24.034990310668945,True,,True,1,False,1000,True,1.0
./expes/v2_2020-12-06_dh_200-prng-1,30_issda_200,200,rng-200,101,rng,num-start-451,451,25726,11.45020842552185,True,,True,1,False,1000,True,1.0
./expes/v2_2020-12-06_dh_200-prng-1,30_issda_200,200,rng-200,121,rng,num-start-121,121,25726,3.4512176513671875,True,,True,1,False,1000,True,1.0
./expes/v2_2020-12-06_dh_200-prng-1,30_issda_200,200,rng-200,71,rng,num-start-31,31,25726,1008.5151031017303,False,,False,0,True,1000,True,0.0
./expes/v2_2020-12-06_dh_200-prng-1,30_issda_200,200,rng-200,31,rng,num-start-491,491,25726,12.392920732498169,True,,True,1,False,1000,True,1.0
./expes/v2_2020-12-06_dh_200-prng-1,30_issda_200,200,rng-200,191,rng,num-start-581,581,25726,12.604318618774414,True,,True,1,False,1000,True,1.0
./expes/v2_2020-12-06_dh_200-prng-1,30_issda_200,200,rng-200,191,rng,num-start-911,911,25726,24.106597185134888,True,,True,1,False,1000,True,1.0
./expes/v2_2020-12-06_dh_200-prng-1,30_issda_200,200,rng-200,191,rng,num-start-711,711,25726,16.814512729644775,True,,True,1,False,1000,True,1.0
./expes/v2_2020-12-06_dh_200-prng-1,30_issda_200,200,rng-200,161,rng,num-start-151,151,25726,3.811695098876953,True,,True,1,False,1000,True,1.0
./expes/v2_2020-12-06_dh_200-prng-1,30_issda_200,200,rng-200,111,rng,num-start-351,351,25726,11.010323762893677,True,,True,1,False,1000,True,1.0
./expes/v2_2020-12-06_dh_200-prng-1,30_issda_200,200,rng-200,1,rng,num-start-981,981,25726,23.07146191596985,True,,True,1,False,1000,True,1.0
./expes/v2_2020-12-06_dh_200-prng-1,30_issda_200,200,rng-200,51,rng,num-start-831,831,25726,22.304314613342285,True,,True,1,False,1000,True,1.0
./expes/v2_2020-12-06_dh_200-prng-1,30_issda_200,200,rng-200,161,rng,num-start-761,761,25726,18.5221107006073,True,,True,1,False,1000,True,1.0
./expes/v2_2020-12-06_dh_200-prng-1,30_issda_200,200,rng-200,71,rng,num-start-951,951,25726,25.279464960098267,True,,True,1,False,1000,True,1.0
./expes/v2_2020-12-06_dh_200-prng-1,30_issda_200,200,rng-200,141,rng,num-start-481,481,25726,11.774318933486938,True,,True,1,False,1000,True,1.0
./expes/v2_2020-12-06_dh_200-prng-1,30_issda_200,200,rng-200,21,rng,num-start-761,761,25726,17.92593026161194,True,,True,1,False,1000,True,1.0
./expes/v2_2020-12-06_dh_200-prng-1,30_issda_200,200,rng-200,181,rng,num-start-631,631,25726,15.26126766204834,True,,True,1,False,1000,True,1.0
./expes/v2_2020-12-06_dh_200-prng-1,30_issda_200,200,rng-200,111,rng,num-start-311,311,25726,8.441558122634888,True,,True,1,False,1000,True,1.0
./expes/v2_2020-12-06_dh_200-prng-1,30_issda_200,200,rng-200,11,rng,num-start-161,161,25726,4.035992383956909,True,,True,1,False,1000,True,1.0
./expes/v2_2020-12-06_dh_200-prng-1,30_issda_200,200,rng-200,51,rng,num-start-741,741,25726,18.35387420654297,True,,True,1,False,1000,True,1.0
./expes/v2_2020-12-06_dh_200-prng-1,30_issda_200,200,rng-200,111,rng,num-start-231,231,25726,5.801235198974609,True,,True,1,False,1000,True,1.0
./expes/v2_2020-12-06_dh_200-prng-1,30_issda_200,200,rng-200,71,rng,num-start-191,191,25726,5.291936874389648,True,,True,1,False,1000,True,1.0
./expes/v2_2020-12-06_dh_200-prng-1,30_issda_200,200,rng-200,151,rng,num-start-71,71,25726,17.544479608535767,True,,True,1,False,1000,True,1.0
./expes/v2_2020-12-06_dh_200-prng-1,30_issda_200,200,rng-200,1,rng,num-start-131,131,25726,3.0158581733703613,True,,True,1,False,1000,True,1.0
./expes/v2_2020-12-06_dh_200-prng-1,30_issda_200,200,rng-200,41,rng,num-start-711,711,25726,21.2379412651062,True,,True,1,False,1000,True,1.0
./expes/v2_2020-12-06_dh_200-prng-1,30_issda_200,200,rng-200,71,rng,num-start-511,511,25726,18.432482719421387,True,,True,1,False,1000,True,1.0
./expes/v2_2020-12-06_dh_200-prng-1,30_issda_200,200,rng-200,161,rng,num-start-811,811,25726,46.40190768241882,True,,True,1,False,1000,True,1.0
./expes/v2_2020-12-06_dh_200-prng-1,30_issda_200,200,rng-200,141,rng,num-start-701,701,25726,17.13204836845398,True,,True,1,False,1000,True,1.0
./expes/v2_2020-12-06_dh_200-prng-1,30_issda_200,200,rng-200,11,rng,num-start-851,851,25726,20.055752992630005,True,,True,1,False,1000,True,1.0
./expes/v2_2020-12-06_dh_200-prng-1,30_issda_200,200,rng-200,1,rng,num-start-651,651,25726,20.446468830108643,True,,True,1,False,1000,True,1.0
./expes/v2_2020-12-06_dh_200-prng-1,30_issda_200,200,rng-200,81,rng,num-start-681,681,25726,18.344056367874146,True,,True,1,False,1000,True,1.0
./expes/v2_2020-12-06_dh_200-prng-1,30_issda_200,200,rng-200,181,rng,num-start-671,671,25726,16.05514430999756,True,,True,1,False,1000,True,1.0
./expes/v2_2020-12-06_dh_200-prng-1,30_issda_200,200,rng-200,151,rng,num-start-781,781,25726,18.93279242515564,True,,True,1,False,1000,True,1.0
./expes/v2_2020-12-06_dh_200-prng-1,30_issda_200,200,rng-200,1,rng,num-start-191,191,25726,4.219829559326172,True,,True,1,False,1000,True,1.0
./expes/v2_2020-12-06_dh_200-prng-1,30_issda_200,200,rng-200,1,rng,num-start-221,221,25726,4.999095916748047,True,,True,1,False,1000,True,1.0
./expes/v2_2020-12-06_dh_200-prng-1,30_issda_200,200,rng-200,91,rng,num-start-361,361,25726,12.816688537597656,True,,True,1,False,1000,True,1.0
./expes/v2_2020-12-06_dh_200-prng-1,30_issda_200,200,rng-200,101,rng,num-start-531,531,25726,13.969438314437866,True,,True,1,False,1000,True,1.0
./expes/v2_2020-12-06_dh_200-prng-1,30_issda_200,200,rng-200,31,rng,num-start-231,231,25726,9.80681300163269,True,,True,1,False,1000,True,1.0
./expes/v2_2020-12-06_dh_200-prng-1,30_issda_200,200,rng-200,141,rng,num-start-591,591,25726,15.440072536468506,True,,True,1,False,1000,True,1.0
./expes/v2_2020-12-06_dh_200-prng-1,30_issda_200,200,rng-200,131,rng,num-start-611,611,25726,17.112496614456177,True,,True,1,False,1000,True,1.0
./expes/v2_2020-12-06_dh_200-prng-1,30_issda_200,200,rng-200,151,rng,num-start-871,871,25726,21.771965742111206,True,,True,1,False,1000,True,1.0
./expes/v2_2020-12-06_dh_200-prng-1,30_issda_200,200,rng-200,61,rng,num-start-91,91,25726,6.99429178237915,True,,True,1,False,1000,True,1.0
./expes/v2_2020-12-06_dh_200-prng-1,30_issda_200,200,rng-200,11,rng,num-start-171,171,25726,4.188594102859497,True,,True,1,False,1000,True,1.0
./expes/v2_2020-12-06_dh_200-prng-1,30_issda_200,200,rng-200,171,rng,num-start-571,571,25726,20.926336526870728,True,,True,1,False,1000,True,1.0
./expes/v2_2020-12-06_dh_200-prng-1,30_issda_200,200,rng-200,11,rng,num-start-371,371,25726,11.478312015533447,True,,True,1,False,1000,True,1.0
./expes/v2_2020-12-06_dh_200-prng-1,30_issda_200,200,rng-200,51,rng,num-start-551,551,25726,15.942320108413696,True,,True,1,False,1000,True,1.0
./expes/v2_2020-12-06_dh_200-prng-1,30_issda_200,200,rng-200,21,rng,num-start-901,901,25726,25.21208906173706,True,,True,1,False,1000,True,1.0
./expes/v2_2020-12-06_dh_200-prng-1,30_issda_200,200,rng-200,91,rng,num-start-841,841,25726,27.116891622543335,True,,True,1,False,1000,True,1.0
./expes/v2_2020-12-06_dh_200-prng-1,30_issda_200,200,rng-200,171,rng,num-start-521,521,25726,16.113691329956055,True,,True,1,False,1000,True,1.0
./expes/v2_2020-12-06_dh_200-prng-1,30_issda_200,200,rng-200,81,rng,num-start-741,741,25726,22.592211484909058,True,,True,1,False,1000,True,1.0
./expes/v2_2020-12-06_dh_200-prng-1,30_issda_200,200,rng-200,11,rng,num-start-771,771,25726,22.302671194076538,True,,True,1,False,1000,True,1.0
./expes/v2_2020-12-06_dh_200-prng-1,30_issda_200,200,rng-200,181,rng,num-start-551,551,25726,13.715471744537354,True,,True,1,False,1000,True,1.0
./expes/v2_2020-12-06_dh_200-prng-1,30_issda_200,200,rng-200,151,rng,num-start-691,691,25726,19.177223920822144,True,,True,1,False,1000,True,1.0
./expes/v2_2020-12-06_dh_200-prng-1,30_issda_200,200,rng-200,71,rng,num-start-211,211,25726,6.148903846740723,True,,True,1,False,1000,True,1.0
./expes/v2_2020-12-06_dh_200-prng-1,30_issda_200,200,rng-200,41,rng,num-start-511,511,25726,14.043811321258545,True,,True,1,False,1000,True,1.0
./expes/v2_2020-12-06_dh_200-prng-1,30_issda_200,200,rng-200,81,rng,num-start-701,701,25726,18.249714612960815,True,,True,1,False,1000,True,1.0
./expes/v2_2020-12-06_dh_200-prng-1,30_issda_200,200,rng-200,131,rng,num-start-271,271,25726,7.005471229553223,True,,True,1,False,1000,True,1.0
./expes/v2_2020-12-06_dh_200-prng-1,30_issda_200,200,rng-200,71,rng,num-start-141,141,25726,3.9350156784057617,True,,True,1,False,1000,True,1.0
./expes/v2_2020-12-06_dh_200-prng-1,30_issda_200,200,rng-200,81,rng,num-start-11,11,25726,1001.0243632793427,False,,False,0,True,1000,True,0.0
./expes/v2_2020-12-06_dh_200-prng-1,30_issda_200,200,rng-200,151,rng,num-start-201,201,25726,4.716917037963867,True,,True,1,False,1000,True,1.0
./expes/v2_2020-12-06_dh_200-prng-1,30_issda_200,200,rng-200,11,rng,num-start-921,921,25726,20.588117122650146,True,,True,1,False,1000,True,1.0
./expes/v2_2020-12-06_dh_200-prng-1,30_issda_200,200,rng-200,91,rng,num-start-721,721,25726,17.596848249435425,True,,True,1,False,1000,True,1.0
./expes/v2_2020-12-06_dh_200-prng-1,30_issda_200,200,rng-200,1,rng,num-start-941,941,25726,19.179433345794678,True,,True,1,False,1000,True,1.0
./expes/v2_2020-12-06_dh_200-prng-1,30_issda_200,200,rng-200,121,rng,num-start-71,71,25726,2.9403271675109863,True,,True,1,False,1000,True,1.0
./expes/v2_2020-12-06_dh_200-prng-1,30_issda_200,200,rng-200,21,rng,num-start-911,911,25726,20.883638858795166,True,,True,1,False,1000,True,1.0
./expes/v2_2020-12-06_dh_200-prng-1,30_issda_200,200,rng-200,181,rng,num-start-211,211,25726,4.921495676040649,True,,True,1,False,1000,True,1.0
./expes/v2_2020-12-06_dh_200-prng-1,30_issda_200,200,rng-200,71,rng,num-start-891,891,25726,21.852346658706665,True,,True,1,False,1000,True,1.0
./expes/v2_2020-12-06_dh_200-prng-1,30_issda_200,200,rng-200,81,rng,num-start-631,631,25726,14.429075717926025,True,,True,1,False,1000,True,1.0
./expes/v2_2020-12-06_dh_200-prng-1,30_issda_200,200,rng-200,191,rng,num-start-211,211,25726,4.773580074310303,True,,True,1,False,1000,True,1.0
./expes/v2_2020-12-06_dh_200-prng-1,30_issda_200,200,rng-200,91,rng,num-start-461,461,25726,10.861715078353882,True,,True,1,False,1000,True,1.0
./expes/v2_2020-12-06_dh_200-prng-1,30_issda_200,200,rng-200,21,rng,num-start-381,381,25726,8.465301752090454,True,,True,1,False,1000,True,1.0
./expes/v2_2020-12-06_dh_200-prng-1,30_issda_200,200,rng-200,101,rng,num-start-331,331,25726,8.01410698890686,True,,True,1,False,1000,True,1.0
./expes/v2_2020-12-06_dh_200-prng-1,30_issda_200,200,rng-200,181,rng,num-start-141,141,25726,3.341539144515991,True,,True,1,False,1000,True,1.0
./expes/v2_2020-12-06_dh_200-prng-1,30_issda_200,200,rng-200,171,rng,num-start-331,331,25726,7.839303493499756,True,,True,1,False,1000,True,1.0
./expes/v2_2020-12-06_dh_200-prng-1,30_issda_200,200,rng-200,101,rng,num-start-121,121,25726,3.108750820159912,True,,True,1,False,1000,True,1.0
./expes/v2_2020-12-06_dh_200-prng-1,30_issda_200,200,rng-200,101,rng,num-start-511,511,25726,12.454239845275879,True,,True,1,False,1000,True,1.0
./expes/v2_2020-12-06_dh_200-prng-1,30_issda_200,200,rng-200,111,rng,num-start-441,441,25726,10.503333568572998,True,,True,1,False,1000,True,1.0
./expes/v2_2020-12-06_dh_200-prng-1,30_issda_200,200,rng-200,61,rng,num-start-621,621,25726,14.27290940284729,True,,True,1,False,1000,True,1.0
./expes/v2_2020-12-06_dh_200-prng-1,30_issda_200,200,rng-200,61,rng,num-start-21,21,25726,1002.6032426357269,False,,False,0,True,1000,True,0.0
./expes/v2_2020-12-06_dh_200-prng-1,30_issda_200,200,rng-200,51,rng,num-start-791,791,25726,19.18208909034729,True,,True,1,False,1000,True,1.0
./expes/v2_2020-12-06_dh_200-prng-1,30_issda_200,200,rng-200,1,rng,num-start-761,761,25726,15.945489645004272,True,,True,1,False,1000,True,1.0
./expes/v2_2020-12-06_dh_200-prng-1,30_issda_200,200,rng-200,31,rng,num-start-631,631,25726,15.112173318862915,True,,True,1,False,1000,True,1.0
./expes/v2_2020-12-06_dh_200-prng-1,30_issda_200,200,rng-200,111,rng,num-start-231,231,25726,5.83593225479126,True,,True,1,False,1000,True,1.0
./expes/v2_2020-12-06_dh_200-prng-1,30_issda_200,200,rng-200,51,rng,num-start-91,91,25726,2.3029215335845947,True,,True,1,False,1000,True,1.0
./expes/v2_2020-12-06_dh_200-prng-1,30_issda_200,200,rng-200,41,rng,num-start-191,191,25726,4.714495658874512,True,,True,1,False,1000,True,1.0
./expes/v2_2020-12-06_dh_200-prng-1,30_issda_200,200,rng-200,91,rng,num-start-631,631,25726,14.866354703903198,True,,True,1,False,1000,True,1.0
./expes/v2_2020-12-06_dh_200-prng-1,30_issda_200,200,rng-200,151,rng,num-start-411,411,25726,9.796732902526855,True,,True,1,False,1000,True,1.0
./expes/v2_2020-12-06_dh_200-prng-1,30_issda_200,200,rng-200,21,rng,num-start-671,671,25726,15.152549743652344,True,,True,1,False,1000,True,1.0
./expes/v2_2020-12-06_dh_200-prng-1,30_issda_200,200,rng-200,181,rng,num-start-331,331,25726,7.723071575164795,True,,True,1,False,1000,True,1.0
./expes/v2_2020-12-06_dh_200-prng-1,30_issda_200,200,rng-200,1,rng,num-start-471,471,25726,10.201293706893921,True,,True,1,False,1000,True,1.0
./expes/v2_2020-12-06_dh_200-prng-1,30_issda_200,200,rng-200,1,rng,num-start-81,81,25726,1.8095800876617432,True,,True,1,False,1000,True,1.0
./expes/v2_2020-12-06_dh_200-prng-1,30_issda_200,200,rng-200,151,rng,num-start-61,61,25726,4.532688617706299,True,,True,1,False,1000,True,1.0
./expes/v2_2020-12-06_dh_200-prng-1,30_issda_200,200,rng-200,81,rng,num-start-661,661,25726,15.941659688949585,True,,True,1,False,1000,True,1.0
./expes/v2_2020-12-06_dh_200-prng-1,30_issda_200,200,rng-200,191,rng,num-start-781,781,25726,16.85007095336914,True,,True,1,False,1000,True,1.0
./expes/v2_2020-12-06_dh_200-prng-1,30_issda_200,200,rng-200,171,rng,num-start-511,511,25726,11.482394695281982,True,,True,1,False,1000,True,1.0
./expes/v2_2020-12-06_dh_200-prng-1,30_issda_200,200,rng-200,21,rng,num-start-1,1,25726,0.09445619583129883,False,,False,2,False,1000,True,1.0
./expes/v2_2020-12-06_dh_200-prng-1,30_issda_200,200,rng-200,141,rng,num-start-801,801,25726,19.992907524108887,True,,True,1,False,1000,True,1.0
./expes/v2_2020-12-06_dh_200-prng-1,30_issda_200,200,rng-200,191,rng,num-start-331,331,25726,7.603696823120117,True,,True,1,False,1000,True,1.0
./expes/v2_2020-12-06_dh_200-prng-1,30_issda_200,200,rng-200,81,rng,num-start-121,121,25726,3.408694267272949,True,,True,1,False,1000,True,1.0
./expes/v2_2020-12-06_dh_200-prng-1,30_issda_200,200,rng-200,11,rng,num-start-951,951,25726,21.56020498275757,True,,True,1,False,1000,True,1.0
./expes/v2_2020-12-06_dh_200-prng-1,30_issda_200,200,rng-200,161,rng,num-start-221,221,25726,5.633694410324097,True,,True,1,False,1000,True,1.0
./expes/v2_2020-12-06_dh_200-prng-1,30_issda_200,200,rng-200,161,rng,num-start-201,201,25726,5.359939336776733,True,,True,1,False,1000,True,1.0
./expes/v2_2020-12-06_dh_200-prng-1,30_issda_200,200,rng-200,91,rng,num-start-91,91,25726,3.7746500968933105,True,,True,1,False,1000,True,1.0
./expes/v2_2020-12-06_dh_200-prng-1,30_issda_200,200,rng-200,41,rng,num-start-401,401,25726,10.32681131362915,True,,True,1,False,1000,True,1.0
./expes/v2_2020-12-06_dh_200-prng-1,30_issda_200,200,rng-200,181,rng,num-start-931,931,25726,22.43386697769165,True,,True,1,False,1000,True,1.0
./expes/v2_2020-12-06_dh_200-prng-1,30_issda_200,200,rng-200,191,rng,num-start-831,831,25726,18.649630784988403,True,,True,1,False,1000,True,1.0
./expes/v2_2020-12-06_dh_200-prng-1,30_issda_200,200,rng-200,71,rng,num-start-601,601,25726,15.124436616897583,True,,True,1,False,1000,True,1.0
./expes/v2_2020-12-06_dh_200-prng-1,30_issda_200,200,rng-200,101,rng,num-start-231,231,25726,6.121194362640381,True,,True,1,False,1000,True,1.0
./expes/v2_2020-12-06_dh_200-prng-1,30_issda_200,200,rng-200,21,rng,num-start-451,451,25726,10.637641429901123,True,,True,1,False,1000,True,1.0
./expes/v2_2020-12-06_dh_200-prng-1,30_issda_200,200,rng-200,1,rng,num-start-101,101,25726,2.1708927154541016,True,,True,1,False,1000,True,1.0
./expes/v2_2020-12-06_dh_200-prng-1,30_issda_200,200,rng-200,161,rng,num-start-91,91,25726,2.3195927143096924,True,,True,1,False,1000,True,1.0
./expes/v2_2020-12-06_dh_200-prng-1,30_issda_200,200,rng-200,101,rng,num-start-41,41,25726,1001.0504221916199,False,,False,0,True,1000,True,0.0
./expes/v2_2020-12-06_dh_200-prng-1,30_issda_200,200,rng-200,191,rng,num-start-121,121,25726,2.852687120437622,True,,True,1,False,1000,True,1.0
./expes/v2_2020-12-06_dh_200-prng-1,30_issda_200,200,rng-200,81,rng,num-start-1,1,25726,0.12174105644226074,False,,False,2,False,1000,True,1.0
./expes/v2_2020-12-06_dh_200-prng-1,30_issda_200,200,rng-200,171,rng,num-start-141,141,25726,3.63378643989563,True,,True,1,False,1000,True,1.0
./expes/v2_2020-12-06_dh_200-prng-1,30_issda_200,200,rng-200,71,rng,num-start-461,461,25726,11.347721338272095,True,,True,1,False,1000,True,1.0
./expes/v2_2020-12-06_dh_200-prng-1,30_issda_200,200,rng-200,71,rng,num-start-501,501,25726,12.594436645507812,True,,True,1,False,1000,True,1.0
./expes/v2_2020-12-06_dh_200-prng-1,30_issda_200,200,rng-200,191,rng,num-start-901,901,25726,19.335508823394775,True,,True,1,False,1000,True,1.0
./expes/v2_2020-12-06_dh_200-prng-1,30_issda_200,200,rng-200,31,rng,num-start-371,371,25726,9.205954790115356,True,,True,1,False,1000,True,1.0
./expes/v2_2020-12-06_dh_200-prng-1,30_issda_200,200,rng-200,21,rng,num-start-361,361,25726,8.448129415512085,True,,True,1,False,1000,True,1.0
./expes/v2_2020-12-06_dh_200-prng-1,30_issda_200,200,rng-200,151,rng,num-start-781,781,25726,19.41083025932312,True,,True,1,False,1000,True,1.0
./expes/v2_2020-12-06_dh_200-prng-1,30_issda_200,200,rng-200,51,rng,num-start-161,161,25726,4.416402339935303,True,,True,1,False,1000,True,1.0
./expes/v2_2020-12-06_dh_200-prng-1,30_issda_200,200,rng-200,71,rng,num-start-581,581,25726,14.581933736801147,True,,True,1,False,1000,True,1.0
./expes/v2_2020-12-06_dh_200-prng-1,30_issda_200,200,rng-200,191,rng,num-start-861,861,25726,18.52831745147705,True,,True,1,False,1000,True,1.0
./expes/v2_2020-12-06_dh_200-prng-1,30_issda_200,200,rng-200,151,rng,num-start-821,821,25726,19.391429901123047,True,,True,1,False,1000,True,1.0
./expes/v2_2020-12-06_dh_200-prng-1,30_issda_200,200,rng-200,81,rng,num-start-651,651,25726,16.102915048599243,True,,True,1,False,1000,True,1.0
./expes/v2_2020-12-06_dh_200-prng-1,30_issda_200,200,rng-200,101,rng,num-start-411,411,25726,9.76292872428894,True,,True,1,False,1000,True,1.0
./expes/v2_2020-12-06_dh_200-prng-1,30_issda_200,200,rng-200,101,rng,num-start-901,901,25726,22.589834451675415,True,,True,1,False,1000,True,1.0
./expes/v2_2020-12-06_dh_200-prng-1,30_issda_200,200,rng-200,141,rng,num-start-651,651,25726,15.906503438949585,True,,True,1,False,1000,True,1.0
./expes/v2_2020-12-06_dh_200-prng-1,30_issda_200,200,rng-200,81,rng,num-start-591,591,25726,14.278812170028687,True,,True,1,False,1000,True,1.0
./expes/v2_2020-12-06_dh_200-prng-1,30_issda_200,200,rng-200,21,rng,num-start-171,171,25726,4.224169969558716,True,,True,1,False,1000,True,1.0
./expes/v2_2020-12-06_dh_200-prng-1,30_issda_200,200,rng-200,51,rng,num-start-921,921,25726,21.183953523635864,True,,True,1,False,1000,True,1.0
./expes/v2_2020-12-06_dh_200-prng-1,30_issda_200,200,rng-200,111,rng,num-start-591,591,25726,14.079451322555542,True,,True,1,False,1000,True,1.0
./expes/v2_2020-12-06_dh_200-prng-1,30_issda_200,200,rng-200,141,rng,num-start-121,121,25726,3.2357065677642822,True,,True,1,False,1000,True,1.0
./expes/v2_2020-12-06_dh_200-prng-1,30_issda_200,200,rng-200,1,rng,num-start-91,91,25726,1.8183715343475342,True,,True,1,False,1000,True,1.0
./expes/v2_2020-12-06_dh_200-prng-1,30_issda_200,200,rng-200,121,rng,num-start-701,701,25726,16.53449773788452,True,,True,1,False,1000,True,1.0
./expes/v2_2020-12-06_dh_200-prng-1,30_issda_200,200,rng-200,181,rng,num-start-21,21,25726,1008.3186321258545,False,,False,0,True,1000,True,0.0
./expes/v2_2020-12-06_dh_200-prng-1,30_issda_200,200,rng-200,171,rng,num-start-611,611,25726,14.629692077636719,True,,True,1,False,1000,True,1.0
./expes/v2_2020-12-06_dh_200-prng-1,30_issda_200,200,rng-200,51,rng,num-start-511,511,25726,12.609723806381226,True,,True,1,False,1000,True,1.0
./expes/v2_2020-12-06_dh_200-prng-1,30_issda_200,200,rng-200,41,rng,num-start-11,11,25726,1000.5862774848938,False,,False,0,True,1000,True,0.0
./expes/v2_2020-12-06_dh_200-prng-1,30_issda_200,200,rng-200,1,rng,num-start-971,971,25726,21.631556272506714,True,,True,1,False,1000,True,1.0
./expes/v2_2020-12-06_dh_200-prng-1,30_issda_200,200,rng-200,131,rng,num-start-381,381,25726,9.821043729782104,True,,True,1,False,1000,True,1.0
./expes/v2_2020-12-06_dh_200-prng-1,30_issda_200,200,rng-200,31,rng,num-start-201,201,25726,5.352493762969971,True,,True,1,False,1000,True,1.0
./expes/v2_2020-12-06_dh_200-prng-1,30_issda_200,200,rng-200,21,rng,num-start-971,971,25726,23.50589895248413,True,,True,1,False,1000,True,1.0
./expes/v2_2020-12-06_dh_200-prng-1,30_issda_200,200,rng-200,31,rng,num-start-81,81,25726,2.1679584980010986,True,,True,1,False,1000,True,1.0
./expes/v2_2020-12-06_dh_200-prng-1,30_issda_200,200,rng-200,101,rng,num-start-701,701,25726,17.914663314819336,True,,True,1,False,1000,True,1.0
