expe,clients,clients_size,clients_subset,agg_size,method,days,days_size,days_total,time,valid,valid_sum,success,nsols,wall_hit,wall_time,pooled,valid_sums
./expes/v2_2020-11-29_di_1000-prng-1,daily_issda_1000,1000,rng-1000,101,rng,num-start-281,281,536,126.56069707870483,True,,True,1,False,1000,True,1.0
./expes/v2_2020-11-29_di_1000-prng-1,daily_issda_1000,1000,rng-1000,351,rng,num-start-271,271,536,1018.1055278778076,False,,False,0,True,1000,True,0.0
./expes/v2_2020-11-29_di_1000-prng-1,daily_issda_1000,1000,rng-1000,401,rng,num-start-281,281,536,1019.7436847686768,False,,False,0,True,1000,True,0.0
./expes/v2_2020-11-29_di_1000-prng-1,daily_issda_1000,1000,rng-1000,601,rng,num-start-151,151,536,1010.4213306903839,False,,False,0,True,1000,True,0.0
./expes/v2_2020-11-29_di_1000-prng-1,daily_issda_1000,1000,rng-1000,851,rng,num-start-171,171,536,1011.4909543991089,False,,False,0,True,1000,True,0.0
./expes/v2_2020-11-29_di_1000-prng-1,daily_issda_1000,1000,rng-1000,101,rng,num-start-241,241,536,56.91256332397461,True,,True,1,False,1000,True,1.0
./expes/v2_2020-11-29_di_1000-prng-1,daily_issda_1000,1000,rng-1000,51,rng,num-start-181,181,536,27.143760681152344,True,,True,1,False,1000,True,1.0
./expes/v2_2020-11-29_di_1000-prng-1,daily_issda_1000,1000,rng-1000,851,rng,num-start-241,241,536,1016.7969882488251,False,,False,0,True,1000,True,0.0
./expes/v2_2020-11-29_di_1000-prng-1,daily_issda_1000,1000,rng-1000,851,rng,num-start-21,21,536,1001.5970568656921,False,,False,0,True,1000,True,0.0
./expes/v2_2020-11-29_di_1000-prng-1,daily_issda_1000,1000,rng-1000,51,rng,num-start-221,221,536,42.81463670730591,True,,True,1,False,1000,True,1.0
./expes/v2_2020-11-29_di_1000-prng-1,daily_issda_1000,1000,rng-1000,201,rng,num-start-181,181,536,1013.0869688987732,False,,False,0,True,1000,True,0.0
./expes/v2_2020-11-29_di_1000-prng-1,daily_issda_1000,1000,rng-1000,251,rng,num-start-61,61,536,1004.2903964519501,False,,False,0,True,1000,True,0.0
./expes/v2_2020-11-29_di_1000-prng-1,daily_issda_1000,1000,rng-1000,51,rng,num-start-51,51,536,1003.4814820289612,False,,False,0,True,1000,True,0.0
./expes/v2_2020-11-29_di_1000-prng-1,daily_issda_1000,1000,rng-1000,651,rng,num-start-221,221,536,1015.8124186992645,False,,False,0,True,1000,True,0.0
./expes/v2_2020-11-29_di_1000-prng-1,daily_issda_1000,1000,rng-1000,301,rng,num-start-31,31,536,1002.1539280414581,False,,False,0,True,1000,True,0.0
./expes/v2_2020-11-29_di_1000-prng-1,daily_issda_1000,1000,rng-1000,201,rng,num-start-131,131,536,1009.0264756679535,False,,False,0,True,1000,True,0.0
./expes/v2_2020-11-29_di_1000-prng-1,daily_issda_1000,1000,rng-1000,1,rng,num-start-181,181,536,12.03723955154419,True,,True,1,False,1000,True,1.0
./expes/v2_2020-11-29_di_1000-prng-1,daily_issda_1000,1000,rng-1000,251,rng,num-start-81,81,536,1005.924394607544,False,,False,0,True,1000,True,0.0
./expes/v2_2020-11-29_di_1000-prng-1,daily_issda_1000,1000,rng-1000,951,rng,num-start-91,91,536,1005.6526238918304,False,,False,0,True,1000,True,0.0
./expes/v2_2020-11-29_di_1000-prng-1,daily_issda_1000,1000,rng-1000,351,rng,num-start-11,11,536,1000.9002277851105,False,,False,0,True,1000,True,0.0
./expes/v2_2020-11-29_di_1000-prng-1,daily_issda_1000,1000,rng-1000,51,rng,num-start-151,151,536,59.2319872379303,True,,True,1,False,1000,True,1.0
./expes/v2_2020-11-29_di_1000-prng-1,daily_issda_1000,1000,rng-1000,1,rng,num-start-201,201,536,14.184436559677124,True,,True,1,False,1000,True,1.0
./expes/v2_2020-11-29_di_1000-prng-1,daily_issda_1000,1000,rng-1000,251,rng,num-start-291,291,536,1019.9523522853851,False,,False,0,True,1000,True,0.0
./expes/v2_2020-11-29_di_1000-prng-1,daily_issda_1000,1000,rng-1000,101,rng,num-start-91,91,536,1006.2281692028046,False,,False,0,True,1000,True,0.0
./expes/v2_2020-11-29_di_1000-prng-1,daily_issda_1000,1000,rng-1000,451,rng,num-start-161,161,536,1011.1246345043182,False,,False,0,True,1000,True,0.0
./expes/v2_2020-11-29_di_1000-prng-1,daily_issda_1000,1000,rng-1000,351,rng,num-start-81,81,536,1005.8421816825867,False,,False,0,True,1000,True,0.0
./expes/v2_2020-11-29_di_1000-prng-1,daily_issda_1000,1000,rng-1000,901,rng,num-start-261,261,536,123.7553117275238,True,,True,1,False,1000,True,1.0
./expes/v2_2020-11-29_di_1000-prng-1,daily_issda_1000,1000,rng-1000,601,rng,num-start-71,71,536,1005.0186548233032,False,,False,0,True,1000,True,0.0
./expes/v2_2020-11-29_di_1000-prng-1,daily_issda_1000,1000,rng-1000,751,rng,num-start-291,291,536,1020.8984923362732,False,,False,0,True,1000,True,0.0
./expes/v2_2020-11-29_di_1000-prng-1,daily_issda_1000,1000,rng-1000,601,rng,num-start-231,231,536,1014.7631249427795,False,,False,0,True,1000,True,0.0
./expes/v2_2020-11-29_di_1000-prng-1,daily_issda_1000,1000,rng-1000,901,rng,num-start-201,201,536,176.34575843811035,True,,True,1,False,1000,True,1.0
./expes/v2_2020-11-29_di_1000-prng-1,daily_issda_1000,1000,rng-1000,201,rng,num-start-231,231,536,1016.6287684440613,False,,False,0,True,1000,True,0.0
./expes/v2_2020-11-29_di_1000-prng-1,daily_issda_1000,1000,rng-1000,601,rng,num-start-41,41,536,1002.6537554264069,False,,False,0,True,1000,True,0.0
./expes/v2_2020-11-29_di_1000-prng-1,daily_issda_1000,1000,rng-1000,751,rng,num-start-231,231,536,1015.3133618831635,False,,False,0,True,1000,True,0.0
./expes/v2_2020-11-29_di_1000-prng-1,daily_issda_1000,1000,rng-1000,751,rng,num-start-221,221,536,1014.4477264881134,False,,False,0,True,1000,True,0.0
./expes/v2_2020-11-29_di_1000-prng-1,daily_issda_1000,1000,rng-1000,101,rng,num-start-281,281,536,50.225991010665894,True,,True,1,False,1000,True,1.0
./expes/v2_2020-11-29_di_1000-prng-1,daily_issda_1000,1000,rng-1000,301,rng,num-start-111,111,536,1007.6175560951233,False,,False,0,True,1000,True,0.0
./expes/v2_2020-11-29_di_1000-prng-1,daily_issda_1000,1000,rng-1000,451,rng,num-start-71,71,536,1004.7138833999634,False,,False,0,True,1000,True,0.0
./expes/v2_2020-11-29_di_1000-prng-1,daily_issda_1000,1000,rng-1000,651,rng,num-start-171,171,536,1011.6025121212006,False,,False,0,True,1000,True,0.0
./expes/v2_2020-11-29_di_1000-prng-1,daily_issda_1000,1000,rng-1000,1,rng,num-start-211,211,536,13.919469356536865,True,,True,1,False,1000,True,1.0
./expes/v2_2020-11-29_di_1000-prng-1,daily_issda_1000,1000,rng-1000,501,rng,num-start-101,101,536,1007.1610760688782,False,,False,0,True,1000,True,0.0
./expes/v2_2020-11-29_di_1000-prng-1,daily_issda_1000,1000,rng-1000,951,rng,num-start-91,91,536,1006.1820864677429,False,,False,0,True,1000,True,0.0
./expes/v2_2020-11-29_di_1000-prng-1,daily_issda_1000,1000,rng-1000,201,rng,num-start-81,81,536,1005.1849474906921,False,,False,0,True,1000,True,0.0
./expes/v2_2020-11-29_di_1000-prng-1,daily_issda_1000,1000,rng-1000,901,rng,num-start-41,41,536,1002.7237269878387,False,,False,0,True,1000,True,0.0
./expes/v2_2020-11-29_di_1000-prng-1,daily_issda_1000,1000,rng-1000,151,rng,num-start-111,111,536,1007.7829258441925,False,,False,0,True,1000,True,0.0
./expes/v2_2020-11-29_di_1000-prng-1,daily_issda_1000,1000,rng-1000,351,rng,num-start-141,141,536,1009.65221118927,False,,False,0,True,1000,True,0.0
./expes/v2_2020-11-29_di_1000-prng-1,daily_issda_1000,1000,rng-1000,801,rng,num-start-221,221,536,1015.5658769607544,False,,False,0,True,1000,True,0.0
./expes/v2_2020-11-29_di_1000-prng-1,daily_issda_1000,1000,rng-1000,901,rng,num-start-261,261,536,97.96491694450378,True,,True,1,False,1000,True,1.0
./expes/v2_2020-11-29_di_1000-prng-1,daily_issda_1000,1000,rng-1000,901,rng,num-start-211,211,536,257.65712428092957,True,,True,1,False,1000,True,1.0
./expes/v2_2020-11-29_di_1000-prng-1,daily_issda_1000,1000,rng-1000,501,rng,num-start-151,151,536,1010.3198556900024,False,,False,0,True,1000,True,0.0
./expes/v2_2020-11-29_di_1000-prng-1,daily_issda_1000,1000,rng-1000,451,rng,num-start-161,161,536,1010.9905323982239,False,,False,0,True,1000,True,0.0
./expes/v2_2020-11-29_di_1000-prng-1,daily_issda_1000,1000,rng-1000,801,rng,num-start-271,271,536,1019.2459535598755,False,,False,0,True,1000,True,0.0
./expes/v2_2020-11-29_di_1000-prng-1,daily_issda_1000,1000,rng-1000,1,rng,num-start-211,211,536,14.442236185073853,True,,True,1,False,1000,True,1.0
./expes/v2_2020-11-29_di_1000-prng-1,daily_issda_1000,1000,rng-1000,301,rng,num-start-211,211,536,1014.8988103866577,False,,False,0,True,1000,True,0.0
./expes/v2_2020-11-29_di_1000-prng-1,daily_issda_1000,1000,rng-1000,151,rng,num-start-161,161,536,1010.6591684818268,False,,False,0,True,1000,True,0.0
./expes/v2_2020-11-29_di_1000-prng-1,daily_issda_1000,1000,rng-1000,201,rng,num-start-91,91,536,1006.142505645752,False,,False,0,True,1000,True,0.0
./expes/v2_2020-11-29_di_1000-prng-1,daily_issda_1000,1000,rng-1000,101,rng,num-start-61,61,536,1004.8609414100647,False,,False,0,True,1000,True,0.0
./expes/v2_2020-11-29_di_1000-prng-1,daily_issda_1000,1000,rng-1000,751,rng,num-start-21,21,536,1001.5239465236664,False,,False,0,True,1000,True,0.0
./expes/v2_2020-11-29_di_1000-prng-1,daily_issda_1000,1000,rng-1000,601,rng,num-start-271,271,536,1018.769537448883,False,,False,0,True,1000,True,0.0
./expes/v2_2020-11-29_di_1000-prng-1,daily_issda_1000,1000,rng-1000,651,rng,num-start-1,1,536,2.155207633972168,False,,False,2,False,1000,True,1.0
./expes/v2_2020-11-29_di_1000-prng-1,daily_issda_1000,1000,rng-1000,851,rng,num-start-261,261,536,1018.2036159038544,False,,False,1,True,1000,True,0.0
./expes/v2_2020-11-29_di_1000-prng-1,daily_issda_1000,1000,rng-1000,651,rng,num-start-291,291,536,1020.1412351131439,False,,False,0,True,1000,True,0.0
./expes/v2_2020-11-29_di_1000-prng-1,daily_issda_1000,1000,rng-1000,301,rng,num-start-171,171,536,1011.8873317241669,False,,False,0,True,1000,True,0.0
./expes/v2_2020-11-29_di_1000-prng-1,daily_issda_1000,1000,rng-1000,201,rng,num-start-251,251,536,1020.6100997924805,False,,False,0,True,1000,True,0.0
./expes/v2_2020-11-29_di_1000-prng-1,daily_issda_1000,1000,rng-1000,351,rng,num-start-181,181,536,1012.1884496212006,False,,False,0,True,1000,True,0.0
./expes/v2_2020-11-29_di_1000-prng-1,daily_issda_1000,1000,rng-1000,801,rng,num-start-111,111,536,1007.5366005897522,False,,False,0,True,1000,True,0.0
./expes/v2_2020-11-29_di_1000-prng-1,daily_issda_1000,1000,rng-1000,951,rng,num-start-161,161,536,210.65355920791626,True,,True,1,False,1000,True,1.0
./expes/v2_2020-11-29_di_1000-prng-1,daily_issda_1000,1000,rng-1000,901,rng,num-start-41,41,536,1002.8953323364258,False,,False,0,True,1000,True,0.0
./expes/v2_2020-11-29_di_1000-prng-1,daily_issda_1000,1000,rng-1000,151,rng,num-start-71,71,536,1004.8995733261108,False,,False,0,True,1000,True,0.0
./expes/v2_2020-11-29_di_1000-prng-1,daily_issda_1000,1000,rng-1000,101,rng,num-start-281,281,536,245.81713676452637,True,,True,1,False,1000,True,1.0
./expes/v2_2020-11-29_di_1000-prng-1,daily_issda_1000,1000,rng-1000,1,rng,num-start-261,261,536,18.05793023109436,True,,True,1,False,1000,True,1.0
./expes/v2_2020-11-29_di_1000-prng-1,daily_issda_1000,1000,rng-1000,201,rng,num-start-181,181,536,1012.3682448863983,False,,False,0,True,1000,True,0.0
./expes/v2_2020-11-29_di_1000-prng-1,daily_issda_1000,1000,rng-1000,51,rng,num-start-61,61,536,1004.1462445259094,False,,False,0,True,1000,True,0.0
./expes/v2_2020-11-29_di_1000-prng-1,daily_issda_1000,1000,rng-1000,501,rng,num-start-1,1,536,2.429628610610962,False,,False,2,False,1000,True,0.0
./expes/v2_2020-11-29_di_1000-prng-1,daily_issda_1000,1000,rng-1000,1,rng,num-start-271,271,536,19.034693002700806,True,,True,1,False,1000,True,1.0
./expes/v2_2020-11-29_di_1000-prng-1,daily_issda_1000,1000,rng-1000,801,rng,num-start-111,111,536,1007.8796272277832,False,,False,0,True,1000,True,0.0
./expes/v2_2020-11-29_di_1000-prng-1,daily_issda_1000,1000,rng-1000,901,rng,num-start-131,131,536,1009.151015996933,False,,False,0,True,1000,True,0.0
./expes/v2_2020-11-29_di_1000-prng-1,daily_issda_1000,1000,rng-1000,801,rng,num-start-41,41,536,1002.8628442287445,False,,False,0,True,1000,True,0.0
./expes/v2_2020-11-29_di_1000-prng-1,daily_issda_1000,1000,rng-1000,451,rng,num-start-291,291,536,1020.5949482917786,False,,False,0,True,1000,True,0.0
./expes/v2_2020-11-29_di_1000-prng-1,daily_issda_1000,1000,rng-1000,251,rng,num-start-91,91,536,1006.1638646125793,False,,False,0,True,1000,True,0.0
./expes/v2_2020-11-29_di_1000-prng-1,daily_issda_1000,1000,rng-1000,101,rng,num-start-251,251,536,155.98159980773926,True,,True,1,False,1000,True,1.0
./expes/v2_2020-11-29_di_1000-prng-1,daily_issda_1000,1000,rng-1000,701,rng,num-start-291,291,536,1020.4397954940796,False,,False,0,True,1000,True,0.0
./expes/v2_2020-11-29_di_1000-prng-1,daily_issda_1000,1000,rng-1000,301,rng,num-start-261,261,536,1018.3132927417755,False,,False,0,True,1000,True,0.0
./expes/v2_2020-11-29_di_1000-prng-1,daily_issda_1000,1000,rng-1000,901,rng,num-start-281,281,536,38.20227098464966,True,,True,1,False,1000,True,1.0
./expes/v2_2020-11-29_di_1000-prng-1,daily_issda_1000,1000,rng-1000,851,rng,num-start-71,71,536,1004.708503484726,False,,False,0,True,1000,True,0.0
./expes/v2_2020-11-29_di_1000-prng-1,daily_issda_1000,1000,rng-1000,501,rng,num-start-81,81,536,1005.4060702323914,False,,False,0,True,1000,True,0.0
./expes/v2_2020-11-29_di_1000-prng-1,daily_issda_1000,1000,rng-1000,601,rng,num-start-151,151,536,1009.5433413982391,False,,False,0,True,1000,True,0.0
./expes/v2_2020-11-29_di_1000-prng-1,daily_issda_1000,1000,rng-1000,351,rng,num-start-201,201,536,1014.2285418510437,False,,False,0,True,1000,True,0.0
./expes/v2_2020-11-29_di_1000-prng-1,daily_issda_1000,1000,rng-1000,901,rng,num-start-221,221,536,189.06135606765747,True,,True,1,False,1000,True,1.0
./expes/v2_2020-11-29_di_1000-prng-1,daily_issda_1000,1000,rng-1000,401,rng,num-start-71,71,536,1004.832727432251,False,,False,0,True,1000,True,0.0
./expes/v2_2020-11-29_di_1000-prng-1,daily_issda_1000,1000,rng-1000,451,rng,num-start-271,271,536,1019.1471252441406,False,,False,0,True,1000,True,0.0
./expes/v2_2020-11-29_di_1000-prng-1,daily_issda_1000,1000,rng-1000,201,rng,num-start-71,71,536,1004.8728132247925,False,,False,0,True,1000,True,0.0
./expes/v2_2020-11-29_di_1000-prng-1,daily_issda_1000,1000,rng-1000,901,rng,num-start-221,221,536,105.75196170806885,True,,True,1,False,1000,True,1.0
./expes/v2_2020-11-29_di_1000-prng-1,daily_issda_1000,1000,rng-1000,1,rng,num-start-11,11,536,0.9386544227600098,True,,True,1,False,1000,True,1.0
./expes/v2_2020-11-29_di_1000-prng-1,daily_issda_1000,1000,rng-1000,51,rng,num-start-281,281,536,55.78335642814636,True,,True,1,False,1000,True,1.0
./expes/v2_2020-11-29_di_1000-prng-1,daily_issda_1000,1000,rng-1000,1,rng,num-start-71,71,536,5.018793344497681,True,,True,1,False,1000,True,1.0
./expes/v2_2020-11-29_di_1000-prng-1,daily_issda_1000,1000,rng-1000,251,rng,num-start-271,271,536,1019.1870675086975,False,,False,0,True,1000,True,0.0
./expes/v2_2020-11-29_di_1000-prng-1,daily_issda_1000,1000,rng-1000,251,rng,num-start-61,61,536,1004.2951099872589,False,,False,0,True,1000,True,0.0
./expes/v2_2020-11-29_di_1000-prng-1,daily_issda_1000,1000,rng-1000,351,rng,num-start-171,171,536,1011.9319479465485,False,,False,0,True,1000,True,0.0
./expes/v2_2020-11-29_di_1000-prng-1,daily_issda_1000,1000,rng-1000,301,rng,num-start-211,211,536,1014.4956183433533,False,,False,0,True,1000,True,0.0
./expes/v2_2020-11-29_di_1000-prng-1,daily_issda_1000,1000,rng-1000,901,rng,num-start-121,121,536,1008.6046421527863,False,,False,0,True,1000,True,0.0
./expes/v2_2020-11-29_di_1000-prng-1,daily_issda_1000,1000,rng-1000,301,rng,num-start-101,101,536,1006.9176020622253,False,,False,0,True,1000,True,0.0
./expes/v2_2020-11-29_di_1000-prng-1,daily_issda_1000,1000,rng-1000,751,rng,num-start-11,11,536,1000.8363215923309,False,,False,0,True,1000,True,0.0
./expes/v2_2020-11-29_di_1000-prng-1,daily_issda_1000,1000,rng-1000,501,rng,num-start-71,71,536,1005.0022828578949,False,,False,0,True,1000,True,0.0
./expes/v2_2020-11-29_di_1000-prng-1,daily_issda_1000,1000,rng-1000,301,rng,num-start-71,71,536,1005.3359179496765,False,,False,0,True,1000,True,0.0
./expes/v2_2020-11-29_di_1000-prng-1,daily_issda_1000,1000,rng-1000,201,rng,num-start-151,151,536,1009.885858297348,False,,False,0,True,1000,True,0.0
./expes/v2_2020-11-29_di_1000-prng-1,daily_issda_1000,1000,rng-1000,851,rng,num-start-201,201,536,1013.0915801525116,False,,False,0,True,1000,True,0.0
./expes/v2_2020-11-29_di_1000-prng-1,daily_issda_1000,1000,rng-1000,51,rng,num-start-281,281,536,44.56086540222168,True,,True,1,False,1000,True,1.0
./expes/v2_2020-11-29_di_1000-prng-1,daily_issda_1000,1000,rng-1000,651,rng,num-start-151,151,536,1009.7921481132507,False,,False,0,True,1000,True,0.0
./expes/v2_2020-11-29_di_1000-prng-1,daily_issda_1000,1000,rng-1000,851,rng,num-start-291,291,536,257.3969724178314,True,,True,1,False,1000,True,1.0
./expes/v2_2020-11-29_di_1000-prng-1,daily_issda_1000,1000,rng-1000,1,rng,num-start-281,281,536,19.462780475616455,True,,True,1,False,1000,True,1.0
./expes/v2_2020-11-29_di_1000-prng-1,daily_issda_1000,1000,rng-1000,101,rng,num-start-231,231,536,108.82373118400574,True,,True,1,False,1000,True,1.0
./expes/v2_2020-11-29_di_1000-prng-1,daily_issda_1000,1000,rng-1000,601,rng,num-start-81,81,536,1005.5458183288574,False,,False,0,True,1000,True,0.0
