expe,clients,clients_size,clients_subset,agg_size,method,days,days_size,days_total,time,valid,valid_sum,success,nsols,wall_hit,wall_time,pooled,valid_sums
./expes/v2_2020-11-29_di_1000-prng-1,daily_issda_1000,1000,rng-1000,401,rng,num-start-111,111,536,1006.6232571601868,False,,False,0,True,1000,True,0.0
./expes/v2_2020-11-29_di_1000-prng-1,daily_issda_1000,1000,rng-1000,451,rng,num-start-121,121,536,1007.7378923892975,False,,False,0,True,1000,True,0.0
./expes/v2_2020-11-29_di_1000-prng-1,daily_issda_1000,1000,rng-1000,401,rng,num-start-51,51,536,1003.3518588542938,False,,False,0,True,1000,True,0.0
./expes/v2_2020-11-29_di_1000-prng-1,daily_issda_1000,1000,rng-1000,351,rng,num-start-121,121,536,1007.7101874351501,False,,False,0,True,1000,True,0.0
./expes/v2_2020-11-29_di_1000-prng-1,daily_issda_1000,1000,rng-1000,1,rng,num-start-291,291,536,18.530855655670166,True,,True,1,False,1000,True,1.0
./expes/v2_2020-11-29_di_1000-prng-1,daily_issda_1000,1000,rng-1000,951,rng,num-start-1,1,536,4.1519293785095215,False,,False,2,False,1000,True,1.0
./expes/v2_2020-11-29_di_1000-prng-1,daily_issda_1000,1000,rng-1000,51,rng,num-start-231,231,536,28.385934114456177,True,,True,1,False,1000,True,1.0
./expes/v2_2020-11-29_di_1000-prng-1,daily_issda_1000,1000,rng-1000,1,rng,num-start-131,131,536,8.057854890823364,True,,True,1,False,1000,True,1.0
./expes/v2_2020-11-29_di_1000-prng-1,daily_issda_1000,1000,rng-1000,351,rng,num-start-91,91,536,1005.9014027118683,False,,False,0,True,1000,True,0.0
./expes/v2_2020-11-29_di_1000-prng-1,daily_issda_1000,1000,rng-1000,801,rng,num-start-141,141,536,1008.9178488254547,False,,False,0,True,1000,True,0.0
./expes/v2_2020-11-29_di_1000-prng-1,daily_issda_1000,1000,rng-1000,201,rng,num-start-141,141,536,1009.0739977359772,False,,False,0,True,1000,True,0.0
./expes/v2_2020-11-29_di_1000-prng-1,daily_issda_1000,1000,rng-1000,101,rng,num-start-51,51,536,1003.2417831420898,False,,False,0,True,1000,True,0.0
./expes/v2_2020-11-29_di_1000-prng-1,daily_issda_1000,1000,rng-1000,1,rng,num-start-81,81,536,6.661176919937134,True,,True,1,False,1000,True,1.0
./expes/v2_2020-11-29_di_1000-prng-1,daily_issda_1000,1000,rng-1000,751,rng,num-start-181,181,536,1015.4700367450714,False,,False,0,True,1000,True,0.0
./expes/v2_2020-11-29_di_1000-prng-1,daily_issda_1000,1000,rng-1000,201,rng,num-start-111,111,536,1006.832409620285,False,,False,0,True,1000,True,0.0
./expes/v2_2020-11-29_di_1000-prng-1,daily_issda_1000,1000,rng-1000,251,rng,num-start-181,181,536,1011.3202135562897,False,,False,0,True,1000,True,0.0
./expes/v2_2020-11-29_di_1000-prng-1,daily_issda_1000,1000,rng-1000,701,rng,num-start-61,61,536,1004.025732755661,False,,False,0,True,1000,True,0.0
./expes/v2_2020-11-29_di_1000-prng-1,daily_issda_1000,1000,rng-1000,751,rng,num-start-241,241,536,1020.3253221511841,False,,False,0,True,1000,True,0.0
./expes/v2_2020-11-29_di_1000-prng-1,daily_issda_1000,1000,rng-1000,751,rng,num-start-131,131,536,1008.0595090389252,False,,False,0,True,1000,True,0.0
./expes/v2_2020-11-29_di_1000-prng-1,daily_issda_1000,1000,rng-1000,351,rng,num-start-181,181,536,1011.0917801856995,False,,False,0,True,1000,True,0.0
./expes/v2_2020-11-29_di_1000-prng-1,daily_issda_1000,1000,rng-1000,201,rng,num-start-241,241,536,1015.3832561969757,False,,False,0,True,1000,True,0.0
./expes/v2_2020-11-29_di_1000-prng-1,daily_issda_1000,1000,rng-1000,1,rng,num-start-81,81,536,5.008273124694824,True,,True,1,False,1000,True,1.0
./expes/v2_2020-11-29_di_1000-prng-1,daily_issda_1000,1000,rng-1000,401,rng,num-start-121,121,536,1007.5380911827087,False,,False,0,True,1000,True,0.0
./expes/v2_2020-11-29_di_1000-prng-1,daily_issda_1000,1000,rng-1000,551,rng,num-start-1,1,536,4.442841053009033,False,,False,2,False,1000,True,1.0
./expes/v2_2020-11-29_di_1000-prng-1,daily_issda_1000,1000,rng-1000,901,rng,num-start-291,291,536,31.12652015686035,True,,True,1,False,1000,True,1.0
./expes/v2_2020-11-29_di_1000-prng-1,daily_issda_1000,1000,rng-1000,1,rng,num-start-241,241,536,13.847364664077759,True,,True,1,False,1000,True,1.0
./expes/v2_2020-11-29_di_1000-prng-1,daily_issda_1000,1000,rng-1000,501,rng,num-start-111,111,536,1006.8033123016357,False,,False,0,True,1000,True,0.0
./expes/v2_2020-11-29_di_1000-prng-1,daily_issda_1000,1000,rng-1000,251,rng,num-start-1,1,536,3.1099817752838135,False,,False,2,False,1000,True,1.0
./expes/v2_2020-11-29_di_1000-prng-1,daily_issda_1000,1000,rng-1000,601,rng,num-start-51,51,536,1003.1310217380524,False,,False,0,True,1000,True,0.0
./expes/v2_2020-11-29_di_1000-prng-1,daily_issda_1000,1000,rng-1000,851,rng,num-start-91,91,536,1005.5368962287903,False,,False,0,True,1000,True,0.0
./expes/v2_2020-11-29_di_1000-prng-1,daily_issda_1000,1000,rng-1000,51,rng,num-start-41,41,536,1002.5394496917725,False,,False,0,True,1000,True,0.0
./expes/v2_2020-11-29_di_1000-prng-1,daily_issda_1000,1000,rng-1000,901,rng,num-start-231,231,536,84.09707307815552,True,,True,1,False,1000,True,1.0
./expes/v2_2020-11-29_di_1000-prng-1,daily_issda_1000,1000,rng-1000,101,rng,num-start-101,101,536,1008.0139303207397,False,,False,0,True,1000,True,0.0
./expes/v2_2020-11-29_di_1000-prng-1,daily_issda_1000,1000,rng-1000,951,rng,num-start-261,261,536,135.95836091041565,True,,True,1,False,1000,True,1.0
./expes/v2_2020-11-29_di_1000-prng-1,daily_issda_1000,1000,rng-1000,401,rng,num-start-71,71,536,1004.4750270843506,False,,False,0,True,1000,True,0.0
./expes/v2_2020-11-29_di_1000-prng-1,daily_issda_1000,1000,rng-1000,201,rng,num-start-11,11,536,1000.763133764267,False,,False,0,True,1000,True,0.0
./expes/v2_2020-11-29_di_1000-prng-1,daily_issda_1000,1000,rng-1000,901,rng,num-start-81,81,536,1005.2151186466217,False,,False,0,True,1000,True,0.0
./expes/v2_2020-11-29_di_1000-prng-1,daily_issda_1000,1000,rng-1000,1,rng,num-start-21,21,536,1.3483223915100098,True,,True,1,False,1000,True,1.0
./expes/v2_2020-11-29_di_1000-prng-1,daily_issda_1000,1000,rng-1000,551,rng,num-start-131,131,536,1008.2069933414459,False,,False,0,True,1000,True,0.0
./expes/v2_2020-11-29_di_1000-prng-1,daily_issda_1000,1000,rng-1000,201,rng,num-start-281,281,536,1016.7211380004883,False,,False,0,True,1000,True,0.0
./expes/v2_2020-11-29_di_1000-prng-1,daily_issda_1000,1000,rng-1000,251,rng,num-start-51,51,536,1003.3032972812653,False,,False,0,True,1000,True,0.0
./expes/v2_2020-11-29_di_1000-prng-1,daily_issda_1000,1000,rng-1000,101,rng,num-start-221,221,536,1013.9594824314117,False,,False,0,True,1000,True,0.0
./expes/v2_2020-11-29_di_1000-prng-1,daily_issda_1000,1000,rng-1000,501,rng,num-start-221,221,536,1014.3200795650482,False,,False,0,True,1000,True,0.0
./expes/v2_2020-11-29_di_1000-prng-1,daily_issda_1000,1000,rng-1000,751,rng,num-start-161,161,536,1010.3954918384552,False,,False,0,True,1000,True,0.0
./expes/v2_2020-11-29_di_1000-prng-1,daily_issda_1000,1000,rng-1000,201,rng,num-start-141,141,536,1008.5846633911133,False,,False,0,True,1000,True,0.0
./expes/v2_2020-11-29_di_1000-prng-1,daily_issda_1000,1000,rng-1000,301,rng,num-start-201,201,536,1012.5993773937225,False,,False,0,True,1000,True,0.0
./expes/v2_2020-11-29_di_1000-prng-1,daily_issda_1000,1000,rng-1000,901,rng,num-start-21,21,536,1001.3583831787109,False,,False,0,True,1000,True,0.0
./expes/v2_2020-11-29_di_1000-prng-1,daily_issda_1000,1000,rng-1000,951,rng,num-start-41,41,536,1002.5932374000549,False,,False,0,True,1000,True,0.0
./expes/v2_2020-11-29_di_1000-prng-1,daily_issda_1000,1000,rng-1000,451,rng,num-start-151,151,536,1009.6646347045898,False,,False,0,True,1000,True,0.0
./expes/v2_2020-11-29_di_1000-prng-1,daily_issda_1000,1000,rng-1000,151,rng,num-start-191,191,536,1011.4474804401398,False,,False,0,True,1000,True,0.0
./expes/v2_2020-11-29_di_1000-prng-1,daily_issda_1000,1000,rng-1000,501,rng,num-start-271,271,536,1016.4863359928131,False,,False,0,True,1000,True,0.0
./expes/v2_2020-11-29_di_1000-prng-1,daily_issda_1000,1000,rng-1000,351,rng,num-start-251,251,536,1016.7807154655457,False,,False,0,True,1000,True,0.0
./expes/v2_2020-11-29_di_1000-prng-1,daily_issda_1000,1000,rng-1000,551,rng,num-start-141,141,536,1009.2419369220734,False,,False,0,True,1000,True,0.0
./expes/v2_2020-11-29_di_1000-prng-1,daily_issda_1000,1000,rng-1000,951,rng,num-start-21,21,536,1001.4491708278656,False,,False,0,True,1000,True,0.0
./expes/v2_2020-11-29_di_1000-prng-1,daily_issda_1000,1000,rng-1000,1,rng,num-start-231,231,536,23.755289316177368,True,,True,1,False,1000,True,1.0
./expes/v2_2020-11-29_di_1000-prng-1,daily_issda_1000,1000,rng-1000,251,rng,num-start-281,281,536,1030.523514032364,False,,False,0,True,1000,True,0.0
./expes/v2_2020-11-29_di_1000-prng-1,daily_issda_1000,1000,rng-1000,651,rng,num-start-11,11,536,1000.7760908603668,False,,False,0,True,1000,True,0.0
./expes/v2_2020-11-29_di_1000-prng-1,daily_issda_1000,1000,rng-1000,451,rng,num-start-281,281,536,1017.9800267219543,False,,False,0,True,1000,True,0.0
./expes/v2_2020-11-29_di_1000-prng-1,daily_issda_1000,1000,rng-1000,151,rng,num-start-141,141,536,1009.1102802753448,False,,False,0,True,1000,True,0.0
./expes/v2_2020-11-29_di_1000-prng-1,daily_issda_1000,1000,rng-1000,151,rng,num-start-121,121,536,1008.022857427597,False,,False,0,True,1000,True,0.0
./expes/v2_2020-11-29_di_1000-prng-1,daily_issda_1000,1000,rng-1000,301,rng,num-start-91,91,536,1005.9119358062744,False,,False,0,True,1000,True,0.0
./expes/v2_2020-11-29_di_1000-prng-1,daily_issda_1000,1000,rng-1000,851,rng,num-start-81,81,536,1005.2086699008942,False,,False,0,True,1000,True,0.0
./expes/v2_2020-11-29_di_1000-prng-1,daily_issda_1000,1000,rng-1000,401,rng,num-start-41,41,536,1002.5702748298645,False,,False,0,True,1000,True,0.0
./expes/v2_2020-11-29_di_1000-prng-1,daily_issda_1000,1000,rng-1000,151,rng,num-start-171,171,536,1010.9961941242218,False,,False,0,True,1000,True,0.0
./expes/v2_2020-11-29_di_1000-prng-1,daily_issda_1000,1000,rng-1000,451,rng,num-start-271,271,536,1017.1762084960938,False,,False,0,True,1000,True,0.0
./expes/v2_2020-11-29_di_1000-prng-1,daily_issda_1000,1000,rng-1000,801,rng,num-start-171,171,536,1010.6404714584351,False,,False,0,True,1000,True,0.0
./expes/v2_2020-11-29_di_1000-prng-1,daily_issda_1000,1000,rng-1000,501,rng,num-start-81,81,536,1005.1173124313354,False,,False,0,True,1000,True,0.0
./expes/v2_2020-11-29_di_1000-prng-1,daily_issda_1000,1000,rng-1000,401,rng,num-start-101,101,536,1006.4904594421387,False,,False,0,True,1000,True,0.0
./expes/v2_2020-11-29_di_1000-prng-1,daily_issda_1000,1000,rng-1000,251,rng,num-start-91,91,536,1005.7069487571716,False,,False,0,True,1000,True,0.0
./expes/v2_2020-11-29_di_1000-prng-1,daily_issda_1000,1000,rng-1000,251,rng,num-start-201,201,536,1012.6098690032959,False,,False,0,True,1000,True,0.0
./expes/v2_2020-11-29_di_1000-prng-1,daily_issda_1000,1000,rng-1000,601,rng,num-start-261,261,536,1016.1037390232086,False,,False,0,True,1000,True,0.0
./expes/v2_2020-11-29_di_1000-prng-1,daily_issda_1000,1000,rng-1000,201,rng,num-start-31,31,536,1001.9412698745728,False,,False,0,True,1000,True,0.0
./expes/v2_2020-11-29_di_1000-prng-1,daily_issda_1000,1000,rng-1000,1,rng,num-start-201,201,536,12.456743717193604,True,,True,1,False,1000,True,1.0
./expes/v2_2020-11-29_di_1000-prng-1,daily_issda_1000,1000,rng-1000,451,rng,num-start-91,91,536,1005.7558872699738,False,,False,0,True,1000,True,0.0
./expes/v2_2020-11-29_di_1000-prng-1,daily_issda_1000,1000,rng-1000,551,rng,num-start-41,41,536,1002.5993802547455,False,,False,0,True,1000,True,0.0
./expes/v2_2020-11-29_di_1000-prng-1,daily_issda_1000,1000,rng-1000,801,rng,num-start-251,251,536,1015.6738345623016,False,,False,0,True,1000,True,0.0
./expes/v2_2020-11-29_di_1000-prng-1,daily_issda_1000,1000,rng-1000,551,rng,num-start-161,161,536,1010.1442835330963,False,,False,0,True,1000,True,0.0
./expes/v2_2020-11-29_di_1000-prng-1,daily_issda_1000,1000,rng-1000,401,rng,num-start-51,51,536,1003.1767203807831,False,,False,0,True,1000,True,0.0
./expes/v2_2020-11-29_di_1000-prng-1,daily_issda_1000,1000,rng-1000,401,rng,num-start-271,271,536,1017.0585331916809,False,,False,0,True,1000,True,0.0
./expes/v2_2020-11-29_di_1000-prng-1,daily_issda_1000,1000,rng-1000,901,rng,num-start-171,171,536,1010.4852750301361,False,,False,0,True,1000,True,0.0
./expes/v2_2020-11-29_di_1000-prng-1,daily_issda_1000,1000,rng-1000,151,rng,num-start-51,51,536,1003.1744594573975,False,,False,0,True,1000,True,0.0
./expes/v2_2020-11-29_di_1000-prng-1,daily_issda_1000,1000,rng-1000,801,rng,num-start-1,1,536,2.0936427116394043,False,,False,2,False,1000,True,1.0
./expes/v2_2020-11-29_di_1000-prng-1,daily_issda_1000,1000,rng-1000,301,rng,num-start-21,21,536,1001.3637692928314,False,,False,0,True,1000,True,0.0
./expes/v2_2020-11-29_di_1000-prng-1,daily_issda_1000,1000,rng-1000,601,rng,num-start-201,201,536,1012.3299584388733,False,,False,0,True,1000,True,0.0
./expes/v2_2020-11-29_di_1000-prng-1,daily_issda_1000,1000,rng-1000,151,rng,num-start-111,111,536,1006.9279887676239,False,,False,0,True,1000,True,0.0
./expes/v2_2020-11-29_di_1000-prng-1,daily_issda_1000,1000,rng-1000,701,rng,num-start-151,151,536,1009.7507638931274,False,,False,0,True,1000,True,0.0
./expes/v2_2020-11-29_di_1000-prng-1,daily_issda_1000,1000,rng-1000,451,rng,num-start-201,201,536,1016.2978358268738,False,,False,0,True,1000,True,0.0
./expes/v2_2020-11-29_di_1000-prng-1,daily_issda_1000,1000,rng-1000,651,rng,num-start-261,261,536,1016.4370303153992,False,,False,0,True,1000,True,0.0
./expes/v2_2020-11-29_di_1000-prng-1,daily_issda_1000,1000,rng-1000,801,rng,num-start-61,61,536,1003.9008755683899,False,,False,0,True,1000,True,0.0
./expes/v2_2020-11-29_di_1000-prng-1,daily_issda_1000,1000,rng-1000,251,rng,num-start-71,71,536,1004.5630013942719,False,,False,0,True,1000,True,0.0
./expes/v2_2020-11-29_di_1000-prng-1,daily_issda_1000,1000,rng-1000,101,rng,num-start-141,141,536,1008.7981007099152,False,,False,0,True,1000,True,0.0
./expes/v2_2020-11-29_di_1000-prng-1,daily_issda_1000,1000,rng-1000,751,rng,num-start-201,201,536,1012.3290433883667,False,,False,0,True,1000,True,0.0
./expes/v2_2020-11-29_di_1000-prng-1,daily_issda_1000,1000,rng-1000,951,rng,num-start-161,161,536,75.32595419883728,True,,True,1,False,1000,True,1.0
./expes/v2_2020-11-29_di_1000-prng-1,daily_issda_1000,1000,rng-1000,501,rng,num-start-201,201,536,1012.6701033115387,False,,False,0,True,1000,True,0.0
./expes/v2_2020-11-29_di_1000-prng-1,daily_issda_1000,1000,rng-1000,201,rng,num-start-141,141,536,1009.0457181930542,False,,False,0,True,1000,True,0.0
./expes/v2_2020-11-29_di_1000-prng-1,daily_issda_1000,1000,rng-1000,401,rng,num-start-11,11,536,1000.7202620506287,False,,False,0,True,1000,True,0.0
./expes/v2_2020-11-29_di_1000-prng-1,daily_issda_1000,1000,rng-1000,751,rng,num-start-151,151,536,1009.3932926654816,False,,False,0,True,1000,True,0.0
./expes/v2_2020-11-29_di_1000-prng-1,daily_issda_1000,1000,rng-1000,551,rng,num-start-121,121,536,1007.3864817619324,False,,False,0,True,1000,True,0.0
./expes/v2_2020-11-29_di_1000-prng-1,daily_issda_1000,1000,rng-1000,701,rng,num-start-161,161,536,1009.993793964386,False,,False,0,True,1000,True,0.0
./expes/v2_2020-11-29_di_1000-prng-1,daily_issda_1000,1000,rng-1000,901,rng,num-start-221,221,536,68.20304155349731,True,,True,1,False,1000,True,1.0
./expes/v2_2020-11-29_di_1000-prng-1,daily_issda_1000,1000,rng-1000,501,rng,num-start-271,271,536,1017.2643847465515,False,,False,0,True,1000,True,0.0
./expes/v2_2020-11-29_di_1000-prng-1,daily_issda_1000,1000,rng-1000,301,rng,num-start-131,131,536,1008.1561009883881,False,,False,0,True,1000,True,0.0
