expe,clients,clients_size,clients_subset,agg_size,agg_size_pc,method,days,days_size,days_total,noise_method,time,valid,valid_sum,success,score_avg,score_min,score_max,nsols,oracle,wall_hit,wall_time,pooled,pool_size,uuid,infeasible,optimal,valid_sums
./expes/v2_2021-03-23_issda-30_2000-prng-1-w2-p2,30_issda-2000,2000,first-2000,300,15,rng,num-start-3600,3600,25726,classic,1981.453714132309,True,,True,1.0,1.0,1.0,1,"['1', '13', '26', '31', '35', '38', '42', '45', '59', '62', '64', '76', '78', '93', '94', '111', '117', '128', '142', '156', '157', '166', '172', '176', '181', '183', '184', '191', '193', '197', '200', '206', '216', '230', '240', '245', '253', '260', '261', '281', '283', '292', '296', '297', '299', '317', '324', '330', '334', '347', '353', '374', '380', '385', '387', '394', '395', '396', '397', '402', '404', '406', '408', '412', '430', '457', '476', '499', '502', '503', '513', '515', '522', '525', '536', '544', '545', '549', '552', '559', '593', '596', '597', '622', '624', '627', '640', '652', '655', '656', '663', '675', '682', '688', '732', '739', '740', '741', '742', '751', '760', '765', '768', '771', '773', '774', '778', '779', '798', '815', '816', '838', '840', '841', '848', '864', '865', '867', '870', '874', '881', '904', '912', '914', '916', '921', '925', '926', '948', '957', '961', '964', '965', '973', '979', '981', '991', '994', '995', '997', '999', '1000', '1001', '1002', '1007', '1008', '1018', '1019', '1024', '1025', '1030', '1032', '1055', '1059', '1070', '1075', '1076', '1081', '1102', '1103', '1105', '1130', '1134', '1143', '1147', '1154', '1167', '1176', '1180', '1202', '1206', '1207', '1208', '1217', '1224', '1233', '1234', '1236', '1243', '1246', '1250', '1254', '1257', '1263', '1266', '1267', '1269', '1271', '1278', '1282', '1287', '1289', '1293', '1298', '1300', '1301', '1306', '1321', '1323', '1324', '1328', '1340', '1343', '1345', '1351', '1358', '1369', '1373', '1375', '1390', '1391', '1394', '1395', '1397', '1405', '1421', '1423', '1430', '1433', '1436', '1437', '1446', '1463', '1472', '1473', '1478', '1480', '1483', '1493', '1494', '1495', '1505', '1529', '1548', '1556', '1562', '1578', '1585', '1594', '1603', '1606', '1621', '1625', '1631', '1632', '1639', '1643', '1646', '1649', '1650', '1651', '1652', '1667', '1673', '1684', '1696', '1703', '1706', '1709', '1718', '1730', '1748', '1773', '1783', '1787', '1795', '1801', '1803', '1822', '1828', '1830', '1843', '1849', '1853', '1860', '1863', '1865', '1867', '1870', '1871', '1877', '1883', '1891', '1893', '1899', '1900', '1911', '1919', '1922', '1927', '1941', '1949', '1971', '1976', '1977', '1978', '1987', '1989', '1997', '2000']",False,2000,True,2,26ab5cd864,0.0,1.0,1.0
./expes/v2_2021-03-23_issda-30_2000-prng-1-w2-p2,30_issda-2000,2000,first-2000,900,45,rng,num-start-2000,2000,25726,classic,2237.570062160492,True,,False,1.0,1.0,1.0,1,"['1', '2', '10', '11', '14', '20', '22', '23', '24', '25', '26', '28', '29', '30', '31', '32', '33', '34', '35', '37', '40', '41', '44', '46', '47', '48', '50', '51', '56', '57', '59', '61', '62', '65', '69', '72', '73', '74', '75', '77', '80', '84', '85', '86', '87', '88', '91', '92', '93', '94', '96', '97', '98', '102', '103', '104', '107', '108', '109', '120', '122', '123', '124', '127', '130', '132', '135', '137', '138', '141', '142', '144', '145', '148', '149', '150', '151', '152', '153', '154', '155', '157', '158', '159', '160', '161', '165', '170', '171', '172', '174', '175', '177', '179', '180', '181', '185', '186', '189', '191', '193', '195', '196', '197', '199', '202', '203', '205', '206', '207', '213', '215', '218', '221', '222', '223', '224', '232', '234', '235', '236', '237', '239', '242', '245', '250', '252', '253', '255', '259', '261', '264', '266', '267', '269', '270', '272', '273', '275', '276', '278', '279', '280', '281', '284', '287', '288', '289', '290', '291', '294', '296', '300', '301', '305', '316', '317', '319', '321', '323', '324', '325', '327', '328', '337', '339', '342', '347', '348', '354', '355', '360', '361', '364', '366', '367', '371', '372', '373', '375', '378', '379', '382', '384', '386', '388', '389', '390', '391', '392', '393', '398', '399', '400', '401', '403', '404', '405', '406', '407', '409', '411', '412', '415', '418', '419', '420', '424', '427', '428', '430', '431', '432', '435', '436', '437', '438', '439', '443', '447', '448', '450', '454', '459', '464', '466', '468', '471', '472', '476', '477', '479', '486', '487', '489', '491', '495', '496', '497', '498', '500', '501', '502', '503', '505', '510', '511', '514', '521', '523', '524', '525', '526', '527', '529', '530', '532', '533', '537', '546', '552', '553', '557', '558', '560', '563', '564', '565', '567', '570', '571', '573', '574', '576', '578', '580', '581', '582', '583', '586', '592', '595', '596', '601', '603', '607', '613', '617', '618', '622', '623', '624', '633', '635', '636', '637', '638', '639', '640', '646', '647', '649', '650', '654', '657', '660', '663', '669', '670', '674', '676', '677', '678', '682', '687', '690', '692', '696', '699', '700', '701', '702', '703', '704', '709', '712', '714', '719', '721', '726', '727', '728', '729', '731', '733', '736', '737', '740', '742', '745', '746', '749', '754', '756', '758', '759', '762', '765', '769', '770', '772', '773', '777', '781', '784', '786', '788', '791', '792', '795', '796', '798', '799', '800', '801', '803', '806', '808', '809', '810', '812', '814', '815', '817', '821', '823', '825', '828', '829', '830', '831', '832', '834', '836', '838', '840', '841', '842', '843', '847', '848', '852', '853', '854', '855', '859', '860', '862', '864', '874', '879', '880', '881', '883', '885', '889', '891', '895', '900', '902', '903', '905', '906', '907', '909', '911', '913', '915', '917', '923', '926', '927', '928', '929', '930', '932', '933', '934', '937', '938', '940', '947', '948', '950', '951', '953', '954', '957', '960', '961', '963', '964', '966', '967', '968', '970', '973', '974', '975', '976', '979', '982', '985', '986', '988', '989', '990', '991', '996', '998', '999', '1006', '1009', '1010', '1012', '1013', '1015', '1017', '1019', '1020', '1021', '1022', '1024', '1025', '1030', '1031', '1033', '1034', '1036', '1040', '1041', '1043', '1046', '1049', '1050', '1051', '1054', '1055', '1056', '1057', '1058', '1062', '1063', '1064', '1065', '1066', '1067', '1069', '1071', '1072', '1074', '1076', '1079', '1082', '1083', '1085', '1087', '1088', '1092', '1094', '1096', '1097', '1098', '1100', '1103', '1104', '1106', '1107', '1109', '1110', '1112', '1113', '1115', '1116', '1119', '1126', '1127', '1128', '1129', '1130', '1135', '1145', '1146', '1147', '1149', '1151', '1153', '1154', '1156', '1157', '1160', '1164', '1165', '1167', '1168', '1169', '1172', '1174', '1177', '1178', '1182', '1186', '1188', '1190', '1192', '1193', '1194', '1195', '1197', '1198', '1200', '1202', '1203', '1209', '1211', '1212', '1214', '1220', '1222', '1224', '1225', '1226', '1228', '1229', '1231', '1232', '1233', '1236', '1237', '1239', '1240', '1245', '1247', '1249', '1250', '1251', '1252', '1253', '1257', '1258', '1259', '1261', '1262', '1266', '1270', '1275', '1277', '1278', '1279', '1280', '1282', '1285', '1286', '1287', '1289', '1290', '1291', '1293', '1297', '1299', '1300', '1303', '1304', '1307', '1308', '1309', '1310', '1311', '1312', '1313', '1315', '1316', '1319', '1321', '1328', '1330', '1332', '1334', '1337', '1339', '1340', '1342', '1346', '1352', '1357', '1360', '1364', '1365', '1368', '1369', '1375', '1377', '1379', '1383', '1389', '1390', '1395', '1397', '1398', '1402', '1403', '1404', '1405', '1407', '1408', '1412', '1416', '1421', '1422', '1423', '1429', '1431', '1432', '1434', '1436', '1437', '1438', '1442', '1443', '1444', '1447', '1448', '1450', '1452', '1457', '1463', '1467', '1468', '1470', '1472', '1473', '1476', '1479', '1480', '1481', '1482', '1485', '1486', '1489', '1492', '1493', '1497', '1499', '1501', '1504', '1506', '1510', '1514', '1515', '1516', '1518', '1522', '1524', '1525', '1532', '1533', '1534', '1537', '1543', '1544', '1546', '1547', '1548', '1549', '1553', '1555', '1560', '1561', '1562', '1567', '1568', '1570', '1572', '1574', '1576', '1583', '1594', '1595', '1596', '1598', '1600', '1607', '1614', '1618', '1620', '1622', '1623', '1625', '1632', '1633', '1634', '1635', '1637', '1639', '1640', '1641', '1642', '1645', '1646', '1647', '1649', '1651', '1654', '1658', '1659', '1660', '1669', '1670', '1671', '1673', '1675', '1676', '1679', '1682', '1684', '1687', '1688', '1690', '1698', '1700', '1701', '1702', '1703', '1704', '1705', '1706', '1715', '1717', '1719', '1721', '1725', '1726', '1728', '1730', '1732', '1734', '1736', '1739', '1743', '1744', '1745', '1746', '1750', '1752', '1753', '1755', '1756', '1763', '1764', '1769', '1770', '1771', '1774', '1775', '1777', '1782', '1785', '1788', '1794', '1800', '1801', '1802', '1803', '1807', '1813', '1818', '1819', '1821', '1824', '1825', '1827', '1829', '1830', '1835', '1836', '1837', '1839', '1844', '1845', '1846', '1849', '1854', '1855', '1856', '1858', '1861', '1862', '1863', '1864', '1865', '1867', '1873', '1874', '1876', '1879', '1884', '1885', '1886', '1888', '1890', '1892', '1893', '1895', '1896', '1899', '1904', '1905', '1906', '1907', '1909', '1910', '1913', '1914', '1917', '1918', '1920', '1923', '1925', '1926', '1928', '1934', '1935', '1936', '1937', '1940', '1944', '1946', '1949', '1950', '1951', '1956', '1957', '1960', '1961', '1963', '1965', '1966', '1969', '1972', '1974', '1975', '1976', '1981', '1984', '1986', '1987', '1989', '1993', '1994', '1997']",True,2000,True,2,04daa6b912,0.0,0.0,1.0
./expes/v2_2021-03-23_issda-30_2000-prng-1-w2-p2,30_issda-2000,2000,first-2000,400,20,rng,num-start-800,800,25726,classic,1904.3261573314667,True,,True,1.0,1.0,1.0,1,"['4', '8', '14', '16', '18', '23', '35', '36', '39', '49', '53', '56', '58', '59', '61', '63', '64', '67', '76', '78', '81', '82', '90', '95', '101', '106', '107', '108', '117', '121', '125', '147', '150', '153', '160', '169', '170', '172', '179', '186', '187', '191', '199', '202', '211', '218', '231', '234', '238', '242', '256', '270', '276', '277', '279', '284', '291', '293', '298', '301', '318', '319', '330', '333', '335', '344', '349', '351', '361', '365', '368', '369', '373', '387', '388', '393', '408', '409', '410', '411', '413', '419', '428', '429', '431', '435', '439', '451', '452', '455', '458', '460', '463', '466', '467', '471', '482', '489', '492', '495', '504', '507', '512', '516', '517', '523', '529', '536', '538', '545', '550', '551', '555', '561', '562', '567', '570', '573', '578', '584', '597', '607', '630', '635', '637', '640', '641', '660', '661', '663', '671', '676', '681', '687', '691', '696', '699', '700', '705', '712', '717', '718', '724', '725', '729', '730', '738', '740', '744', '745', '746', '748', '749', '751', '753', '755', '761', '768', '778', '781', '782', '788', '789', '790', '796', '797', '808', '810', '821', '829', '834', '835', '851', '856', '858', '861', '867', '868', '875', '879', '881', '884', '886', '888', '892', '893', '901', '902', '909', '912', '920', '934', '936', '941', '942', '943', '952', '962', '967', '972', '976', '977', '978', '986', '989', '995', '1000', '1004', '1008', '1013', '1021', '1024', '1025', '1026', '1027', '1029', '1032', '1039', '1043', '1048', '1052', '1053', '1056', '1058', '1063', '1067', '1068', '1080', '1084', '1095', '1096', '1102', '1105', '1109', '1110', '1115', '1120', '1125', '1127', '1135', '1137', '1141', '1143', '1144', '1147', '1154', '1168', '1169', '1174', '1181', '1189', '1190', '1206', '1217', '1221', '1227', '1232', '1234', '1243', '1244', '1245', '1248', '1252', '1264', '1268', '1273', '1275', '1276', '1279', '1280', '1285', '1296', '1305', '1307', '1310', '1312', '1313', '1318', '1347', '1351', '1354', '1355', '1356', '1359', '1360', '1365', '1367', '1369', '1370', '1380', '1384', '1390', '1391', '1395', '1396', '1400', '1402', '1404', '1407', '1410', '1411', '1412', '1414', '1415', '1422', '1425', '1426', '1428', '1430', '1432', '1435', '1444', '1446', '1455', '1473', '1477', '1487', '1488', '1500', '1504', '1507', '1514', '1533', '1543', '1556', '1558', '1560', '1561', '1567', '1570', '1579', '1581', '1582', '1588', '1606', '1609', '1613', '1617', '1622', '1623', '1625', '1629', '1634', '1635', '1641', '1642', '1646', '1660', '1671', '1677', '1678', '1679', '1685', '1704', '1726', '1727', '1739', '1751', '1753', '1760', '1766', '1771', '1774', '1789', '1807', '1812', '1814', '1816', '1832', '1835', '1839', '1846', '1849', '1851', '1856', '1865', '1868', '1874', '1875', '1882', '1885', '1893', '1899', '1900', '1913', '1915', '1918', '1928', '1933', '1934', '1939', '1941', '1958', '1964', '1971', '1975', '1982', '1990', '1992', '2000']",False,2000,True,2,6f02ee5747,0.0,1.0,1.0
./expes/v2_2021-03-23_issda-30_2000-prng-1-w2-p2,30_issda-2000,2000,first-2000,700,35,rng,num-start-600,600,25726,classic,2071.188753604889,False,,False,0,,,0,"['1', '3', '4', '5', '7', '17', '19', '20', '26', '28', '29', '30', '31', '32', '34', '39', '42', '45', '47', '55', '57', '65', '67', '68', '69', '73', '74', '75', '78', '79', '80', '81', '83', '84', '85', '87', '93', '94', '96', '97', '99', '103', '114', '119', '124', '126', '128', '129', '131', '135', '136', '142', '144', '146', '148', '152', '157', '162', '165', '166', '167', '168', '169', '171', '172', '174', '179', '184', '186', '187', '188', '192', '195', '201', '203', '204', '206', '207', '208', '215', '216', '223', '224', '228', '236', '237', '238', '240', '241', '244', '246', '249', '254', '255', '256', '261', '266', '267', '268', '272', '274', '277', '284', '286', '287', '289', '292', '300', '301', '304', '305', '307', '310', '311', '315', '317', '319', '320', '323', '325', '328', '330', '332', '336', '340', '342', '347', '350', '359', '366', '368', '370', '373', '374', '377', '379', '383', '386', '387', '388', '390', '391', '392', '394', '399', '400', '406', '407', '409', '414', '417', '419', '422', '423', '425', '426', '432', '438', '441', '443', '445', '448', '449', '451', '452', '453', '455', '457', '461', '479', '483', '489', '490', '491', '492', '496', '498', '500', '514', '522', '526', '527', '531', '532', '533', '534', '535', '537', '553', '556', '563', '564', '565', '571', '574', '576', '578', '588', '590', '593', '594', '595', '597', '601', '602', '603', '607', '613', '616', '617', '618', '619', '620', '621', '622', '631', '636', '638', '640', '645', '648', '650', '652', '656', '660', '661', '664', '665', '667', '668', '673', '677', '678', '682', '683', '685', '687', '688', '691', '692', '693', '697', '702', '704', '710', '711', '718', '722', '723', '725', '732', '734', '735', '736', '740', '741', '752', '753', '755', '759', '761', '762', '763', '770', '775', '776', '777', '783', '786', '787', '789', '792', '794', '795', '796', '802', '803', '807', '809', '813', '816', '817', '823', '824', '826', '830', '832', '836', '840', '843', '849', '850', '851', '856', '857', '859', '862', '867', '872', '873', '874', '884', '890', '892', '894', '906', '907', '912', '913', '915', '918', '919', '923', '925', '928', '938', '939', '940', '944', '955', '957', '964', '965', '966', '967', '971', '975', '976', '977', '980', '982', '986', '987', '988', '996', '997', '998', '1000', '1001', '1003', '1005', '1008', '1009', '1011', '1013', '1015', '1019', '1020', '1021', '1022', '1029', '1032', '1034', '1035', '1039', '1041', '1042', '1048', '1058', '1061', '1063', '1067', '1068', '1069', '1072', '1075', '1076', '1077', '1081', '1083', '1085', '1086', '1091', '1095', '1097', '1102', '1107', '1108', '1112', '1113', '1115', '1120', '1121', '1122', '1124', '1125', '1129', '1132', '1140', '1144', '1147', '1149', '1150', '1155', '1157', '1163', '1164', '1166', '1167', '1168', '1176', '1179', '1180', '1188', '1194', '1195', '1198', '1199', '1201', '1203', '1204', '1208', '1209', '1218', '1222', '1223', '1226', '1230', '1233', '1234', '1235', '1236', '1237', '1241', '1242', '1245', '1246', '1249', '1250', '1252', '1253', '1254', '1255', '1259', '1265', '1267', '1271', '1272', '1274', '1277', '1281', '1284', '1286', '1291', '1295', '1297', '1298', '1299', '1301', '1306', '1308', '1309', '1312', '1313', '1314', '1320', '1321', '1325', '1330', '1333', '1339', '1343', '1344', '1345', '1346', '1347', '1353', '1357', '1364', '1369', '1373', '1378', '1380', '1384', '1385', '1387', '1390', '1391', '1392', '1393', '1394', '1395', '1396', '1398', '1400', '1401', '1408', '1411', '1415', '1429', '1431', '1433', '1434', '1435', '1436', '1437', '1438', '1442', '1445', '1446', '1447', '1448', '1453', '1455', '1459', '1462', '1464', '1466', '1469', '1470', '1471', '1472', '1474', '1486', '1490', '1493', '1494', '1495', '1496', '1497', '1499', '1505', '1514', '1518', '1519', '1528', '1530', '1533', '1535', '1536', '1541', '1546', '1548', '1552', '1553', '1555', '1561', '1572', '1582', '1583', '1591', '1592', '1593', '1594', '1597', '1602', '1604', '1605', '1606', '1608', '1609', '1615', '1616', '1618', '1621', '1623', '1625', '1627', '1628', '1634', '1635', '1638', '1639', '1640', '1645', '1646', '1649', '1651', '1653', '1655', '1657', '1659', '1660', '1663', '1664', '1669', '1671', '1674', '1676', '1683', '1684', '1685', '1690', '1691', '1692', '1694', '1696', '1698', '1699', '1700', '1701', '1708', '1712', '1716', '1717', '1721', '1723', '1726', '1729', '1730', '1731', '1732', '1734', '1740', '1742', '1744', '1747', '1749', '1752', '1756', '1762', '1763', '1765', '1766', '1769', '1772', '1773', '1777', '1780', '1783', '1785', '1786', '1787', '1790', '1791', '1792', '1793', '1796', '1798', '1805', '1811', '1813', '1814', '1819', '1823', '1824', '1827', '1832', '1834', '1840', '1841', '1842', '1844', '1846', '1848', '1849', '1850', '1853', '1856', '1860', '1861', '1864', '1868', '1870', '1872', '1875', '1876', '1878', '1879', '1880', '1881', '1882', '1884', '1885', '1888', '1889', '1890', '1891', '1892', '1908', '1911', '1913', '1916', '1918', '1919', '1922', '1929', '1932', '1939', '1940', '1942', '1945', '1946', '1953', '1962', '1963', '1969', '1972', '1973', '1974', '1978', '1980', '1982', '1983', '1984', '1986', '1988', '1992', '1996', '2000']",True,2000,True,2,911d98ba43,0.0,0.0,0.0
./expes/v2_2021-03-23_issda-30_2000-prng-1-w2-p2,30_issda-2000,2000,first-2000,900,45,rng,num-start-3200,3200,25726,classic,2408.46169090271,True,,False,1.0,1.0,1.0,1,"['1', '3', '4', '6', '7', '10', '11', '13', '20', '21', '22', '24', '25', '26', '27', '29', '31', '35', '38', '40', '42', '45', '49', '54', '56', '58', '59', '61', '62', '63', '64', '66', '67', '68', '70', '71', '73', '76', '78', '82', '85', '93', '94', '103', '104', '105', '106', '107', '111', '112', '116', '117', '118', '120', '121', '122', '123', '125', '126', '128', '130', '131', '133', '137', '140', '142', '143', '145', '147', '152', '153', '154', '156', '157', '159', '160', '161', '166', '170', '172', '176', '178', '180', '181', '183', '184', '185', '186', '190', '191', '192', '193', '194', '197', '200', '203', '206', '208', '209', '213', '214', '215', '216', '220', '223', '225', '227', '229', '230', '232', '233', '234', '235', '236', '240', '244', '245', '246', '248', '252', '253', '256', '258', '260', '261', '262', '263', '270', '272', '273', '276', '277', '278', '280', '281', '283', '286', '291', '292', '296', '297', '299', '302', '303', '306', '308', '309', '310', '312', '315', '316', '317', '318', '323', '324', '325', '329', '330', '333', '334', '335', '337', '346', '347', '349', '352', '353', '355', '359', '360', '361', '362', '364', '365', '368', '369', '373', '374', '376', '377', '379', '380', '381', '385', '386', '387', '391', '394', '395', '396', '397', '398', '402', '403', '404', '406', '407', '408', '412', '414', '418', '429', '430', '436', '439', '442', '443', '446', '449', '450', '453', '454', '457', '458', '461', '462', '463', '464', '472', '475', '476', '477', '479', '489', '493', '498', '499', '500', '501', '502', '503', '512', '513', '515', '516', '517', '519', '522', '523', '524', '525', '527', '536', '539', '540', '541', '542', '544', '545', '549', '552', '554', '557', '559', '560', '562', '563', '565', '567', '569', '570', '574', '577', '580', '586', '588', '593', '594', '596', '597', '598', '602', '603', '604', '613', '616', '620', '622', '623', '624', '625', '627', '634', '636', '640', '646', '649', '652', '655', '656', '657', '662', '663', '667', '671', '672', '674', '675', '678', '681', '682', '688', '689', '692', '693', '698', '704', '705', '709', '711', '717', '718', '719', '720', '721', '732', '736', '738', '739', '740', '741', '742', '743', '744', '745', '746', '747', '751', '752', '753', '759', '760', '761', '763', '765', '767', '768', '771', '772', '773', '774', '778', '779', '780', '781', '787', '788', '792', '796', '798', '799', '802', '806', '813', '815', '816', '817', '818', '819', '827', '829', '832', '834', '835', '838', '840', '841', '843', '844', '848', '849', '856', '859', '860', '864', '865', '867', '870', '872', '873', '874', '878', '879', '881', '882', '883', '887', '889', '893', '894', '897', '899', '900', '901', '903', '904', '909', '910', '912', '913', '914', '916', '919', '921', '925', '926', '928', '930', '933', '934', '938', '939', '944', '948', '950', '951', '954', '957', '960', '961', '964', '965', '968', '969', '971', '973', '974', '975', '978', '979', '980', '981', '982', '983', '984', '986', '989', '991', '994', '995', '996', '997', '999', '1000', '1001', '1002', '1007', '1008', '1013', '1015', '1018', '1019', '1022', '1024', '1025', '1026', '1029', '1030', '1032', '1033', '1035', '1038', '1039', '1040', '1052', '1055', '1056', '1059', '1060', '1065', '1066', '1068', '1069', '1070', '1075', '1076', '1077', '1078', '1080', '1081', '1088', '1089', '1090', '1093', '1097', '1099', '1100', '1102', '1103', '1105', '1107', '1109', '1110', '1112', '1113', '1114', '1116', '1117', '1118', '1121', '1129', '1130', '1134', '1139', '1141', '1143', '1144', '1145', '1147', '1149', '1154', '1155', '1156', '1158', '1165', '1166', '1167', '1169', '1172', '1173', '1174', '1175', '1176', '1180', '1182', '1187', '1196', '1198', '1202', '1204', '1205', '1206', '1207', '1208', '1210', '1212', '1213', '1214', '1215', '1217', '1218', '1219', '1220', '1221', '1224', '1228', '1233', '1234', '1236', '1239', '1243', '1244', '1246', '1247', '1248', '1250', '1253', '1254', '1255', '1257', '1258', '1259', '1262', '1263', '1266', '1267', '1268', '1269', '1271', '1274', '1275', '1278', '1281', '1282', '1283', '1284', '1287', '1288', '1289', '1292', '1293', '1298', '1300', '1301', '1306', '1307', '1308', '1310', '1311', '1312', '1313', '1315', '1317', '1319', '1320', '1321', '1322', '1323', '1324', '1327', '1328', '1331', '1333', '1334', '1335', '1340', '1341', '1343', '1344', '1345', '1351', '1355', '1356', '1357', '1358', '1359', '1360', '1361', '1362', '1366', '1367', '1369', '1371', '1373', '1375', '1380', '1385', '1387', '1390', '1391', '1394', '1395', '1397', '1401', '1405', '1406', '1409', '1411', '1414', '1415', '1416', '1418', '1421', '1422', '1423', '1425', '1430', '1433', '1436', '1437', '1438', '1439', '1442', '1444', '1446', '1449', '1451', '1457', '1459', '1460', '1462', '1463', '1465', '1468', '1470', '1472', '1473', '1474', '1478', '1480', '1483', '1484', '1488', '1489', '1490', '1491', '1492', '1493', '1494', '1495', '1499', '1500', '1503', '1504', '1505', '1506', '1510', '1511', '1514', '1516', '1518', '1522', '1524', '1526', '1527', '1529', '1530', '1534', '1537', '1539', '1542', '1543', '1547', '1548', '1551', '1553', '1555', '1556', '1557', '1561', '1562', '1563', '1564', '1565', '1567', '1568', '1571', '1572', '1574', '1576', '1577', '1578', '1585', '1588', '1591', '1592', '1594', '1595', '1596', '1598', '1603', '1606', '1611', '1613', '1620', '1621', '1625', '1626', '1628', '1629', '1631', '1632', '1634', '1639', '1640', '1642', '1643', '1646', '1647', '1649', '1650', '1651', '1652', '1656', '1658', '1662', '1663', '1667', '1670', '1671', '1672', '1673', '1675', '1676', '1677', '1680', '1684', '1692', '1696', '1697', '1699', '1701', '1703', '1705', '1706', '1709', '1712', '1715', '1717', '1718', '1722', '1724', '1725', '1729', '1730', '1731', '1741', '1747', '1748', '1751', '1752', '1758', '1760', '1761', '1765', '1770', '1773', '1777', '1781', '1782', '1783', '1785', '1787', '1793', '1795', '1800', '1801', '1803', '1807', '1808', '1809', '1810', '1811', '1813', '1819', '1821', '1822', '1823', '1824', '1825', '1828', '1829', '1830', '1831', '1836', '1841', '1842', '1843', '1846', '1849', '1850', '1853', '1854', '1860', '1862', '1863', '1865', '1867', '1868', '1870', '1871', '1877', '1878', '1881', '1883', '1884', '1887', '1889', '1891', '1893', '1894', '1898', '1899', '1900', '1902', '1903', '1911', '1913', '1914', '1919', '1921', '1922', '1925', '1927', '1931', '1933', '1936', '1937', '1941', '1942', '1943', '1946', '1948', '1949', '1950', '1954', '1963', '1969', '1971', '1972', '1975', '1976', '1977', '1978', '1979', '1981', '1982', '1984', '1985', '1986', '1987', '1988', '1989', '1990', '1992', '1994', '1995', '1997', '1998', '2000']",True,2000,True,2,02dcd25be6,0.0,0.0,1.0
