expe,clients,clients_size,clients_subset,agg_size,agg_size_pc,method,days,days_size,days_total,noise_method,time,valid,valid_sum,success,score_avg,score_min,score_max,nsols,oracle,wall_hit,wall_time,pooled,pool_size,uuid,infeasible,optimal,valid_sums
./expes/v2_2021-03-23_issda-30_2000-prng-1-w2-p2,30_issda-2000,2000,first-2000,300,15,rng,num-start-3000,3000,25726,classic,2415.8753185272217,True,,False,1.0,1.0,1.0,1,"['11', '17', '20', '22', '25', '32', '37', '40', '43', '54', '56', '57', '59', '101', '102', '103', '104', '106', '107', '110', '111', '120', '128', '132', '142', '154', '159', '168', '175', '191', '192', '193', '202', '203', '217', '226', '227', '232', '240', '253', '266', '281', '282', '284', '287', '291', '309', '310', '331', '335', '347', '350', '353', '358', '367', '376', '377', '387', '394', '395', '401', '403', '407', '418', '431', '433', '435', '438', '448', '456', '461', '470', '474', '490', '496', '510', '513', '514', '515', '517', '529', '540', '544', '548', '559', '565', '570', '594', '603', '605', '618', '622', '625', '630', '634', '635', '639', '642', '647', '648', '651', '652', '654', '674', '678', '681', '687', '689', '691', '713', '727', '729', '737', '746', '749', '754', '763', '768', '787', '802', '805', '823', '826', '827', '831', '836', '837', '840', '849', '859', '860', '866', '887', '889', '912', '913', '920', '921', '928', '933', '941', '950', '957', '958', '967', '971', '973', '978', '984', '990', '994', '997', '1028', '1033', '1037', '1039', '1057', '1061', '1063', '1064', '1070', '1072', '1076', '1080', '1091', '1092', '1099', '1100', '1106', '1107', '1111', '1113', '1126', '1129', '1134', '1135', '1138', '1139', '1141', '1145', '1156', '1164', '1171', '1178', '1180', '1184', '1185', '1188', '1201', '1209', '1212', '1226', '1229', '1237', '1254', '1256', '1272', '1284', '1297', '1304', '1309', '1312', '1347', '1349', '1355', '1367', '1386', '1398', '1402', '1405', '1416', '1433', '1442', '1443', '1445', '1446', '1455', '1465', '1466', '1484', '1485', '1493', '1499', '1514', '1525', '1526', '1529', '1531', '1533', '1540', '1541', '1543', '1546', '1567', '1569', '1579', '1586', '1594', '1598', '1603', '1611', '1622', '1642', '1643', '1644', '1649', '1653', '1661', '1664', '1665', '1666', '1670', '1673', '1679', '1680', '1689', '1693', '1698', '1705', '1715', '1719', '1725', '1734', '1753', '1759', '1761', '1778', '1793', '1808', '1819', '1823', '1830', '1837', '1841', '1847', '1856', '1859', '1861', '1862', '1864', '1878', '1880', '1885', '1897', '1905', '1925', '1930', '1936', '1949', '1957', '1961', '1962', '1966', '1968', '1970', '1976', '1982', '1987', '1992', '1994']",True,2000,True,2,fa381199c8,0.0,0.0,1.0
./expes/v2_2021-03-23_issda-30_2000-prng-1-w2-p2,30_issda-2000,2000,first-2000,900,45,rng,num-start-2600,2600,25726,classic,2366.3472797870636,True,,False,1.0,1.0,1.0,1,"['1', '3', '4', '6', '7', '10', '11', '13', '20', '21', '22', '24', '25', '26', '27', '29', '31', '35', '38', '40', '42', '45', '49', '54', '56', '58', '59', '61', '62', '63', '64', '66', '67', '68', '70', '71', '73', '76', '78', '82', '85', '93', '94', '103', '104', '105', '106', '107', '111', '112', '116', '117', '118', '120', '121', '122', '123', '125', '126', '128', '130', '131', '133', '137', '140', '142', '143', '145', '147', '152', '153', '154', '156', '157', '159', '160', '161', '166', '170', '172', '176', '178', '180', '181', '183', '184', '185', '186', '190', '191', '192', '193', '194', '197', '200', '203', '206', '208', '209', '213', '214', '215', '216', '220', '223', '225', '227', '229', '230', '232', '233', '234', '235', '236', '240', '244', '245', '246', '248', '252', '253', '256', '258', '260', '261', '262', '263', '270', '272', '273', '276', '277', '278', '280', '281', '283', '286', '291', '292', '296', '297', '299', '302', '303', '306', '308', '309', '310', '312', '315', '316', '317', '318', '323', '324', '325', '329', '330', '333', '334', '335', '337', '346', '347', '349', '352', '353', '355', '359', '360', '361', '362', '364', '365', '368', '369', '373', '374', '376', '377', '379', '380', '381', '385', '386', '387', '391', '394', '395', '396', '397', '398', '402', '403', '404', '406', '407', '408', '412', '414', '418', '429', '430', '436', '439', '442', '443', '446', '449', '450', '453', '454', '457', '458', '461', '462', '463', '464', '472', '475', '476', '477', '479', '489', '493', '498', '499', '500', '501', '502', '503', '512', '513', '515', '516', '517', '519', '522', '523', '524', '525', '527', '536', '539', '540', '541', '542', '544', '545', '549', '552', '554', '557', '559', '560', '562', '563', '565', '567', '569', '570', '574', '577', '580', '586', '588', '593', '594', '596', '597', '598', '602', '603', '604', '613', '616', '620', '622', '623', '624', '625', '627', '634', '636', '640', '646', '649', '652', '655', '656', '657', '662', '663', '667', '671', '672', '674', '675', '678', '681', '682', '688', '689', '692', '693', '698', '704', '705', '709', '711', '717', '718', '719', '720', '721', '732', '736', '738', '739', '740', '741', '742', '743', '744', '745', '746', '747', '751', '752', '753', '759', '760', '761', '763', '765', '767', '768', '771', '772', '773', '774', '778', '779', '780', '781', '787', '788', '792', '796', '798', '799', '802', '806', '813', '815', '816', '817', '818', '819', '827', '829', '832', '834', '835', '838', '840', '841', '843', '844', '848', '849', '856', '859', '860', '864', '865', '867', '870', '872', '873', '874', '878', '879', '881', '882', '883', '887', '889', '893', '894', '897', '899', '900', '901', '903', '904', '909', '910', '912', '913', '914', '916', '919', '921', '925', '926', '928', '930', '933', '934', '938', '939', '944', '948', '950', '951', '954', '957', '960', '961', '964', '965', '968', '969', '971', '973', '974', '975', '978', '979', '980', '981', '982', '983', '984', '986', '989', '991', '994', '995', '996', '997', '999', '1000', '1001', '1002', '1007', '1008', '1013', '1015', '1018', '1019', '1022', '1024', '1025', '1026', '1029', '1030', '1032', '1033', '1035', '1038', '1039', '1040', '1052', '1055', '1056', '1059', '1060', '1065', '1066', '1068', '1069', '1070', '1075', '1076', '1077', '1078', '1080', '1081', '1088', '1089', '1090', '1093', '1097', '1099', '1100', '1102', '1103', '1105', '1107', '1109', '1110', '1112', '1113', '1114', '1116', '1117', '1118', '1121', '1129', '1130', '1134', '1139', '1141', '1143', '1144', '1145', '1147', '1149', '1154', '1155', '1156', '1158', '1165', '1166', '1167', '1169', '1172', '1173', '1174', '1175', '1176', '1180', '1182', '1187', '1196', '1198', '1202', '1204', '1205', '1206', '1207', '1208', '1210', '1212', '1213', '1214', '1215', '1217', '1218', '1219', '1220', '1221', '1224', '1228', '1233', '1234', '1236', '1239', '1243', '1244', '1246', '1247', '1248', '1250', '1253', '1254', '1255', '1257', '1258', '1259', '1262', '1263', '1266', '1267', '1268', '1269', '1271', '1274', '1275', '1278', '1281', '1282', '1283', '1284', '1287', '1288', '1289', '1292', '1293', '1298', '1300', '1301', '1306', '1307', '1308', '1310', '1311', '1312', '1313', '1315', '1317', '1319', '1320', '1321', '1322', '1323', '1324', '1327', '1328', '1331', '1333', '1334', '1335', '1340', '1341', '1343', '1344', '1345', '1351', '1355', '1356', '1357', '1358', '1359', '1360', '1361', '1362', '1366', '1367', '1369', '1371', '1373', '1375', '1380', '1385', '1387', '1390', '1391', '1394', '1395', '1397', '1401', '1405', '1406', '1409', '1411', '1414', '1415', '1416', '1418', '1421', '1422', '1423', '1425', '1430', '1433', '1436', '1437', '1438', '1439', '1442', '1444', '1446', '1449', '1451', '1457', '1459', '1460', '1462', '1463', '1465', '1468', '1470', '1472', '1473', '1474', '1478', '1480', '1483', '1484', '1488', '1489', '1490', '1491', '1492', '1493', '1494', '1495', '1499', '1500', '1503', '1504', '1505', '1506', '1510', '1511', '1514', '1516', '1518', '1522', '1524', '1526', '1527', '1529', '1530', '1534', '1537', '1539', '1542', '1543', '1547', '1548', '1551', '1553', '1555', '1556', '1557', '1561', '1562', '1563', '1564', '1565', '1567', '1568', '1571', '1572', '1574', '1576', '1577', '1578', '1585', '1588', '1591', '1592', '1594', '1595', '1596', '1598', '1603', '1606', '1611', '1613', '1620', '1621', '1625', '1626', '1628', '1629', '1631', '1632', '1634', '1639', '1640', '1642', '1643', '1646', '1647', '1649', '1650', '1651', '1652', '1656', '1658', '1662', '1663', '1667', '1670', '1671', '1672', '1673', '1675', '1676', '1677', '1680', '1684', '1692', '1696', '1697', '1699', '1701', '1703', '1705', '1706', '1709', '1712', '1715', '1717', '1718', '1722', '1724', '1725', '1729', '1730', '1731', '1741', '1747', '1748', '1751', '1752', '1758', '1760', '1761', '1765', '1770', '1773', '1777', '1781', '1782', '1783', '1785', '1787', '1793', '1795', '1800', '1801', '1803', '1807', '1808', '1809', '1810', '1811', '1813', '1819', '1821', '1822', '1823', '1824', '1825', '1828', '1829', '1830', '1831', '1836', '1841', '1842', '1843', '1846', '1849', '1850', '1853', '1854', '1860', '1862', '1863', '1865', '1867', '1868', '1870', '1871', '1877', '1878', '1881', '1883', '1884', '1887', '1889', '1891', '1893', '1894', '1898', '1899', '1900', '1902', '1903', '1911', '1913', '1914', '1919', '1921', '1922', '1925', '1927', '1931', '1933', '1936', '1937', '1941', '1942', '1943', '1946', '1948', '1949', '1950', '1954', '1963', '1969', '1971', '1972', '1975', '1976', '1977', '1978', '1979', '1981', '1982', '1984', '1985', '1986', '1987', '1988', '1989', '1990', '1992', '1994', '1995', '1997', '1998', '2000']",True,2000,True,2,3920a7ca83,0.0,0.0,1.0
./expes/v2_2021-03-23_issda-30_2000-prng-1-w2-p2,30_issda-2000,2000,first-2000,200,10,rng,num-start-1400,1400,25726,classic,1443.6823258399963,True,,True,1.0,1.0,1.0,1,"['11', '20', '37', '40', '43', '56', '101', '102', '103', '104', '106', '111', '120', '128', '132', '142', '154', '168', '175', '191', '193', '226', '227', '240', '253', '266', '282', '284', '287', '291', '309', '310', '331', '335', '350', '358', '376', '395', '401', '403', '407', '431', '435', '438', '461', '490', '496', '510', '513', '514', '515', '517', '529', '544', '548', '559', '565', '570', '594', '605', '622', '625', '630', '634', '635', '639', '647', '648', '651', '654', '678', '681', '687', '689', '713', '727', '737', '749', '763', '768', '787', '802', '823', '826', '827', '831', '837', '840', '849', '859', '860', '887', '957', '971', '978', '984', '994', '997', '1028', '1037', '1039', '1070', '1076', '1080', '1091', '1092', '1100', '1106', '1107', '1111', '1113', '1129', '1134', '1138', '1141', '1145', '1156', '1171', '1178', '1180', '1185', '1188', '1209', '1229', '1237', '1272', '1297', '1304', '1309', '1312', '1347', '1349', '1355', '1386', '1398', '1402', '1405', '1416', '1443', '1445', '1446', '1465', '1466', '1484', '1485', '1493', '1499', '1514', '1526', '1529', '1531', '1533', '1541', '1543', '1569', '1579', '1586', '1603', '1611', '1622', '1642', '1643', '1644', '1649', '1653', '1661', '1664', '1665', '1666', '1670', '1673', '1698', '1719', '1725', '1734', '1759', '1761', '1778', '1793', '1808', '1819', '1823', '1837', '1847', '1859', '1862', '1864', '1878', '1880', '1885', '1897', '1925', '1936', '1949', '1957', '1961', '1962', '1966', '1968', '1994']",False,2000,True,2,d09fbf9e34,0.0,1.0,1.0
./expes/v2_2021-03-23_issda-30_2000-prng-1-w2-p2,30_issda-2000,2000,first-2000,1000,50,rng,num-start-3600,3600,25726,classic,2510.733987092972,True,,False,1.0,1.0,1.0,1,"['2', '4', '6', '7', '8', '10', '11', '12', '15', '17', '18', '20', '22', '27', '32', '37', '38', '39', '41', '42', '44', '47', '48', '53', '55', '56', '58', '61', '62', '65', '66', '67', '70', '71', '72', '73', '75', '76', '77', '78', '79', '80', '83', '84', '85', '88', '89', '92', '93', '95', '97', '102', '106', '109', '110', '112', '114', '118', '121', '122', '124', '126', '127', '128', '131', '133', '136', '137', '138', '139', '142', '145', '147', '148', '152', '153', '154', '156', '158', '159', '160', '161', '162', '164', '165', '166', '167', '168', '170', '171', '175', '176', '178', '182', '183', '185', '188', '189', '190', '191', '192', '195', '196', '199', '202', '207', '212', '213', '214', '218', '220', '227', '230', '232', '233', '234', '235', '236', '238', '240', '242', '243', '245', '248', '250', '251', '262', '267', '272', '273', '275', '278', '280', '283', '284', '285', '286', '287', '288', '289', '291', '294', '295', '297', '298', '305', '306', '307', '309', '312', '313', '314', '316', '318', '320', '321', '322', '323', '325', '326', '329', '331', '332', '333', '334', '335', '336', '338', '339', '340', '341', '343', '345', '346', '348', '349', '352', '353', '354', '355', '358', '359', '361', '362', '363', '364', '365', '368', '370', '371', '372', '374', '375', '377', '379', '380', '385', '391', '392', '393', '397', '399', '400', '401', '402', '404', '405', '407', '408', '409', '410', '411', '412', '414', '416', '418', '421', '423', '425', '426', '427', '429', '431', '432', '433', '434', '435', '436', '437', '440', '441', '442', '443', '448', '449', '450', '453', '455', '456', '460', '464', '469', '470', '472', '474', '475', '476', '478', '479', '484', '487', '488', '489', '494', '496', '497', '501', '503', '507', '510', '511', '512', '513', '515', '516', '519', '520', '521', '524', '525', '527', '528', '529', '530', '532', '534', '536', '537', '538', '539', '540', '550', '552', '555', '557', '558', '562', '566', '567', '568', '569', '571', '573', '574', '575', '576', '579', '580', '581', '582', '585', '586', '589', '590', '591', '592', '593', '594', '595', '596', '597', '598', '599', '600', '601', '605', '606', '607', '608', '609', '611', '612', '613', '615', '616', '620', '621', '622', '623', '624', '625', '626', '628', '630', '632', '635', '638', '639', '640', '641', '642', '644', '645', '646', '648', '649', '657', '658', '659', '660', '661', '662', '663', '665', '666', '669', '670', '673', '676', '677', '678', '679', '682', '687', '689', '690', '692', '694', '695', '696', '697', '698', '703', '705', '707', '708', '710', '711', '712', '714', '718', '719', '724', '729', '731', '732', '734', '736', '737', '738', '742', '743', '745', '747', '748', '750', '753', '762', '763', '770', '778', '781', '782', '784', '786', '793', '794', '795', '796', '800', '802', '803', '804', '805', '809', '811', '812', '815', '820', '821', '823', '825', '826', '827', '828', '832', '834', '839', '841', '843', '844', '845', '846', '847', '848', '850', '852', '854', '855', '857', '861', '863', '866', '867', '868', '869', '870', '871', '877', '881', '883', '888', '889', '892', '893', '894', '895', '896', '898', '899', '900', '901', '903', '904', '906', '909', '910', '915', '917', '925', '926', '927', '930', '932', '934', '936', '939', '940', '941', '948', '950', '952', '957', '965', '966', '968', '970', '973', '974', '976', '977', '978', '979', '980', '981', '982', '987', '991', '992', '997', '1002', '1004', '1005', '1008', '1012', '1013', '1015', '1016', '1017', '1019', '1021', '1022', '1023', '1030', '1037', '1038', '1040', '1042', '1043', '1044', '1046', '1047', '1048', '1050', '1052', '1055', '1060', '1061', '1063', '1064', '1065', '1066', '1067', '1072', '1074', '1075', '1076', '1077', '1078', '1079', '1080', '1082', '1084', '1085', '1087', '1091', '1095', '1097', '1099', '1100', '1101', '1102', '1103', '1104', '1107', '1108', '1109', '1110', '1113', '1114', '1115', '1117', '1118', '1119', '1121', '1122', '1125', '1126', '1128', '1129', '1132', '1134', '1144', '1147', '1149', '1150', '1152', '1158', '1162', '1164', '1166', '1167', '1168', '1169', '1171', '1173', '1174', '1176', '1180', '1186', '1188', '1192', '1193', '1194', '1197', '1199', '1203', '1205', '1206', '1211', '1215', '1216', '1218', '1220', '1223', '1224', '1225', '1227', '1228', '1229', '1230', '1231', '1232', '1233', '1236', '1237', '1239', '1240', '1241', '1243', '1246', '1248', '1249', '1250', '1256', '1260', '1261', '1265', '1266', '1269', '1270', '1271', '1272', '1274', '1275', '1277', '1280', '1281', '1283', '1284', '1285', '1286', '1288', '1291', '1292', '1294', '1295', '1296', '1300', '1301', '1305', '1311', '1312', '1313', '1314', '1316', '1317', '1318', '1319', '1322', '1323', '1325', '1326', '1328', '1335', '1336', '1338', '1340', '1341', '1342', '1346', '1349', '1351', '1353', '1354', '1356', '1362', '1367', '1368', '1369', '1370', '1373', '1376', '1379', '1380', '1383', '1384', '1385', '1386', '1387', '1388', '1393', '1395', '1398', '1400', '1402', '1405', '1409', '1413', '1414', '1415', '1416', '1418', '1420', '1421', '1425', '1427', '1429', '1430', '1431', '1436', '1438', '1441', '1443', '1444', '1447', '1448', '1451', '1453', '1456', '1457', '1461', '1462', '1465', '1466', '1467', '1470', '1472', '1473', '1474', '1478', '1483', '1485', '1495', '1498', '1499', '1500', '1502', '1506', '1508', '1510', '1512', '1513', '1516', '1523', '1524', '1526', '1527', '1528', '1529', '1530', '1533', '1537', '1539', '1544', '1545', '1546', '1548', '1549', '1553', '1554', '1555', '1557', '1558', '1561', '1566', '1568', '1571', '1573', '1577', '1578', '1580', '1582', '1585', '1586', '1588', '1591', '1594', '1597', '1601', '1603', '1604', '1606', '1607', '1608', '1611', '1612', '1613', '1616', '1617', '1619', '1620', '1626', '1631', '1634', '1635', '1636', '1638', '1640', '1641', '1642', '1643', '1644', '1645', '1648', '1653', '1654', '1657', '1659', '1665', '1669', '1671', '1675', '1676', '1677', '1680', '1681', '1687', '1690', '1691', '1692', '1694', '1695', '1698', '1700', '1702', '1703', '1704', '1708', '1709', '1710', '1711', '1714', '1716', '1717', '1718', '1719', '1720', '1722', '1725', '1727', '1729', '1730', '1731', '1733', '1735', '1736', '1737', '1738', '1747', '1748', '1749', '1751', '1753', '1754', '1757', '1758', '1759', '1761', '1765', '1766', '1767', '1770', '1771', '1773', '1774', '1777', '1781', '1782', '1784', '1790', '1791', '1792', '1795', '1796', '1798', '1800', '1801', '1803', '1804', '1805', '1807', '1808', '1809', '1814', '1816', '1817', '1819', '1820', '1821', '1822', '1823', '1824', '1825', '1826', '1827', '1828', '1830', '1832', '1833', '1835', '1837', '1838', '1842', '1843', '1845', '1846', '1848', '1850', '1851', '1852', '1853', '1854', '1858', '1859', '1861', '1862', '1865', '1866', '1867', '1868', '1870', '1871', '1873', '1875', '1876', '1878', '1879', '1880', '1881', '1882', '1885', '1887', '1889', '1890', '1891', '1893', '1894', '1896', '1900', '1901', '1902', '1903', '1905', '1906', '1909', '1911', '1914', '1915', '1916', '1918', '1919', '1920', '1921', '1922', '1923', '1924', '1925', '1927', '1928', '1929', '1930', '1932', '1934', '1935', '1942', '1945', '1946', '1947', '1948', '1949', '1951', '1953', '1955', '1956', '1957', '1958', '1959', '1964', '1965', '1966', '1967', '1968', '1970', '1972', '1974', '1975', '1976', '1977', '1979', '1984', '1986', '1988', '1989', '1990', '1991', '1994', '1995', '1997', '1998']",True,2000,True,2,ee521aa968,0.0,0.0,1.0
./expes/v2_2021-03-23_issda-30_2000-prng-1-w2-p2,30_issda-2000,2000,first-2000,900,45,rng,num-start-3400,3400,25726,classic,2476.907837152481,True,,False,1.0,1.0,1.0,1,"['1', '5', '6', '9', '11', '14', '15', '18', '26', '27', '30', '31', '32', '34', '35', '37', '39', '41', '43', '45', '47', '48', '49', '50', '51', '52', '54', '55', '57', '66', '69', '71', '73', '75', '81', '84', '86', '87', '89', '90', '93', '96', '98', '100', '102', '110', '114', '118', '123', '127', '128', '130', '131', '132', '133', '135', '137', '140', '141', '142', '145', '147', '148', '149', '151', '153', '155', '159', '162', '164', '167', '171', '172', '175', '176', '177', '178', '180', '181', '184', '187', '188', '190', '192', '193', '194', '195', '196', '199', '202', '204', '207', '208', '210', '211', '212', '215', '216', '219', '220', '221', '223', '227', '228', '230', '232', '233', '234', '236', '238', '239', '242', '245', '246', '248', '249', '251', '253', '257', '258', '259', '262', '263', '264', '265', '267', '271', '272', '273', '274', '276', '279', '280', '282', '284', '286', '287', '288', '290', '294', '297', '300', '304', '305', '307', '309', '310', '312', '314', '316', '317', '320', '325', '326', '336', '337', '338', '340', '341', '342', '349', '351', '352', '354', '359', '361', '362', '363', '365', '366', '369', '370', '371', '372', '376', '377', '380', '382', '383', '384', '385', '387', '388', '389', '390', '392', '393', '396', '397', '399', '402', '404', '409', '410', '413', '414', '415', '416', '421', '422', '425', '428', '429', '430', '431', '432', '436', '441', '444', '450', '453', '456', '459', '461', '462', '464', '465', '466', '472', '477', '486', '489', '493', '494', '495', '496', '500', '502', '503', '509', '511', '512', '515', '517', '519', '520', '521', '523', '530', '533', '534', '535', '537', '539', '540', '542', '549', '550', '551', '555', '556', '557', '560', '562', '563', '564', '567', '568', '571', '572', '576', '579', '581', '582', '585', '586', '591', '592', '593', '594', '597', '599', '601', '602', '603', '606', '609', '612', '613', '614', '616', '617', '619', '623', '624', '627', '630', '632', '633', '634', '636', '637', '638', '641', '642', '646', '648', '650', '651', '660', '663', '665', '667', '671', '672', '674', '675', '676', '680', '682', '684', '689', '690', '696', '698', '700', '703', '707', '710', '711', '712', '716', '718', '720', '721', '723', '724', '725', '726', '731', '734', '735', '737', '742', '743', '744', '745', '746', '747', '750', '751', '752', '755', '756', '757', '758', '760', '763', '771', '772', '776', '777', '781', '785', '788', '792', '793', '794', '795', '796', '800', '801', '803', '804', '806', '812', '813', '817', '819', '821', '823', '827', '829', '830', '831', '833', '843', '844', '845', '846', '847', '848', '849', '852', '855', '856', '857', '862', '867', '872', '874', '875', '878', '879', '880', '881', '882', '888', '890', '893', '895', '896', '897', '898', '899', '901', '902', '906', '908', '910', '912', '914', '915', '917', '921', '922', '923', '925', '926', '928', '930', '931', '932', '933', '934', '937', '938', '939', '941', '943', '945', '947', '949', '950', '952', '955', '956', '957', '959', '960', '962', '963', '964', '967', '968', '969', '975', '978', '979', '980', '982', '983', '984', '986', '987', '989', '991', '994', '995', '996', '998', '999', '1001', '1002', '1003', '1004', '1006', '1008', '1011', '1012', '1015', '1018', '1019', '1021', '1022', '1025', '1026', '1028', '1029', '1030', '1034', '1036', '1043', '1048', '1049', '1050', '1051', '1054', '1056', '1057', '1058', '1065', '1066', '1067', '1069', '1072', '1073', '1075', '1077', '1078', '1080', '1083', '1084', '1085', '1087', '1089', '1090', '1094', '1095', '1098', '1099', '1100', '1102', '1105', '1106', '1110', '1111', '1115', '1117', '1118', '1120', '1121', '1124', '1125', '1126', '1129', '1134', '1135', '1136', '1137', '1141', '1143', '1145', '1151', '1152', '1153', '1156', '1165', '1166', '1167', '1169', '1175', '1178', '1179', '1181', '1184', '1186', '1188', '1190', '1193', '1194', '1195', '1198', '1199', '1204', '1206', '1208', '1210', '1211', '1213', '1215', '1216', '1217', '1218', '1219', '1221', '1222', '1223', '1224', '1226', '1227', '1229', '1232', '1243', '1246', '1248', '1249', '1251', '1254', '1256', '1259', '1261', '1265', '1267', '1268', '1269', '1270', '1271', '1272', '1274', '1280', '1282', '1283', '1286', '1287', '1290', '1292', '1293', '1299', '1301', '1302', '1303', '1305', '1308', '1310', '1311', '1313', '1320', '1323', '1325', '1329', '1330', '1331', '1333', '1337', '1339', '1344', '1345', '1347', '1349', '1351', '1352', '1355', '1356', '1360', '1364', '1367', '1368', '1370', '1371', '1372', '1374', '1376', '1378', '1380', '1381', '1385', '1387', '1388', '1389', '1394', '1396', '1397', '1398', '1401', '1405', '1406', '1408', '1409', '1410', '1411', '1420', '1423', '1426', '1427', '1428', '1429', '1432', '1435', '1438', '1442', '1445', '1452', '1454', '1461', '1463', '1465', '1467', '1468', '1470', '1473', '1474', '1475', '1485', '1486', '1490', '1491', '1497', '1498', '1503', '1507', '1509', '1510', '1512', '1513', '1514', '1519', '1523', '1524', '1525', '1526', '1528', '1532', '1534', '1540', '1541', '1543', '1545', '1546', '1548', '1550', '1553', '1556', '1557', '1559', '1560', '1561', '1565', '1568', '1570', '1572', '1577', '1584', '1586', '1587', '1588', '1591', '1594', '1595', '1601', '1602', '1604', '1605', '1607', '1608', '1609', '1611', '1612', '1614', '1617', '1618', '1622', '1623', '1624', '1625', '1626', '1629', '1630', '1632', '1639', '1642', '1645', '1646', '1647', '1648', '1653', '1655', '1661', '1662', '1663', '1667', '1670', '1673', '1675', '1679', '1684', '1686', '1688', '1689', '1690', '1692', '1696', '1698', '1702', '1704', '1705', '1708', '1710', '1712', '1715', '1720', '1722', '1724', '1729', '1730', '1731', '1732', '1733', '1735', '1737', '1738', '1740', '1741', '1742', '1744', '1745', '1747', '1748', '1752', '1753', '1754', '1755', '1762', '1763', '1766', '1767', '1768', '1770', '1774', '1777', '1779', '1786', '1790', '1795', '1799', '1800', '1801', '1804', '1809', '1811', '1812', '1814', '1815', '1816', '1820', '1822', '1824', '1831', '1832', '1833', '1834', '1836', '1837', '1838', '1839', '1843', '1849', '1850', '1851', '1853', '1854', '1856', '1859', '1860', '1862', '1863', '1865', '1874', '1876', '1883', '1884', '1885', '1887', '1892', '1893', '1896', '1898', '1901', '1903', '1905', '1907', '1908', '1911', '1913', '1914', '1915', '1916', '1917', '1918', '1919', '1921', '1924', '1925', '1929', '1932', '1933', '1936', '1937', '1938', '1941', '1942', '1945', '1946', '1947', '1949', '1952', '1954', '1956', '1957', '1959', '1960', '1963', '1964', '1970', '1973', '1974', '1977', '1978', '1979', '1980', '1981', '1983', '1984', '1987', '1989', '1990', '1991', '1993', '1995', '1999']",True,2000,True,2,ad5f069131,0.0,0.0,1.0
