expe,clients,clients_size,clients_subset,agg_size,agg_size_pc,method,days,days_size,days_total,noise_method,time,valid,valid_sum,success,score_avg,score_min,score_max,nsols,oracle,wall_hit,wall_time,pooled,pool_size,uuid,infeasible,optimal,valid_sums
./expes/v2_2021-03-23_issda-30_2000-prng-1-w2-p2,30_issda-2000,2000,first-2000,600,30,rng,num-start-2200,2200,25726,classic,1911.9428043365479,True,,True,1.0,1.0,1.0,1,"['12', '13', '14', '18', '23', '27', '30', '36', '38', '42', '43', '45', '47', '60', '73', '74', '76', '93', '94', '113', '115', '120', '125', '130', '133', '136', '137', '141', '142', '144', '147', '156', '157', '161', '162', '164', '171', '172', '179', '181', '182', '184', '185', '190', '192', '208', '218', '220', '221', '223', '236', '239', '242', '250', '252', '258', '259', '265', '267', '270', '273', '280', '281', '287', '294', '297', '298', '300', '301', '303', '308', '309', '310', '312', '314', '329', '331', '333', '334', '335', '342', '344', '347', '350', '353', '358', '361', '362', '366', '372', '374', '375', '377', '385', '386', '387', '389', '390', '392', '396', '402', '406', '409', '411', '413', '414', '415', '418', '423', '424', '428', '430', '433', '436', '438', '440', '442', '443', '449', '452', '456', '459', '461', '462', '472', '473', '479', '481', '484', '487', '491', '495', '497', '505', '511', '512', '520', '525', '528', '529', '530', '531', '532', '533', '535', '538', '540', '542', '543', '547', '550', '553', '554', '555', '558', '560', '561', '562', '564', '565', '575', '577', '579', '582', '583', '588', '592', '599', '603', '606', '609', '612', '613', '615', '618', '619', '621', '623', '629', '632', '633', '641', '644', '646', '659', '660', '661', '664', '665', '671', '673', '675', '681', '685', '686', '688', '694', '696', '698', '702', '706', '707', '709', '712', '716', '718', '722', '726', '730', '731', '733', '736', '738', '739', '740', '745', '748', '749', '750', '754', '755', '764', '766', '767', '775', '780', '786', '790', '798', '802', '806', '808', '813', '814', '820', '824', '826', '828', '829', '831', '832', '833', '834', '836', '837', '839', '844', '849', '850', '851', '853', '855', '856', '865', '866', '867', '868', '870', '874', '876', '878', '883', '888', '889', '890', '895', '897', '911', '915', '920', '930', '931', '933', '939', '940', '942', '953', '955', '958', '959', '962', '963', '967', '973', '978', '979', '980', '983', '984', '985', '994', '997', '1003', '1005', '1006', '1007', '1008', '1010', '1012', '1016', '1023', '1026', '1038', '1039', '1040', '1043', '1049', '1051', '1052', '1054', '1064', '1066', '1067', '1069', '1070', '1073', '1075', '1078', '1079', '1085', '1086', '1091', '1095', '1102', '1104', '1107', '1109', '1111', '1114', '1116', '1117', '1119', '1124', '1130', '1131', '1133', '1137', '1140', '1143', '1144', '1145', '1149', '1152', '1158', '1164', '1166', '1170', '1171', '1173', '1174', '1176', '1179', '1183', '1186', '1192', '1194', '1198', '1203', '1206', '1207', '1216', '1224', '1229', '1235', '1242', '1244', '1251', '1252', '1254', '1255', '1258', '1260', '1261', '1264', '1267', '1281', '1287', '1289', '1290', '1291', '1293', '1304', '1308', '1309', '1322', '1325', '1326', '1327', '1328', '1336', '1344', '1345', '1346', '1347', '1354', '1355', '1372', '1375', '1378', '1381', '1383', '1384', '1385', '1386', '1388', '1389', '1393', '1396', '1400', '1401', '1402', '1406', '1408', '1412', '1414', '1415', '1417', '1419', '1422', '1427', '1431', '1432', '1438', '1440', '1444', '1446', '1447', '1449', '1451', '1452', '1453', '1454', '1458', '1461', '1462', '1464', '1467', '1469', '1472', '1474', '1480', '1489', '1490', '1496', '1505', '1506', '1507', '1508', '1513', '1519', '1522', '1526', '1529', '1533', '1538', '1544', '1545', '1548', '1549', '1550', '1551', '1552', '1553', '1554', '1556', '1557', '1562', '1573', '1574', '1575', '1578', '1579', '1581', '1584', '1587', '1589', '1593', '1594', '1595', '1598', '1600', '1605', '1607', '1613', '1620', '1622', '1623', '1625', '1626', '1627', '1632', '1639', '1642', '1644', '1652', '1654', '1657', '1660', '1662', '1663', '1664', '1666', '1668', '1674', '1676', '1688', '1691', '1692', '1695', '1697', '1700', '1703', '1705', '1706', '1708', '1711', '1712', '1713', '1719', '1720', '1722', '1726', '1728', '1729', '1733', '1736', '1738', '1746', '1749', '1750', '1756', '1758', '1760', '1762', '1766', '1769', '1774', '1777', '1780', '1783', '1789', '1791', '1792', '1795', '1804', '1805', '1811', '1814', '1817', '1818', '1823', '1825', '1826', '1827', '1829', '1834', '1841', '1842', '1844', '1854', '1858', '1859', '1865', '1869', '1871', '1880', '1888', '1889', '1891', '1895', '1896', '1899', '1900', '1904', '1905', '1910', '1912', '1916', '1919', '1931', '1934', '1935', '1936', '1938', '1941', '1946', '1950', '1951', '1960', '1961', '1962', '1968', '1980', '1981', '1985', '1986', '1987', '1993', '1994', '1999']",False,2000,True,2,409dc9f874,0.0,1.0,1.0
./expes/v2_2021-03-23_issda-30_2000-prng-1-w2-p2,30_issda-2000,2000,first-2000,600,30,rng,num-start-1800,1800,25726,classic,1237.6559376716614,True,,True,1.0,1.0,1.0,1,"['1', '6', '10', '11', '13', '20', '21', '22', '26', '27', '31', '35', '38', '42', '45', '58', '59', '62', '63', '64', '66', '67', '68', '70', '76', '78', '82', '93', '94', '103', '104', '106', '107', '111', '117', '121', '122', '123', '126', '128', '131', '140', '142', '152', '153', '154', '156', '157', '159', '166', '170', '172', '176', '180', '181', '183', '184', '190', '191', '192', '193', '197', '200', '206', '215', '216', '223', '230', '234', '235', '240', '245', '246', '253', '258', '260', '261', '263', '272', '273', '276', '278', '280', '281', '283', '286', '292', '296', '297', '299', '303', '306', '308', '310', '312', '317', '323', '324', '329', '330', '334', '335', '337', '346', '347', '353', '355', '361', '362', '365', '373', '374', '377', '380', '381', '385', '386', '387', '394', '395', '396', '397', '398', '402', '404', '406', '408', '412', '414', '429', '430', '439', '442', '454', '457', '458', '461', '462', '464', '472', '475', '476', '479', '489', '493', '498', '499', '502', '503', '512', '513', '515', '516', '519', '522', '523', '524', '525', '536', '541', '544', '545', '549', '552', '554', '557', '559', '560', '562', '565', '567', '569', '574', '577', '586', '588', '593', '596', '597', '598', '602', '613', '622', '624', '625', '627', '640', '649', '652', '655', '656', '663', '667', '675', '678', '682', '688', '689', '692', '698', '704', '705', '718', '732', '738', '739', '740', '741', '742', '744', '745', '747', '751', '752', '753', '759', '760', '761', '763', '765', '768', '771', '773', '774', '778', '779', '780', '781', '787', '788', '792', '796', '798', '806', '815', '816', '819', '834', '835', '838', '840', '841', '844', '848', '856', '859', '864', '865', '867', '870', '872', '874', '879', '881', '883', '887', '893', '897', '901', '903', '904', '909', '910', '912', '914', '916', '919', '921', '925', '926', '939', '948', '950', '951', '957', '961', '964', '965', '968', '969', '971', '973', '978', '979', '981', '982', '984', '991', '994', '995', '996', '997', '999', '1000', '1001', '1002', '1007', '1008', '1013', '1018', '1019', '1024', '1025', '1029', '1030', '1032', '1039', '1052', '1055', '1059', '1060', '1065', '1066', '1070', '1075', '1076', '1077', '1078', '1080', '1081', '1088', '1097', '1102', '1103', '1105', '1107', '1109', '1112', '1114', '1118', '1121', '1129', '1130', '1134', '1143', '1144', '1147', '1149', '1154', '1155', '1156', '1158', '1165', '1166', '1167', '1173', '1175', '1176', '1180', '1187', '1198', '1202', '1205', '1206', '1207', '1208', '1210', '1213', '1214', '1217', '1220', '1224', '1233', '1234', '1236', '1239', '1243', '1246', '1250', '1254', '1257', '1262', '1263', '1266', '1267', '1269', '1271', '1275', '1278', '1281', '1282', '1284', '1287', '1289', '1293', '1298', '1300', '1301', '1306', '1308', '1310', '1315', '1320', '1321', '1322', '1323', '1324', '1328', '1333', '1334', '1340', '1343', '1345', '1351', '1355', '1356', '1358', '1366', '1369', '1373', '1375', '1380', '1385', '1387', '1390', '1391', '1394', '1395', '1397', '1401', '1405', '1409', '1414', '1415', '1416', '1418', '1421', '1422', '1423', '1425', '1430', '1433', '1436', '1437', '1438', '1446', '1451', '1457', '1460', '1462', '1463', '1465', '1468', '1472', '1473', '1478', '1480', '1483', '1484', '1493', '1494', '1495', '1499', '1505', '1514', '1516', '1522', '1526', '1527', '1529', '1537', '1539', '1543', '1548', '1551', '1553', '1555', '1556', '1557', '1562', '1563', '1564', '1568', '1572', '1574', '1578', '1585', '1591', '1592', '1594', '1595', '1596', '1598', '1603', '1606', '1611', '1613', '1620', '1621', '1625', '1629', '1631', '1632', '1639', '1643', '1646', '1649', '1650', '1651', '1652', '1656', '1658', '1663', '1667', '1671', '1672', '1673', '1676', '1684', '1696', '1697', '1701', '1703', '1705', '1706', '1709', '1715', '1718', '1722', '1725', '1730', '1731', '1741', '1748', '1751', '1752', '1758', '1760', '1765', '1770', '1773', '1781', '1782', '1783', '1785', '1787', '1795', '1801', '1803', '1809', '1813', '1819', '1822', '1828', '1830', '1831', '1842', '1843', '1849', '1853', '1860', '1862', '1863', '1865', '1867', '1870', '1871', '1877', '1883', '1884', '1887', '1889', '1891', '1893', '1898', '1899', '1900', '1902', '1903', '1911', '1914', '1919', '1922', '1925', '1927', '1933', '1936', '1941', '1942', '1943', '1946', '1948', '1949', '1950', '1954', '1963', '1971', '1976', '1977', '1978', '1979', '1984', '1985', '1987', '1989', '1990', '1992', '1995', '1997', '2000']",False,2000,True,2,515c045f65,0.0,1.0,1.0
./expes/v2_2021-03-23_issda-30_2000-prng-1-w2-p2,30_issda-2000,2000,first-2000,900,45,rng,num-start-3400,3400,25726,classic,2629.9833521842957,True,,False,1.0,1.0,1.0,1,"['1', '3', '4', '7', '8', '9', '11', '24', '25', '26', '30', '32', '33', '35', '36', '38', '39', '40', '42', '44', '47', '48', '51', '53', '56', '57', '58', '60', '64', '71', '76', '77', '81', '82', '86', '87', '89', '90', '93', '96', '99', '101', '102', '104', '106', '108', '111', '112', '114', '117', '118', '119', '121', '122', '123', '125', '127', '128', '129', '130', '132', '134', '136', '137', '138', '141', '144', '145', '149', '150', '153', '154', '157', '158', '159', '165', '166', '168', '170', '172', '173', '174', '175', '176', '177', '178', '182', '184', '185', '186', '187', '189', '192', '193', '200', '201', '204', '208', '209', '210', '211', '212', '213', '215', '218', '225', '226', '231', '232', '237', '240', '242', '243', '246', '247', '248', '250', '251', '252', '254', '258', '261', '265', '266', '268', '269', '272', '273', '274', '281', '282', '284', '286', '287', '289', '290', '291', '293', '295', '296', '297', '299', '300', '301', '302', '305', '306', '307', '309', '310', '311', '312', '317', '318', '320', '323', '326', '331', '332', '333', '334', '335', '338', '341', '343', '345', '349', '350', '353', '358', '361', '365', '366', '369', '371', '372', '374', '375', '376', '380', '385', '389', '391', '392', '395', '397', '399', '400', '401', '403', '407', '409', '410', '412', '414', '415', '417', '419', '421', '422', '426', '428', '430', '431', '432', '433', '436', '440', '441', '446', '447', '450', '451', '452', '453', '456', '457', '458', '459', '465', '469', '471', '473', '474', '476', '477', '478', '481', '489', '490', '491', '493', '497', '500', '501', '504', '508', '509', '511', '513', '516', '517', '519', '521', '524', '530', '531', '532', '533', '534', '535', '537', '539', '540', '541', '542', '543', '544', '545', '549', '551', '553', '554', '555', '557', '564', '568', '570', '571', '572', '573', '575', '578', '582', '583', '585', '587', '589', '590', '594', '596', '600', '601', '606', '610', '611', '614', '615', '617', '619', '621', '624', '625', '631', '632', '634', '635', '639', '643', '644', '647', '648', '653', '654', '663', '664', '665', '667', '668', '670', '674', '676', '679', '680', '681', '682', '687', '692', '693', '695', '697', '701', '702', '704', '705', '706', '711', '712', '716', '718', '725', '728', '729', '731', '735', '737', '739', '741', '745', '746', '747', '748', '749', '750', '752', '755', '757', '763', '765', '771', '772', '780', '781', '782', '784', '785', '788', '791', '793', '796', '798', '800', '801', '804', '805', '806', '807', '808', '809', '811', '813', '815', '816', '818', '819', '820', '821', '823', '828', '829', '831', '832', '842', '846', '848', '850', '851', '853', '854', '856', '857', '859', '862', '863', '864', '865', '870', '872', '876', '877', '878', '880', '882', '883', '884', '886', '889', '894', '902', '903', '906', '908', '913', '914', '916', '917', '920', '921', '922', '924', '925', '927', '928', '929', '930', '935', '936', '939', '940', '941', '943', '946', '949', '952', '954', '955', '956', '958', '963', '968', '969', '970', '971', '972', '973', '980', '981', '982', '984', '987', '988', '989', '990', '991', '994', '995', '996', '998', '1000', '1002', '1003', '1007', '1010', '1012', '1013', '1014', '1017', '1018', '1019', '1020', '1021', '1025', '1026', '1027', '1028', '1030', '1031', '1033', '1034', '1036', '1037', '1038', '1040', '1041', '1042', '1046', '1047', '1049', '1050', '1051', '1054', '1055', '1056', '1058', '1059', '1060', '1061', '1062', '1072', '1073', '1074', '1076', '1078', '1079', '1080', '1082', '1084', '1087', '1088', '1089', '1090', '1091', '1093', '1095', '1097', '1098', '1099', '1108', '1110', '1113', '1115', '1119', '1121', '1122', '1123', '1124', '1125', '1126', '1127', '1128', '1129', '1133', '1135', '1138', '1139', '1140', '1141', '1142', '1143', '1144', '1146', '1148', '1151', '1156', '1159', '1160', '1161', '1163', '1165', '1167', '1169', '1170', '1174', '1177', '1182', '1184', '1188', '1191', '1192', '1194', '1195', '1197', '1200', '1202', '1207', '1210', '1218', '1221', '1222', '1227', '1229', '1231', '1234', '1236', '1240', '1242', '1246', '1247', '1248', '1249', '1250', '1252', '1253', '1255', '1256', '1257', '1258', '1260', '1264', '1265', '1268', '1273', '1274', '1278', '1279', '1281', '1283', '1285', '1286', '1288', '1290', '1292', '1293', '1294', '1296', '1300', '1301', '1303', '1304', '1305', '1309', '1317', '1318', '1320', '1326', '1331', '1332', '1334', '1335', '1337', '1338', '1342', '1344', '1345', '1347', '1349', '1351', '1353', '1356', '1357', '1361', '1363', '1368', '1369', '1370', '1372', '1374', '1375', '1377', '1384', '1385', '1394', '1395', '1396', '1397', '1398', '1399', '1401', '1406', '1409', '1410', '1414', '1415', '1418', '1419', '1420', '1424', '1426', '1428', '1432', '1435', '1436', '1437', '1441', '1447', '1448', '1452', '1454', '1457', '1458', '1459', '1461', '1465', '1467', '1468', '1474', '1476', '1479', '1481', '1484', '1485', '1486', '1488', '1490', '1493', '1494', '1498', '1500', '1502', '1503', '1509', '1513', '1514', '1516', '1517', '1518', '1523', '1528', '1530', '1531', '1533', '1535', '1536', '1537', '1538', '1541', '1542', '1548', '1550', '1551', '1553', '1554', '1555', '1556', '1557', '1560', '1565', '1566', '1571', '1572', '1574', '1581', '1582', '1584', '1590', '1591', '1592', '1596', '1598', '1603', '1606', '1607', '1608', '1615', '1617', '1619', '1627', '1633', '1634', '1635', '1637', '1638', '1641', '1642', '1646', '1648', '1651', '1652', '1654', '1656', '1658', '1662', '1663', '1664', '1665', '1670', '1672', '1674', '1676', '1678', '1679', '1680', '1682', '1684', '1690', '1692', '1693', '1694', '1698', '1703', '1705', '1709', '1710', '1711', '1712', '1715', '1719', '1721', '1722', '1723', '1732', '1733', '1739', '1740', '1747', '1748', '1750', '1754', '1759', '1760', '1767', '1769', '1770', '1781', '1782', '1783', '1784', '1785', '1786', '1788', '1790', '1791', '1792', '1793', '1794', '1795', '1796', '1799', '1801', '1802', '1807', '1808', '1809', '1810', '1811', '1813', '1817', '1818', '1821', '1827', '1829', '1831', '1834', '1838', '1839', '1843', '1844', '1847', '1852', '1854', '1856', '1857', '1861', '1863', '1864', '1865', '1867', '1868', '1869', '1871', '1873', '1875', '1878', '1880', '1882', '1883', '1890', '1892', '1896', '1898', '1899', '1901', '1906', '1910', '1912', '1913', '1915', '1917', '1918', '1920', '1922', '1925', '1927', '1929', '1930', '1932', '1935', '1937', '1938', '1940', '1941', '1942', '1944', '1946', '1947', '1948', '1950', '1951', '1952', '1956', '1957', '1959', '1962', '1966', '1968', '1970', '1971', '1978', '1982', '1983', '1985', '1988', '1989', '1990', '1991', '1992', '1994', '1996', '1999', '2000']",True,2000,True,2,6bf0ed656b,0.0,0.0,1.0
./expes/v2_2021-03-23_issda-30_2000-prng-1-w2-p2,30_issda-2000,2000,first-2000,1000,50,rng,num-start-1400,1400,25726,classic,2248.4461636543274,True,,False,1.0,1.0,1.0,1,"['2', '4', '6', '7', '8', '10', '11', '12', '15', '17', '18', '20', '22', '27', '32', '37', '38', '39', '41', '42', '44', '47', '48', '53', '55', '56', '58', '61', '62', '65', '66', '67', '70', '71', '72', '73', '75', '76', '77', '78', '79', '80', '83', '84', '85', '88', '89', '92', '93', '95', '97', '102', '106', '109', '110', '112', '114', '118', '121', '122', '124', '126', '127', '128', '131', '133', '136', '137', '138', '139', '142', '145', '147', '148', '152', '153', '154', '156', '158', '159', '160', '161', '162', '164', '165', '166', '167', '168', '170', '171', '175', '176', '178', '182', '183', '185', '188', '189', '190', '191', '192', '195', '196', '199', '202', '207', '212', '213', '214', '218', '220', '227', '230', '232', '233', '234', '235', '236', '238', '240', '242', '243', '245', '248', '250', '251', '262', '267', '272', '273', '275', '278', '280', '283', '284', '285', '286', '287', '288', '289', '291', '294', '295', '297', '298', '305', '306', '307', '309', '312', '313', '314', '316', '318', '320', '321', '322', '323', '325', '326', '329', '331', '332', '333', '334', '335', '336', '338', '339', '340', '341', '343', '345', '346', '348', '349', '352', '353', '354', '355', '358', '359', '361', '362', '363', '364', '365', '368', '370', '371', '372', '374', '375', '377', '379', '380', '385', '391', '392', '393', '397', '399', '400', '401', '402', '404', '405', '407', '408', '409', '410', '411', '412', '414', '416', '418', '421', '423', '425', '426', '427', '429', '431', '432', '433', '434', '435', '436', '437', '440', '441', '442', '443', '448', '449', '450', '453', '455', '456', '460', '464', '469', '470', '472', '474', '475', '476', '478', '479', '484', '487', '488', '489', '494', '496', '497', '501', '503', '507', '510', '511', '512', '513', '515', '516', '519', '520', '521', '524', '525', '527', '528', '529', '530', '532', '534', '536', '537', '538', '539', '540', '550', '552', '555', '557', '558', '562', '566', '567', '568', '569', '571', '573', '574', '575', '576', '579', '580', '581', '582', '585', '586', '589', '590', '591', '592', '593', '594', '595', '596', '597', '598', '599', '600', '601', '605', '606', '607', '608', '609', '611', '612', '613', '615', '616', '620', '621', '622', '623', '624', '625', '626', '628', '630', '632', '635', '638', '639', '640', '641', '642', '644', '645', '646', '648', '649', '657', '658', '659', '660', '661', '662', '663', '665', '666', '669', '670', '673', '676', '677', '678', '679', '682', '687', '689', '690', '692', '694', '695', '696', '697', '698', '703', '705', '707', '708', '710', '711', '712', '714', '718', '719', '724', '729', '731', '732', '734', '736', '737', '738', '742', '743', '745', '747', '748', '750', '753', '762', '763', '770', '778', '781', '782', '784', '786', '793', '794', '795', '796', '800', '802', '803', '804', '805', '809', '811', '812', '815', '820', '821', '823', '825', '826', '827', '828', '832', '834', '839', '841', '843', '844', '845', '846', '847', '848', '850', '852', '854', '855', '857', '861', '863', '866', '867', '868', '869', '870', '871', '877', '881', '883', '888', '889', '892', '893', '894', '895', '896', '898', '899', '900', '901', '903', '904', '906', '909', '910', '915', '917', '925', '926', '927', '930', '932', '934', '936', '939', '940', '941', '948', '950', '952', '957', '965', '966', '968', '970', '973', '974', '976', '977', '978', '979', '980', '981', '982', '987', '991', '992', '997', '1002', '1004', '1005', '1008', '1012', '1013', '1015', '1016', '1017', '1019', '1021', '1022', '1023', '1030', '1037', '1038', '1040', '1042', '1043', '1044', '1046', '1047', '1048', '1050', '1052', '1055', '1060', '1061', '1063', '1064', '1065', '1066', '1067', '1072', '1074', '1075', '1076', '1077', '1078', '1079', '1080', '1082', '1084', '1085', '1087', '1091', '1095', '1097', '1099', '1100', '1101', '1102', '1103', '1104', '1107', '1108', '1109', '1110', '1113', '1114', '1115', '1117', '1118', '1119', '1121', '1122', '1125', '1126', '1128', '1129', '1132', '1134', '1144', '1147', '1149', '1150', '1152', '1158', '1162', '1164', '1166', '1167', '1168', '1169', '1171', '1173', '1174', '1176', '1180', '1186', '1188', '1192', '1193', '1194', '1197', '1199', '1203', '1205', '1206', '1211', '1215', '1216', '1218', '1220', '1223', '1224', '1225', '1227', '1228', '1229', '1230', '1231', '1232', '1233', '1236', '1237', '1239', '1240', '1241', '1243', '1246', '1248', '1249', '1250', '1256', '1260', '1261', '1265', '1266', '1269', '1270', '1271', '1272', '1274', '1275', '1277', '1280', '1281', '1283', '1284', '1285', '1286', '1288', '1291', '1292', '1294', '1295', '1296', '1300', '1301', '1305', '1311', '1312', '1313', '1314', '1316', '1317', '1318', '1319', '1322', '1323', '1325', '1326', '1328', '1335', '1336', '1338', '1340', '1341', '1342', '1346', '1349', '1351', '1353', '1354', '1356', '1362', '1367', '1368', '1369', '1370', '1373', '1376', '1379', '1380', '1383', '1384', '1385', '1386', '1387', '1388', '1393', '1395', '1398', '1400', '1402', '1405', '1409', '1413', '1414', '1415', '1416', '1418', '1420', '1421', '1425', '1427', '1429', '1430', '1431', '1436', '1438', '1441', '1443', '1444', '1447', '1448', '1451', '1453', '1456', '1457', '1461', '1462', '1465', '1466', '1467', '1470', '1472', '1473', '1474', '1478', '1483', '1485', '1495', '1498', '1499', '1500', '1502', '1506', '1508', '1510', '1512', '1513', '1516', '1523', '1524', '1526', '1527', '1528', '1529', '1530', '1533', '1537', '1539', '1544', '1545', '1546', '1548', '1549', '1553', '1554', '1555', '1557', '1558', '1561', '1566', '1568', '1571', '1573', '1577', '1578', '1580', '1582', '1585', '1586', '1588', '1591', '1594', '1597', '1601', '1603', '1604', '1606', '1607', '1608', '1611', '1612', '1613', '1616', '1617', '1619', '1620', '1626', '1631', '1634', '1635', '1636', '1638', '1640', '1641', '1642', '1643', '1644', '1645', '1648', '1653', '1654', '1657', '1659', '1665', '1669', '1671', '1675', '1676', '1677', '1680', '1681', '1687', '1690', '1691', '1692', '1694', '1695', '1698', '1700', '1702', '1703', '1704', '1708', '1709', '1710', '1711', '1714', '1716', '1717', '1718', '1719', '1720', '1722', '1725', '1727', '1729', '1730', '1731', '1733', '1735', '1736', '1737', '1738', '1747', '1748', '1749', '1751', '1753', '1754', '1757', '1758', '1759', '1761', '1765', '1766', '1767', '1770', '1771', '1773', '1774', '1777', '1781', '1782', '1784', '1790', '1791', '1792', '1795', '1796', '1798', '1800', '1801', '1803', '1804', '1805', '1807', '1808', '1809', '1814', '1816', '1817', '1819', '1820', '1821', '1822', '1823', '1824', '1825', '1826', '1827', '1828', '1830', '1832', '1833', '1835', '1837', '1838', '1842', '1843', '1845', '1846', '1848', '1850', '1851', '1852', '1853', '1854', '1858', '1859', '1861', '1862', '1865', '1866', '1867', '1868', '1870', '1871', '1873', '1875', '1876', '1878', '1879', '1880', '1881', '1882', '1885', '1887', '1889', '1890', '1891', '1893', '1894', '1896', '1900', '1901', '1902', '1903', '1905', '1906', '1909', '1911', '1914', '1915', '1916', '1918', '1919', '1920', '1921', '1922', '1923', '1924', '1925', '1927', '1928', '1929', '1930', '1932', '1934', '1935', '1942', '1945', '1946', '1947', '1948', '1949', '1951', '1953', '1955', '1956', '1957', '1958', '1959', '1964', '1965', '1966', '1967', '1968', '1970', '1972', '1974', '1975', '1976', '1977', '1979', '1984', '1986', '1988', '1989', '1990', '1991', '1994', '1995', '1997', '1998']",True,2000,True,2,c5f7a766c5,0.0,0.0,1.0
./expes/v2_2021-03-23_issda-30_2000-prng-1-w2-p2,30_issda-2000,2000,first-2000,200,10,rng,num-start-2400,2400,25726,classic,1305.2419888973236,True,,True,1.0,1.0,1.0,1,"['9', '25', '47', '77', '81', '96', '99', '102', '119', '121', '122', '123', '125', '127', '129', '134', '141', '144', '149', '150', '159', '166', '168', '170', '177', '186', '192', '193', '200', '212', '240', '242', '254', '265', '273', '281', '296', '309', '310', '312', '338', '341', '345', '361', '369', '371', '374', '385', '422', '440', '447', '453', '458', '473', '476', '478', '493', '500', '508', '509', '539', '553', '570', '571', '578', '583', '589', '590', '594', '614', '615', '632', '635', '643', '644', '664', '697', '701', '704', '711', '718', '728', '735', '741', '749', '763', '780', '791', '801', '809', '813', '815', '823', '851', '857', '859', '864', '870', '876', '882', '889', '913', '920', '929', '935', '946', '954', '971', '994', '1002', '1012', '1014', '1017', '1018', '1040', '1049', '1076', '1089', '1098', '1108', '1122', '1126', '1127', '1129', '1141', '1143', '1148', '1156', '1159', '1170', '1174', '1177', '1182', '1184', '1188', '1192', '1194', '1200', '1207', '1218', '1248', '1252', '1268', '1285', '1292', '1309', '1326', '1334', '1349', '1361', '1369', '1370', '1394', '1396', '1397', '1399', '1424', '1428', '1432', '1437', '1447', '1459', '1468', '1494', '1498', '1513', '1551', '1566', '1574', '1592', '1598', '1617', '1627', '1633', '1672', '1676', '1678', '1682', '1684', '1694', '1703', '1721', '1759', '1770', '1785', '1793', '1810', '1811', '1817', '1864', '1878', '1892', '1912', '1927', '1935', '1941', '1942', '1962', '1971', '2000']",False,2000,True,2,4749e8fa0e,0.0,1.0,1.0
./expes/v2_2021-03-23_issda-30_2000-prng-1-w2-p2,30_issda-2000,2000,first-2000,400,20,rng,num-start-600,600,25726,classic,2110.5708651542664,False,,False,0,,,0,"['1', '3', '4', '5', '7', '26', '28', '29', '30', '31', '34', '45', '47', '55', '65', '68', '75', '80', '81', '83', '93', '94', '96', '103', '119', '126', '128', '129', '131', '142', '144', '148', '152', '162', '165', '166', '169', '171', '184', '187', '188', '192', '195', '201', '203', '206', '207', '208', '224', '237', '238', '240', '241', '244', '246', '254', '255', '256', '267', '268', '272', '277', '286', '287', '292', '300', '301', '307', '315', '323', '325', '328', '332', '340', '347', '350', '359', '370', '374', '377', '379', '383', '386', '387', '388', '390', '391', '392', '394', '399', '407', '409', '417', '419', '432', '438', '441', '448', '449', '452', '453', '455', '457', '483', '489', '491', '492', '496', '498', '500', '514', '531', '533', '534', '556', '564', '565', '574', '576', '578', '590', '595', '597', '617', '618', '620', '622', '636', '638', '640', '648', '650', '656', '665', '667', '668', '677', '682', '683', '685', '687', '688', '702', '718', '722', '725', '732', '734', '735', '736', '759', '762', '776', '789', '795', '796', '802', '817', '823', '824', '830', '840', '849', '851', '856', '857', '859', '862', '872', '873', '890', '894', '906', '907', '912', '913', '915', '918', '923', '938', '957', '964', '966', '967', '975', '976', '977', '982', '987', '996', '997', '998', '1003', '1009', '1011', '1013', '1032', '1034', '1041', '1042', '1048', '1068', '1069', '1075', '1081', '1083', '1085', '1091', '1095', '1107', '1108', '1113', '1115', '1121', '1122', '1124', '1129', '1132', '1147', '1149', '1150', '1163', '1164', '1166', '1167', '1176', '1179', '1180', '1188', '1195', '1203', '1204', '1208', '1209', '1218', '1222', '1223', '1233', '1234', '1236', '1237', '1241', '1242', '1246', '1250', '1252', '1254', '1255', '1267', '1271', '1272', '1281', '1291', '1297', '1298', '1299', '1301', '1306', '1312', '1314', '1325', '1330', '1333', '1345', '1347', '1353', '1357', '1364', '1369', '1378', '1380', '1384', '1385', '1390', '1391', '1392', '1394', '1396', '1400', '1401', '1411', '1415', '1429', '1431', '1433', '1435', '1437', '1438', '1442', '1445', '1448', '1453', '1455', '1466', '1470', '1471', '1474', '1486', '1490', '1495', '1496', '1499', '1514', '1519', '1533', '1546', '1548', '1552', '1553', '1561', '1572', '1582', '1604', '1606', '1608', '1616', '1625', '1628', '1635', '1638', '1640', '1645', '1646', '1649', '1657', '1660', '1663', '1664', '1669', '1671', '1674', '1683', '1685', '1690', '1691', '1696', '1698', '1699', '1700', '1701', '1708', '1712', '1716', '1717', '1721', '1726', '1730', '1731', '1732', '1740', '1742', '1749', '1752', '1773', '1777', '1783', '1786', '1790', '1792', '1793', '1796', '1811', '1813', '1824', '1827', '1834', '1840', '1841', '1844', '1848', '1853', '1860', '1864', '1870', '1876', '1878', '1879', '1880', '1881', '1882', '1888', '1889', '1891', '1892', '1911', '1918', '1919', '1940', '1945', '1946', '1953', '1969', '1973', '1974', '1978', '1980', '1982', '1983', '1988', '1996']",True,2000,True,2,89575ce3ef,0.0,0.0,0.0
./expes/v2_2021-03-23_issda-30_2000-prng-1-w2-p2,30_issda-2000,2000,first-2000,100,5,rng,num-start-2800,2800,25726,classic,1582.2394878864288,True,,True,1.0,1.0,1.0,1,"['77', '96', '99', '102', '119', '122', '123', '127', '129', '144', '149', '150', '168', '177', '186', '193', '200', '212', '242', '254', '273', '296', '309', '338', '369', '371', '385', '422', '440', '453', '458', '493', '500', '509', '590', '594', '614', '615', '632', '644', '664', '704', '741', '749', '763', '809', '813', '857', '859', '870', '876', '889', '920', '929', '954', '1014', '1017', '1040', '1049', '1076', '1089', '1098', '1108', '1122', '1129', '1141', '1148', '1156', '1159', '1170', '1177', '1182', '1192', '1194', '1200', '1248', '1268', '1285', '1292', '1309', '1334', '1394', '1397', '1432', '1459', '1494', '1551', '1592', '1598', '1627', '1672', '1682', '1694', '1759', '1793', '1864', '1892', '1941', '1942', '2000']",False,2000,True,2,c2b1fc9753,0.0,1.0,1.0
./expes/v2_2021-03-23_issda-30_2000-prng-1-w2-p2,30_issda-2000,2000,first-2000,100,5,rng,num-start-3000,3000,25726,classic,1379.3049097061157,True,,True,1.0,1.0,1.0,1,"['77', '96', '99', '102', '119', '122', '123', '127', '129', '144', '149', '150', '168', '177', '186', '193', '200', '212', '242', '254', '273', '296', '309', '338', '369', '371', '385', '422', '440', '453', '458', '493', '500', '509', '590', '594', '614', '615', '632', '644', '664', '704', '741', '749', '763', '809', '813', '857', '859', '870', '876', '889', '920', '929', '954', '1014', '1017', '1040', '1049', '1076', '1089', '1098', '1108', '1122', '1129', '1141', '1148', '1156', '1159', '1170', '1177', '1182', '1192', '1194', '1200', '1248', '1268', '1285', '1292', '1309', '1334', '1394', '1397', '1432', '1459', '1494', '1551', '1592', '1598', '1627', '1672', '1682', '1694', '1759', '1793', '1864', '1892', '1941', '1942', '2000']",False,2000,True,2,deeb415fbd,0.0,1.0,1.0
./expes/v2_2021-03-23_issda-30_2000-prng-1-w2-p2,30_issda-2000,2000,first-2000,300,15,rng,num-start-3600,3600,25726,classic,2456.093818664551,True,,True,1.0,1.0,1.0,1,"['1', '2', '10', '20', '23', '31', '32', '34', '35', '37', '41', '44', '61', '62', '69', '72', '74', '80', '86', '87', '96', '98', '108', '122', '123', '124', '130', '137', '138', '141', '142', '144', '150', '151', '152', '153', '154', '161', '171', '175', '179', '185', '186', '189', '193', '206', '207', '213', '221', '222', '224', '239', '242', '259', '261', '269', '270', '276', '278', '280', '284', '288', '291', '300', '316', '323', '325', '360', '361', '364', '375', '379', '382', '384', '386', '389', '390', '391', '401', '403', '407', '418', '428', '430', '432', '435', '436', '437', '438', '468', '471', '479', '489', '496', '498', '505', '511', '521', '523', '527', '529', '552', '553', '570', '574', '578', '592', '596', '601', '603', '607', '622', '623', '637', '638', '639', '646', '654', '669', '674', '678', '682', '690', '733', '742', '756', '762', '769', '786', '791', '792', '796', '803', '808', '809', '812', '814', '821', '834', '840', '843', '859', '860', '862', '864', '903', '905', '913', '915', '917', '923', '926', '927', '928', '929', '937', '951', '953', '954', '963', '973', '975', '982', '988', '989', '991', '998', '1006', '1024', '1041', '1043', '1049', '1050', '1051', '1064', '1066', '1069', '1083', '1088', '1104', '1129', '1135', '1146', '1147', '1154', '1160', '1172', '1177', '1182', '1194', '1197', '1203', '1209', '1211', '1214', '1220', '1222', '1226', '1229', '1232', '1233', '1237', '1250', '1251', '1258', '1259', '1261', '1262', '1275', '1277', '1285', '1289', '1290', '1300', '1303', '1304', '1312', '1315', '1319', '1332', '1339', '1340', '1342', '1346', '1357', '1383', '1397', '1403', '1407', '1416', '1421', '1436', '1443', '1448', '1450', '1452', '1476', '1486', '1497', '1499', '1501', '1514', '1515', '1516', '1534', '1553', '1570', '1576', '1583', '1594', '1595', '1600', '1625', '1633', '1646', '1647', '1659', '1675', '1687', '1701', '1704', '1705', '1721', '1726', '1734', '1736', '1746', '1750', '1752', '1755', '1771', '1774', '1775', '1802', '1807', '1813', '1824', '1825', '1854', '1861', '1865', '1874', '1879', '1890', '1892', '1893', '1899', '1904', '1909', '1926', '1940', '1946', '1963', '1965', '1972', '1975', '1976', '1989', '1993', '1997']",False,2000,True,2,ebbec53ace,0.0,1.0,1.0
./expes/v2_2021-03-23_issda-30_2000-prng-1-w2-p2,30_issda-2000,2000,first-2000,800,40,rng,num-start-3800,3800,25726,classic,2692.2546434402466,True,,False,1.0,1.0,1.0,1,"['5', '6', '11', '14', '15', '18', '26', '27', '31', '34', '35', '37', '39', '41', '45', '47', '48', '50', '51', '52', '54', '55', '57', '66', '69', '71', '73', '75', '81', '84', '86', '87', '89', '90', '93', '96', '98', '100', '102', '114', '118', '123', '127', '128', '130', '131', '132', '135', '137', '140', '141', '142', '145', '147', '148', '149', '151', '153', '155', '159', '162', '164', '167', '171', '172', '175', '177', '181', '187', '188', '192', '193', '194', '195', '196', '202', '204', '207', '208', '210', '211', '212', '215', '219', '221', '223', '227', '228', '230', '232', '233', '234', '236', '238', '239', '245', '246', '248', '249', '253', '258', '259', '262', '263', '264', '265', '271', '272', '273', '274', '276', '279', '280', '282', '284', '286', '287', '294', '297', '300', '304', '305', '307', '309', '310', '312', '314', '316', '317', '320', '325', '326', '336', '337', '338', '340', '341', '342', '349', '351', '352', '354', '359', '361', '362', '363', '365', '366', '369', '370', '371', '372', '376', '380', '382', '383', '384', '385', '387', '388', '389', '390', '392', '393', '397', '402', '404', '409', '413', '414', '415', '416', '421', '425', '428', '429', '431', '432', '436', '441', '453', '459', '461', '462', '464', '465', '466', '472', '477', '486', '489', '493', '494', '495', '496', '500', '502', '503', '509', '511', '512', '515', '517', '519', '521', '523', '530', '533', '534', '535', '537', '539', '540', '542', '549', '551', '556', '557', '560', '562', '563', '564', '567', '568', '571', '572', '576', '579', '582', '585', '586', '591', '592', '593', '594', '597', '599', '601', '602', '606', '612', '613', '614', '616', '617', '623', '624', '627', '630', '632', '633', '634', '636', '637', '638', '641', '642', '646', '648', '650', '651', '660', '663', '665', '667', '671', '672', '674', '675', '676', '680', '682', '684', '689', '690', '696', '698', '700', '703', '707', '710', '711', '712', '716', '718', '720', '721', '724', '725', '726', '731', '734', '735', '737', '742', '744', '745', '746', '747', '750', '751', '752', '755', '756', '757', '758', '760', '763', '771', '772', '777', '781', '785', '788', '792', '793', '794', '795', '796', '800', '803', '804', '806', '812', '813', '819', '821', '823', '827', '829', '830', '831', '833', '844', '847', '848', '849', '852', '855', '857', '862', '867', '872', '874', '875', '878', '879', '880', '881', '882', '888', '890', '893', '895', '896', '897', '898', '899', '901', '902', '906', '910', '912', '914', '915', '917', '921', '922', '923', '925', '926', '928', '930', '931', '932', '934', '937', '938', '939', '941', '943', '945', '947', '949', '952', '955', '956', '957', '959', '960', '962', '963', '967', '968', '969', '975', '978', '979', '980', '982', '983', '984', '987', '989', '995', '996', '998', '999', '1001', '1002', '1004', '1006', '1008', '1011', '1012', '1015', '1018', '1019', '1022', '1025', '1028', '1029', '1030', '1034', '1036', '1043', '1048', '1049', '1050', '1051', '1054', '1056', '1057', '1058', '1065', '1066', '1067', '1069', '1072', '1073', '1075', '1077', '1078', '1080', '1083', '1084', '1085', '1087', '1089', '1090', '1094', '1095', '1098', '1099', '1100', '1102', '1105', '1106', '1110', '1111', '1115', '1117', '1118', '1120', '1121', '1124', '1126', '1129', '1134', '1135', '1136', '1137', '1141', '1145', '1151', '1152', '1153', '1156', '1165', '1166', '1167', '1169', '1175', '1178', '1179', '1181', '1184', '1186', '1188', '1190', '1193', '1194', '1195', '1198', '1199', '1204', '1206', '1208', '1211', '1213', '1215', '1216', '1217', '1218', '1219', '1221', '1222', '1223', '1224', '1226', '1227', '1246', '1248', '1249', '1251', '1256', '1259', '1261', '1265', '1267', '1268', '1269', '1270', '1271', '1272', '1274', '1280', '1282', '1283', '1286', '1290', '1293', '1299', '1301', '1302', '1303', '1305', '1308', '1310', '1311', '1313', '1320', '1323', '1325', '1329', '1330', '1331', '1333', '1337', '1339', '1344', '1345', '1347', '1349', '1351', '1352', '1355', '1360', '1364', '1367', '1368', '1370', '1371', '1372', '1376', '1380', '1381', '1385', '1387', '1388', '1389', '1394', '1396', '1398', '1401', '1405', '1406', '1408', '1410', '1411', '1420', '1423', '1426', '1427', '1429', '1432', '1435', '1438', '1445', '1452', '1454', '1461', '1465', '1467', '1468', '1470', '1473', '1474', '1475', '1485', '1486', '1491', '1497', '1498', '1503', '1507', '1509', '1512', '1513', '1514', '1519', '1524', '1525', '1528', '1532', '1534', '1540', '1541', '1543', '1545', '1546', '1548', '1550', '1553', '1556', '1557', '1559', '1561', '1565', '1568', '1570', '1572', '1577', '1584', '1586', '1587', '1588', '1594', '1595', '1601', '1602', '1604', '1605', '1607', '1608', '1609', '1612', '1614', '1617', '1618', '1622', '1624', '1625', '1626', '1629', '1630', '1632', '1639', '1642', '1645', '1646', '1647', '1648', '1655', '1661', '1663', '1667', '1670', '1673', '1675', '1679', '1684', '1686', '1688', '1689', '1692', '1696', '1702', '1704', '1705', '1708', '1710', '1712', '1715', '1722', '1724', '1729', '1730', '1731', '1733', '1735', '1737', '1738', '1740', '1741', '1742', '1744', '1747', '1748', '1752', '1753', '1754', '1755', '1762', '1763', '1766', '1767', '1770', '1774', '1777', '1779', '1786', '1790', '1799', '1800', '1801', '1804', '1809', '1811', '1812', '1814', '1815', '1816', '1820', '1822', '1824', '1831', '1832', '1833', '1834', '1836', '1837', '1838', '1839', '1851', '1853', '1854', '1856', '1859', '1860', '1862', '1863', '1865', '1874', '1876', '1883', '1885', '1887', '1892', '1896', '1898', '1901', '1903', '1905', '1907', '1908', '1911', '1913', '1914', '1915', '1916', '1917', '1918', '1919', '1921', '1924', '1925', '1929', '1933', '1936', '1937', '1938', '1941', '1942', '1945', '1946', '1947', '1954', '1956', '1957', '1959', '1960', '1963', '1964', '1970', '1973', '1974', '1977', '1978', '1979', '1980', '1981', '1983', '1984', '1987', '1989', '1991', '1993', '1995', '1999']",True,2000,True,2,cfdd849409,0.0,0.0,1.0
./expes/v2_2021-03-23_issda-30_2000-prng-1-w2-p2,30_issda-2000,2000,first-2000,800,40,rng,num-start-1600,1600,25726,classic,1382.7444281578064,True,,True,1.0,1.0,1.0,1,"['4', '8', '10', '11', '15', '16', '24', '27', '32', '37', '41', '42', '44', '46', '48', '49', '53', '56', '57', '58', '59', '61', '62', '64', '65', '67', '68', '70', '72', '73', '74', '75', '76', '87', '88', '89', '91', '93', '94', '95', '102', '103', '105', '109', '110', '113', '122', '124', '125', '126', '130', '132', '135', '137', '140', '141', '142', '147', '149', '157', '158', '159', '160', '164', '171', '176', '177', '182', '187', '189', '190', '197', '199', '200', '204', '205', '209', '211', '212', '214', '215', '219', '220', '222', '223', '230', '231', '233', '236', '242', '244', '245', '246', '248', '249', '251', '253', '254', '255', '256', '257', '260', '262', '264', '266', '267', '268', '270', '273', '275', '279', '280', '282', '284', '290', '294', '295', '300', '301', '306', '307', '309', '311', '320', '322', '327', '329', '333', '335', '347', '348', '349', '351', '352', '353', '362', '364', '366', '367', '369', '370', '372', '373', '376', '379', '380', '382', '383', '384', '388', '389', '391', '392', '393', '397', '405', '407', '408', '409', '411', '414', '422', '431', '433', '445', '446', '447', '448', '453', '455', '456', '460', '461', '466', '471', '475', '476', '480', '481', '482', '484', '487', '488', '489', '490', '491', '496', '501', '502', '507', '509', '512', '513', '514', '515', '518', '521', '523', '529', '530', '532', '537', '540', '541', '542', '543', '544', '545', '547', '548', '550', '551', '552', '554', '555', '556', '561', '563', '571', '572', '573', '583', '584', '588', '592', '595', '598', '601', '602', '603', '606', '612', '614', '615', '616', '617', '621', '623', '630', '635', '640', '641', '642', '643', '645', '646', '647', '648', '653', '656', '660', '662', '665', '667', '669', '672', '674', '678', '679', '681', '682', '684', '686', '690', '694', '695', '696', '697', '699', '700', '705', '708', '710', '718', '719', '720', '721', '722', '723', '726', '731', '736', '738', '739', '746', '749', '753', '755', '757', '758', '760', '763', '765', '767', '769', '770', '771', '772', '773', '774', '778', '779', '784', '785', '786', '791', '794', '797', '798', '799', '801', '802', '803', '807', '809', '813', '814', '816', '820', '822', '827', '835', '836', '839', '841', '846', '847', '848', '851', '854', '857', '860', '861', '862', '863', '867', '871', '873', '875', '878', '881', '884', '886', '890', '892', '894', '896', '898', '908', '911', '912', '918', '923', '924', '927', '931', '935', '936', '938', '943', '944', '951', '952', '955', '958', '959', '961', '964', '969', '970', '971', '976', '978', '981', '982', '983', '986', '987', '988', '989', '991', '996', '999', '1003', '1004', '1012', '1014', '1017', '1020', '1025', '1029', '1031', '1034', '1036', '1039', '1042', '1045', '1048', '1050', '1055', '1056', '1060', '1062', '1063', '1065', '1066', '1068', '1072', '1076', '1077', '1080', '1081', '1084', '1085', '1086', '1090', '1094', '1095', '1097', '1098', '1099', '1100', '1102', '1108', '1109', '1110', '1113', '1114', '1115', '1116', '1124', '1126', '1127', '1129', '1132', '1134', '1135', '1136', '1137', '1138', '1140', '1141', '1145', '1146', '1147', '1155', '1156', '1160', '1161', '1162', '1164', '1165', '1166', '1168', '1170', '1172', '1175', '1176', '1178', '1180', '1182', '1186', '1188', '1189', '1190', '1195', '1197', '1198', '1199', '1200', '1201', '1202', '1204', '1206', '1207', '1208', '1209', '1211', '1213', '1214', '1219', '1220', '1224', '1227', '1228', '1229', '1231', '1232', '1237', '1238', '1240', '1241', '1245', '1247', '1251', '1254', '1259', '1262', '1266', '1269', '1271', '1274', '1276', '1282', '1284', '1285', '1286', '1287', '1288', '1293', '1295', '1297', '1298', '1299', '1300', '1301', '1304', '1309', '1315', '1317', '1319', '1320', '1321', '1323', '1325', '1327', '1328', '1331', '1332', '1337', '1339', '1340', '1343', '1351', '1357', '1358', '1363', '1366', '1368', '1373', '1375', '1376', '1377', '1378', '1380', '1381', '1383', '1384', '1385', '1389', '1390', '1392', '1395', '1396', '1397', '1401', '1405', '1413', '1415', '1416', '1421', '1422', '1424', '1425', '1427', '1429', '1430', '1431', '1434', '1436', '1437', '1440', '1444', '1445', '1448', '1460', '1462', '1463', '1465', '1466', '1467', '1468', '1469', '1470', '1471', '1472', '1473', '1476', '1477', '1481', '1490', '1491', '1492', '1493', '1496', '1499', '1503', '1504', '1506', '1512', '1515', '1519', '1520', '1521', '1523', '1527', '1531', '1532', '1533', '1534', '1541', '1543', '1544', '1545', '1546', '1549', '1550', '1551', '1553', '1557', '1560', '1572', '1575', '1581', '1582', '1586', '1588', '1589', '1591', '1592', '1596', '1597', '1598', '1601', '1602', '1603', '1604', '1612', '1613', '1615', '1620', '1622', '1623', '1626', '1629', '1635', '1636', '1637', '1640', '1641', '1645', '1647', '1651', '1652', '1653', '1654', '1658', '1659', '1660', '1662', '1663', '1666', '1669', '1671', '1673', '1674', '1679', '1683', '1687', '1696', '1704', '1706', '1707', '1708', '1710', '1713', '1714', '1716', '1718', '1724', '1726', '1728', '1729', '1735', '1741', '1744', '1746', '1749', '1750', '1752', '1753', '1754', '1755', '1756', '1758', '1759', '1761', '1763', '1764', '1765', '1767', '1769', '1770', '1772', '1773', '1776', '1778', '1779', '1781', '1782', '1783', '1787', '1788', '1793', '1800', '1802', '1803', '1804', '1805', '1807', '1810', '1813', '1816', '1817', '1818', '1822', '1823', '1824', '1825', '1826', '1837', '1838', '1839', '1843', '1847', '1851', '1852', '1853', '1856', '1862', '1864', '1866', '1870', '1872', '1876', '1878', '1879', '1885', '1886', '1887', '1888', '1889', '1893', '1897', '1900', '1903', '1904', '1909', '1913', '1914', '1915', '1917', '1918', '1923', '1924', '1927', '1928', '1931', '1932', '1934', '1935', '1936', '1941', '1944', '1945', '1946', '1947', '1948', '1951', '1953', '1956', '1957', '1961', '1962', '1964', '1967', '1968', '1969', '1973', '1975', '1976', '1978', '1980', '1981', '1985', '1989', '1990', '1991', '1993', '1997']",False,2000,True,2,f32ab6c837,0.0,1.0,1.0
./expes/v2_2021-03-23_issda-30_2000-prng-1-w2-p2,30_issda-2000,2000,first-2000,200,10,rng,num-start-1200,1200,25726,classic,607.4824666976929,True,,True,1.0,1.0,1.0,1,"['4', '5', '12', '19', '26', '45', '46', '53', '59', '60', '61', '63', '71', '90', '115', '130', '178', '193', '205', '210', '222', '242', '248', '265', '276', '336', '346', '349', '355', '381', '389', '409', '410', '421', '430', '444', '449', '455', '465', '469', '473', '476', '478', '498', '523', '546', '552', '582', '594', '608', '622', '632', '651', '682', '705', '708', '709', '724', '731', '747', '752', '759', '768', '778', '781', '786', '799', '806', '807', '828', '829', '847', '849', '853', '865', '873', '887', '897', '899', '913', '921', '941', '942', '962', '968', '984', '986', '994', '1000', '1003', '1015', '1016', '1023', '1026', '1029', '1034', '1035', '1040', '1042', '1050', '1053', '1063', '1067', '1081', '1106', '1109', '1123', '1124', '1133', '1136', '1140', '1150', '1166', '1168', '1184', '1185', '1204', '1207', '1211', '1215', '1245', '1248', '1260', '1289', '1316', '1326', '1331', '1335', '1351', '1360', '1362', '1373', '1382', '1387', '1406', '1426', '1440', '1441', '1457', '1478', '1483', '1487', '1494', '1501', '1512', '1517', '1522', '1524', '1559', '1562', '1565', '1572', '1579', '1589', '1593', '1595', '1605', '1616', '1634', '1643', '1644', '1658', '1666', '1681', '1700', '1712', '1716', '1721', '1734', '1736', '1738', '1748', '1756', '1762', '1782', '1805', '1808', '1815', '1830', '1835', '1847', '1864', '1865', '1877', '1885', '1889', '1898', '1918', '1922', '1924', '1927', '1928', '1936', '1946', '1951', '1956', '1961', '1981', '1985', '1994']",False,2000,True,2,394753445f,0.0,1.0,1.0
./expes/v2_2021-03-23_issda-30_2000-prng-1-w2-p2,30_issda-2000,2000,first-2000,500,25,rng,num-start-1800,1800,25726,classic,1193.2139737606049,True,,True,1.0,1.0,1.0,1,"['12', '13', '14', '18', '23', '27', '30', '36', '38', '43', '47', '60', '73', '76', '94', '113', '115', '120', '125', '130', '133', '136', '137', '141', '147', '156', '157', '162', '171', '172', '179', '181', '182', '184', '185', '190', '192', '208', '218', '220', '236', '239', '242', '252', '258', '259', '265', '267', '270', '273', '280', '281', '287', '294', '297', '298', '300', '303', '308', '309', '310', '312', '314', '329', '331', '333', '334', '335', '342', '344', '347', '350', '353', '358', '361', '362', '366', '372', '374', '375', '386', '387', '389', '390', '402', '406', '409', '411', '413', '414', '415', '418', '424', '428', '430', '433', '436', '438', '440', '442', '443', '449', '452', '461', '472', '473', '479', '481', '484', '487', '491', '495', '497', '505', '511', '512', '520', '525', '528', '530', '531', '532', '533', '538', '540', '542', '543', '547', '550', '553', '555', '558', '560', '561', '562', '564', '565', '575', '577', '582', '583', '588', '592', '599', '606', '609', '612', '613', '615', '618', '621', '623', '632', '644', '646', '659', '660', '661', '664', '665', '671', '673', '675', '681', '685', '686', '688', '694', '696', '698', '702', '707', '709', '712', '716', '718', '722', '730', '733', '738', '739', '745', '748', '749', '754', '755', '764', '766', '767', '775', '780', '790', '802', '806', '813', '814', '820', '824', '826', '828', '829', '831', '832', '834', '836', '839', '844', '850', '851', '853', '855', '856', '865', '868', '870', '874', '883', '888', '889', '890', '895', '897', '911', '915', '920', '930', '931', '933', '939', '940', '942', '953', '955', '958', '962', '967', '973', '978', '979', '980', '983', '984', '997', '1003', '1006', '1007', '1010', '1012', '1016', '1023', '1026', '1038', '1039', '1040', '1043', '1049', '1051', '1052', '1054', '1064', '1066', '1069', '1070', '1073', '1078', '1079', '1085', '1086', '1091', '1095', '1102', '1104', '1107', '1109', '1114', '1116', '1117', '1124', '1130', '1131', '1133', '1140', '1143', '1144', '1145', '1149', '1158', '1164', '1166', '1171', '1173', '1174', '1176', '1179', '1183', '1186', '1194', '1198', '1203', '1206', '1207', '1216', '1229', '1235', '1242', '1244', '1251', '1252', '1254', '1255', '1258', '1260', '1261', '1267', '1281', '1287', '1289', '1290', '1293', '1304', '1308', '1309', '1322', '1325', '1326', '1327', '1328', '1336', '1344', '1346', '1347', '1354', '1355', '1372', '1378', '1381', '1383', '1385', '1386', '1388', '1393', '1396', '1401', '1402', '1406', '1408', '1412', '1414', '1417', '1419', '1422', '1431', '1432', '1438', '1444', '1446', '1449', '1451', '1452', '1453', '1454', '1461', '1462', '1467', '1469', '1474', '1480', '1489', '1490', '1496', '1505', '1506', '1507', '1508', '1513', '1519', '1522', '1526', '1529', '1533', '1538', '1549', '1550', '1552', '1553', '1554', '1556', '1557', '1562', '1574', '1575', '1578', '1579', '1581', '1584', '1587', '1589', '1593', '1594', '1595', '1598', '1605', '1607', '1613', '1620', '1622', '1623', '1625', '1626', '1627', '1632', '1639', '1644', '1652', '1654', '1657', '1660', '1662', '1663', '1666', '1668', '1674', '1676', '1688', '1691', '1692', '1695', '1697', '1700', '1705', '1706', '1708', '1711', '1712', '1713', '1719', '1720', '1726', '1728', '1729', '1733', '1736', '1746', '1749', '1758', '1760', '1762', '1766', '1769', '1774', '1777', '1780', '1783', '1789', '1791', '1792', '1795', '1811', '1814', '1817', '1818', '1825', '1826', '1827', '1834', '1841', '1842', '1854', '1858', '1865', '1869', '1871', '1880', '1891', '1895', '1896', '1899', '1900', '1904', '1905', '1910', '1916', '1919', '1931', '1934', '1935', '1936', '1938', '1946', '1950', '1951', '1961', '1962', '1980', '1981', '1985', '1987', '1993', '1994', '1999']",False,2000,True,2,a36d6d2e2e,0.0,1.0,1.0
./expes/v2_2021-03-23_issda-30_2000-prng-1-w2-p2,30_issda-2000,2000,first-2000,100,5,rng,num-start-1600,1600,25726,classic,548.782541513443,True,,True,1.0,1.0,1.0,1,"['30', '62', '146', '174', '241', '259', '267', '268', '277', '286', '301', '302', '362', '368', '381', '384', '415', '439', '462', '473', '480', '519', '526', '531', '537', '538', '539', '565', '574', '596', '601', '604', '643', '709', '729', '730', '746', '761', '811', '880', '881', '884', '895', '902', '909', '919', '924', '941', '997', '1006', '1071', '1089', '1098', '1126', '1136', '1156', '1183', '1218', '1241', '1247', '1252', '1298', '1308', '1313', '1336', '1342', '1365', '1374', '1387', '1401', '1402', '1404', '1416', '1493', '1504', '1526', '1533', '1547', '1626', '1627', '1635', '1643', '1651', '1659', '1679', '1693', '1709', '1716', '1733', '1740', '1741', '1781', '1785', '1797', '1820', '1822', '1823', '1840', '1863', '1945']",False,2000,True,2,484ea596de,0.0,1.0,1.0
./expes/v2_2021-03-23_issda-30_2000-prng-1-w2-p2,30_issda-2000,2000,first-2000,700,35,rng,num-start-2200,2200,25726,classic,2053.5368213653564,True,,True,1.0,1.0,1.0,1,"['4', '8', '10', '11', '15', '16', '24', '27', '32', '37', '41', '42', '44', '46', '48', '49', '53', '56', '57', '58', '59', '61', '64', '65', '67', '68', '70', '72', '73', '74', '75', '76', '87', '88', '89', '91', '93', '94', '95', '102', '103', '105', '109', '110', '113', '124', '125', '126', '130', '132', '135', '137', '140', '141', '142', '147', '149', '157', '158', '159', '160', '164', '171', '176', '177', '182', '187', '189', '190', '197', '199', '200', '204', '205', '209', '211', '212', '214', '215', '219', '222', '223', '231', '233', '236', '242', '244', '245', '246', '248', '249', '251', '253', '254', '255', '256', '257', '260', '262', '264', '266', '267', '268', '270', '273', '275', '279', '280', '282', '284', '294', '295', '301', '306', '309', '311', '320', '322', '327', '329', '333', '335', '347', '348', '351', '352', '353', '364', '366', '367', '369', '370', '376', '380', '382', '384', '389', '391', '392', '393', '405', '407', '408', '409', '411', '422', '431', '433', '445', '446', '447', '448', '453', '455', '456', '460', '461', '466', '471', '475', '476', '480', '481', '482', '484', '487', '488', '489', '490', '491', '496', '501', '502', '509', '512', '514', '515', '518', '521', '523', '529', '530', '532', '537', '540', '541', '542', '543', '547', '548', '550', '551', '552', '554', '555', '556', '561', '563', '571', '572', '573', '583', '584', '588', '592', '595', '598', '602', '606', '612', '614', '615', '616', '617', '621', '623', '630', '635', '641', '642', '643', '645', '646', '647', '653', '656', '660', '662', '665', '667', '669', '672', '674', '678', '679', '681', '684', '686', '690', '695', '696', '697', '699', '700', '705', '708', '710', '718', '719', '720', '721', '723', '731', '738', '739', '746', '749', '753', '755', '757', '758', '763', '765', '767', '769', '770', '771', '772', '773', '774', '778', '779', '784', '791', '794', '797', '798', '799', '801', '807', '809', '813', '814', '820', '822', '835', '836', '839', '841', '846', '847', '848', '851', '854', '857', '860', '862', '863', '867', '871', '873', '875', '878', '881', '884', '886', '890', '892', '894', '896', '898', '908', '911', '924', '927', '931', '935', '936', '943', '944', '951', '952', '955', '958', '959', '961', '964', '969', '970', '971', '976', '978', '982', '983', '986', '987', '988', '989', '991', '996', '999', '1003', '1004', '1014', '1017', '1020', '1025', '1029', '1031', '1036', '1039', '1045', '1048', '1050', '1056', '1060', '1062', '1063', '1065', '1066', '1068', '1072', '1076', '1080', '1081', '1084', '1085', '1086', '1090', '1094', '1095', '1097', '1098', '1100', '1102', '1108', '1109', '1110', '1114', '1115', '1124', '1126', '1127', '1129', '1134', '1136', '1138', '1140', '1141', '1145', '1146', '1155', '1156', '1161', '1164', '1165', '1166', '1168', '1170', '1172', '1175', '1176', '1178', '1182', '1186', '1188', '1189', '1190', '1197', '1198', '1199', '1200', '1201', '1202', '1204', '1206', '1207', '1208', '1209', '1211', '1214', '1219', '1220', '1227', '1228', '1229', '1231', '1232', '1237', '1238', '1240', '1241', '1247', '1251', '1254', '1259', '1262', '1266', '1269', '1271', '1274', '1276', '1282', '1284', '1285', '1286', '1287', '1288', '1295', '1297', '1298', '1299', '1300', '1301', '1304', '1309', '1315', '1317', '1319', '1320', '1323', '1325', '1328', '1331', '1332', '1337', '1339', '1343', '1351', '1357', '1358', '1363', '1368', '1375', '1376', '1377', '1380', '1381', '1383', '1384', '1385', '1389', '1390', '1392', '1395', '1397', '1401', '1405', '1413', '1415', '1416', '1421', '1422', '1424', '1425', '1427', '1429', '1430', '1431', '1434', '1436', '1437', '1440', '1444', '1445', '1448', '1460', '1462', '1463', '1465', '1466', '1467', '1468', '1469', '1470', '1472', '1473', '1476', '1477', '1481', '1492', '1493', '1499', '1503', '1504', '1506', '1512', '1519', '1520', '1521', '1527', '1531', '1532', '1533', '1534', '1541', '1543', '1544', '1549', '1550', '1551', '1553', '1557', '1560', '1572', '1575', '1582', '1586', '1588', '1589', '1591', '1592', '1596', '1597', '1598', '1603', '1604', '1612', '1613', '1615', '1620', '1622', '1623', '1626', '1629', '1636', '1637', '1640', '1641', '1645', '1647', '1651', '1652', '1653', '1654', '1659', '1660', '1662', '1663', '1666', '1673', '1679', '1683', '1687', '1696', '1704', '1706', '1707', '1708', '1710', '1713', '1714', '1716', '1718', '1724', '1728', '1729', '1741', '1744', '1746', '1749', '1750', '1752', '1753', '1754', '1755', '1756', '1758', '1759', '1763', '1764', '1765', '1767', '1769', '1770', '1772', '1773', '1776', '1778', '1781', '1782', '1783', '1788', '1800', '1802', '1803', '1804', '1805', '1807', '1810', '1813', '1816', '1817', '1818', '1822', '1823', '1824', '1825', '1837', '1838', '1839', '1843', '1847', '1851', '1852', '1853', '1862', '1866', '1870', '1872', '1876', '1878', '1879', '1885', '1886', '1887', '1888', '1889', '1893', '1897', '1900', '1903', '1904', '1913', '1914', '1915', '1917', '1918', '1923', '1924', '1927', '1928', '1931', '1932', '1941', '1944', '1946', '1947', '1948', '1951', '1953', '1956', '1957', '1961', '1962', '1964', '1967', '1968', '1973', '1975', '1976', '1978', '1980', '1981', '1985', '1989', '1990', '1991', '1993', '1997']",False,2000,True,2,31c7ffb4d2,0.0,1.0,1.0
./expes/v2_2021-03-23_issda-30_2000-prng-1-w2-p2,30_issda-2000,2000,first-2000,400,20,rng,num-start-1800,1800,25726,classic,1457.756210565567,True,,True,1.0,1.0,1.0,1,"['1', '4', '9', '25', '47', '48', '53', '56', '57', '58', '60', '77', '81', '96', '99', '102', '108', '111', '119', '121', '122', '123', '125', '127', '128', '129', '134', '138', '141', '144', '145', '149', '150', '159', '165', '166', '168', '170', '174', '176', '177', '178', '186', '187', '192', '193', '200', '208', '210', '212', '213', '226', '237', '240', '242', '246', '252', '254', '258', '261', '265', '273', '281', '296', '299', '300', '301', '305', '309', '310', '312', '320', '326', '331', '333', '338', '341', '343', '345', '349', '361', '366', '369', '371', '374', '385', '391', '397', '400', '403', '409', '410', '419', '421', '422', '426', '428', '440', '447', '452', '453', '457', '458', '465', '473', '476', '478', '491', '493', '500', '508', '509', '517', '531', '535', '539', '543', '553', '570', '571', '573', '578', '583', '589', '590', '594', '611', '614', '615', '632', '635', '639', '643', '644', '653', '664', '676', '681', '692', '697', '701', '702', '704', '705', '706', '711', '712', '716', '718', '728', '729', '735', '741', '745', '746', '747', '749', '752', '757', '763', '771', '780', '791', '796', '801', '804', '808', '809', '811', '813', '815', '816', '818', '821', '823', '851', '857', '859', '864', '870', '876', '882', '889', '903', '913', '916', '920', '929', '935', '936', '946', '949', '954', '955', '963', '968', '971', '972', '980', '981', '982', '984', '987', '989', '991', '994', '1000', '1002', '1010', '1012', '1014', '1017', '1018', '1030', '1040', '1049', '1056', '1058', '1061', '1062', '1076', '1082', '1089', '1091', '1095', '1098', '1099', '1108', '1110', '1113', '1122', '1123', '1124', '1126', '1127', '1129', '1141', '1143', '1146', '1148', '1156', '1159', '1160', '1161', '1170', '1174', '1177', '1182', '1184', '1188', '1192', '1194', '1200', '1207', '1210', '1218', '1221', '1231', '1234', '1240', '1248', '1249', '1250', '1252', '1253', '1256', '1257', '1258', '1265', '1268', '1279', '1285', '1292', '1300', '1303', '1304', '1309', '1317', '1318', '1326', '1334', '1338', '1342', '1344', '1347', '1349', '1353', '1361', '1369', '1370', '1385', '1394', '1396', '1397', '1399', '1414', '1415', '1418', '1419', '1424', '1426', '1428', '1432', '1437', '1447', '1458', '1459', '1468', '1479', '1481', '1485', '1494', '1498', '1513', '1516', '1517', '1523', '1536', '1537', '1551', '1553', '1554', '1566', '1574', '1581', '1592', '1596', '1598', '1603', '1615', '1617', '1619', '1627', '1633', '1635', '1638', '1641', '1646', '1651', '1652', '1656', '1662', '1672', '1676', '1678', '1682', '1684', '1693', '1694', '1698', '1703', '1710', '1721', '1722', '1732', '1739', '1747', '1759', '1760', '1769', '1770', '1784', '1785', '1791', '1792', '1793', '1810', '1811', '1817', '1821', '1843', '1844', '1854', '1861', '1863', '1864', '1873', '1878', '1892', '1912', '1920', '1927', '1935', '1938', '1940', '1941', '1942', '1944', '1947', '1948', '1950', '1952', '1956', '1957', '1959', '1962', '1971', '1990', '1996', '2000']",False,2000,True,2,93bf4b3503,0.0,1.0,1.0
./expes/v2_2021-03-23_issda-30_2000-prng-1-w2-p2,30_issda-2000,2000,first-2000,100,5,rng,num-start-3000,3000,25726,classic,1207.3795585632324,True,,True,1.0,1.0,1.0,1,"['27', '32', '59', '64', '74', '88', '132', '135', '200', '268', '275', '279', '309', '311', '327', '393', '445', '475', '476', '480', '488', '529', '532', '552', '617', '690', '719', '749', '758', '791', '794', '799', '809', '814', '835', '863', '875', '894', '911', '961', '964', '969', '971', '976', '1014', '1039', '1072', '1094', '1108', '1115', '1126', '1129', '1176', '1182', '1190', '1197', '1199', '1211', '1214', '1219', '1237', '1241', '1282', '1284', '1301', '1309', '1376', '1377', '1397', '1463', '1469', '1473', '1492', '1519', '1553', '1592', '1596', '1598', '1615', '1641', '1687', '1707', '1714', '1716', '1752', '1764', '1773', '1778', '1800', '1852', '1862', '1876', '1885', '1887', '1897', '1903', '1917', '1961', '1975', '1978']",False,2000,True,2,21bff67985,0.0,1.0,1.0
./expes/v2_2021-03-23_issda-30_2000-prng-1-w2-p2,30_issda-2000,2000,first-2000,100,5,rng,num-start-3600,3600,25726,classic,1309.9368214607239,True,,True,1.0,1.0,1.0,1,"['49', '57', '74', '116', '174', '188', '280', '325', '331', '337', '347', '356', '362', '364', '373', '435', '473', '484', '512', '516', '550', '572', '632', '653', '666', '725', '737', '740', '742', '746', '762', '779', '806', '819', '850', '868', '883', '912', '913', '945', '953', '1004', '1021', '1026', '1029', '1043', '1045', '1053', '1056', '1076', '1077', '1087', '1115', '1147', '1148', '1191', '1216', '1241', '1243', '1308', '1342', '1356', '1372', '1382', '1396', '1465', '1481', '1505', '1508', '1513', '1545', '1563', '1618', '1631', '1632', '1646', '1657', '1703', '1712', '1739', '1749', '1760', '1762', '1768', '1784', '1811', '1827', '1831', '1846', '1857', '1860', '1861', '1895', '1909', '1917', '1942', '1945', '1956', '1958', '1970']",False,2000,True,2,2772a3c949,0.0,1.0,1.0
./expes/v2_2021-03-23_issda-30_2000-prng-1-w2-p2,30_issda-2000,2000,first-2000,500,25,rng,num-start-1200,1200,25726,classic,2220.4573323726654,True,,False,1.0,1.0,1.0,1,"['1', '3', '4', '5', '7', '19', '26', '28', '29', '30', '31', '34', '39', '45', '47', '55', '65', '68', '74', '75', '78', '80', '81', '83', '84', '85', '87', '93', '94', '96', '99', '103', '119', '126', '128', '129', '131', '142', '144', '146', '148', '152', '162', '165', '166', '167', '169', '171', '184', '187', '188', '192', '195', '201', '203', '204', '206', '207', '208', '223', '224', '236', '237', '238', '240', '241', '244', '246', '254', '255', '256', '266', '267', '268', '272', '274', '277', '284', '286', '287', '292', '300', '301', '307', '310', '315', '317', '319', '323', '325', '328', '332', '336', '340', '342', '347', '350', '359', '366', '368', '370', '374', '377', '379', '383', '386', '387', '388', '390', '391', '392', '394', '399', '407', '409', '417', '419', '422', '426', '432', '438', '441', '448', '449', '452', '453', '455', '457', '483', '489', '491', '492', '496', '498', '500', '514', '526', '531', '532', '533', '534', '553', '556', '563', '564', '565', '571', '574', '576', '578', '590', '593', '595', '597', '601', '613', '617', '618', '619', '620', '622', '631', '636', '638', '640', '645', '648', '650', '656', '665', '667', '668', '673', '677', '682', '683', '685', '687', '688', '691', '692', '693', '702', '704', '711', '718', '722', '725', '732', '734', '735', '736', '740', '752', '753', '759', '762', '763', '770', '776', '789', '795', '796', '802', '809', '813', '817', '823', '824', '826', '830', '840', '849', '850', '851', '856', '857', '859', '862', '872', '873', '874', '890', '892', '894', '906', '907', '912', '913', '915', '918', '923', '928', '938', '940', '957', '964', '966', '967', '971', '975', '976', '977', '980', '982', '986', '987', '996', '997', '998', '1003', '1009', '1011', '1013', '1020', '1032', '1034', '1041', '1042', '1048', '1067', '1068', '1069', '1072', '1075', '1081', '1083', '1085', '1091', '1095', '1102', '1107', '1108', '1113', '1115', '1121', '1122', '1124', '1129', '1132', '1144', '1147', '1149', '1150', '1157', '1163', '1164', '1166', '1167', '1176', '1179', '1180', '1188', '1195', '1203', '1204', '1208', '1209', '1218', '1222', '1223', '1233', '1234', '1236', '1237', '1241', '1242', '1245', '1246', '1250', '1252', '1254', '1255', '1267', '1271', '1272', '1281', '1284', '1286', '1291', '1297', '1298', '1299', '1301', '1306', '1312', '1314', '1320', '1321', '1325', '1330', '1333', '1339', '1343', '1345', '1347', '1353', '1357', '1364', '1369', '1378', '1380', '1384', '1385', '1390', '1391', '1392', '1394', '1395', '1396', '1400', '1401', '1408', '1411', '1415', '1429', '1431', '1433', '1435', '1437', '1438', '1442', '1445', '1448', '1453', '1455', '1459', '1466', '1470', '1471', '1472', '1474', '1486', '1490', '1493', '1495', '1496', '1497', '1499', '1505', '1514', '1519', '1533', '1535', '1546', '1548', '1552', '1553', '1561', '1572', '1582', '1597', '1604', '1606', '1608', '1616', '1618', '1623', '1625', '1628', '1635', '1638', '1639', '1640', '1645', '1646', '1649', '1651', '1657', '1660', '1663', '1664', '1669', '1671', '1674', '1683', '1685', '1690', '1691', '1696', '1698', '1699', '1700', '1701', '1708', '1712', '1716', '1717', '1721', '1723', '1726', '1730', '1731', '1732', '1734', '1740', '1742', '1744', '1749', '1752', '1756', '1765', '1773', '1777', '1783', '1785', '1786', '1790', '1792', '1793', '1796', '1811', '1813', '1824', '1827', '1832', '1834', '1840', '1841', '1844', '1848', '1849', '1853', '1860', '1861', '1864', '1870', '1872', '1876', '1878', '1879', '1880', '1881', '1882', '1884', '1888', '1889', '1890', '1891', '1892', '1911', '1913', '1918', '1919', '1922', '1939', '1940', '1945', '1946', '1953', '1969', '1973', '1974', '1978', '1980', '1982', '1983', '1988', '1996', '2000']",True,2000,True,2,45d6879b77,0.0,0.0,1.0
./expes/v2_2021-03-23_issda-30_2000-prng-1-w2-p2,30_issda-2000,2000,first-2000,800,40,rng,num-start-1600,1600,25726,classic,1726.3015642166138,True,,True,1.0,1.0,1.0,1,"['2', '4', '6', '7', '10', '12', '15', '17', '18', '20', '22', '27', '32', '37', '38', '39', '41', '42', '48', '53', '55', '58', '62', '65', '66', '70', '71', '73', '76', '77', '79', '80', '83', '84', '85', '88', '89', '92', '95', '97', '106', '109', '110', '114', '121', '122', '124', '126', '127', '128', '131', '136', '137', '138', '139', '142', '147', '153', '154', '156', '158', '159', '160', '162', '164', '167', '168', '170', '171', '175', '176', '178', '182', '183', '185', '188', '189', '191', '192', '195', '199', '202', '207', '212', '213', '218', '220', '227', '232', '233', '234', '235', '238', '240', '243', '248', '250', '251', '262', '267', '272', '273', '280', '283', '285', '289', '291', '295', '297', '298', '305', '306', '307', '313', '314', '316', '318', '320', '321', '322', '323', '325', '326', '331', '332', '334', '335', '338', '339', '340', '341', '343', '345', '346', '348', '349', '353', '354', '355', '358', '359', '362', '363', '364', '365', '368', '370', '374', '377', '380', '385', '392', '393', '397', '400', '401', '402', '405', '407', '411', '412', '414', '416', '418', '421', '425', '426', '427', '431', '432', '433', '434', '435', '437', '440', '441', '442', '443', '448', '449', '453', '455', '456', '464', '469', '470', '472', '474', '475', '476', '478', '479', '484', '487', '489', '496', '497', '501', '503', '507', '510', '511', '512', '513', '515', '516', '519', '520', '521', '524', '525', '527', '528', '529', '530', '532', '534', '536', '537', '538', '540', '550', '552', '555', '557', '562', '566', '567', '569', '571', '573', '574', '575', '580', '582', '585', '586', '589', '591', '592', '593', '594', '595', '596', '598', '599', '600', '601', '607', '609', '611', '612', '613', '615', '616', '620', '621', '622', '623', '625', '626', '630', '632', '635', '638', '639', '640', '641', '642', '645', '646', '648', '649', '657', '658', '659', '660', '661', '662', '663', '666', '669', '670', '673', '676', '678', '679', '689', '690', '692', '694', '695', '697', '698', '703', '707', '711', '712', '718', '724', '729', '731', '732', '736', '737', '738', '742', '743', '745', '747', '748', '750', '753', '762', '763', '770', '778', '781', '782', '793', '794', '795', '796', '800', '802', '803', '804', '809', '811', '812', '815', '820', '821', '823', '825', '826', '827', '828', '832', '834', '839', '841', '843', '844', '845', '846', '847', '848', '850', '852', '855', '861', '863', '866', '867', '868', '869', '877', '881', '883', '888', '889', '893', '896', '898', '899', '900', '901', '903', '904', '906', '909', '910', '925', '926', '927', '930', '932', '934', '939', '940', '941', '948', '952', '957', '966', '968', '970', '973', '976', '977', '978', '979', '980', '981', '982', '991', '992', '997', '1002', '1004', '1005', '1008', '1012', '1013', '1015', '1017', '1021', '1022', '1023', '1030', '1037', '1038', '1040', '1042', '1043', '1044', '1046', '1047', '1048', '1050', '1055', '1063', '1064', '1066', '1067', '1072', '1074', '1077', '1078', '1079', '1080', '1082', '1084', '1085', '1087', '1091', '1095', '1100', '1101', '1103', '1107', '1110', '1113', '1115', '1117', '1118', '1119', '1121', '1122', '1126', '1128', '1132', '1134', '1144', '1147', '1149', '1150', '1152', '1158', '1164', '1166', '1167', '1168', '1171', '1173', '1174', '1176', '1180', '1186', '1192', '1193', '1194', '1197', '1203', '1205', '1206', '1211', '1218', '1220', '1223', '1225', '1227', '1230', '1231', '1233', '1237', '1239', '1241', '1243', '1246', '1248', '1249', '1250', '1256', '1260', '1261', '1265', '1266', '1269', '1270', '1271', '1272', '1275', '1277', '1281', '1283', '1284', '1285', '1286', '1288', '1292', '1294', '1295', '1296', '1300', '1301', '1305', '1311', '1313', '1314', '1316', '1318', '1322', '1323', '1325', '1326', '1328', '1335', '1336', '1338', '1340', '1341', '1342', '1346', '1349', '1353', '1354', '1356', '1367', '1369', '1370', '1376', '1380', '1383', '1384', '1385', '1386', '1387', '1393', '1395', '1398', '1400', '1405', '1409', '1415', '1420', '1421', '1425', '1427', '1429', '1431', '1436', '1438', '1441', '1443', '1444', '1447', '1448', '1451', '1453', '1456', '1457', '1461', '1462', '1466', '1470', '1472', '1474', '1478', '1483', '1498', '1499', '1502', '1506', '1510', '1512', '1513', '1526', '1527', '1528', '1529', '1530', '1533', '1537', '1539', '1545', '1546', '1548', '1553', '1554', '1557', '1566', '1568', '1571', '1573', '1577', '1580', '1582', '1585', '1586', '1588', '1591', '1594', '1597', '1601', '1603', '1604', '1606', '1607', '1611', '1612', '1613', '1616', '1617', '1619', '1620', '1626', '1631', '1634', '1635', '1636', '1638', '1640', '1641', '1642', '1644', '1645', '1648', '1653', '1654', '1657', '1659', '1665', '1669', '1671', '1675', '1676', '1677', '1681', '1687', '1690', '1691', '1692', '1694', '1695', '1698', '1700', '1702', '1703', '1704', '1708', '1709', '1710', '1714', '1716', '1719', '1720', '1722', '1725', '1729', '1730', '1731', '1736', '1737', '1738', '1747', '1751', '1753', '1754', '1757', '1758', '1759', '1761', '1765', '1766', '1767', '1770', '1771', '1773', '1777', '1781', '1782', '1784', '1790', '1791', '1792', '1795', '1796', '1798', '1800', '1801', '1803', '1804', '1805', '1807', '1809', '1814', '1816', '1817', '1821', '1822', '1823', '1824', '1825', '1827', '1828', '1830', '1832', '1835', '1837', '1838', '1842', '1843', '1845', '1846', '1848', '1850', '1852', '1853', '1854', '1859', '1861', '1862', '1865', '1866', '1867', '1868', '1870', '1871', '1873', '1875', '1876', '1878', '1880', '1885', '1887', '1889', '1890', '1893', '1894', '1896', '1900', '1901', '1902', '1905', '1906', '1909', '1911', '1914', '1915', '1916', '1918', '1919', '1920', '1921', '1925', '1927', '1930', '1932', '1934', '1935', '1942', '1945', '1946', '1948', '1951', '1953', '1955', '1956', '1957', '1959', '1965', '1966', '1967', '1968', '1970', '1972', '1976', '1977', '1979', '1984', '1986', '1988', '1989', '1991', '1994', '1995', '1997', '1998']",False,2000,True,2,b7851b3e68,0.0,1.0,1.0
