expe,clients,clients_size,clients_subset,agg_size,agg_size_pc,method,days,days_size,days_total,noise_method,time,valid,valid_sum,success,score_avg,score_min,score_max,nsols,oracle,wall_hit,wall_time,pooled,pool_size,uuid,infeasible,optimal,valid_sums
./expes/v2_2021-03-23_issda-30_2000-prng-1-w2-p2,30_issda-2000,2000,first-2000,400,20,rng,num-start-1000,1000,25726,classic,1466.3243000507355,True,,True,1.0,1.0,1.0,1,"['11', '16', '17', '20', '22', '25', '32', '37', '40', '43', '54', '56', '57', '59', '62', '69', '101', '102', '103', '104', '106', '107', '110', '111', '120', '123', '128', '132', '135', '142', '151', '154', '159', '166', '168', '171', '175', '191', '192', '193', '202', '203', '217', '226', '227', '232', '240', '241', '252', '253', '256', '261', '263', '266', '281', '282', '284', '287', '291', '293', '309', '310', '311', '316', '331', '335', '337', '347', '350', '353', '358', '367', '376', '377', '386', '387', '394', '395', '401', '403', '407', '411', '418', '431', '433', '435', '438', '448', '455', '456', '461', '470', '474', '490', '496', '499', '510', '512', '513', '514', '515', '517', '523', '529', '538', '540', '544', '548', '552', '559', '565', '570', '577', '581', '584', '594', '602', '603', '605', '618', '622', '625', '630', '634', '635', '636', '639', '642', '647', '648', '650', '651', '652', '654', '659', '667', '674', '678', '681', '685', '687', '689', '691', '695', '712', '713', '727', '729', '731', '737', '746', '749', '754', '763', '768', '787', '796', '802', '805', '820', '823', '826', '827', '831', '834', '836', '837', '840', '849', '854', '859', '860', '862', '866', '877', '887', '889', '893', '897', '907', '912', '913', '920', '921', '928', '933', '941', '950', '957', '958', '967', '971', '973', '978', '984', '989', '990', '994', '997', '1011', '1013', '1028', '1033', '1034', '1037', '1039', '1057', '1061', '1063', '1064', '1070', '1072', '1076', '1077', '1080', '1082', '1091', '1092', '1096', '1099', '1100', '1103', '1104', '1105', '1106', '1107', '1111', '1113', '1114', '1126', '1129', '1134', '1135', '1138', '1139', '1141', '1145', '1146', '1156', '1164', '1171', '1172', '1178', '1180', '1184', '1185', '1188', '1191', '1201', '1202', '1209', '1212', '1226', '1229', '1237', '1238', '1254', '1256', '1272', '1283', '1284', '1297', '1304', '1309', '1312', '1330', '1347', '1349', '1355', '1359', '1367', '1386', '1395', '1398', '1402', '1403', '1405', '1416', '1433', '1442', '1443', '1445', '1446', '1455', '1465', '1466', '1484', '1485', '1493', '1497', '1499', '1513', '1514', '1525', '1526', '1529', '1531', '1533', '1535', '1537', '1540', '1541', '1543', '1546', '1552', '1556', '1557', '1567', '1569', '1579', '1586', '1594', '1598', '1600', '1603', '1607', '1611', '1613', '1622', '1627', '1642', '1643', '1644', '1645', '1649', '1653', '1661', '1664', '1665', '1666', '1670', '1673', '1679', '1680', '1682', '1684', '1689', '1693', '1698', '1702', '1705', '1715', '1719', '1725', '1734', '1742', '1753', '1759', '1761', '1772', '1777', '1778', '1789', '1793', '1805', '1808', '1819', '1823', '1830', '1837', '1838', '1841', '1844', '1847', '1856', '1859', '1861', '1862', '1864', '1870', '1878', '1880', '1885', '1892', '1893', '1897', '1905', '1911', '1917', '1925', '1926', '1930', '1936', '1949', '1957', '1958', '1960', '1961', '1962', '1966', '1968', '1970', '1976', '1982', '1987', '1992', '1994', '1996', '1997', '1998']",False,2000,True,2,538ede1e07,0.0,1.0,1.0
./expes/v2_2021-03-23_issda-30_2000-prng-1-w2-p2,30_issda-2000,2000,first-2000,500,25,rng,num-start-1000,1000,25726,classic,2127.329436302185,True,,False,1.0,1.0,1.0,1,"['12', '13', '14', '18', '23', '27', '30', '36', '38', '43', '47', '60', '73', '76', '94', '113', '115', '120', '125', '130', '133', '136', '137', '141', '147', '156', '157', '162', '171', '172', '179', '181', '182', '184', '185', '190', '192', '208', '218', '220', '236', '239', '242', '252', '258', '259', '265', '267', '270', '273', '280', '281', '287', '294', '297', '298', '300', '303', '308', '309', '310', '312', '314', '329', '331', '333', '334', '335', '342', '344', '347', '350', '353', '358', '361', '362', '366', '372', '374', '375', '386', '387', '389', '390', '402', '406', '409', '411', '413', '414', '415', '418', '424', '428', '430', '433', '436', '438', '440', '442', '443', '449', '452', '461', '472', '473', '479', '481', '484', '487', '491', '495', '497', '505', '511', '512', '520', '525', '528', '530', '531', '532', '533', '538', '540', '542', '543', '547', '550', '553', '555', '558', '560', '561', '562', '564', '565', '575', '577', '582', '583', '588', '592', '599', '606', '609', '612', '613', '615', '618', '621', '623', '632', '644', '646', '659', '660', '661', '664', '665', '671', '673', '675', '681', '685', '686', '688', '694', '696', '698', '702', '707', '709', '712', '716', '718', '722', '730', '733', '738', '739', '745', '748', '749', '754', '755', '764', '766', '767', '775', '780', '790', '802', '806', '813', '814', '820', '824', '826', '828', '829', '831', '832', '834', '836', '839', '844', '850', '851', '853', '855', '856', '865', '868', '870', '874', '883', '888', '889', '890', '895', '897', '911', '915', '920', '930', '931', '933', '939', '940', '942', '953', '955', '958', '962', '967', '973', '978', '979', '980', '983', '984', '997', '1003', '1006', '1007', '1010', '1012', '1016', '1023', '1026', '1038', '1039', '1040', '1043', '1049', '1051', '1052', '1054', '1064', '1066', '1069', '1070', '1073', '1078', '1079', '1085', '1086', '1091', '1095', '1102', '1104', '1107', '1109', '1114', '1116', '1117', '1124', '1130', '1131', '1133', '1140', '1143', '1144', '1145', '1149', '1158', '1164', '1166', '1171', '1173', '1174', '1176', '1179', '1183', '1186', '1194', '1198', '1203', '1206', '1207', '1216', '1229', '1235', '1242', '1244', '1251', '1252', '1254', '1255', '1258', '1260', '1261', '1267', '1281', '1287', '1289', '1290', '1293', '1304', '1308', '1309', '1322', '1325', '1326', '1327', '1328', '1336', '1344', '1346', '1347', '1354', '1355', '1372', '1378', '1381', '1383', '1385', '1386', '1388', '1393', '1396', '1401', '1402', '1406', '1408', '1412', '1414', '1417', '1419', '1422', '1431', '1432', '1438', '1444', '1446', '1449', '1451', '1452', '1453', '1454', '1461', '1462', '1467', '1469', '1474', '1480', '1489', '1490', '1496', '1505', '1506', '1507', '1508', '1513', '1519', '1522', '1526', '1529', '1533', '1538', '1549', '1550', '1552', '1553', '1554', '1556', '1557', '1562', '1574', '1575', '1578', '1579', '1581', '1584', '1587', '1589', '1593', '1594', '1595', '1598', '1605', '1607', '1613', '1620', '1622', '1623', '1625', '1626', '1627', '1632', '1639', '1644', '1652', '1654', '1657', '1660', '1662', '1663', '1666', '1668', '1674', '1676', '1688', '1691', '1692', '1695', '1697', '1700', '1705', '1706', '1708', '1711', '1712', '1713', '1719', '1720', '1726', '1728', '1729', '1733', '1736', '1746', '1749', '1758', '1760', '1762', '1766', '1769', '1774', '1777', '1780', '1783', '1789', '1791', '1792', '1795', '1811', '1814', '1817', '1818', '1825', '1826', '1827', '1834', '1841', '1842', '1854', '1858', '1865', '1869', '1871', '1880', '1891', '1895', '1896', '1899', '1900', '1904', '1905', '1910', '1916', '1919', '1931', '1934', '1935', '1936', '1938', '1946', '1950', '1951', '1961', '1962', '1980', '1981', '1985', '1987', '1993', '1994', '1999']",True,2000,True,2,7de7db77b2,0.0,0.0,1.0
./expes/v2_2021-03-23_issda-30_2000-prng-1-w2-p2,30_issda-2000,2000,first-2000,800,40,rng,num-start-2400,2400,25726,classic,1967.954515695572,True,,True,1.0,1.0,1.0,1,"['12', '13', '14', '18', '19', '23', '27', '30', '34', '36', '38', '42', '43', '45', '47', '48', '55', '59', '60', '64', '73', '74', '76', '84', '86', '87', '92', '93', '94', '95', '97', '98', '102', '106', '113', '115', '117', '120', '125', '129', '130', '133', '136', '137', '141', '142', '144', '147', '156', '157', '159', '161', '162', '164', '168', '171', '172', '178', '179', '180', '181', '182', '184', '185', '190', '192', '193', '208', '218', '220', '221', '223', '227', '229', '235', '236', '239', '242', '244', '250', '252', '256', '258', '259', '262', '263', '265', '267', '270', '272', '273', '277', '280', '281', '285', '286', '287', '294', '297', '298', '300', '301', '303', '306', '308', '309', '310', '312', '314', '320', '321', '329', '331', '333', '334', '335', '337', '342', '343', '344', '347', '350', '353', '357', '358', '360', '361', '362', '365', '366', '372', '374', '375', '377', '378', '385', '386', '387', '389', '390', '392', '396', '402', '406', '409', '411', '413', '414', '415', '418', '419', '422', '423', '424', '428', '429', '430', '432', '433', '436', '438', '440', '442', '443', '446', '449', '450', '452', '456', '459', '461', '462', '472', '473', '478', '479', '481', '483', '484', '487', '489', '491', '492', '495', '497', '504', '505', '507', '510', '511', '512', '516', '520', '524', '525', '528', '529', '530', '531', '532', '533', '535', '538', '540', '542', '543', '547', '550', '553', '554', '555', '556', '558', '560', '561', '562', '564', '565', '567', '571', '575', '577', '579', '582', '583', '588', '592', '593', '598', '599', '603', '606', '609', '612', '613', '615', '616', '618', '619', '621', '623', '627', '629', '632', '633', '635', '641', '644', '646', '647', '651', '655', '659', '660', '661', '664', '665', '671', '672', '673', '675', '679', '680', '681', '683', '685', '686', '688', '690', '693', '694', '696', '697', '698', '702', '706', '707', '708', '709', '712', '716', '717', '718', '722', '726', '730', '731', '733', '736', '738', '739', '740', '741', '744', '745', '748', '749', '750', '753', '754', '755', '764', '766', '767', '770', '775', '776', '778', '780', '786', '790', '793', '798', '799', '800', '802', '804', '806', '808', '813', '814', '820', '824', '826', '828', '829', '831', '832', '833', '834', '836', '837', '838', '839', '844', '848', '849', '850', '851', '853', '855', '856', '860', '864', '865', '866', '867', '868', '870', '874', '875', '876', '877', '878', '882', '883', '888', '889', '890', '893', '895', '897', '911', '913', '915', '920', '930', '931', '932', '933', '936', '939', '940', '942', '949', '950', '953', '954', '955', '958', '959', '962', '963', '964', '967', '969', '970', '973', '978', '979', '980', '983', '984', '985', '994', '997', '999', '1003', '1005', '1006', '1007', '1008', '1010', '1012', '1014', '1016', '1018', '1023', '1026', '1029', '1035', '1038', '1039', '1040', '1043', '1046', '1047', '1049', '1051', '1052', '1054', '1058', '1062', '1064', '1066', '1067', '1069', '1070', '1073', '1075', '1078', '1079', '1083', '1085', '1086', '1087', '1091', '1095', '1102', '1104', '1107', '1109', '1111', '1114', '1116', '1117', '1119', '1124', '1125', '1127', '1129', '1130', '1131', '1133', '1137', '1140', '1143', '1144', '1145', '1149', '1152', '1158', '1159', '1164', '1166', '1167', '1170', '1171', '1173', '1174', '1176', '1179', '1183', '1186', '1192', '1194', '1195', '1198', '1203', '1206', '1207', '1208', '1210', '1216', '1218', '1224', '1225', '1229', '1230', '1235', '1238', '1242', '1244', '1250', '1251', '1252', '1254', '1255', '1258', '1260', '1261', '1264', '1266', '1267', '1275', '1277', '1281', '1283', '1287', '1289', '1290', '1291', '1292', '1293', '1300', '1304', '1306', '1308', '1309', '1322', '1325', '1326', '1327', '1328', '1330', '1336', '1339', '1344', '1345', '1346', '1347', '1353', '1354', '1355', '1359', '1367', '1370', '1372', '1375', '1376', '1378', '1381', '1383', '1384', '1385', '1386', '1388', '1389', '1390', '1391', '1393', '1395', '1396', '1400', '1401', '1402', '1406', '1407', '1408', '1412', '1414', '1415', '1417', '1419', '1421', '1422', '1427', '1431', '1432', '1433', '1436', '1438', '1440', '1444', '1446', '1447', '1449', '1451', '1452', '1453', '1454', '1458', '1461', '1462', '1464', '1467', '1469', '1471', '1472', '1474', '1478', '1480', '1482', '1489', '1490', '1496', '1505', '1506', '1507', '1508', '1513', '1519', '1522', '1525', '1526', '1527', '1529', '1533', '1538', '1544', '1545', '1548', '1549', '1550', '1551', '1552', '1553', '1554', '1556', '1557', '1562', '1572', '1573', '1574', '1575', '1578', '1579', '1581', '1584', '1587', '1589', '1592', '1593', '1594', '1595', '1598', '1599', '1600', '1605', '1606', '1607', '1609', '1613', '1615', '1618', '1620', '1621', '1622', '1623', '1625', '1626', '1627', '1628', '1629', '1632', '1639', '1642', '1644', '1646', '1652', '1654', '1657', '1660', '1662', '1663', '1664', '1666', '1668', '1669', '1674', '1676', '1681', '1683', '1688', '1691', '1692', '1693', '1695', '1697', '1700', '1703', '1705', '1706', '1708', '1711', '1712', '1713', '1715', '1719', '1720', '1722', '1724', '1726', '1728', '1729', '1733', '1736', '1738', '1743', '1746', '1749', '1750', '1754', '1756', '1758', '1760', '1762', '1766', '1769', '1774', '1777', '1780', '1783', '1789', '1790', '1791', '1792', '1795', '1801', '1804', '1805', '1806', '1807', '1811', '1814', '1817', '1818', '1823', '1825', '1826', '1827', '1829', '1834', '1837', '1841', '1842', '1843', '1844', '1847', '1854', '1857', '1858', '1859', '1865', '1867', '1869', '1871', '1875', '1876', '1879', '1880', '1888', '1889', '1891', '1895', '1896', '1899', '1900', '1904', '1905', '1909', '1910', '1912', '1916', '1919', '1921', '1923', '1925', '1931', '1934', '1935', '1936', '1938', '1939', '1941', '1946', '1947', '1950', '1951', '1955', '1956', '1959', '1960', '1961', '1962', '1964', '1966', '1968', '1979', '1980', '1981', '1982', '1983', '1985', '1986', '1987', '1993', '1994', '1998', '1999']",False,2000,True,2,1094ba1d1b,0.0,1.0,1.0
./expes/v2_2021-03-23_issda-30_2000-prng-1-w2-p2,30_issda-2000,2000,first-2000,700,35,rng,num-start-3200,3200,25726,classic,2374.0686025619507,True,,False,1.0,1.0,1.0,1,"['4', '7', '9', '10', '11', '18', '22', '24', '33', '36', '37', '40', '41', '44', '49', '50', '51', '52', '57', '61', '64', '65', '66', '69', '70', '73', '74', '75', '77', '84', '89', '94', '101', '105', '110', '111', '116', '117', '121', '123', '124', '126', '135', '137', '139', '146', '149', '150', '151', '152', '155', '157', '158', '159', '164', '165', '167', '170', '173', '174', '177', '180', '183', '188', '191', '192', '193', '194', '197', '204', '205', '206', '208', '209', '216', '218', '228', '230', '232', '236', '238', '243', '250', '252', '262', '264', '270', '274', '275', '277', '278', '280', '283', '287', '288', '290', '295', '297', '301', '307', '310', '311', '315', '320', '321', '322', '323', '325', '326', '329', '331', '333', '337', '341', '347', '348', '350', '353', '354', '356', '361', '362', '364', '370', '372', '373', '377', '380', '385', '389', '392', '393', '394', '407', '409', '419', '420', '426', '427', '431', '432', '435', '436', '438', '442', '443', '444', '446', '449', '455', '461', '462', '465', '468', '473', '475', '476', '477', '478', '481', '484', '488', '494', '502', '506', '508', '510', '511', '512', '514', '516', '519', '520', '521', '523', '524', '526', '527', '529', '531', '532', '537', '541', '545', '547', '550', '551', '560', '562', '569', '571', '572', '575', '579', '583', '586', '588', '594', '596', '598', '604', '607', '608', '620', '622', '623', '627', '631', '632', '634', '635', '639', '640', '641', '642', '648', '653', '657', '665', '666', '669', '672', '674', '675', '678', '684', '686', '691', '699', '700', '701', '705', '707', '712', '718', '719', '725', '730', '733', '735', '737', '738', '740', '742', '743', '746', '747', '750', '751', '762', '763', '764', '765', '766', '768', '775', '777', '779', '782', '784', '785', '788', '790', '791', '799', '800', '801', '802', '803', '805', '806', '809', '810', '819', '820', '823', '825', '826', '828', '829', '830', '833', '838', '842', '845', '850', '854', '857', '859', '860', '867', '868', '872', '876', '883', '889', '890', '899', '904', '906', '907', '911', '912', '913', '918', '919', '925', '929', '930', '932', '936', '937', '938', '941', '943', '945', '949', '952', '953', '955', '956', '957', '958', '961', '964', '968', '969', '979', '983', '988', '989', '991', '992', '994', '995', '996', '997', '998', '1001', '1002', '1004', '1005', '1008', '1020', '1021', '1023', '1026', '1029', '1030', '1033', '1034', '1040', '1041', '1042', '1043', '1045', '1048', '1049', '1052', '1053', '1054', '1055', '1056', '1058', '1061', '1062', '1064', '1067', '1070', '1071', '1072', '1073', '1074', '1076', '1077', '1078', '1087', '1090', '1092', '1097', '1102', '1103', '1108', '1115', '1117', '1122', '1124', '1128', '1130', '1142', '1143', '1147', '1148', '1150', '1152', '1156', '1160', '1163', '1166', '1171', '1175', '1177', '1180', '1189', '1190', '1191', '1198', '1200', '1201', '1205', '1206', '1208', '1211', '1212', '1216', '1219', '1222', '1240', '1241', '1242', '1243', '1251', '1254', '1255', '1257', '1261', '1262', '1263', '1267', '1273', '1274', '1275', '1277', '1278', '1279', '1281', '1286', '1288', '1295', '1297', '1298', '1301', '1305', '1306', '1308', '1310', '1313', '1315', '1317', '1324', '1327', '1328', '1330', '1332', '1335', '1338', '1339', '1342', '1349', '1350', '1354', '1356', '1359', '1366', '1371', '1372', '1374', '1378', '1382', '1383', '1384', '1386', '1390', '1391', '1394', '1395', '1396', '1398', '1402', '1403', '1404', '1408', '1413', '1414', '1417', '1419', '1425', '1432', '1433', '1441', '1443', '1445', '1446', '1447', '1451', '1454', '1456', '1457', '1458', '1460', '1461', '1462', '1463', '1465', '1466', '1467', '1468', '1469', '1472', '1473', '1474', '1475', '1481', '1482', '1483', '1487', '1491', '1493', '1494', '1497', '1498', '1500', '1505', '1508', '1509', '1513', '1516', '1521', '1525', '1526', '1528', '1532', '1535', '1537', '1538', '1539', '1541', '1544', '1545', '1546', '1547', '1548', '1556', '1557', '1558', '1560', '1563', '1566', '1569', '1571', '1584', '1588', '1592', '1600', '1604', '1607', '1613', '1615', '1618', '1622', '1627', '1629', '1630', '1631', '1632', '1635', '1636', '1637', '1639', '1642', '1644', '1646', '1647', '1648', '1651', '1652', '1656', '1657', '1659', '1664', '1666', '1669', '1670', '1671', '1672', '1675', '1677', '1679', '1681', '1687', '1689', '1690', '1691', '1703', '1707', '1711', '1712', '1713', '1715', '1718', '1722', '1734', '1738', '1739', '1741', '1743', '1746', '1749', '1755', '1760', '1762', '1767', '1768', '1770', '1774', '1781', '1783', '1784', '1791', '1792', '1794', '1796', '1798', '1800', '1804', '1805', '1806', '1807', '1809', '1811', '1812', '1813', '1818', '1819', '1822', '1827', '1831', '1833', '1834', '1840', '1843', '1846', '1848', '1850', '1855', '1857', '1859', '1860', '1861', '1867', '1868', '1874', '1876', '1877', '1882', '1885', '1886', '1888', '1889', '1895', '1897', '1903', '1904', '1909', '1910', '1914', '1916', '1917', '1919', '1922', '1923', '1927', '1932', '1933', '1941', '1942', '1943', '1944', '1945', '1946', '1955', '1956', '1958', '1961', '1962', '1964', '1965', '1966', '1968', '1970', '1971', '1973', '1980', '1981', '1985', '1986', '1988', '1989', '1992', '1995']",True,2000,True,2,0afce3e752,0.0,0.0,1.0
./expes/v2_2021-03-23_issda-30_2000-prng-1-w2-p2,30_issda-2000,2000,first-2000,600,30,rng,num-start-1400,1400,25726,classic,2178.8722236156464,True,,False,1.0,1.0,1.0,1,"['4', '8', '13', '14', '16', '18', '23', '26', '27', '35', '36', '39', '43', '45', '49', '51', '53', '56', '58', '59', '61', '63', '64', '67', '76', '78', '81', '82', '88', '90', '95', '101', '106', '107', '108', '109', '116', '117', '121', '125', '128', '132', '147', '148', '150', '153', '160', '169', '170', '172', '173', '179', '186', '187', '191', '199', '201', '202', '210', '211', '212', '218', '222', '225', '231', '232', '234', '238', '242', '245', '251', '253', '256', '258', '260', '265', '270', '276', '277', '279', '280', '282', '284', '291', '292', '293', '298', '301', '304', '318', '319', '330', '333', '335', '344', '348', '349', '351', '354', '361', '365', '368', '369', '373', '375', '377', '387', '388', '390', '393', '399', '401', '404', '405', '408', '409', '410', '411', '413', '419', '421', '424', '428', '429', '431', '433', '435', '439', '451', '452', '455', '458', '460', '463', '466', '467', '469', '471', '473', '475', '482', '489', '492', '495', '496', '504', '507', '512', '516', '517', '522', '523', '529', '532', '536', '538', '540', '545', '546', '549', '550', '551', '555', '561', '562', '567', '569', '570', '571', '572', '573', '578', '580', '584', '585', '597', '601', '607', '608', '611', '626', '630', '632', '635', '637', '638', '639', '640', '641', '648', '651', '658', '660', '661', '663', '671', '676', '681', '687', '690', '691', '696', '697', '699', '700', '702', '704', '705', '712', '714', '717', '718', '724', '725', '729', '730', '735', '738', '740', '741', '742', '743', '744', '745', '746', '747', '748', '749', '751', '753', '755', '761', '768', '776', '778', '781', '782', '788', '789', '790', '796', '797', '801', '805', '808', '810', '819', '821', '829', '831', '832', '834', '835', '837', '845', '850', '851', '856', '858', '861', '867', '868', '869', '875', '879', '881', '884', '886', '888', '892', '893', '901', '902', '909', '912', '919', '920', '934', '936', '941', '942', '943', '944', '952', '958', '962', '967', '972', '974', '976', '977', '978', '986', '989', '994', '995', '997', '1000', '1004', '1007', '1008', '1009', '1013', '1021', '1024', '1025', '1026', '1027', '1029', '1032', '1035', '1039', '1043', '1048', '1052', '1053', '1056', '1058', '1059', '1063', '1067', '1068', '1071', '1080', '1081', '1084', '1095', '1096', '1098', '1099', '1102', '1105', '1108', '1109', '1110', '1113', '1115', '1119', '1120', '1123', '1124', '1125', '1127', '1135', '1137', '1138', '1141', '1143', '1144', '1147', '1154', '1156', '1157', '1168', '1169', '1174', '1181', '1189', '1190', '1202', '1203', '1206', '1215', '1217', '1221', '1227', '1230', '1232', '1234', '1243', '1244', '1245', '1247', '1248', '1252', '1255', '1262', '1264', '1266', '1268', '1269', '1273', '1275', '1276', '1279', '1280', '1285', '1286', '1289', '1295', '1296', '1299', '1302', '1305', '1307', '1310', '1312', '1313', '1318', '1331', '1332', '1335', '1338', '1344', '1347', '1349', '1351', '1354', '1355', '1356', '1359', '1360', '1365', '1367', '1369', '1370', '1371', '1380', '1384', '1390', '1391', '1395', '1396', '1398', '1400', '1402', '1403', '1404', '1405', '1407', '1410', '1411', '1412', '1414', '1415', '1422', '1425', '1426', '1428', '1430', '1432', '1435', '1444', '1446', '1455', '1465', '1466', '1467', '1473', '1477', '1487', '1488', '1498', '1500', '1504', '1505', '1507', '1510', '1514', '1520', '1526', '1530', '1533', '1534', '1543', '1544', '1550', '1551', '1556', '1558', '1560', '1561', '1567', '1568', '1570', '1575', '1579', '1581', '1582', '1585', '1588', '1606', '1607', '1609', '1613', '1616', '1617', '1622', '1623', '1625', '1629', '1631', '1632', '1634', '1635', '1639', '1640', '1641', '1642', '1646', '1651', '1654', '1657', '1660', '1662', '1665', '1669', '1671', '1677', '1678', '1679', '1682', '1685', '1692', '1701', '1704', '1707', '1711', '1712', '1714', '1718', '1719', '1722', '1726', '1727', '1728', '1731', '1732', '1739', '1747', '1751', '1753', '1760', '1761', '1766', '1767', '1771', '1773', '1774', '1779', '1788', '1789', '1802', '1806', '1807', '1812', '1814', '1816', '1818', '1822', '1829', '1832', '1835', '1838', '1839', '1846', '1849', '1851', '1856', '1865', '1866', '1868', '1874', '1875', '1878', '1882', '1885', '1892', '1893', '1895', '1897', '1899', '1900', '1911', '1912', '1913', '1915', '1918', '1925', '1928', '1933', '1934', '1939', '1941', '1945', '1951', '1952', '1958', '1959', '1964', '1968', '1971', '1972', '1975', '1978', '1982', '1989', '1990', '1992', '2000']",True,2000,True,2,acb3ca6e38,0.0,0.0,1.0
./expes/v2_2021-03-23_issda-30_2000-prng-1-w2-p2,30_issda-2000,2000,first-2000,300,15,rng,num-start-2800,2800,25726,classic,1902.825543165207,True,,True,1.0,1.0,1.0,1,"['2', '8', '11', '14', '17', '25', '27', '31', '36', '38', '49', '53', '61', '71', '84', '85', '89', '100', '104', '106', '111', '113', '125', '130', '135', '136', '137', '141', '166', '171', '172', '173', '174', '178', '180', '182', '192', '197', '204', '209', '212', '226', '228', '229', '230', '242', '247', '249', '263', '272', '273', '282', '284', '285', '289', '292', '298', '304', '306', '322', '332', '333', '337', '345', '347', '351', '354', '355', '361', '382', '394', '405', '406', '408', '409', '416', '420', '428', '430', '431', '438', '455', '456', '460', '473', '485', '488', '509', '531', '538', '539', '547', '548', '550', '553', '562', '567', '569', '576', '584', '595', '597', '603', '607', '630', '666', '674', '677', '685', '693', '700', '709', '712', '715', '727', '749', '750', '757', '764', '765', '776', '777', '782', '785', '786', '796', '797', '813', '816', '822', '824', '825', '843', '861', '864', '866', '870', '871', '878', '888', '910', '923', '925', '926', '936', '949', '950', '971', '985', '988', '1008', '1013', '1018', '1019', '1026', '1030', '1035', '1037', '1045', '1060', '1070', '1084', '1097', '1101', '1106', '1118', '1124', '1136', '1137', '1139', '1146', '1148', '1151', '1158', '1160', '1174', '1177', '1179', '1186', '1188', '1197', '1205', '1209', '1210', '1212', '1215', '1223', '1224', '1239', '1242', '1243', '1245', '1247', '1248', '1252', '1253', '1256', '1263', '1290', '1309', '1327', '1334', '1359', '1368', '1381', '1386', '1400', '1409', '1410', '1419', '1426', '1434', '1436', '1441', '1442', '1445', '1452', '1453', '1466', '1474', '1485', '1487', '1492', '1508', '1510', '1511', '1527', '1528', '1529', '1531', '1558', '1566', '1567', '1581', '1583', '1586', '1587', '1593', '1598', '1599', '1606', '1611', '1618', '1625', '1628', '1636', '1638', '1645', '1654', '1658', '1659', '1669', '1681', '1728', '1732', '1733', '1743', '1745', '1746', '1760', '1762', '1770', '1775', '1777', '1780', '1786', '1794', '1801', '1803', '1806', '1816', '1817', '1818', '1822', '1828', '1834', '1835', '1840', '1856', '1857', '1867', '1880', '1883', '1887', '1891', '1893', '1918', '1925', '1928', '1938', '1939', '1940', '1948', '1949', '1958', '1963', '1970', '1975', '1980', '1998']",False,2000,True,2,5b704386bb,0.0,1.0,1.0
./expes/v2_2021-03-23_issda-30_2000-prng-1-w2-p2,30_issda-2000,2000,first-2000,100,5,rng,num-start-2400,2400,25726,classic,1317.422917842865,True,,True,1.0,1.0,1.0,1,"['30', '62', '146', '174', '241', '259', '267', '268', '277', '286', '301', '302', '362', '368', '381', '384', '415', '439', '462', '473', '480', '519', '526', '531', '537', '538', '539', '565', '574', '596', '601', '604', '643', '709', '729', '730', '746', '761', '811', '880', '881', '884', '895', '902', '909', '919', '924', '941', '997', '1006', '1071', '1089', '1098', '1126', '1136', '1156', '1183', '1218', '1241', '1247', '1252', '1298', '1308', '1313', '1336', '1342', '1365', '1374', '1387', '1401', '1402', '1404', '1416', '1493', '1504', '1526', '1533', '1547', '1626', '1627', '1635', '1643', '1651', '1659', '1679', '1693', '1709', '1716', '1733', '1740', '1741', '1781', '1785', '1797', '1820', '1822', '1823', '1840', '1863', '1945']",False,2000,True,2,dd3e621b0e,0.0,1.0,1.0
./expes/v2_2021-03-23_issda-30_2000-prng-1-w2-p2,30_issda-2000,2000,first-2000,200,10,rng,num-start-3400,3400,25726,classic,2445.324556350708,True,,False,1.0,1.0,1.0,1,"['1', '2', '10', '20', '23', '31', '32', '35', '41', '61', '62', '74', '86', '87', '108', '122', '123', '130', '137', '144', '150', '151', '153', '171', '175', '179', '185', '186', '193', '206', '207', '221', '222', '239', '242', '261', '269', '276', '278', '291', '300', '316', '323', '364', '375', '379', '382', '384', '386', '389', '390', '391', '401', '407', '428', '430', '432', '436', '437', '438', '471', '479', '496', '498', '505', '521', '529', '553', '570', '592', '596', '603', '607', '622', '623', '638', '646', '669', '674', '682', '690', '756', '762', '769', '786', '791', '792', '808', '809', '812', '814', '821', '834', '840', '859', '860', '862', '903', '905', '915', '917', '926', '927', '928', '929', '937', '951', '953', '954', '963', '975', '991', '998', '1024', '1041', '1043', '1049', '1051', '1064', '1083', '1104', '1129', '1146', '1147', '1154', '1160', '1177', '1182', '1194', '1203', '1211', '1214', '1220', '1229', '1232', '1233', '1250', '1258', '1261', '1275', '1277', '1285', '1290', '1300', '1304', '1312', '1315', '1319', '1332', '1340', '1342', '1357', '1383', '1397', '1403', '1421', '1448', '1450', '1452', '1499', '1514', '1553', '1570', '1576', '1583', '1594', '1595', '1600', '1625', '1633', '1646', '1647', '1659', '1701', '1704', '1705', '1721', '1726', '1734', '1736', '1750', '1752', '1755', '1771', '1774', '1775', '1802', '1813', '1824', '1865', '1890', '1893', '1899', '1909', '1963', '1965', '1975', '1976', '1989', '1997']",True,2000,True,2,2a0b04e553,0.0,0.0,1.0
./expes/v2_2021-03-23_issda-30_2000-prng-1-w2-p2,30_issda-2000,2000,first-2000,500,25,rng,num-start-3000,3000,25726,classic,2136.153110742569,True,,True,1.0,1.0,1.0,1,"['1', '3', '9', '12', '13', '19', '21', '23', '27', '29', '30', '35', '42', '44', '45', '46', '47', '54', '57', '58', '63', '67', '68', '75', '78', '80', '88', '89', '90', '91', '96', '99', '106', '108', '113', '114', '116', '119', '120', '122', '133', '135', '146', '153', '157', '161', '162', '163', '164', '165', '169', '172', '177', '184', '186', '189', '191', '199', '205', '207', '212', '214', '220', '222', '223', '233', '236', '238', '241', '249', '252', '254', '255', '257', '258', '269', '274', '280', '290', '291', '294', '295', '301', '302', '304', '309', '313', '314', '316', '317', '319', '324', '337', '342', '344', '352', '353', '354', '357', '365', '373', '379', '381', '389', '391', '395', '397', '400', '406', '417', '421', '424', '428', '429', '430', '434', '436', '443', '448', '452', '454', '456', '457', '459', '460', '461', '465', '467', '471', '476', '481', '483', '487', '488', '490', '491', '495', '498', '501', '520', '523', '524', '529', '531', '533', '535', '538', '548', '549', '552', '558', '560', '580', '582', '584', '588', '594', '601', '603', '605', '607', '608', '610', '619', '620', '621', '624', '625', '629', '633', '635', '636', '642', '643', '647', '649', '655', '656', '660', '683', '686', '687', '689', '700', '705', '706', '713', '715', '716', '725', '726', '741', '743', '747', '757', '765', '766', '767', '771', '773', '785', '786', '787', '792', '796', '802', '805', '808', '810', '811', '819', '820', '823', '825', '826', '827', '829', '830', '832', '834', '836', '837', '838', '839', '840', '843', '844', '845', '852', '854', '856', '858', '861', '867', '874', '876', '880', '887', '889', '894', '904', '906', '910', '912', '915', '916', '917', '922', '929', '931', '934', '936', '944', '946', '947', '952', '956', '961', '966', '968', '972', '973', '978', '985', '986', '988', '1000', '1004', '1005', '1007', '1013', '1016', '1017', '1022', '1023', '1027', '1030', '1032', '1046', '1047', '1052', '1053', '1058', '1059', '1062', '1072', '1077', '1089', '1095', '1097', '1101', '1105', '1110', '1133', '1134', '1153', '1157', '1162', '1171', '1173', '1176', '1186', '1189', '1193', '1202', '1208', '1209', '1215', '1216', '1219', '1224', '1227', '1234', '1235', '1237', '1242', '1243', '1250', '1252', '1255', '1256', '1258', '1260', '1264', '1277', '1281', '1282', '1284', '1287', '1288', '1293', '1296', '1301', '1307', '1308', '1312', '1313', '1317', '1320', '1332', '1335', '1337', '1339', '1341', '1343', '1347', '1349', '1351', '1353', '1358', '1364', '1365', '1366', '1367', '1369', '1370', '1392', '1395', '1397', '1407', '1411', '1413', '1415', '1417', '1421', '1429', '1432', '1433', '1434', '1441', '1449', '1450', '1457', '1463', '1472', '1474', '1477', '1483', '1485', '1487', '1491', '1496', '1500', '1508', '1510', '1512', '1521', '1522', '1523', '1533', '1536', '1540', '1542', '1547', '1553', '1559', '1564', '1568', '1576', '1583', '1584', '1586', '1598', '1603', '1604', '1605', '1610', '1612', '1614', '1616', '1617', '1619', '1630', '1635', '1636', '1647', '1651', '1652', '1655', '1664', '1667', '1669', '1671', '1674', '1677', '1686', '1692', '1693', '1694', '1700', '1704', '1706', '1711', '1721', '1722', '1725', '1726', '1727', '1732', '1735', '1736', '1738', '1741', '1750', '1763', '1771', '1772', '1773', '1777', '1778', '1788', '1795', '1809', '1810', '1811', '1814', '1820', '1830', '1836', '1837', '1842', '1843', '1849', '1855', '1857', '1875', '1882', '1883', '1884', '1886', '1892', '1895', '1901', '1905', '1908', '1915', '1927', '1932', '1933', '1942', '1943', '1949', '1950', '1952', '1953', '1959', '1961', '1962', '1965', '1971', '1976', '1979', '1981', '1983', '1985', '1988', '1989', '1991', '1995', '1996']",False,2000,True,2,e131e68d9a,0.0,1.0,1.0
./expes/v2_2021-03-23_issda-30_2000-prng-1-w2-p2,30_issda-2000,2000,first-2000,700,35,rng,num-start-3000,3000,25726,classic,2371.04403591156,True,,False,1.0,1.0,1.0,1,"['5', '6', '14', '15', '18', '26', '27', '34', '35', '37', '39', '41', '45', '47', '48', '50', '51', '52', '54', '55', '57', '66', '69', '71', '73', '75', '81', '84', '86', '87', '89', '90', '93', '96', '98', '100', '102', '114', '123', '127', '128', '130', '131', '132', '135', '137', '140', '141', '142', '145', '147', '148', '149', '151', '153', '155', '159', '162', '167', '171', '172', '175', '177', '181', '187', '188', '192', '193', '194', '195', '196', '202', '204', '207', '208', '210', '211', '212', '215', '219', '221', '223', '230', '233', '234', '236', '238', '239', '245', '246', '248', '249', '253', '258', '259', '262', '263', '264', '271', '272', '273', '274', '276', '279', '280', '282', '284', '286', '287', '297', '300', '304', '305', '309', '310', '312', '314', '317', '320', '325', '326', '336', '337', '340', '341', '342', '349', '351', '352', '354', '359', '361', '362', '363', '369', '370', '371', '372', '376', '380', '382', '383', '384', '385', '388', '389', '390', '392', '393', '397', '402', '404', '409', '413', '414', '415', '416', '425', '428', '429', '431', '432', '436', '441', '453', '459', '461', '462', '464', '465', '466', '472', '477', '486', '494', '496', '500', '502', '503', '509', '511', '512', '515', '517', '519', '521', '523', '530', '533', '534', '535', '537', '539', '540', '542', '549', '551', '556', '557', '560', '562', '563', '564', '567', '568', '571', '572', '576', '579', '582', '585', '586', '591', '592', '593', '594', '597', '599', '601', '602', '606', '612', '613', '616', '617', '623', '624', '627', '630', '632', '633', '634', '636', '637', '638', '646', '648', '650', '651', '660', '663', '665', '667', '671', '672', '674', '676', '680', '682', '684', '689', '690', '700', '710', '711', '712', '716', '718', '720', '721', '724', '725', '726', '731', '737', '742', '744', '745', '746', '747', '750', '751', '752', '756', '757', '758', '760', '763', '771', '772', '777', '781', '785', '788', '792', '793', '795', '796', '800', '803', '804', '806', '812', '813', '819', '821', '823', '827', '829', '830', '831', '833', '844', '847', '849', '852', '855', '857', '862', '867', '872', '875', '878', '879', '880', '881', '888', '893', '895', '896', '898', '899', '901', '902', '906', '910', '912', '915', '917', '921', '922', '923', '925', '926', '928', '930', '931', '934', '938', '939', '941', '943', '945', '947', '949', '952', '955', '956', '957', '959', '960', '962', '963', '969', '975', '978', '980', '982', '983', '984', '987', '989', '995', '996', '998', '999', '1001', '1002', '1004', '1006', '1008', '1011', '1012', '1018', '1025', '1028', '1029', '1030', '1034', '1036', '1043', '1048', '1050', '1051', '1054', '1056', '1058', '1065', '1066', '1067', '1069', '1073', '1075', '1077', '1080', '1083', '1084', '1085', '1090', '1094', '1095', '1098', '1099', '1100', '1102', '1106', '1110', '1111', '1115', '1117', '1118', '1120', '1121', '1124', '1126', '1129', '1134', '1135', '1136', '1137', '1141', '1145', '1151', '1152', '1153', '1165', '1166', '1167', '1169', '1175', '1178', '1179', '1181', '1184', '1186', '1188', '1190', '1193', '1194', '1195', '1198', '1199', '1204', '1206', '1208', '1211', '1213', '1215', '1216', '1217', '1219', '1221', '1222', '1223', '1226', '1227', '1246', '1248', '1249', '1251', '1256', '1259', '1261', '1265', '1269', '1270', '1271', '1272', '1283', '1286', '1290', '1293', '1299', '1301', '1302', '1303', '1305', '1308', '1310', '1311', '1313', '1323', '1325', '1329', '1330', '1331', '1333', '1337', '1339', '1345', '1347', '1349', '1351', '1352', '1355', '1360', '1367', '1368', '1370', '1371', '1372', '1376', '1380', '1381', '1385', '1387', '1388', '1389', '1396', '1398', '1401', '1406', '1408', '1410', '1411', '1420', '1423', '1426', '1427', '1429', '1432', '1438', '1445', '1452', '1454', '1465', '1467', '1468', '1470', '1474', '1475', '1485', '1486', '1491', '1497', '1498', '1503', '1507', '1509', '1512', '1513', '1514', '1519', '1524', '1525', '1528', '1532', '1534', '1540', '1541', '1543', '1545', '1546', '1548', '1550', '1553', '1556', '1565', '1568', '1572', '1584', '1586', '1587', '1588', '1594', '1601', '1602', '1605', '1607', '1608', '1609', '1612', '1614', '1617', '1618', '1622', '1625', '1626', '1629', '1630', '1632', '1642', '1645', '1646', '1647', '1648', '1655', '1661', '1663', '1667', '1670', '1673', '1675', '1679', '1684', '1688', '1689', '1692', '1696', '1702', '1704', '1708', '1710', '1712', '1724', '1729', '1730', '1731', '1735', '1740', '1741', '1742', '1747', '1748', '1752', '1753', '1755', '1762', '1766', '1770', '1774', '1779', '1786', '1790', '1799', '1800', '1801', '1804', '1809', '1811', '1812', '1814', '1815', '1816', '1820', '1822', '1824', '1831', '1832', '1834', '1836', '1837', '1838', '1851', '1853', '1854', '1856', '1859', '1860', '1863', '1874', '1885', '1887', '1892', '1896', '1898', '1901', '1903', '1905', '1907', '1908', '1911', '1915', '1916', '1917', '1918', '1919', '1921', '1924', '1929', '1933', '1936', '1937', '1938', '1941', '1942', '1945', '1946', '1947', '1954', '1956', '1957', '1959', '1960', '1963', '1964', '1970', '1973', '1974', '1977', '1978', '1979', '1980', '1981', '1983', '1984', '1987', '1989', '1991', '1993']",True,2000,True,2,285f52c0a5,0.0,0.0,1.0
./expes/v2_2021-03-23_issda-30_2000-prng-1-w2-p2,30_issda-2000,2000,first-2000,1000,50,rng,num-start-2800,2800,25726,classic,2349.915679693222,True,,False,1.0,1.0,1.0,1,"['1', '7', '10', '11', '12', '15', '16', '17', '18', '19', '20', '22', '24', '25', '32', '35', '37', '38', '40', '43', '49', '52', '54', '55', '56', '57', '59', '61', '62', '63', '64', '67', '69', '70', '73', '74', '76', '77', '80', '83', '84', '90', '94', '97', '101', '102', '103', '104', '105', '106', '107', '108', '110', '111', '113', '114', '116', '117', '118', '120', '123', '124', '128', '131', '132', '135', '138', '142', '145', '146', '147', '150', '151', '152', '154', '158', '159', '162', '163', '166', '168', '171', '174', '175', '178', '179', '180', '182', '183', '184', '189', '191', '192', '193', '196', '197', '201', '202', '203', '204', '206', '208', '210', '213', '214', '216', '217', '218', '221', '222', '225', '226', '227', '230', '232', '233', '234', '236', '238', '240', '241', '250', '251', '252', '253', '255', '256', '257', '261', '263', '264', '265', '266', '269', '272', '273', '277', '281', '282', '284', '287', '288', '289', '291', '293', '294', '295', '301', '305', '307', '308', '309', '310', '311', '314', '316', '318', '319', '322', '331', '332', '333', '334', '335', '336', '337', '338', '340', '342', '344', '346', '347', '349', '350', '353', '354', '355', '356', '357', '358', '359', '367', '372', '376', '377', '383', '386', '387', '388', '392', '393', '394', '395', '396', '401', '402', '403', '404', '405', '407', '408', '409', '411', '415', '416', '417', '418', '420', '427', '430', '431', '433', '434', '435', '437', '438', '439', '443', '444', '446', '448', '450', '452', '453', '455', '456', '457', '461', '464', '466', '467', '470', '472', '474', '475', '478', '479', '483', '484', '486', '489', '490', '496', '497', '499', '500', '507', '508', '509', '510', '511', '512', '513', '514', '515', '517', '523', '526', '527', '528', '529', '531', '532', '533', '535', '536', '538', '540', '541', '542', '543', '544', '545', '548', '549', '550', '552', '554', '559', '560', '561', '563', '565', '566', '570', '574', '577', '581', '582', '584', '585', '586', '587', '591', '592', '594', '597', '599', '601', '602', '603', '604', '605', '607', '608', '609', '613', '614', '616', '618', '619', '620', '621', '622', '623', '625', '628', '630', '631', '632', '633', '634', '635', '636', '638', '639', '642', '645', '647', '648', '650', '651', '652', '654', '655', '658', '659', '660', '662', '663', '664', '666', '667', '669', '670', '674', '675', '677', '678', '679', '681', '684', '685', '686', '687', '689', '691', '695', '696', '698', '703', '711', '712', '713', '714', '720', '721', '726', '727', '728', '729', '731', '733', '734', '737', '741', '743', '746', '748', '749', '752', '753', '754', '757', '758', '759', '762', '763', '768', '769', '770', '775', '776', '778', '781', '783', '784', '786', '787', '791', '792', '794', '796', '801', '802', '803', '805', '807', '817', '820', '823', '826', '827', '828', '829', '830', '831', '833', '834', '836', '837', '838', '840', '842', '846', '848', '849', '850', '854', '858', '859', '860', '862', '865', '866', '867', '875', '876', '877', '878', '882', '884', '887', '889', '893', '894', '895', '896', '897', '901', '904', '905', '907', '908', '912', '913', '915', '916', '920', '921', '924', '926', '927', '928', '930', '933', '935', '936', '940', '941', '942', '945', '948', '950', '952', '954', '957', '958', '959', '962', '965', '967', '969', '970', '971', '972', '973', '974', '975', '978', '981', '984', '987', '989', '990', '991', '992', '994', '996', '997', '998', '1001', '1002', '1003', '1008', '1009', '1010', '1011', '1012', '1013', '1016', '1018', '1021', '1025', '1026', '1027', '1028', '1029', '1033', '1034', '1037', '1038', '1039', '1040', '1042', '1047', '1050', '1051', '1053', '1054', '1056', '1057', '1060', '1061', '1063', '1064', '1065', '1068', '1069', '1070', '1072', '1075', '1076', '1077', '1080', '1082', '1083', '1087', '1088', '1089', '1090', '1091', '1092', '1095', '1096', '1099', '1100', '1103', '1104', '1105', '1106', '1107', '1109', '1111', '1113', '1114', '1115', '1116', '1121', '1122', '1126', '1129', '1131', '1132', '1133', '1134', '1135', '1138', '1139', '1141', '1143', '1145', '1146', '1147', '1151', '1153', '1154', '1155', '1156', '1161', '1164', '1166', '1167', '1171', '1172', '1176', '1178', '1180', '1182', '1184', '1185', '1188', '1189', '1190', '1191', '1192', '1193', '1197', '1200', '1201', '1202', '1209', '1211', '1212', '1213', '1215', '1218', '1226', '1227', '1228', '1229', '1231', '1234', '1237', '1238', '1241', '1243', '1245', '1247', '1250', '1252', '1253', '1254', '1255', '1256', '1257', '1258', '1259', '1261', '1262', '1264', '1265', '1267', '1271', '1272', '1280', '1281', '1282', '1283', '1284', '1288', '1294', '1295', '1296', '1297', '1298', '1299', '1300', '1302', '1304', '1307', '1309', '1312', '1315', '1320', '1324', '1325', '1326', '1327', '1329', '1330', '1332', '1333', '1339', '1340', '1345', '1347', '1348', '1349', '1350', '1353', '1355', '1359', '1365', '1367', '1369', '1381', '1383', '1386', '1388', '1390', '1393', '1395', '1398', '1399', '1402', '1403', '1404', '1405', '1412', '1413', '1416', '1419', '1422', '1423', '1433', '1434', '1435', '1437', '1438', '1440', '1442', '1443', '1445', '1446', '1447', '1449', '1453', '1455', '1456', '1458', '1459', '1460', '1462', '1464', '1465', '1466', '1472', '1476', '1478', '1481', '1482', '1484', '1485', '1489', '1490', '1493', '1497', '1499', '1502', '1504', '1505', '1507', '1508', '1510', '1511', '1513', '1514', '1521', '1522', '1523', '1525', '1526', '1529', '1531', '1532', '1533', '1534', '1535', '1537', '1540', '1541', '1543', '1546', '1547', '1548', '1550', '1552', '1553', '1554', '1556', '1557', '1561', '1563', '1564', '1565', '1566', '1567', '1568', '1569', '1572', '1573', '1575', '1577', '1579', '1581', '1582', '1584', '1585', '1586', '1591', '1594', '1598', '1600', '1601', '1602', '1603', '1604', '1607', '1610', '1611', '1613', '1614', '1618', '1619', '1622', '1626', '1627', '1628', '1630', '1634', '1635', '1636', '1637', '1640', '1642', '1643', '1644', '1645', '1647', '1649', '1653', '1655', '1656', '1657', '1658', '1659', '1660', '1661', '1662', '1664', '1665', '1666', '1668', '1669', '1670', '1671', '1673', '1674', '1676', '1679', '1680', '1682', '1684', '1685', '1688', '1689', '1692', '1693', '1696', '1698', '1699', '1702', '1703', '1705', '1710', '1711', '1715', '1718', '1719', '1724', '1725', '1727', '1731', '1732', '1734', '1738', '1742', '1744', '1745', '1746', '1747', '1749', '1753', '1755', '1756', '1757', '1759', '1761', '1766', '1769', '1771', '1772', '1774', '1776', '1777', '1778', '1779', '1780', '1783', '1786', '1789', '1791', '1793', '1794', '1795', '1800', '1804', '1805', '1808', '1810', '1813', '1814', '1815', '1819', '1821', '1822', '1823', '1829', '1830', '1833', '1835', '1837', '1838', '1840', '1841', '1842', '1844', '1845', '1847', '1848', '1849', '1856', '1857', '1858', '1859', '1861', '1862', '1864', '1870', '1871', '1872', '1874', '1878', '1880', '1881', '1883', '1884', '1885', '1888', '1889', '1891', '1892', '1893', '1897', '1898', '1899', '1900', '1903', '1904', '1905', '1906', '1907', '1909', '1911', '1916', '1917', '1920', '1923', '1924', '1925', '1926', '1927', '1930', '1931', '1935', '1936', '1943', '1944', '1948', '1949', '1951', '1952', '1955', '1957', '1958', '1960', '1961', '1962', '1964', '1966', '1968', '1970', '1971', '1972', '1973', '1974', '1975', '1976', '1978', '1981', '1982', '1987', '1990', '1992', '1994', '1995', '1996', '1997', '1998']",True,2000,True,2,cb495dc782,0.0,0.0,1.0
./expes/v2_2021-03-23_issda-30_2000-prng-1-w2-p2,30_issda-2000,2000,first-2000,900,45,rng,num-start-1200,1200,25726,classic,2156.6178810596466,True,,False,1.0,1.0,1.0,1,"['4', '5', '6', '8', '10', '11', '15', '16', '24', '27', '32', '37', '39', '41', '42', '44', '46', '48', '49', '53', '55', '56', '57', '58', '59', '61', '62', '64', '65', '67', '68', '70', '72', '73', '74', '75', '76', '77', '81', '87', '88', '89', '91', '93', '94', '95', '102', '103', '104', '105', '109', '110', '113', '122', '123', '124', '125', '126', '130', '132', '135', '137', '140', '141', '142', '147', '149', '157', '158', '159', '160', '164', '165', '171', '176', '177', '182', '187', '189', '190', '194', '197', '199', '200', '204', '205', '209', '211', '212', '214', '215', '219', '220', '221', '222', '223', '224', '226', '229', '230', '231', '233', '236', '238', '242', '244', '245', '246', '248', '249', '251', '253', '254', '255', '256', '257', '260', '262', '264', '266', '267', '268', '270', '273', '275', '276', '278', '279', '280', '282', '284', '286', '290', '294', '295', '300', '301', '306', '307', '309', '311', '313', '320', '322', '326', '327', '329', '330', '333', '335', '338', '345', '347', '348', '349', '350', '351', '352', '353', '355', '362', '364', '366', '367', '369', '370', '372', '373', '376', '379', '380', '382', '383', '384', '388', '389', '391', '392', '393', '397', '400', '405', '407', '408', '409', '410', '411', '414', '421', '422', '427', '429', '431', '433', '434', '445', '446', '447', '448', '449', '453', '455', '456', '459', '460', '461', '466', '471', '475', '476', '479', '480', '481', '482', '484', '487', '488', '489', '490', '491', '495', '496', '501', '502', '507', '509', '512', '513', '514', '515', '518', '521', '523', '526', '529', '530', '532', '537', '540', '541', '542', '543', '544', '545', '547', '548', '550', '551', '552', '554', '555', '556', '561', '563', '571', '572', '573', '581', '583', '584', '588', '592', '595', '598', '601', '602', '603', '606', '612', '614', '615', '616', '617', '621', '623', '624', '630', '635', '640', '641', '642', '643', '645', '646', '647', '648', '651', '653', '656', '660', '662', '665', '667', '669', '672', '673', '674', '678', '679', '681', '682', '684', '686', '690', '694', '695', '696', '697', '699', '700', '704', '705', '708', '710', '718', '719', '720', '721', '722', '723', '726', '731', '736', '738', '739', '741', '746', '749', '752', '753', '755', '757', '758', '760', '763', '765', '767', '769', '770', '771', '772', '773', '774', '778', '779', '784', '785', '786', '791', '794', '797', '798', '799', '801', '802', '803', '807', '809', '813', '814', '816', '820', '822', '823', '826', '827', '835', '836', '837', '839', '841', '846', '847', '848', '851', '854', '857', '860', '861', '862', '863', '865', '867', '871', '873', '875', '878', '881', '884', '886', '890', '892', '894', '896', '898', '907', '908', '910', '911', '912', '917', '918', '923', '924', '927', '931', '933', '935', '936', '938', '943', '944', '951', '952', '955', '957', '958', '959', '961', '964', '969', '970', '971', '972', '976', '978', '981', '982', '983', '986', '987', '988', '989', '991', '992', '994', '996', '999', '1002', '1003', '1004', '1005', '1008', '1011', '1012', '1014', '1017', '1019', '1020', '1022', '1025', '1029', '1031', '1032', '1034', '1036', '1037', '1039', '1042', '1045', '1048', '1050', '1055', '1056', '1060', '1062', '1063', '1065', '1066', '1068', '1072', '1073', '1076', '1077', '1080', '1081', '1084', '1085', '1086', '1090', '1094', '1095', '1097', '1098', '1099', '1100', '1101', '1102', '1104', '1108', '1109', '1110', '1113', '1114', '1115', '1116', '1124', '1126', '1127', '1129', '1132', '1134', '1135', '1136', '1137', '1138', '1140', '1141', '1145', '1146', '1147', '1155', '1156', '1160', '1161', '1162', '1164', '1165', '1166', '1168', '1170', '1172', '1175', '1176', '1178', '1180', '1182', '1186', '1188', '1189', '1190', '1195', '1197', '1198', '1199', '1200', '1201', '1202', '1204', '1206', '1207', '1208', '1209', '1211', '1213', '1214', '1218', '1219', '1220', '1222', '1224', '1227', '1228', '1229', '1231', '1232', '1237', '1238', '1240', '1241', '1245', '1247', '1251', '1254', '1259', '1262', '1266', '1267', '1269', '1271', '1274', '1275', '1276', '1277', '1281', '1282', '1284', '1285', '1286', '1287', '1288', '1293', '1295', '1297', '1298', '1299', '1300', '1301', '1304', '1309', '1315', '1317', '1319', '1320', '1321', '1323', '1325', '1327', '1328', '1330', '1331', '1332', '1337', '1339', '1340', '1343', '1347', '1351', '1356', '1357', '1358', '1363', '1366', '1368', '1373', '1375', '1376', '1377', '1378', '1380', '1381', '1383', '1384', '1385', '1389', '1390', '1392', '1395', '1396', '1397', '1401', '1405', '1407', '1413', '1415', '1416', '1421', '1422', '1423', '1424', '1425', '1427', '1429', '1430', '1431', '1432', '1433', '1434', '1436', '1437', '1440', '1441', '1444', '1445', '1446', '1448', '1460', '1462', '1463', '1465', '1466', '1467', '1468', '1469', '1470', '1471', '1472', '1473', '1474', '1476', '1477', '1481', '1489', '1490', '1491', '1492', '1493', '1496', '1499', '1503', '1504', '1506', '1512', '1515', '1519', '1520', '1521', '1523', '1527', '1531', '1532', '1533', '1534', '1541', '1543', '1544', '1545', '1546', '1549', '1550', '1551', '1553', '1557', '1560', '1572', '1575', '1578', '1581', '1582', '1586', '1588', '1589', '1591', '1592', '1596', '1597', '1598', '1601', '1602', '1603', '1604', '1612', '1613', '1615', '1620', '1622', '1623', '1626', '1629', '1635', '1636', '1637', '1640', '1641', '1645', '1647', '1651', '1652', '1653', '1654', '1658', '1659', '1660', '1662', '1663', '1665', '1666', '1669', '1671', '1673', '1674', '1679', '1683', '1687', '1696', '1704', '1706', '1707', '1708', '1710', '1713', '1714', '1716', '1718', '1719', '1724', '1726', '1728', '1729', '1732', '1735', '1739', '1741', '1744', '1745', '1746', '1749', '1750', '1752', '1753', '1754', '1755', '1756', '1758', '1759', '1761', '1762', '1763', '1764', '1765', '1767', '1769', '1770', '1772', '1773', '1776', '1778', '1779', '1781', '1782', '1783', '1787', '1788', '1793', '1800', '1802', '1803', '1804', '1805', '1807', '1809', '1810', '1813', '1816', '1817', '1818', '1822', '1823', '1824', '1825', '1826', '1827', '1835', '1837', '1838', '1839', '1842', '1843', '1847', '1851', '1852', '1853', '1856', '1862', '1864', '1866', '1870', '1872', '1876', '1878', '1879', '1885', '1886', '1887', '1888', '1889', '1892', '1893', '1897', '1899', '1900', '1903', '1904', '1905', '1909', '1913', '1914', '1915', '1917', '1918', '1923', '1924', '1927', '1928', '1931', '1932', '1934', '1935', '1936', '1939', '1941', '1944', '1945', '1946', '1947', '1948', '1951', '1953', '1956', '1957', '1961', '1962', '1964', '1965', '1967', '1968', '1969', '1973', '1975', '1976', '1978', '1980', '1981', '1985', '1987', '1989', '1990', '1991', '1993', '1997']",True,2000,True,2,ded29a54be,0.0,0.0,1.0
./expes/v2_2021-03-23_issda-30_2000-prng-1-w2-p2,30_issda-2000,2000,first-2000,200,10,rng,num-start-200,200,25726,classic,2025.4879441261292,False,,False,0,,,0,"['19', '24', '32', '35', '36', '39', '64', '75', '85', '89', '98', '113', '115', '116', '122', '127', '132', '135', '151', '152', '161', '162', '168', '174', '190', '205', '237', '239', '240', '288', '292', '302', '311', '324', '325', '337', '353', '368', '401', '423', '428', '458', '469', '474', '475', '476', '482', '490', '491', '523', '524', '533', '540', '558', '575', '587', '589', '606', '620', '626', '636', '638', '639', '642', '646', '652', '683', '689', '693', '706', '712', '725', '728', '729', '738', '753', '771', '778', '789', '793', '799', '804', '810', '823', '830', '860', '862', '883', '889', '900', '905', '913', '920', '923', '933', '945', '947', '956', '960', '972', '976', '986', '1003', '1005', '1009', '1014', '1021', '1024', '1025', '1029', '1048', '1068', '1086', '1094', '1114', '1124', '1137', '1157', '1158', '1167', '1183', '1216', '1220', '1251', '1258', '1267', '1283', '1323', '1329', '1386', '1390', '1396', '1415', '1419', '1422', '1423', '1445', '1451', '1473', '1477', '1486', '1489', '1508', '1518', '1544', '1547', '1551', '1592', '1593', '1602', '1608', '1631', '1634', '1637', '1640', '1649', '1659', '1683', '1686', '1690', '1711', '1716', '1718', '1721', '1722', '1728', '1729', '1753', '1756', '1757', '1769', '1781', '1783', '1787', '1792', '1802', '1817', '1827', '1829', '1830', '1831', '1854', '1859', '1870', '1888', '1890', '1895', '1901', '1906', '1915', '1916', '1922', '1935', '1936', '1942', '1965', '1967', '1977', '1982', '2000']",True,2000,True,2,942a2bbc6e,0.0,0.0,0.0
./expes/v2_2021-03-23_issda-30_2000-prng-1-w2-p2,30_issda-2000,2000,first-2000,900,45,rng,num-start-800,800,25726,classic,2103.470240831375,False,,False,0,,,0,"['1', '3', '4', '12', '13', '14', '16', '18', '19', '23', '24', '25', '27', '30', '34', '36', '38', '42', '43', '45', '47', '48', '50', '55', '59', '60', '64', '72', '73', '74', '76', '79', '83', '84', '86', '87', '92', '93', '94', '95', '96', '97', '98', '102', '106', '111', '113', '115', '117', '120', '125', '129', '130', '133', '136', '137', '140', '141', '142', '144', '147', '156', '157', '159', '160', '161', '162', '164', '168', '170', '171', '172', '178', '179', '180', '181', '182', '184', '185', '189', '190', '192', '193', '208', '213', '218', '220', '221', '223', '227', '228', '229', '235', '236', '239', '240', '242', '243', '244', '248', '249', '250', '252', '256', '258', '259', '262', '263', '265', '267', '268', '270', '272', '273', '277', '280', '281', '285', '286', '287', '290', '294', '297', '298', '300', '301', '303', '306', '308', '309', '310', '312', '314', '320', '321', '329', '331', '333', '334', '335', '337', '342', '343', '344', '347', '350', '353', '355', '357', '358', '360', '361', '362', '365', '366', '372', '374', '375', '377', '378', '383', '385', '386', '387', '389', '390', '392', '394', '396', '402', '406', '409', '411', '413', '414', '415', '416', '418', '419', '422', '423', '424', '428', '429', '430', '432', '433', '436', '438', '440', '442', '443', '446', '447', '449', '450', '452', '456', '459', '461', '462', '472', '473', '478', '479', '481', '483', '484', '487', '489', '491', '492', '495', '496', '497', '504', '505', '507', '508', '510', '511', '512', '516', '520', '523', '524', '525', '528', '529', '530', '531', '532', '533', '535', '538', '540', '542', '543', '546', '547', '550', '553', '554', '555', '556', '558', '560', '561', '562', '564', '565', '567', '568', '571', '575', '577', '579', '581', '582', '583', '588', '592', '593', '598', '599', '603', '606', '609', '612', '613', '615', '616', '618', '619', '621', '623', '627', '629', '632', '633', '635', '641', '644', '646', '647', '651', '655', '659', '660', '661', '664', '665', '671', '672', '673', '675', '677', '679', '680', '681', '683', '685', '686', '688', '690', '693', '694', '696', '697', '698', '702', '706', '707', '708', '709', '712', '715', '716', '717', '718', '722', '726', '730', '731', '733', '736', '738', '739', '740', '741', '744', '745', '748', '749', '750', '753', '754', '755', '761', '764', '765', '766', '767', '770', '775', '776', '778', '779', '780', '785', '786', '790', '793', '798', '799', '800', '802', '804', '806', '808', '813', '814', '820', '823', '824', '826', '828', '829', '831', '832', '833', '834', '836', '837', '838', '839', '844', '847', '848', '849', '850', '851', '853', '855', '856', '860', '864', '865', '866', '867', '868', '869', '870', '871', '874', '875', '876', '877', '878', '879', '880', '882', '883', '888', '889', '890', '893', '895', '897', '911', '913', '915', '920', '930', '931', '932', '933', '936', '939', '940', '942', '943', '946', '949', '950', '953', '954', '955', '958', '959', '960', '961', '962', '963', '964', '967', '969', '970', '973', '974', '978', '979', '980', '983', '984', '985', '994', '997', '999', '1003', '1005', '1006', '1007', '1008', '1009', '1010', '1012', '1014', '1016', '1018', '1023', '1026', '1029', '1035', '1038', '1039', '1040', '1043', '1044', '1046', '1047', '1049', '1051', '1052', '1054', '1058', '1062', '1064', '1066', '1067', '1069', '1070', '1073', '1075', '1078', '1079', '1080', '1083', '1085', '1086', '1087', '1091', '1093', '1095', '1102', '1104', '1107', '1109', '1110', '1111', '1114', '1116', '1117', '1118', '1119', '1123', '1124', '1125', '1127', '1129', '1130', '1131', '1132', '1133', '1137', '1140', '1143', '1144', '1145', '1149', '1150', '1152', '1158', '1159', '1164', '1166', '1167', '1170', '1171', '1173', '1174', '1176', '1179', '1183', '1186', '1190', '1192', '1194', '1195', '1196', '1197', '1198', '1203', '1206', '1207', '1208', '1210', '1212', '1216', '1218', '1219', '1224', '1225', '1229', '1230', '1235', '1238', '1242', '1244', '1250', '1251', '1252', '1254', '1255', '1258', '1260', '1261', '1264', '1266', '1267', '1275', '1276', '1277', '1281', '1283', '1287', '1289', '1290', '1291', '1292', '1293', '1295', '1299', '1300', '1304', '1306', '1308', '1309', '1322', '1325', '1326', '1327', '1328', '1329', '1330', '1336', '1339', '1344', '1345', '1346', '1347', '1353', '1354', '1355', '1359', '1361', '1363', '1367', '1370', '1372', '1375', '1376', '1378', '1381', '1383', '1384', '1385', '1386', '1388', '1389', '1390', '1391', '1393', '1395', '1396', '1397', '1400', '1401', '1402', '1406', '1407', '1408', '1412', '1414', '1415', '1417', '1418', '1419', '1421', '1422', '1427', '1431', '1432', '1433', '1436', '1437', '1438', '1440', '1444', '1446', '1447', '1449', '1451', '1452', '1453', '1454', '1458', '1461', '1462', '1464', '1467', '1469', '1471', '1472', '1474', '1477', '1478', '1480', '1482', '1489', '1490', '1496', '1500', '1504', '1505', '1506', '1507', '1508', '1513', '1519', '1522', '1525', '1526', '1527', '1529', '1532', '1533', '1538', '1544', '1545', '1548', '1549', '1550', '1551', '1552', '1553', '1554', '1556', '1557', '1562', '1564', '1567', '1570', '1572', '1573', '1574', '1575', '1578', '1579', '1581', '1584', '1586', '1587', '1589', '1592', '1593', '1594', '1595', '1598', '1599', '1600', '1605', '1606', '1607', '1609', '1613', '1614', '1615', '1618', '1620', '1621', '1622', '1623', '1625', '1626', '1627', '1628', '1629', '1632', '1639', '1642', '1644', '1646', '1650', '1652', '1654', '1656', '1657', '1658', '1660', '1662', '1663', '1664', '1666', '1667', '1668', '1669', '1674', '1676', '1681', '1683', '1684', '1688', '1691', '1692', '1693', '1695', '1697', '1698', '1700', '1703', '1705', '1706', '1708', '1711', '1712', '1713', '1715', '1718', '1719', '1720', '1722', '1724', '1726', '1728', '1729', '1733', '1734', '1736', '1738', '1743', '1746', '1749', '1750', '1751', '1754', '1756', '1758', '1760', '1762', '1766', '1769', '1774', '1777', '1778', '1780', '1783', '1789', '1790', '1791', '1792', '1795', '1801', '1804', '1805', '1806', '1807', '1811', '1813', '1814', '1817', '1818', '1822', '1823', '1825', '1826', '1827', '1829', '1834', '1837', '1841', '1842', '1843', '1844', '1847', '1854', '1857', '1858', '1859', '1865', '1867', '1869', '1871', '1874', '1875', '1876', '1879', '1880', '1887', '1888', '1889', '1891', '1895', '1896', '1899', '1900', '1904', '1905', '1909', '1910', '1912', '1916', '1919', '1921', '1922', '1923', '1925', '1931', '1934', '1935', '1936', '1938', '1939', '1941', '1946', '1947', '1948', '1950', '1951', '1955', '1956', '1959', '1960', '1961', '1962', '1964', '1966', '1968', '1979', '1980', '1981', '1982', '1983', '1985', '1986', '1987', '1993', '1994', '1998', '1999']",True,2000,True,2,13339feb9e,0.0,0.0,0.0
./expes/v2_2021-03-23_issda-30_2000-prng-1-w2-p2,30_issda-2000,2000,first-2000,500,25,rng,num-start-1800,1800,25726,classic,1407.8863558769226,True,,True,1.0,1.0,1.0,1,"['4', '9', '10', '11', '18', '33', '37', '40', '41', '44', '49', '50', '51', '52', '57', '61', '64', '65', '66', '69', '73', '74', '75', '77', '84', '89', '94', '101', '105', '110', '116', '117', '121', '123', '124', '137', '139', '146', '151', '152', '155', '157', '165', '170', '173', '174', '177', '180', '188', '192', '193', '197', '205', '208', '209', '216', '218', '228', '230', '232', '236', '238', '243', '250', '252', '262', '264', '270', '280', '287', '288', '290', '295', '297', '301', '310', '311', '315', '320', '321', '322', '323', '325', '329', '331', '337', '341', '347', '348', '350', '353', '354', '356', '361', '362', '364', '370', '372', '373', '377', '392', '394', '407', '426', '427', '431', '432', '435', '436', '446', '449', '455', '462', '465', '468', '473', '475', '477', '481', '484', '494', '502', '506', '508', '510', '511', '512', '514', '516', '519', '520', '521', '524', '526', '527', '531', '532', '537', '541', '545', '550', '551', '560', '562', '571', '572', '583', '586', '588', '594', '596', '607', '608', '622', '627', '632', '634', '635', '639', '648', '653', '665', '666', '672', '674', '675', '686', '691', '699', '700', '705', '707', '719', '725', '730', '733', '735', '737', '738', '740', '742', '743', '746', '750', '751', '762', '763', '764', '765', '768', '779', '785', '788', '790', '800', '801', '803', '805', '806', '809', '810', '819', '823', '828', '830', '833', '838', '842', '845', '850', '854', '857', '859', '860', '867', '868', '872', '876', '883', '889', '899', '904', '911', '912', '913', '918', '919', '925', '929', '930', '932', '936', '937', '945', '949', '952', '953', '956', '964', '969', '979', '983', '989', '992', '996', '997', '998', '1001', '1002', '1004', '1005', '1008', '1020', '1021', '1026', '1029', '1033', '1040', '1041', '1043', '1045', '1048', '1049', '1053', '1054', '1055', '1056', '1058', '1061', '1062', '1064', '1067', '1070', '1072', '1074', '1076', '1077', '1078', '1087', '1097', '1108', '1115', '1117', '1124', '1130', '1142', '1143', '1147', '1148', '1152', '1163', '1171', '1175', '1177', '1180', '1191', '1198', '1200', '1205', '1206', '1208', '1211', '1212', '1216', '1219', '1222', '1240', '1241', '1242', '1243', '1251', '1257', '1261', '1262', '1263', '1267', '1274', '1277', '1278', '1279', '1286', '1301', '1306', '1308', '1313', '1315', '1328', '1335', '1338', '1342', '1350', '1354', '1356', '1359', '1372', '1374', '1378', '1382', '1391', '1394', '1395', '1396', '1398', '1402', '1403', '1404', '1408', '1414', '1417', '1419', '1425', '1432', '1433', '1441', '1445', '1446', '1447', '1451', '1454', '1456', '1463', '1465', '1466', '1467', '1469', '1473', '1474', '1481', '1482', '1483', '1487', '1491', '1493', '1494', '1497', '1498', '1505', '1508', '1509', '1513', '1516', '1521', '1526', '1532', '1538', '1544', '1545', '1547', '1548', '1556', '1558', '1563', '1566', '1569', '1584', '1588', '1592', '1600', '1604', '1607', '1615', '1618', '1622', '1627', '1631', '1632', '1636', '1637', '1639', '1644', '1646', '1648', '1651', '1652', '1657', '1659', '1664', '1666', '1669', '1670', '1675', '1681', '1690', '1691', '1703', '1711', '1712', '1713', '1718', '1722', '1739', '1741', '1749', '1760', '1762', '1767', '1768', '1774', '1784', '1791', '1792', '1794', '1796', '1804', '1806', '1807', '1809', '1811', '1813', '1818', '1822', '1827', '1831', '1833', '1834', '1840', '1843', '1846', '1848', '1850', '1857', '1859', '1860', '1861', '1867', '1876', '1877', '1882', '1885', '1886', '1888', '1895', '1903', '1909', '1910', '1914', '1916', '1917', '1919', '1922', '1927', '1933', '1941', '1942', '1945', '1946', '1955', '1956', '1958', '1961', '1964', '1965', '1966', '1968', '1970', '1973', '1985', '1988', '1989', '1995']",False,2000,True,2,981fff0b30,0.0,1.0,1.0
./expes/v2_2021-03-23_issda-30_2000-prng-1-w2-p2,30_issda-2000,2000,first-2000,400,20,rng,num-start-3000,3000,25726,classic,1973.6635346412659,True,,True,1.0,1.0,1.0,1,"['10', '15', '24', '27', '32', '41', '42', '44', '46', '56', '59', '64', '65', '67', '70', '72', '73', '74', '87', '88', '91', '93', '102', '110', '124', '125', '126', '130', '132', '135', '137', '140', '158', '164', '176', '182', '199', '200', '209', '211', '214', '215', '222', '233', '244', '245', '246', '248', '251', '255', '257', '266', '268', '270', '273', '275', '279', '284', '309', '311', '320', '327', '335', '347', '351', '352', '364', '376', '380', '384', '391', '393', '405', '407', '409', '433', '445', '447', '453', '455', '456', '460', '461', '466', '475', '476', '480', '484', '487', '488', '489', '490', '491', '501', '515', '518', '529', '532', '540', '541', '547', '552', '555', '556', '561', '571', '572', '573', '584', '588', '592', '595', '598', '602', '612', '615', '616', '617', '621', '635', '641', '643', '645', '646', '656', '660', '669', '672', '678', '681', '684', '690', '695', '696', '697', '699', '700', '705', '708', '710', '719', '721', '723', '738', '746', '749', '757', '758', '772', '773', '774', '791', '794', '799', '809', '814', '835', '836', '839', '841', '847', '848', '851', '854', '860', '863', '875', '881', '884', '890', '892', '894', '896', '898', '911', '924', '935', '936', '943', '952', '955', '961', '964', '969', '971', '976', '978', '986', '988', '991', '1003', '1014', '1025', '1031', '1036', '1039', '1045', '1050', '1062', '1063', '1066', '1068', '1072', '1076', '1085', '1094', '1095', '1097', '1100', '1108', '1110', '1114', '1115', '1124', '1126', '1129', '1145', '1146', '1164', '1165', '1166', '1172', '1175', '1176', '1178', '1182', '1188', '1190', '1197', '1199', '1201', '1206', '1207', '1208', '1211', '1214', '1219', '1220', '1229', '1231', '1232', '1237', '1240', '1241', '1247', '1251', '1254', '1259', '1262', '1269', '1271', '1276', '1282', '1284', '1285', '1287', '1295', '1297', '1298', '1299', '1300', '1301', '1309', '1315', '1319', '1331', '1332', '1339', '1343', '1358', '1375', '1376', '1377', '1383', '1385', '1389', '1392', '1395', '1397', '1401', '1413', '1421', '1425', '1430', '1431', '1448', '1462', '1463', '1466', '1469', '1472', '1473', '1476', '1492', '1506', '1512', '1519', '1520', '1527', '1532', '1543', '1553', '1560', '1575', '1582', '1592', '1596', '1598', '1603', '1612', '1613', '1615', '1622', '1626', '1640', '1641', '1645', '1647', '1652', '1653', '1654', '1659', '1660', '1662', '1663', '1666', '1673', '1687', '1696', '1704', '1706', '1707', '1708', '1713', '1714', '1716', '1718', '1729', '1741', '1749', '1752', '1753', '1754', '1758', '1763', '1764', '1765', '1769', '1773', '1776', '1778', '1782', '1788', '1800', '1803', '1805', '1810', '1813', '1818', '1822', '1823', '1837', '1838', '1843', '1851', '1852', '1853', '1862', '1870', '1876', '1879', '1885', '1886', '1887', '1888', '1889', '1893', '1897', '1900', '1903', '1917', '1918', '1924', '1927', '1932', '1944', '1946', '1956', '1961', '1962', '1964', '1968', '1973', '1975', '1976', '1978', '1989', '1990', '1991', '1993']",False,2000,True,2,1386fb1d3d,0.0,1.0,1.0
./expes/v2_2021-03-23_issda-30_2000-prng-1-w2-p2,30_issda-2000,2000,first-2000,200,10,rng,num-start-3600,3600,25726,classic,1628.4253706932068,True,,True,1.0,1.0,1.0,1,"['4', '14', '18', '23', '39', '49', '53', '58', '63', '67', '76', '82', '90', '106', '107', '121', '125', '153', '160', '170', '172', '179', '187', '211', '231', '234', '238', '242', '277', '293', '298', '318', '333', '335', '344', '351', '365', '368', '373', '388', '393', '409', '419', '428', '431', '451', '452', '455', '458', '467', '471', '482', '492', '495', '507', '517', '536', '550', '551', '561', '562', '567', '573', '578', '635', '641', '661', '687', '691', '696', '700', '705', '717', '730', '740', '744', '745', '746', '753', '755', '761', '768', '781', '782', '788', '790', '796', '821', '829', '858', '867', '868', '875', '881', '888', '902', '909', '934', '941', '943', '952', '962', '972', '976', '977', '986', '989', '1021', '1025', '1027', '1032', '1039', '1043', '1048', '1052', '1053', '1063', '1080', '1084', '1105', '1109', '1120', '1125', '1127', '1137', '1144', '1174', '1181', '1221', '1232', '1234', '1243', '1244', '1245', '1248', '1268', '1273', '1279', '1305', '1310', '1313', '1318', '1347', '1354', '1355', '1356', '1360', '1365', '1369', '1370', '1380', '1384', '1396', '1407', '1414', '1415', '1426', '1428', '1487', '1488', '1533', '1543', '1567', '1570', '1579', '1581', '1606', '1613', '1629', '1635', '1642', '1660', '1671', '1677', '1678', '1679', '1685', '1704', '1726', '1753', '1760', '1771', '1774', '1807', '1814', '1856', '1868', '1874', '1875', '1882', '1893', '1900', '1928', '1939', '1941', '1958', '1964', '1982', '1990', '2000']",False,2000,True,2,b3afbeb174,0.0,1.0,1.0
