expe,clients,clients_size,clients_subset,agg_size,agg_size_pc,method,days,days_size,days_total,noise_method,time,valid,valid_sum,success,score_avg,score_min,score_max,nsols,oracle,wall_hit,wall_time,pooled,pool_size,uuid,infeasible,optimal,valid_sums
./expes/v4_2021-03-18_issda_1000-prng-1-w1-p100-ukn95_99,30_issda-1000,997,first-1000,350,35,rng,num-start-700,700,25726,ukn-95-99,86.18763828277588,False,,False,0.33488890240626373,0.3211455432171223,0.9451178700051548,100,"['1', '2', '4', '6', '10', '12', '14', '19', '23', '24', '29', '30', '33', '34', '36', '37', '38', '43', '48', '50', '54', '56', '58', '59', '61', '65', '67', '68', '74', '81', '83', '92', '94', '95', '98', '105', '110', '111', '114', '116', '118', '122', '130', '134', '136', '137', '143', '145', '146', '150', '151', '152', '153', '161', '164', '166', '170', '171', '173', '174', '176', '177', '181', '182', '183', '184', '185', '186', '187', '190', '199', '201', '202', '204', '210', '213', '214', '215', '221', '222', '225', '232', '244', '252', '253', '256', '257', '262', '263', '271', '272', '278', '279', '281', '283', '286', '287', '288', '290', '296', '297', '299', '301', '302', '303', '306', '309', '310', '314', '317', '318', '320', '322', '324', '325', '326', '334', '340', '343', '347', '348', '349', '353', '354', '357', '359', '360', '364', '365', '366', '367', '368', '370', '371', '372', '373', '374', '375', '377', '381', '382', '383', '386', '387', '390', '393', '399', '414', '416', '418', '419', '420', '424', '425', '426', '427', '429', '431', '432', '444', '445', '452', '456', '461', '464', '465', '467', '474', '475', '477', '481', '482', '483', '484', '486', '489', '491', '493', '495', '496', '498', '500', '504', '506', '512', '513', '515', '525', '526', '528', '529', '531', '535', '538', '543', '545', '547', '553', '557', '559', '561', '562', '563', '564', '567', '573', '578', '588', '593', '595', '601', '602', '604', '605', '609', '611', '616', '618', '626', '627', '629', '632', '633', '636', '638', '639', '640', '641', '642', '643', '646', '647', '653', '654', '660', '663', '665', '666', '667', '668', '679', '680', '682', '685', '687', '688', '690', '695', '703', '705', '706', '708', '709', '712', '714', '720', '722', '725', '734', '736', '737', '738', '739', '748', '749', '750', '756', '758', '759', '760', '767', '768', '774', '778', '781', '785', '789', '793', '794', '795', '800', '801', '805', '807', '815', '817', '818', '821', '837', '838', '839', '840', '842', '847', '849', '852', '856', '857', '859', '861', '862', '864', '866', '873', '875', '877', '881', '888', '889', '890', '891', '893', '894', '898', '914', '915', '916', '919', '923', '924', '925', '939', '941', '945', '946', '947', '952', '959', '960', '961', '962', '964', '965', '966', '969', '973', '975', '978', '979', '980', '983', '984', '985', '988', '989', '990', '992', '996', '999', '1000']",False,1000,True,100,ac27a29430,0.0,1.0,0.0
./expes/v4_2021-03-18_issda_1000-prng-1-w1-p100-ukn95_99,30_issda-1000,995,first-1000,500,50,rng,num-start-600,600,25726,ukn-95-99,48.24804449081421,False,,False,0.2933552387564693,0.010619770039536403,0.9160818641703311,100,"['1', '4', '6', '7', '8', '9', '10', '12', '13', '14', '16', '18', '19', '20', '21', '23', '25', '27', '28', '30', '31', '35', '36', '37', '40', '42', '43', '44', '45', '49', '50', '52', '53', '54', '55', '56', '57', '60', '61', '62', '63', '65', '66', '67', '68', '69', '71', '74', '77', '78', '81', '83', '84', '85', '86', '87', '88', '89', '90', '91', '94', '95', '96', '97', '99', '102', '103', '105', '106', '107', '109', '112', '113', '114', '115', '121', '123', '124', '125', '132', '133', '136', '137', '138', '139', '141', '142', '143', '145', '146', '148', '149', '151', '152', '153', '161', '166', '167', '168', '169', '173', '174', '175', '176', '177', '178', '181', '183', '184', '186', '187', '191', '192', '194', '197', '203', '204', '205', '206', '207', '208', '210', '211', '214', '215', '216', '217', '219', '222', '226', '227', '228', '230', '233', '237', '238', '242', '243', '244', '249', '250', '254', '255', '258', '260', '263', '266', '269', '270', '274', '275', '277', '280', '281', '282', '284', '285', '286', '288', '292', '298', '299', '302', '304', '308', '309', '310', '314', '315', '317', '323', '326', '329', '330', '332', '333', '337', '338', '339', '342', '343', '344', '346', '347', '349', '350', '353', '355', '356', '358', '362', '364', '366', '368', '374', '375', '379', '381', '382', '383', '388', '389', '391', '393', '395', '396', '398', '399', '405', '407', '408', '409', '411', '412', '413', '414', '417', '420', '422', '427', '428', '431', '432', '433', '435', '436', '438', '439', '441', '444', '447', '450', '451', '455', '458', '460', '462', '463', '465', '467', '468', '470', '473', '475', '478', '479', '482', '486', '487', '490', '491', '493', '494', '502', '504', '507', '508', '509', '510', '513', '515', '518', '519', '521', '522', '523', '527', '528', '530', '531', '532', '535', '536', '537', '540', '542', '547', '549', '551', '553', '555', '556', '557', '558', '559', '561', '562', '566', '568', '569', '570', '573', '574', '576', '577', '579', '580', '581', '583', '585', '587', '588', '589', '590', '593', '594', '595', '599', '600', '601', '603', '605', '606', '608', '612', '614', '616', '618', '619', '620', '621', '622', '623', '624', '626', '627', '628', '632', '638', '640', '641', '642', '645', '650', '653', '655', '658', '659', '661', '664', '665', '667', '675', '680', '684', '686', '687', '688', '691', '693', '694', '695', '696', '697', '698', '700', '701', '705', '707', '710', '711', '713', '714', '717', '718', '721', '723', '726', '727', '729', '733', '735', '737', '738', '743', '744', '745', '746', '748', '752', '754', '755', '756', '759', '762', '764', '765', '766', '767', '771', '773', '779', '780', '781', '782', '783', '784', '790', '791', '792', '793', '794', '795', '796', '797', '798', '799', '800', '802', '803', '806', '809', '813', '814', '816', '818', '819', '820', '823', '827', '829', '830', '835', '841', '843', '844', '853', '854', '858', '860', '864', '866', '867', '872', '873', '880', '881', '885', '887', '888', '889', '890', '893', '896', '897', '898', '899', '900', '901', '902', '903', '905', '908', '909', '910', '911', '914', '915', '917', '918', '919', '920', '921', '924', '925', '928', '929', '931', '932', '934', '937', '940', '942', '943', '944', '946', '947', '952', '954', '959', '961', '963', '964', '967', '969', '970', '974', '975', '977', '979', '982', '984', '985', '986', '988', '990', '991', '992', '999', '1000']",False,1000,True,100,f7f43f2805,0.0,1.0,0.0
./expes/v4_2021-03-18_issda_1000-prng-1-w1-p100-ukn95_99,30_issda-1000,999,first-1000,150,15,rng,num-start-400,400,25726,ukn-95-99,62.67708468437195,False,,False,0.5132450997147405,0.492540612403199,0.9683455531083541,100,"['9', '25', '29', '37', '58', '78', '87', '94', '140', '163', '166', '169', '171', '174', '178', '181', '182', '187', '196', '213', '218', '228', '237', '242', '256', '258', '275', '286', '311', '316', '317', '320', '327', '333', '350', '360', '363', '369', '370', '371', '373', '376', '381', '390', '403', '410', '417', '425', '434', '442', '456', '457', '466', '468', '473', '477', '492', '499', '501', '502', '511', '513', '515', '517', '520', '522', '523', '525', '527', '528', '531', '538', '539', '544', '558', '571', '574', '576', '582', '596', '603', '608', '621', '622', '631', '632', '639', '654', '668', '671', '675', '678', '686', '691', '698', '701', '717', '724', '733', '741', '742', '744', '749', '753', '754', '757', '773', '782', '792', '804', '809', '816', '819', '823', '829', '835', '841', '852', '856', '870', '875', '880', '881', '884', '892', '898', '904', '905', '906', '914', '916', '922', '923', '925', '929', '930', '931', '934', '943', '948', '955', '957', '959', '964', '971', '973', '978', '979', '981', '985']",False,1000,True,100,e178359699,0.0,1.0,0.0
./expes/v4_2021-03-18_issda_1000-prng-1-w1-p100-ukn95_99,30_issda-1000,999,first-1000,100,10,rng,num-start-700,700,25726,ukn-95-99,133.6798586845398,False,,False,0.6196295642053974,0.5933912675278047,0.9683455531083541,100,"['21', '32', '39', '45', '60', '65', '66', '88', '89', '92', '100', '111', '117', '130', '139', '141', '146', '152', '163', '197', '198', '199', '213', '215', '233', '240', '241', '254', '265', '274', '293', '322', '347', '366', '380', '385', '387', '389', '396', '400', '411', '413', '418', '437', '456', '465', '468', '471', '486', '497', '500', '501', '507', '510', '516', '519', '530', '533', '545', '553', '571', '587', '593', '596', '599', '616', '622', '636', '639', '658', '660', '666', '677', '679', '707', '708', '718', '719', '722', '744', '747', '778', '783', '828', '831', '834', '850', '851', '864', '876', '881', '900', '903', '919', '924', '926', '934', '969', '973', '986']",False,1000,True,100,9749f0af0f,0.0,1.0,0.0
./expes/v4_2021-03-18_issda_1000-prng-1-w1-p100-ukn95_99,30_issda-1000,998,first-1000,200,20,rng,num-start-1000,1000,25726,ukn-95-99,124.2295732498169,False,,False,0.4635394963447708,0.4478091414803228,0.9552114070977611,100,"['8', '10', '19', '21', '27', '42', '44', '45', '46', '48', '57', '61', '64', '69', '80', '84', '85', '89', '92', '93', '100', '104', '106', '109', '117', '126', '140', '149', '154', '157', '159', '163', '166', '169', '173', '174', '177', '182', '183', '189', '197', '199', '200', '201', '204', '208', '213', '220', '228', '235', '239', '242', '244', '254', '255', '256', '257', '266', '267', '269', '279', '283', '284', '285', '287', '288', '293', '296', '297', '298', '299', '300', '301', '308', '311', '313', '318', '320', '329', '330', '331', '332', '335', '340', '346', '352', '365', '366', '369', '372', '373', '374', '382', '391', '398', '406', '412', '421', '423', '424', '434', '435', '442', '447', '450', '452', '455', '463', '466', '471', '474', '483', '485', '491', '503', '519', '521', '532', '533', '548', '550', '560', '561', '563', '572', '586', '587', '597', '603', '610', '614', '621', '622', '631', '633', '636', '642', '643', '648', '650', '651', '657', '664', '668', '688', '690', '692', '694', '697', '715', '718', '722', '726', '739', '750', '753', '755', '765', '784', '794', '799', '803', '817', '820', '824', '827', '833', '838', '847', '849', '860', '861', '866', '869', '876', '883', '887', '889', '891', '902', '904', '916', '918', '927', '931', '936', '939', '940', '950', '958', '965', '966', '968', '978', '983', '984', '985', '988', '990', '994']",False,1000,True,100,09bc93c461,0.0,1.0,0.0
