expe,clients,clients_size,clients_subset,agg_size,agg_size_pc,method,days,days_size,days_total,noise_method,time,valid,valid_sum,success,score_avg,score_min,score_max,nsols,oracle,wall_hit,wall_time,pooled,pool_size,uuid,infeasible,optimal,valid_sums
./expes/v4_2021-03-18_issda_1000-prng-1-w1-p100-ukn95_99,30_issda-1000,996,first-1000,450,45,rng,num-start-200,200,25726,ukn-95-99,28.013009548187256,False,,False,0.3055507295947573,0.05105189153314926,0.9223459546850981,100,"['1', '2', '5', '13', '15', '20', '22', '24', '27', '28', '29', '30', '39', '41', '44', '48', '50', '51', '54', '56', '59', '60', '61', '62', '63', '64', '65', '67', '69', '71', '72', '73', '75', '80', '83', '84', '85', '87', '88', '89', '93', '94', '96', '97', '100', '101', '104', '105', '106', '107', '109', '113', '119', '120', '121', '123', '124', '125', '126', '127', '129', '131', '133', '134', '135', '137', '141', '143', '145', '147', '148', '150', '151', '153', '154', '155', '156', '159', '160', '163', '166', '167', '169', '171', '172', '173', '175', '177', '181', '183', '185', '186', '187', '188', '193', '196', '199', '200', '202', '205', '208', '210', '211', '213', '214', '217', '218', '220', '224', '225', '226', '227', '229', '233', '237', '238', '239', '246', '247', '250', '254', '255', '258', '259', '260', '266', '268', '270', '272', '277', '284', '285', '286', '287', '289', '292', '295', '297', '300', '306', '307', '308', '311', '316', '318', '320', '322', '324', '327', '332', '334', '338', '341', '346', '349', '351', '352', '353', '356', '358', '359', '363', '364', '365', '368', '371', '373', '374', '375', '376', '379', '382', '386', '390', '396', '398', '401', '402', '404', '405', '406', '407', '408', '409', '411', '412', '426', '427', '429', '430', '431', '432', '435', '438', '439', '441', '445', '451', '452', '453', '454', '457', '458', '459', '460', '464', '465', '468', '470', '473', '475', '477', '478', '479', '482', '484', '485', '486', '490', '491', '492', '494', '495', '496', '497', '499', '500', '501', '505', '506', '507', '509', '514', '515', '518', '520', '521', '523', '525', '528', '529', '530', '531', '536', '537', '538', '540', '541', '544', '545', '546', '547', '548', '549', '550', '554', '555', '557', '558', '561', '562', '563', '564', '565', '569', '570', '571', '572', '573', '574', '576', '578', '580', '581', '585', '587', '589', '591', '592', '594', '596', '597', '598', '600', '601', '604', '605', '609', '611', '616', '617', '620', '621', '624', '625', '626', '627', '628', '629', '633', '634', '640', '643', '646', '650', '652', '655', '659', '663', '666', '667', '669', '671', '672', '674', '675', '677', '679', '681', '685', '686', '688', '693', '697', '698', '699', '700', '707', '708', '709', '710', '712', '713', '714', '716', '719', '724', '729', '730', '734', '740', '741', '743', '744', '747', '749', '757', '758', '759', '762', '765', '768', '769', '776', '777', '779', '783', '787', '791', '795', '796', '798', '799', '802', '803', '804', '808', '809', '810', '814', '817', '818', '819', '821', '823', '826', '827', '828', '831', '835', '836', '838', '839', '841', '842', '846', '847', '849', '852', '855', '861', '866', '870', '874', '880', '885', '892', '893', '894', '895', '896', '897', '898', '900', '905', '906', '907', '909', '911', '915', '916', '919', '920', '922', '926', '927', '931', '932', '935', '937', '939', '940', '945', '946', '951', '956', '957', '960', '963', '964', '965', '966', '968', '969', '970', '971', '972', '974', '975', '976', '978', '979', '980', '981', '986', '991', '995', '997', '998', '1000']",False,1000,True,100,b7cc7b3a08,0.0,1.0,0.0
./expes/v4_2021-03-18_issda_1000-prng-1-w1-p100-ukn95_99,30_issda-1000,999,first-1000,100,10,rng,num-start-500,500,25726,ukn-95-99,1054.3608903884888,False,,False,0.6125151455329738,0.5836507555107449,0.9683455531083541,48,"['4', '6', '7', '9', '25', '42', '45', '53', '57', '65', '83', '86', '90', '105', '114', '115', '125', '136', '137', '142', '143', '161', '173', '174', '191', '203', '205', '208', '210', '215', '230', '243', '244', '274', '288', '299', '339', '343', '347', '350', '383', '388', '389', '393', '407', '422', '432', '433', '435', '463', '475', '504', '515', '519', '553', '568', '593', '605', '612', '620', '628', '632', '691', '693', '705', '717', '721', '726', '743', '744', '746', '754', '765', '783', '792', '793', '809', '813', '829', '867', '872', '873', '888', '893', '901', '908', '909', '911', '914', '917', '918', '920', '929', '934', '942', '947', '959', '969', '975', '988']",True,1000,True,100,9aa0a3157e,0.0,0.0,0.0
