expe,clients,clients_size,clients_subset,agg_size,agg_size_pc,method,days,days_size,days_total,noise_method,time,valid,valid_sum,success,score_avg,score_min,score_max,nsols,oracle,wall_hit,wall_time,pooled,pool_size,uuid,infeasible,optimal,valid_sums
./expes/v4_2021-03-18_issda_1000-prng-1-w1-p100-ukn95_99,30_issda-1000,997,first-1000,300,30,rng,num-start-400,400,25726,ukn-95-99,60.770758390426636,False,,False,0.3646125600926425,0.3483108139759238,0.9451178700051548,100,"['2', '13', '14', '15', '17', '23', '24', '28', '34', '38', '40', '41', '42', '47', '60', '63', '64', '65', '71', '72', '74', '76', '81', '83', '85', '92', '94', '96', '98', '102', '104', '112', '119', '120', '121', '123', '127', '128', '134', '136', '139', '143', '144', '146', '150', '151', '154', '158', '163', '166', '174', '175', '180', '185', '189', '190', '192', '194', '195', '196', '200', '205', '209', '210', '216', '221', '224', '225', '226', '227', '228', '242', '245', '246', '248', '249', '250', '257', '266', '267', '278', '282', '283', '288', '289', '295', '298', '299', '309', '311', '318', '319', '324', '325', '328', '333', '334', '339', '341', '342', '344', '351', '359', '361', '363', '366', '367', '368', '380', '381', '395', '398', '401', '409', '415', '420', '425', '430', '431', '436', '437', '445', '447', '453', '454', '456', '459', '462', '469', '479', '482', '483', '484', '488', '489', '491', '494', '498', '499', '502', '505', '506', '516', '517', '521', '524', '534', '535', '538', '543', '546', '548', '554', '557', '558', '561', '562', '565', '566', '574', '575', '582', '583', '584', '588', '590', '594', '598', '602', '604', '605', '609', '611', '612', '617', '618', '621', '625', '626', '627', '628', '634', '636', '641', '646', '649', '650', '651', '656', '657', '663', '665', '667', '673', '674', '677', '682', '685', '689', '690', '693', '696', '697', '698', '700', '701', '708', '715', '717', '718', '721', '723', '724', '728', '733', '736', '737', '745', '748', '750', '757', '760', '767', '774', '776', '777', '781', '786', '802', '803', '804', '808', '813', '814', '818', '819', '820', '823', '825', '830', '832', '835', '836', '837', '842', '845', '846', '848', '849', '850', '851', '854', '856', '858', '859', '861', '863', '865', '866', '870', '871', '875', '876', '887', '889', '892', '896', '897', '898', '912', '914', '917', '920', '921', '922', '924', '927', '930', '932', '935', '938', '939', '940', '941', '944', '945', '946', '956', '959', '960', '970', '973', '977', '985', '987', '989', '990', '991', '992', '994']",False,1000,True,100,f14570e211,0.0,1.0,0.0
./expes/v4_2021-03-18_issda_1000-prng-1-w1-p100-ukn95_99,30_issda-1000,997,first-1000,300,30,rng,num-start-700,700,25726,ukn-95-99,65.54304838180542,False,,False,0.3587509799413812,0.3437051793848551,0.9451178700051548,100,"['8', '10', '19', '21', '27', '33', '37', '38', '42', '44', '45', '46', '48', '53', '57', '61', '62', '64', '69', '77', '80', '84', '85', '89', '92', '93', '96', '100', '104', '106', '109', '117', '120', '126', '131', '140', '146', '149', '154', '157', '159', '163', '166', '169', '170', '172', '173', '174', '177', '182', '183', '189', '193', '196', '197', '199', '200', '201', '204', '206', '207', '208', '213', '214', '216', '220', '221', '224', '225', '228', '235', '238', '239', '242', '244', '248', '249', '254', '255', '256', '257', '260', '261', '266', '267', '268', '269', '275', '276', '279', '283', '284', '285', '287', '288', '293', '296', '297', '298', '299', '300', '301', '304', '308', '311', '313', '318', '320', '323', '329', '330', '331', '332', '333', '335', '340', '345', '346', '347', '352', '365', '366', '369', '372', '373', '374', '382', '391', '397', '398', '400', '402', '405', '406', '412', '413', '414', '420', '421', '423', '424', '428', '431', '432', '434', '435', '439', '441', '442', '447', '450', '452', '455', '463', '466', '471', '474', '476', '483', '484', '485', '490', '491', '503', '504', '507', '509', '511', '519', '521', '532', '533', '539', '541', '542', '548', '550', '560', '561', '563', '572', '579', '583', '584', '586', '587', '597', '603', '610', '614', '621', '622', '631', '633', '635', '636', '642', '643', '648', '650', '651', '657', '658', '663', '664', '668', '669', '670', '671', '673', '684', '685', '688', '690', '692', '694', '697', '703', '705', '715', '718', '722', '726', '735', '739', '750', '753', '755', '763', '765', '784', '786', '791', '793', '794', '799', '803', '810', '817', '818', '819', '820', '821', '824', '827', '833', '835', '838', '847', '849', '851', '855', '860', '861', '866', '869', '876', '877', '880', '883', '887', '889', '891', '892', '895', '902', '904', '911', '913', '916', '918', '921', '922', '923', '927', '931', '936', '939', '940', '945', '947', '950', '951', '953', '958', '965', '966', '967', '968', '978', '980', '983', '984', '985', '986', '988', '990', '992', '994', '995']",False,1000,True,100,725e0aa375,0.0,1.0,0.0
./expes/v4_2021-03-18_issda_1000-prng-1-w1-p100-ukn95_99,30_issda-1000,999,first-1000,100,10,rng,num-start-700,700,25726,ukn-95-99,109.87526202201843,False,,False,0.5965705420866015,0.578864974837241,0.9683455531083541,100,"['1', '23', '30', '38', '47', '83', '91', '92', '96', '97', '100', '120', '123', '150', '198', '199', '202', '203', '204', '206', '251', '257', '268', '272', '275', '280', '299', '312', '328', '344', '366', '370', '371', '383', '420', '424', '435', '441', '456', '482', '497', '499', '501', '513', '516', '528', '538', '552', '553', '567', '577', '588', '590', '601', '603', '604', '617', '623', '625', '649', '651', '661', '672', '679', '695', '699', '703', '715', '717', '718', '747', '748', '753', '774', '778', '781', '789', '813', '816', '820', '822', '823', '825', '842', '848', '853', '865', '894', '902', '914', '925', '932', '933', '935', '939', '956', '975', '989', '994', '1000']",False,1000,True,100,6b028fd8db,0.0,1.0,0.0
./expes/v4_2021-03-18_issda_1000-prng-1-w1-p100-ukn95_99,30_issda-1000,995,first-1000,500,50,rng,num-start-700,700,25726,ukn-95-99,53.567262172698975,False,,False,0.3168724222021829,-0.0005028916586418131,0.9160818641703311,100,"['1', '2', '3', '4', '6', '10', '11', '12', '14', '15', '17', '19', '21', '23', '24', '25', '27', '28', '29', '30', '33', '34', '36', '37', '38', '41', '43', '45', '48', '50', '51', '54', '56', '58', '59', '61', '65', '67', '68', '69', '71', '74', '81', '83', '88', '92', '94', '95', '98', '105', '110', '111', '114', '116', '118', '122', '125', '126', '127', '130', '133', '134', '136', '137', '138', '140', '143', '145', '146', '147', '150', '151', '152', '153', '154', '158', '159', '161', '163', '164', '166', '170', '171', '173', '174', '176', '177', '181', '182', '183', '184', '185', '186', '187', '188', '190', '196', '199', '201', '202', '204', '210', '213', '214', '215', '219', '221', '222', '225', '232', '236', '244', '250', '252', '253', '256', '257', '258', '259', '262', '263', '267', '271', '272', '274', '275', '278', '279', '281', '283', '286', '287', '288', '290', '293', '294', '296', '297', '299', '300', '301', '302', '303', '304', '306', '308', '309', '310', '311', '314', '315', '317', '318', '319', '320', '322', '323', '324', '325', '326', '327', '334', '339', '340', '342', '343', '345', '347', '348', '349', '353', '354', '357', '359', '360', '361', '364', '365', '366', '367', '368', '370', '371', '372', '373', '374', '375', '377', '379', '381', '382', '383', '385', '386', '387', '389', '390', '392', '393', '394', '395', '399', '402', '409', '414', '415', '416', '418', '419', '420', '424', '425', '426', '427', '429', '430', '431', '432', '436', '438', '440', '443', '444', '445', '449', '452', '455', '456', '461', '464', '465', '467', '474', '475', '476', '477', '479', '481', '482', '483', '484', '486', '487', '488', '489', '490', '491', '492', '493', '494', '495', '496', '498', '499', '500', '502', '504', '505', '506', '509', '510', '512', '513', '515', '525', '526', '528', '529', '531', '535', '538', '543', '545', '546', '547', '551', '552', '553', '555', '557', '559', '561', '562', '563', '564', '567', '569', '573', '574', '578', '580', '585', '588', '590', '593', '595', '597', '600', '601', '602', '604', '605', '609', '610', '611', '616', '618', '619', '623', '624', '626', '627', '629', '630', '632', '633', '636', '637', '638', '639', '640', '641', '642', '643', '645', '646', '647', '648', '653', '654', '658', '660', '661', '662', '663', '664', '665', '666', '667', '668', '676', '677', '678', '679', '680', '682', '685', '687', '688', '690', '695', '699', '702', '703', '704', '705', '706', '708', '709', '712', '714', '719', '720', '722', '723', '725', '726', '730', '734', '736', '737', '738', '739', '740', '748', '749', '750', '751', '756', '758', '759', '760', '761', '762', '763', '764', '767', '768', '774', '777', '778', '779', '781', '785', '789', '793', '794', '795', '798', '800', '801', '805', '807', '811', '815', '817', '818', '821', '822', '827', '832', '833', '837', '838', '839', '840', '841', '842', '845', '847', '849', '850', '852', '856', '857', '859', '861', '862', '863', '864', '865', '866', '873', '875', '876', '877', '880', '881', '885', '888', '889', '890', '891', '893', '894', '898', '900', '902', '910', '911', '913', '914', '915', '916', '917', '919', '921', '923', '924', '925', '933', '934', '936', '939', '941', '945', '946', '947', '952', '958', '959', '960', '961', '962', '964', '965', '966', '968', '969', '973', '974', '975', '976', '977', '978', '979', '980', '981', '982', '983', '984', '985', '988', '989', '990', '992', '996', '997', '999', '1000']",False,1000,True,100,9b0403603e,0.0,1.0,0.0
./expes/v4_2021-03-18_issda_1000-prng-1-w1-p100-ukn95_99,30_issda-1000,999,first-1000,100,10,rng,num-start-900,900,25726,ukn-95-99,200.77948427200317,False,,False,0.6567140204527309,0.6110236444069885,0.9683455531083541,100,"['21', '32', '39', '45', '60', '65', '66', '88', '89', '92', '100', '111', '117', '130', '139', '141', '146', '152', '163', '197', '198', '199', '213', '215', '233', '240', '241', '254', '265', '274', '293', '322', '347', '366', '380', '385', '387', '389', '396', '400', '411', '413', '418', '437', '456', '465', '468', '471', '486', '497', '500', '501', '507', '510', '516', '519', '530', '533', '545', '553', '571', '587', '593', '596', '599', '616', '622', '636', '639', '658', '660', '666', '677', '679', '707', '708', '718', '719', '722', '744', '747', '778', '783', '828', '831', '834', '850', '851', '864', '876', '881', '900', '903', '919', '924', '926', '934', '969', '973', '986']",False,1000,True,100,0b1957e2f1,0.0,1.0,0.0
