expe,clients,clients_size,clients_subset,agg_size,agg_size_pc,method,days,days_size,days_total,noise_method,time,valid,valid_sum,success,score_avg,score_min,score_max,nsols,oracle,wall_hit,wall_time,pooled,pool_size,uuid,infeasible,optimal,valid_sums
./expes/v4_2021-03-18_issda_1000-prng-1-w1-p100-ukn95_99,30_issda-1000,999,first-1000,150,15,rng,num-start-700,700,25726,ukn-95-99,130.66248321533203,False,,False,0.5328844234089423,0.510634126735597,0.9683455531083541,100,"['3', '10', '13', '23', '27', '30', '31', '32', '36', '45', '65', '89', '97', '103', '105', '111', '121', '124', '138', '168', '173', '175', '178', '191', '195', '205', '215', '222', '225', '228', '233', '235', '237', '238', '239', '249', '262', '273', '291', '297', '304', '311', '316', '326', '341', '354', '376', '380', '384', '389', '391', '400', '403', '404', '414', '425', '427', '433', '444', '449', '450', '457', '461', '471', '481', '484', '492', '500', '502', '508', '512', '513', '515', '518', '520', '521', '534', '541', '553', '555', '562', '567', '570', '583', '593', '602', '604', '606', '608', '623', '630', '645', '658', '663', '666', '668', '680', '681', '687', '691', '694', '703', '713', '720', '721', '729', '739', '742', '744', '751', '756', '761', '762', '780', '781', '783', '786', '790', '795', '798', '808', '817', '822', '850', '856', '858', '861', '867', '868', '869', '874', '881', '903', '904', '915', '918', '924', '933', '939', '943', '945', '949', '959', '962', '964', '968', '976', '991', '993', '997']",False,1000,True,100,ae16c053b7,0.0,1.0,0.0
./expes/v4_2021-03-18_issda_1000-prng-1-w1-p100-ukn95_99,30_issda-1000,998,first-1000,200,20,rng,num-start-500,500,25726,ukn-95-99,56.1389217376709,False,,False,0.453897191433903,0.4388005394661266,0.9552114070977611,100,"['2', '15', '17', '34', '40', '42', '47', '64', '65', '71', '76', '83', '85', '92', '94', '96', '98', '102', '104', '112', '119', '120', '128', '134', '143', '144', '146', '150', '151', '154', '175', '189', '192', '194', '195', '196', '209', '210', '221', '224', '225', '226', '228', '242', '245', '248', '249', '250', '257', '266', '267', '278', '282', '283', '289', '295', '298', '299', '309', '311', '318', '324', '325', '328', '333', '334', '339', '341', '342', '344', '363', '366', '367', '381', '395', '401', '409', '415', '430', '431', '437', '445', '454', '456', '459', '462', '484', '488', '489', '498', '499', '502', '505', '506', '517', '521', '524', '534', '535', '538', '546', '554', '557', '561', '562', '565', '566', '574', '582', '588', '590', '594', '598', '602', '604', '611', '617', '618', '626', '627', '628', '634', '641', '646', '650', '656', '657', '673', '677', '685', '696', '700', '701', '715', '717', '718', '721', '723', '724', '728', '737', '748', '750', '774', '776', '777', '802', '803', '804', '813', '814', '818', '819', '823', '825', '830', '832', '835', '836', '837', '842', '845', '846', '848', '850', '858', '861', '863', '865', '866', '870', '871', '876', '887', '889', '892', '897', '898', '912', '914', '917', '920', '921', '924', '930', '932', '935', '938', '939', '940', '941', '945', '946', '956', '973', '987', '989', '990', '991', '992']",False,1000,True,100,74bb867ce6,0.0,1.0,0.0
./expes/v4_2021-03-18_issda_1000-prng-1-w1-p100-ukn95_99,30_issda-1000,999,first-1000,100,10,rng,num-start-600,600,25726,ukn-95-99,128.73758339881897,False,,False,0.6200560622492524,0.5812510281770167,0.9683455531083541,100,"['21', '32', '39', '45', '60', '65', '66', '88', '89', '92', '100', '111', '117', '130', '139', '141', '146', '152', '163', '197', '198', '199', '213', '215', '233', '240', '241', '254', '265', '274', '293', '322', '347', '366', '380', '385', '387', '389', '396', '400', '411', '413', '418', '437', '456', '465', '468', '471', '486', '497', '500', '501', '507', '510', '516', '519', '530', '533', '545', '553', '571', '587', '593', '596', '599', '616', '622', '636', '639', '658', '660', '666', '677', '679', '707', '708', '718', '719', '722', '744', '747', '778', '783', '828', '831', '834', '850', '851', '864', '876', '881', '900', '903', '919', '924', '926', '934', '969', '973', '986']",False,1000,True,100,ec142081a5,0.0,1.0,0.0
./expes/v4_2021-03-18_issda_1000-prng-1-w1-p100-ukn95_99,30_issda-1000,999,first-1000,150,15,rng,num-start-300,300,25726,ukn-95-99,43.28771686553955,False,,False,0.5219647942975338,0.5065560072836068,0.9683455531083541,100,"['9', '25', '29', '37', '58', '78', '87', '94', '140', '163', '166', '169', '171', '174', '178', '181', '182', '187', '196', '213', '218', '228', '237', '242', '256', '258', '275', '286', '311', '316', '317', '320', '327', '333', '350', '360', '363', '369', '370', '371', '373', '376', '381', '390', '403', '410', '417', '425', '434', '442', '456', '457', '466', '468', '473', '477', '492', '499', '501', '502', '511', '513', '515', '517', '520', '522', '523', '525', '527', '528', '531', '538', '539', '544', '558', '571', '574', '576', '582', '596', '603', '608', '621', '622', '631', '632', '639', '654', '668', '671', '675', '678', '686', '691', '698', '701', '717', '724', '733', '741', '742', '744', '749', '753', '754', '757', '773', '782', '792', '804', '809', '816', '819', '823', '829', '835', '841', '852', '856', '870', '875', '880', '881', '884', '892', '898', '904', '905', '906', '914', '916', '922', '923', '925', '929', '930', '931', '934', '943', '948', '955', '957', '959', '964', '971', '973', '978', '979', '981', '985']",False,1000,True,100,a969786c83,0.0,1.0,0.0
./expes/v4_2021-03-18_issda_1000-prng-1-w1-p100-ukn95_99,30_issda-1000,998,first-1000,250,25,rng,num-start-200,200,25726,ukn-95-99,19.0359468460083,False,,False,0.38990740973024446,0.3761670876688835,0.9552114070977611,100,"['2', '5', '9', '19', '22', '25', '26', '29', '32', '33', '37', '38', '42', '45', '47', '51', '58', '59', '61', '62', '70', '78', '85', '87', '94', '96', '105', '109', '116', '118', '131', '140', '144', '148', '156', '158', '161', '163', '166', '169', '171', '174', '177', '178', '181', '182', '187', '189', '196', '213', '216', '218', '228', '231', '233', '237', '242', '251', '254', '256', '258', '262', '266', '269', '271', '273', '275', '280', '286', '293', '311', '316', '317', '320', '324', '327', '333', '336', '346', '350', '353', '360', '363', '369', '370', '371', '372', '373', '376', '381', '383', '390', '395', '403', '410', '412', '417', '425', '430', '434', '442', '456', '457', '459', '460', '466', '468', '473', '477', '485', '492', '499', '501', '502', '511', '513', '515', '517', '520', '522', '523', '525', '527', '528', '531', '535', '536', '538', '539', '544', '558', '565', '571', '572', '574', '576', '582', '589', '596', '599', '603', '604', '606', '608', '620', '621', '622', '631', '632', '637', '639', '643', '654', '668', '669', '671', '675', '677', '678', '686', '689', '691', '698', '699', '701', '704', '709', '717', '723', '724', '733', '735', '741', '742', '744', '747', '749', '753', '754', '757', '758', '761', '763', '766', '773', '774', '778', '782', '785', '792', '800', '804', '808', '809', '814', '816', '819', '823', '829', '833', '835', '841', '845', '852', '856', '859', '870', '875', '880', '881', '884', '892', '896', '897', '898', '902', '904', '905', '906', '914', '916', '920', '922', '923', '924', '925', '929', '930', '931', '934', '938', '941', '943', '948', '955', '957', '959', '961', '964', '967', '971', '973', '978', '979', '981', '982', '983', '985', '994', '995']",False,1000,True,100,c3d509b50e,0.0,1.0,0.0
./expes/v4_2021-03-18_issda_1000-prng-1-w1-p100-ukn95_99,30_issda-1000,996,first-1000,400,40,rng,num-start-200,200,25726,ukn-95-99,17.67354679107666,False,,False,0.31190687392839483,0.10557280900008414,0.9365957375051759,100,"['4', '5', '6', '8', '10', '11', '14', '19', '21', '27', '28', '33', '36', '37', '38', '42', '43', '44', '45', '46', '48', '53', '55', '57', '61', '62', '64', '69', '77', '78', '80', '81', '82', '84', '85', '88', '89', '92', '93', '96', '98', '100', '104', '106', '109', '114', '116', '117', '118', '119', '120', '122', '124', '126', '131', '140', '143', '146', '149', '153', '154', '157', '159', '161', '163', '166', '167', '169', '170', '172', '173', '174', '177', '181', '182', '183', '185', '189', '193', '196', '197', '199', '200', '201', '204', '206', '207', '208', '211', '213', '214', '216', '217', '220', '221', '224', '225', '228', '235', '238', '239', '240', '242', '244', '248', '249', '252', '254', '255', '256', '257', '260', '261', '264', '265', '266', '267', '268', '269', '275', '276', '279', '283', '284', '285', '287', '288', '293', '296', '297', '298', '299', '300', '301', '304', '305', '308', '310', '311', '313', '318', '319', '320', '323', '329', '330', '331', '332', '333', '335', '339', '340', '345', '346', '347', '352', '356', '365', '366', '369', '372', '373', '374', '375', '381', '382', '391', '397', '398', '400', '402', '405', '406', '410', '412', '413', '414', '420', '421', '422', '423', '424', '426', '428', '431', '432', '433', '434', '435', '439', '441', '442', '445', '447', '450', '451', '452', '455', '463', '465', '466', '471', '474', '476', '483', '484', '485', '490', '491', '496', '499', '501', '503', '504', '507', '509', '511', '519', '521', '525', '532', '533', '534', '536', '539', '540', '541', '542', '548', '550', '555', '557', '559', '560', '561', '563', '564', '572', '575', '576', '579', '583', '584', '586', '587', '597', '603', '609', '610', '614', '616', '621', '622', '623', '625', '631', '633', '635', '636', '642', '643', '644', '648', '650', '651', '653', '657', '658', '663', '664', '668', '669', '670', '671', '673', '684', '685', '688', '690', '692', '694', '697', '703', '705', '713', '715', '718', '722', '724', '726', '728', '729', '733', '735', '739', '750', '753', '755', '763', '765', '777', '784', '786', '787', '789', '791', '793', '794', '796', '799', '802', '803', '804', '806', '807', '810', '817', '818', '819', '820', '821', '824', '827', '830', '833', '835', '838', '839', '847', '848', '849', '851', '855', '857', '858', '860', '861', '866', '868', '869', '876', '877', '879', '880', '881', '883', '886', '887', '889', '891', '892', '895', '896', '898', '899', '900', '901', '902', '903', '904', '907', '911', '913', '914', '916', '918', '921', '922', '923', '926', '927', '931', '936', '938', '939', '940', '945', '947', '950', '951', '953', '958', '964', '965', '966', '967', '968', '974', '978', '980', '983', '984', '985', '986', '988', '990', '992', '994', '995', '998']",False,1000,True,100,dd00279ad1,0.0,1.0,0.0
./expes/v4_2021-03-18_issda_1000-prng-1-w1-p100-ukn95_99,30_issda-1000,997,first-1000,300,30,rng,num-start-500,500,25726,ukn-95-99,64.34334301948547,False,,False,0.3700392392743583,0.3483108139759238,0.9451178700051548,100,"['2', '13', '14', '15', '17', '23', '24', '28', '34', '38', '40', '41', '42', '47', '60', '63', '64', '65', '71', '72', '74', '76', '81', '83', '85', '92', '94', '96', '98', '102', '104', '112', '119', '120', '121', '123', '127', '128', '134', '136', '139', '143', '144', '146', '150', '151', '154', '158', '163', '166', '174', '175', '180', '185', '189', '190', '192', '194', '195', '196', '200', '205', '209', '210', '216', '221', '224', '225', '226', '227', '228', '242', '245', '246', '248', '249', '250', '257', '266', '267', '278', '282', '283', '288', '289', '295', '298', '299', '309', '311', '318', '319', '324', '325', '328', '333', '334', '339', '341', '342', '344', '351', '359', '361', '363', '366', '367', '368', '380', '381', '395', '398', '401', '409', '415', '420', '425', '430', '431', '436', '437', '445', '447', '453', '454', '456', '459', '462', '469', '479', '482', '483', '484', '488', '489', '491', '494', '498', '499', '502', '505', '506', '516', '517', '521', '524', '534', '535', '538', '543', '546', '548', '554', '557', '558', '561', '562', '565', '566', '574', '575', '582', '583', '584', '588', '590', '594', '598', '602', '604', '605', '609', '611', '612', '617', '618', '621', '625', '626', '627', '628', '634', '636', '641', '646', '649', '650', '651', '656', '657', '663', '665', '667', '673', '674', '677', '682', '685', '689', '690', '693', '696', '697', '698', '700', '701', '708', '715', '717', '718', '721', '723', '724', '728', '733', '736', '737', '745', '748', '750', '757', '760', '767', '774', '776', '777', '781', '786', '802', '803', '804', '808', '813', '814', '818', '819', '820', '823', '825', '830', '832', '835', '836', '837', '842', '845', '846', '848', '849', '850', '851', '854', '856', '858', '859', '861', '863', '865', '866', '870', '871', '875', '876', '887', '889', '892', '896', '897', '898', '912', '914', '917', '920', '921', '922', '924', '927', '930', '932', '935', '938', '939', '940', '941', '944', '945', '946', '956', '959', '960', '970', '973', '977', '985', '987', '989', '990', '991', '992', '994']",False,1000,True,100,6257fbbefe,0.0,1.0,0.0
