expe,clients,clients_size,clients_subset,agg_size,agg_size_pc,method,days,days_size,days_total,noise_method,time,valid,valid_sum,success,score_avg,score_min,score_max,nsols,oracle,wall_hit,wall_time,pooled,pool_size,uuid,infeasible,optimal,valid_sums
./expes/v4_2021-03-18_issda_1000-prng-1-w1-p100-ukn95_99,30_issda-1000,998,first-1000,250,25,rng,num-start-700,700,25726,ukn-95-99,83.4699821472168,False,,False,0.41107401923635445,0.3990979699241749,0.9552114070977611,100,"['1', '5', '13', '24', '27', '39', '41', '48', '50', '51', '54', '56', '60', '61', '62', '63', '64', '65', '67', '69', '71', '72', '73', '75', '80', '83', '84', '85', '89', '93', '96', '97', '100', '104', '105', '106', '107', '113', '119', '120', '121', '126', '127', '129', '133', '137', '141', '148', '150', '153', '155', '156', '167', '169', '171', '173', '181', '185', '186', '187', '193', '196', '211', '213', '214', '220', '224', '227', '229', '237', '238', '239', '247', '250', '254', '255', '259', '270', '277', '285', '286', '289', '292', '295', '297', '307', '308', '316', '318', '322', '327', '332', '349', '351', '352', '356', '359', '364', '368', '371', '373', '375', '379', '382', '386', '390', '396', '401', '402', '404', '405', '407', '408', '409', '411', '412', '426', '429', '430', '432', '435', '438', '441', '445', '452', '457', '460', '465', '468', '473', '477', '478', '486', '492', '494', '497', '500', '501', '506', '507', '509', '520', '525', '528', '538', '545', '548', '549', '550', '554', '561', '563', '564', '565', '571', '572', '573', '574', '578', '580', '581', '585', '587', '589', '591', '592', '594', '596', '597', '600', '604', '609', '616', '617', '624', '625', '626', '629', '633', '634', '643', '646', '650', '655', '663', '667', '671', '675', '681', '685', '693', '697', '698', '699', '700', '708', '712', '714', '716', '719', '724', '730', '734', '747', '749', '757', '758', '776', '783', '787', '796', '799', '809', '814', '817', '818', '836', '838', '839', '841', '842', '847', '852', '861', '870', '880', '885', '892', '893', '896', '897', '905', '906', '909', '922', '932', '939', '946', '956', '964', '968', '971', '972', '974', '975', '976', '979', '981', '986', '1000']",False,1000,True,100,f9a5feabfc,0.0,1.0,0.0
./expes/v4_2021-03-18_issda_1000-prng-1-w1-p100-ukn95_99,30_issda-1000,996,first-1000,400,40,rng,num-start-900,900,25726,ukn-95-99,99.62603783607483,False,,False,0.3065050150784134,0.10557280900008414,0.9365957375051759,100,"['2', '3', '6', '9', '10', '13', '15', '18', '19', '22', '23', '25', '27', '29', '30', '31', '32', '34', '36', '37', '39', '41', '42', '45', '47', '49', '58', '61', '65', '67', '72', '73', '75', '79', '84', '86', '87', '89', '94', '97', '99', '102', '103', '105', '107', '111', '112', '113', '117', '118', '121', '124', '129', '133', '134', '137', '138', '139', '150', '151', '161', '163', '164', '165', '168', '171', '172', '173', '174', '175', '176', '178', '182', '186', '190', '191', '193', '195', '199', '205', '206', '211', '215', '218', '219', '222', '223', '225', '226', '228', '229', '230', '231', '233', '235', '236', '237', '238', '239', '241', '249', '256', '259', '260', '262', '265', '273', '274', '275', '276', '280', '284', '288', '289', '291', '297', '298', '299', '302', '303', '304', '306', '311', '314', '316', '318', '320', '326', '329', '330', '334', '336', '340', '341', '347', '348', '349', '350', '352', '353', '354', '355', '356', '362', '366', '374', '376', '377', '380', '384', '388', '389', '390', '391', '393', '396', '400', '403', '404', '405', '407', '412', '414', '415', '417', '424', '425', '427', '432', '433', '437', '440', '443', '444', '449', '450', '457', '461', '462', '464', '466', '469', '470', '471', '472', '481', '484', '486', '492', '493', '497', '500', '501', '502', '505', '508', '509', '512', '513', '515', '517', '518', '519', '520', '521', '522', '523', '525', '527', '529', '532', '534', '537', '541', '546', '548', '552', '553', '554', '555', '558', '561', '562', '564', '565', '567', '568', '570', '575', '577', '578', '579', '580', '583', '584', '585', '588', '590', '592', '593', '594', '599', '602', '604', '605', '606', '608', '615', '619', '621', '623', '624', '627', '628', '629', '630', '638', '639', '640', '645', '646', '647', '651', '658', '663', '664', '665', '666', '668', '673', '676', '680', '681', '682', '687', '690', '691', '692', '694', '695', '703', '704', '712', '713', '720', '721', '722', '729', '733', '737', '739', '742', '743', '744', '747', '748', '751', '756', '759', '761', '762', '773', '774', '778', '780', '781', '783', '786', '787', '789', '790', '795', '797', '798', '799', '801', '802', '803', '806', '808', '816', '817', '818', '822', '823', '824', '829', '831', '833', '837', '840', '841', '848', '849', '850', '853', '856', '858', '861', '862', '867', '868', '869', '871', '872', '874', '878', '879', '880', '881', '882', '887', '889', '891', '893', '897', '900', '903', '904', '908', '909', '913', '915', '918', '919', '922', '923', '924', '932', '933', '937', '939', '940', '943', '945', '948', '949', '954', '955', '959', '961', '962', '964', '967', '968', '973', '975', '976', '978', '981', '983', '986', '989', '991', '992', '993', '997', '998', '999', '1000']",False,1000,True,100,5e2ac07922,0.0,1.0,0.0
./expes/v4_2021-03-18_issda_1000-prng-1-w1-p100-ukn95_99,30_issda-1000,997,first-1000,300,30,rng,num-start-800,800,25726,ukn-95-99,76.04663610458374,False,,False,0.3538013019550537,0.33157861449952275,0.9451178700051548,100,"['2', '4', '6', '10', '12', '14', '19', '23', '24', '30', '33', '34', '36', '38', '48', '50', '54', '58', '59', '61', '65', '67', '68', '74', '81', '83', '92', '94', '95', '105', '110', '111', '116', '122', '130', '134', '136', '143', '145', '146', '150', '151', '152', '153', '161', '164', '166', '170', '171', '173', '174', '177', '181', '182', '183', '184', '185', '186', '187', '190', '202', '204', '210', '213', '214', '215', '221', '222', '244', '252', '253', '256', '257', '262', '263', '271', '272', '279', '281', '283', '287', '288', '296', '297', '299', '301', '302', '303', '306', '309', '314', '317', '318', '320', '322', '324', '325', '326', '334', '340', '343', '347', '349', '353', '354', '357', '359', '364', '365', '366', '367', '368', '370', '371', '372', '373', '374', '375', '377', '381', '382', '386', '387', '390', '393', '399', '414', '416', '418', '419', '424', '425', '429', '431', '432', '444', '445', '456', '461', '464', '465', '467', '474', '475', '477', '481', '482', '484', '486', '491', '493', '496', '498', '500', '504', '506', '512', '513', '515', '525', '526', '528', '531', '535', '538', '543', '545', '547', '553', '557', '559', '561', '562', '563', '573', '578', '588', '593', '595', '601', '602', '604', '609', '611', '616', '618', '626', '633', '636', '638', '639', '641', '642', '643', '646', '654', '660', '663', '665', '666', '667', '668', '680', '685', '688', '690', '695', '703', '705', '706', '708', '712', '714', '720', '722', '725', '734', '738', '739', '748', '749', '750', '756', '758', '759', '760', '767', '768', '774', '778', '781', '785', '789', '793', '794', '795', '800', '801', '805', '807', '815', '817', '818', '821', '837', '838', '839', '840', '842', '847', '849', '856', '857', '859', '861', '862', '864', '866', '873', '875', '881', '888', '889', '890', '891', '893', '894', '898', '915', '916', '919', '923', '924', '939', '941', '945', '946', '947', '952', '959', '960', '961', '962', '964', '965', '966', '969', '973', '978', '979', '980', '983', '984', '985', '989', '990', '992', '996', '999', '1000']",False,1000,True,100,97975b4fdb,0.0,1.0,0.0
./expes/v4_2021-03-18_issda_1000-prng-1-w1-p100-ukn95_99,30_issda-1000,1000,first-1000,50,5,rng,num-start-700,700,25726,ukn-95-99,1040.6709027290344,False,,False,0.8536655093340181,0.8049665719984442,1.0,17,"['42', '76', '98', '102', '104', '143', '144', '151', '224', '257', '266', '289', '311', '318', '339', '363', '367', '395', '415', '431', '484', '489', '498', '517', '524', '546', '574', '598', '617', '634', '701', '723', '748', '774', '777', '803', '819', '830', '850', '865', '871', '912', '914', '921', '924', '930', '932', '941', '989', '992']",True,1000,True,100,0d1125367b,0.0,0.0,0.0
