expe,clients,clients_size,clients_subset,agg_size,agg_size_pc,method,days,days_size,days_total,noise_method,time,valid,valid_sum,success,score_avg,score_min,score_max,nsols,oracle,wall_hit,wall_time,pooled,pool_size,uuid,infeasible,optimal,valid_sums
./expes/v2_2021-03-23_issda-30_2000-prng-1-w4-p2,30_issda-2000,2000,first-2000,500,25,rng,num-start-1000,1000,25726,classic,2334.957180261612,True,,True,1.0,1.0,1.0,1,"['2', '8', '11', '12', '14', '15', '17', '18', '25', '27', '31', '32', '36', '38', '40', '46', '49', '53', '54', '56', '59', '60', '61', '62', '70', '71', '74', '80', '84', '85', '89', '97', '100', '104', '106', '108', '109', '111', '113', '119', '121', '124', '125', '130', '132', '133', '135', '136', '137', '141', '142', '153', '155', '156', '161', '166', '167', '170', '171', '172', '173', '174', '176', '178', '180', '182', '189', '192', '194', '197', '203', '204', '205', '209', '212', '213', '218', '223', '226', '227', '228', '229', '230', '242', '246', '247', '249', '263', '266', '271', '272', '273', '282', '283', '284', '285', '289', '292', '298', '304', '305', '306', '322', '332', '333', '337', '345', '347', '350', '351', '354', '355', '361', '372', '382', '383', '387', '388', '394', '405', '406', '408', '409', '411', '416', '420', '428', '430', '431', '433', '438', '452', '453', '455', '456', '460', '466', '473', '474', '484', '485', '488', '498', '499', '507', '509', '515', '519', '526', '531', '538', '539', '547', '548', '550', '553', '562', '564', '567', '569', '576', '584', '595', '597', '603', '607', '615', '616', '617', '620', '630', '633', '646', '651', '659', '663', '666', '674', '675', '677', '684', '685', '687', '692', '693', '700', '709', '711', '712', '715', '724', '727', '747', '749', '750', '757', '761', '763', '764', '765', '776', '777', '782', '785', '786', '789', '791', '796', '797', '813', '816', '818', '822', '824', '825', '826', '833', '840', '843', '854', '855', '861', '864', '866', '870', '871', '878', '881', '888', '893', '900', '901', '910', '916', '920', '923', '925', '926', '929', '934', '936', '940', '946', '949', '950', '956', '958', '964', '971', '973', '974', '980', '985', '988', '1004', '1007', '1008', '1013', '1016', '1018', '1019', '1026', '1029', '1030', '1035', '1037', '1045', '1053', '1060', '1061', '1064', '1070', '1073', '1080', '1084', '1097', '1101', '1106', '1110', '1111', '1114', '1115', '1118', '1121', '1124', '1132', '1136', '1137', '1139', '1146', '1148', '1151', '1154', '1158', '1160', '1165', '1174', '1176', '1177', '1179', '1186', '1188', '1190', '1197', '1199', '1205', '1206', '1209', '1210', '1212', '1215', '1223', '1224', '1228', '1235', '1238', '1239', '1240', '1242', '1243', '1245', '1246', '1247', '1248', '1251', '1252', '1253', '1256', '1263', '1275', '1280', '1281', '1284', '1290', '1300', '1305', '1309', '1315', '1317', '1322', '1327', '1334', '1350', '1359', '1368', '1372', '1373', '1375', '1381', '1386', '1389', '1391', '1396', '1399', '1400', '1409', '1410', '1419', '1426', '1428', '1433', '1434', '1436', '1441', '1442', '1445', '1452', '1453', '1458', '1466', '1474', '1476', '1485', '1487', '1490', '1492', '1495', '1503', '1508', '1510', '1511', '1518', '1527', '1528', '1529', '1531', '1542', '1558', '1560', '1564', '1565', '1566', '1567', '1580', '1581', '1583', '1586', '1587', '1589', '1593', '1598', '1599', '1604', '1606', '1611', '1618', '1625', '1628', '1631', '1636', '1637', '1638', '1639', '1645', '1654', '1658', '1659', '1669', '1681', '1686', '1706', '1708', '1715', '1728', '1732', '1733', '1743', '1745', '1746', '1760', '1762', '1770', '1775', '1776', '1777', '1780', '1786', '1791', '1792', '1794', '1796', '1797', '1800', '1801', '1803', '1804', '1806', '1810', '1816', '1817', '1818', '1821', '1822', '1828', '1829', '1834', '1835', '1837', '1840', '1841', '1847', '1856', '1857', '1863', '1867', '1880', '1883', '1885', '1887', '1891', '1893', '1894', '1907', '1918', '1922', '1925', '1927', '1928', '1933', '1934', '1938', '1939', '1940', '1948', '1949', '1954', '1957', '1958', '1963', '1968', '1970', '1971', '1972', '1975', '1980', '1982', '1984', '1997', '1998', '2000']",False,8000,True,2,83cec3bdb5,0.0,1.0,1.0
./expes/v2_2021-03-23_issda-30_2000-prng-1-w4-p2,30_issda-2000,2000,first-2000,600,30,rng,num-start-2400,2400,25726,classic,1748.4569444656372,True,,True,1.0,1.0,1.0,1,"['5', '7', '8', '9', '11', '12', '20', '24', '27', '30', '32', '33', '45', '46', '54', '56', '60', '62', '63', '66', '69', '71', '74', '79', '80', '84', '88', '89', '90', '94', '97', '101', '105', '107', '108', '110', '111', '112', '114', '116', '125', '126', '138', '139', '141', '142', '145', '146', '151', '159', '160', '164', '166', '174', '178', '183', '184', '187', '188', '190', '191', '193', '194', '205', '206', '211', '214', '220', '225', '229', '230', '232', '237', '241', '249', '256', '257', '258', '259', '260', '263', '264', '265', '267', '268', '269', '273', '274', '277', '281', '286', '291', '294', '299', '300', '301', '302', '304', '306', '307', '309', '315', '318', '321', '322', '326', '328', '329', '337', '342', '343', '357', '362', '365', '366', '367', '368', '374', '380', '381', '384', '390', '391', '396', '398', '399', '400', '415', '416', '418', '422', '425', '426', '434', '435', '438', '439', '441', '442', '448', '452', '457', '461', '462', '463', '464', '465', '473', '474', '480', '483', '487', '488', '489', '500', '501', '502', '507', '509', '513', '515', '519', '520', '526', '527', '528', '530', '531', '535', '536', '537', '538', '539', '541', '549', '551', '556', '565', '566', '574', '575', '577', '581', '589', '593', '595', '596', '601', '604', '605', '606', '608', '610', '611', '614', '615', '617', '618', '622', '625', '628', '630', '631', '632', '637', '642', '643', '648', '650', '655', '661', '665', '671', '680', '682', '684', '686', '693', '697', '700', '703', '707', '709', '712', '715', '719', '722', '729', '730', '736', '740', '746', '751', '755', '756', '760', '761', '762', '764', '768', '769', '770', '771', '778', '781', '792', '794', '796', '798', '799', '806', '811', '813', '815', '831', '836', '839', '841', '847', '848', '849', '853', '864', '869', '870', '871', '872', '874', '875', '877', '878', '879', '880', '881', '882', '884', '890', '891', '895', '896', '901', '902', '903', '905', '909', '911', '912', '917', '919', '921', '922', '924', '941', '944', '945', '947', '949', '950', '956', '963', '966', '972', '976', '980', '981', '985', '987', '988', '992', '997', '998', '1006', '1017', '1018', '1020', '1023', '1026', '1027', '1033', '1045', '1048', '1052', '1059', '1063', '1065', '1066', '1067', '1068', '1070', '1071', '1074', '1075', '1078', '1079', '1080', '1082', '1087', '1088', '1089', '1090', '1091', '1092', '1093', '1094', '1096', '1098', '1100', '1113', '1117', '1118', '1120', '1121', '1126', '1127', '1136', '1138', '1140', '1147', '1150', '1156', '1158', '1159', '1168', '1170', '1171', '1172', '1174', '1175', '1183', '1184', '1185', '1186', '1188', '1190', '1195', '1199', '1205', '1207', '1210', '1211', '1213', '1218', '1219', '1222', '1224', '1229', '1236', '1241', '1246', '1247', '1250', '1252', '1257', '1265', '1269', '1271', '1272', '1275', '1285', '1287', '1289', '1292', '1298', '1308', '1309', '1313', '1315', '1318', '1322', '1330', '1332', '1334', '1336', '1338', '1339', '1342', '1344', '1346', '1351', '1365', '1366', '1367', '1372', '1374', '1377', '1381', '1387', '1395', '1396', '1401', '1402', '1404', '1416', '1424', '1430', '1432', '1435', '1436', '1437', '1438', '1442', '1445', '1447', '1452', '1460', '1461', '1463', '1465', '1467', '1468', '1472', '1473', '1477', '1481', '1485', '1488', '1489', '1491', '1493', '1500', '1502', '1504', '1506', '1508', '1513', '1515', '1517', '1526', '1527', '1533', '1536', '1538', '1547', '1553', '1557', '1561', '1564', '1569', '1570', '1577', '1583', '1585', '1588', '1589', '1592', '1595', '1602', '1607', '1608', '1611', '1613', '1626', '1627', '1633', '1635', '1636', '1641', '1643', '1645', '1646', '1649', '1651', '1653', '1657', '1659', '1664', '1668', '1669', '1674', '1679', '1680', '1682', '1683', '1687', '1688', '1689', '1691', '1693', '1696', '1703', '1707', '1709', '1710', '1713', '1716', '1717', '1720', '1721', '1733', '1739', '1740', '1741', '1745', '1748', '1749', '1760', '1765', '1766', '1769', '1775', '1777', '1778', '1779', '1781', '1785', '1795', '1797', '1810', '1813', '1815', '1816', '1817', '1820', '1822', '1823', '1827', '1829', '1832', '1833', '1839', '1840', '1845', '1847', '1848', '1851', '1855', '1857', '1858', '1863', '1865', '1866', '1869', '1870', '1873', '1881', '1886', '1887', '1897', '1901', '1909', '1911', '1912', '1916', '1920', '1922', '1931', '1945', '1949', '1951', '1954', '1958', '1963', '1965', '1970', '1982', '1983', '1987', '1989', '1990', '1996']",False,8000,True,2,fc87dc0ad9,0.0,1.0,1.0
./expes/v2_2021-03-23_issda-30_2000-prng-1-w4-p2,30_issda-2000,2000,first-2000,900,45,rng,num-start-1000,1000,25726,classic,3462.6381962299347,True,,True,1.0,1.0,1.0,1,"['7', '10', '11', '12', '15', '16', '17', '19', '20', '22', '24', '25', '32', '35', '37', '38', '40', '43', '49', '54', '55', '56', '57', '59', '61', '62', '63', '64', '67', '69', '70', '73', '74', '77', '80', '83', '84', '90', '94', '97', '101', '102', '103', '104', '105', '106', '107', '108', '110', '111', '114', '116', '117', '118', '120', '123', '124', '128', '131', '132', '135', '142', '145', '146', '147', '150', '151', '152', '154', '158', '159', '162', '163', '166', '168', '171', '174', '175', '178', '179', '180', '182', '183', '184', '191', '192', '193', '197', '201', '202', '203', '204', '206', '210', '213', '214', '216', '217', '218', '221', '222', '225', '226', '227', '232', '233', '234', '236', '240', '241', '250', '251', '252', '253', '255', '256', '257', '261', '263', '264', '265', '266', '269', '273', '277', '281', '282', '284', '287', '288', '289', '291', '293', '294', '295', '301', '305', '307', '308', '309', '310', '311', '314', '316', '319', '322', '331', '332', '333', '334', '335', '336', '337', '344', '346', '347', '349', '350', '353', '354', '355', '356', '357', '358', '359', '367', '376', '377', '383', '386', '387', '388', '392', '393', '394', '395', '396', '401', '402', '403', '404', '405', '407', '408', '411', '415', '417', '418', '420', '427', '430', '431', '433', '435', '437', '438', '439', '443', '444', '446', '448', '450', '452', '453', '455', '456', '461', '464', '466', '467', '470', '472', '474', '475', '479', '483', '484', '486', '489', '490', '496', '497', '499', '500', '508', '509', '510', '511', '512', '513', '514', '515', '517', '523', '526', '528', '529', '531', '532', '533', '535', '536', '538', '540', '541', '542', '543', '544', '545', '548', '549', '550', '552', '554', '559', '561', '563', '565', '566', '570', '574', '577', '581', '582', '584', '587', '591', '592', '594', '597', '599', '601', '602', '603', '604', '605', '607', '608', '609', '616', '618', '620', '621', '622', '623', '625', '630', '631', '632', '633', '634', '635', '636', '638', '639', '642', '645', '647', '648', '650', '651', '652', '654', '655', '658', '659', '660', '662', '663', '664', '667', '669', '670', '674', '675', '677', '678', '679', '681', '684', '685', '686', '687', '689', '691', '695', '696', '698', '703', '712', '713', '714', '720', '721', '726', '727', '728', '729', '731', '733', '734', '737', '741', '743', '746', '749', '752', '754', '757', '758', '762', '763', '768', '769', '770', '775', '776', '778', '781', '783', '784', '786', '787', '791', '792', '794', '796', '801', '802', '803', '805', '807', '817', '820', '823', '826', '827', '828', '829', '830', '831', '833', '834', '836', '837', '840', '842', '846', '848', '849', '850', '854', '858', '859', '860', '862', '865', '866', '867', '875', '876', '877', '878', '882', '887', '889', '893', '894', '895', '896', '897', '901', '904', '905', '907', '908', '912', '913', '915', '916', '920', '921', '924', '927', '928', '930', '933', '940', '941', '942', '945', '948', '950', '952', '954', '957', '958', '959', '962', '965', '967', '969', '970', '971', '972', '973', '974', '975', '978', '981', '984', '987', '989', '990', '992', '994', '996', '997', '998', '1001', '1002', '1003', '1008', '1010', '1011', '1012', '1013', '1016', '1018', '1021', '1025', '1026', '1027', '1028', '1029', '1033', '1034', '1037', '1039', '1040', '1042', '1053', '1054', '1056', '1057', '1060', '1061', '1063', '1064', '1065', '1068', '1070', '1072', '1075', '1076', '1077', '1080', '1082', '1083', '1087', '1089', '1090', '1091', '1092', '1095', '1096', '1099', '1100', '1103', '1104', '1105', '1106', '1107', '1109', '1111', '1113', '1114', '1115', '1116', '1121', '1122', '1126', '1129', '1132', '1133', '1134', '1135', '1138', '1139', '1141', '1143', '1145', '1146', '1147', '1153', '1154', '1155', '1156', '1161', '1164', '1166', '1171', '1172', '1178', '1180', '1182', '1184', '1185', '1188', '1190', '1191', '1192', '1193', '1197', '1200', '1201', '1202', '1209', '1211', '1212', '1213', '1215', '1226', '1227', '1228', '1229', '1231', '1234', '1237', '1238', '1241', '1243', '1245', '1247', '1250', '1252', '1253', '1254', '1255', '1256', '1262', '1264', '1265', '1267', '1271', '1272', '1280', '1281', '1282', '1283', '1284', '1288', '1295', '1296', '1297', '1298', '1300', '1302', '1304', '1309', '1312', '1315', '1320', '1324', '1325', '1326', '1327', '1330', '1332', '1333', '1339', '1340', '1345', '1347', '1348', '1349', '1350', '1353', '1355', '1359', '1365', '1367', '1383', '1386', '1388', '1390', '1393', '1395', '1398', '1402', '1403', '1404', '1405', '1412', '1416', '1419', '1433', '1434', '1435', '1442', '1443', '1445', '1446', '1447', '1449', '1453', '1455', '1456', '1458', '1459', '1460', '1462', '1464', '1465', '1466', '1472', '1476', '1478', '1482', '1484', '1485', '1489', '1493', '1497', '1499', '1505', '1507', '1508', '1510', '1511', '1513', '1514', '1522', '1523', '1525', '1526', '1529', '1531', '1532', '1533', '1534', '1535', '1537', '1540', '1541', '1543', '1546', '1547', '1550', '1552', '1553', '1554', '1556', '1557', '1561', '1563', '1564', '1565', '1566', '1567', '1568', '1569', '1572', '1573', '1575', '1579', '1581', '1582', '1584', '1585', '1586', '1591', '1594', '1598', '1600', '1602', '1603', '1604', '1607', '1610', '1611', '1613', '1614', '1618', '1619', '1622', '1626', '1627', '1628', '1630', '1635', '1636', '1637', '1640', '1642', '1643', '1644', '1645', '1647', '1649', '1653', '1655', '1657', '1658', '1659', '1661', '1662', '1664', '1665', '1666', '1668', '1669', '1670', '1671', '1673', '1676', '1679', '1680', '1682', '1684', '1688', '1689', '1692', '1693', '1696', '1698', '1699', '1702', '1703', '1705', '1710', '1711', '1715', '1718', '1719', '1724', '1725', '1727', '1731', '1732', '1734', '1738', '1742', '1744', '1745', '1746', '1747', '1749', '1753', '1755', '1756', '1757', '1759', '1761', '1769', '1772', '1774', '1776', '1777', '1778', '1779', '1780', '1783', '1786', '1789', '1791', '1793', '1794', '1795', '1800', '1804', '1805', '1808', '1813', '1814', '1815', '1819', '1821', '1822', '1823', '1829', '1830', '1835', '1837', '1838', '1840', '1841', '1842', '1844', '1845', '1847', '1848', '1849', '1856', '1857', '1858', '1859', '1861', '1862', '1864', '1870', '1872', '1878', '1880', '1881', '1884', '1885', '1888', '1891', '1892', '1893', '1897', '1898', '1900', '1903', '1904', '1905', '1907', '1911', '1917', '1920', '1923', '1924', '1925', '1926', '1927', '1930', '1931', '1936', '1943', '1944', '1948', '1949', '1951', '1952', '1955', '1957', '1958', '1960', '1961', '1962', '1964', '1966', '1968', '1970', '1971', '1974', '1975', '1976', '1978', '1981', '1982', '1987', '1990', '1992', '1994', '1995', '1996', '1997', '1998']",False,8000,True,2,33f06cfd7e,0.0,1.0,1.0
