expe,clients,clients_size,clients_subset,agg_size,agg_size_pc,method,days,days_size,days_total,noise_method,time,valid,valid_sum,success,score_avg,score_min,score_max,nsols,oracle,wall_hit,wall_time,pooled,pool_size,uuid,infeasible,optimal,valid_sums
./expes/v2_2021-03-23_issda-30_2000-prng-1-w4-p2,30_issda-2000,2000,first-2000,200,10,rng,num-start-2200,2200,25726,classic,1209.248908996582,True,,True,1.0,1.0,1.0,1,"['3', '29', '34', '68', '80', '83', '128', '129', '142', '152', '165', '169', '184', '187', '188', '192', '195', '203', '207', '224', '237', '240', '256', '267', '286', '287', '292', '301', '307', '350', '377', '383', '388', '390', '392', '417', '419', '441', '448', '452', '455', '483', '489', '496', '498', '500', '514', '531', '533', '534', '556', '564', '565', '578', '590', '595', '597', '618', '622', '636', '648', '650', '656', '665', '667', '677', '682', '683', '687', '725', '732', '734', '762', '789', '802', '817', '830', '859', '862', '890', '907', '912', '918', '923', '967', '976', '977', '996', '997', '1003', '1009', '1011', '1034', '1041', '1048', '1068', '1069', '1075', '1091', '1107', '1108', '1113', '1121', '1122', '1124', '1129', '1132', '1147', '1163', '1179', '1188', '1195', '1203', '1204', '1208', '1222', '1233', '1236', '1252', '1254', '1255', '1267', '1281', '1291', '1312', '1314', '1345', '1353', '1369', '1391', '1392', '1400', '1401', '1433', '1435', '1442', '1445', '1448', '1455', '1474', '1495', '1496', '1499', '1548', '1552', '1553', '1606', '1608', '1625', '1628', '1635', '1638', '1645', '1646', '1649', '1660', '1663', '1669', '1683', '1690', '1691', '1696', '1699', '1700', '1716', '1721', '1726', '1730', '1731', '1740', '1742', '1773', '1777', '1783', '1793', '1796', '1824', '1827', '1834', '1840', '1841', '1848', '1860', '1864', '1870', '1876', '1878', '1879', '1881', '1882', '1889', '1891', '1892', '1911', '1946', '1974', '1978', '1980', '1982', '1983']",False,8000,True,2,93c6624f23,0.0,1.0,1.0
./expes/v2_2021-03-23_issda-30_2000-prng-1-w4-p2,30_issda-2000,2000,first-2000,400,20,rng,num-start-1400,1400,25726,classic,3160.0610666275024,True,,True,1.0,1.0,1.0,1,"['6', '9', '11', '16', '31', '33', '34', '52', '66', '67', '68', '71', '73', '76', '90', '91', '92', '95', '104', '110', '114', '129', '133', '134', '135', '144', '148', '152', '156', '164', '166', '172', '183', '190', '196', '197', '198', '203', '217', '223', '232', '238', '239', '245', '273', '275', '279', '285', '286', '290', '294', '307', '312', '315', '321', '325', '329', '334', '338', '340', '341', '346', '357', '358', '361', '366', '374', '382', '391', '392', '393', '394', '397', '399', '400', '401', '410', '413', '423', '426', '428', '430', '451', '459', '460', '483', '487', '489', '491', '492', '494', '495', '497', '503', '505', '512', '522', '531', '537', '538', '540', '545', '547', '557', '563', '568', '569', '579', '581', '585', '593', '603', '607', '617', '620', '621', '628', '631', '632', '644', '655', '660', '662', '665', '672', '673', '680', '695', '700', '703', '712', '713', '715', '716', '717', '728', '738', '740', '743', '747', '750', '752', '766', '767', '769', '782', '783', '788', '795', '800', '804', '813', '821', '822', '829', '830', '837', '846', '849', '851', '852', '861', '862', '863', '864', '867', '868', '869', '874', '879', '888', '891', '892', '893', '894', '899', '900', '901', '904', '905', '913', '915', '916', '917', '918', '923', '930', '934', '936', '939', '940', '946', '948', '950', '956', '963', '977', '978', '981', '983', '984', '989', '994', '1003', '1004', '1007', '1016', '1018', '1023', '1024', '1027', '1028', '1038', '1040', '1065', '1066', '1067', '1069', '1070', '1071', '1072', '1076', '1093', '1097', '1099', '1104', '1106', '1109', '1116', '1125', '1128', '1138', '1139', '1145', '1156', '1162', '1167', '1168', '1171', '1172', '1177', '1179', '1184', '1194', '1198', '1203', '1206', '1212', '1216', '1219', '1220', '1224', '1232', '1234', '1235', '1236', '1241', '1243', '1246', '1249', '1250', '1257', '1265', '1268', '1285', '1288', '1310', '1317', '1329', '1331', '1335', '1336', '1338', '1339', '1348', '1353', '1356', '1361', '1366', '1373', '1380', '1381', '1383', '1395', '1402', '1405', '1408', '1413', '1424', '1430', '1438', '1460', '1471', '1475', '1476', '1479', '1480', '1488', '1503', '1508', '1515', '1517', '1523', '1524', '1526', '1527', '1535', '1539', '1556', '1565', '1571', '1573', '1579', '1582', '1583', '1584', '1587', '1589', '1593', '1604', '1612', '1616', '1620', '1626', '1633', '1638', '1641', '1648', '1654', '1659', '1661', '1664', '1666', '1673', '1674', '1676', '1682', '1687', '1688', '1694', '1695', '1698', '1699', '1707', '1714', '1725', '1729', '1736', '1737', '1744', '1748', '1752', '1759', '1762', '1766', '1768', '1772', '1781', '1785', '1786', '1792', '1818', '1819', '1821', '1830', '1837', '1839', '1840', '1853', '1856', '1860', '1863', '1865', '1866', '1870', '1871', '1874', '1884', '1886', '1890', '1893', '1911', '1917', '1928', '1932', '1937', '1941', '1948', '1951', '1952', '1956', '1971', '1974', '1976', '1984', '1986', '1987', '1988', '1995', '1997']",False,8000,True,2,7bd1f6d2ab,0.0,1.0,1.0
