expe,clients,clients_size,clients_subset,agg_size,method,days,days_size,days_total,time,valid,valid_sum,success,nsols,wall_hit,wall_time,pooled,valid_sums
./expes/v2_2020-11-23_di_50-prng-1,daily_issda_50,50,rng-50,31,rng,num-start-291,291,536,1.5008938312530518,True,,True,1,False,1000,True,1.0
./expes/v2_2020-11-23_di_50-prng-1,daily_issda_50,50,rng-50,11,rng,num-start-81,81,536,0.5323488712310791,True,,True,1,False,1000,True,1.0
./expes/v2_2020-11-23_di_50-prng-1,daily_issda_50,50,rng-50,41,rng,num-start-91,91,536,0.5785930156707764,True,,True,1,False,1000,True,1.0
./expes/v2_2020-11-23_di_50-prng-1,daily_issda_50,50,rng-50,21,rng,num-start-51,51,536,0.3470015525817871,True,,True,1,False,1000,True,1.0
./expes/v2_2020-11-23_di_50-prng-1,daily_issda_50,50,rng-50,31,rng,num-start-151,151,536,0.8836946487426758,True,,True,1,False,1000,True,1.0
./expes/v2_2020-11-23_di_50-prng-1,daily_issda_50,50,rng-50,41,rng,num-start-171,171,536,0.976679801940918,True,,True,1,False,1000,True,1.0
./expes/v2_2020-11-23_di_50-prng-1,daily_issda_50,50,rng-50,11,rng,num-start-61,61,536,0.4045252799987793,True,,True,1,False,1000,True,1.0
./expes/v2_2020-11-23_di_50-prng-1,daily_issda_50,50,rng-50,41,rng,num-start-81,81,536,0.5118198394775391,True,,True,1,False,1000,True,1.0
./expes/v2_2020-11-23_di_50-prng-1,daily_issda_50,50,rng-50,11,rng,num-start-241,241,536,1.1904454231262207,True,,True,1,False,1000,True,1.0
./expes/v2_2020-11-23_di_50-prng-1,daily_issda_50,50,rng-50,21,rng,num-start-221,221,536,1.0913810729980469,True,,True,1,False,1000,True,1.0
./expes/v2_2020-11-23_di_50-prng-1,daily_issda_50,50,rng-50,21,rng,num-start-11,11,536,2.7416529655456543,True,,True,1,False,1000,True,1.0
./expes/v2_2020-11-23_di_50-prng-1,daily_issda_50,50,rng-50,21,rng,num-start-281,281,536,1.4251675605773926,True,,True,1,False,1000,True,1.0
./expes/v2_2020-11-23_di_50-prng-1,daily_issda_50,50,rng-50,41,rng,num-start-31,31,536,0.28206825256347656,True,,True,1,False,1000,True,1.0
./expes/v2_2020-11-23_di_50-prng-1,daily_issda_50,50,rng-50,1,rng,num-start-171,171,536,0.8974037170410156,True,,True,1,False,1000,True,1.0
./expes/v2_2020-11-23_di_50-prng-1,daily_issda_50,50,rng-50,11,rng,num-start-261,261,536,1.3293235301971436,True,,True,1,False,1000,True,1.0
./expes/v2_2020-11-23_di_50-prng-1,daily_issda_50,50,rng-50,1,rng,num-start-221,221,536,1.0620510578155518,True,,True,1,False,1000,True,1.0
./expes/v2_2020-11-23_di_50-prng-1,daily_issda_50,50,rng-50,11,rng,num-start-81,81,536,0.4933159351348877,True,,True,1,False,1000,True,1.0
./expes/v2_2020-11-23_di_50-prng-1,daily_issda_50,50,rng-50,41,rng,num-start-91,91,536,0.5756933689117432,True,,True,1,False,1000,True,1.0
./expes/v2_2020-11-23_di_50-prng-1,daily_issda_50,50,rng-50,11,rng,num-start-211,211,536,1.0317046642303467,True,,True,1,False,1000,True,1.0
./expes/v2_2020-11-23_di_50-prng-1,daily_issda_50,50,rng-50,41,rng,num-start-151,151,536,0.8754029273986816,True,,True,1,False,1000,True,1.0
./expes/v2_2020-11-23_di_50-prng-1,daily_issda_50,50,rng-50,41,rng,num-start-51,51,536,0.3244614601135254,True,,True,1,False,1000,True,1.0
./expes/v2_2020-11-23_di_50-prng-1,daily_issda_50,50,rng-50,41,rng,num-start-191,191,536,1.107750415802002,True,,True,1,False,1000,True,1.0
./expes/v2_2020-11-23_di_50-prng-1,daily_issda_50,50,rng-50,21,rng,num-start-81,81,536,0.49093151092529297,True,,True,1,False,1000,True,1.0
./expes/v2_2020-11-23_di_50-prng-1,daily_issda_50,50,rng-50,21,rng,num-start-241,241,536,1.1900370121002197,True,,True,1,False,1000,True,1.0
./expes/v2_2020-11-23_di_50-prng-1,daily_issda_50,50,rng-50,41,rng,num-start-141,141,536,0.8099548816680908,True,,True,1,False,1000,True,1.0
./expes/v2_2020-11-23_di_50-prng-1,daily_issda_50,50,rng-50,11,rng,num-start-221,221,536,1.0867202281951904,True,,True,1,False,1000,True,1.0
./expes/v2_2020-11-23_di_50-prng-1,daily_issda_50,50,rng-50,11,rng,num-start-201,201,536,1.1243252754211426,True,,True,1,False,1000,True,1.0
./expes/v2_2020-11-23_di_50-prng-1,daily_issda_50,50,rng-50,31,rng,num-start-121,121,536,0.681527853012085,True,,True,1,False,1000,True,1.0
./expes/v2_2020-11-23_di_50-prng-1,daily_issda_50,50,rng-50,1,rng,num-start-131,131,536,0.6343765258789062,True,,True,1,False,1000,True,1.0
./expes/v2_2020-11-23_di_50-prng-1,daily_issda_50,50,rng-50,11,rng,num-start-251,251,536,1.2225298881530762,True,,True,1,False,1000,True,1.0
./expes/v2_2020-11-23_di_50-prng-1,daily_issda_50,50,rng-50,1,rng,num-start-91,91,536,0.4359428882598877,True,,True,1,False,1000,True,1.0
./expes/v2_2020-11-23_di_50-prng-1,daily_issda_50,50,rng-50,21,rng,num-start-61,61,536,0.392319917678833,True,,True,1,False,1000,True,1.0
./expes/v2_2020-11-23_di_50-prng-1,daily_issda_50,50,rng-50,21,rng,num-start-51,51,536,0.35019826889038086,True,,True,1,False,1000,True,1.0
./expes/v2_2020-11-23_di_50-prng-1,daily_issda_50,50,rng-50,11,rng,num-start-151,151,536,0.8632373809814453,True,,True,1,False,1000,True,1.0
