expe,clients,clients_size,clients_subset,agg_size,agg_size_pc,method,days,days_size,days_total,noise_method,time,valid,valid_sum,success,score_avg,score_min,score_max,nsols,oracle,wall_hit,wall_time,pooled,pool_size,uuid,infeasible,optimal,valid_sums
./expes/v2_2021-03-26_issda-30_2000-prng-1-w4-p2,30_issda-2000,2000,first-2000,600,30,rng,num-start-3200,3200,25726,classic,2153.4893600940704,True,,True,1.0,1.0,1.0,1,"['4', '5', '12', '18', '19', '21', '22', '26', '30', '35', '36', '37', '38', '42', '43', '45', '46', '49', '53', '56', '58', '59', '60', '61', '63', '66', '67', '71', '73', '77', '78', '81', '82', '83', '85', '90', '94', '98', '115', '121', '129', '130', '132', '134', '143', '145', '146', '149', '150', '154', '157', '158', '167', '168', '171', '174', '178', '184', '186', '188', '189', '193', '198', '203', '205', '206', '207', '210', '211', '214', '219', '221', '222', '223', '225', '229', '234', '235', '236', '237', '242', '248', '257', '258', '259', '265', '268', '273', '276', '277', '278', '290', '291', '300', '302', '307', '316', '322', '325', '326', '327', '329', '332', '336', '342', '343', '345', '346', '348', '349', '352', '355', '363', '368', '371', '376', '379', '381', '383', '385', '386', '389', '398', '408', '409', '410', '411', '412', '421', '422', '424', '426', '429', '430', '435', '437', '441', '444', '446', '449', '451', '452', '455', '458', '459', '462', '465', '466', '469', '471', '473', '476', '478', '481', '482', '491', '495', '498', '500', '502', '504', '505', '512', '513', '517', '519', '520', '523', '530', '531', '546', '547', '549', '551', '552', '559', '568', '576', '577', '582', '594', '595', '596', '597', '602', '603', '604', '606', '607', '608', '611', '612', '621', '622', '626', '628', '629', '630', '632', '636', '639', '642', '645', '648', '649', '650', '651', '655', '656', '657', '658', '660', '667', '671', '672', '679', '681', '682', '685', '694', '695', '697', '699', '704', '705', '706', '708', '709', '711', '724', '729', '731', '736', '739', '747', '748', '752', '754', '759', '768', '775', '777', '778', '779', '781', '786', '792', '799', '800', '802', '806', '807', '809', '814', '817', '823', '824', '828', '829', '833', '847', '849', '853', '863', '865', '873', '874', '880', '885', '887', '892', '897', '899', '913', '918', '921', '922', '924', '928', '932', '934', '938', '939', '941', '942', '944', '961', '962', '968', '971', '977', '984', '986', '993', '994', '1000', '1002', '1003', '1009', '1011', '1015', '1016', '1017', '1023', '1024', '1026', '1027', '1029', '1033', '1034', '1035', '1037', '1040', '1042', '1043', '1045', '1050', '1053', '1054', '1058', '1063', '1067', '1073', '1081', '1091', '1095', '1103', '1106', '1107', '1109', '1110', '1112', '1115', '1116', '1118', '1122', '1123', '1124', '1127', '1128', '1129', '1133', '1136', '1140', '1149', '1150', '1154', '1156', '1157', '1160', '1166', '1168', '1169', '1175', '1177', '1180', '1184', '1185', '1186', '1188', '1197', '1202', '1204', '1207', '1210', '1211', '1212', '1215', '1221', '1222', '1229', '1230', '1232', '1233', '1237', '1241', '1245', '1248', '1253', '1254', '1255', '1257', '1260', '1266', '1276', '1277', '1280', '1289', '1292', '1293', '1302', '1316', '1318', '1326', '1328', '1329', '1331', '1335', '1336', '1345', '1351', '1352', '1356', '1360', '1362', '1363', '1364', '1373', '1374', '1377', '1379', '1381', '1382', '1383', '1387', '1389', '1395', '1406', '1408', '1410', '1424', '1426', '1439', '1440', '1441', '1442', '1444', '1453', '1457', '1458', '1465', '1473', '1478', '1480', '1483', '1486', '1487', '1488', '1494', '1496', '1501', '1511', '1512', '1517', '1522', '1524', '1538', '1543', '1545', '1548', '1555', '1559', '1562', '1565', '1572', '1573', '1578', '1579', '1589', '1590', '1593', '1594', '1595', '1597', '1598', '1602', '1603', '1605', '1608', '1609', '1611', '1612', '1615', '1616', '1618', '1623', '1624', '1629', '1631', '1633', '1634', '1636', '1643', '1644', '1646', '1647', '1648', '1652', '1654', '1656', '1658', '1662', '1666', '1673', '1674', '1676', '1679', '1680', '1681', '1682', '1683', '1692', '1696', '1697', '1700', '1705', '1710', '1712', '1716', '1721', '1722', '1723', '1724', '1731', '1734', '1735', '1736', '1738', '1742', '1744', '1748', '1756', '1757', '1759', '1760', '1762', '1764', '1767', '1773', '1774', '1777', '1778', '1782', '1786', '1794', '1800', '1805', '1808', '1813', '1815', '1818', '1825', '1826', '1830', '1831', '1835', '1837', '1843', '1845', '1847', '1850', '1858', '1863', '1864', '1865', '1866', '1871', '1873', '1877', '1879', '1883', '1885', '1887', '1889', '1895', '1896', '1897', '1898', '1907', '1910', '1918', '1921', '1922', '1924', '1927', '1928', '1933', '1934', '1936', '1945', '1946', '1950', '1951', '1955', '1956', '1961', '1966', '1971', '1976', '1978', '1980', '1981', '1983', '1985', '1987', '1988', '1994', '1995', '1998', '1999']",False,4000,True,2,05582cb973,0.0,1.0,1.0
./expes/v2_2021-03-26_issda-30_2000-prng-1-w4-p2,30_issda-2000,2000,first-2000,700,35,rng,num-start-800,800,25726,classic,4145.175637960434,False,,False,0,,,0,"['4', '8', '10', '11', '15', '16', '24', '27', '32', '37', '41', '42', '44', '46', '48', '49', '53', '56', '57', '58', '59', '61', '64', '65', '67', '68', '70', '72', '73', '74', '75', '76', '87', '88', '89', '91', '93', '94', '95', '102', '103', '105', '109', '110', '113', '124', '125', '126', '130', '132', '135', '137', '140', '141', '142', '147', '149', '157', '158', '159', '160', '164', '171', '176', '177', '182', '187', '189', '190', '197', '199', '200', '204', '205', '209', '211', '212', '214', '215', '219', '222', '223', '231', '233', '236', '242', '244', '245', '246', '248', '249', '251', '253', '254', '255', '256', '257', '260', '262', '264', '266', '267', '268', '270', '273', '275', '279', '280', '282', '284', '294', '295', '301', '306', '309', '311', '320', '322', '327', '329', '333', '335', '347', '348', '351', '352', '353', '364', '366', '367', '369', '370', '376', '380', '382', '384', '389', '391', '392', '393', '405', '407', '408', '409', '411', '422', '431', '433', '445', '446', '447', '448', '453', '455', '456', '460', '461', '466', '471', '475', '476', '480', '481', '482', '484', '487', '488', '489', '490', '491', '496', '501', '502', '509', '512', '514', '515', '518', '521', '523', '529', '530', '532', '537', '540', '541', '542', '543', '547', '548', '550', '551', '552', '554', '555', '556', '561', '563', '571', '572', '573', '583', '584', '588', '592', '595', '598', '602', '606', '612', '614', '615', '616', '617', '621', '623', '630', '635', '641', '642', '643', '645', '646', '647', '653', '656', '660', '662', '665', '667', '669', '672', '674', '678', '679', '681', '684', '686', '690', '695', '696', '697', '699', '700', '705', '708', '710', '718', '719', '720', '721', '723', '731', '738', '739', '746', '749', '753', '755', '757', '758', '763', '765', '767', '769', '770', '771', '772', '773', '774', '778', '779', '784', '791', '794', '797', '798', '799', '801', '807', '809', '813', '814', '820', '822', '835', '836', '839', '841', '846', '847', '848', '851', '854', '857', '860', '862', '863', '867', '871', '873', '875', '878', '881', '884', '886', '890', '892', '894', '896', '898', '908', '911', '924', '927', '931', '935', '936', '943', '944', '951', '952', '955', '958', '959', '961', '964', '969', '970', '971', '976', '978', '982', '983', '986', '987', '988', '989', '991', '996', '999', '1003', '1004', '1014', '1017', '1020', '1025', '1029', '1031', '1036', '1039', '1045', '1048', '1050', '1056', '1060', '1062', '1063', '1065', '1066', '1068', '1072', '1076', '1080', '1081', '1084', '1085', '1086', '1090', '1094', '1095', '1097', '1098', '1100', '1102', '1108', '1109', '1110', '1114', '1115', '1124', '1126', '1127', '1129', '1134', '1136', '1138', '1140', '1141', '1145', '1146', '1155', '1156', '1161', '1164', '1165', '1166', '1168', '1170', '1172', '1175', '1176', '1178', '1182', '1186', '1188', '1189', '1190', '1197', '1198', '1199', '1200', '1201', '1202', '1204', '1206', '1207', '1208', '1209', '1211', '1214', '1219', '1220', '1227', '1228', '1229', '1231', '1232', '1237', '1238', '1240', '1241', '1247', '1251', '1254', '1259', '1262', '1266', '1269', '1271', '1274', '1276', '1282', '1284', '1285', '1286', '1287', '1288', '1295', '1297', '1298', '1299', '1300', '1301', '1304', '1309', '1315', '1317', '1319', '1320', '1323', '1325', '1328', '1331', '1332', '1337', '1339', '1343', '1351', '1357', '1358', '1363', '1368', '1375', '1376', '1377', '1380', '1381', '1383', '1384', '1385', '1389', '1390', '1392', '1395', '1397', '1401', '1405', '1413', '1415', '1416', '1421', '1422', '1424', '1425', '1427', '1429', '1430', '1431', '1434', '1436', '1437', '1440', '1444', '1445', '1448', '1460', '1462', '1463', '1465', '1466', '1467', '1468', '1469', '1470', '1472', '1473', '1476', '1477', '1481', '1492', '1493', '1499', '1503', '1504', '1506', '1512', '1519', '1520', '1521', '1527', '1531', '1532', '1533', '1534', '1541', '1543', '1544', '1549', '1550', '1551', '1553', '1557', '1560', '1572', '1575', '1582', '1586', '1588', '1589', '1591', '1592', '1596', '1597', '1598', '1603', '1604', '1612', '1613', '1615', '1620', '1622', '1623', '1626', '1629', '1636', '1637', '1640', '1641', '1645', '1647', '1651', '1652', '1653', '1654', '1659', '1660', '1662', '1663', '1666', '1673', '1679', '1683', '1687', '1696', '1704', '1706', '1707', '1708', '1710', '1713', '1714', '1716', '1718', '1724', '1728', '1729', '1741', '1744', '1746', '1749', '1750', '1752', '1753', '1754', '1755', '1756', '1758', '1759', '1763', '1764', '1765', '1767', '1769', '1770', '1772', '1773', '1776', '1778', '1781', '1782', '1783', '1788', '1800', '1802', '1803', '1804', '1805', '1807', '1810', '1813', '1816', '1817', '1818', '1822', '1823', '1824', '1825', '1837', '1838', '1839', '1843', '1847', '1851', '1852', '1853', '1862', '1866', '1870', '1872', '1876', '1878', '1879', '1885', '1886', '1887', '1888', '1889', '1893', '1897', '1900', '1903', '1904', '1913', '1914', '1915', '1917', '1918', '1923', '1924', '1927', '1928', '1931', '1932', '1941', '1944', '1946', '1947', '1948', '1951', '1953', '1956', '1957', '1961', '1962', '1964', '1967', '1968', '1973', '1975', '1976', '1978', '1980', '1981', '1985', '1989', '1990', '1991', '1993', '1997']",True,4000,True,2,33deb9d1a6,0.0,0.0,0.0
./expes/v2_2021-03-26_issda-30_2000-prng-1-w4-p2,30_issda-2000,2000,first-2000,1000,50,rng,num-start-3400,3400,25726,classic,2583.7811698913574,True,,True,1.0,1.0,1.0,1,"['2', '4', '5', '8', '9', '11', '12', '16', '18', '19', '21', '22', '23', '26', '28', '30', '32', '35', '36', '37', '38', '39', '41', '42', '43', '44', '45', '46', '48', '49', '50', '53', '56', '58', '59', '60', '61', '63', '64', '66', '67', '71', '72', '73', '77', '78', '81', '82', '83', '84', '85', '90', '93', '94', '95', '98', '99', '100', '102', '107', '114', '115', '117', '121', '128', '129', '130', '132', '134', '138', '139', '140', '141', '143', '145', '146', '147', '149', '150', '151', '154', '157', '158', '162', '167', '168', '171', '172', '174', '175', '178', '183', '184', '186', '188', '189', '191', '193', '196', '198', '202', '203', '205', '206', '207', '210', '211', '214', '218', '219', '221', '222', '223', '225', '228', '229', '232', '234', '235', '236', '237', '238', '242', '245', '248', '250', '253', '254', '257', '258', '259', '265', '268', '273', '276', '277', '278', '280', '283', '284', '285', '290', '291', '298', '300', '302', '304', '307', '312', '316', '320', '322', '324', '325', '326', '327', '328', '329', '332', '333', '336', '337', '338', '339', '340', '342', '343', '345', '346', '348', '349', '352', '353', '354', '355', '362', '363', '364', '365', '368', '371', '376', '379', '381', '383', '385', '386', '389', '398', '402', '405', '408', '409', '410', '411', '412', '418', '420', '421', '422', '423', '424', '426', '428', '429', '430', '434', '435', '437', '438', '441', '444', '446', '449', '450', '451', '452', '455', '456', '458', '459', '461', '462', '463', '465', '466', '467', '469', '471', '473', '475', '476', '478', '479', '481', '482', '483', '486', '489', '491', '493', '494', '495', '497', '498', '500', '501', '502', '504', '505', '507', '508', '509', '512', '513', '514', '517', '518', '519', '520', '523', '529', '530', '531', '532', '534', '537', '542', '546', '547', '548', '549', '551', '552', '553', '554', '555', '559', '560', '563', '564', '565', '568', '569', '576', '577', '581', '582', '584', '589', '594', '595', '596', '597', '602', '603', '604', '606', '607', '608', '609', '611', '612', '613', '614', '621', '622', '624', '625', '626', '628', '629', '630', '632', '635', '636', '638', '639', '641', '642', '645', '648', '649', '650', '651', '655', '656', '657', '658', '659', '660', '663', '667', '671', '672', '676', '677', '679', '681', '682', '684', '685', '689', '691', '694', '695', '696', '697', '699', '702', '704', '705', '706', '708', '709', '711', '713', '716', '718', '724', '727', '728', '729', '731', '732', '736', '737', '739', '740', '747', '748', '752', '754', '755', '756', '759', '762', '766', '768', '773', '774', '775', '776', '777', '778', '779', '781', '784', '785', '786', '787', '792', '794', '798', '799', '800', '802', '804', '806', '807', '809', '811', '814', '815', '817', '818', '819', '820', '821', '822', '823', '824', '825', '828', '829', '830', '833', '834', '837', '838', '843', '845', '847', '849', '853', '854', '861', '863', '865', '866', '873', '874', '880', '881', '884', '885', '887', '892', '896', '897', '898', '899', '900', '903', '906', '907', '909', '912', '913', '915', '918', '921', '922', '924', '926', '928', '929', '932', '934', '938', '939', '941', '942', '944', '946', '947', '948', '952', '957', '959', '961', '962', '968', '971', '977', '981', '984', '986', '991', '993', '994', '995', '996', '1000', '1002', '1003', '1006', '1009', '1010', '1011', '1013', '1014', '1015', '1016', '1017', '1023', '1024', '1025', '1026', '1027', '1029', '1031', '1033', '1034', '1035', '1037', '1039', '1040', '1042', '1043', '1045', '1046', '1047', '1048', '1050', '1053', '1054', '1055', '1058', '1059', '1063', '1067', '1072', '1073', '1074', '1078', '1079', '1081', '1082', '1083', '1088', '1091', '1094', '1095', '1101', '1102', '1103', '1105', '1106', '1107', '1109', '1110', '1111', '1112', '1115', '1116', '1117', '1118', '1121', '1122', '1123', '1124', '1125', '1127', '1128', '1129', '1132', '1133', '1136', '1140', '1141', '1143', '1146', '1148', '1149', '1150', '1154', '1156', '1157', '1160', '1166', '1167', '1168', '1169', '1170', '1171', '1173', '1175', '1177', '1180', '1184', '1185', '1186', '1187', '1188', '1189', '1191', '1197', '1200', '1202', '1204', '1207', '1210', '1211', '1212', '1215', '1216', '1218', '1221', '1222', '1224', '1226', '1229', '1230', '1231', '1232', '1233', '1237', '1240', '1241', '1242', '1245', '1248', '1249', '1250', '1251', '1252', '1253', '1254', '1255', '1256', '1257', '1260', '1264', '1266', '1270', '1274', '1275', '1276', '1277', '1280', '1282', '1286', '1288', '1289', '1290', '1292', '1293', '1298', '1302', '1303', '1305', '1309', '1312', '1316', '1318', '1322', '1324', '1326', '1327', '1328', '1329', '1330', '1331', '1335', '1336', '1338', '1339', '1345', '1346', '1350', '1351', '1352', '1353', '1354', '1356', '1358', '1360', '1362', '1363', '1364', '1368', '1370', '1373', '1374', '1377', '1379', '1381', '1382', '1383', '1387', '1388', '1389', '1390', '1395', '1396', '1397', '1400', '1403', '1406', '1407', '1408', '1410', '1411', '1413', '1415', '1417', '1419', '1424', '1426', '1432', '1433', '1435', '1437', '1439', '1440', '1441', '1442', '1444', '1448', '1451', '1453', '1455', '1457', '1458', '1459', '1460', '1462', '1464', '1465', '1466', '1467', '1469', '1471', '1472', '1473', '1474', '1478', '1480', '1483', '1484', '1486', '1487', '1488', '1492', '1494', '1495', '1496', '1498', '1500', '1501', '1503', '1506', '1509', '1510', '1511', '1512', '1513', '1516', '1517', '1522', '1524', '1526', '1528', '1529', '1531', '1534', '1536', '1538', '1539', '1541', '1543', '1545', '1548', '1552', '1554', '1555', '1559', '1560', '1562', '1564', '1565', '1569', '1572', '1573', '1576', '1578', '1579', '1589', '1590', '1593', '1594', '1595', '1596', '1597', '1598', '1602', '1603', '1604', '1605', '1608', '1609', '1611', '1612', '1615', '1616', '1618', '1621', '1623', '1624', '1625', '1626', '1629', '1631', '1633', '1634', '1635', '1636', '1643', '1644', '1646', '1647', '1648', '1650', '1652', '1654', '1655', '1656', '1657', '1658', '1661', '1662', '1666', '1669', '1670', '1673', '1674', '1676', '1679', '1680', '1681', '1682', '1683', '1689', '1692', '1696', '1697', '1698', '1699', '1700', '1702', '1705', '1706', '1710', '1711', '1712', '1713', '1716', '1721', '1722', '1723', '1724', '1725', '1729', '1731', '1732', '1734', '1735', '1736', '1737', '1738', '1739', '1742', '1743', '1744', '1745', '1748', '1752', '1753', '1754', '1756', '1757', '1759', '1760', '1762', '1764', '1766', '1767', '1773', '1774', '1776', '1777', '1778', '1779', '1782', '1784', '1786', '1790', '1794', '1795', '1797', '1800', '1801', '1803', '1805', '1806', '1808', '1809', '1813', '1815', '1817', '1818', '1821', '1825', '1826', '1829', '1830', '1831', '1835', '1837', '1839', '1842', '1843', '1845', '1847', '1850', '1851', '1852', '1858', '1862', '1863', '1864', '1865', '1866', '1870', '1871', '1872', '1873', '1877', '1879', '1880', '1882', '1883', '1885', '1886', '1887', '1888', '1889', '1891', '1893', '1895', '1896', '1897', '1898', '1901', '1902', '1905', '1907', '1910', '1911', '1912', '1918', '1920', '1921', '1922', '1924', '1926', '1927', '1928', '1929', '1933', '1934', '1936', '1937', '1938', '1945', '1946', '1950', '1951', '1955', '1956', '1957', '1959', '1961', '1965', '1966', '1967', '1971', '1974', '1975', '1976', '1977', '1978', '1980', '1981', '1982', '1983', '1985', '1987', '1988', '1990', '1992', '1993', '1994', '1995', '1996', '1997', '1998', '1999', '2000']",False,4000,True,2,a576a15c7e,0.0,1.0,1.0
./expes/v2_2021-03-26_issda-30_2000-prng-1-w4-p2,30_issda-2000,2000,first-2000,400,20,rng,num-start-4000,4000,25726,classic,2455.414124727249,True,,True,1.0,1.0,1.0,1,"['1', '3', '4', '5', '7', '26', '28', '29', '30', '31', '34', '45', '47', '55', '65', '68', '75', '80', '81', '83', '93', '94', '96', '103', '119', '126', '128', '129', '131', '142', '144', '148', '152', '162', '165', '166', '169', '171', '184', '187', '188', '192', '195', '201', '203', '206', '207', '208', '224', '237', '238', '240', '241', '244', '246', '254', '255', '256', '267', '268', '272', '277', '286', '287', '292', '300', '301', '307', '315', '323', '325', '328', '332', '340', '347', '350', '359', '370', '374', '377', '379', '383', '386', '387', '388', '390', '391', '392', '394', '399', '407', '409', '417', '419', '432', '438', '441', '448', '449', '452', '453', '455', '457', '483', '489', '491', '492', '496', '498', '500', '514', '531', '533', '534', '556', '564', '565', '574', '576', '578', '590', '595', '597', '617', '618', '620', '622', '636', '638', '640', '648', '650', '656', '665', '667', '668', '677', '682', '683', '685', '687', '688', '702', '718', '722', '725', '732', '734', '735', '736', '759', '762', '776', '789', '795', '796', '802', '817', '823', '824', '830', '840', '849', '851', '856', '857', '859', '862', '872', '873', '890', '894', '906', '907', '912', '913', '915', '918', '923', '938', '957', '964', '966', '967', '975', '976', '977', '982', '987', '996', '997', '998', '1003', '1009', '1011', '1013', '1032', '1034', '1041', '1042', '1048', '1068', '1069', '1075', '1081', '1083', '1085', '1091', '1095', '1107', '1108', '1113', '1115', '1121', '1122', '1124', '1129', '1132', '1147', '1149', '1150', '1163', '1164', '1166', '1167', '1176', '1179', '1180', '1188', '1195', '1203', '1204', '1208', '1209', '1218', '1222', '1223', '1233', '1234', '1236', '1237', '1241', '1242', '1246', '1250', '1252', '1254', '1255', '1267', '1271', '1272', '1281', '1291', '1297', '1298', '1299', '1301', '1306', '1312', '1314', '1325', '1330', '1333', '1345', '1347', '1353', '1357', '1364', '1369', '1378', '1380', '1384', '1385', '1390', '1391', '1392', '1394', '1396', '1400', '1401', '1411', '1415', '1429', '1431', '1433', '1435', '1437', '1438', '1442', '1445', '1448', '1453', '1455', '1466', '1470', '1471', '1474', '1486', '1490', '1495', '1496', '1499', '1514', '1519', '1533', '1546', '1548', '1552', '1553', '1561', '1572', '1582', '1604', '1606', '1608', '1616', '1625', '1628', '1635', '1638', '1640', '1645', '1646', '1649', '1657', '1660', '1663', '1664', '1669', '1671', '1674', '1683', '1685', '1690', '1691', '1696', '1698', '1699', '1700', '1701', '1708', '1712', '1716', '1717', '1721', '1726', '1730', '1731', '1732', '1740', '1742', '1749', '1752', '1773', '1777', '1783', '1786', '1790', '1792', '1793', '1796', '1811', '1813', '1824', '1827', '1834', '1840', '1841', '1844', '1848', '1853', '1860', '1864', '1870', '1876', '1878', '1879', '1880', '1881', '1882', '1888', '1889', '1891', '1892', '1911', '1918', '1919', '1940', '1945', '1946', '1953', '1969', '1973', '1974', '1978', '1980', '1982', '1983', '1988', '1996']",False,4000,True,2,910caf01ab,0.0,1.0,1.0
./expes/v2_2021-03-26_issda-30_2000-prng-1-w4-p2,30_issda-2000,2000,first-2000,900,45,rng,num-start-200,200,25726,classic,4036.3474447727203,False,,False,0,,,0,"['4', '7', '9', '10', '11', '13', '18', '19', '22', '24', '33', '36', '37', '40', '41', '44', '49', '50', '51', '52', '57', '58', '61', '63', '64', '65', '66', '69', '70', '73', '74', '75', '77', '79', '81', '84', '89', '94', '95', '96', '98', '100', '101', '102', '105', '109', '110', '111', '116', '117', '121', '123', '124', '126', '127', '130', '133', '135', '137', '139', '146', '149', '150', '151', '152', '155', '157', '158', '159', '164', '165', '167', '170', '173', '174', '177', '180', '183', '186', '188', '189', '191', '192', '193', '194', '195', '197', '204', '205', '206', '208', '209', '213', '214', '216', '218', '222', '228', '230', '232', '236', '238', '239', '243', '250', '252', '261', '262', '263', '264', '268', '270', '272', '274', '275', '277', '278', '280', '282', '283', '284', '286', '287', '288', '290', '292', '295', '296', '297', '301', '307', '309', '310', '311', '315', '320', '321', '322', '323', '325', '326', '329', '331', '333', '334', '337', '341', '343', '347', '348', '350', '353', '354', '355', '356', '358', '359', '361', '362', '364', '370', '372', '373', '377', '380', '382', '385', '389', '392', '393', '394', '399', '402', '407', '409', '412', '414', '419', '420', '426', '427', '428', '431', '432', '434', '435', '436', '438', '440', '441', '442', '443', '444', '446', '449', '452', '455', '460', '461', '462', '465', '467', '468', '470', '473', '475', '476', '477', '478', '481', '484', '485', '488', '489', '492', '494', '495', '502', '505', '506', '508', '510', '511', '512', '513', '514', '515', '516', '519', '520', '521', '523', '524', '526', '527', '529', '531', '532', '536', '537', '538', '541', '545', '547', '550', '551', '557', '558', '560', '562', '568', '569', '571', '572', '574', '575', '579', '583', '586', '588', '594', '596', '598', '604', '607', '608', '610', '613', '620', '622', '623', '627', '631', '632', '634', '635', '639', '640', '641', '642', '643', '645', '648', '649', '653', '657', '658', '665', '666', '669', '672', '674', '675', '678', '679', '683', '684', '686', '689', '690', '691', '692', '693', '698', '699', '700', '701', '702', '705', '707', '712', '718', '719', '725', '730', '733', '735', '736', '737', '738', '739', '740', '742', '743', '746', '747', '750', '751', '753', '761', '762', '763', '764', '765', '766', '768', '773', '775', '777', '779', '782', '784', '785', '788', '790', '791', '799', '800', '801', '802', '803', '804', '805', '806', '807', '809', '810', '816', '819', '820', '822', '823', '825', '826', '828', '829', '830', '833', '838', '842', '844', '845', '846', '850', '851', '854', '857', '858', '859', '860', '861', '862', '867', '868', '872', '876', '881', '883', '889', '890', '894', '899', '903', '904', '906', '907', '909', '911', '912', '913', '918', '919', '925', '928', '929', '930', '931', '932', '933', '936', '937', '938', '941', '943', '945', '949', '951', '952', '953', '954', '955', '956', '957', '958', '961', '964', '968', '969', '971', '973', '974', '977', '979', '983', '987', '988', '989', '991', '992', '994', '995', '996', '997', '998', '1001', '1002', '1004', '1005', '1008', '1016', '1020', '1021', '1023', '1025', '1026', '1029', '1030', '1033', '1034', '1039', '1040', '1041', '1042', '1043', '1045', '1046', '1047', '1048', '1049', '1052', '1053', '1054', '1055', '1056', '1058', '1061', '1062', '1064', '1067', '1070', '1071', '1072', '1073', '1074', '1075', '1076', '1077', '1078', '1081', '1083', '1087', '1090', '1092', '1097', '1102', '1103', '1104', '1106', '1107', '1108', '1109', '1111', '1112', '1115', '1116', '1117', '1119', '1121', '1122', '1124', '1128', '1130', '1142', '1143', '1145', '1147', '1148', '1150', '1152', '1156', '1160', '1163', '1166', '1171', '1175', '1177', '1180', '1182', '1188', '1189', '1190', '1191', '1198', '1200', '1201', '1205', '1206', '1208', '1211', '1212', '1216', '1218', '1219', '1222', '1224', '1225', '1233', '1240', '1241', '1242', '1243', '1251', '1253', '1254', '1255', '1257', '1261', '1262', '1263', '1267', '1269', '1273', '1274', '1275', '1276', '1277', '1278', '1279', '1281', '1283', '1285', '1286', '1288', '1290', '1295', '1297', '1298', '1301', '1303', '1304', '1305', '1306', '1307', '1308', '1310', '1313', '1315', '1317', '1322', '1324', '1327', '1328', '1330', '1332', '1335', '1338', '1339', '1342', '1349', '1350', '1351', '1354', '1356', '1359', '1362', '1366', '1368', '1370', '1371', '1372', '1374', '1378', '1382', '1383', '1384', '1386', '1390', '1391', '1393', '1394', '1395', '1396', '1397', '1398', '1402', '1403', '1404', '1407', '1408', '1412', '1413', '1414', '1417', '1419', '1422', '1425', '1432', '1433', '1436', '1439', '1440', '1441', '1443', '1445', '1446', '1447', '1449', '1451', '1454', '1456', '1457', '1458', '1460', '1461', '1462', '1463', '1465', '1466', '1467', '1468', '1469', '1470', '1472', '1473', '1474', '1475', '1476', '1479', '1481', '1482', '1483', '1487', '1491', '1492', '1493', '1494', '1497', '1498', '1500', '1504', '1505', '1508', '1509', '1513', '1516', '1521', '1525', '1526', '1528', '1532', '1535', '1537', '1538', '1539', '1540', '1541', '1544', '1545', '1546', '1547', '1548', '1556', '1557', '1558', '1560', '1563', '1566', '1568', '1569', '1570', '1571', '1573', '1574', '1582', '1584', '1588', '1592', '1595', '1600', '1604', '1606', '1607', '1613', '1615', '1618', '1622', '1627', '1629', '1630', '1631', '1632', '1634', '1635', '1636', '1637', '1639', '1642', '1644', '1646', '1647', '1648', '1651', '1652', '1656', '1657', '1659', '1662', '1664', '1666', '1668', '1669', '1670', '1671', '1672', '1675', '1677', '1679', '1680', '1681', '1684', '1686', '1687', '1688', '1689', '1690', '1691', '1703', '1707', '1708', '1711', '1712', '1713', '1715', '1716', '1718', '1722', '1732', '1734', '1738', '1739', '1741', '1743', '1746', '1749', '1755', '1758', '1759', '1760', '1762', '1764', '1766', '1767', '1768', '1770', '1774', '1779', '1781', '1783', '1784', '1785', '1791', '1792', '1794', '1796', '1798', '1799', '1800', '1804', '1805', '1806', '1807', '1809', '1811', '1812', '1813', '1818', '1819', '1822', '1827', '1831', '1833', '1834', '1840', '1841', '1842', '1843', '1845', '1846', '1848', '1849', '1850', '1852', '1855', '1857', '1859', '1860', '1861', '1865', '1867', '1868', '1874', '1875', '1876', '1877', '1878', '1880', '1882', '1885', '1886', '1887', '1888', '1889', '1892', '1895', '1897', '1903', '1904', '1909', '1910', '1914', '1915', '1916', '1917', '1919', '1920', '1922', '1923', '1926', '1927', '1932', '1933', '1934', '1941', '1942', '1943', '1944', '1945', '1946', '1955', '1956', '1958', '1961', '1962', '1964', '1965', '1966', '1968', '1970', '1971', '1973', '1980', '1981', '1983', '1985', '1986', '1988', '1989', '1990', '1992', '1995']",True,4000,True,2,1a20ead05a,0.0,0.0,0.0
./expes/v2_2021-03-26_issda-30_2000-prng-1-w4-p2,30_issda-2000,2000,first-2000,800,40,rng,num-start-1800,1800,25726,classic,1539.3696808815002,True,,True,1.0,1.0,1.0,1,"['4', '8', '10', '11', '15', '16', '24', '27', '32', '37', '41', '42', '44', '46', '48', '49', '53', '56', '57', '58', '59', '61', '62', '64', '65', '67', '68', '70', '72', '73', '74', '75', '76', '87', '88', '89', '91', '93', '94', '95', '102', '103', '105', '109', '110', '113', '122', '124', '125', '126', '130', '132', '135', '137', '140', '141', '142', '147', '149', '157', '158', '159', '160', '164', '171', '176', '177', '182', '187', '189', '190', '197', '199', '200', '204', '205', '209', '211', '212', '214', '215', '219', '220', '222', '223', '230', '231', '233', '236', '242', '244', '245', '246', '248', '249', '251', '253', '254', '255', '256', '257', '260', '262', '264', '266', '267', '268', '270', '273', '275', '279', '280', '282', '284', '290', '294', '295', '300', '301', '306', '307', '309', '311', '320', '322', '327', '329', '333', '335', '347', '348', '349', '351', '352', '353', '362', '364', '366', '367', '369', '370', '372', '373', '376', '379', '380', '382', '383', '384', '388', '389', '391', '392', '393', '397', '405', '407', '408', '409', '411', '414', '422', '431', '433', '445', '446', '447', '448', '453', '455', '456', '460', '461', '466', '471', '475', '476', '480', '481', '482', '484', '487', '488', '489', '490', '491', '496', '501', '502', '507', '509', '512', '513', '514', '515', '518', '521', '523', '529', '530', '532', '537', '540', '541', '542', '543', '544', '545', '547', '548', '550', '551', '552', '554', '555', '556', '561', '563', '571', '572', '573', '583', '584', '588', '592', '595', '598', '601', '602', '603', '606', '612', '614', '615', '616', '617', '621', '623', '630', '635', '640', '641', '642', '643', '645', '646', '647', '648', '653', '656', '660', '662', '665', '667', '669', '672', '674', '678', '679', '681', '682', '684', '686', '690', '694', '695', '696', '697', '699', '700', '705', '708', '710', '718', '719', '720', '721', '722', '723', '726', '731', '736', '738', '739', '746', '749', '753', '755', '757', '758', '760', '763', '765', '767', '769', '770', '771', '772', '773', '774', '778', '779', '784', '785', '786', '791', '794', '797', '798', '799', '801', '802', '803', '807', '809', '813', '814', '816', '820', '822', '827', '835', '836', '839', '841', '846', '847', '848', '851', '854', '857', '860', '861', '862', '863', '867', '871', '873', '875', '878', '881', '884', '886', '890', '892', '894', '896', '898', '908', '911', '912', '918', '923', '924', '927', '931', '935', '936', '938', '943', '944', '951', '952', '955', '958', '959', '961', '964', '969', '970', '971', '976', '978', '981', '982', '983', '986', '987', '988', '989', '991', '996', '999', '1003', '1004', '1012', '1014', '1017', '1020', '1025', '1029', '1031', '1034', '1036', '1039', '1042', '1045', '1048', '1050', '1055', '1056', '1060', '1062', '1063', '1065', '1066', '1068', '1072', '1076', '1077', '1080', '1081', '1084', '1085', '1086', '1090', '1094', '1095', '1097', '1098', '1099', '1100', '1102', '1108', '1109', '1110', '1113', '1114', '1115', '1116', '1124', '1126', '1127', '1129', '1132', '1134', '1135', '1136', '1137', '1138', '1140', '1141', '1145', '1146', '1147', '1155', '1156', '1160', '1161', '1162', '1164', '1165', '1166', '1168', '1170', '1172', '1175', '1176', '1178', '1180', '1182', '1186', '1188', '1189', '1190', '1195', '1197', '1198', '1199', '1200', '1201', '1202', '1204', '1206', '1207', '1208', '1209', '1211', '1213', '1214', '1219', '1220', '1224', '1227', '1228', '1229', '1231', '1232', '1237', '1238', '1240', '1241', '1245', '1247', '1251', '1254', '1259', '1262', '1266', '1269', '1271', '1274', '1276', '1282', '1284', '1285', '1286', '1287', '1288', '1293', '1295', '1297', '1298', '1299', '1300', '1301', '1304', '1309', '1315', '1317', '1319', '1320', '1321', '1323', '1325', '1327', '1328', '1331', '1332', '1337', '1339', '1340', '1343', '1351', '1357', '1358', '1363', '1366', '1368', '1373', '1375', '1376', '1377', '1378', '1380', '1381', '1383', '1384', '1385', '1389', '1390', '1392', '1395', '1396', '1397', '1401', '1405', '1413', '1415', '1416', '1421', '1422', '1424', '1425', '1427', '1429', '1430', '1431', '1434', '1436', '1437', '1440', '1444', '1445', '1448', '1460', '1462', '1463', '1465', '1466', '1467', '1468', '1469', '1470', '1471', '1472', '1473', '1476', '1477', '1481', '1490', '1491', '1492', '1493', '1496', '1499', '1503', '1504', '1506', '1512', '1515', '1519', '1520', '1521', '1523', '1527', '1531', '1532', '1533', '1534', '1541', '1543', '1544', '1545', '1546', '1549', '1550', '1551', '1553', '1557', '1560', '1572', '1575', '1581', '1582', '1586', '1588', '1589', '1591', '1592', '1596', '1597', '1598', '1601', '1602', '1603', '1604', '1612', '1613', '1615', '1620', '1622', '1623', '1626', '1629', '1635', '1636', '1637', '1640', '1641', '1645', '1647', '1651', '1652', '1653', '1654', '1658', '1659', '1660', '1662', '1663', '1666', '1669', '1671', '1673', '1674', '1679', '1683', '1687', '1696', '1704', '1706', '1707', '1708', '1710', '1713', '1714', '1716', '1718', '1724', '1726', '1728', '1729', '1735', '1741', '1744', '1746', '1749', '1750', '1752', '1753', '1754', '1755', '1756', '1758', '1759', '1761', '1763', '1764', '1765', '1767', '1769', '1770', '1772', '1773', '1776', '1778', '1779', '1781', '1782', '1783', '1787', '1788', '1793', '1800', '1802', '1803', '1804', '1805', '1807', '1810', '1813', '1816', '1817', '1818', '1822', '1823', '1824', '1825', '1826', '1837', '1838', '1839', '1843', '1847', '1851', '1852', '1853', '1856', '1862', '1864', '1866', '1870', '1872', '1876', '1878', '1879', '1885', '1886', '1887', '1888', '1889', '1893', '1897', '1900', '1903', '1904', '1909', '1913', '1914', '1915', '1917', '1918', '1923', '1924', '1927', '1928', '1931', '1932', '1934', '1935', '1936', '1941', '1944', '1945', '1946', '1947', '1948', '1951', '1953', '1956', '1957', '1961', '1962', '1964', '1967', '1968', '1969', '1973', '1975', '1976', '1978', '1980', '1981', '1985', '1989', '1990', '1991', '1993', '1997']",False,4000,True,2,6f6628e91a,0.0,1.0,1.0
./expes/v2_2021-03-26_issda-30_2000-prng-1-w4-p2,30_issda-2000,2000,first-2000,900,45,rng,num-start-3400,3400,25726,classic,2807.50368976593,True,,True,1.0,1.0,1.0,1,"['4', '5', '6', '8', '10', '11', '15', '16', '24', '27', '32', '37', '39', '41', '42', '44', '46', '48', '49', '53', '55', '56', '57', '58', '59', '61', '62', '64', '65', '67', '68', '70', '72', '73', '74', '75', '76', '77', '81', '87', '88', '89', '91', '93', '94', '95', '102', '103', '104', '105', '109', '110', '113', '122', '123', '124', '125', '126', '130', '132', '135', '137', '140', '141', '142', '147', '149', '157', '158', '159', '160', '164', '165', '171', '176', '177', '182', '187', '189', '190', '194', '197', '199', '200', '204', '205', '209', '211', '212', '214', '215', '219', '220', '221', '222', '223', '224', '226', '229', '230', '231', '233', '236', '238', '242', '244', '245', '246', '248', '249', '251', '253', '254', '255', '256', '257', '260', '262', '264', '266', '267', '268', '270', '273', '275', '276', '278', '279', '280', '282', '284', '286', '290', '294', '295', '300', '301', '306', '307', '309', '311', '313', '320', '322', '326', '327', '329', '330', '333', '335', '338', '345', '347', '348', '349', '350', '351', '352', '353', '355', '362', '364', '366', '367', '369', '370', '372', '373', '376', '379', '380', '382', '383', '384', '388', '389', '391', '392', '393', '397', '400', '405', '407', '408', '409', '410', '411', '414', '421', '422', '427', '429', '431', '433', '434', '445', '446', '447', '448', '449', '453', '455', '456', '459', '460', '461', '466', '471', '475', '476', '479', '480', '481', '482', '484', '487', '488', '489', '490', '491', '495', '496', '501', '502', '507', '509', '512', '513', '514', '515', '518', '521', '523', '526', '529', '530', '532', '537', '540', '541', '542', '543', '544', '545', '547', '548', '550', '551', '552', '554', '555', '556', '561', '563', '571', '572', '573', '581', '583', '584', '588', '592', '595', '598', '601', '602', '603', '606', '612', '614', '615', '616', '617', '621', '623', '624', '630', '635', '640', '641', '642', '643', '645', '646', '647', '648', '651', '653', '656', '660', '662', '665', '667', '669', '672', '673', '674', '678', '679', '681', '682', '684', '686', '690', '694', '695', '696', '697', '699', '700', '704', '705', '708', '710', '718', '719', '720', '721', '722', '723', '726', '731', '736', '738', '739', '741', '746', '749', '752', '753', '755', '757', '758', '760', '763', '765', '767', '769', '770', '771', '772', '773', '774', '778', '779', '784', '785', '786', '791', '794', '797', '798', '799', '801', '802', '803', '807', '809', '813', '814', '816', '820', '822', '823', '826', '827', '835', '836', '837', '839', '841', '846', '847', '848', '851', '854', '857', '860', '861', '862', '863', '865', '867', '871', '873', '875', '878', '881', '884', '886', '890', '892', '894', '896', '898', '907', '908', '910', '911', '912', '917', '918', '923', '924', '927', '931', '933', '935', '936', '938', '943', '944', '951', '952', '955', '957', '958', '959', '961', '964', '969', '970', '971', '972', '976', '978', '981', '982', '983', '986', '987', '988', '989', '991', '992', '994', '996', '999', '1002', '1003', '1004', '1005', '1008', '1011', '1012', '1014', '1017', '1019', '1020', '1022', '1025', '1029', '1031', '1032', '1034', '1036', '1037', '1039', '1042', '1045', '1048', '1050', '1055', '1056', '1060', '1062', '1063', '1065', '1066', '1068', '1072', '1073', '1076', '1077', '1080', '1081', '1084', '1085', '1086', '1090', '1094', '1095', '1097', '1098', '1099', '1100', '1101', '1102', '1104', '1108', '1109', '1110', '1113', '1114', '1115', '1116', '1124', '1126', '1127', '1129', '1132', '1134', '1135', '1136', '1137', '1138', '1140', '1141', '1145', '1146', '1147', '1155', '1156', '1160', '1161', '1162', '1164', '1165', '1166', '1168', '1170', '1172', '1175', '1176', '1178', '1180', '1182', '1186', '1188', '1189', '1190', '1195', '1197', '1198', '1199', '1200', '1201', '1202', '1204', '1206', '1207', '1208', '1209', '1211', '1213', '1214', '1218', '1219', '1220', '1222', '1224', '1227', '1228', '1229', '1231', '1232', '1237', '1238', '1240', '1241', '1245', '1247', '1251', '1254', '1259', '1262', '1266', '1267', '1269', '1271', '1274', '1275', '1276', '1277', '1281', '1282', '1284', '1285', '1286', '1287', '1288', '1293', '1295', '1297', '1298', '1299', '1300', '1301', '1304', '1309', '1315', '1317', '1319', '1320', '1321', '1323', '1325', '1327', '1328', '1330', '1331', '1332', '1337', '1339', '1340', '1343', '1347', '1351', '1356', '1357', '1358', '1363', '1366', '1368', '1373', '1375', '1376', '1377', '1378', '1380', '1381', '1383', '1384', '1385', '1389', '1390', '1392', '1395', '1396', '1397', '1401', '1405', '1407', '1413', '1415', '1416', '1421', '1422', '1423', '1424', '1425', '1427', '1429', '1430', '1431', '1432', '1433', '1434', '1436', '1437', '1440', '1441', '1444', '1445', '1446', '1448', '1460', '1462', '1463', '1465', '1466', '1467', '1468', '1469', '1470', '1471', '1472', '1473', '1474', '1476', '1477', '1481', '1489', '1490', '1491', '1492', '1493', '1496', '1499', '1503', '1504', '1506', '1512', '1515', '1519', '1520', '1521', '1523', '1527', '1531', '1532', '1533', '1534', '1541', '1543', '1544', '1545', '1546', '1549', '1550', '1551', '1553', '1557', '1560', '1572', '1575', '1578', '1581', '1582', '1586', '1588', '1589', '1591', '1592', '1596', '1597', '1598', '1601', '1602', '1603', '1604', '1612', '1613', '1615', '1620', '1622', '1623', '1626', '1629', '1635', '1636', '1637', '1640', '1641', '1645', '1647', '1651', '1652', '1653', '1654', '1658', '1659', '1660', '1662', '1663', '1665', '1666', '1669', '1671', '1673', '1674', '1679', '1683', '1687', '1696', '1704', '1706', '1707', '1708', '1710', '1713', '1714', '1716', '1718', '1719', '1724', '1726', '1728', '1729', '1732', '1735', '1739', '1741', '1744', '1745', '1746', '1749', '1750', '1752', '1753', '1754', '1755', '1756', '1758', '1759', '1761', '1762', '1763', '1764', '1765', '1767', '1769', '1770', '1772', '1773', '1776', '1778', '1779', '1781', '1782', '1783', '1787', '1788', '1793', '1800', '1802', '1803', '1804', '1805', '1807', '1809', '1810', '1813', '1816', '1817', '1818', '1822', '1823', '1824', '1825', '1826', '1827', '1835', '1837', '1838', '1839', '1842', '1843', '1847', '1851', '1852', '1853', '1856', '1862', '1864', '1866', '1870', '1872', '1876', '1878', '1879', '1885', '1886', '1887', '1888', '1889', '1892', '1893', '1897', '1899', '1900', '1903', '1904', '1905', '1909', '1913', '1914', '1915', '1917', '1918', '1923', '1924', '1927', '1928', '1931', '1932', '1934', '1935', '1936', '1939', '1941', '1944', '1945', '1946', '1947', '1948', '1951', '1953', '1956', '1957', '1961', '1962', '1964', '1965', '1967', '1968', '1969', '1973', '1975', '1976', '1978', '1980', '1981', '1985', '1987', '1989', '1990', '1991', '1993', '1997']",False,4000,True,2,1cf5d25440,0.0,1.0,1.0
./expes/v2_2021-03-26_issda-30_2000-prng-1-w4-p2,30_issda-2000,2000,first-2000,200,10,rng,num-start-2400,2400,25726,classic,1903.2081670761108,True,,True,1.0,1.0,1.0,1,"['3', '29', '34', '68', '80', '83', '128', '129', '142', '152', '165', '169', '184', '187', '188', '192', '195', '203', '207', '224', '237', '240', '256', '267', '286', '287', '292', '301', '307', '350', '377', '383', '388', '390', '392', '417', '419', '441', '448', '452', '455', '483', '489', '496', '498', '500', '514', '531', '533', '534', '556', '564', '565', '578', '590', '595', '597', '618', '622', '636', '648', '650', '656', '665', '667', '677', '682', '683', '687', '725', '732', '734', '762', '789', '802', '817', '830', '859', '862', '890', '907', '912', '918', '923', '967', '976', '977', '996', '997', '1003', '1009', '1011', '1034', '1041', '1048', '1068', '1069', '1075', '1091', '1107', '1108', '1113', '1121', '1122', '1124', '1129', '1132', '1147', '1163', '1179', '1188', '1195', '1203', '1204', '1208', '1222', '1233', '1236', '1252', '1254', '1255', '1267', '1281', '1291', '1312', '1314', '1345', '1353', '1369', '1391', '1392', '1400', '1401', '1433', '1435', '1442', '1445', '1448', '1455', '1474', '1495', '1496', '1499', '1548', '1552', '1553', '1606', '1608', '1625', '1628', '1635', '1638', '1645', '1646', '1649', '1660', '1663', '1669', '1683', '1690', '1691', '1696', '1699', '1700', '1716', '1721', '1726', '1730', '1731', '1740', '1742', '1773', '1777', '1783', '1793', '1796', '1824', '1827', '1834', '1840', '1841', '1848', '1860', '1864', '1870', '1876', '1878', '1879', '1881', '1882', '1889', '1891', '1892', '1911', '1946', '1974', '1978', '1980', '1982', '1983']",False,4000,True,2,eda0392b60,0.0,1.0,1.0
./expes/v2_2021-03-26_issda-30_2000-prng-1-w4-p2,30_issda-2000,2000,first-2000,700,35,rng,num-start-1600,1600,25726,classic,1182.142457485199,True,,True,1.0,1.0,1.0,1,"['4', '7', '9', '10', '11', '18', '22', '24', '33', '36', '37', '40', '41', '44', '49', '50', '51', '52', '57', '61', '64', '65', '66', '69', '70', '73', '74', '75', '77', '84', '89', '94', '101', '105', '110', '111', '116', '117', '121', '123', '124', '126', '135', '137', '139', '146', '149', '150', '151', '152', '155', '157', '158', '159', '164', '165', '167', '170', '173', '174', '177', '180', '183', '188', '191', '192', '193', '194', '197', '204', '205', '206', '208', '209', '216', '218', '228', '230', '232', '236', '238', '243', '250', '252', '262', '264', '270', '274', '275', '277', '278', '280', '283', '287', '288', '290', '295', '297', '301', '307', '310', '311', '315', '320', '321', '322', '323', '325', '326', '329', '331', '333', '337', '341', '347', '348', '350', '353', '354', '356', '361', '362', '364', '370', '372', '373', '377', '380', '385', '389', '392', '393', '394', '407', '409', '419', '420', '426', '427', '431', '432', '435', '436', '438', '442', '443', '444', '446', '449', '455', '461', '462', '465', '468', '473', '475', '476', '477', '478', '481', '484', '488', '494', '502', '506', '508', '510', '511', '512', '514', '516', '519', '520', '521', '523', '524', '526', '527', '529', '531', '532', '537', '541', '545', '547', '550', '551', '560', '562', '569', '571', '572', '575', '579', '583', '586', '588', '594', '596', '598', '604', '607', '608', '620', '622', '623', '627', '631', '632', '634', '635', '639', '640', '641', '642', '648', '653', '657', '665', '666', '669', '672', '674', '675', '678', '684', '686', '691', '699', '700', '701', '705', '707', '712', '718', '719', '725', '730', '733', '735', '737', '738', '740', '742', '743', '746', '747', '750', '751', '762', '763', '764', '765', '766', '768', '775', '777', '779', '782', '784', '785', '788', '790', '791', '799', '800', '801', '802', '803', '805', '806', '809', '810', '819', '820', '823', '825', '826', '828', '829', '830', '833', '838', '842', '845', '850', '854', '857', '859', '860', '867', '868', '872', '876', '883', '889', '890', '899', '904', '906', '907', '911', '912', '913', '918', '919', '925', '929', '930', '932', '936', '937', '938', '941', '943', '945', '949', '952', '953', '955', '956', '957', '958', '961', '964', '968', '969', '979', '983', '988', '989', '991', '992', '994', '995', '996', '997', '998', '1001', '1002', '1004', '1005', '1008', '1020', '1021', '1023', '1026', '1029', '1030', '1033', '1034', '1040', '1041', '1042', '1043', '1045', '1048', '1049', '1052', '1053', '1054', '1055', '1056', '1058', '1061', '1062', '1064', '1067', '1070', '1071', '1072', '1073', '1074', '1076', '1077', '1078', '1087', '1090', '1092', '1097', '1102', '1103', '1108', '1115', '1117', '1122', '1124', '1128', '1130', '1142', '1143', '1147', '1148', '1150', '1152', '1156', '1160', '1163', '1166', '1171', '1175', '1177', '1180', '1189', '1190', '1191', '1198', '1200', '1201', '1205', '1206', '1208', '1211', '1212', '1216', '1219', '1222', '1240', '1241', '1242', '1243', '1251', '1254', '1255', '1257', '1261', '1262', '1263', '1267', '1273', '1274', '1275', '1277', '1278', '1279', '1281', '1286', '1288', '1295', '1297', '1298', '1301', '1305', '1306', '1308', '1310', '1313', '1315', '1317', '1324', '1327', '1328', '1330', '1332', '1335', '1338', '1339', '1342', '1349', '1350', '1354', '1356', '1359', '1366', '1371', '1372', '1374', '1378', '1382', '1383', '1384', '1386', '1390', '1391', '1394', '1395', '1396', '1398', '1402', '1403', '1404', '1408', '1413', '1414', '1417', '1419', '1425', '1432', '1433', '1441', '1443', '1445', '1446', '1447', '1451', '1454', '1456', '1457', '1458', '1460', '1461', '1462', '1463', '1465', '1466', '1467', '1468', '1469', '1472', '1473', '1474', '1475', '1481', '1482', '1483', '1487', '1491', '1493', '1494', '1497', '1498', '1500', '1505', '1508', '1509', '1513', '1516', '1521', '1525', '1526', '1528', '1532', '1535', '1537', '1538', '1539', '1541', '1544', '1545', '1546', '1547', '1548', '1556', '1557', '1558', '1560', '1563', '1566', '1569', '1571', '1584', '1588', '1592', '1600', '1604', '1607', '1613', '1615', '1618', '1622', '1627', '1629', '1630', '1631', '1632', '1635', '1636', '1637', '1639', '1642', '1644', '1646', '1647', '1648', '1651', '1652', '1656', '1657', '1659', '1664', '1666', '1669', '1670', '1671', '1672', '1675', '1677', '1679', '1681', '1687', '1689', '1690', '1691', '1703', '1707', '1711', '1712', '1713', '1715', '1718', '1722', '1734', '1738', '1739', '1741', '1743', '1746', '1749', '1755', '1760', '1762', '1767', '1768', '1770', '1774', '1781', '1783', '1784', '1791', '1792', '1794', '1796', '1798', '1800', '1804', '1805', '1806', '1807', '1809', '1811', '1812', '1813', '1818', '1819', '1822', '1827', '1831', '1833', '1834', '1840', '1843', '1846', '1848', '1850', '1855', '1857', '1859', '1860', '1861', '1867', '1868', '1874', '1876', '1877', '1882', '1885', '1886', '1888', '1889', '1895', '1897', '1903', '1904', '1909', '1910', '1914', '1916', '1917', '1919', '1922', '1923', '1927', '1932', '1933', '1941', '1942', '1943', '1944', '1945', '1946', '1955', '1956', '1958', '1961', '1962', '1964', '1965', '1966', '1968', '1970', '1971', '1973', '1980', '1981', '1985', '1986', '1988', '1989', '1992', '1995']",False,4000,True,2,0cab568b29,0.0,1.0,1.0
./expes/v2_2021-03-26_issda-30_2000-prng-1-w4-p2,30_issda-2000,2000,first-2000,100,5,rng,num-start-1400,1400,25726,classic,445.7917821407318,True,,True,1.0,1.0,1.0,1,"['5', '19', '45', '46', '53', '59', '60', '63', '130', '193', '205', '210', '242', '248', '276', '381', '389', '430', '444', '449', '455', '469', '473', '478', '523', '546', '582', '594', '608', '622', '651', '682', '708', '778', '781', '799', '853', '865', '887', '897', '913', '921', '942', '968', '1000', '1015', '1016', '1023', '1026', '1040', '1081', '1109', '1133', '1140', '1166', '1204', '1211', '1245', '1289', '1316', '1331', '1335', '1373', '1387', '1406', '1426', '1457', '1478', '1483', '1487', '1522', '1559', '1562', '1565', '1572', '1616', '1643', '1644', '1700', '1712', '1716', '1734', '1736', '1762', '1805', '1808', '1830', '1835', '1847', '1865', '1877', '1889', '1898', '1918', '1924', '1936', '1951', '1981', '1985', '1994']",False,4000,True,2,00c52eca41,0.0,1.0,1.0
./expes/v2_2021-03-26_issda-30_2000-prng-1-w4-p2,30_issda-2000,2000,first-2000,400,20,rng,num-start-3200,3200,25726,classic,1964.0631589889526,True,,True,1.0,1.0,1.0,1,"['1', '3', '4', '5', '7', '26', '28', '29', '30', '31', '34', '45', '47', '55', '65', '68', '75', '80', '81', '83', '93', '94', '96', '103', '119', '126', '128', '129', '131', '142', '144', '148', '152', '162', '165', '166', '169', '171', '184', '187', '188', '192', '195', '201', '203', '206', '207', '208', '224', '237', '238', '240', '241', '244', '246', '254', '255', '256', '267', '268', '272', '277', '286', '287', '292', '300', '301', '307', '315', '323', '325', '328', '332', '340', '347', '350', '359', '370', '374', '377', '379', '383', '386', '387', '388', '390', '391', '392', '394', '399', '407', '409', '417', '419', '432', '438', '441', '448', '449', '452', '453', '455', '457', '483', '489', '491', '492', '496', '498', '500', '514', '531', '533', '534', '556', '564', '565', '574', '576', '578', '590', '595', '597', '617', '618', '620', '622', '636', '638', '640', '648', '650', '656', '665', '667', '668', '677', '682', '683', '685', '687', '688', '702', '718', '722', '725', '732', '734', '735', '736', '759', '762', '776', '789', '795', '796', '802', '817', '823', '824', '830', '840', '849', '851', '856', '857', '859', '862', '872', '873', '890', '894', '906', '907', '912', '913', '915', '918', '923', '938', '957', '964', '966', '967', '975', '976', '977', '982', '987', '996', '997', '998', '1003', '1009', '1011', '1013', '1032', '1034', '1041', '1042', '1048', '1068', '1069', '1075', '1081', '1083', '1085', '1091', '1095', '1107', '1108', '1113', '1115', '1121', '1122', '1124', '1129', '1132', '1147', '1149', '1150', '1163', '1164', '1166', '1167', '1176', '1179', '1180', '1188', '1195', '1203', '1204', '1208', '1209', '1218', '1222', '1223', '1233', '1234', '1236', '1237', '1241', '1242', '1246', '1250', '1252', '1254', '1255', '1267', '1271', '1272', '1281', '1291', '1297', '1298', '1299', '1301', '1306', '1312', '1314', '1325', '1330', '1333', '1345', '1347', '1353', '1357', '1364', '1369', '1378', '1380', '1384', '1385', '1390', '1391', '1392', '1394', '1396', '1400', '1401', '1411', '1415', '1429', '1431', '1433', '1435', '1437', '1438', '1442', '1445', '1448', '1453', '1455', '1466', '1470', '1471', '1474', '1486', '1490', '1495', '1496', '1499', '1514', '1519', '1533', '1546', '1548', '1552', '1553', '1561', '1572', '1582', '1604', '1606', '1608', '1616', '1625', '1628', '1635', '1638', '1640', '1645', '1646', '1649', '1657', '1660', '1663', '1664', '1669', '1671', '1674', '1683', '1685', '1690', '1691', '1696', '1698', '1699', '1700', '1701', '1708', '1712', '1716', '1717', '1721', '1726', '1730', '1731', '1732', '1740', '1742', '1749', '1752', '1773', '1777', '1783', '1786', '1790', '1792', '1793', '1796', '1811', '1813', '1824', '1827', '1834', '1840', '1841', '1844', '1848', '1853', '1860', '1864', '1870', '1876', '1878', '1879', '1880', '1881', '1882', '1888', '1889', '1891', '1892', '1911', '1918', '1919', '1940', '1945', '1946', '1953', '1969', '1973', '1974', '1978', '1980', '1982', '1983', '1988', '1996']",False,4000,True,2,f3e821b2b8,0.0,1.0,1.0
./expes/v2_2021-03-26_issda-30_2000-prng-1-w4-p2,30_issda-2000,2000,first-2000,700,35,rng,num-start-2600,2600,25726,classic,2094.6760647296906,True,,True,1.0,1.0,1.0,1,"['1', '3', '4', '5', '7', '17', '19', '20', '26', '28', '29', '30', '31', '32', '34', '39', '42', '45', '47', '55', '57', '65', '67', '68', '69', '73', '74', '75', '78', '79', '80', '81', '83', '84', '85', '87', '93', '94', '96', '97', '99', '103', '114', '119', '124', '126', '128', '129', '131', '135', '136', '142', '144', '146', '148', '152', '157', '162', '165', '166', '167', '168', '169', '171', '172', '174', '179', '184', '186', '187', '188', '192', '195', '201', '203', '204', '206', '207', '208', '215', '216', '223', '224', '228', '236', '237', '238', '240', '241', '244', '246', '249', '254', '255', '256', '261', '266', '267', '268', '272', '274', '277', '284', '286', '287', '289', '292', '300', '301', '304', '305', '307', '310', '311', '315', '317', '319', '320', '323', '325', '328', '330', '332', '336', '340', '342', '347', '350', '359', '366', '368', '370', '373', '374', '377', '379', '383', '386', '387', '388', '390', '391', '392', '394', '399', '400', '406', '407', '409', '414', '417', '419', '422', '423', '425', '426', '432', '438', '441', '443', '445', '448', '449', '451', '452', '453', '455', '457', '461', '479', '483', '489', '490', '491', '492', '496', '498', '500', '514', '522', '526', '527', '531', '532', '533', '534', '535', '537', '553', '556', '563', '564', '565', '571', '574', '576', '578', '588', '590', '593', '594', '595', '597', '601', '602', '603', '607', '613', '616', '617', '618', '619', '620', '621', '622', '631', '636', '638', '640', '645', '648', '650', '652', '656', '660', '661', '664', '665', '667', '668', '673', '677', '678', '682', '683', '685', '687', '688', '691', '692', '693', '697', '702', '704', '710', '711', '718', '722', '723', '725', '732', '734', '735', '736', '740', '741', '752', '753', '755', '759', '761', '762', '763', '770', '775', '776', '777', '783', '786', '787', '789', '792', '794', '795', '796', '802', '803', '807', '809', '813', '816', '817', '823', '824', '826', '830', '832', '836', '840', '843', '849', '850', '851', '856', '857', '859', '862', '867', '872', '873', '874', '884', '890', '892', '894', '906', '907', '912', '913', '915', '918', '919', '923', '925', '928', '938', '939', '940', '944', '955', '957', '964', '965', '966', '967', '971', '975', '976', '977', '980', '982', '986', '987', '988', '996', '997', '998', '1000', '1001', '1003', '1005', '1008', '1009', '1011', '1013', '1015', '1019', '1020', '1021', '1022', '1029', '1032', '1034', '1035', '1039', '1041', '1042', '1048', '1058', '1061', '1063', '1067', '1068', '1069', '1072', '1075', '1076', '1077', '1081', '1083', '1085', '1086', '1091', '1095', '1097', '1102', '1107', '1108', '1112', '1113', '1115', '1120', '1121', '1122', '1124', '1125', '1129', '1132', '1140', '1144', '1147', '1149', '1150', '1155', '1157', '1163', '1164', '1166', '1167', '1168', '1176', '1179', '1180', '1188', '1194', '1195', '1198', '1199', '1201', '1203', '1204', '1208', '1209', '1218', '1222', '1223', '1226', '1230', '1233', '1234', '1235', '1236', '1237', '1241', '1242', '1245', '1246', '1249', '1250', '1252', '1253', '1254', '1255', '1259', '1265', '1267', '1271', '1272', '1274', '1277', '1281', '1284', '1286', '1291', '1295', '1297', '1298', '1299', '1301', '1306', '1308', '1309', '1312', '1313', '1314', '1320', '1321', '1325', '1330', '1333', '1339', '1343', '1344', '1345', '1346', '1347', '1353', '1357', '1364', '1369', '1373', '1378', '1380', '1384', '1385', '1387', '1390', '1391', '1392', '1393', '1394', '1395', '1396', '1398', '1400', '1401', '1408', '1411', '1415', '1429', '1431', '1433', '1434', '1435', '1436', '1437', '1438', '1442', '1445', '1446', '1447', '1448', '1453', '1455', '1459', '1462', '1464', '1466', '1469', '1470', '1471', '1472', '1474', '1486', '1490', '1493', '1494', '1495', '1496', '1497', '1499', '1505', '1514', '1518', '1519', '1528', '1530', '1533', '1535', '1536', '1541', '1546', '1548', '1552', '1553', '1555', '1561', '1572', '1582', '1583', '1591', '1592', '1593', '1594', '1597', '1602', '1604', '1605', '1606', '1608', '1609', '1615', '1616', '1618', '1621', '1623', '1625', '1627', '1628', '1634', '1635', '1638', '1639', '1640', '1645', '1646', '1649', '1651', '1653', '1655', '1657', '1659', '1660', '1663', '1664', '1669', '1671', '1674', '1676', '1683', '1684', '1685', '1690', '1691', '1692', '1694', '1696', '1698', '1699', '1700', '1701', '1708', '1712', '1716', '1717', '1721', '1723', '1726', '1729', '1730', '1731', '1732', '1734', '1740', '1742', '1744', '1747', '1749', '1752', '1756', '1762', '1763', '1765', '1766', '1769', '1772', '1773', '1777', '1780', '1783', '1785', '1786', '1787', '1790', '1791', '1792', '1793', '1796', '1798', '1805', '1811', '1813', '1814', '1819', '1823', '1824', '1827', '1832', '1834', '1840', '1841', '1842', '1844', '1846', '1848', '1849', '1850', '1853', '1856', '1860', '1861', '1864', '1868', '1870', '1872', '1875', '1876', '1878', '1879', '1880', '1881', '1882', '1884', '1885', '1888', '1889', '1890', '1891', '1892', '1908', '1911', '1913', '1916', '1918', '1919', '1922', '1929', '1932', '1939', '1940', '1942', '1945', '1946', '1953', '1962', '1963', '1969', '1972', '1973', '1974', '1978', '1980', '1982', '1983', '1984', '1986', '1988', '1992', '1996', '2000']",False,4000,True,2,2de8b9b4e0,0.0,1.0,1.0
