expe,clients,clients_size,clients_subset,agg_size,method,days,days_size,days_total,time,valid,valid_sum,success,nsols,wall_hit,wall_time,pooled,valid_sums
./expes/v2_2020-11-09_3bh_250-prng-1,30_base_hphc_250,250,first-250,241,rng,num-start-91,91,17520,2.2730472087860107,True,,True,1,False,1000,True,1.0
./expes/v2_2020-11-09_3bh_250-prng-1,30_base_hphc_250,250,first-250,11,rng,num-start-661,661,17520,13.761654376983643,True,,True,1,False,1000,True,1.0
./expes/v2_2020-11-09_3bh_250-prng-1,30_base_hphc_250,250,first-250,51,rng,num-start-51,51,17520,1000.8794281482697,False,,False,0,True,1000,True,0.0
./expes/v2_2020-11-09_3bh_250-prng-1,30_base_hphc_250,250,first-250,61,rng,num-start-841,841,17520,19.046708345413208,True,,True,1,False,1000,True,1.0
./expes/v2_2020-11-09_3bh_250-prng-1,30_base_hphc_250,250,first-250,161,rng,num-start-891,891,17520,20.472076654434204,True,,True,1,False,1000,True,1.0
./expes/v2_2020-11-09_3bh_250-prng-1,30_base_hphc_250,250,first-250,201,rng,num-start-761,761,17520,17.951748609542847,True,,True,1,False,1000,True,1.0
./expes/v2_2020-11-09_3bh_250-prng-1,30_base_hphc_250,250,first-250,21,rng,num-start-91,91,17520,2.0787456035614014,True,,True,1,False,1000,True,1.0
./expes/v2_2020-11-09_3bh_250-prng-1,30_base_hphc_250,250,first-250,171,rng,num-start-391,391,17520,9.241043329238892,True,,True,1,False,1000,True,1.0
./expes/v2_2020-11-09_3bh_250-prng-1,30_base_hphc_250,250,first-250,151,rng,num-start-751,751,17520,18.793832302093506,True,,True,1,False,1000,True,1.0
./expes/v2_2020-11-09_3bh_250-prng-1,30_base_hphc_250,250,first-250,71,rng,num-start-471,471,17520,12.925870180130005,True,,True,1,False,1000,True,1.0
./expes/v2_2020-11-09_3bh_250-prng-1,30_base_hphc_250,250,first-250,201,rng,num-start-41,41,17520,1000.8479206562042,False,,False,0,True,1000,True,0.0
./expes/v2_2020-11-09_3bh_250-prng-1,30_base_hphc_250,250,first-250,31,rng,num-start-221,221,17520,5.31750226020813,True,,True,1,False,1000,True,1.0
./expes/v2_2020-11-09_3bh_250-prng-1,30_base_hphc_250,250,first-250,121,rng,num-start-971,971,17520,24.343377828598022,True,,True,1,False,1000,True,1.0
./expes/v2_2020-11-09_3bh_250-prng-1,30_base_hphc_250,250,first-250,1,rng,num-start-741,741,17520,13.37688946723938,True,,True,1,False,1000,True,1.0
./expes/v2_2020-11-09_3bh_250-prng-1,30_base_hphc_250,250,first-250,101,rng,num-start-131,131,17520,3.909909963607788,True,,True,1,False,1000,True,1.0
./expes/v2_2020-11-09_3bh_250-prng-1,30_base_hphc_250,250,first-250,81,rng,num-start-781,781,17520,19.306726455688477,True,,True,1,False,1000,True,1.0
./expes/v2_2020-11-09_3bh_250-prng-1,30_base_hphc_250,250,first-250,231,rng,num-start-641,641,17520,16.13938546180725,True,,True,1,False,1000,True,1.0
./expes/v2_2020-11-09_3bh_250-prng-1,30_base_hphc_250,250,first-250,61,rng,num-start-351,351,17520,9.135813236236572,True,,True,1,False,1000,True,1.0
./expes/v2_2020-11-09_3bh_250-prng-1,30_base_hphc_250,250,first-250,231,rng,num-start-121,121,17520,2.8141844272613525,True,,True,1,False,1000,True,1.0
./expes/v2_2020-11-09_3bh_250-prng-1,30_base_hphc_250,250,first-250,191,rng,num-start-411,411,17520,9.367760181427002,True,,True,1,False,1000,True,1.0
./expes/v2_2020-11-09_3bh_250-prng-1,30_base_hphc_250,250,first-250,151,rng,num-start-501,501,17520,13.662614107131958,True,,True,1,False,1000,True,1.0
./expes/v2_2020-11-09_3bh_250-prng-1,30_base_hphc_250,250,first-250,61,rng,num-start-941,941,17520,22.507221937179565,True,,True,1,False,1000,True,1.0
./expes/v2_2020-11-09_3bh_250-prng-1,30_base_hphc_250,250,first-250,151,rng,num-start-421,421,17520,9.961372137069702,True,,True,1,False,1000,True,1.0
./expes/v2_2020-11-09_3bh_250-prng-1,30_base_hphc_250,250,first-250,131,rng,num-start-911,911,17520,22.496886253356934,True,,True,1,False,1000,True,1.0
./expes/v2_2020-11-09_3bh_250-prng-1,30_base_hphc_250,250,first-250,1,rng,num-start-21,21,17520,0.3770875930786133,True,,True,1,False,1000,True,1.0
./expes/v2_2020-11-09_3bh_250-prng-1,30_base_hphc_250,250,first-250,111,rng,num-start-461,461,17520,11.814774990081787,True,,True,1,False,1000,True,1.0
./expes/v2_2020-11-09_3bh_250-prng-1,30_base_hphc_250,250,first-250,1,rng,num-start-641,641,17520,11.773716449737549,True,,True,1,False,1000,True,1.0
./expes/v2_2020-11-09_3bh_250-prng-1,30_base_hphc_250,250,first-250,181,rng,num-start-591,591,17520,13.38594675064087,True,,True,1,False,1000,True,1.0
./expes/v2_2020-11-09_3bh_250-prng-1,30_base_hphc_250,250,first-250,231,rng,num-start-71,71,17520,1.7558858394622803,True,,True,1,False,1000,True,1.0
./expes/v2_2020-11-09_3bh_250-prng-1,30_base_hphc_250,250,first-250,101,rng,num-start-231,231,17520,6.2626636028289795,True,,True,1,False,1000,True,1.0
./expes/v2_2020-11-09_3bh_250-prng-1,30_base_hphc_250,250,first-250,101,rng,num-start-951,951,17520,24.031999111175537,True,,True,1,False,1000,True,1.0
./expes/v2_2020-11-09_3bh_250-prng-1,30_base_hphc_250,250,first-250,31,rng,num-start-271,271,17520,6.4288647174835205,True,,True,1,False,1000,True,1.0
./expes/v2_2020-11-09_3bh_250-prng-1,30_base_hphc_250,250,first-250,211,rng,num-start-361,361,17520,8.633539915084839,True,,True,1,False,1000,True,1.0
./expes/v2_2020-11-09_3bh_250-prng-1,30_base_hphc_250,250,first-250,141,rng,num-start-571,571,17520,13.49420428276062,True,,True,1,False,1000,True,1.0
./expes/v2_2020-11-09_3bh_250-prng-1,30_base_hphc_250,250,first-250,101,rng,num-start-431,431,17520,11.577450275421143,True,,True,1,False,1000,True,1.0
./expes/v2_2020-11-09_3bh_250-prng-1,30_base_hphc_250,250,first-250,11,rng,num-start-271,271,17520,6.065034627914429,True,,True,1,False,1000,True,1.0
./expes/v2_2020-11-09_3bh_250-prng-1,30_base_hphc_250,250,first-250,191,rng,num-start-641,641,17520,16.344515085220337,True,,True,1,False,1000,True,1.0
./expes/v2_2020-11-09_3bh_250-prng-1,30_base_hphc_250,250,first-250,11,rng,num-start-91,91,17520,2.143047332763672,True,,True,1,False,1000,True,1.0
./expes/v2_2020-11-09_3bh_250-prng-1,30_base_hphc_250,250,first-250,171,rng,num-start-351,351,17520,7.6073291301727295,True,,True,1,False,1000,True,1.0
./expes/v2_2020-11-09_3bh_250-prng-1,30_base_hphc_250,250,first-250,31,rng,num-start-221,221,17520,5.201965570449829,True,,True,1,False,1000,True,1.0
./expes/v2_2020-11-09_3bh_250-prng-1,30_base_hphc_250,250,first-250,41,rng,num-start-561,561,17520,16.085097551345825,True,,True,1,False,1000,True,1.0
./expes/v2_2020-11-09_3bh_250-prng-1,30_base_hphc_250,250,first-250,181,rng,num-start-781,781,17520,19.454127550125122,True,,True,1,False,1000,True,1.0
./expes/v2_2020-11-09_3bh_250-prng-1,30_base_hphc_250,250,first-250,111,rng,num-start-931,931,17520,20.466097116470337,True,,True,1,False,1000,True,1.0
./expes/v2_2020-11-09_3bh_250-prng-1,30_base_hphc_250,250,first-250,191,rng,num-start-301,301,17520,7.667160987854004,True,,True,1,False,1000,True,1.0
./expes/v2_2020-11-09_3bh_250-prng-1,30_base_hphc_250,250,first-250,11,rng,num-start-851,851,17520,18.75408697128296,True,,True,1,False,1000,True,1.0
./expes/v2_2020-11-09_3bh_250-prng-1,30_base_hphc_250,250,first-250,191,rng,num-start-101,101,17520,2.5829789638519287,True,,True,1,False,1000,True,1.0
./expes/v2_2020-11-09_3bh_250-prng-1,30_base_hphc_250,250,first-250,121,rng,num-start-181,181,17520,5.438499212265015,True,,True,1,False,1000,True,1.0
./expes/v2_2020-11-09_3bh_250-prng-1,30_base_hphc_250,250,first-250,201,rng,num-start-201,201,17520,5.2281482219696045,True,,True,1,False,1000,True,1.0
./expes/v2_2020-11-09_3bh_250-prng-1,30_base_hphc_250,250,first-250,231,rng,num-start-651,651,17520,14.60056185722351,True,,True,1,False,1000,True,1.0
./expes/v2_2020-11-09_3bh_250-prng-1,30_base_hphc_250,250,first-250,61,rng,num-start-801,801,17520,18.36533546447754,True,,True,1,False,1000,True,1.0
./expes/v2_2020-11-09_3bh_250-prng-1,30_base_hphc_250,250,first-250,151,rng,num-start-741,741,17520,18.166133165359497,True,,True,1,False,1000,True,1.0
./expes/v2_2020-11-09_3bh_250-prng-1,30_base_hphc_250,250,first-250,101,rng,num-start-791,791,17520,18.549423456192017,True,,True,1,False,1000,True,1.0
./expes/v2_2020-11-09_3bh_250-prng-1,30_base_hphc_250,250,first-250,51,rng,num-start-81,81,17520,13.289584875106812,True,,True,1,False,1000,True,1.0
./expes/v2_2020-11-09_3bh_250-prng-1,30_base_hphc_250,250,first-250,121,rng,num-start-811,811,17520,21.52819514274597,True,,True,1,False,1000,True,1.0
./expes/v2_2020-11-09_3bh_250-prng-1,30_base_hphc_250,250,first-250,11,rng,num-start-901,901,17520,21.799218893051147,True,,True,1,False,1000,True,1.0
./expes/v2_2020-11-09_3bh_250-prng-1,30_base_hphc_250,250,first-250,151,rng,num-start-191,191,17520,5.272353649139404,True,,True,1,False,1000,True,1.0
./expes/v2_2020-11-09_3bh_250-prng-1,30_base_hphc_250,250,first-250,51,rng,num-start-351,351,17520,8.030218601226807,True,,True,1,False,1000,True,1.0
./expes/v2_2020-11-09_3bh_250-prng-1,30_base_hphc_250,250,first-250,121,rng,num-start-541,541,17520,13.61968207359314,True,,True,1,False,1000,True,1.0
./expes/v2_2020-11-09_3bh_250-prng-1,30_base_hphc_250,250,first-250,201,rng,num-start-871,871,17520,18.472232341766357,True,,True,1,False,1000,True,1.0
./expes/v2_2020-11-09_3bh_250-prng-1,30_base_hphc_250,250,first-250,211,rng,num-start-71,71,17520,2.4527053833007812,True,,True,1,False,1000,True,1.0
./expes/v2_2020-11-09_3bh_250-prng-1,30_base_hphc_250,250,first-250,71,rng,num-start-621,621,17520,14.371710062026978,True,,True,1,False,1000,True,1.0
./expes/v2_2020-11-09_3bh_250-prng-1,30_base_hphc_250,250,first-250,201,rng,num-start-1,1,17520,0.028931140899658203,False,,False,2,False,1000,True,1.0
./expes/v2_2020-11-09_3bh_250-prng-1,30_base_hphc_250,250,first-250,11,rng,num-start-871,871,17520,17.522627115249634,True,,True,1,False,1000,True,1.0
./expes/v2_2020-11-09_3bh_250-prng-1,30_base_hphc_250,250,first-250,71,rng,num-start-261,261,17520,6.281620025634766,True,,True,1,False,1000,True,1.0
./expes/v2_2020-11-09_3bh_250-prng-1,30_base_hphc_250,250,first-250,41,rng,num-start-701,701,17520,16.16181969642639,True,,True,1,False,1000,True,1.0
./expes/v2_2020-11-09_3bh_250-prng-1,30_base_hphc_250,250,first-250,141,rng,num-start-951,951,17520,22.761488437652588,True,,True,1,False,1000,True,1.0
./expes/v2_2020-11-09_3bh_250-prng-1,30_base_hphc_250,250,first-250,231,rng,num-start-371,371,17520,7.513964891433716,True,,True,1,False,1000,True,1.0
./expes/v2_2020-11-09_3bh_250-prng-1,30_base_hphc_250,250,first-250,91,rng,num-start-381,381,17520,9.12914752960205,True,,True,1,False,1000,True,1.0
./expes/v2_2020-11-09_3bh_250-prng-1,30_base_hphc_250,250,first-250,51,rng,num-start-551,551,17520,12.022115707397461,True,,True,1,False,1000,True,1.0
./expes/v2_2020-11-09_3bh_250-prng-1,30_base_hphc_250,250,first-250,211,rng,num-start-41,41,17520,1000.7454221248627,False,,False,0,True,1000,True,0.0
./expes/v2_2020-11-09_3bh_250-prng-1,30_base_hphc_250,250,first-250,201,rng,num-start-631,631,17520,13.341298818588257,True,,True,1,False,1000,True,1.0
./expes/v2_2020-11-09_3bh_250-prng-1,30_base_hphc_250,250,first-250,101,rng,num-start-121,121,17520,3.245205879211426,True,,True,1,False,1000,True,1.0
./expes/v2_2020-11-09_3bh_250-prng-1,30_base_hphc_250,250,first-250,161,rng,num-start-101,101,17520,11.2642822265625,True,,True,1,False,1000,True,1.0
./expes/v2_2020-11-09_3bh_250-prng-1,30_base_hphc_250,250,first-250,101,rng,num-start-181,181,17520,5.00421667098999,True,,True,1,False,1000,True,1.0
./expes/v2_2020-11-09_3bh_250-prng-1,30_base_hphc_250,250,first-250,211,rng,num-start-681,681,17520,15.439335346221924,True,,True,1,False,1000,True,1.0
./expes/v2_2020-11-09_3bh_250-prng-1,30_base_hphc_250,250,first-250,61,rng,num-start-631,631,17520,14.664609670639038,True,,True,1,False,1000,True,1.0
./expes/v2_2020-11-09_3bh_250-prng-1,30_base_hphc_250,250,first-250,231,rng,num-start-401,401,17520,8.507344245910645,True,,True,1,False,1000,True,1.0
