expe,clients,clients_size,clients_subset,agg_size,method,days,days_size,days_total,time,valid,valid_sum,success,nsols,wall_hit,wall_time,pooled,valid_sums
./expes/v2_2020-11-09_3bh_250-prng-1,30_base_hphc_250,250,first-250,31,rng,num-start-751,751,17520,20.060233116149902,True,,True,1,False,1000,True,1.0
./expes/v2_2020-11-09_3bh_250-prng-1,30_base_hphc_250,250,first-250,21,rng,num-start-181,181,17520,5.267392635345459,True,,True,1,False,1000,True,1.0
./expes/v2_2020-11-09_3bh_250-prng-1,30_base_hphc_250,250,first-250,111,rng,num-start-571,571,17520,15.869860172271729,True,,True,1,False,1000,True,1.0
./expes/v2_2020-11-09_3bh_250-prng-1,30_base_hphc_250,250,first-250,161,rng,num-start-671,671,17520,16.877822399139404,True,,True,1,False,1000,True,1.0
./expes/v2_2020-11-09_3bh_250-prng-1,30_base_hphc_250,250,first-250,151,rng,num-start-361,361,17520,10.571413040161133,True,,True,1,False,1000,True,1.0
./expes/v2_2020-11-09_3bh_250-prng-1,30_base_hphc_250,250,first-250,211,rng,num-start-811,811,17520,22.038152933120728,True,,True,1,False,1000,True,1.0
./expes/v2_2020-11-09_3bh_250-prng-1,30_base_hphc_250,250,first-250,161,rng,num-start-621,621,17520,15.600780963897705,True,,True,1,False,1000,True,1.0
./expes/v2_2020-11-09_3bh_250-prng-1,30_base_hphc_250,250,first-250,91,rng,num-start-421,421,17520,10.89283013343811,True,,True,1,False,1000,True,1.0
./expes/v2_2020-11-09_3bh_250-prng-1,30_base_hphc_250,250,first-250,201,rng,num-start-421,421,17520,11.114624261856079,True,,True,1,False,1000,True,1.0
./expes/v2_2020-11-09_3bh_250-prng-1,30_base_hphc_250,250,first-250,61,rng,num-start-511,511,17520,13.002740144729614,True,,True,1,False,1000,True,1.0
./expes/v2_2020-11-09_3bh_250-prng-1,30_base_hphc_250,250,first-250,71,rng,num-start-441,441,17520,11.40621829032898,True,,True,1,False,1000,True,1.0
./expes/v2_2020-11-09_3bh_250-prng-1,30_base_hphc_250,250,first-250,41,rng,num-start-101,101,17520,2.9382293224334717,True,,True,1,False,1000,True,1.0
./expes/v2_2020-11-09_3bh_250-prng-1,30_base_hphc_250,250,first-250,201,rng,num-start-401,401,17520,10.23595118522644,True,,True,1,False,1000,True,1.0
./expes/v2_2020-11-09_3bh_250-prng-1,30_base_hphc_250,250,first-250,141,rng,num-start-311,311,17520,9.620054006576538,True,,True,1,False,1000,True,1.0
./expes/v2_2020-11-09_3bh_250-prng-1,30_base_hphc_250,250,first-250,181,rng,num-start-991,991,17520,24.90907645225525,True,,True,1,False,1000,True,1.0
./expes/v2_2020-11-09_3bh_250-prng-1,30_base_hphc_250,250,first-250,211,rng,num-start-721,721,17520,17.9623441696167,True,,True,1,False,1000,True,1.0
./expes/v2_2020-11-09_3bh_250-prng-1,30_base_hphc_250,250,first-250,41,rng,num-start-121,121,17520,3.2867431640625,True,,True,1,False,1000,True,1.0
./expes/v2_2020-11-09_3bh_250-prng-1,30_base_hphc_250,250,first-250,211,rng,num-start-931,931,17520,23.335309505462646,True,,True,1,False,1000,True,1.0
./expes/v2_2020-11-09_3bh_250-prng-1,30_base_hphc_250,250,first-250,131,rng,num-start-301,301,17520,8.48653268814087,True,,True,1,False,1000,True,1.0
./expes/v2_2020-11-09_3bh_250-prng-1,30_base_hphc_250,250,first-250,151,rng,num-start-211,211,17520,5.705431222915649,True,,True,1,False,1000,True,1.0
./expes/v2_2020-11-09_3bh_250-prng-1,30_base_hphc_250,250,first-250,191,rng,num-start-881,881,17520,21.746926069259644,True,,True,1,False,1000,True,1.0
./expes/v2_2020-11-09_3bh_250-prng-1,30_base_hphc_250,250,first-250,141,rng,num-start-971,971,17520,25.416023015975952,True,,True,1,False,1000,True,1.0
./expes/v2_2020-11-09_3bh_250-prng-1,30_base_hphc_250,250,first-250,241,rng,num-start-331,331,17520,8.027289867401123,True,,True,1,False,1000,True,1.0
./expes/v2_2020-11-09_3bh_250-prng-1,30_base_hphc_250,250,first-250,241,rng,num-start-971,971,17520,22.869795322418213,True,,True,1,False,1000,True,1.0
./expes/v2_2020-11-09_3bh_250-prng-1,30_base_hphc_250,250,first-250,171,rng,num-start-931,931,17520,23.832918643951416,True,,True,1,False,1000,True,1.0
./expes/v2_2020-11-09_3bh_250-prng-1,30_base_hphc_250,250,first-250,161,rng,num-start-481,481,17520,12.217647790908813,True,,True,1,False,1000,True,1.0
./expes/v2_2020-11-09_3bh_250-prng-1,30_base_hphc_250,250,first-250,41,rng,num-start-281,281,17520,7.4605772495269775,True,,True,1,False,1000,True,1.0
./expes/v2_2020-11-09_3bh_250-prng-1,30_base_hphc_250,250,first-250,91,rng,num-start-181,181,17520,5.2786865234375,True,,True,1,False,1000,True,1.0
./expes/v2_2020-11-09_3bh_250-prng-1,30_base_hphc_250,250,first-250,21,rng,num-start-971,971,17520,23.618090867996216,True,,True,1,False,1000,True,1.0
./expes/v2_2020-11-09_3bh_250-prng-1,30_base_hphc_250,250,first-250,11,rng,num-start-411,411,17520,14.412322998046875,True,,True,1,False,1000,True,1.0
./expes/v2_2020-11-09_3bh_250-prng-1,30_base_hphc_250,250,first-250,21,rng,num-start-971,971,17520,26.948012828826904,True,,True,1,False,1000,True,1.0
./expes/v2_2020-11-09_3bh_250-prng-1,30_base_hphc_250,250,first-250,101,rng,num-start-111,111,17520,11.158755540847778,True,,True,1,False,1000,True,1.0
./expes/v2_2020-11-09_3bh_250-prng-1,30_base_hphc_250,250,first-250,241,rng,num-start-151,151,17520,3.8710856437683105,True,,True,1,False,1000,True,1.0
./expes/v2_2020-11-09_3bh_250-prng-1,30_base_hphc_250,250,first-250,161,rng,num-start-551,551,17520,14.615352392196655,True,,True,1,False,1000,True,1.0
./expes/v2_2020-11-09_3bh_250-prng-1,30_base_hphc_250,250,first-250,171,rng,num-start-571,571,17520,14.878055095672607,True,,True,1,False,1000,True,1.0
./expes/v2_2020-11-09_3bh_250-prng-1,30_base_hphc_250,250,first-250,51,rng,num-start-511,511,17520,13.457537651062012,True,,True,1,False,1000,True,1.0
./expes/v2_2020-11-09_3bh_250-prng-1,30_base_hphc_250,250,first-250,131,rng,num-start-991,991,17520,29.096275568008423,True,,True,1,False,1000,True,1.0
./expes/v2_2020-11-09_3bh_250-prng-1,30_base_hphc_250,250,first-250,41,rng,num-start-331,331,17520,8.6510488986969,True,,True,1,False,1000,True,1.0
./expes/v2_2020-11-09_3bh_250-prng-1,30_base_hphc_250,250,first-250,141,rng,num-start-11,11,17520,1000.3251101970673,False,,False,0,True,1000,True,0.0
./expes/v2_2020-11-09_3bh_250-prng-1,30_base_hphc_250,250,first-250,191,rng,num-start-521,521,17520,15.392453670501709,True,,True,1,False,1000,True,1.0
./expes/v2_2020-11-09_3bh_250-prng-1,30_base_hphc_250,250,first-250,241,rng,num-start-31,31,17520,1.5746822357177734,True,,True,1,False,1000,True,1.0
./expes/v2_2020-11-09_3bh_250-prng-1,30_base_hphc_250,250,first-250,11,rng,num-start-571,571,17520,15.279363632202148,True,,True,1,False,1000,True,1.0
./expes/v2_2020-11-09_3bh_250-prng-1,30_base_hphc_250,250,first-250,241,rng,num-start-441,441,17520,11.21032452583313,True,,True,1,False,1000,True,1.0
./expes/v2_2020-11-09_3bh_250-prng-1,30_base_hphc_250,250,first-250,231,rng,num-start-61,61,17520,1.814455509185791,True,,True,1,False,1000,True,1.0
./expes/v2_2020-11-09_3bh_250-prng-1,30_base_hphc_250,250,first-250,11,rng,num-start-451,451,17520,11.419611692428589,True,,True,1,False,1000,True,1.0
./expes/v2_2020-11-09_3bh_250-prng-1,30_base_hphc_250,250,first-250,231,rng,num-start-61,61,17520,1.9642858505249023,True,,True,1,False,1000,True,1.0
./expes/v2_2020-11-09_3bh_250-prng-1,30_base_hphc_250,250,first-250,241,rng,num-start-581,581,17520,15.368517637252808,True,,True,1,False,1000,True,1.0
./expes/v2_2020-11-09_3bh_250-prng-1,30_base_hphc_250,250,first-250,81,rng,num-start-551,551,17520,14.602395057678223,True,,True,1,False,1000,True,1.0
./expes/v2_2020-11-09_3bh_250-prng-1,30_base_hphc_250,250,first-250,1,rng,num-start-371,371,17520,8.646854162216187,True,,True,1,False,1000,True,1.0
./expes/v2_2020-11-09_3bh_250-prng-1,30_base_hphc_250,250,first-250,201,rng,num-start-221,221,17520,6.0748326778411865,True,,True,1,False,1000,True,1.0
./expes/v2_2020-11-09_3bh_250-prng-1,30_base_hphc_250,250,first-250,141,rng,num-start-951,951,17520,28.099058151245117,True,,True,1,False,1000,True,1.0
./expes/v2_2020-11-09_3bh_250-prng-1,30_base_hphc_250,250,first-250,1,rng,num-start-301,301,17520,6.95735502243042,True,,True,1,False,1000,True,1.0
./expes/v2_2020-11-09_3bh_250-prng-1,30_base_hphc_250,250,first-250,181,rng,num-start-311,311,17520,9.052940368652344,True,,True,1,False,1000,True,1.0
./expes/v2_2020-11-09_3bh_250-prng-1,30_base_hphc_250,250,first-250,151,rng,num-start-131,131,17520,4.1124653816223145,True,,True,1,False,1000,True,1.0
./expes/v2_2020-11-09_3bh_250-prng-1,30_base_hphc_250,250,first-250,121,rng,num-start-131,131,17520,6.277957916259766,True,,True,1,False,1000,True,1.0
./expes/v2_2020-11-09_3bh_250-prng-1,30_base_hphc_250,250,first-250,211,rng,num-start-131,131,17520,4.0824103355407715,True,,True,1,False,1000,True,1.0
./expes/v2_2020-11-09_3bh_250-prng-1,30_base_hphc_250,250,first-250,181,rng,num-start-881,881,17520,22.867204904556274,True,,True,1,False,1000,True,1.0
./expes/v2_2020-11-09_3bh_250-prng-1,30_base_hphc_250,250,first-250,61,rng,num-start-201,201,17520,5.856479644775391,True,,True,1,False,1000,True,1.0
./expes/v2_2020-11-09_3bh_250-prng-1,30_base_hphc_250,250,first-250,171,rng,num-start-941,941,17520,24.239654779434204,True,,True,1,False,1000,True,1.0
./expes/v2_2020-11-09_3bh_250-prng-1,30_base_hphc_250,250,first-250,91,rng,num-start-201,201,17520,5.963059425354004,True,,True,1,False,1000,True,1.0
./expes/v2_2020-11-09_3bh_250-prng-1,30_base_hphc_250,250,first-250,231,rng,num-start-241,241,17520,6.659724950790405,True,,True,1,False,1000,True,1.0
./expes/v2_2020-11-09_3bh_250-prng-1,30_base_hphc_250,250,first-250,101,rng,num-start-911,911,17520,24.169715881347656,True,,True,1,False,1000,True,1.0
./expes/v2_2020-11-09_3bh_250-prng-1,30_base_hphc_250,250,first-250,131,rng,num-start-91,91,17520,1002.2426917552948,False,,False,0,True,1000,True,0.0
./expes/v2_2020-11-09_3bh_250-prng-1,30_base_hphc_250,250,first-250,31,rng,num-start-361,361,17520,9.800271987915039,True,,True,1,False,1000,True,1.0
./expes/v2_2020-11-09_3bh_250-prng-1,30_base_hphc_250,250,first-250,81,rng,num-start-271,271,17520,7.6550397872924805,True,,True,1,False,1000,True,1.0
./expes/v2_2020-11-09_3bh_250-prng-1,30_base_hphc_250,250,first-250,141,rng,num-start-871,871,17520,23.169360399246216,True,,True,1,False,1000,True,1.0
