expe,clients,clients_size,clients_subset,agg_size,method,days,days_size,days_total,time,valid,valid_sum,success,nsols,wall_hit,wall_time,pooled,valid_sums
./expes/v2_2020-11-05_dbh_200-prng-1,daily_base_hphc_200,200,first-200,51,rng,num-start-21,21,365,1000.6325776576996,False,,False,0,True,1000,True,0.0
./expes/v2_2020-11-05_dbh_200-prng-1,daily_base_hphc_200,200,first-200,1,rng,num-start-251,251,365,4.689697265625,True,,True,1,False,1000,True,1.0
./expes/v2_2020-11-05_dbh_200-prng-1,daily_base_hphc_200,200,first-200,191,rng,num-start-281,281,365,5.407930612564087,True,,True,1,False,1000,True,1.0
./expes/v2_2020-11-05_dbh_200-prng-1,daily_base_hphc_200,200,first-200,91,rng,num-start-91,91,365,4.444845914840698,True,,True,1,False,1000,True,1.0
./expes/v2_2020-11-05_dbh_200-prng-1,daily_base_hphc_200,200,first-200,81,rng,num-start-111,111,365,2.5941970348358154,True,,True,1,False,1000,True,1.0
./expes/v2_2020-11-05_dbh_200-prng-1,daily_base_hphc_200,200,first-200,121,rng,num-start-71,71,365,544.1916809082031,True,,True,1,False,1000,True,1.0
./expes/v2_2020-11-05_dbh_200-prng-1,daily_base_hphc_200,200,first-200,141,rng,num-start-81,81,365,2.0772957801818848,True,,True,1,False,1000,True,1.0
./expes/v2_2020-11-05_dbh_200-prng-1,daily_base_hphc_200,200,first-200,11,rng,num-start-221,221,365,4.739831447601318,True,,True,1,False,1000,True,1.0
./expes/v2_2020-11-05_dbh_200-prng-1,daily_base_hphc_200,200,first-200,151,rng,num-start-211,211,365,4.693381071090698,True,,True,1,False,1000,True,1.0
./expes/v2_2020-11-05_dbh_200-prng-1,daily_base_hphc_200,200,first-200,191,rng,num-start-241,241,365,4.977513551712036,True,,True,1,False,1000,True,1.0
./expes/v2_2020-11-05_dbh_200-prng-1,daily_base_hphc_200,200,first-200,41,rng,num-start-241,241,365,5.459715843200684,True,,True,1,False,1000,True,1.0
./expes/v2_2020-11-05_dbh_200-prng-1,daily_base_hphc_200,200,first-200,191,rng,num-start-161,161,365,3.3897368907928467,True,,True,1,False,1000,True,1.0
./expes/v2_2020-11-05_dbh_200-prng-1,daily_base_hphc_200,200,first-200,181,rng,num-start-1,1,365,0.051573753356933594,False,,False,2,False,1000,True,1.0
./expes/v2_2020-11-05_dbh_200-prng-1,daily_base_hphc_200,200,first-200,41,rng,num-start-31,31,365,1000.6617827415466,False,,False,0,True,1000,True,0.0
./expes/v2_2020-11-05_dbh_200-prng-1,daily_base_hphc_200,200,first-200,161,rng,num-start-101,101,365,2.3320913314819336,True,,True,1,False,1000,True,1.0
./expes/v2_2020-11-05_dbh_200-prng-1,daily_base_hphc_200,200,first-200,101,rng,num-start-161,161,365,3.8134429454803467,True,,True,1,False,1000,True,1.0
./expes/v2_2020-11-05_dbh_200-prng-1,daily_base_hphc_200,200,first-200,41,rng,num-start-271,271,365,5.856590986251831,True,,True,1,False,1000,True,1.0
./expes/v2_2020-11-05_dbh_200-prng-1,daily_base_hphc_200,200,first-200,41,rng,num-start-71,71,365,1.5185322761535645,True,,True,1,False,1000,True,1.0
./expes/v2_2020-11-05_dbh_200-prng-1,daily_base_hphc_200,200,first-200,171,rng,num-start-161,161,365,3.6040658950805664,True,,True,1,False,1000,True,1.0
./expes/v2_2020-11-05_dbh_200-prng-1,daily_base_hphc_200,200,first-200,61,rng,num-start-241,241,365,5.450197458267212,True,,True,1,False,1000,True,1.0
./expes/v2_2020-11-05_dbh_200-prng-1,daily_base_hphc_200,200,first-200,71,rng,num-start-81,81,365,2.739067792892456,True,,True,1,False,1000,True,1.0
./expes/v2_2020-11-05_dbh_200-prng-1,daily_base_hphc_200,200,first-200,141,rng,num-start-161,161,365,3.836714744567871,True,,True,1,False,1000,True,1.0
./expes/v2_2020-11-05_dbh_200-prng-1,daily_base_hphc_200,200,first-200,41,rng,num-start-91,91,365,2.0720739364624023,True,,True,1,False,1000,True,1.0
./expes/v2_2020-11-05_dbh_200-prng-1,daily_base_hphc_200,200,first-200,121,rng,num-start-101,101,365,3.926074504852295,True,,True,1,False,1000,True,1.0
./expes/v2_2020-11-05_dbh_200-prng-1,daily_base_hphc_200,200,first-200,11,rng,num-start-151,151,365,3.27156662940979,True,,True,1,False,1000,True,1.0
./expes/v2_2020-11-05_dbh_200-prng-1,daily_base_hphc_200,200,first-200,161,rng,num-start-161,161,365,3.397515058517456,True,,True,1,False,1000,True,1.0
./expes/v2_2020-11-05_dbh_200-prng-1,daily_base_hphc_200,200,first-200,161,rng,num-start-161,161,365,3.592724323272705,True,,True,1,False,1000,True,1.0
./expes/v2_2020-11-05_dbh_200-prng-1,daily_base_hphc_200,200,first-200,21,rng,num-start-261,261,365,5.665241003036499,True,,True,1,False,1000,True,1.0
./expes/v2_2020-11-05_dbh_200-prng-1,daily_base_hphc_200,200,first-200,171,rng,num-start-171,171,365,3.633737802505493,True,,True,1,False,1000,True,1.0
./expes/v2_2020-11-05_dbh_200-prng-1,daily_base_hphc_200,200,first-200,181,rng,num-start-141,141,365,3.084620714187622,True,,True,1,False,1000,True,1.0
./expes/v2_2020-11-05_dbh_200-prng-1,daily_base_hphc_200,200,first-200,101,rng,num-start-101,101,365,2.2247631549835205,True,,True,1,False,1000,True,1.0
./expes/v2_2020-11-05_dbh_200-prng-1,daily_base_hphc_200,200,first-200,101,rng,num-start-201,201,365,4.663424253463745,True,,True,1,False,1000,True,1.0
./expes/v2_2020-11-05_dbh_200-prng-1,daily_base_hphc_200,200,first-200,121,rng,num-start-41,41,365,1000.9702200889587,False,,False,0,True,1000,True,0.0
./expes/v2_2020-11-05_dbh_200-prng-1,daily_base_hphc_200,200,first-200,141,rng,num-start-111,111,365,2.605212450027466,True,,True,1,False,1000,True,1.0
./expes/v2_2020-11-05_dbh_200-prng-1,daily_base_hphc_200,200,first-200,171,rng,num-start-141,141,365,3.1142117977142334,True,,True,1,False,1000,True,1.0
./expes/v2_2020-11-05_dbh_200-prng-1,daily_base_hphc_200,200,first-200,81,rng,num-start-81,81,365,3.2395291328430176,True,,True,1,False,1000,True,1.0
./expes/v2_2020-11-05_dbh_200-prng-1,daily_base_hphc_200,200,first-200,81,rng,num-start-241,241,365,5.573208332061768,True,,True,1,False,1000,True,1.0
./expes/v2_2020-11-05_dbh_200-prng-1,daily_base_hphc_200,200,first-200,111,rng,num-start-181,181,365,4.446285247802734,True,,True,1,False,1000,True,1.0
./expes/v2_2020-11-05_dbh_200-prng-1,daily_base_hphc_200,200,first-200,91,rng,num-start-181,181,365,3.9844069480895996,True,,True,1,False,1000,True,1.0
./expes/v2_2020-11-05_dbh_200-prng-1,daily_base_hphc_200,200,first-200,131,rng,num-start-41,41,365,1001.1252536773682,False,,False,0,True,1000,True,0.0
./expes/v2_2020-11-05_dbh_200-prng-1,daily_base_hphc_200,200,first-200,71,rng,num-start-171,171,365,4.186473369598389,True,,True,1,False,1000,True,1.0
./expes/v2_2020-11-05_dbh_200-prng-1,daily_base_hphc_200,200,first-200,41,rng,num-start-51,51,365,132.57268118858337,True,,True,1,False,1000,True,1.0
./expes/v2_2020-11-05_dbh_200-prng-1,daily_base_hphc_200,200,first-200,141,rng,num-start-211,211,365,4.710358619689941,True,,True,1,False,1000,True,1.0
./expes/v2_2020-11-05_dbh_200-prng-1,daily_base_hphc_200,200,first-200,141,rng,num-start-261,261,365,5.910234212875366,True,,True,1,False,1000,True,1.0
./expes/v2_2020-11-05_dbh_200-prng-1,daily_base_hphc_200,200,first-200,121,rng,num-start-271,271,365,6.009013414382935,True,,True,1,False,1000,True,1.0
./expes/v2_2020-11-05_dbh_200-prng-1,daily_base_hphc_200,200,first-200,1,rng,num-start-221,221,365,4.016629695892334,True,,True,1,False,1000,True,1.0
./expes/v2_2020-11-05_dbh_200-prng-1,daily_base_hphc_200,200,first-200,121,rng,num-start-141,141,365,3.393148422241211,True,,True,1,False,1000,True,1.0
./expes/v2_2020-11-05_dbh_200-prng-1,daily_base_hphc_200,200,first-200,61,rng,num-start-141,141,365,3.1181623935699463,True,,True,1,False,1000,True,1.0
./expes/v2_2020-11-05_dbh_200-prng-1,daily_base_hphc_200,200,first-200,151,rng,num-start-211,211,365,4.919489145278931,True,,True,1,False,1000,True,1.0
./expes/v2_2020-11-05_dbh_200-prng-1,daily_base_hphc_200,200,first-200,111,rng,num-start-121,121,365,3.0037941932678223,True,,True,1,False,1000,True,1.0
./expes/v2_2020-11-05_dbh_200-prng-1,daily_base_hphc_200,200,first-200,51,rng,num-start-161,161,365,3.7337586879730225,True,,True,1,False,1000,True,1.0
./expes/v2_2020-11-05_dbh_200-prng-1,daily_base_hphc_200,200,first-200,111,rng,num-start-1,1,365,0.11162590980529785,False,,False,2,False,1000,True,1.0
./expes/v2_2020-11-05_dbh_200-prng-1,daily_base_hphc_200,200,first-200,21,rng,num-start-241,241,365,5.262187480926514,True,,True,1,False,1000,True,1.0
./expes/v2_2020-11-05_dbh_200-prng-1,daily_base_hphc_200,200,first-200,151,rng,num-start-141,141,365,3.0284311771392822,True,,True,1,False,1000,True,1.0
./expes/v2_2020-11-05_dbh_200-prng-1,daily_base_hphc_200,200,first-200,141,rng,num-start-291,291,365,6.1938629150390625,True,,True,1,False,1000,True,1.0
./expes/v2_2020-11-05_dbh_200-prng-1,daily_base_hphc_200,200,first-200,81,rng,num-start-1,1,365,0.06957364082336426,False,,False,2,False,1000,True,1.0
./expes/v2_2020-11-05_dbh_200-prng-1,daily_base_hphc_200,200,first-200,81,rng,num-start-21,21,365,1000.5757138729095,False,,False,0,True,1000,True,0.0
./expes/v2_2020-11-05_dbh_200-prng-1,daily_base_hphc_200,200,first-200,131,rng,num-start-261,261,365,5.499759674072266,True,,True,1,False,1000,True,1.0
./expes/v2_2020-11-05_dbh_200-prng-1,daily_base_hphc_200,200,first-200,31,rng,num-start-121,121,365,2.844780206680298,True,,True,1,False,1000,True,1.0
./expes/v2_2020-11-05_dbh_200-prng-1,daily_base_hphc_200,200,first-200,101,rng,num-start-51,51,365,1001.1336333751678,False,,False,0,True,1000,True,0.0
./expes/v2_2020-11-05_dbh_200-prng-1,daily_base_hphc_200,200,first-200,111,rng,num-start-221,221,365,5.262996435165405,True,,True,1,False,1000,True,1.0
./expes/v2_2020-11-05_dbh_200-prng-1,daily_base_hphc_200,200,first-200,91,rng,num-start-101,101,365,2.6864912509918213,True,,True,1,False,1000,True,1.0
./expes/v2_2020-11-05_dbh_200-prng-1,daily_base_hphc_200,200,first-200,71,rng,num-start-21,21,365,1000.4888834953308,False,,False,0,True,1000,True,0.0
./expes/v2_2020-11-05_dbh_200-prng-1,daily_base_hphc_200,200,first-200,91,rng,num-start-231,231,365,5.310035705566406,True,,True,1,False,1000,True,1.0
./expes/v2_2020-11-05_dbh_200-prng-1,daily_base_hphc_200,200,first-200,41,rng,num-start-171,171,365,4.01664662361145,True,,True,1,False,1000,True,1.0
./expes/v2_2020-11-05_dbh_200-prng-1,daily_base_hphc_200,200,first-200,11,rng,num-start-121,121,365,2.763922691345215,True,,True,1,False,1000,True,1.0
./expes/v2_2020-11-05_dbh_200-prng-1,daily_base_hphc_200,200,first-200,91,rng,num-start-271,271,365,6.3979246616363525,True,,True,1,False,1000,True,1.0
./expes/v2_2020-11-05_dbh_200-prng-1,daily_base_hphc_200,200,first-200,21,rng,num-start-201,201,365,4.26330828666687,True,,True,1,False,1000,True,1.0
./expes/v2_2020-11-05_dbh_200-prng-1,daily_base_hphc_200,200,first-200,61,rng,num-start-51,51,365,1001.210458278656,False,,False,0,True,1000,True,0.0
./expes/v2_2020-11-05_dbh_200-prng-1,daily_base_hphc_200,200,first-200,121,rng,num-start-91,91,365,2.2230947017669678,True,,True,1,False,1000,True,1.0
./expes/v2_2020-11-05_dbh_200-prng-1,daily_base_hphc_200,200,first-200,31,rng,num-start-191,191,365,4.162414789199829,True,,True,1,False,1000,True,1.0
./expes/v2_2020-11-05_dbh_200-prng-1,daily_base_hphc_200,200,first-200,91,rng,num-start-191,191,365,4.427629709243774,True,,True,1,False,1000,True,1.0
./expes/v2_2020-11-05_dbh_200-prng-1,daily_base_hphc_200,200,first-200,11,rng,num-start-121,121,365,2.5740907192230225,True,,True,1,False,1000,True,1.0
./expes/v2_2020-11-05_dbh_200-prng-1,daily_base_hphc_200,200,first-200,111,rng,num-start-121,121,365,3.012810468673706,True,,True,1,False,1000,True,1.0
./expes/v2_2020-11-05_dbh_200-prng-1,daily_base_hphc_200,200,first-200,71,rng,num-start-231,231,365,5.378072261810303,True,,True,1,False,1000,True,1.0
./expes/v2_2020-11-05_dbh_200-prng-1,daily_base_hphc_200,200,first-200,1,rng,num-start-171,171,365,3.119692325592041,True,,True,1,False,1000,True,1.0
./expes/v2_2020-11-05_dbh_200-prng-1,daily_base_hphc_200,200,first-200,51,rng,num-start-101,101,365,2.5049221515655518,True,,True,1,False,1000,True,1.0
./expes/v2_2020-11-05_dbh_200-prng-1,daily_base_hphc_200,200,first-200,141,rng,num-start-1,1,365,0.09237456321716309,False,,False,2,False,1000,True,1.0
./expes/v2_2020-11-05_dbh_200-prng-1,daily_base_hphc_200,200,first-200,11,rng,num-start-111,111,365,2.419464349746704,True,,True,1,False,1000,True,1.0
./expes/v2_2020-11-05_dbh_200-prng-1,daily_base_hphc_200,200,first-200,31,rng,num-start-31,31,365,1000.7081117630005,False,,False,0,True,1000,True,0.0
./expes/v2_2020-11-05_dbh_200-prng-1,daily_base_hphc_200,200,first-200,91,rng,num-start-1,1,365,0.14181232452392578,False,,False,2,False,1000,True,1.0
./expes/v2_2020-11-05_dbh_200-prng-1,daily_base_hphc_200,200,first-200,61,rng,num-start-61,61,365,1001.2352824211121,False,,False,0,True,1000,True,0.0
./expes/v2_2020-11-05_dbh_200-prng-1,daily_base_hphc_200,200,first-200,131,rng,num-start-31,31,365,1000.9943141937256,False,,False,0,True,1000,True,0.0
./expes/v2_2020-11-05_dbh_200-prng-1,daily_base_hphc_200,200,first-200,131,rng,num-start-71,71,365,716.9073631763458,True,,True,1,False,1000,True,1.0
