expe,clients,clients_size,clients_subset,agg_size,agg_size_pc,method,days,days_size,days_total,noise_method,time,valid,valid_sum,success,score_avg,score_min,score_max,nsols,oracle,wall_hit,wall_time,pooled,pool_size,uuid,infeasible,optimal,valid_sums
./expes/v3_2021-02-19_hi_1000-prng-1-w1-fpa10-0.6-p100,30_issda-1000,1000,first-1000,400,40,rng,num-start-3500,3500,25726,fpa-09-10-0.6-20,537.4917435646057,False,,False,0.3068630632813259,0.303950803114834,0.31117892419404414,100,"['2', '4', '5', '8', '12', '14', '16', '21', '22', '23', '28', '30', '32', '33', '34', '35', '36', '37', '44', '46', '47', '48', '51', '52', '53', '55', '57', '62', '63', '65', '66', '68', '69', '70', '71', '74', '79', '82', '88', '89', '91', '100', '105', '106', '107', '108', '111', '117', '122', '123', '124', '126', '127', '128', '129', '130', '131', '132', '133', '134', '135', '137', '138', '140', '142', '155', '156', '160', '161', '164', '168', '174', '176', '182', '183', '188', '190', '192', '196', '197', '203', '204', '205', '217', '223', '224', '227', '228', '230', '231', '233', '238', '240', '242', '244', '245', '246', '251', '255', '258', '259', '265', '266', '270', '271', '272', '274', '276', '278', '281', '286', '287', '292', '294', '296', '298', '299', '301', '306', '308', '309', '311', '312', '318', '321', '322', '323', '324', '328', '330', '331', '335', '336', '337', '339', '341', '342', '345', '348', '349', '350', '353', '354', '355', '360', '361', '362', '369', '370', '373', '375', '379', '386', '387', '390', '396', '397', '399', '400', '405', '407', '410', '418', '420', '421', '424', '426', '427', '430', '432', '434', '438', '439', '441', '442', '445', '446', '447', '448', '449', '456', '462', '468', '472', '476', '478', '481', '482', '485', '486', '488', '489', '493', '494', '495', '496', '500', '502', '507', '513', '515', '516', '518', '520', '523', '525', '528', '531', '532', '533', '534', '536', '538', '540', '543', '547', '548', '549', '550', '554', '555', '557', '558', '562', '563', '565', '569', '573', '581', '582', '583', '585', '586', '588', '589', '591', '594', '595', '599', '600', '601', '603', '604', '606', '607', '610', '615', '616', '619', '620', '621', '624', '626', '627', '630', '631', '633', '635', '636', '638', '641', '642', '643', '644', '648', '649', '650', '651', '655', '658', '660', '663', '666', '670', '672', '679', '688', '689', '692', '693', '695', '696', '698', '699', '701', '707', '711', '713', '715', '716', '724', '730', '731', '732', '733', '734', '735', '736', '737', '738', '741', '746', '753', '756', '760', '764', '766', '772', '775', '777', '780', '788', '791', '794', '796', '798', '799', '802', '806', '807', '808', '811', '813', '815', '820', '821', '823', '824', '826', '827', '830', '831', '832', '833', '837', '840', '844', '848', '852', '853', '854', '857', '858', '859', '865', '871', '875', '876', '877', '878', '879', '882', '883', '884', '885', '887', '888', '889', '891', '894', '900', '902', '903', '905', '907', '909', '911', '912', '919', '922', '926', '927', '931', '935', '938', '940', '943', '944', '945', '947', '949', '950', '952', '959', '962', '964', '966', '972', '973', '978', '981', '982', '984', '987', '988', '989', '995', '996', '997', '999']",False,1000,True,100,d8c09eb094,0.0,1.0,0.0
./expes/v3_2021-02-19_hi_1000-prng-1-w1-fpa10-0.6-p100,30_issda-1000,1000,first-1000,450,45,rng,num-start-3250,3250,25726,fpa-09-10-0.6-20,527.0118820667267,False,,False,0.3065633305488185,0.298221906517101,0.31409149992840113,100,"['2', '4', '5', '6', '8', '12', '14', '16', '19', '21', '22', '23', '25', '27', '28', '29', '30', '32', '33', '34', '35', '36', '37', '44', '45', '46', '47', '48', '51', '52', '53', '55', '57', '62', '63', '65', '66', '68', '69', '70', '71', '74', '79', '82', '88', '89', '91', '95', '100', '102', '105', '106', '107', '108', '111', '112', '117', '118', '122', '123', '124', '125', '126', '127', '128', '129', '130', '131', '132', '133', '134', '135', '137', '138', '140', '142', '147', '155', '156', '160', '161', '164', '168', '174', '176', '182', '183', '184', '188', '190', '192', '196', '197', '203', '204', '205', '217', '223', '224', '227', '228', '230', '231', '233', '238', '240', '242', '244', '245', '246', '251', '255', '258', '259', '265', '266', '269', '270', '271', '272', '274', '276', '277', '278', '281', '286', '287', '292', '294', '296', '298', '299', '301', '306', '308', '309', '311', '312', '318', '321', '322', '323', '324', '327', '328', '330', '331', '334', '335', '336', '337', '339', '341', '342', '345', '348', '349', '350', '353', '354', '355', '360', '361', '362', '369', '370', '373', '375', '379', '382', '383', '384', '385', '386', '387', '390', '396', '397', '399', '400', '405', '407', '410', '418', '420', '421', '424', '426', '427', '429', '430', '431', '432', '434', '436', '437', '438', '439', '441', '442', '445', '446', '447', '448', '449', '456', '462', '468', '472', '476', '478', '481', '482', '485', '486', '488', '489', '493', '494', '495', '496', '500', '502', '507', '509', '513', '515', '516', '518', '520', '523', '525', '528', '531', '532', '533', '534', '536', '538', '540', '543', '545', '547', '548', '549', '550', '554', '555', '557', '558', '562', '563', '565', '569', '573', '578', '581', '582', '583', '585', '586', '588', '589', '591', '594', '595', '599', '600', '601', '602', '603', '604', '605', '606', '607', '610', '615', '616', '619', '620', '621', '624', '626', '627', '630', '631', '633', '635', '636', '638', '641', '642', '643', '644', '648', '649', '650', '651', '652', '655', '658', '660', '663', '666', '670', '672', '676', '679', '684', '688', '689', '692', '693', '695', '696', '698', '699', '701', '707', '708', '711', '712', '713', '715', '716', '720', '724', '730', '731', '732', '733', '734', '735', '736', '737', '738', '741', '746', '750', '752', '753', '756', '760', '764', '766', '772', '775', '777', '779', '780', '788', '791', '793', '794', '796', '798', '799', '802', '806', '807', '808', '810', '811', '812', '813', '815', '820', '821', '823', '824', '826', '827', '830', '831', '832', '833', '837', '840', '844', '848', '852', '853', '854', '857', '858', '859', '862', '865', '871', '873', '875', '876', '877', '878', '879', '882', '883', '884', '885', '887', '888', '889', '891', '892', '894', '900', '901', '902', '903', '905', '907', '908', '909', '911', '912', '919', '920', '922', '926', '927', '931', '935', '938', '940', '943', '944', '945', '947', '949', '950', '952', '959', '962', '964', '966', '972', '973', '974', '978', '981', '982', '984', '987', '988', '989', '993', '995', '996', '997', '999']",False,1000,True,100,79c80dc42b,0.0,1.0,0.0
./expes/v3_2021-02-19_hi_1000-prng-1-w1-fpa10-0.6-p100,30_issda-1000,1000,first-1000,450,45,rng,num-start-3000,3000,25726,fpa-09-10-0.6-20,437.1953818798065,False,,False,0.2946846704450361,0.2827033288000601,0.298221906517101,100,"['2', '3', '6', '9', '10', '11', '13', '15', '18', '19', '22', '23', '25', '27', '28', '29', '30', '31', '32', '34', '36', '37', '39', '41', '42', '45', '47', '49', '58', '61', '65', '66', '67', '72', '73', '75', '79', '84', '86', '87', '89', '92', '94', '97', '99', '102', '103', '105', '106', '107', '111', '112', '113', '115', '117', '118', '119', '121', '124', '129', '133', '134', '137', '138', '139', '150', '151', '161', '163', '164', '165', '166', '168', '171', '172', '173', '174', '175', '176', '178', '182', '186', '188', '190', '191', '193', '195', '199', '204', '205', '206', '211', '213', '215', '218', '219', '221', '222', '223', '225', '226', '228', '229', '230', '231', '233', '235', '236', '237', '238', '239', '241', '246', '248', '249', '253', '256', '257', '259', '260', '262', '265', '266', '273', '274', '275', '276', '280', '284', '288', '289', '291', '297', '298', '299', '302', '303', '304', '306', '311', '314', '315', '316', '318', '320', '321', '323', '325', '326', '328', '329', '330', '334', '336', '340', '341', '347', '348', '349', '350', '352', '353', '354', '355', '356', '362', '365', '366', '370', '374', '376', '377', '380', '384', '388', '389', '390', '391', '393', '396', '400', '401', '403', '404', '405', '407', '409', '412', '414', '415', '417', '424', '425', '427', '432', '433', '437', '440', '443', '444', '446', '449', '450', '457', '459', '461', '462', '464', '466', '467', '469', '470', '471', '472', '481', '484', '486', '489', '492', '493', '497', '500', '501', '502', '505', '508', '509', '512', '513', '515', '517', '518', '519', '520', '521', '522', '523', '525', '527', '529', '532', '534', '537', '541', '546', '548', '552', '553', '554', '555', '556', '558', '561', '562', '564', '565', '567', '568', '570', '575', '577', '578', '579', '580', '583', '584', '585', '588', '590', '592', '593', '594', '599', '601', '602', '604', '605', '606', '608', '611', '615', '616', '619', '621', '623', '624', '627', '628', '629', '630', '633', '638', '639', '640', '645', '646', '647', '651', '658', '663', '664', '665', '666', '668', '673', '676', '678', '680', '681', '682', '687', '690', '691', '692', '694', '695', '698', '703', '704', '705', '712', '713', '720', '721', '722', '729', '733', '737', '739', '742', '743', '744', '747', '748', '751', '756', '759', '761', '762', '772', '773', '774', '778', '780', '781', '783', '786', '787', '789', '790', '795', '797', '798', '799', '801', '802', '803', '804', '805', '806', '808', '809', '816', '817', '818', '822', '823', '824', '826', '829', '831', '833', '837', '838', '840', '841', '846', '848', '849', '850', '853', '856', '858', '861', '862', '866', '867', '868', '869', '871', '872', '874', '878', '879', '880', '881', '882', '887', '889', '891', '893', '897', '900', '903', '904', '907', '908', '909', '913', '915', '918', '919', '922', '923', '924', '932', '933', '936', '937', '939', '940', '943', '945', '948', '949', '954', '955', '959', '961', '962', '964', '967', '968', '973', '975', '976', '978', '981', '983', '986', '988', '989', '991', '992', '993', '994', '997', '998', '999', '1000']",False,1000,True,100,fdde8c2f77,0.0,1.0,0.0
./expes/v3_2021-02-19_hi_1000-prng-1-w1-fpa10-0.6-p100,30_issda-1000,1000,first-1000,250,25,rng,num-start-3750,3750,25726,fpa-09-10-0.6-20,575.5630371570587,False,,False,0.38567955564280454,0.3751877158774882,0.396373986342235,100,"['8', '10', '19', '21', '27', '33', '37', '38', '42', '44', '45', '46', '48', '53', '57', '61', '64', '69', '80', '84', '85', '89', '92', '93', '100', '104', '106', '109', '117', '120', '126', '140', '146', '149', '154', '157', '159', '163', '166', '169', '173', '174', '177', '182', '183', '189', '193', '197', '199', '200', '201', '204', '206', '207', '208', '213', '214', '220', '221', '225', '228', '235', '238', '239', '242', '244', '248', '249', '254', '255', '256', '257', '260', '261', '266', '267', '268', '269', '279', '283', '284', '285', '287', '288', '293', '296', '297', '298', '299', '300', '301', '308', '311', '313', '318', '320', '323', '329', '330', '331', '332', '333', '335', '340', '346', '352', '365', '366', '369', '372', '373', '374', '382', '391', '397', '398', '406', '412', '413', '420', '421', '423', '424', '428', '432', '434', '435', '439', '442', '447', '450', '452', '455', '463', '466', '471', '474', '483', '485', '490', '491', '503', '504', '507', '511', '519', '521', '532', '533', '539', '542', '548', '550', '560', '561', '563', '572', '579', '584', '586', '587', '597', '603', '610', '614', '621', '622', '631', '633', '636', '642', '643', '648', '650', '651', '657', '663', '664', '668', '669', '670', '688', '690', '692', '694', '697', '715', '718', '722', '726', '735', '739', '750', '753', '755', '763', '765', '784', '791', '793', '794', '799', '803', '810', '817', '820', '824', '827', '833', '838', '847', '849', '851', '855', '860', '861', '866', '869', '876', '883', '887', '889', '891', '892', '902', '904', '911', '913', '916', '918', '923', '927', '931', '936', '939', '940', '950', '951', '958', '965', '966', '968', '978', '983', '984', '985', '986', '988', '990', '994']",False,1000,True,100,6689090b56,0.0,1.0,0.0
./expes/v3_2021-02-19_hi_1000-prng-1-w1-fpa10-0.6-p100,30_issda-1000,1000,first-1000,350,35,rng,num-start-3000,3000,25726,fpa-09-10-0.6-20,347.52387833595276,False,,False,0.31679850350351885,0.31409149992840113,0.3273541403885306,100,"['2', '3', '6', '9', '10', '13', '15', '18', '19', '22', '23', '25', '27', '29', '30', '31', '32', '34', '36', '37', '39', '45', '49', '58', '61', '65', '72', '73', '79', '86', '89', '94', '97', '99', '102', '103', '105', '107', '111', '112', '113', '117', '121', '124', '129', '133', '134', '138', '139', '150', '161', '163', '164', '165', '168', '172', '173', '175', '176', '178', '182', '186', '190', '191', '193', '195', '199', '205', '206', '211', '215', '218', '219', '222', '223', '225', '226', '228', '229', '231', '233', '235', '236', '237', '238', '239', '249', '256', '259', '260', '262', '265', '273', '276', '280', '288', '289', '291', '297', '298', '302', '304', '306', '311', '314', '316', '318', '320', '326', '329', '330', '334', '336', '340', '341', '348', '352', '353', '354', '355', '356', '362', '366', '374', '376', '380', '384', '388', '389', '391', '393', '396', '400', '403', '404', '405', '407', '412', '414', '415', '424', '425', '427', '432', '433', '437', '440', '443', '444', '449', '450', '457', '461', '462', '464', '466', '470', '471', '472', '481', '484', '486', '492', '493', '497', '500', '502', '505', '508', '509', '512', '513', '515', '517', '518', '519', '520', '521', '522', '523', '525', '527', '529', '532', '534', '537', '541', '552', '553', '554', '555', '558', '562', '564', '565', '567', '568', '570', '575', '577', '579', '583', '584', '588', '590', '592', '593', '599', '602', '604', '605', '606', '608', '615', '621', '623', '624', '627', '628', '630', '638', '639', '640', '645', '646', '647', '651', '658', '663', '664', '665', '666', '668', '673', '676', '680', '681', '682', '687', '690', '691', '692', '694', '695', '703', '712', '713', '720', '721', '722', '729', '737', '739', '742', '744', '747', '748', '751', '756', '759', '761', '762', '773', '774', '780', '781', '783', '786', '790', '795', '797', '798', '799', '802', '803', '806', '808', '816', '817', '818', '822', '823', '824', '829', '831', '833', '837', '840', '841', '848', '850', '853', '856', '858', '861', '862', '867', '868', '869', '871', '872', '874', '878', '879', '880', '881', '882', '889', '891', '893', '897', '900', '903', '904', '908', '915', '918', '919', '922', '923', '924', '932', '933', '939', '940', '943', '945', '949', '954', '959', '961', '962', '964', '967', '968', '973', '975', '976', '978', '981', '983', '986', '989', '991', '992', '993', '997', '998', '999', '1000']",False,1000,True,100,b2bd98741e,0.0,1.0,0.0
./expes/v3_2021-02-19_hi_1000-prng-1-w1-fpa10-0.6-p100,30_issda-1000,1000,first-1000,200,20,rng,num-start-4500,4500,25726,fpa-09-10-0.6-20,781.9531784057617,False,,False,0.42757147169461296,0.42351727490554203,0.4593593686261712,100,"['2', '15', '17', '34', '40', '42', '47', '64', '65', '71', '76', '83', '85', '92', '94', '96', '98', '102', '104', '112', '119', '120', '128', '134', '143', '144', '146', '150', '151', '154', '175', '189', '192', '194', '195', '196', '209', '210', '221', '224', '225', '226', '228', '242', '245', '248', '249', '250', '257', '266', '267', '278', '282', '283', '289', '295', '298', '299', '309', '311', '318', '324', '325', '328', '333', '334', '339', '341', '342', '344', '363', '366', '367', '381', '395', '401', '409', '415', '430', '431', '437', '445', '454', '456', '459', '462', '484', '488', '489', '498', '499', '502', '505', '506', '517', '521', '524', '534', '535', '538', '546', '554', '557', '561', '562', '565', '566', '574', '582', '588', '590', '594', '598', '602', '604', '611', '617', '618', '626', '627', '628', '634', '641', '646', '650', '656', '657', '673', '677', '685', '696', '700', '701', '715', '717', '718', '721', '723', '724', '728', '737', '748', '750', '774', '776', '777', '802', '803', '804', '813', '814', '818', '819', '823', '825', '830', '832', '835', '836', '837', '842', '845', '846', '848', '850', '858', '861', '863', '865', '866', '870', '871', '876', '887', '889', '892', '897', '898', '912', '914', '917', '920', '921', '924', '930', '932', '935', '938', '939', '940', '941', '945', '946', '956', '973', '987', '989', '990', '991', '992']",False,1000,True,100,a09f4ad8cc,0.0,1.0,0.0
./expes/v3_2021-02-19_hi_1000-prng-1-w1-fpa10-0.6-p100,30_issda-1000,1000,first-1000,150,15,rng,num-start-1500,1500,25726,fpa-09-10-0.6-20,223.4771213531494,False,,False,0.5009740004354608,0.4937824022653339,0.5078188928430488,100,"['2', '15', '34', '40', '42', '64', '65', '71', '76', '83', '92', '94', '96', '98', '102', '104', '112', '128', '134', '143', '144', '146', '151', '154', '189', '192', '194', '196', '209', '210', '224', '228', '245', '248', '250', '257', '266', '267', '289', '295', '298', '299', '309', '311', '318', '324', '325', '328', '334', '339', '341', '342', '363', '367', '395', '401', '409', '415', '431', '445', '454', '456', '459', '484', '488', '489', '498', '502', '506', '517', '521', '524', '534', '546', '554', '557', '561', '562', '565', '566', '574', '582', '590', '598', '602', '611', '617', '618', '626', '627', '628', '634', '641', '656', '673', '685', '696', '700', '701', '717', '721', '723', '724', '728', '737', '748', '774', '776', '777', '803', '804', '818', '819', '823', '825', '830', '835', '842', '845', '848', '850', '858', '861', '863', '865', '871', '887', '889', '892', '897', '898', '912', '914', '920', '921', '924', '930', '932', '935', '938', '940', '941', '945', '946', '956', '987', '989', '990', '991', '992']",False,1000,True,100,044e74a4e7,0.0,1.0,0.0
./expes/v3_2021-02-19_hi_1000-prng-1-w1-fpa10-0.6-p100,30_issda-1000,1000,first-1000,250,25,rng,num-start-1250,1250,25726,fpa-09-10-0.6-20,222.0785949230194,False,,False,0.3919637932964693,0.3800125933662972,0.404723295975431,100,"['2', '3', '6', '10', '13', '15', '18', '23', '25', '27', '29', '30', '31', '32', '34', '36', '45', '58', '65', '72', '73', '86', '89', '94', '97', '103', '105', '111', '113', '117', '121', '124', '133', '138', '164', '168', '172', '173', '175', '178', '182', '186', '190', '191', '195', '205', '211', '215', '222', '225', '228', '233', '235', '236', '237', '238', '239', '249', '256', '262', '273', '276', '280', '288', '291', '297', '298', '302', '304', '311', '316', '320', '326', '330', '340', '341', '352', '353', '354', '355', '362', '366', '374', '376', '380', '384', '389', '391', '393', '396', '400', '403', '404', '414', '415', '424', '425', '427', '433', '437', '444', '449', '450', '457', '461', '464', '466', '470', '471', '481', '484', '486', '492', '493', '497', '500', '502', '508', '509', '512', '513', '515', '517', '518', '520', '521', '525', '527', '532', '534', '541', '552', '553', '554', '555', '562', '564', '565', '567', '568', '570', '575', '583', '584', '592', '593', '599', '602', '604', '606', '608', '615', '623', '624', '628', '630', '639', '640', '645', '651', '658', '663', '664', '666', '668', '673', '676', '680', '681', '687', '690', '691', '694', '703', '713', '720', '721', '729', '739', '742', '744', '747', '751', '756', '759', '761', '762', '773', '774', '780', '781', '783', '786', '790', '795', '797', '798', '803', '806', '808', '817', '818', '822', '824', '829', '833', '837', '841', '850', '856', '858', '861', '862', '867', '868', '869', '872', '874', '878', '881', '882', '889', '891', '903', '904', '908', '915', '918', '924', '932', '933', '939', '943', '945', '949', '954', '959', '961', '962', '964', '967', '968', '973', '975', '976', '978', '981', '991', '993', '997']",False,1000,True,100,2a5e54b8c4,0.0,1.0,0.0
./expes/v3_2021-02-19_hi_1000-prng-1-w1-fpa10-0.6-p100,30_issda-1000,1000,first-1000,200,20,rng,num-start-2250,2250,25726,fpa-09-10-0.6-20,549.4885206222534,False,,False,0.43153368739892956,0.42005488506554667,0.43580294371707473,100,"['8', '12', '14', '16', '21', '30', '32', '33', '37', '44', '46', '47', '62', '65', '66', '68', '69', '79', '91', '100', '106', '107', '111', '122', '128', '134', '137', '138', '140', '142', '155', '156', '160', '164', '168', '197', '203', '217', '223', '238', '240', '242', '244', '265', '266', '270', '274', '276', '278', '286', '287', '292', '299', '301', '309', '311', '318', '322', '323', '335', '339', '345', '348', '353', '360', '369', '375', '379', '386', '387', '396', '397', '400', '405', '407', '418', '421', '426', '432', '438', '442', '447', '448', '456', '472', '481', '482', '485', '486', '488', '494', '496', '507', '518', '520', '533', '534', '536', '547', '549', '554', '555', '558', '562', '563', '565', '573', '583', '586', '588', '591', '594', '595', '599', '600', '601', '604', '606', '607', '610', '615', '619', '620', '621', '626', '630', '631', '636', '641', '642', '643', '648', '649', '650', '651', '655', '660', '672', '688', '689', '698', '699', '707', '713', '716', '731', '732', '733', '735', '736', '737', '738', '746', '760', '777', '780', '788', '796', '798', '799', '808', '820', '821', '831', '844', '852', '854', '857', '858', '875', '876', '877', '882', '883', '887', '888', '889', '891', '894', '900', '903', '919', '926', '927', '931', '938', '943', '944', '945', '949', '952', '959', '964', '972', '981', '982', '988', '989', '995', '997']",False,1000,True,100,fa4e4e390c,0.0,1.0,0.0
./expes/v3_2021-02-19_hi_1000-prng-1-w1-fpa10-0.6-p100,30_issda-1000,1000,first-1000,250,25,rng,num-start-2250,2250,25726,fpa-09-10-0.6-20,444.9551594257355,False,,False,0.3899829585474591,0.3784001396506058,0.404723295975431,100,"['2', '5', '9', '19', '22', '25', '26', '29', '32', '33', '37', '38', '42', '45', '47', '51', '58', '59', '61', '62', '70', '78', '85', '87', '94', '96', '105', '109', '116', '118', '131', '140', '144', '148', '156', '158', '161', '163', '166', '169', '171', '174', '177', '178', '181', '182', '187', '189', '196', '213', '216', '218', '228', '231', '233', '237', '242', '251', '254', '256', '258', '262', '266', '269', '271', '273', '275', '280', '286', '293', '311', '316', '317', '320', '324', '327', '333', '336', '346', '350', '353', '360', '363', '369', '370', '371', '372', '373', '376', '381', '383', '390', '395', '403', '410', '412', '417', '425', '430', '434', '442', '456', '457', '459', '460', '466', '468', '473', '477', '485', '492', '499', '501', '502', '511', '513', '515', '517', '520', '522', '523', '525', '527', '528', '531', '535', '536', '538', '539', '544', '558', '565', '571', '572', '574', '576', '582', '589', '596', '599', '603', '604', '606', '608', '620', '621', '622', '631', '632', '637', '639', '643', '654', '668', '669', '671', '675', '677', '678', '686', '689', '691', '698', '699', '701', '704', '709', '717', '723', '724', '733', '735', '741', '742', '744', '747', '749', '753', '754', '757', '758', '761', '763', '766', '773', '774', '778', '782', '785', '792', '800', '804', '808', '809', '814', '816', '819', '823', '829', '833', '835', '841', '845', '852', '856', '859', '870', '875', '880', '881', '884', '892', '896', '897', '898', '902', '904', '905', '906', '914', '916', '920', '922', '923', '924', '925', '929', '930', '931', '934', '938', '941', '943', '948', '955', '957', '959', '961', '964', '967', '971', '973', '978', '979', '981', '982', '983', '985', '994', '995']",False,1000,True,100,3ef51f0186,0.0,1.0,0.0
