expe,clients,clients_size,clients_subset,agg_size,agg_size_pc,method,days,days_size,days_total,noise_method,time,valid,valid_sum,success,score_avg,score_min,score_max,nsols,oracle,wall_hit,wall_time,pooled,pool_size,uuid,infeasible,optimal,valid_sums
./expes/v2_2021-04-10_issda-daily_500-prng-1-w1-p2,daily_issda-500,500,first-500,500,100,rng,num-start-200,200,536,classic,8.403501749038696,True,,True,1.0,1.0,1.0,1,"['1', '2', '3', '4', '5', '6', '7', '8', '9', '10', '11', '12', '13', '14', '15', '16', '17', '18', '19', '20', '21', '22', '23', '24', '25', '26', '27', '28', '29', '30', '31', '32', '33', '34', '35', '36', '37', '38', '39', '40', '41', '42', '43', '44', '45', '46', '47', '48', '49', '50', '51', '52', '53', '54', '55', '56', '57', '58', '59', '60', '61', '62', '63', '64', '65', '66', '67', '68', '69', '70', '71', '72', '73', '74', '75', '76', '77', '78', '79', '80', '81', '82', '83', '84', '85', '86', '87', '88', '89', '90', '91', '92', '93', '94', '95', '96', '97', '98', '99', '100', '101', '102', '103', '104', '105', '106', '107', '108', '109', '110', '111', '112', '113', '114', '115', '116', '117', '118', '119', '120', '121', '122', '123', '124', '125', '126', '127', '128', '129', '130', '131', '132', '133', '134', '135', '136', '137', '138', '139', '140', '141', '142', '143', '144', '145', '146', '147', '148', '149', '150', '151', '152', '153', '154', '155', '156', '157', '158', '159', '160', '161', '162', '163', '164', '165', '166', '167', '168', '169', '170', '171', '172', '173', '174', '175', '176', '177', '178', '179', '180', '181', '182', '183', '184', '185', '186', '187', '188', '189', '190', '191', '192', '193', '194', '195', '196', '197', '198', '199', '200', '201', '202', '203', '204', '205', '206', '207', '208', '209', '210', '211', '212', '213', '214', '215', '216', '217', '218', '219', '220', '221', '222', '223', '224', '225', '226', '227', '228', '229', '230', '231', '232', '233', '234', '235', '236', '237', '238', '239', '240', '241', '242', '243', '244', '245', '246', '247', '248', '249', '250', '251', '252', '253', '254', '255', '256', '257', '258', '259', '260', '261', '262', '263', '264', '265', '266', '267', '268', '269', '270', '271', '272', '273', '274', '275', '276', '277', '278', '279', '280', '281', '282', '283', '284', '285', '286', '287', '288', '289', '290', '291', '292', '293', '294', '295', '296', '297', '298', '299', '300', '301', '302', '303', '304', '305', '306', '307', '308', '309', '310', '311', '312', '313', '314', '315', '316', '317', '318', '319', '320', '321', '322', '323', '324', '325', '326', '327', '328', '329', '330', '331', '332', '333', '334', '335', '336', '337', '338', '339', '340', '341', '342', '343', '344', '345', '346', '347', '348', '349', '350', '351', '352', '353', '354', '355', '356', '357', '358', '359', '360', '361', '362', '363', '364', '365', '366', '367', '368', '369', '370', '371', '372', '373', '374', '375', '376', '377', '378', '379', '380', '381', '382', '383', '384', '385', '386', '387', '388', '389', '390', '391', '392', '393', '394', '395', '396', '397', '398', '399', '400', '401', '402', '403', '404', '405', '406', '407', '408', '409', '410', '411', '412', '413', '414', '415', '416', '417', '418', '419', '420', '421', '422', '423', '424', '425', '426', '427', '428', '429', '430', '431', '432', '433', '434', '435', '436', '437', '438', '439', '440', '441', '442', '443', '444', '445', '446', '447', '448', '449', '450', '451', '452', '453', '454', '455', '456', '457', '458', '459', '460', '461', '462', '463', '464', '465', '466', '467', '468', '469', '470', '471', '472', '473', '474', '475', '476', '477', '478', '479', '480', '481', '482', '483', '484', '485', '486', '487', '488', '489', '490', '491', '492', '493', '494', '495', '496', '497', '498', '499', '500']",False,1000,True,2,1f4882a031,0.0,1.0,1.0
./expes/v2_2021-04-10_issda-daily_500-prng-1-w1-p2,daily_issda-500,500,first-500,250,50,rng,num-start-300,300,536,classic,16.51844024658203,True,,True,1.0,1.0,1.0,1,"['1', '3', '5', '10', '11', '13', '15', '16', '17', '18', '19', '21', '23', '24', '26', '29', '30', '31', '35', '38', '39', '42', '43', '44', '45', '47', '48', '50', '52', '53', '54', '55', '57', '58', '59', '66', '68', '70', '72', '74', '78', '79', '81', '82', '83', '85', '86', '87', '88', '89', '91', '94', '95', '98', '107', '108', '109', '112', '114', '116', '117', '119', '120', '121', '124', '126', '127', '128', '129', '130', '131', '132', '133', '135', '136', '137', '138', '140', '143', '147', '156', '158', '159', '160', '162', '164', '167', '168', '173', '175', '177', '180', '182', '185', '186', '187', '188', '191', '192', '195', '197', '198', '202', '205', '206', '209', '210', '213', '215', '217', '221', '228', '229', '230', '233', '234', '237', '239', '243', '246', '250', '251', '256', '257', '258', '259', '260', '261', '262', '263', '264', '266', '267', '268', '269', '270', '272', '279', '283', '286', '287', '288', '291', '295', '298', '300', '302', '303', '304', '310', '311', '316', '319', '320', '322', '326', '327', '334', '335', '336', '338', '339', '343', '344', '345', '346', '349', '350', '351', '352', '355', '359', '362', '363', '364', '366', '367', '368', '371', '372', '374', '375', '377', '379', '381', '382', '383', '385', '387', '389', '391', '393', '396', '400', '402', '404', '405', '406', '407', '408', '410', '412', '415', '417', '418', '421', '423', '426', '428', '430', '435', '438', '440', '441', '442', '446', '448', '449', '451', '452', '453', '457', '458', '460', '461', '462', '463', '465', '466', '467', '469', '470', '471', '472', '474', '478', '479', '480', '481', '482', '484', '486', '487', '489', '490', '491', '492', '493', '497', '498']",False,1000,True,2,d94a8eda47,0.0,1.0,1.0
./expes/v2_2021-04-10_issda-daily_500-prng-1-w1-p2,daily_issda-500,500,first-500,300,60,rng,num-start-450,450,536,classic,25.370932817459106,True,,True,1.0,1.0,1.0,1,"['1', '2', '7', '8', '9', '10', '12', '14', '17', '19', '20', '21', '22', '24', '26', '30', '32', '33', '36', '37', '38', '41', '42', '43', '46', '47', '48', '49', '51', '52', '56', '59', '60', '61', '62', '64', '67', '68', '69', '70', '72', '73', '75', '76', '77', '79', '80', '81', '82', '83', '85', '87', '88', '90', '93', '94', '95', '96', '97', '98', '99', '100', '102', '103', '105', '106', '108', '110', '111', '112', '113', '114', '115', '121', '123', '124', '125', '129', '132', '133', '134', '139', '141', '142', '143', '144', '145', '148', '149', '150', '155', '156', '159', '160', '162', '163', '164', '167', '170', '171', '172', '176', '178', '180', '181', '182', '183', '184', '188', '190', '191', '194', '198', '199', '201', '204', '205', '206', '208', '210', '213', '214', '215', '216', '218', '219', '223', '224', '227', '228', '229', '230', '231', '232', '235', '240', '241', '242', '244', '245', '246', '247', '249', '250', '251', '253', '254', '258', '259', '261', '262', '267', '268', '269', '271', '272', '273', '274', '277', '279', '281', '283', '286', '287', '288', '291', '292', '294', '295', '297', '299', '301', '302', '303', '305', '306', '309', '310', '311', '312', '313', '314', '317', '318', '321', '322', '323', '325', '326', '327', '328', '329', '331', '332', '333', '334', '335', '336', '337', '339', '340', '341', '343', '345', '346', '347', '348', '349', '350', '351', '353', '354', '358', '359', '360', '361', '362', '364', '367', '368', '369', '372', '373', '374', '375', '379', '380', '384', '387', '388', '389', '391', '393', '396', '401', '402', '404', '406', '407', '409', '410', '412', '413', '415', '416', '418', '419', '421', '422', '423', '424', '425', '426', '427', '428', '429', '430', '431', '432', '433', '434', '435', '436', '438', '442', '444', '445', '446', '447', '448', '449', '453', '454', '456', '457', '459', '460', '461', '462', '464', '465', '466', '468', '469', '470', '471', '472', '473', '478', '480', '481', '485', '487', '489', '493', '494', '495', '496', '497', '499']",False,1000,True,2,51eb2c711c,0.0,1.0,1.0
