expe,clients,clients_size,clients_subset,agg_size,agg_size_pc,method,days,days_size,days_total,noise_method,time,valid,valid_sum,success,score_avg,score_min,score_max,nsols,oracle,wall_hit,wall_time,pooled,pool_size,uuid,infeasible,optimal,valid_sums
./expes/v2_2021-04-10_issda-daily_500-prng-1-w1-p2,daily_issda-500,500,first-500,350,70,rng,num-start-400,400,536,classic,25.999244213104248,True,,True,1.0,1.0,1.0,1,"['1', '2', '3', '4', '5', '6', '7', '10', '11', '12', '14', '17', '18', '19', '21', '22', '23', '24', '27', '28', '29', '31', '32', '35', '39', '40', '41', '42', '43', '44', '45', '46', '47', '48', '49', '50', '51', '52', '53', '55', '57', '58', '59', '60', '61', '62', '63', '66', '69', '70', '72', '73', '74', '75', '77', '79', '80', '81', '82', '83', '84', '85', '86', '87', '89', '90', '91', '92', '93', '95', '97', '98', '99', '100', '101', '102', '103', '104', '106', '107', '108', '109', '110', '111', '112', '113', '114', '118', '119', '120', '121', '122', '124', '125', '126', '127', '128', '129', '130', '131', '132', '133', '134', '135', '138', '140', '142', '143', '144', '147', '148', '149', '150', '151', '152', '153', '154', '155', '156', '157', '159', '160', '161', '162', '165', '166', '167', '168', '169', '170', '173', '174', '175', '176', '178', '180', '183', '184', '185', '186', '187', '188', '191', '196', '199', '200', '201', '203', '205', '206', '207', '210', '211', '212', '213', '214', '216', '217', '218', '220', '221', '222', '223', '224', '225', '226', '227', '228', '232', '233', '236', '237', '238', '240', '242', '243', '245', '246', '248', '250', '251', '252', '254', '255', '256', '260', '261', '263', '266', '267', '268', '269', '270', '271', '274', '275', '278', '279', '280', '281', '282', '286', '288', '290', '291', '292', '293', '294', '295', '299', '302', '305', '306', '307', '308', '310', '311', '312', '313', '314', '316', '317', '318', '319', '321', '322', '324', '325', '326', '327', '329', '331', '332', '334', '335', '336', '337', '339', '342', '343', '344', '345', '346', '347', '349', '352', '353', '357', '358', '359', '361', '362', '363', '364', '365', '367', '368', '370', '375', '377', '378', '382', '383', '387', '389', '392', '393', '394', '395', '396', '397', '398', '400', '401', '402', '403', '404', '405', '407', '409', '410', '411', '412', '414', '415', '417', '418', '419', '420', '424', '425', '426', '428', '429', '430', '431', '433', '434', '435', '438', '439', '440', '441', '442', '443', '444', '445', '446', '448', '449', '450', '451', '452', '453', '454', '456', '457', '458', '459', '461', '462', '463', '464', '465', '466', '467', '468', '469', '470', '473', '474', '475', '476', '477', '479', '480', '482', '483', '484', '487', '489', '490', '492', '493', '494', '495', '496', '497', '498', '499']",False,1000,True,2,05aae98d53,0.0,1.0,1.0
./expes/v2_2021-04-10_issda-daily_500-prng-1-w1-p2,daily_issda-500,500,first-500,150,30,rng,num-start-50,50,536,classic,1001.5217137336731,False,,False,0,,,0,"['5', '13', '15', '19', '26', '29', '31', '39', '44', '47', '55', '70', '82', '83', '85', '86', '87', '89', '91', '94', '98', '107', '109', '114', '117', '119', '121', '128', '129', '138', '140', '143', '156', '158', '159', '160', '164', '167', '175', '180', '182', '185', '186', '187', '188', '191', '195', '202', '205', '209', '213', '217', '221', '228', '229', '233', '234', '237', '239', '246', '250', '251', '256', '257', '258', '259', '260', '261', '262', '263', '264', '266', '269', '270', '272', '279', '286', '287', '288', '291', '295', '298', '302', '303', '304', '311', '316', '320', '327', '334', '335', '336', '338', '339', '343', '346', '349', '350', '351', '359', '362', '367', '371', '372', '375', '377', '379', '382', '387', '391', '396', '402', '405', '408', '410', '412', '415', '418', '421', '426', '428', '435', '438', '440', '441', '442', '446', '449', '452', '453', '457', '458', '461', '462', '463', '465', '466', '467', '472', '474', '478', '479', '480', '482', '486', '487', '489', '490', '491', '493']",True,1000,True,2,db64671854,0.0,0.0,0.0
