expe,clients,clients_size,clients_subset,agg_size,method,days,days_size,days_total,time,valid,valid_sum,success,nsols,wall_hit,wall_time,pooled,valid_sums
./expes/v2_2020-12-03_dh_50-prng-1,30_issda_50,50,rng-50,1,rng,num-start-341,341,25726,2.466207981109619,True,,True,1,False,1000,True,1.0
./expes/v2_2020-12-03_dh_50-prng-1,30_issda_50,50,rng-50,31,rng,num-start-761,761,25726,5.5856523513793945,True,,True,1,False,1000,True,1.0
./expes/v2_2020-12-03_dh_50-prng-1,30_issda_50,50,rng-50,21,rng,num-start-151,151,25726,1.0712502002716064,True,,True,1,False,1000,True,1.0
./expes/v2_2020-12-03_dh_50-prng-1,30_issda_50,50,rng-50,41,rng,num-start-201,201,25726,1.387251853942871,True,,True,1,False,1000,True,1.0
./expes/v2_2020-12-03_dh_50-prng-1,30_issda_50,50,rng-50,21,rng,num-start-471,471,25726,3.2833402156829834,True,,True,1,False,1000,True,1.0
./expes/v2_2020-12-03_dh_50-prng-1,30_issda_50,50,rng-50,11,rng,num-start-911,911,25726,6.465493440628052,True,,True,1,False,1000,True,1.0
./expes/v2_2020-12-03_dh_50-prng-1,30_issda_50,50,rng-50,21,rng,num-start-641,641,25726,4.386822700500488,True,,True,1,False,1000,True,1.0
./expes/v2_2020-12-03_dh_50-prng-1,30_issda_50,50,rng-50,31,rng,num-start-471,471,25726,3.346271514892578,True,,True,1,False,1000,True,1.0
./expes/v2_2020-12-03_dh_50-prng-1,30_issda_50,50,rng-50,11,rng,num-start-311,311,25726,2.1443698406219482,True,,True,1,False,1000,True,1.0
./expes/v2_2020-12-03_dh_50-prng-1,30_issda_50,50,rng-50,31,rng,num-start-951,951,25726,7.036269426345825,True,,True,1,False,1000,True,1.0
./expes/v2_2020-12-03_dh_50-prng-1,30_issda_50,50,rng-50,1,rng,num-start-831,831,25726,5.913717269897461,True,,True,1,False,1000,True,1.0
./expes/v2_2020-12-03_dh_50-prng-1,30_issda_50,50,rng-50,11,rng,num-start-211,211,25726,1.4750127792358398,True,,True,1,False,1000,True,1.0
./expes/v2_2020-12-03_dh_50-prng-1,30_issda_50,50,rng-50,41,rng,num-start-101,101,25726,0.6983146667480469,True,,True,1,False,1000,True,1.0
./expes/v2_2020-12-03_dh_50-prng-1,30_issda_50,50,rng-50,31,rng,num-start-401,401,25726,2.7910115718841553,True,,True,1,False,1000,True,1.0
./expes/v2_2020-12-03_dh_50-prng-1,30_issda_50,50,rng-50,41,rng,num-start-701,701,25726,4.897691011428833,True,,True,1,False,1000,True,1.0
./expes/v2_2020-12-03_dh_50-prng-1,30_issda_50,50,rng-50,11,rng,num-start-651,651,25726,4.533253192901611,True,,True,1,False,1000,True,1.0
./expes/v2_2020-12-03_dh_50-prng-1,30_issda_50,50,rng-50,41,rng,num-start-301,301,25726,2.2095401287078857,True,,True,1,False,1000,True,1.0
./expes/v2_2020-12-03_dh_50-prng-1,30_issda_50,50,rng-50,41,rng,num-start-611,611,25726,4.95325231552124,True,,True,1,False,1000,True,1.0
./expes/v2_2020-12-03_dh_50-prng-1,30_issda_50,50,rng-50,31,rng,num-start-201,201,25726,1.720477819442749,True,,True,1,False,1000,True,1.0
./expes/v2_2020-12-03_dh_50-prng-1,30_issda_50,50,rng-50,1,rng,num-start-741,741,25726,5.116567373275757,True,,True,1,False,1000,True,1.0
./expes/v2_2020-12-03_dh_50-prng-1,30_issda_50,50,rng-50,41,rng,num-start-931,931,25726,6.324460983276367,True,,True,1,False,1000,True,1.0
./expes/v2_2020-12-03_dh_50-prng-1,30_issda_50,50,rng-50,41,rng,num-start-741,741,25726,5.23797869682312,True,,True,1,False,1000,True,1.0
./expes/v2_2020-12-03_dh_50-prng-1,30_issda_50,50,rng-50,41,rng,num-start-891,891,25726,6.178882598876953,True,,True,1,False,1000,True,1.0
./expes/v2_2020-12-03_dh_50-prng-1,30_issda_50,50,rng-50,31,rng,num-start-261,261,25726,1.8216216564178467,True,,True,1,False,1000,True,1.0
./expes/v2_2020-12-03_dh_50-prng-1,30_issda_50,50,rng-50,21,rng,num-start-121,121,25726,0.8660218715667725,True,,True,1,False,1000,True,1.0
./expes/v2_2020-12-03_dh_50-prng-1,30_issda_50,50,rng-50,11,rng,num-start-271,271,25726,1.8917903900146484,True,,True,1,False,1000,True,1.0
./expes/v2_2020-12-03_dh_50-prng-1,30_issda_50,50,rng-50,31,rng,num-start-21,21,25726,0.3946504592895508,True,,True,1,False,1000,True,1.0
./expes/v2_2020-12-03_dh_50-prng-1,30_issda_50,50,rng-50,21,rng,num-start-481,481,25726,3.3522541522979736,True,,True,1,False,1000,True,1.0
./expes/v2_2020-12-03_dh_50-prng-1,30_issda_50,50,rng-50,1,rng,num-start-191,191,25726,1.455890417098999,True,,True,1,False,1000,True,1.0
./expes/v2_2020-12-03_dh_50-prng-1,30_issda_50,50,rng-50,21,rng,num-start-511,511,25726,3.9038076400756836,True,,True,1,False,1000,True,1.0
./expes/v2_2020-12-03_dh_50-prng-1,30_issda_50,50,rng-50,21,rng,num-start-991,991,25726,6.915381908416748,True,,True,1,False,1000,True,1.0
./expes/v2_2020-12-03_dh_50-prng-1,30_issda_50,50,rng-50,41,rng,num-start-831,831,25726,5.705888748168945,True,,True,1,False,1000,True,1.0
./expes/v2_2020-12-03_dh_50-prng-1,30_issda_50,50,rng-50,41,rng,num-start-651,651,25726,4.446796655654907,True,,True,1,False,1000,True,1.0
./expes/v2_2020-12-03_dh_50-prng-1,30_issda_50,50,rng-50,41,rng,num-start-161,161,25726,1.1375911235809326,True,,True,1,False,1000,True,1.0
./expes/v2_2020-12-03_dh_50-prng-1,30_issda_50,50,rng-50,41,rng,num-start-311,311,25726,2.1737115383148193,True,,True,1,False,1000,True,1.0
./expes/v2_2020-12-03_dh_50-prng-1,30_issda_50,50,rng-50,11,rng,num-start-361,361,25726,2.4829230308532715,True,,True,1,False,1000,True,1.0
./expes/v2_2020-12-03_dh_50-prng-1,30_issda_50,50,rng-50,31,rng,num-start-921,921,25726,6.444038152694702,True,,True,1,False,1000,True,1.0
./expes/v2_2020-12-03_dh_50-prng-1,30_issda_50,50,rng-50,31,rng,num-start-781,781,25726,5.9283998012542725,True,,True,1,False,1000,True,1.0
./expes/v2_2020-12-03_dh_50-prng-1,30_issda_50,50,rng-50,41,rng,num-start-11,11,25726,0.2926034927368164,True,,True,1,False,1000,True,1.0
./expes/v2_2020-12-03_dh_50-prng-1,30_issda_50,50,rng-50,31,rng,num-start-761,761,25726,5.502871036529541,True,,True,1,False,1000,True,1.0
./expes/v2_2020-12-03_dh_50-prng-1,30_issda_50,50,rng-50,11,rng,num-start-921,921,25726,7.679320335388184,True,,True,1,False,1000,True,1.0
./expes/v2_2020-12-03_dh_50-prng-1,30_issda_50,50,rng-50,1,rng,num-start-971,971,25726,6.715752124786377,True,,True,1,False,1000,True,1.0
./expes/v2_2020-12-03_dh_50-prng-1,30_issda_50,50,rng-50,31,rng,num-start-581,581,25726,4.190464496612549,True,,True,1,False,1000,True,1.0
./expes/v2_2020-12-03_dh_50-prng-1,30_issda_50,50,rng-50,31,rng,num-start-661,661,25726,4.754563093185425,True,,True,1,False,1000,True,1.0
./expes/v2_2020-12-03_dh_50-prng-1,30_issda_50,50,rng-50,41,rng,num-start-31,31,25726,0.28760290145874023,True,,True,1,False,1000,True,1.0
./expes/v2_2020-12-03_dh_50-prng-1,30_issda_50,50,rng-50,1,rng,num-start-751,751,25726,5.298548698425293,True,,True,1,False,1000,True,1.0
./expes/v2_2020-12-03_dh_50-prng-1,30_issda_50,50,rng-50,11,rng,num-start-601,601,25726,4.175957918167114,True,,True,1,False,1000,True,1.0
./expes/v2_2020-12-03_dh_50-prng-1,30_issda_50,50,rng-50,31,rng,num-start-371,371,25726,2.5776166915893555,True,,True,1,False,1000,True,1.0
./expes/v2_2020-12-03_dh_50-prng-1,30_issda_50,50,rng-50,31,rng,num-start-11,11,25726,0.5206656455993652,True,,True,1,False,1000,True,1.0
./expes/v2_2020-12-03_dh_50-prng-1,30_issda_50,50,rng-50,21,rng,num-start-791,791,25726,5.853673934936523,True,,True,1,False,1000,True,1.0
./expes/v2_2020-12-03_dh_50-prng-1,30_issda_50,50,rng-50,41,rng,num-start-681,681,25726,4.646766185760498,True,,True,1,False,1000,True,1.0
./expes/v2_2020-12-03_dh_50-prng-1,30_issda_50,50,rng-50,21,rng,num-start-381,381,25726,2.7291648387908936,True,,True,1,False,1000,True,1.0
./expes/v2_2020-12-03_dh_50-prng-1,30_issda_50,50,rng-50,11,rng,num-start-301,301,25726,2.112313747406006,True,,True,1,False,1000,True,1.0
./expes/v2_2020-12-03_dh_50-prng-1,30_issda_50,50,rng-50,21,rng,num-start-451,451,25726,3.115617036819458,True,,True,1,False,1000,True,1.0
./expes/v2_2020-12-03_dh_50-prng-1,30_issda_50,50,rng-50,1,rng,num-start-841,841,25726,5.833873271942139,True,,True,1,False,1000,True,1.0
./expes/v2_2020-12-03_dh_50-prng-1,30_issda_50,50,rng-50,31,rng,num-start-51,51,25726,0.5430798530578613,True,,True,1,False,1000,True,1.0
./expes/v2_2020-12-03_dh_50-prng-1,30_issda_50,50,rng-50,11,rng,num-start-351,351,25726,2.488550901412964,True,,True,1,False,1000,True,1.0
./expes/v2_2020-12-03_dh_50-prng-1,30_issda_50,50,rng-50,41,rng,num-start-761,761,25726,5.305999994277954,True,,True,1,False,1000,True,1.0
./expes/v2_2020-12-03_dh_50-prng-1,30_issda_50,50,rng-50,31,rng,num-start-961,961,25726,6.6509692668914795,True,,True,1,False,1000,True,1.0
./expes/v2_2020-12-03_dh_50-prng-1,30_issda_50,50,rng-50,31,rng,num-start-441,441,25726,3.1914772987365723,True,,True,1,False,1000,True,1.0
./expes/v2_2020-12-03_dh_50-prng-1,30_issda_50,50,rng-50,41,rng,num-start-391,391,25726,2.7550923824310303,True,,True,1,False,1000,True,1.0
./expes/v2_2020-12-03_dh_50-prng-1,30_issda_50,50,rng-50,21,rng,num-start-971,971,25726,6.766596078872681,True,,True,1,False,1000,True,1.0
./expes/v2_2020-12-03_dh_50-prng-1,30_issda_50,50,rng-50,1,rng,num-start-401,401,25726,2.821317195892334,True,,True,1,False,1000,True,1.0
./expes/v2_2020-12-03_dh_50-prng-1,30_issda_50,50,rng-50,1,rng,num-start-21,21,25726,0.15398406982421875,True,,True,1,False,1000,True,1.0
./expes/v2_2020-12-03_dh_50-prng-1,30_issda_50,50,rng-50,1,rng,num-start-231,231,25726,1.6143577098846436,True,,True,1,False,1000,True,1.0
./expes/v2_2020-12-03_dh_50-prng-1,30_issda_50,50,rng-50,41,rng,num-start-171,171,25726,1.200538158416748,True,,True,1,False,1000,True,1.0
./expes/v2_2020-12-03_dh_50-prng-1,30_issda_50,50,rng-50,1,rng,num-start-531,531,25726,3.639909505844116,True,,True,1,False,1000,True,1.0
./expes/v2_2020-12-03_dh_50-prng-1,30_issda_50,50,rng-50,1,rng,num-start-301,301,25726,2.0981605052948,True,,True,1,False,1000,True,1.0
./expes/v2_2020-12-03_dh_50-prng-1,30_issda_50,50,rng-50,11,rng,num-start-161,161,25726,1.1214194297790527,True,,True,1,False,1000,True,1.0
./expes/v2_2020-12-03_dh_50-prng-1,30_issda_50,50,rng-50,11,rng,num-start-521,521,25726,3.6443521976470947,True,,True,1,False,1000,True,1.0
./expes/v2_2020-12-03_dh_50-prng-1,30_issda_50,50,rng-50,41,rng,num-start-211,211,25726,1.477313756942749,True,,True,1,False,1000,True,1.0
./expes/v2_2020-12-03_dh_50-prng-1,30_issda_50,50,rng-50,41,rng,num-start-591,591,25726,4.0407185554504395,True,,True,1,False,1000,True,1.0
./expes/v2_2020-12-03_dh_50-prng-1,30_issda_50,50,rng-50,21,rng,num-start-931,931,25726,7.325449228286743,True,,True,1,False,1000,True,1.0
./expes/v2_2020-12-03_dh_50-prng-1,30_issda_50,50,rng-50,11,rng,num-start-251,251,25726,1.853351354598999,True,,True,1,False,1000,True,1.0
./expes/v2_2020-12-03_dh_50-prng-1,30_issda_50,50,rng-50,21,rng,num-start-521,521,25726,3.723666191101074,True,,True,1,False,1000,True,1.0
./expes/v2_2020-12-03_dh_50-prng-1,30_issda_50,50,rng-50,31,rng,num-start-931,931,25726,6.551872253417969,True,,True,1,False,1000,True,1.0
./expes/v2_2020-12-03_dh_50-prng-1,30_issda_50,50,rng-50,41,rng,num-start-681,681,25726,4.745768070220947,True,,True,1,False,1000,True,1.0
./expes/v2_2020-12-03_dh_50-prng-1,30_issda_50,50,rng-50,41,rng,num-start-471,471,25726,3.2971079349517822,True,,True,1,False,1000,True,1.0
./expes/v2_2020-12-03_dh_50-prng-1,30_issda_50,50,rng-50,21,rng,num-start-111,111,25726,0.8303558826446533,True,,True,1,False,1000,True,1.0
./expes/v2_2020-12-03_dh_50-prng-1,30_issda_50,50,rng-50,11,rng,num-start-981,981,25726,6.855997800827026,True,,True,1,False,1000,True,1.0
./expes/v2_2020-12-03_dh_50-prng-1,30_issda_50,50,rng-50,1,rng,num-start-851,851,25726,5.898549795150757,True,,True,1,False,1000,True,1.0
./expes/v2_2020-12-03_dh_50-prng-1,30_issda_50,50,rng-50,1,rng,num-start-781,781,25726,5.4202656745910645,True,,True,1,False,1000,True,1.0
./expes/v2_2020-12-03_dh_50-prng-1,30_issda_50,50,rng-50,41,rng,num-start-621,621,25726,4.95876932144165,True,,True,1,False,1000,True,1.0
./expes/v2_2020-12-03_dh_50-prng-1,30_issda_50,50,rng-50,41,rng,num-start-31,31,25726,0.31226658821105957,True,,True,1,False,1000,True,1.0
./expes/v2_2020-12-03_dh_50-prng-1,30_issda_50,50,rng-50,31,rng,num-start-881,881,25726,7.324545383453369,True,,True,1,False,1000,True,1.0
./expes/v2_2020-12-03_dh_50-prng-1,30_issda_50,50,rng-50,41,rng,num-start-911,911,25726,7.317338466644287,True,,True,1,False,1000,True,1.0
./expes/v2_2020-12-03_dh_50-prng-1,30_issda_50,50,rng-50,21,rng,num-start-691,691,25726,5.92049765586853,True,,True,1,False,1000,True,1.0
./expes/v2_2020-12-03_dh_50-prng-1,30_issda_50,50,rng-50,31,rng,num-start-571,571,25726,4.794849634170532,True,,True,1,False,1000,True,1.0
./expes/v2_2020-12-03_dh_50-prng-1,30_issda_50,50,rng-50,11,rng,num-start-901,901,25726,7.212214708328247,True,,True,1,False,1000,True,1.0
./expes/v2_2020-12-03_dh_50-prng-1,30_issda_50,50,rng-50,11,rng,num-start-151,151,25726,1.4235186576843262,True,,True,1,False,1000,True,1.0
./expes/v2_2020-12-03_dh_50-prng-1,30_issda_50,50,rng-50,21,rng,num-start-611,611,25726,5.009733200073242,True,,True,1,False,1000,True,1.0
./expes/v2_2020-12-03_dh_50-prng-1,30_issda_50,50,rng-50,31,rng,num-start-951,951,25726,7.800279140472412,True,,True,1,False,1000,True,1.0
./expes/v2_2020-12-03_dh_50-prng-1,30_issda_50,50,rng-50,1,rng,num-start-971,971,25726,7.729766368865967,True,,True,1,False,1000,True,1.0
./expes/v2_2020-12-03_dh_50-prng-1,30_issda_50,50,rng-50,21,rng,num-start-581,581,25726,4.155471086502075,True,,True,1,False,1000,True,1.0
./expes/v2_2020-12-03_dh_50-prng-1,30_issda_50,50,rng-50,11,rng,num-start-631,631,25726,4.418556213378906,True,,True,1,False,1000,True,1.0
./expes/v2_2020-12-03_dh_50-prng-1,30_issda_50,50,rng-50,11,rng,num-start-711,711,25726,4.982790231704712,True,,True,1,False,1000,True,1.0
./expes/v2_2020-12-03_dh_50-prng-1,30_issda_50,50,rng-50,1,rng,num-start-611,611,25726,4.203786134719849,True,,True,1,False,1000,True,1.0
./expes/v2_2020-12-03_dh_50-prng-1,30_issda_50,50,rng-50,21,rng,num-start-991,991,25726,7.010313987731934,True,,True,1,False,1000,True,1.0
./expes/v2_2020-12-03_dh_50-prng-1,30_issda_50,50,rng-50,1,rng,num-start-421,421,25726,3.0600531101226807,True,,True,1,False,1000,True,1.0
./expes/v2_2020-12-03_dh_50-prng-1,30_issda_50,50,rng-50,21,rng,num-start-111,111,25726,1.0235188007354736,True,,True,1,False,1000,True,1.0
./expes/v2_2020-12-03_dh_50-prng-1,30_issda_50,50,rng-50,31,rng,num-start-211,211,25726,1.5106761455535889,True,,True,1,False,1000,True,1.0
./expes/v2_2020-12-03_dh_50-prng-1,30_issda_50,50,rng-50,41,rng,num-start-991,991,25726,6.951134204864502,True,,True,1,False,1000,True,1.0
./expes/v2_2020-12-03_dh_50-prng-1,30_issda_50,50,rng-50,41,rng,num-start-361,361,25726,2.7984542846679688,True,,True,1,False,1000,True,1.0
./expes/v2_2020-12-03_dh_50-prng-1,30_issda_50,50,rng-50,31,rng,num-start-481,481,25726,3.3782708644866943,True,,True,1,False,1000,True,1.0
./expes/v2_2020-12-03_dh_50-prng-1,30_issda_50,50,rng-50,11,rng,num-start-641,641,25726,4.409045696258545,True,,True,1,False,1000,True,1.0
./expes/v2_2020-12-03_dh_50-prng-1,30_issda_50,50,rng-50,21,rng,num-start-401,401,25726,2.8437983989715576,True,,True,1,False,1000,True,1.0
./expes/v2_2020-12-03_dh_50-prng-1,30_issda_50,50,rng-50,1,rng,num-start-901,901,25726,6.305485010147095,True,,True,1,False,1000,True,1.0
./expes/v2_2020-12-03_dh_50-prng-1,30_issda_50,50,rng-50,31,rng,num-start-381,381,25726,2.6790432929992676,True,,True,1,False,1000,True,1.0
./expes/v2_2020-12-03_dh_50-prng-1,30_issda_50,50,rng-50,31,rng,num-start-141,141,25726,1.191687822341919,True,,True,1,False,1000,True,1.0
./expes/v2_2020-12-03_dh_50-prng-1,30_issda_50,50,rng-50,21,rng,num-start-211,211,25726,1.5227742195129395,True,,True,1,False,1000,True,1.0
./expes/v2_2020-12-03_dh_50-prng-1,30_issda_50,50,rng-50,31,rng,num-start-481,481,25726,3.4727680683135986,True,,True,1,False,1000,True,1.0
./expes/v2_2020-12-03_dh_50-prng-1,30_issda_50,50,rng-50,1,rng,num-start-551,551,25726,3.929079532623291,True,,True,1,False,1000,True,1.0
./expes/v2_2020-12-03_dh_50-prng-1,30_issda_50,50,rng-50,31,rng,num-start-491,491,25726,3.5846445560455322,True,,True,1,False,1000,True,1.0
./expes/v2_2020-12-03_dh_50-prng-1,30_issda_50,50,rng-50,21,rng,num-start-611,611,25726,4.393413782119751,True,,True,1,False,1000,True,1.0
./expes/v2_2020-12-03_dh_50-prng-1,30_issda_50,50,rng-50,41,rng,num-start-571,571,25726,3.9904282093048096,True,,True,1,False,1000,True,1.0
./expes/v2_2020-12-03_dh_50-prng-1,30_issda_50,50,rng-50,41,rng,num-start-811,811,25726,5.662193536758423,True,,True,1,False,1000,True,1.0
./expes/v2_2020-12-03_dh_50-prng-1,30_issda_50,50,rng-50,31,rng,num-start-11,11,25726,0.365109920501709,True,,True,1,False,1000,True,1.0
./expes/v2_2020-12-03_dh_50-prng-1,30_issda_50,50,rng-50,1,rng,num-start-231,231,25726,1.6356236934661865,True,,True,1,False,1000,True,1.0
./expes/v2_2020-12-03_dh_50-prng-1,30_issda_50,50,rng-50,41,rng,num-start-271,271,25726,1.8927743434906006,True,,True,1,False,1000,True,1.0
./expes/v2_2020-12-03_dh_50-prng-1,30_issda_50,50,rng-50,11,rng,num-start-121,121,25726,0.9402122497558594,True,,True,1,False,1000,True,1.0
./expes/v2_2020-12-03_dh_50-prng-1,30_issda_50,50,rng-50,21,rng,num-start-331,331,25726,2.2986843585968018,True,,True,1,False,1000,True,1.0
./expes/v2_2020-12-03_dh_50-prng-1,30_issda_50,50,rng-50,41,rng,num-start-811,811,25726,5.839068651199341,True,,True,1,False,1000,True,1.0
./expes/v2_2020-12-03_dh_50-prng-1,30_issda_50,50,rng-50,21,rng,num-start-921,921,25726,6.445791006088257,True,,True,1,False,1000,True,1.0
./expes/v2_2020-12-03_dh_50-prng-1,30_issda_50,50,rng-50,31,rng,num-start-781,781,25726,6.020632028579712,True,,True,1,False,1000,True,1.0
./expes/v2_2020-12-03_dh_50-prng-1,30_issda_50,50,rng-50,1,rng,num-start-261,261,25726,1.7992875576019287,True,,True,1,False,1000,True,1.0
./expes/v2_2020-12-03_dh_50-prng-1,30_issda_50,50,rng-50,21,rng,num-start-691,691,25726,4.888758420944214,True,,True,1,False,1000,True,1.0
./expes/v2_2020-12-03_dh_50-prng-1,30_issda_50,50,rng-50,41,rng,num-start-751,751,25726,5.331548452377319,True,,True,1,False,1000,True,1.0
./expes/v2_2020-12-03_dh_50-prng-1,30_issda_50,50,rng-50,21,rng,num-start-351,351,25726,2.463165044784546,True,,True,1,False,1000,True,1.0
./expes/v2_2020-12-03_dh_50-prng-1,30_issda_50,50,rng-50,1,rng,num-start-651,651,25726,4.949242830276489,True,,True,1,False,1000,True,1.0
./expes/v2_2020-12-03_dh_50-prng-1,30_issda_50,50,rng-50,31,rng,num-start-1,1,25726,0.02551865577697754,False,,False,2,False,1000,True,1.0
./expes/v2_2020-12-03_dh_50-prng-1,30_issda_50,50,rng-50,11,rng,num-start-661,661,25726,4.5812177658081055,True,,True,1,False,1000,True,1.0
./expes/v2_2020-12-03_dh_50-prng-1,30_issda_50,50,rng-50,31,rng,num-start-671,671,25726,4.693820953369141,True,,True,1,False,1000,True,1.0
./expes/v2_2020-12-03_dh_50-prng-1,30_issda_50,50,rng-50,21,rng,num-start-921,921,25726,6.5168235301971436,True,,True,1,False,1000,True,1.0
./expes/v2_2020-12-03_dh_50-prng-1,30_issda_50,50,rng-50,31,rng,num-start-901,901,25726,6.795315504074097,True,,True,1,False,1000,True,1.0
./expes/v2_2020-12-03_dh_50-prng-1,30_issda_50,50,rng-50,11,rng,num-start-451,451,25726,3.1400742530822754,True,,True,1,False,1000,True,1.0
./expes/v2_2020-12-03_dh_50-prng-1,30_issda_50,50,rng-50,1,rng,num-start-911,911,25726,6.23762583732605,True,,True,1,False,1000,True,1.0
./expes/v2_2020-12-03_dh_50-prng-1,30_issda_50,50,rng-50,21,rng,num-start-911,911,25726,6.4819495677948,True,,True,1,False,1000,True,1.0
./expes/v2_2020-12-03_dh_50-prng-1,30_issda_50,50,rng-50,41,rng,num-start-321,321,25726,2.3365890979766846,True,,True,1,False,1000,True,1.0
./expes/v2_2020-12-03_dh_50-prng-1,30_issda_50,50,rng-50,11,rng,num-start-961,961,25726,6.816213130950928,True,,True,1,False,1000,True,1.0
./expes/v2_2020-12-03_dh_50-prng-1,30_issda_50,50,rng-50,21,rng,num-start-821,821,25726,5.977731704711914,True,,True,1,False,1000,True,1.0
./expes/v2_2020-12-03_dh_50-prng-1,30_issda_50,50,rng-50,41,rng,num-start-941,941,25726,6.537843942642212,True,,True,1,False,1000,True,1.0
./expes/v2_2020-12-03_dh_50-prng-1,30_issda_50,50,rng-50,21,rng,num-start-621,621,25726,4.419511318206787,True,,True,1,False,1000,True,1.0
./expes/v2_2020-12-03_dh_50-prng-1,30_issda_50,50,rng-50,11,rng,num-start-731,731,25726,5.912838697433472,True,,True,1,False,1000,True,1.0
./expes/v2_2020-12-03_dh_50-prng-1,30_issda_50,50,rng-50,31,rng,num-start-211,211,25726,1.5325415134429932,True,,True,1,False,1000,True,1.0
./expes/v2_2020-12-03_dh_50-prng-1,30_issda_50,50,rng-50,31,rng,num-start-871,871,25726,5.79638934135437,True,,True,1,False,1000,True,1.0
