expe,clients,clients_size,clients_subset,agg_size,method,days,days_size,days_total,time,valid,valid_sum,success,nsols,wall_hit,wall_time,pooled,valid_sums
./expes/v2_2020-12-03_dh_50-prng-1,30_issda_50,50,rng-50,31,rng,num-start-71,71,25726,0.827564001083374,True,,True,1,False,1000,True,1.0
./expes/v2_2020-12-03_dh_50-prng-1,30_issda_50,50,rng-50,21,rng,num-start-801,801,25726,6.097733020782471,True,,True,1,False,1000,True,1.0
./expes/v2_2020-12-03_dh_50-prng-1,30_issda_50,50,rng-50,1,rng,num-start-81,81,25726,0.5710103511810303,True,,True,1,False,1000,True,1.0
./expes/v2_2020-12-03_dh_50-prng-1,30_issda_50,50,rng-50,41,rng,num-start-201,201,25726,1.3474218845367432,True,,True,1,False,1000,True,1.0
./expes/v2_2020-12-03_dh_50-prng-1,30_issda_50,50,rng-50,41,rng,num-start-271,271,25726,1.834089994430542,True,,True,1,False,1000,True,1.0
./expes/v2_2020-12-03_dh_50-prng-1,30_issda_50,50,rng-50,41,rng,num-start-161,161,25726,1.0899507999420166,True,,True,1,False,1000,True,1.0
./expes/v2_2020-12-03_dh_50-prng-1,30_issda_50,50,rng-50,21,rng,num-start-151,151,25726,1.0525667667388916,True,,True,1,False,1000,True,1.0
./expes/v2_2020-12-03_dh_50-prng-1,30_issda_50,50,rng-50,1,rng,num-start-351,351,25726,2.3550872802734375,True,,True,1,False,1000,True,1.0
./expes/v2_2020-12-03_dh_50-prng-1,30_issda_50,50,rng-50,21,rng,num-start-381,381,25726,2.666978597640991,True,,True,1,False,1000,True,1.0
./expes/v2_2020-12-03_dh_50-prng-1,30_issda_50,50,rng-50,1,rng,num-start-11,11,25726,0.5564663410186768,True,,True,1,False,1000,True,1.0
./expes/v2_2020-12-03_dh_50-prng-1,30_issda_50,50,rng-50,1,rng,num-start-351,351,25726,2.3495564460754395,True,,True,1,False,1000,True,1.0
./expes/v2_2020-12-03_dh_50-prng-1,30_issda_50,50,rng-50,11,rng,num-start-81,81,25726,0.5597386360168457,True,,True,1,False,1000,True,1.0
./expes/v2_2020-12-03_dh_50-prng-1,30_issda_50,50,rng-50,1,rng,num-start-321,321,25726,2.202497720718384,True,,True,1,False,1000,True,1.0
./expes/v2_2020-12-03_dh_50-prng-1,30_issda_50,50,rng-50,1,rng,num-start-761,761,25726,5.092809438705444,True,,True,1,False,1000,True,1.0
./expes/v2_2020-12-03_dh_50-prng-1,30_issda_50,50,rng-50,31,rng,num-start-791,791,25726,5.441236734390259,True,,True,1,False,1000,True,1.0
./expes/v2_2020-12-03_dh_50-prng-1,30_issda_50,50,rng-50,31,rng,num-start-661,661,25726,4.461219310760498,True,,True,1,False,1000,True,1.0
./expes/v2_2020-12-03_dh_50-prng-1,30_issda_50,50,rng-50,11,rng,num-start-151,151,25726,1.0658061504364014,True,,True,1,False,1000,True,1.0
./expes/v2_2020-12-03_dh_50-prng-1,30_issda_50,50,rng-50,41,rng,num-start-651,651,25726,4.4251549243927,True,,True,1,False,1000,True,1.0
./expes/v2_2020-12-03_dh_50-prng-1,30_issda_50,50,rng-50,31,rng,num-start-91,91,25726,0.8034582138061523,True,,True,1,False,1000,True,1.0
./expes/v2_2020-12-03_dh_50-prng-1,30_issda_50,50,rng-50,31,rng,num-start-621,621,25726,4.19756007194519,True,,True,1,False,1000,True,1.0
./expes/v2_2020-12-03_dh_50-prng-1,30_issda_50,50,rng-50,21,rng,num-start-91,91,25726,0.7850074768066406,True,,True,1,False,1000,True,1.0
./expes/v2_2020-12-03_dh_50-prng-1,30_issda_50,50,rng-50,1,rng,num-start-451,451,25726,2.996628999710083,True,,True,1,False,1000,True,1.0
./expes/v2_2020-12-03_dh_50-prng-1,30_issda_50,50,rng-50,31,rng,num-start-31,31,25726,0.38062453269958496,True,,True,1,False,1000,True,1.0
./expes/v2_2020-12-03_dh_50-prng-1,30_issda_50,50,rng-50,1,rng,num-start-841,841,25726,5.589708089828491,True,,True,1,False,1000,True,1.0
./expes/v2_2020-12-03_dh_50-prng-1,30_issda_50,50,rng-50,1,rng,num-start-921,921,25726,6.119174957275391,True,,True,1,False,1000,True,1.0
./expes/v2_2020-12-03_dh_50-prng-1,30_issda_50,50,rng-50,41,rng,num-start-371,371,25726,2.504000425338745,True,,True,1,False,1000,True,1.0
./expes/v2_2020-12-03_dh_50-prng-1,30_issda_50,50,rng-50,31,rng,num-start-201,201,25726,1.4122154712677002,True,,True,1,False,1000,True,1.0
./expes/v2_2020-12-03_dh_50-prng-1,30_issda_50,50,rng-50,31,rng,num-start-191,191,25726,1.338484287261963,True,,True,1,False,1000,True,1.0
./expes/v2_2020-12-03_dh_50-prng-1,30_issda_50,50,rng-50,21,rng,num-start-621,621,25726,4.453591585159302,True,,True,1,False,1000,True,1.0
./expes/v2_2020-12-03_dh_50-prng-1,30_issda_50,50,rng-50,31,rng,num-start-501,501,25726,3.3777523040771484,True,,True,1,False,1000,True,1.0
./expes/v2_2020-12-03_dh_50-prng-1,30_issda_50,50,rng-50,41,rng,num-start-621,621,25726,4.128180265426636,True,,True,1,False,1000,True,1.0
./expes/v2_2020-12-03_dh_50-prng-1,30_issda_50,50,rng-50,31,rng,num-start-191,191,25726,1.562995195388794,True,,True,1,False,1000,True,1.0
./expes/v2_2020-12-03_dh_50-prng-1,30_issda_50,50,rng-50,21,rng,num-start-811,811,25726,5.474995851516724,True,,True,1,False,1000,True,1.0
./expes/v2_2020-12-03_dh_50-prng-1,30_issda_50,50,rng-50,1,rng,num-start-411,411,25726,2.7456889152526855,True,,True,1,False,1000,True,1.0
./expes/v2_2020-12-03_dh_50-prng-1,30_issda_50,50,rng-50,21,rng,num-start-901,901,25726,6.063555002212524,True,,True,1,False,1000,True,1.0
./expes/v2_2020-12-03_dh_50-prng-1,30_issda_50,50,rng-50,41,rng,num-start-161,161,25726,1.1189255714416504,True,,True,1,False,1000,True,1.0
./expes/v2_2020-12-03_dh_50-prng-1,30_issda_50,50,rng-50,41,rng,num-start-391,391,25726,2.6689260005950928,True,,True,1,False,1000,True,1.0
./expes/v2_2020-12-03_dh_50-prng-1,30_issda_50,50,rng-50,11,rng,num-start-981,981,25726,6.525619983673096,True,,True,1,False,1000,True,1.0
./expes/v2_2020-12-03_dh_50-prng-1,30_issda_50,50,rng-50,41,rng,num-start-801,801,25726,5.406085252761841,True,,True,1,False,1000,True,1.0
./expes/v2_2020-12-03_dh_50-prng-1,30_issda_50,50,rng-50,31,rng,num-start-491,491,25726,3.361950635910034,True,,True,1,False,1000,True,1.0
./expes/v2_2020-12-03_dh_50-prng-1,30_issda_50,50,rng-50,11,rng,num-start-791,791,25726,5.269784212112427,True,,True,1,False,1000,True,1.0
./expes/v2_2020-12-03_dh_50-prng-1,30_issda_50,50,rng-50,11,rng,num-start-571,571,25726,3.8612213134765625,True,,True,1,False,1000,True,1.0
./expes/v2_2020-12-03_dh_50-prng-1,30_issda_50,50,rng-50,21,rng,num-start-31,31,25726,0.3793032169342041,True,,True,1,False,1000,True,1.0
./expes/v2_2020-12-03_dh_50-prng-1,30_issda_50,50,rng-50,1,rng,num-start-571,571,25726,3.8397529125213623,True,,True,1,False,1000,True,1.0
./expes/v2_2020-12-03_dh_50-prng-1,30_issda_50,50,rng-50,41,rng,num-start-621,621,25726,4.141475439071655,True,,True,1,False,1000,True,1.0
./expes/v2_2020-12-03_dh_50-prng-1,30_issda_50,50,rng-50,21,rng,num-start-241,241,25726,1.686061143875122,True,,True,1,False,1000,True,1.0
./expes/v2_2020-12-03_dh_50-prng-1,30_issda_50,50,rng-50,11,rng,num-start-361,361,25726,2.632622241973877,True,,True,1,False,1000,True,1.0
./expes/v2_2020-12-03_dh_50-prng-1,30_issda_50,50,rng-50,41,rng,num-start-701,701,25726,4.919751405715942,True,,True,1,False,1000,True,1.0
./expes/v2_2020-12-03_dh_50-prng-1,30_issda_50,50,rng-50,21,rng,num-start-911,911,25726,6.295438289642334,True,,True,1,False,1000,True,1.0
./expes/v2_2020-12-03_dh_50-prng-1,30_issda_50,50,rng-50,41,rng,num-start-741,741,25726,4.927891254425049,True,,True,1,False,1000,True,1.0
./expes/v2_2020-12-03_dh_50-prng-1,30_issda_50,50,rng-50,1,rng,num-start-971,971,25726,6.5187506675720215,True,,True,1,False,1000,True,1.0
./expes/v2_2020-12-03_dh_50-prng-1,30_issda_50,50,rng-50,21,rng,num-start-251,251,25726,1.6928789615631104,True,,True,1,False,1000,True,1.0
./expes/v2_2020-12-03_dh_50-prng-1,30_issda_50,50,rng-50,21,rng,num-start-851,851,25726,5.795303106307983,True,,True,1,False,1000,True,1.0
./expes/v2_2020-12-03_dh_50-prng-1,30_issda_50,50,rng-50,21,rng,num-start-681,681,25726,4.617036819458008,True,,True,1,False,1000,True,1.0
./expes/v2_2020-12-03_dh_50-prng-1,30_issda_50,50,rng-50,41,rng,num-start-611,611,25726,4.107407808303833,True,,True,1,False,1000,True,1.0
./expes/v2_2020-12-03_dh_50-prng-1,30_issda_50,50,rng-50,21,rng,num-start-11,11,25726,9.298138618469238,True,,True,1,False,1000,True,1.0
./expes/v2_2020-12-03_dh_50-prng-1,30_issda_50,50,rng-50,11,rng,num-start-391,391,25726,2.65783953666687,True,,True,1,False,1000,True,1.0
./expes/v2_2020-12-03_dh_50-prng-1,30_issda_50,50,rng-50,11,rng,num-start-471,471,25726,3.134799003601074,True,,True,1,False,1000,True,1.0
./expes/v2_2020-12-03_dh_50-prng-1,30_issda_50,50,rng-50,41,rng,num-start-761,761,25726,5.123719692230225,True,,True,1,False,1000,True,1.0
./expes/v2_2020-12-03_dh_50-prng-1,30_issda_50,50,rng-50,1,rng,num-start-781,781,25726,5.420337915420532,True,,True,1,False,1000,True,1.0
./expes/v2_2020-12-03_dh_50-prng-1,30_issda_50,50,rng-50,31,rng,num-start-801,801,25726,5.646456718444824,True,,True,1,False,1000,True,1.0
./expes/v2_2020-12-03_dh_50-prng-1,30_issda_50,50,rng-50,41,rng,num-start-971,971,25726,6.518948316574097,True,,True,1,False,1000,True,1.0
./expes/v2_2020-12-03_dh_50-prng-1,30_issda_50,50,rng-50,1,rng,num-start-201,201,25726,1.3647222518920898,True,,True,1,False,1000,True,1.0
./expes/v2_2020-12-03_dh_50-prng-1,30_issda_50,50,rng-50,41,rng,num-start-71,71,25726,0.5301871299743652,True,,True,1,False,1000,True,1.0
./expes/v2_2020-12-03_dh_50-prng-1,30_issda_50,50,rng-50,21,rng,num-start-671,671,25726,4.990633010864258,True,,True,1,False,1000,True,1.0
./expes/v2_2020-12-03_dh_50-prng-1,30_issda_50,50,rng-50,11,rng,num-start-61,61,25726,0.4442870616912842,True,,True,1,False,1000,True,1.0
./expes/v2_2020-12-03_dh_50-prng-1,30_issda_50,50,rng-50,41,rng,num-start-281,281,25726,1.8889856338500977,True,,True,1,False,1000,True,1.0
./expes/v2_2020-12-03_dh_50-prng-1,30_issda_50,50,rng-50,41,rng,num-start-421,421,25726,2.8034896850585938,True,,True,1,False,1000,True,1.0
./expes/v2_2020-12-03_dh_50-prng-1,30_issda_50,50,rng-50,1,rng,num-start-771,771,25726,5.136222839355469,True,,True,1,False,1000,True,1.0
./expes/v2_2020-12-03_dh_50-prng-1,30_issda_50,50,rng-50,31,rng,num-start-591,591,25726,4.046533584594727,True,,True,1,False,1000,True,1.0
./expes/v2_2020-12-03_dh_50-prng-1,30_issda_50,50,rng-50,21,rng,num-start-201,201,25726,1.4205708503723145,True,,True,1,False,1000,True,1.0
./expes/v2_2020-12-03_dh_50-prng-1,30_issda_50,50,rng-50,11,rng,num-start-381,381,25726,2.5880863666534424,True,,True,1,False,1000,True,1.0
./expes/v2_2020-12-03_dh_50-prng-1,30_issda_50,50,rng-50,31,rng,num-start-521,521,25726,3.5262176990509033,True,,True,1,False,1000,True,1.0
./expes/v2_2020-12-03_dh_50-prng-1,30_issda_50,50,rng-50,1,rng,num-start-451,451,25726,2.998033046722412,True,,True,1,False,1000,True,1.0
./expes/v2_2020-12-03_dh_50-prng-1,30_issda_50,50,rng-50,41,rng,num-start-11,11,25726,0.31485962867736816,True,,True,1,False,1000,True,1.0
./expes/v2_2020-12-03_dh_50-prng-1,30_issda_50,50,rng-50,31,rng,num-start-851,851,25726,5.792484998703003,True,,True,1,False,1000,True,1.0
./expes/v2_2020-12-03_dh_50-prng-1,30_issda_50,50,rng-50,21,rng,num-start-171,171,25726,1.2014124393463135,True,,True,1,False,1000,True,1.0
./expes/v2_2020-12-03_dh_50-prng-1,30_issda_50,50,rng-50,11,rng,num-start-191,191,25726,1.3267865180969238,True,,True,1,False,1000,True,1.0
./expes/v2_2020-12-03_dh_50-prng-1,30_issda_50,50,rng-50,11,rng,num-start-691,691,25726,4.679287910461426,True,,True,1,False,1000,True,1.0
./expes/v2_2020-12-03_dh_50-prng-1,30_issda_50,50,rng-50,41,rng,num-start-491,491,25726,3.2583518028259277,True,,True,1,False,1000,True,1.0
./expes/v2_2020-12-03_dh_50-prng-1,30_issda_50,50,rng-50,1,rng,num-start-561,561,25726,3.73026967048645,True,,True,1,False,1000,True,1.0
./expes/v2_2020-12-03_dh_50-prng-1,30_issda_50,50,rng-50,41,rng,num-start-531,531,25726,3.5390095710754395,True,,True,1,False,1000,True,1.0
./expes/v2_2020-12-03_dh_50-prng-1,30_issda_50,50,rng-50,21,rng,num-start-851,851,25726,5.812003135681152,True,,True,1,False,1000,True,1.0
./expes/v2_2020-12-03_dh_50-prng-1,30_issda_50,50,rng-50,21,rng,num-start-271,271,25726,1.8600618839263916,True,,True,1,False,1000,True,1.0
./expes/v2_2020-12-03_dh_50-prng-1,30_issda_50,50,rng-50,41,rng,num-start-11,11,25726,0.3952369689941406,True,,True,1,False,1000,True,1.0
./expes/v2_2020-12-03_dh_50-prng-1,30_issda_50,50,rng-50,31,rng,num-start-641,641,25726,4.961596727371216,True,,True,1,False,1000,True,1.0
./expes/v2_2020-12-03_dh_50-prng-1,30_issda_50,50,rng-50,11,rng,num-start-271,271,25726,2.0925533771514893,True,,True,1,False,1000,True,1.0
./expes/v2_2020-12-03_dh_50-prng-1,30_issda_50,50,rng-50,1,rng,num-start-981,981,25726,7.7045862674713135,True,,True,1,False,1000,True,1.0
./expes/v2_2020-12-03_dh_50-prng-1,30_issda_50,50,rng-50,21,rng,num-start-991,991,25726,8.396649599075317,True,,True,1,False,1000,True,1.0
./expes/v2_2020-12-03_dh_50-prng-1,30_issda_50,50,rng-50,31,rng,num-start-391,391,25726,3.2250850200653076,True,,True,1,False,1000,True,1.0
./expes/v2_2020-12-03_dh_50-prng-1,30_issda_50,50,rng-50,11,rng,num-start-71,71,25726,0.6012217998504639,True,,True,1,False,1000,True,1.0
./expes/v2_2020-12-03_dh_50-prng-1,30_issda_50,50,rng-50,11,rng,num-start-511,511,25726,4.037667512893677,True,,True,1,False,1000,True,1.0
./expes/v2_2020-12-03_dh_50-prng-1,30_issda_50,50,rng-50,1,rng,num-start-11,11,25726,0.1528780460357666,True,,True,1,False,1000,True,1.0
./expes/v2_2020-12-03_dh_50-prng-1,30_issda_50,50,rng-50,21,rng,num-start-661,661,25726,5.475993871688843,True,,True,1,False,1000,True,1.0
./expes/v2_2020-12-03_dh_50-prng-1,30_issda_50,50,rng-50,41,rng,num-start-981,981,25726,7.578288555145264,True,,True,1,False,1000,True,1.0
./expes/v2_2020-12-03_dh_50-prng-1,30_issda_50,50,rng-50,31,rng,num-start-131,131,25726,1.2159175872802734,True,,True,1,False,1000,True,1.0
./expes/v2_2020-12-03_dh_50-prng-1,30_issda_50,50,rng-50,31,rng,num-start-91,91,25726,0.6353597640991211,True,,True,1,False,1000,True,1.0
./expes/v2_2020-12-03_dh_50-prng-1,30_issda_50,50,rng-50,41,rng,num-start-481,481,25726,3.2619519233703613,True,,True,1,False,1000,True,1.0
./expes/v2_2020-12-03_dh_50-prng-1,30_issda_50,50,rng-50,11,rng,num-start-361,361,25726,2.4415650367736816,True,,True,1,False,1000,True,1.0
./expes/v2_2020-12-03_dh_50-prng-1,30_issda_50,50,rng-50,41,rng,num-start-391,391,25726,2.659613609313965,True,,True,1,False,1000,True,1.0
./expes/v2_2020-12-03_dh_50-prng-1,30_issda_50,50,rng-50,21,rng,num-start-691,691,25726,5.102747678756714,True,,True,1,False,1000,True,1.0
./expes/v2_2020-12-03_dh_50-prng-1,30_issda_50,50,rng-50,21,rng,num-start-691,691,25726,4.725884675979614,True,,True,1,False,1000,True,1.0
./expes/v2_2020-12-03_dh_50-prng-1,30_issda_50,50,rng-50,11,rng,num-start-361,361,25726,2.477247476577759,True,,True,1,False,1000,True,1.0
./expes/v2_2020-12-03_dh_50-prng-1,30_issda_50,50,rng-50,21,rng,num-start-791,791,25726,5.590556621551514,True,,True,1,False,1000,True,1.0
./expes/v2_2020-12-03_dh_50-prng-1,30_issda_50,50,rng-50,21,rng,num-start-961,961,25726,11.606711387634277,True,,True,1,False,1000,True,1.0
./expes/v2_2020-12-03_dh_50-prng-1,30_issda_50,50,rng-50,1,rng,num-start-351,351,25726,2.3372139930725098,True,,True,1,False,1000,True,1.0
./expes/v2_2020-12-03_dh_50-prng-1,30_issda_50,50,rng-50,1,rng,num-start-911,911,25726,6.122305154800415,True,,True,1,False,1000,True,1.0
./expes/v2_2020-12-03_dh_50-prng-1,30_issda_50,50,rng-50,31,rng,num-start-251,251,25726,1.7897205352783203,True,,True,1,False,1000,True,1.0
./expes/v2_2020-12-03_dh_50-prng-1,30_issda_50,50,rng-50,31,rng,num-start-381,381,25726,2.6216862201690674,True,,True,1,False,1000,True,1.0
./expes/v2_2020-12-03_dh_50-prng-1,30_issda_50,50,rng-50,11,rng,num-start-641,641,25726,4.300469160079956,True,,True,1,False,1000,True,1.0
./expes/v2_2020-12-03_dh_50-prng-1,30_issda_50,50,rng-50,21,rng,num-start-911,911,25726,6.261392831802368,True,,True,1,False,1000,True,1.0
./expes/v2_2020-12-03_dh_50-prng-1,30_issda_50,50,rng-50,11,rng,num-start-331,331,25726,2.2505545616149902,True,,True,1,False,1000,True,1.0
./expes/v2_2020-12-03_dh_50-prng-1,30_issda_50,50,rng-50,1,rng,num-start-961,961,25726,6.516506195068359,True,,True,1,False,1000,True,1.0
./expes/v2_2020-12-03_dh_50-prng-1,30_issda_50,50,rng-50,21,rng,num-start-171,171,25726,1.2074360847473145,True,,True,1,False,1000,True,1.0
./expes/v2_2020-12-03_dh_50-prng-1,30_issda_50,50,rng-50,31,rng,num-start-481,481,25726,3.2871692180633545,True,,True,1,False,1000,True,1.0
./expes/v2_2020-12-03_dh_50-prng-1,30_issda_50,50,rng-50,21,rng,num-start-281,281,25726,1.9001250267028809,True,,True,1,False,1000,True,1.0
./expes/v2_2020-12-03_dh_50-prng-1,30_issda_50,50,rng-50,1,rng,num-start-711,711,25726,4.772966384887695,True,,True,1,False,1000,True,1.0
./expes/v2_2020-12-03_dh_50-prng-1,30_issda_50,50,rng-50,31,rng,num-start-691,691,25726,4.7505903244018555,True,,True,1,False,1000,True,1.0
./expes/v2_2020-12-03_dh_50-prng-1,30_issda_50,50,rng-50,41,rng,num-start-741,741,25726,5.069097518920898,True,,True,1,False,1000,True,1.0
./expes/v2_2020-12-03_dh_50-prng-1,30_issda_50,50,rng-50,31,rng,num-start-161,161,25726,1.123499870300293,True,,True,1,False,1000,True,1.0
./expes/v2_2020-12-03_dh_50-prng-1,30_issda_50,50,rng-50,41,rng,num-start-701,701,25726,4.697479009628296,True,,True,1,False,1000,True,1.0
./expes/v2_2020-12-03_dh_50-prng-1,30_issda_50,50,rng-50,1,rng,num-start-111,111,25726,0.8118536472320557,True,,True,1,False,1000,True,1.0
./expes/v2_2020-12-03_dh_50-prng-1,30_issda_50,50,rng-50,11,rng,num-start-121,121,25726,0.8427138328552246,True,,True,1,False,1000,True,1.0
./expes/v2_2020-12-03_dh_50-prng-1,30_issda_50,50,rng-50,1,rng,num-start-231,231,25726,1.786271095275879,True,,True,1,False,1000,True,1.0
./expes/v2_2020-12-03_dh_50-prng-1,30_issda_50,50,rng-50,1,rng,num-start-411,411,25726,2.8470141887664795,True,,True,1,False,1000,True,1.0
./expes/v2_2020-12-03_dh_50-prng-1,30_issda_50,50,rng-50,41,rng,num-start-661,661,25726,4.569780588150024,True,,True,1,False,1000,True,1.0
./expes/v2_2020-12-03_dh_50-prng-1,30_issda_50,50,rng-50,11,rng,num-start-471,471,25726,3.232614040374756,True,,True,1,False,1000,True,1.0
./expes/v2_2020-12-03_dh_50-prng-1,30_issda_50,50,rng-50,21,rng,num-start-631,631,25726,4.353899955749512,True,,True,1,False,1000,True,1.0
./expes/v2_2020-12-03_dh_50-prng-1,30_issda_50,50,rng-50,11,rng,num-start-501,501,25726,3.4190354347229004,True,,True,1,False,1000,True,1.0
./expes/v2_2020-12-03_dh_50-prng-1,30_issda_50,50,rng-50,41,rng,num-start-801,801,25726,5.313365936279297,True,,True,1,False,1000,True,1.0
./expes/v2_2020-12-03_dh_50-prng-1,30_issda_50,50,rng-50,31,rng,num-start-1,1,25726,0.02286386489868164,False,,False,2,False,1000,True,1.0
./expes/v2_2020-12-03_dh_50-prng-1,30_issda_50,50,rng-50,31,rng,num-start-681,681,25726,4.928256511688232,True,,True,1,False,1000,True,1.0
./expes/v2_2020-12-03_dh_50-prng-1,30_issda_50,50,rng-50,31,rng,num-start-651,651,25726,4.4096174240112305,True,,True,1,False,1000,True,1.0
./expes/v2_2020-12-03_dh_50-prng-1,30_issda_50,50,rng-50,31,rng,num-start-231,231,25726,1.8843138217926025,True,,True,1,False,1000,True,1.0
./expes/v2_2020-12-03_dh_50-prng-1,30_issda_50,50,rng-50,1,rng,num-start-1,1,25726,0.016922473907470703,True,,True,1,False,1000,True,1.0
./expes/v2_2020-12-03_dh_50-prng-1,30_issda_50,50,rng-50,11,rng,num-start-201,201,25726,1.3418617248535156,True,,True,1,False,1000,True,1.0
./expes/v2_2020-12-03_dh_50-prng-1,30_issda_50,50,rng-50,41,rng,num-start-961,961,25726,6.359856605529785,True,,True,1,False,1000,True,1.0
./expes/v2_2020-12-03_dh_50-prng-1,30_issda_50,50,rng-50,11,rng,num-start-151,151,25726,1.0212786197662354,True,,True,1,False,1000,True,1.0
./expes/v2_2020-12-03_dh_50-prng-1,30_issda_50,50,rng-50,11,rng,num-start-71,71,25726,0.4951589107513428,True,,True,1,False,1000,True,1.0
./expes/v2_2020-12-03_dh_50-prng-1,30_issda_50,50,rng-50,31,rng,num-start-711,711,25726,5.297131061553955,True,,True,1,False,1000,True,1.0
./expes/v2_2020-12-03_dh_50-prng-1,30_issda_50,50,rng-50,21,rng,num-start-291,291,25726,2.0987274646759033,True,,True,1,False,1000,True,1.0
./expes/v2_2020-12-03_dh_50-prng-1,30_issda_50,50,rng-50,31,rng,num-start-511,511,25726,3.415893793106079,True,,True,1,False,1000,True,1.0
./expes/v2_2020-12-03_dh_50-prng-1,30_issda_50,50,rng-50,11,rng,num-start-311,311,25726,2.0938007831573486,True,,True,1,False,1000,True,1.0
./expes/v2_2020-12-03_dh_50-prng-1,30_issda_50,50,rng-50,31,rng,num-start-41,41,25726,0.4194447994232178,True,,True,1,False,1000,True,1.0
./expes/v2_2020-12-03_dh_50-prng-1,30_issda_50,50,rng-50,41,rng,num-start-791,791,25726,5.338961124420166,True,,True,1,False,1000,True,1.0
./expes/v2_2020-12-03_dh_50-prng-1,30_issda_50,50,rng-50,1,rng,num-start-51,51,25726,0.3431568145751953,True,,True,1,False,1000,True,1.0
./expes/v2_2020-12-03_dh_50-prng-1,30_issda_50,50,rng-50,1,rng,num-start-831,831,25726,5.580096244812012,True,,True,1,False,1000,True,1.0
./expes/v2_2020-12-03_dh_50-prng-1,30_issda_50,50,rng-50,41,rng,num-start-871,871,25726,5.951931476593018,True,,True,1,False,1000,True,1.0
./expes/v2_2020-12-03_dh_50-prng-1,30_issda_50,50,rng-50,21,rng,num-start-361,361,25726,2.417771816253662,True,,True,1,False,1000,True,1.0
