expe,clients,clients_size,clients_subset,agg_size,method,days,days_size,days_total,time,valid,valid_sum,success,nsols,wall_hit,wall_time,pooled,valid_sums
./expes/v2_2020-12-02_dh_50-prng-1,30_issda_50,50,rng-50,11,rng,num-start-3001,3001,25726,24.669606924057007,True,,True,1,False,1000,True,1.0
./expes/v2_2020-12-02_dh_50-prng-1,30_issda_50,50,rng-50,31,rng,num-start-10001,10001,25726,85.32984685897827,True,,True,1,False,1000,True,1.0
./expes/v2_2020-12-02_dh_50-prng-1,30_issda_50,50,rng-50,11,rng,num-start-6001,6001,25726,50.11907911300659,True,,True,1,False,1000,True,1.0
./expes/v2_2020-12-02_dh_50-prng-1,30_issda_50,50,rng-50,31,rng,num-start-5001,5001,25726,40.99426865577698,True,,True,1,False,1000,True,1.0
./expes/v2_2020-12-02_dh_50-prng-1,30_issda_50,50,rng-50,41,rng,num-start-11001,11001,25726,91.98848223686218,True,,True,1,False,1000,True,1.0
./expes/v2_2020-12-02_dh_50-prng-1,30_issda_50,50,rng-50,21,rng,num-start-10001,10001,25726,82.6986436843872,True,,True,1,False,1000,True,1.0
./expes/v2_2020-12-02_dh_50-prng-1,30_issda_50,50,rng-50,11,rng,num-start-3001,3001,25726,25.03241205215454,True,,True,1,False,1000,True,1.0
./expes/v2_2020-12-02_dh_50-prng-1,30_issda_50,50,rng-50,41,rng,num-start-10001,10001,25726,82.09131598472595,True,,True,1,False,1000,True,1.0
./expes/v2_2020-12-02_dh_50-prng-1,30_issda_50,50,rng-50,11,rng,num-start-8001,8001,25726,66.26790976524353,True,,True,1,False,1000,True,1.0
./expes/v2_2020-12-02_dh_50-prng-1,30_issda_50,50,rng-50,21,rng,num-start-15001,15001,25726,122.44585752487183,True,,True,1,False,1000,True,1.0
./expes/v2_2020-12-02_dh_50-prng-1,30_issda_50,50,rng-50,11,rng,num-start-14001,14001,25726,116.09720921516418,True,,True,1,False,1000,True,1.0
./expes/v2_2020-12-02_dh_50-prng-1,30_issda_50,50,rng-50,11,rng,num-start-7001,7001,25726,58.56630492210388,True,,True,1,False,1000,True,1.0
./expes/v2_2020-12-02_dh_50-prng-1,30_issda_50,50,rng-50,21,rng,num-start-13001,13001,25726,110.26428055763245,True,,True,1,False,1000,True,1.0
./expes/v2_2020-12-02_dh_50-prng-1,30_issda_50,50,rng-50,31,rng,num-start-9001,9001,25726,74.293860912323,True,,True,1,False,1000,True,1.0
./expes/v2_2020-12-02_dh_50-prng-1,30_issda_50,50,rng-50,21,rng,num-start-11001,11001,25726,91.05970764160156,True,,True,1,False,1000,True,1.0
./expes/v2_2020-12-02_dh_50-prng-1,30_issda_50,50,rng-50,1,rng,num-start-1001,1001,25726,8.334848403930664,True,,True,1,False,1000,True,1.0
./expes/v2_2020-12-02_dh_50-prng-1,30_issda_50,50,rng-50,11,rng,num-start-4001,4001,25726,33.880237340927124,True,,True,1,False,1000,True,1.0
./expes/v2_2020-12-02_dh_50-prng-1,30_issda_50,50,rng-50,1,rng,num-start-16001,16001,25726,131.48023891448975,True,,True,1,False,1000,True,1.0
./expes/v2_2020-12-02_dh_50-prng-1,30_issda_50,50,rng-50,21,rng,num-start-9001,9001,25726,73.87486243247986,True,,True,1,False,1000,True,1.0
./expes/v2_2020-12-02_dh_50-prng-1,30_issda_50,50,rng-50,11,rng,num-start-8001,8001,25726,66.8509247303009,True,,True,1,False,1000,True,1.0
./expes/v2_2020-12-02_dh_50-prng-1,30_issda_50,50,rng-50,1,rng,num-start-14001,14001,25726,114.12405228614807,True,,True,1,False,1000,True,1.0
./expes/v2_2020-12-02_dh_50-prng-1,30_issda_50,50,rng-50,11,rng,num-start-1001,1001,25726,8.201709508895874,True,,True,1,False,1000,True,1.0
./expes/v2_2020-12-02_dh_50-prng-1,30_issda_50,50,rng-50,1,rng,num-start-16001,16001,25726,129.8523440361023,True,,True,1,False,1000,True,1.0
./expes/v2_2020-12-02_dh_50-prng-1,30_issda_50,50,rng-50,11,rng,num-start-3001,3001,25726,24.490753412246704,True,,True,1,False,1000,True,1.0
./expes/v2_2020-12-02_dh_50-prng-1,30_issda_50,50,rng-50,1,rng,num-start-8001,8001,25726,64.85665988922119,True,,True,1,False,1000,True,1.0
./expes/v2_2020-12-02_dh_50-prng-1,30_issda_50,50,rng-50,11,rng,num-start-2001,2001,25726,15.89250922203064,True,,True,1,False,1000,True,1.0
