expe,clients,clients_size,clients_subset,agg_size,method,days,days_size,days_total,time,valid,valid_sum,success,nsols,wall_hit,wall_time,pooled,valid_sums
./expes/v2_2020-11-09_3bh_50-prng-1,30_base_hphc_50,50,first-50,1,rng,num-start-831,831,17520,8.026337385177612,True,,True,1,False,1000,True,1.0
./expes/v2_2020-11-09_3bh_50-prng-1,30_base_hphc_50,50,first-50,21,rng,num-start-291,291,17520,2.830720901489258,True,,True,1,False,1000,True,1.0
./expes/v2_2020-11-09_3bh_50-prng-1,30_base_hphc_50,50,first-50,1,rng,num-start-101,101,17520,0.9638481140136719,True,,True,1,False,1000,True,1.0
./expes/v2_2020-11-09_3bh_50-prng-1,30_base_hphc_50,50,first-50,1,rng,num-start-251,251,17520,2.385101318359375,True,,True,1,False,1000,True,1.0
./expes/v2_2020-11-09_3bh_50-prng-1,30_base_hphc_50,50,first-50,11,rng,num-start-181,181,17520,1.786689281463623,True,,True,1,False,1000,True,1.0
./expes/v2_2020-11-09_3bh_50-prng-1,30_base_hphc_50,50,first-50,11,rng,num-start-371,371,17520,3.595118761062622,True,,True,1,False,1000,True,1.0
./expes/v2_2020-11-09_3bh_50-prng-1,30_base_hphc_50,50,first-50,41,rng,num-start-21,21,17520,0.31156349182128906,True,,True,1,False,1000,True,1.0
./expes/v2_2020-11-09_3bh_50-prng-1,30_base_hphc_50,50,first-50,41,rng,num-start-461,461,17520,4.4409966468811035,True,,True,1,False,1000,True,1.0
./expes/v2_2020-11-09_3bh_50-prng-1,30_base_hphc_50,50,first-50,41,rng,num-start-621,621,17520,5.967711925506592,True,,True,1,False,1000,True,1.0
./expes/v2_2020-11-09_3bh_50-prng-1,30_base_hphc_50,50,first-50,31,rng,num-start-141,141,17520,1.5037486553192139,True,,True,1,False,1000,True,1.0
./expes/v2_2020-11-09_3bh_50-prng-1,30_base_hphc_50,50,first-50,21,rng,num-start-401,401,17520,4.081125736236572,True,,True,1,False,1000,True,1.0
./expes/v2_2020-11-09_3bh_50-prng-1,30_base_hphc_50,50,first-50,1,rng,num-start-661,661,17520,6.298795223236084,True,,True,1,False,1000,True,1.0
./expes/v2_2020-11-09_3bh_50-prng-1,30_base_hphc_50,50,first-50,1,rng,num-start-191,191,17520,1.8198323249816895,True,,True,1,False,1000,True,1.0
./expes/v2_2020-11-09_3bh_50-prng-1,30_base_hphc_50,50,first-50,41,rng,num-start-721,721,17520,6.9341511726379395,True,,True,1,False,1000,True,1.0
./expes/v2_2020-11-09_3bh_50-prng-1,30_base_hphc_50,50,first-50,31,rng,num-start-261,261,17520,2.5218372344970703,True,,True,1,False,1000,True,1.0
./expes/v2_2020-11-09_3bh_50-prng-1,30_base_hphc_50,50,first-50,21,rng,num-start-891,891,17520,8.88496446609497,True,,True,1,False,1000,True,1.0
./expes/v2_2020-11-09_3bh_50-prng-1,30_base_hphc_50,50,first-50,31,rng,num-start-531,531,17520,5.289394855499268,True,,True,1,False,1000,True,1.0
./expes/v2_2020-11-09_3bh_50-prng-1,30_base_hphc_50,50,first-50,1,rng,num-start-531,531,17520,5.042742967605591,True,,True,1,False,1000,True,1.0
./expes/v2_2020-11-09_3bh_50-prng-1,30_base_hphc_50,50,first-50,41,rng,num-start-611,611,17520,5.866710424423218,True,,True,1,False,1000,True,1.0
./expes/v2_2020-11-09_3bh_50-prng-1,30_base_hphc_50,50,first-50,41,rng,num-start-291,291,17520,2.822916269302368,True,,True,1,False,1000,True,1.0
./expes/v2_2020-11-09_3bh_50-prng-1,30_base_hphc_50,50,first-50,21,rng,num-start-161,161,17520,1.7543129920959473,True,,True,1,False,1000,True,1.0
./expes/v2_2020-11-09_3bh_50-prng-1,30_base_hphc_50,50,first-50,21,rng,num-start-741,741,17520,7.339031934738159,True,,True,1,False,1000,True,1.0
./expes/v2_2020-11-09_3bh_50-prng-1,30_base_hphc_50,50,first-50,41,rng,num-start-241,241,17520,2.319955587387085,True,,True,1,False,1000,True,1.0
./expes/v2_2020-11-09_3bh_50-prng-1,30_base_hphc_50,50,first-50,41,rng,num-start-421,421,17520,4.070487976074219,True,,True,1,False,1000,True,1.0
./expes/v2_2020-11-09_3bh_50-prng-1,30_base_hphc_50,50,first-50,1,rng,num-start-721,721,17520,6.896138906478882,True,,True,1,False,1000,True,1.0
./expes/v2_2020-11-09_3bh_50-prng-1,30_base_hphc_50,50,first-50,31,rng,num-start-531,531,17520,5.400013446807861,True,,True,1,False,1000,True,1.0
./expes/v2_2020-11-09_3bh_50-prng-1,30_base_hphc_50,50,first-50,11,rng,num-start-711,711,17520,7.146192312240601,True,,True,1,False,1000,True,1.0
./expes/v2_2020-11-09_3bh_50-prng-1,30_base_hphc_50,50,first-50,11,rng,num-start-51,51,17520,0.6188161373138428,True,,True,1,False,1000,True,1.0
./expes/v2_2020-11-09_3bh_50-prng-1,30_base_hphc_50,50,first-50,21,rng,num-start-241,241,17520,2.3598828315734863,True,,True,1,False,1000,True,1.0
./expes/v2_2020-11-09_3bh_50-prng-1,30_base_hphc_50,50,first-50,31,rng,num-start-561,561,17520,5.673843145370483,True,,True,1,False,1000,True,1.0
./expes/v2_2020-11-09_3bh_50-prng-1,30_base_hphc_50,50,first-50,11,rng,num-start-71,71,17520,0.8104608058929443,True,,True,1,False,1000,True,1.0
./expes/v2_2020-11-09_3bh_50-prng-1,30_base_hphc_50,50,first-50,1,rng,num-start-181,181,17520,1.7297825813293457,True,,True,1,False,1000,True,1.0
./expes/v2_2020-11-09_3bh_50-prng-1,30_base_hphc_50,50,first-50,11,rng,num-start-621,621,17520,6.0284342765808105,True,,True,1,False,1000,True,1.0
./expes/v2_2020-11-09_3bh_50-prng-1,30_base_hphc_50,50,first-50,11,rng,num-start-881,881,17520,8.53298020362854,True,,True,1,False,1000,True,1.0
./expes/v2_2020-11-09_3bh_50-prng-1,30_base_hphc_50,50,first-50,41,rng,num-start-661,661,17520,6.386804819107056,True,,True,1,False,1000,True,1.0
./expes/v2_2020-11-09_3bh_50-prng-1,30_base_hphc_50,50,first-50,1,rng,num-start-81,81,17520,0.7771806716918945,True,,True,1,False,1000,True,1.0
./expes/v2_2020-11-09_3bh_50-prng-1,30_base_hphc_50,50,first-50,41,rng,num-start-311,311,17520,3.014803171157837,True,,True,1,False,1000,True,1.0
./expes/v2_2020-11-09_3bh_50-prng-1,30_base_hphc_50,50,first-50,1,rng,num-start-141,141,17520,1.3490965366363525,True,,True,1,False,1000,True,1.0
./expes/v2_2020-11-09_3bh_50-prng-1,30_base_hphc_50,50,first-50,21,rng,num-start-911,911,17520,9.082503318786621,True,,True,1,False,1000,True,1.0
./expes/v2_2020-11-09_3bh_50-prng-1,30_base_hphc_50,50,first-50,41,rng,num-start-731,731,17520,7.148271083831787,True,,True,1,False,1000,True,1.0
./expes/v2_2020-11-09_3bh_50-prng-1,30_base_hphc_50,50,first-50,1,rng,num-start-791,791,17520,7.580724477767944,True,,True,1,False,1000,True,1.0
./expes/v2_2020-11-09_3bh_50-prng-1,30_base_hphc_50,50,first-50,41,rng,num-start-31,31,17520,0.414090633392334,True,,True,1,False,1000,True,1.0
./expes/v2_2020-11-09_3bh_50-prng-1,30_base_hphc_50,50,first-50,31,rng,num-start-591,591,17520,5.884195327758789,True,,True,1,False,1000,True,1.0
./expes/v2_2020-11-09_3bh_50-prng-1,30_base_hphc_50,50,first-50,41,rng,num-start-61,61,17520,0.6025807857513428,True,,True,1,False,1000,True,1.0
./expes/v2_2020-11-09_3bh_50-prng-1,30_base_hphc_50,50,first-50,31,rng,num-start-551,551,17520,5.409013986587524,True,,True,1,False,1000,True,1.0
./expes/v2_2020-11-09_3bh_50-prng-1,30_base_hphc_50,50,first-50,31,rng,num-start-441,441,17520,4.467552900314331,True,,True,1,False,1000,True,1.0
./expes/v2_2020-11-09_3bh_50-prng-1,30_base_hphc_50,50,first-50,41,rng,num-start-771,771,17520,7.351698637008667,True,,True,1,False,1000,True,1.0
./expes/v2_2020-11-09_3bh_50-prng-1,30_base_hphc_50,50,first-50,31,rng,num-start-71,71,17520,0.8247509002685547,True,,True,1,False,1000,True,1.0
./expes/v2_2020-11-09_3bh_50-prng-1,30_base_hphc_50,50,first-50,1,rng,num-start-241,241,17520,2.2822999954223633,True,,True,1,False,1000,True,1.0
./expes/v2_2020-11-09_3bh_50-prng-1,30_base_hphc_50,50,first-50,11,rng,num-start-321,321,17520,3.111609935760498,True,,True,1,False,1000,True,1.0
./expes/v2_2020-11-09_3bh_50-prng-1,30_base_hphc_50,50,first-50,31,rng,num-start-431,431,17520,4.338555335998535,True,,True,1,False,1000,True,1.0
./expes/v2_2020-11-09_3bh_50-prng-1,30_base_hphc_50,50,first-50,1,rng,num-start-861,861,17520,8.1385657787323,True,,True,1,False,1000,True,1.0
./expes/v2_2020-11-09_3bh_50-prng-1,30_base_hphc_50,50,first-50,21,rng,num-start-901,901,17520,8.83001184463501,True,,True,1,False,1000,True,1.0
./expes/v2_2020-11-09_3bh_50-prng-1,30_base_hphc_50,50,first-50,31,rng,num-start-861,861,17520,8.454491138458252,True,,True,1,False,1000,True,1.0
./expes/v2_2020-11-09_3bh_50-prng-1,30_base_hphc_50,50,first-50,1,rng,num-start-61,61,17520,0.6087908744812012,True,,True,1,False,1000,True,1.0
./expes/v2_2020-11-09_3bh_50-prng-1,30_base_hphc_50,50,first-50,31,rng,num-start-221,221,17520,2.11246657371521,True,,True,1,False,1000,True,1.0
./expes/v2_2020-11-09_3bh_50-prng-1,30_base_hphc_50,50,first-50,21,rng,num-start-541,541,17520,5.4124367237091064,True,,True,1,False,1000,True,1.0
./expes/v2_2020-11-09_3bh_50-prng-1,30_base_hphc_50,50,first-50,1,rng,num-start-981,981,17520,9.317477464675903,True,,True,1,False,1000,True,1.0
./expes/v2_2020-11-09_3bh_50-prng-1,30_base_hphc_50,50,first-50,41,rng,num-start-21,21,17520,0.30674219131469727,True,,True,1,False,1000,True,1.0
./expes/v2_2020-11-09_3bh_50-prng-1,30_base_hphc_50,50,first-50,1,rng,num-start-71,71,17520,0.6752071380615234,True,,True,1,False,1000,True,1.0
./expes/v2_2020-11-09_3bh_50-prng-1,30_base_hphc_50,50,first-50,11,rng,num-start-581,581,17520,5.5563812255859375,True,,True,1,False,1000,True,1.0
./expes/v2_2020-11-09_3bh_50-prng-1,30_base_hphc_50,50,first-50,31,rng,num-start-51,51,17520,0.5981519222259521,True,,True,1,False,1000,True,1.0
./expes/v2_2020-11-09_3bh_50-prng-1,30_base_hphc_50,50,first-50,21,rng,num-start-871,871,17520,8.569339275360107,True,,True,1,False,1000,True,1.0
./expes/v2_2020-11-09_3bh_50-prng-1,30_base_hphc_50,50,first-50,31,rng,num-start-691,691,17520,6.81543493270874,True,,True,1,False,1000,True,1.0
./expes/v2_2020-11-09_3bh_50-prng-1,30_base_hphc_50,50,first-50,11,rng,num-start-531,531,17520,5.0743408203125,True,,True,1,False,1000,True,1.0
./expes/v2_2020-11-09_3bh_50-prng-1,30_base_hphc_50,50,first-50,31,rng,num-start-321,321,17520,3.0827536582946777,True,,True,1,False,1000,True,1.0
./expes/v2_2020-11-09_3bh_50-prng-1,30_base_hphc_50,50,first-50,31,rng,num-start-301,301,17520,2.8699917793273926,True,,True,1,False,1000,True,1.0
./expes/v2_2020-11-09_3bh_50-prng-1,30_base_hphc_50,50,first-50,41,rng,num-start-741,741,17520,7.079846620559692,True,,True,1,False,1000,True,1.0
./expes/v2_2020-11-09_3bh_50-prng-1,30_base_hphc_50,50,first-50,21,rng,num-start-151,151,17520,1.6940715312957764,True,,True,1,False,1000,True,1.0
./expes/v2_2020-11-09_3bh_50-prng-1,30_base_hphc_50,50,first-50,11,rng,num-start-81,81,17520,0.8571844100952148,True,,True,1,False,1000,True,1.0
./expes/v2_2020-11-09_3bh_50-prng-1,30_base_hphc_50,50,first-50,11,rng,num-start-761,761,17520,7.239195108413696,True,,True,1,False,1000,True,1.0
./expes/v2_2020-11-09_3bh_50-prng-1,30_base_hphc_50,50,first-50,11,rng,num-start-151,151,17520,1.5586655139923096,True,,True,1,False,1000,True,1.0
./expes/v2_2020-11-09_3bh_50-prng-1,30_base_hphc_50,50,first-50,1,rng,num-start-861,861,17520,8.132557153701782,True,,True,1,False,1000,True,1.0
./expes/v2_2020-11-09_3bh_50-prng-1,30_base_hphc_50,50,first-50,1,rng,num-start-811,811,17520,7.6462507247924805,True,,True,1,False,1000,True,1.0
./expes/v2_2020-11-09_3bh_50-prng-1,30_base_hphc_50,50,first-50,1,rng,num-start-691,691,17520,6.509819030761719,True,,True,1,False,1000,True,1.0
./expes/v2_2020-11-09_3bh_50-prng-1,30_base_hphc_50,50,first-50,11,rng,num-start-761,761,17520,7.28259015083313,True,,True,1,False,1000,True,1.0
./expes/v2_2020-11-09_3bh_50-prng-1,30_base_hphc_50,50,first-50,1,rng,num-start-181,181,17520,1.7201015949249268,True,,True,1,False,1000,True,1.0
./expes/v2_2020-11-09_3bh_50-prng-1,30_base_hphc_50,50,first-50,41,rng,num-start-721,721,17520,6.827012062072754,True,,True,1,False,1000,True,1.0
./expes/v2_2020-11-09_3bh_50-prng-1,30_base_hphc_50,50,first-50,11,rng,num-start-421,421,17520,3.9882240295410156,True,,True,1,False,1000,True,1.0
./expes/v2_2020-11-09_3bh_50-prng-1,30_base_hphc_50,50,first-50,21,rng,num-start-151,151,17520,1.5609397888183594,True,,True,1,False,1000,True,1.0
./expes/v2_2020-11-09_3bh_50-prng-1,30_base_hphc_50,50,first-50,21,rng,num-start-991,991,17520,9.710064888000488,True,,True,1,False,1000,True,1.0
./expes/v2_2020-11-09_3bh_50-prng-1,30_base_hphc_50,50,first-50,31,rng,num-start-51,51,17520,0.5956037044525146,True,,True,1,False,1000,True,1.0
./expes/v2_2020-11-09_3bh_50-prng-1,30_base_hphc_50,50,first-50,41,rng,num-start-171,171,17520,1.6662511825561523,True,,True,1,False,1000,True,1.0
./expes/v2_2020-11-09_3bh_50-prng-1,30_base_hphc_50,50,first-50,21,rng,num-start-101,101,17520,1.0955543518066406,True,,True,1,False,1000,True,1.0
./expes/v2_2020-11-09_3bh_50-prng-1,30_base_hphc_50,50,first-50,1,rng,num-start-591,591,17520,5.563392877578735,True,,True,1,False,1000,True,1.0
./expes/v2_2020-11-09_3bh_50-prng-1,30_base_hphc_50,50,first-50,21,rng,num-start-11,11,17520,3.2471251487731934,True,,True,1,False,1000,True,1.0
./expes/v2_2020-11-09_3bh_50-prng-1,30_base_hphc_50,50,first-50,1,rng,num-start-411,411,17520,3.8541035652160645,True,,True,1,False,1000,True,1.0
./expes/v2_2020-11-09_3bh_50-prng-1,30_base_hphc_50,50,first-50,31,rng,num-start-761,761,17520,7.48700213432312,True,,True,1,False,1000,True,1.0
./expes/v2_2020-11-09_3bh_50-prng-1,30_base_hphc_50,50,first-50,1,rng,num-start-11,11,17520,0.10870695114135742,True,,True,1,False,1000,True,1.0
./expes/v2_2020-11-09_3bh_50-prng-1,30_base_hphc_50,50,first-50,31,rng,num-start-231,231,17520,2.218250036239624,True,,True,1,False,1000,True,1.0
./expes/v2_2020-11-09_3bh_50-prng-1,30_base_hphc_50,50,first-50,11,rng,num-start-31,31,17520,0.405259370803833,True,,True,1,False,1000,True,1.0
./expes/v2_2020-11-09_3bh_50-prng-1,30_base_hphc_50,50,first-50,41,rng,num-start-231,231,17520,2.1937313079833984,True,,True,1,False,1000,True,1.0
./expes/v2_2020-11-09_3bh_50-prng-1,30_base_hphc_50,50,first-50,1,rng,num-start-261,261,17520,2.464885950088501,True,,True,1,False,1000,True,1.0
./expes/v2_2020-11-09_3bh_50-prng-1,30_base_hphc_50,50,first-50,11,rng,num-start-821,821,17520,7.922009229660034,True,,True,1,False,1000,True,1.0
./expes/v2_2020-11-09_3bh_50-prng-1,30_base_hphc_50,50,first-50,1,rng,num-start-831,831,17520,7.8001275062561035,True,,True,1,False,1000,True,1.0
./expes/v2_2020-11-09_3bh_50-prng-1,30_base_hphc_50,50,first-50,21,rng,num-start-1,1,17520,0.028095483779907227,False,,False,2,False,1000,True,1.0
./expes/v2_2020-11-09_3bh_50-prng-1,30_base_hphc_50,50,first-50,41,rng,num-start-851,851,17520,8.09508752822876,True,,True,1,False,1000,True,1.0
./expes/v2_2020-11-09_3bh_50-prng-1,30_base_hphc_50,50,first-50,31,rng,num-start-11,11,17520,0.34479498863220215,True,,True,1,False,1000,True,1.0
./expes/v2_2020-11-09_3bh_50-prng-1,30_base_hphc_50,50,first-50,41,rng,num-start-321,321,17520,3.0323166847229004,True,,True,1,False,1000,True,1.0
./expes/v2_2020-11-09_3bh_50-prng-1,30_base_hphc_50,50,first-50,41,rng,num-start-11,11,17520,0.2349414825439453,True,,True,1,False,1000,True,1.0
./expes/v2_2020-11-09_3bh_50-prng-1,30_base_hphc_50,50,first-50,11,rng,num-start-431,431,17520,4.109314441680908,True,,True,1,False,1000,True,1.0
./expes/v2_2020-11-09_3bh_50-prng-1,30_base_hphc_50,50,first-50,11,rng,num-start-931,931,17520,8.832409858703613,True,,True,1,False,1000,True,1.0
./expes/v2_2020-11-09_3bh_50-prng-1,30_base_hphc_50,50,first-50,31,rng,num-start-311,311,17520,2.9614546298980713,True,,True,1,False,1000,True,1.0
./expes/v2_2020-11-09_3bh_50-prng-1,30_base_hphc_50,50,first-50,41,rng,num-start-881,881,17520,8.418292045593262,True,,True,1,False,1000,True,1.0
./expes/v2_2020-11-09_3bh_50-prng-1,30_base_hphc_50,50,first-50,41,rng,num-start-111,111,17520,1.0756597518920898,True,,True,1,False,1000,True,1.0
./expes/v2_2020-11-09_3bh_50-prng-1,30_base_hphc_50,50,first-50,11,rng,num-start-311,311,17520,2.947873592376709,True,,True,1,False,1000,True,1.0
./expes/v2_2020-11-09_3bh_50-prng-1,30_base_hphc_50,50,first-50,31,rng,num-start-841,841,17520,8.406241416931152,True,,True,1,False,1000,True,1.0
./expes/v2_2020-11-09_3bh_50-prng-1,30_base_hphc_50,50,first-50,1,rng,num-start-171,171,17520,1.6077890396118164,True,,True,1,False,1000,True,1.0
./expes/v2_2020-11-09_3bh_50-prng-1,30_base_hphc_50,50,first-50,1,rng,num-start-301,301,17520,2.830052375793457,True,,True,1,False,1000,True,1.0
./expes/v2_2020-11-09_3bh_50-prng-1,30_base_hphc_50,50,first-50,21,rng,num-start-251,251,17520,2.391674757003784,True,,True,1,False,1000,True,1.0
./expes/v2_2020-11-09_3bh_50-prng-1,30_base_hphc_50,50,first-50,11,rng,num-start-91,91,17520,0.9832170009613037,True,,True,1,False,1000,True,1.0
./expes/v2_2020-11-09_3bh_50-prng-1,30_base_hphc_50,50,first-50,11,rng,num-start-901,901,17520,8.640692710876465,True,,True,1,False,1000,True,1.0
./expes/v2_2020-11-09_3bh_50-prng-1,30_base_hphc_50,50,first-50,1,rng,num-start-581,581,17520,5.555417776107788,True,,True,1,False,1000,True,1.0
./expes/v2_2020-11-09_3bh_50-prng-1,30_base_hphc_50,50,first-50,41,rng,num-start-91,91,17520,0.8942587375640869,True,,True,1,False,1000,True,1.0
./expes/v2_2020-11-09_3bh_50-prng-1,30_base_hphc_50,50,first-50,11,rng,num-start-131,131,17520,1.3554527759552002,True,,True,1,False,1000,True,1.0
./expes/v2_2020-11-09_3bh_50-prng-1,30_base_hphc_50,50,first-50,31,rng,num-start-421,421,17520,4.333907842636108,True,,True,1,False,1000,True,1.0
./expes/v2_2020-11-09_3bh_50-prng-1,30_base_hphc_50,50,first-50,41,rng,num-start-451,451,17520,4.263950347900391,True,,True,1,False,1000,True,1.0
./expes/v2_2020-11-09_3bh_50-prng-1,30_base_hphc_50,50,first-50,21,rng,num-start-551,551,17520,5.435984134674072,True,,True,1,False,1000,True,1.0
./expes/v2_2020-11-09_3bh_50-prng-1,30_base_hphc_50,50,first-50,1,rng,num-start-541,541,17520,5.059483289718628,True,,True,1,False,1000,True,1.0
./expes/v2_2020-11-09_3bh_50-prng-1,30_base_hphc_50,50,first-50,31,rng,num-start-391,391,17520,3.7435390949249268,True,,True,1,False,1000,True,1.0
./expes/v2_2020-11-09_3bh_50-prng-1,30_base_hphc_50,50,first-50,21,rng,num-start-651,651,17520,6.419154405593872,True,,True,1,False,1000,True,1.0
./expes/v2_2020-11-09_3bh_50-prng-1,30_base_hphc_50,50,first-50,21,rng,num-start-681,681,17520,6.826580047607422,True,,True,1,False,1000,True,1.0
./expes/v2_2020-11-09_3bh_50-prng-1,30_base_hphc_50,50,first-50,31,rng,num-start-421,421,17520,4.284250497817993,True,,True,1,False,1000,True,1.0
./expes/v2_2020-11-09_3bh_50-prng-1,30_base_hphc_50,50,first-50,21,rng,num-start-691,691,17520,6.836848020553589,True,,True,1,False,1000,True,1.0
./expes/v2_2020-11-09_3bh_50-prng-1,30_base_hphc_50,50,first-50,11,rng,num-start-371,371,17520,3.557620048522949,True,,True,1,False,1000,True,1.0
./expes/v2_2020-11-09_3bh_50-prng-1,30_base_hphc_50,50,first-50,31,rng,num-start-421,421,17520,4.2523088455200195,True,,True,1,False,1000,True,1.0
./expes/v2_2020-11-09_3bh_50-prng-1,30_base_hphc_50,50,first-50,11,rng,num-start-451,451,17520,4.286694526672363,True,,True,1,False,1000,True,1.0
./expes/v2_2020-11-09_3bh_50-prng-1,30_base_hphc_50,50,first-50,31,rng,num-start-751,751,17520,7.327950716018677,True,,True,1,False,1000,True,1.0
./expes/v2_2020-11-09_3bh_50-prng-1,30_base_hphc_50,50,first-50,21,rng,num-start-881,881,17520,8.540218353271484,True,,True,1,False,1000,True,1.0
./expes/v2_2020-11-09_3bh_50-prng-1,30_base_hphc_50,50,first-50,31,rng,num-start-421,421,17520,4.22869348526001,True,,True,1,False,1000,True,1.0
./expes/v2_2020-11-09_3bh_50-prng-1,30_base_hphc_50,50,first-50,11,rng,num-start-861,861,17520,8.454157590866089,True,,True,1,False,1000,True,1.0
./expes/v2_2020-11-09_3bh_50-prng-1,30_base_hphc_50,50,first-50,11,rng,num-start-61,61,17520,0.6998159885406494,True,,True,1,False,1000,True,1.0
./expes/v2_2020-11-09_3bh_50-prng-1,30_base_hphc_50,50,first-50,31,rng,num-start-91,91,17520,1.0565478801727295,True,,True,1,False,1000,True,1.0
./expes/v2_2020-11-09_3bh_50-prng-1,30_base_hphc_50,50,first-50,41,rng,num-start-571,571,17520,5.448712587356567,True,,True,1,False,1000,True,1.0
./expes/v2_2020-11-09_3bh_50-prng-1,30_base_hphc_50,50,first-50,21,rng,num-start-341,341,17520,3.257521867752075,True,,True,1,False,1000,True,1.0
./expes/v2_2020-11-09_3bh_50-prng-1,30_base_hphc_50,50,first-50,1,rng,num-start-931,931,17520,8.84397578239441,True,,True,1,False,1000,True,1.0
./expes/v2_2020-11-09_3bh_50-prng-1,30_base_hphc_50,50,first-50,41,rng,num-start-111,111,17520,1.0844461917877197,True,,True,1,False,1000,True,1.0
./expes/v2_2020-11-09_3bh_50-prng-1,30_base_hphc_50,50,first-50,11,rng,num-start-511,511,17520,4.8829991817474365,True,,True,1,False,1000,True,1.0
./expes/v2_2020-11-09_3bh_50-prng-1,30_base_hphc_50,50,first-50,1,rng,num-start-381,381,17520,3.5754427909851074,True,,True,1,False,1000,True,1.0
./expes/v2_2020-11-09_3bh_50-prng-1,30_base_hphc_50,50,first-50,1,rng,num-start-171,171,17520,1.6073129177093506,True,,True,1,False,1000,True,1.0
./expes/v2_2020-11-09_3bh_50-prng-1,30_base_hphc_50,50,first-50,11,rng,num-start-861,861,17520,8.507444620132446,True,,True,1,False,1000,True,1.0
