expe,clients,clients_size,clients_subset,agg_size,method,days,days_size,days_total,time,valid,valid_sum,success,nsols,wall_hit,wall_time,pooled,valid_sums
./expes/v2_2020-11-09_3bh_50-prng-1,30_base_hphc_50,50,first-50,21,rng,num-start-701,701,17520,6.939800977706909,True,,True,1,False,1000,True,1.0
./expes/v2_2020-11-09_3bh_50-prng-1,30_base_hphc_50,50,first-50,11,rng,num-start-821,821,17520,7.739064455032349,True,,True,1,False,1000,True,1.0
./expes/v2_2020-11-09_3bh_50-prng-1,30_base_hphc_50,50,first-50,31,rng,num-start-651,651,17520,6.331971645355225,True,,True,1,False,1000,True,1.0
./expes/v2_2020-11-09_3bh_50-prng-1,30_base_hphc_50,50,first-50,1,rng,num-start-321,321,17520,2.9649436473846436,True,,True,1,False,1000,True,1.0
./expes/v2_2020-11-09_3bh_50-prng-1,30_base_hphc_50,50,first-50,1,rng,num-start-171,171,17520,1.5832173824310303,True,,True,1,False,1000,True,1.0
./expes/v2_2020-11-09_3bh_50-prng-1,30_base_hphc_50,50,first-50,1,rng,num-start-361,361,17520,3.337218761444092,True,,True,1,False,1000,True,1.0
./expes/v2_2020-11-09_3bh_50-prng-1,30_base_hphc_50,50,first-50,41,rng,num-start-991,991,17520,9.233554124832153,True,,True,1,False,1000,True,1.0
./expes/v2_2020-11-09_3bh_50-prng-1,30_base_hphc_50,50,first-50,11,rng,num-start-711,711,17520,6.758297920227051,True,,True,1,False,1000,True,1.0
./expes/v2_2020-11-09_3bh_50-prng-1,30_base_hphc_50,50,first-50,1,rng,num-start-831,831,17520,7.684706449508667,True,,True,1,False,1000,True,1.0
./expes/v2_2020-11-09_3bh_50-prng-1,30_base_hphc_50,50,first-50,31,rng,num-start-851,851,17520,8.23956823348999,True,,True,1,False,1000,True,1.0
./expes/v2_2020-11-09_3bh_50-prng-1,30_base_hphc_50,50,first-50,1,rng,num-start-971,971,17520,9.020932912826538,True,,True,1,False,1000,True,1.0
./expes/v2_2020-11-09_3bh_50-prng-1,30_base_hphc_50,50,first-50,21,rng,num-start-551,551,17520,5.414031028747559,True,,True,1,False,1000,True,1.0
./expes/v2_2020-11-09_3bh_50-prng-1,30_base_hphc_50,50,first-50,41,rng,num-start-921,921,17520,8.623164653778076,True,,True,1,False,1000,True,1.0
./expes/v2_2020-11-09_3bh_50-prng-1,30_base_hphc_50,50,first-50,21,rng,num-start-301,301,17520,2.8615071773529053,True,,True,1,False,1000,True,1.0
./expes/v2_2020-11-09_3bh_50-prng-1,30_base_hphc_50,50,first-50,41,rng,num-start-891,891,17520,8.431171894073486,True,,True,1,False,1000,True,1.0
./expes/v2_2020-11-09_3bh_50-prng-1,30_base_hphc_50,50,first-50,1,rng,num-start-711,711,17520,6.651037693023682,True,,True,1,False,1000,True,1.0
./expes/v2_2020-11-09_3bh_50-prng-1,30_base_hphc_50,50,first-50,31,rng,num-start-171,171,17520,1.8356859683990479,True,,True,1,False,1000,True,1.0
./expes/v2_2020-11-09_3bh_50-prng-1,30_base_hphc_50,50,first-50,1,rng,num-start-141,141,17520,1.3109445571899414,True,,True,1,False,1000,True,1.0
./expes/v2_2020-11-09_3bh_50-prng-1,30_base_hphc_50,50,first-50,11,rng,num-start-591,591,17520,5.717509031295776,True,,True,1,False,1000,True,1.0
./expes/v2_2020-11-09_3bh_50-prng-1,30_base_hphc_50,50,first-50,11,rng,num-start-611,611,17520,5.7855565547943115,True,,True,1,False,1000,True,1.0
./expes/v2_2020-11-09_3bh_50-prng-1,30_base_hphc_50,50,first-50,31,rng,num-start-71,71,17520,0.7951605319976807,True,,True,1,False,1000,True,1.0
./expes/v2_2020-11-09_3bh_50-prng-1,30_base_hphc_50,50,first-50,21,rng,num-start-641,641,17520,6.277315139770508,True,,True,1,False,1000,True,1.0
./expes/v2_2020-11-09_3bh_50-prng-1,30_base_hphc_50,50,first-50,31,rng,num-start-371,371,17520,3.554673433303833,True,,True,1,False,1000,True,1.0
./expes/v2_2020-11-09_3bh_50-prng-1,30_base_hphc_50,50,first-50,21,rng,num-start-651,651,17520,6.399263858795166,True,,True,1,False,1000,True,1.0
./expes/v2_2020-11-09_3bh_50-prng-1,30_base_hphc_50,50,first-50,31,rng,num-start-911,911,17520,8.939363718032837,True,,True,1,False,1000,True,1.0
./expes/v2_2020-11-09_3bh_50-prng-1,30_base_hphc_50,50,first-50,41,rng,num-start-891,891,17520,8.437401533126831,True,,True,1,False,1000,True,1.0
./expes/v2_2020-11-09_3bh_50-prng-1,30_base_hphc_50,50,first-50,41,rng,num-start-581,581,17520,5.451444864273071,True,,True,1,False,1000,True,1.0
./expes/v2_2020-11-09_3bh_50-prng-1,30_base_hphc_50,50,first-50,21,rng,num-start-361,361,17520,3.443674325942993,True,,True,1,False,1000,True,1.0
./expes/v2_2020-11-09_3bh_50-prng-1,30_base_hphc_50,50,first-50,1,rng,num-start-511,511,17520,4.780841827392578,True,,True,1,False,1000,True,1.0
./expes/v2_2020-11-09_3bh_50-prng-1,30_base_hphc_50,50,first-50,11,rng,num-start-661,661,17520,6.182491779327393,True,,True,1,False,1000,True,1.0
./expes/v2_2020-11-09_3bh_50-prng-1,30_base_hphc_50,50,first-50,1,rng,num-start-311,311,17520,2.9155075550079346,True,,True,1,False,1000,True,1.0
./expes/v2_2020-11-09_3bh_50-prng-1,30_base_hphc_50,50,first-50,1,rng,num-start-861,861,17520,8.023482084274292,True,,True,1,False,1000,True,1.0
./expes/v2_2020-11-09_3bh_50-prng-1,30_base_hphc_50,50,first-50,21,rng,num-start-741,741,17520,7.221568584442139,True,,True,1,False,1000,True,1.0
./expes/v2_2020-11-09_3bh_50-prng-1,30_base_hphc_50,50,first-50,31,rng,num-start-631,631,17520,6.176457405090332,True,,True,1,False,1000,True,1.0
./expes/v2_2020-11-09_3bh_50-prng-1,30_base_hphc_50,50,first-50,41,rng,num-start-631,631,17520,5.892908811569214,True,,True,1,False,1000,True,1.0
./expes/v2_2020-11-09_3bh_50-prng-1,30_base_hphc_50,50,first-50,21,rng,num-start-731,731,17520,7.2314369678497314,True,,True,1,False,1000,True,1.0
./expes/v2_2020-11-09_3bh_50-prng-1,30_base_hphc_50,50,first-50,1,rng,num-start-141,141,17520,1.3115129470825195,True,,True,1,False,1000,True,1.0
./expes/v2_2020-11-09_3bh_50-prng-1,30_base_hphc_50,50,first-50,21,rng,num-start-501,501,17520,5.0400285720825195,True,,True,1,False,1000,True,1.0
./expes/v2_2020-11-09_3bh_50-prng-1,30_base_hphc_50,50,first-50,41,rng,num-start-171,171,17520,1.6732566356658936,True,,True,1,False,1000,True,1.0
./expes/v2_2020-11-09_3bh_50-prng-1,30_base_hphc_50,50,first-50,41,rng,num-start-991,991,17520,9.285497426986694,True,,True,1,False,1000,True,1.0
./expes/v2_2020-11-09_3bh_50-prng-1,30_base_hphc_50,50,first-50,11,rng,num-start-951,951,17520,9.023350954055786,True,,True,1,False,1000,True,1.0
./expes/v2_2020-11-09_3bh_50-prng-1,30_base_hphc_50,50,first-50,31,rng,num-start-681,681,17520,6.582637310028076,True,,True,1,False,1000,True,1.0
./expes/v2_2020-11-09_3bh_50-prng-1,30_base_hphc_50,50,first-50,11,rng,num-start-551,551,17520,5.17963981628418,True,,True,1,False,1000,True,1.0
./expes/v2_2020-11-09_3bh_50-prng-1,30_base_hphc_50,50,first-50,31,rng,num-start-651,651,17520,6.352374315261841,True,,True,1,False,1000,True,1.0
./expes/v2_2020-11-09_3bh_50-prng-1,30_base_hphc_50,50,first-50,31,rng,num-start-171,171,17520,1.810680627822876,True,,True,1,False,1000,True,1.0
./expes/v2_2020-11-09_3bh_50-prng-1,30_base_hphc_50,50,first-50,11,rng,num-start-51,51,17520,0.5979044437408447,True,,True,1,False,1000,True,1.0
./expes/v2_2020-11-09_3bh_50-prng-1,30_base_hphc_50,50,first-50,11,rng,num-start-671,671,17520,6.261578798294067,True,,True,1,False,1000,True,1.0
./expes/v2_2020-11-09_3bh_50-prng-1,30_base_hphc_50,50,first-50,41,rng,num-start-951,951,17520,8.971943378448486,True,,True,1,False,1000,True,1.0
./expes/v2_2020-11-09_3bh_50-prng-1,30_base_hphc_50,50,first-50,11,rng,num-start-981,981,17520,9.421328783035278,True,,True,1,False,1000,True,1.0
./expes/v2_2020-11-09_3bh_50-prng-1,30_base_hphc_50,50,first-50,21,rng,num-start-381,381,17520,3.6225035190582275,True,,True,1,False,1000,True,1.0
./expes/v2_2020-11-09_3bh_50-prng-1,30_base_hphc_50,50,first-50,41,rng,num-start-101,101,17520,0.9590058326721191,True,,True,1,False,1000,True,1.0
./expes/v2_2020-11-09_3bh_50-prng-1,30_base_hphc_50,50,first-50,21,rng,num-start-941,941,17520,9.00170350074768,True,,True,1,False,1000,True,1.0
./expes/v2_2020-11-09_3bh_50-prng-1,30_base_hphc_50,50,first-50,11,rng,num-start-921,921,17520,8.87161898612976,True,,True,1,False,1000,True,1.0
./expes/v2_2020-11-09_3bh_50-prng-1,30_base_hphc_50,50,first-50,1,rng,num-start-21,21,17520,0.19806933403015137,True,,True,1,False,1000,True,1.0
./expes/v2_2020-11-09_3bh_50-prng-1,30_base_hphc_50,50,first-50,11,rng,num-start-131,131,17520,1.3616831302642822,True,,True,1,False,1000,True,1.0
./expes/v2_2020-11-09_3bh_50-prng-1,30_base_hphc_50,50,first-50,31,rng,num-start-901,901,17520,8.60394835472107,True,,True,1,False,1000,True,1.0
./expes/v2_2020-11-09_3bh_50-prng-1,30_base_hphc_50,50,first-50,21,rng,num-start-201,201,17520,2.082186460494995,True,,True,1,False,1000,True,1.0
./expes/v2_2020-11-09_3bh_50-prng-1,30_base_hphc_50,50,first-50,31,rng,num-start-221,221,17520,2.0617830753326416,True,,True,1,False,1000,True,1.0
./expes/v2_2020-11-09_3bh_50-prng-1,30_base_hphc_50,50,first-50,31,rng,num-start-571,571,17520,5.5019752979278564,True,,True,1,False,1000,True,1.0
./expes/v2_2020-11-09_3bh_50-prng-1,30_base_hphc_50,50,first-50,1,rng,num-start-901,901,17520,8.352690935134888,True,,True,1,False,1000,True,1.0
./expes/v2_2020-11-09_3bh_50-prng-1,30_base_hphc_50,50,first-50,1,rng,num-start-931,931,17520,8.59295392036438,True,,True,1,False,1000,True,1.0
./expes/v2_2020-11-09_3bh_50-prng-1,30_base_hphc_50,50,first-50,41,rng,num-start-101,101,17520,0.9720242023468018,True,,True,1,False,1000,True,1.0
./expes/v2_2020-11-09_3bh_50-prng-1,30_base_hphc_50,50,first-50,11,rng,num-start-81,81,17520,0.7891566753387451,True,,True,1,False,1000,True,1.0
./expes/v2_2020-11-09_3bh_50-prng-1,30_base_hphc_50,50,first-50,11,rng,num-start-521,521,17520,4.890096426010132,True,,True,1,False,1000,True,1.0
./expes/v2_2020-11-09_3bh_50-prng-1,30_base_hphc_50,50,first-50,21,rng,num-start-51,51,17520,0.5919592380523682,True,,True,1,False,1000,True,1.0
./expes/v2_2020-11-09_3bh_50-prng-1,30_base_hphc_50,50,first-50,11,rng,num-start-461,461,17520,4.365574359893799,True,,True,1,False,1000,True,1.0
./expes/v2_2020-11-09_3bh_50-prng-1,30_base_hphc_50,50,first-50,21,rng,num-start-771,771,17520,7.432145595550537,True,,True,1,False,1000,True,1.0
./expes/v2_2020-11-09_3bh_50-prng-1,30_base_hphc_50,50,first-50,31,rng,num-start-81,81,17520,0.8465828895568848,True,,True,1,False,1000,True,1.0
./expes/v2_2020-11-09_3bh_50-prng-1,30_base_hphc_50,50,first-50,1,rng,num-start-231,231,17520,2.129354953765869,True,,True,1,False,1000,True,1.0
./expes/v2_2020-11-09_3bh_50-prng-1,30_base_hphc_50,50,first-50,41,rng,num-start-431,431,17520,4.035829067230225,True,,True,1,False,1000,True,1.0
./expes/v2_2020-11-09_3bh_50-prng-1,30_base_hphc_50,50,first-50,1,rng,num-start-401,401,17520,3.6866517066955566,True,,True,1,False,1000,True,1.0
./expes/v2_2020-11-09_3bh_50-prng-1,30_base_hphc_50,50,first-50,11,rng,num-start-521,521,17520,4.945307016372681,True,,True,1,False,1000,True,1.0
./expes/v2_2020-11-09_3bh_50-prng-1,30_base_hphc_50,50,first-50,11,rng,num-start-651,651,17520,6.158038139343262,True,,True,1,False,1000,True,1.0
./expes/v2_2020-11-09_3bh_50-prng-1,30_base_hphc_50,50,first-50,31,rng,num-start-321,321,17520,2.9952433109283447,True,,True,1,False,1000,True,1.0
./expes/v2_2020-11-09_3bh_50-prng-1,30_base_hphc_50,50,first-50,21,rng,num-start-341,341,17520,3.2006137371063232,True,,True,1,False,1000,True,1.0
./expes/v2_2020-11-09_3bh_50-prng-1,30_base_hphc_50,50,first-50,11,rng,num-start-241,241,17520,2.2458367347717285,True,,True,1,False,1000,True,1.0
./expes/v2_2020-11-09_3bh_50-prng-1,30_base_hphc_50,50,first-50,21,rng,num-start-271,271,17520,2.5420899391174316,True,,True,1,False,1000,True,1.0
./expes/v2_2020-11-09_3bh_50-prng-1,30_base_hphc_50,50,first-50,21,rng,num-start-791,791,17520,7.7225048542022705,True,,True,1,False,1000,True,1.0
./expes/v2_2020-11-09_3bh_50-prng-1,30_base_hphc_50,50,first-50,31,rng,num-start-251,251,17520,2.369054079055786,True,,True,1,False,1000,True,1.0
./expes/v2_2020-11-09_3bh_50-prng-1,30_base_hphc_50,50,first-50,31,rng,num-start-561,561,17520,5.444379091262817,True,,True,1,False,1000,True,1.0
./expes/v2_2020-11-09_3bh_50-prng-1,30_base_hphc_50,50,first-50,41,rng,num-start-171,171,17520,1.6257739067077637,True,,True,1,False,1000,True,1.0
./expes/v2_2020-11-09_3bh_50-prng-1,30_base_hphc_50,50,first-50,31,rng,num-start-241,241,17520,2.2573959827423096,True,,True,1,False,1000,True,1.0
./expes/v2_2020-11-09_3bh_50-prng-1,30_base_hphc_50,50,first-50,11,rng,num-start-631,631,17520,5.88163423538208,True,,True,1,False,1000,True,1.0
./expes/v2_2020-11-09_3bh_50-prng-1,30_base_hphc_50,50,first-50,1,rng,num-start-291,291,17520,2.6833906173706055,True,,True,1,False,1000,True,1.0
./expes/v2_2020-11-09_3bh_50-prng-1,30_base_hphc_50,50,first-50,41,rng,num-start-701,701,17520,6.5306642055511475,True,,True,1,False,1000,True,1.0
./expes/v2_2020-11-09_3bh_50-prng-1,30_base_hphc_50,50,first-50,41,rng,num-start-951,951,17520,8.8802170753479,True,,True,1,False,1000,True,1.0
./expes/v2_2020-11-09_3bh_50-prng-1,30_base_hphc_50,50,first-50,11,rng,num-start-181,181,17520,1.759223222732544,True,,True,1,False,1000,True,1.0
./expes/v2_2020-11-09_3bh_50-prng-1,30_base_hphc_50,50,first-50,31,rng,num-start-271,271,17520,2.538431406021118,True,,True,1,False,1000,True,1.0
./expes/v2_2020-11-09_3bh_50-prng-1,30_base_hphc_50,50,first-50,21,rng,num-start-201,201,17520,2.1320419311523438,True,,True,1,False,1000,True,1.0
./expes/v2_2020-11-09_3bh_50-prng-1,30_base_hphc_50,50,first-50,11,rng,num-start-41,41,17520,0.4717247486114502,True,,True,1,False,1000,True,1.0
./expes/v2_2020-11-09_3bh_50-prng-1,30_base_hphc_50,50,first-50,21,rng,num-start-701,701,17520,6.793526887893677,True,,True,1,False,1000,True,1.0
./expes/v2_2020-11-09_3bh_50-prng-1,30_base_hphc_50,50,first-50,11,rng,num-start-381,381,17520,3.5282299518585205,True,,True,1,False,1000,True,1.0
./expes/v2_2020-11-09_3bh_50-prng-1,30_base_hphc_50,50,first-50,21,rng,num-start-31,31,17520,0.4156622886657715,True,,True,1,False,1000,True,1.0
./expes/v2_2020-11-09_3bh_50-prng-1,30_base_hphc_50,50,first-50,11,rng,num-start-111,111,17520,1.1857507228851318,True,,True,1,False,1000,True,1.0
./expes/v2_2020-11-09_3bh_50-prng-1,30_base_hphc_50,50,first-50,1,rng,num-start-161,161,17520,1.469451665878296,True,,True,1,False,1000,True,1.0
./expes/v2_2020-11-09_3bh_50-prng-1,30_base_hphc_50,50,first-50,1,rng,num-start-461,461,17520,4.227244853973389,True,,True,1,False,1000,True,1.0
