{
  "clients": [
    {
      "name": "daily_issda-1000",
      "path": "./csv/daily_issda.csv",
      "subset": "first-1000",
      "subset_size": 1000,
      "param": null
    }
  ],
  "noise": {
    "method": "classic",
    "param": null
  },
  "agg_size": [
    25,
    50,
    75,
    100,
    125,
    150,
    175,
    200,
    225,
    250,
    275,
    300,
    325,
    350,
    375,
    400,
    425,
    450,
    475,
    500
  ],
  "methods": [
    {
      "name": "rng",
      "param": 0
    },
    {
      "name": "rng",
      "param": 1
    },
    {
      "name": "rng",
      "param": 2
    },
    {
      "name": "rng",
      "param": 3
    },
    {
      "name": "rng",
      "param": 4
    },
    {
      "name": "rng",
      "param": 5
    },
    {
      "name": "rng",
      "param": 6
    },
    {
      "name": "rng",
      "param": 7
    },
    {
      "name": "rng",
      "param": 8
    },
    {
      "name": "rng",
      "param": 9
    },
    {
      "name": "rng",
      "param": 10
    },
    {
      "name": "rng",
      "param": 11
    },
    {
      "name": "rng",
      "param": 12
    },
    {
      "name": "rng",
      "param": 13
    },
    {
      "name": "rng",
      "param": 14
    },
    {
      "name": "rng",
      "param": 15
    },
    {
      "name": "rng",
      "param": 16
    },
    {
      "name": "rng",
      "param": 17
    },
    {
      "name": "rng",
      "param": 18
    },
    {
      "name": "rng",
      "param": 19
    }
  ],
  "days": [
    {
      "name": "num-start-30",
      "param": 30
    },
    {
      "name": "num-start-130",
      "param": 130
    },
    {
      "name": "num-start-230",
      "param": 230
    }
  ],
  "threads": null,
  "wall_time": 1000,
  "pooled": true,
  "pool_size": 100
}