[
  {
    "clients_name": "london_clean-4500",
    "clients_path": "./csv/london_c2.csv",
    "clients_subset": "first-4500",
    "clients_param": null,
    "clients_size": 4500,
    "noise_name": "classic",
    "noise_method": "classic",
    "noise_param": null,
    "agg_size": 225,
    "method_name": "rng",
    "method_param": 0,
    "days_name": "num-start-450",
    "days_param": 450,
    "threads": null,
    "wall_time": 86400,
    "pooled": true,
    "pool_size": 100
  },
  {
    "clients_name": "london_clean-4500",
    "clients_path": "./csv/london_c2.csv",
    "clients_subset": "first-4500",
    "clients_param": null,
    "clients_size": 4500,
    "noise_name": "classic",
    "noise_method": "classic",
    "noise_param": null,
    "agg_size": 225,
    "method_name": "rng",
    "method_param": 0,
    "days_name": "num-start-900",
    "days_param": 900,
    "threads": null,
    "wall_time": 86400,
    "pooled": true,
    "pool_size": 100
  },
  {
    "clients_name": "london_clean-4500",
    "clients_path": "./csv/london_c2.csv",
    "clients_subset": "first-4500",
    "clients_param": null,
    "clients_size": 4500,
    "noise_name": "classic",
    "noise_method": "classic",
    "noise_param": null,
    "agg_size": 225,
    "method_name": "rng",
    "method_param": 0,
    "days_name": "num-start-1350",
    "days_param": 1350,
    "threads": null,
    "wall_time": 86400,
    "pooled": true,
    "pool_size": 100
  },
  {
    "clients_name": "london_clean-4500",
    "clients_path": "./csv/london_c2.csv",
    "clients_subset": "first-4500",
    "clients_param": null,
    "clients_size": 4500,
    "noise_name": "classic",
    "noise_method": "classic",
    "noise_param": null,
    "agg_size": 225,
    "method_name": "rng",
    "method_param": 0,
    "days_name": "num-start-1800",
    "days_param": 1800,
    "threads": null,
    "wall_time": 86400,
    "pooled": true,
    "pool_size": 100
  },
  {
    "clients_name": "london_clean-4500",
    "clients_path": "./csv/london_c2.csv",
    "clients_subset": "first-4500",
    "clients_param": null,
    "clients_size": 4500,
    "noise_name": "classic",
    "noise_method": "classic",
    "noise_param": null,
    "agg_size": 225,
    "method_name": "rng",
    "method_param": 0,
    "days_name": "num-start-2250",
    "days_param": 2250,
    "threads": null,
    "wall_time": 86400,
    "pooled": true,
    "pool_size": 100
  },
  {
    "clients_name": "london_clean-4500",
    "clients_path": "./csv/london_c2.csv",
    "clients_subset": "first-4500",
    "clients_param": null,
    "clients_size": 4500,
    "noise_name": "classic",
    "noise_method": "classic",
    "noise_param": null,
    "agg_size": 225,
    "method_name": "rng",
    "method_param": 0,
    "days_name": "num-start-2700",
    "days_param": 2700,
    "threads": null,
    "wall_time": 86400,
    "pooled": true,
    "pool_size": 100
  },
  {
    "clients_name": "london_clean-4500",
    "clients_path": "./csv/london_c2.csv",
    "clients_subset": "first-4500",
    "clients_param": null,
    "clients_size": 4500,
    "noise_name": "classic",
    "noise_method": "classic",
    "noise_param": null,
    "agg_size": 225,
    "method_name": "rng",
    "method_param": 0,
    "days_name": "num-start-3150",
    "days_param": 3150,
    "threads": null,
    "wall_time": 86400,
    "pooled": true,
    "pool_size": 100
  },
  {
    "clients_name": "london_clean-4500",
    "clients_path": "./csv/london_c2.csv",
    "clients_subset": "first-4500",
    "clients_param": null,
    "clients_size": 4500,
    "noise_name": "classic",
    "noise_method": "classic",
    "noise_param": null,
    "agg_size": 225,
    "method_name": "rng",
    "method_param": 0,
    "days_name": "num-start-3600",
    "days_param": 3600,
    "threads": null,
    "wall_time": 86400,
    "pooled": true,
    "pool_size": 100
  },
  {
    "clients_name": "london_clean-4500",
    "clients_path": "./csv/london_c2.csv",
    "clients_subset": "first-4500",
    "clients_param": null,
    "clients_size": 4500,
    "noise_name": "classic",
    "noise_method": "classic",
    "noise_param": null,
    "agg_size": 225,
    "method_name": "rng",
    "method_param": 0,
    "days_name": "num-start-4050",
    "days_param": 4050,
    "threads": null,
    "wall_time": 86400,
    "pooled": true,
    "pool_size": 100
  },
  {
    "clients_name": "london_clean-4500",
    "clients_path": "./csv/london_c2.csv",
    "clients_subset": "first-4500",
    "clients_param": null,
    "clients_size": 4500,
    "noise_name": "classic",
    "noise_method": "classic",
    "noise_param": null,
    "agg_size": 225,
    "method_name": "rng",
    "method_param": 0,
    "days_name": "num-start-4500",
    "days_param": 4500,
    "threads": null,
    "wall_time": 86400,
    "pooled": true,
    "pool_size": 100
  },
  {
    "clients_name": "london_clean-4500",
    "clients_path": "./csv/london_c2.csv",
    "clients_subset": "first-4500",
    "clients_param": null,
    "clients_size": 4500,
    "noise_name": "classic",
    "noise_method": "classic",
    "noise_param": null,
    "agg_size": 225,
    "method_name": "rng",
    "method_param": 1,
    "days_name": "num-start-450",
    "days_param": 450,
    "threads": null,
    "wall_time": 86400,
    "pooled": true,
    "pool_size": 100
  },
  {
    "clients_name": "london_clean-4500",
    "clients_path": "./csv/london_c2.csv",
    "clients_subset": "first-4500",
    "clients_param": null,
    "clients_size": 4500,
    "noise_name": "classic",
    "noise_method": "classic",
    "noise_param": null,
    "agg_size": 225,
    "method_name": "rng",
    "method_param": 1,
    "days_name": "num-start-900",
    "days_param": 900,
    "threads": null,
    "wall_time": 86400,
    "pooled": true,
    "pool_size": 100
  },
  {
    "clients_name": "london_clean-4500",
    "clients_path": "./csv/london_c2.csv",
    "clients_subset": "first-4500",
    "clients_param": null,
    "clients_size": 4500,
    "noise_name": "classic",
    "noise_method": "classic",
    "noise_param": null,
    "agg_size": 225,
    "method_name": "rng",
    "method_param": 1,
    "days_name": "num-start-1350",
    "days_param": 1350,
    "threads": null,
    "wall_time": 86400,
    "pooled": true,
    "pool_size": 100
  },
  {
    "clients_name": "london_clean-4500",
    "clients_path": "./csv/london_c2.csv",
    "clients_subset": "first-4500",
    "clients_param": null,
    "clients_size": 4500,
    "noise_name": "classic",
    "noise_method": "classic",
    "noise_param": null,
    "agg_size": 225,
    "method_name": "rng",
    "method_param": 1,
    "days_name": "num-start-1800",
    "days_param": 1800,
    "threads": null,
    "wall_time": 86400,
    "pooled": true,
    "pool_size": 100
  },
  {
    "clients_name": "london_clean-4500",
    "clients_path": "./csv/london_c2.csv",
    "clients_subset": "first-4500",
    "clients_param": null,
    "clients_size": 4500,
    "noise_name": "classic",
    "noise_method": "classic",
    "noise_param": null,
    "agg_size": 225,
    "method_name": "rng",
    "method_param": 1,
    "days_name": "num-start-2250",
    "days_param": 2250,
    "threads": null,
    "wall_time": 86400,
    "pooled": true,
    "pool_size": 100
  },
  {
    "clients_name": "london_clean-4500",
    "clients_path": "./csv/london_c2.csv",
    "clients_subset": "first-4500",
    "clients_param": null,
    "clients_size": 4500,
    "noise_name": "classic",
    "noise_method": "classic",
    "noise_param": null,
    "agg_size": 225,
    "method_name": "rng",
    "method_param": 1,
    "days_name": "num-start-2700",
    "days_param": 2700,
    "threads": null,
    "wall_time": 86400,
    "pooled": true,
    "pool_size": 100
  },
  {
    "clients_name": "london_clean-4500",
    "clients_path": "./csv/london_c2.csv",
    "clients_subset": "first-4500",
    "clients_param": null,
    "clients_size": 4500,
    "noise_name": "classic",
    "noise_method": "classic",
    "noise_param": null,
    "agg_size": 225,
    "method_name": "rng",
    "method_param": 1,
    "days_name": "num-start-3150",
    "days_param": 3150,
    "threads": null,
    "wall_time": 86400,
    "pooled": true,
    "pool_size": 100
  },
  {
    "clients_name": "london_clean-4500",
    "clients_path": "./csv/london_c2.csv",
    "clients_subset": "first-4500",
    "clients_param": null,
    "clients_size": 4500,
    "noise_name": "classic",
    "noise_method": "classic",
    "noise_param": null,
    "agg_size": 225,
    "method_name": "rng",
    "method_param": 1,
    "days_name": "num-start-3600",
    "days_param": 3600,
    "threads": null,
    "wall_time": 86400,
    "pooled": true,
    "pool_size": 100
  },
  {
    "clients_name": "london_clean-4500",
    "clients_path": "./csv/london_c2.csv",
    "clients_subset": "first-4500",
    "clients_param": null,
    "clients_size": 4500,
    "noise_name": "classic",
    "noise_method": "classic",
    "noise_param": null,
    "agg_size": 225,
    "method_name": "rng",
    "method_param": 1,
    "days_name": "num-start-4050",
    "days_param": 4050,
    "threads": null,
    "wall_time": 86400,
    "pooled": true,
    "pool_size": 100
  },
  {
    "clients_name": "london_clean-4500",
    "clients_path": "./csv/london_c2.csv",
    "clients_subset": "first-4500",
    "clients_param": null,
    "clients_size": 4500,
    "noise_name": "classic",
    "noise_method": "classic",
    "noise_param": null,
    "agg_size": 225,
    "method_name": "rng",
    "method_param": 1,
    "days_name": "num-start-4500",
    "days_param": 4500,
    "threads": null,
    "wall_time": 86400,
    "pooled": true,
    "pool_size": 100
  },
  {
    "clients_name": "london_clean-4500",
    "clients_path": "./csv/london_c2.csv",
    "clients_subset": "first-4500",
    "clients_param": null,
    "clients_size": 4500,
    "noise_name": "classic",
    "noise_method": "classic",
    "noise_param": null,
    "agg_size": 450,
    "method_name": "rng",
    "method_param": 0,
    "days_name": "num-start-450",
    "days_param": 450,
    "threads": null,
    "wall_time": 86400,
    "pooled": true,
    "pool_size": 100
  },
  {
    "clients_name": "london_clean-4500",
    "clients_path": "./csv/london_c2.csv",
    "clients_subset": "first-4500",
    "clients_param": null,
    "clients_size": 4500,
    "noise_name": "classic",
    "noise_method": "classic",
    "noise_param": null,
    "agg_size": 450,
    "method_name": "rng",
    "method_param": 0,
    "days_name": "num-start-900",
    "days_param": 900,
    "threads": null,
    "wall_time": 86400,
    "pooled": true,
    "pool_size": 100
  },
  {
    "clients_name": "london_clean-4500",
    "clients_path": "./csv/london_c2.csv",
    "clients_subset": "first-4500",
    "clients_param": null,
    "clients_size": 4500,
    "noise_name": "classic",
    "noise_method": "classic",
    "noise_param": null,
    "agg_size": 450,
    "method_name": "rng",
    "method_param": 0,
    "days_name": "num-start-1350",
    "days_param": 1350,
    "threads": null,
    "wall_time": 86400,
    "pooled": true,
    "pool_size": 100
  },
  {
    "clients_name": "london_clean-4500",
    "clients_path": "./csv/london_c2.csv",
    "clients_subset": "first-4500",
    "clients_param": null,
    "clients_size": 4500,
    "noise_name": "classic",
    "noise_method": "classic",
    "noise_param": null,
    "agg_size": 450,
    "method_name": "rng",
    "method_param": 0,
    "days_name": "num-start-1800",
    "days_param": 1800,
    "threads": null,
    "wall_time": 86400,
    "pooled": true,
    "pool_size": 100
  },
  {
    "clients_name": "london_clean-4500",
    "clients_path": "./csv/london_c2.csv",
    "clients_subset": "first-4500",
    "clients_param": null,
    "clients_size": 4500,
    "noise_name": "classic",
    "noise_method": "classic",
    "noise_param": null,
    "agg_size": 450,
    "method_name": "rng",
    "method_param": 0,
    "days_name": "num-start-2250",
    "days_param": 2250,
    "threads": null,
    "wall_time": 86400,
    "pooled": true,
    "pool_size": 100
  },
  {
    "clients_name": "london_clean-4500",
    "clients_path": "./csv/london_c2.csv",
    "clients_subset": "first-4500",
    "clients_param": null,
    "clients_size": 4500,
    "noise_name": "classic",
    "noise_method": "classic",
    "noise_param": null,
    "agg_size": 450,
    "method_name": "rng",
    "method_param": 0,
    "days_name": "num-start-2700",
    "days_param": 2700,
    "threads": null,
    "wall_time": 86400,
    "pooled": true,
    "pool_size": 100
  },
  {
    "clients_name": "london_clean-4500",
    "clients_path": "./csv/london_c2.csv",
    "clients_subset": "first-4500",
    "clients_param": null,
    "clients_size": 4500,
    "noise_name": "classic",
    "noise_method": "classic",
    "noise_param": null,
    "agg_size": 450,
    "method_name": "rng",
    "method_param": 0,
    "days_name": "num-start-3150",
    "days_param": 3150,
    "threads": null,
    "wall_time": 86400,
    "pooled": true,
    "pool_size": 100
  },
  {
    "clients_name": "london_clean-4500",
    "clients_path": "./csv/london_c2.csv",
    "clients_subset": "first-4500",
    "clients_param": null,
    "clients_size": 4500,
    "noise_name": "classic",
    "noise_method": "classic",
    "noise_param": null,
    "agg_size": 450,
    "method_name": "rng",
    "method_param": 0,
    "days_name": "num-start-3600",
    "days_param": 3600,
    "threads": null,
    "wall_time": 86400,
    "pooled": true,
    "pool_size": 100
  },
  {
    "clients_name": "london_clean-4500",
    "clients_path": "./csv/london_c2.csv",
    "clients_subset": "first-4500",
    "clients_param": null,
    "clients_size": 4500,
    "noise_name": "classic",
    "noise_method": "classic",
    "noise_param": null,
    "agg_size": 450,
    "method_name": "rng",
    "method_param": 0,
    "days_name": "num-start-4050",
    "days_param": 4050,
    "threads": null,
    "wall_time": 86400,
    "pooled": true,
    "pool_size": 100
  },
  {
    "clients_name": "london_clean-4500",
    "clients_path": "./csv/london_c2.csv",
    "clients_subset": "first-4500",
    "clients_param": null,
    "clients_size": 4500,
    "noise_name": "classic",
    "noise_method": "classic",
    "noise_param": null,
    "agg_size": 450,
    "method_name": "rng",
    "method_param": 0,
    "days_name": "num-start-4500",
    "days_param": 4500,
    "threads": null,
    "wall_time": 86400,
    "pooled": true,
    "pool_size": 100
  },
  {
    "clients_name": "london_clean-4500",
    "clients_path": "./csv/london_c2.csv",
    "clients_subset": "first-4500",
    "clients_param": null,
    "clients_size": 4500,
    "noise_name": "classic",
    "noise_method": "classic",
    "noise_param": null,
    "agg_size": 450,
    "method_name": "rng",
    "method_param": 1,
    "days_name": "num-start-450",
    "days_param": 450,
    "threads": null,
    "wall_time": 86400,
    "pooled": true,
    "pool_size": 100
  },
  {
    "clients_name": "london_clean-4500",
    "clients_path": "./csv/london_c2.csv",
    "clients_subset": "first-4500",
    "clients_param": null,
    "clients_size": 4500,
    "noise_name": "classic",
    "noise_method": "classic",
    "noise_param": null,
    "agg_size": 450,
    "method_name": "rng",
    "method_param": 1,
    "days_name": "num-start-900",
    "days_param": 900,
    "threads": null,
    "wall_time": 86400,
    "pooled": true,
    "pool_size": 100
  },
  {
    "clients_name": "london_clean-4500",
    "clients_path": "./csv/london_c2.csv",
    "clients_subset": "first-4500",
    "clients_param": null,
    "clients_size": 4500,
    "noise_name": "classic",
    "noise_method": "classic",
    "noise_param": null,
    "agg_size": 450,
    "method_name": "rng",
    "method_param": 1,
    "days_name": "num-start-1350",
    "days_param": 1350,
    "threads": null,
    "wall_time": 86400,
    "pooled": true,
    "pool_size": 100
  },
  {
    "clients_name": "london_clean-4500",
    "clients_path": "./csv/london_c2.csv",
    "clients_subset": "first-4500",
    "clients_param": null,
    "clients_size": 4500,
    "noise_name": "classic",
    "noise_method": "classic",
    "noise_param": null,
    "agg_size": 450,
    "method_name": "rng",
    "method_param": 1,
    "days_name": "num-start-1800",
    "days_param": 1800,
    "threads": null,
    "wall_time": 86400,
    "pooled": true,
    "pool_size": 100
  },
  {
    "clients_name": "london_clean-4500",
    "clients_path": "./csv/london_c2.csv",
    "clients_subset": "first-4500",
    "clients_param": null,
    "clients_size": 4500,
    "noise_name": "classic",
    "noise_method": "classic",
    "noise_param": null,
    "agg_size": 450,
    "method_name": "rng",
    "method_param": 1,
    "days_name": "num-start-2250",
    "days_param": 2250,
    "threads": null,
    "wall_time": 86400,
    "pooled": true,
    "pool_size": 100
  },
  {
    "clients_name": "london_clean-4500",
    "clients_path": "./csv/london_c2.csv",
    "clients_subset": "first-4500",
    "clients_param": null,
    "clients_size": 4500,
    "noise_name": "classic",
    "noise_method": "classic",
    "noise_param": null,
    "agg_size": 450,
    "method_name": "rng",
    "method_param": 1,
    "days_name": "num-start-2700",
    "days_param": 2700,
    "threads": null,
    "wall_time": 86400,
    "pooled": true,
    "pool_size": 100
  },
  {
    "clients_name": "london_clean-4500",
    "clients_path": "./csv/london_c2.csv",
    "clients_subset": "first-4500",
    "clients_param": null,
    "clients_size": 4500,
    "noise_name": "classic",
    "noise_method": "classic",
    "noise_param": null,
    "agg_size": 450,
    "method_name": "rng",
    "method_param": 1,
    "days_name": "num-start-3150",
    "days_param": 3150,
    "threads": null,
    "wall_time": 86400,
    "pooled": true,
    "pool_size": 100
  },
  {
    "clients_name": "london_clean-4500",
    "clients_path": "./csv/london_c2.csv",
    "clients_subset": "first-4500",
    "clients_param": null,
    "clients_size": 4500,
    "noise_name": "classic",
    "noise_method": "classic",
    "noise_param": null,
    "agg_size": 450,
    "method_name": "rng",
    "method_param": 1,
    "days_name": "num-start-3600",
    "days_param": 3600,
    "threads": null,
    "wall_time": 86400,
    "pooled": true,
    "pool_size": 100
  },
  {
    "clients_name": "london_clean-4500",
    "clients_path": "./csv/london_c2.csv",
    "clients_subset": "first-4500",
    "clients_param": null,
    "clients_size": 4500,
    "noise_name": "classic",
    "noise_method": "classic",
    "noise_param": null,
    "agg_size": 450,
    "method_name": "rng",
    "method_param": 1,
    "days_name": "num-start-4050",
    "days_param": 4050,
    "threads": null,
    "wall_time": 86400,
    "pooled": true,
    "pool_size": 100
  },
  {
    "clients_name": "london_clean-4500",
    "clients_path": "./csv/london_c2.csv",
    "clients_subset": "first-4500",
    "clients_param": null,
    "clients_size": 4500,
    "noise_name": "classic",
    "noise_method": "classic",
    "noise_param": null,
    "agg_size": 450,
    "method_name": "rng",
    "method_param": 1,
    "days_name": "num-start-4500",
    "days_param": 4500,
    "threads": null,
    "wall_time": 86400,
    "pooled": true,
    "pool_size": 100
  },
  {
    "clients_name": "london_clean-4500",
    "clients_path": "./csv/london_c2.csv",
    "clients_subset": "first-4500",
    "clients_param": null,
    "clients_size": 4500,
    "noise_name": "classic",
    "noise_method": "classic",
    "noise_param": null,
    "agg_size": 675,
    "method_name": "rng",
    "method_param": 0,
    "days_name": "num-start-450",
    "days_param": 450,
    "threads": null,
    "wall_time": 86400,
    "pooled": true,
    "pool_size": 100
  },
  {
    "clients_name": "london_clean-4500",
    "clients_path": "./csv/london_c2.csv",
    "clients_subset": "first-4500",
    "clients_param": null,
    "clients_size": 4500,
    "noise_name": "classic",
    "noise_method": "classic",
    "noise_param": null,
    "agg_size": 675,
    "method_name": "rng",
    "method_param": 0,
    "days_name": "num-start-900",
    "days_param": 900,
    "threads": null,
    "wall_time": 86400,
    "pooled": true,
    "pool_size": 100
  },
  {
    "clients_name": "london_clean-4500",
    "clients_path": "./csv/london_c2.csv",
    "clients_subset": "first-4500",
    "clients_param": null,
    "clients_size": 4500,
    "noise_name": "classic",
    "noise_method": "classic",
    "noise_param": null,
    "agg_size": 675,
    "method_name": "rng",
    "method_param": 0,
    "days_name": "num-start-1350",
    "days_param": 1350,
    "threads": null,
    "wall_time": 86400,
    "pooled": true,
    "pool_size": 100
  },
  {
    "clients_name": "london_clean-4500",
    "clients_path": "./csv/london_c2.csv",
    "clients_subset": "first-4500",
    "clients_param": null,
    "clients_size": 4500,
    "noise_name": "classic",
    "noise_method": "classic",
    "noise_param": null,
    "agg_size": 675,
    "method_name": "rng",
    "method_param": 0,
    "days_name": "num-start-1800",
    "days_param": 1800,
    "threads": null,
    "wall_time": 86400,
    "pooled": true,
    "pool_size": 100
  },
  {
    "clients_name": "london_clean-4500",
    "clients_path": "./csv/london_c2.csv",
    "clients_subset": "first-4500",
    "clients_param": null,
    "clients_size": 4500,
    "noise_name": "classic",
    "noise_method": "classic",
    "noise_param": null,
    "agg_size": 675,
    "method_name": "rng",
    "method_param": 0,
    "days_name": "num-start-2250",
    "days_param": 2250,
    "threads": null,
    "wall_time": 86400,
    "pooled": true,
    "pool_size": 100
  },
  {
    "clients_name": "london_clean-4500",
    "clients_path": "./csv/london_c2.csv",
    "clients_subset": "first-4500",
    "clients_param": null,
    "clients_size": 4500,
    "noise_name": "classic",
    "noise_method": "classic",
    "noise_param": null,
    "agg_size": 675,
    "method_name": "rng",
    "method_param": 0,
    "days_name": "num-start-2700",
    "days_param": 2700,
    "threads": null,
    "wall_time": 86400,
    "pooled": true,
    "pool_size": 100
  },
  {
    "clients_name": "london_clean-4500",
    "clients_path": "./csv/london_c2.csv",
    "clients_subset": "first-4500",
    "clients_param": null,
    "clients_size": 4500,
    "noise_name": "classic",
    "noise_method": "classic",
    "noise_param": null,
    "agg_size": 675,
    "method_name": "rng",
    "method_param": 0,
    "days_name": "num-start-3150",
    "days_param": 3150,
    "threads": null,
    "wall_time": 86400,
    "pooled": true,
    "pool_size": 100
  },
  {
    "clients_name": "london_clean-4500",
    "clients_path": "./csv/london_c2.csv",
    "clients_subset": "first-4500",
    "clients_param": null,
    "clients_size": 4500,
    "noise_name": "classic",
    "noise_method": "classic",
    "noise_param": null,
    "agg_size": 675,
    "method_name": "rng",
    "method_param": 0,
    "days_name": "num-start-3600",
    "days_param": 3600,
    "threads": null,
    "wall_time": 86400,
    "pooled": true,
    "pool_size": 100
  },
  {
    "clients_name": "london_clean-4500",
    "clients_path": "./csv/london_c2.csv",
    "clients_subset": "first-4500",
    "clients_param": null,
    "clients_size": 4500,
    "noise_name": "classic",
    "noise_method": "classic",
    "noise_param": null,
    "agg_size": 675,
    "method_name": "rng",
    "method_param": 0,
    "days_name": "num-start-4050",
    "days_param": 4050,
    "threads": null,
    "wall_time": 86400,
    "pooled": true,
    "pool_size": 100
  },
  {
    "clients_name": "london_clean-4500",
    "clients_path": "./csv/london_c2.csv",
    "clients_subset": "first-4500",
    "clients_param": null,
    "clients_size": 4500,
    "noise_name": "classic",
    "noise_method": "classic",
    "noise_param": null,
    "agg_size": 675,
    "method_name": "rng",
    "method_param": 0,
    "days_name": "num-start-4500",
    "days_param": 4500,
    "threads": null,
    "wall_time": 86400,
    "pooled": true,
    "pool_size": 100
  },
  {
    "clients_name": "london_clean-4500",
    "clients_path": "./csv/london_c2.csv",
    "clients_subset": "first-4500",
    "clients_param": null,
    "clients_size": 4500,
    "noise_name": "classic",
    "noise_method": "classic",
    "noise_param": null,
    "agg_size": 675,
    "method_name": "rng",
    "method_param": 1,
    "days_name": "num-start-450",
    "days_param": 450,
    "threads": null,
    "wall_time": 86400,
    "pooled": true,
    "pool_size": 100
  },
  {
    "clients_name": "london_clean-4500",
    "clients_path": "./csv/london_c2.csv",
    "clients_subset": "first-4500",
    "clients_param": null,
    "clients_size": 4500,
    "noise_name": "classic",
    "noise_method": "classic",
    "noise_param": null,
    "agg_size": 675,
    "method_name": "rng",
    "method_param": 1,
    "days_name": "num-start-900",
    "days_param": 900,
    "threads": null,
    "wall_time": 86400,
    "pooled": true,
    "pool_size": 100
  },
  {
    "clients_name": "london_clean-4500",
    "clients_path": "./csv/london_c2.csv",
    "clients_subset": "first-4500",
    "clients_param": null,
    "clients_size": 4500,
    "noise_name": "classic",
    "noise_method": "classic",
    "noise_param": null,
    "agg_size": 675,
    "method_name": "rng",
    "method_param": 1,
    "days_name": "num-start-1350",
    "days_param": 1350,
    "threads": null,
    "wall_time": 86400,
    "pooled": true,
    "pool_size": 100
  },
  {
    "clients_name": "london_clean-4500",
    "clients_path": "./csv/london_c2.csv",
    "clients_subset": "first-4500",
    "clients_param": null,
    "clients_size": 4500,
    "noise_name": "classic",
    "noise_method": "classic",
    "noise_param": null,
    "agg_size": 675,
    "method_name": "rng",
    "method_param": 1,
    "days_name": "num-start-1800",
    "days_param": 1800,
    "threads": null,
    "wall_time": 86400,
    "pooled": true,
    "pool_size": 100
  },
  {
    "clients_name": "london_clean-4500",
    "clients_path": "./csv/london_c2.csv",
    "clients_subset": "first-4500",
    "clients_param": null,
    "clients_size": 4500,
    "noise_name": "classic",
    "noise_method": "classic",
    "noise_param": null,
    "agg_size": 675,
    "method_name": "rng",
    "method_param": 1,
    "days_name": "num-start-2250",
    "days_param": 2250,
    "threads": null,
    "wall_time": 86400,
    "pooled": true,
    "pool_size": 100
  },
  {
    "clients_name": "london_clean-4500",
    "clients_path": "./csv/london_c2.csv",
    "clients_subset": "first-4500",
    "clients_param": null,
    "clients_size": 4500,
    "noise_name": "classic",
    "noise_method": "classic",
    "noise_param": null,
    "agg_size": 675,
    "method_name": "rng",
    "method_param": 1,
    "days_name": "num-start-2700",
    "days_param": 2700,
    "threads": null,
    "wall_time": 86400,
    "pooled": true,
    "pool_size": 100
  },
  {
    "clients_name": "london_clean-4500",
    "clients_path": "./csv/london_c2.csv",
    "clients_subset": "first-4500",
    "clients_param": null,
    "clients_size": 4500,
    "noise_name": "classic",
    "noise_method": "classic",
    "noise_param": null,
    "agg_size": 675,
    "method_name": "rng",
    "method_param": 1,
    "days_name": "num-start-3150",
    "days_param": 3150,
    "threads": null,
    "wall_time": 86400,
    "pooled": true,
    "pool_size": 100
  },
  {
    "clients_name": "london_clean-4500",
    "clients_path": "./csv/london_c2.csv",
    "clients_subset": "first-4500",
    "clients_param": null,
    "clients_size": 4500,
    "noise_name": "classic",
    "noise_method": "classic",
    "noise_param": null,
    "agg_size": 675,
    "method_name": "rng",
    "method_param": 1,
    "days_name": "num-start-3600",
    "days_param": 3600,
    "threads": null,
    "wall_time": 86400,
    "pooled": true,
    "pool_size": 100
  },
  {
    "clients_name": "london_clean-4500",
    "clients_path": "./csv/london_c2.csv",
    "clients_subset": "first-4500",
    "clients_param": null,
    "clients_size": 4500,
    "noise_name": "classic",
    "noise_method": "classic",
    "noise_param": null,
    "agg_size": 675,
    "method_name": "rng",
    "method_param": 1,
    "days_name": "num-start-4050",
    "days_param": 4050,
    "threads": null,
    "wall_time": 86400,
    "pooled": true,
    "pool_size": 100
  },
  {
    "clients_name": "london_clean-4500",
    "clients_path": "./csv/london_c2.csv",
    "clients_subset": "first-4500",
    "clients_param": null,
    "clients_size": 4500,
    "noise_name": "classic",
    "noise_method": "classic",
    "noise_param": null,
    "agg_size": 675,
    "method_name": "rng",
    "method_param": 1,
    "days_name": "num-start-4500",
    "days_param": 4500,
    "threads": null,
    "wall_time": 86400,
    "pooled": true,
    "pool_size": 100
  },
  {
    "clients_name": "london_clean-4500",
    "clients_path": "./csv/london_c2.csv",
    "clients_subset": "first-4500",
    "clients_param": null,
    "clients_size": 4500,
    "noise_name": "classic",
    "noise_method": "classic",
    "noise_param": null,
    "agg_size": 900,
    "method_name": "rng",
    "method_param": 0,
    "days_name": "num-start-450",
    "days_param": 450,
    "threads": null,
    "wall_time": 86400,
    "pooled": true,
    "pool_size": 100
  },
  {
    "clients_name": "london_clean-4500",
    "clients_path": "./csv/london_c2.csv",
    "clients_subset": "first-4500",
    "clients_param": null,
    "clients_size": 4500,
    "noise_name": "classic",
    "noise_method": "classic",
    "noise_param": null,
    "agg_size": 900,
    "method_name": "rng",
    "method_param": 0,
    "days_name": "num-start-900",
    "days_param": 900,
    "threads": null,
    "wall_time": 86400,
    "pooled": true,
    "pool_size": 100
  },
  {
    "clients_name": "london_clean-4500",
    "clients_path": "./csv/london_c2.csv",
    "clients_subset": "first-4500",
    "clients_param": null,
    "clients_size": 4500,
    "noise_name": "classic",
    "noise_method": "classic",
    "noise_param": null,
    "agg_size": 900,
    "method_name": "rng",
    "method_param": 0,
    "days_name": "num-start-1350",
    "days_param": 1350,
    "threads": null,
    "wall_time": 86400,
    "pooled": true,
    "pool_size": 100
  },
  {
    "clients_name": "london_clean-4500",
    "clients_path": "./csv/london_c2.csv",
    "clients_subset": "first-4500",
    "clients_param": null,
    "clients_size": 4500,
    "noise_name": "classic",
    "noise_method": "classic",
    "noise_param": null,
    "agg_size": 900,
    "method_name": "rng",
    "method_param": 0,
    "days_name": "num-start-1800",
    "days_param": 1800,
    "threads": null,
    "wall_time": 86400,
    "pooled": true,
    "pool_size": 100
  },
  {
    "clients_name": "london_clean-4500",
    "clients_path": "./csv/london_c2.csv",
    "clients_subset": "first-4500",
    "clients_param": null,
    "clients_size": 4500,
    "noise_name": "classic",
    "noise_method": "classic",
    "noise_param": null,
    "agg_size": 900,
    "method_name": "rng",
    "method_param": 0,
    "days_name": "num-start-2250",
    "days_param": 2250,
    "threads": null,
    "wall_time": 86400,
    "pooled": true,
    "pool_size": 100
  },
  {
    "clients_name": "london_clean-4500",
    "clients_path": "./csv/london_c2.csv",
    "clients_subset": "first-4500",
    "clients_param": null,
    "clients_size": 4500,
    "noise_name": "classic",
    "noise_method": "classic",
    "noise_param": null,
    "agg_size": 900,
    "method_name": "rng",
    "method_param": 0,
    "days_name": "num-start-2700",
    "days_param": 2700,
    "threads": null,
    "wall_time": 86400,
    "pooled": true,
    "pool_size": 100
  },
  {
    "clients_name": "london_clean-4500",
    "clients_path": "./csv/london_c2.csv",
    "clients_subset": "first-4500",
    "clients_param": null,
    "clients_size": 4500,
    "noise_name": "classic",
    "noise_method": "classic",
    "noise_param": null,
    "agg_size": 900,
    "method_name": "rng",
    "method_param": 0,
    "days_name": "num-start-3150",
    "days_param": 3150,
    "threads": null,
    "wall_time": 86400,
    "pooled": true,
    "pool_size": 100
  },
  {
    "clients_name": "london_clean-4500",
    "clients_path": "./csv/london_c2.csv",
    "clients_subset": "first-4500",
    "clients_param": null,
    "clients_size": 4500,
    "noise_name": "classic",
    "noise_method": "classic",
    "noise_param": null,
    "agg_size": 900,
    "method_name": "rng",
    "method_param": 0,
    "days_name": "num-start-3600",
    "days_param": 3600,
    "threads": null,
    "wall_time": 86400,
    "pooled": true,
    "pool_size": 100
  },
  {
    "clients_name": "london_clean-4500",
    "clients_path": "./csv/london_c2.csv",
    "clients_subset": "first-4500",
    "clients_param": null,
    "clients_size": 4500,
    "noise_name": "classic",
    "noise_method": "classic",
    "noise_param": null,
    "agg_size": 900,
    "method_name": "rng",
    "method_param": 0,
    "days_name": "num-start-4050",
    "days_param": 4050,
    "threads": null,
    "wall_time": 86400,
    "pooled": true,
    "pool_size": 100
  },
  {
    "clients_name": "london_clean-4500",
    "clients_path": "./csv/london_c2.csv",
    "clients_subset": "first-4500",
    "clients_param": null,
    "clients_size": 4500,
    "noise_name": "classic",
    "noise_method": "classic",
    "noise_param": null,
    "agg_size": 900,
    "method_name": "rng",
    "method_param": 0,
    "days_name": "num-start-4500",
    "days_param": 4500,
    "threads": null,
    "wall_time": 86400,
    "pooled": true,
    "pool_size": 100
  },
  {
    "clients_name": "london_clean-4500",
    "clients_path": "./csv/london_c2.csv",
    "clients_subset": "first-4500",
    "clients_param": null,
    "clients_size": 4500,
    "noise_name": "classic",
    "noise_method": "classic",
    "noise_param": null,
    "agg_size": 900,
    "method_name": "rng",
    "method_param": 1,
    "days_name": "num-start-450",
    "days_param": 450,
    "threads": null,
    "wall_time": 86400,
    "pooled": true,
    "pool_size": 100
  },
  {
    "clients_name": "london_clean-4500",
    "clients_path": "./csv/london_c2.csv",
    "clients_subset": "first-4500",
    "clients_param": null,
    "clients_size": 4500,
    "noise_name": "classic",
    "noise_method": "classic",
    "noise_param": null,
    "agg_size": 900,
    "method_name": "rng",
    "method_param": 1,
    "days_name": "num-start-900",
    "days_param": 900,
    "threads": null,
    "wall_time": 86400,
    "pooled": true,
    "pool_size": 100
  },
  {
    "clients_name": "london_clean-4500",
    "clients_path": "./csv/london_c2.csv",
    "clients_subset": "first-4500",
    "clients_param": null,
    "clients_size": 4500,
    "noise_name": "classic",
    "noise_method": "classic",
    "noise_param": null,
    "agg_size": 900,
    "method_name": "rng",
    "method_param": 1,
    "days_name": "num-start-1350",
    "days_param": 1350,
    "threads": null,
    "wall_time": 86400,
    "pooled": true,
    "pool_size": 100
  },
  {
    "clients_name": "london_clean-4500",
    "clients_path": "./csv/london_c2.csv",
    "clients_subset": "first-4500",
    "clients_param": null,
    "clients_size": 4500,
    "noise_name": "classic",
    "noise_method": "classic",
    "noise_param": null,
    "agg_size": 900,
    "method_name": "rng",
    "method_param": 1,
    "days_name": "num-start-1800",
    "days_param": 1800,
    "threads": null,
    "wall_time": 86400,
    "pooled": true,
    "pool_size": 100
  },
  {
    "clients_name": "london_clean-4500",
    "clients_path": "./csv/london_c2.csv",
    "clients_subset": "first-4500",
    "clients_param": null,
    "clients_size": 4500,
    "noise_name": "classic",
    "noise_method": "classic",
    "noise_param": null,
    "agg_size": 900,
    "method_name": "rng",
    "method_param": 1,
    "days_name": "num-start-2250",
    "days_param": 2250,
    "threads": null,
    "wall_time": 86400,
    "pooled": true,
    "pool_size": 100
  },
  {
    "clients_name": "london_clean-4500",
    "clients_path": "./csv/london_c2.csv",
    "clients_subset": "first-4500",
    "clients_param": null,
    "clients_size": 4500,
    "noise_name": "classic",
    "noise_method": "classic",
    "noise_param": null,
    "agg_size": 900,
    "method_name": "rng",
    "method_param": 1,
    "days_name": "num-start-2700",
    "days_param": 2700,
    "threads": null,
    "wall_time": 86400,
    "pooled": true,
    "pool_size": 100
  },
  {
    "clients_name": "london_clean-4500",
    "clients_path": "./csv/london_c2.csv",
    "clients_subset": "first-4500",
    "clients_param": null,
    "clients_size": 4500,
    "noise_name": "classic",
    "noise_method": "classic",
    "noise_param": null,
    "agg_size": 900,
    "method_name": "rng",
    "method_param": 1,
    "days_name": "num-start-3150",
    "days_param": 3150,
    "threads": null,
    "wall_time": 86400,
    "pooled": true,
    "pool_size": 100
  },
  {
    "clients_name": "london_clean-4500",
    "clients_path": "./csv/london_c2.csv",
    "clients_subset": "first-4500",
    "clients_param": null,
    "clients_size": 4500,
    "noise_name": "classic",
    "noise_method": "classic",
    "noise_param": null,
    "agg_size": 900,
    "method_name": "rng",
    "method_param": 1,
    "days_name": "num-start-3600",
    "days_param": 3600,
    "threads": null,
    "wall_time": 86400,
    "pooled": true,
    "pool_size": 100
  },
  {
    "clients_name": "london_clean-4500",
    "clients_path": "./csv/london_c2.csv",
    "clients_subset": "first-4500",
    "clients_param": null,
    "clients_size": 4500,
    "noise_name": "classic",
    "noise_method": "classic",
    "noise_param": null,
    "agg_size": 900,
    "method_name": "rng",
    "method_param": 1,
    "days_name": "num-start-4050",
    "days_param": 4050,
    "threads": null,
    "wall_time": 86400,
    "pooled": true,
    "pool_size": 100
  },
  {
    "clients_name": "london_clean-4500",
    "clients_path": "./csv/london_c2.csv",
    "clients_subset": "first-4500",
    "clients_param": null,
    "clients_size": 4500,
    "noise_name": "classic",
    "noise_method": "classic",
    "noise_param": null,
    "agg_size": 900,
    "method_name": "rng",
    "method_param": 1,
    "days_name": "num-start-4500",
    "days_param": 4500,
    "threads": null,
    "wall_time": 86400,
    "pooled": true,
    "pool_size": 100
  },
  {
    "clients_name": "london_clean-4500",
    "clients_path": "./csv/london_c2.csv",
    "clients_subset": "first-4500",
    "clients_param": null,
    "clients_size": 4500,
    "noise_name": "classic",
    "noise_method": "classic",
    "noise_param": null,
    "agg_size": 1125,
    "method_name": "rng",
    "method_param": 0,
    "days_name": "num-start-450",
    "days_param": 450,
    "threads": null,
    "wall_time": 86400,
    "pooled": true,
    "pool_size": 100
  },
  {
    "clients_name": "london_clean-4500",
    "clients_path": "./csv/london_c2.csv",
    "clients_subset": "first-4500",
    "clients_param": null,
    "clients_size": 4500,
    "noise_name": "classic",
    "noise_method": "classic",
    "noise_param": null,
    "agg_size": 1125,
    "method_name": "rng",
    "method_param": 0,
    "days_name": "num-start-900",
    "days_param": 900,
    "threads": null,
    "wall_time": 86400,
    "pooled": true,
    "pool_size": 100
  },
  {
    "clients_name": "london_clean-4500",
    "clients_path": "./csv/london_c2.csv",
    "clients_subset": "first-4500",
    "clients_param": null,
    "clients_size": 4500,
    "noise_name": "classic",
    "noise_method": "classic",
    "noise_param": null,
    "agg_size": 1125,
    "method_name": "rng",
    "method_param": 0,
    "days_name": "num-start-1350",
    "days_param": 1350,
    "threads": null,
    "wall_time": 86400,
    "pooled": true,
    "pool_size": 100
  },
  {
    "clients_name": "london_clean-4500",
    "clients_path": "./csv/london_c2.csv",
    "clients_subset": "first-4500",
    "clients_param": null,
    "clients_size": 4500,
    "noise_name": "classic",
    "noise_method": "classic",
    "noise_param": null,
    "agg_size": 1125,
    "method_name": "rng",
    "method_param": 0,
    "days_name": "num-start-1800",
    "days_param": 1800,
    "threads": null,
    "wall_time": 86400,
    "pooled": true,
    "pool_size": 100
  },
  {
    "clients_name": "london_clean-4500",
    "clients_path": "./csv/london_c2.csv",
    "clients_subset": "first-4500",
    "clients_param": null,
    "clients_size": 4500,
    "noise_name": "classic",
    "noise_method": "classic",
    "noise_param": null,
    "agg_size": 1125,
    "method_name": "rng",
    "method_param": 0,
    "days_name": "num-start-2250",
    "days_param": 2250,
    "threads": null,
    "wall_time": 86400,
    "pooled": true,
    "pool_size": 100
  },
  {
    "clients_name": "london_clean-4500",
    "clients_path": "./csv/london_c2.csv",
    "clients_subset": "first-4500",
    "clients_param": null,
    "clients_size": 4500,
    "noise_name": "classic",
    "noise_method": "classic",
    "noise_param": null,
    "agg_size": 1125,
    "method_name": "rng",
    "method_param": 0,
    "days_name": "num-start-2700",
    "days_param": 2700,
    "threads": null,
    "wall_time": 86400,
    "pooled": true,
    "pool_size": 100
  },
  {
    "clients_name": "london_clean-4500",
    "clients_path": "./csv/london_c2.csv",
    "clients_subset": "first-4500",
    "clients_param": null,
    "clients_size": 4500,
    "noise_name": "classic",
    "noise_method": "classic",
    "noise_param": null,
    "agg_size": 1125,
    "method_name": "rng",
    "method_param": 0,
    "days_name": "num-start-3150",
    "days_param": 3150,
    "threads": null,
    "wall_time": 86400,
    "pooled": true,
    "pool_size": 100
  },
  {
    "clients_name": "london_clean-4500",
    "clients_path": "./csv/london_c2.csv",
    "clients_subset": "first-4500",
    "clients_param": null,
    "clients_size": 4500,
    "noise_name": "classic",
    "noise_method": "classic",
    "noise_param": null,
    "agg_size": 1125,
    "method_name": "rng",
    "method_param": 0,
    "days_name": "num-start-3600",
    "days_param": 3600,
    "threads": null,
    "wall_time": 86400,
    "pooled": true,
    "pool_size": 100
  },
  {
    "clients_name": "london_clean-4500",
    "clients_path": "./csv/london_c2.csv",
    "clients_subset": "first-4500",
    "clients_param": null,
    "clients_size": 4500,
    "noise_name": "classic",
    "noise_method": "classic",
    "noise_param": null,
    "agg_size": 1125,
    "method_name": "rng",
    "method_param": 0,
    "days_name": "num-start-4050",
    "days_param": 4050,
    "threads": null,
    "wall_time": 86400,
    "pooled": true,
    "pool_size": 100
  },
  {
    "clients_name": "london_clean-4500",
    "clients_path": "./csv/london_c2.csv",
    "clients_subset": "first-4500",
    "clients_param": null,
    "clients_size": 4500,
    "noise_name": "classic",
    "noise_method": "classic",
    "noise_param": null,
    "agg_size": 1125,
    "method_name": "rng",
    "method_param": 0,
    "days_name": "num-start-4500",
    "days_param": 4500,
    "threads": null,
    "wall_time": 86400,
    "pooled": true,
    "pool_size": 100
  },
  {
    "clients_name": "london_clean-4500",
    "clients_path": "./csv/london_c2.csv",
    "clients_subset": "first-4500",
    "clients_param": null,
    "clients_size": 4500,
    "noise_name": "classic",
    "noise_method": "classic",
    "noise_param": null,
    "agg_size": 1125,
    "method_name": "rng",
    "method_param": 1,
    "days_name": "num-start-450",
    "days_param": 450,
    "threads": null,
    "wall_time": 86400,
    "pooled": true,
    "pool_size": 100
  },
  {
    "clients_name": "london_clean-4500",
    "clients_path": "./csv/london_c2.csv",
    "clients_subset": "first-4500",
    "clients_param": null,
    "clients_size": 4500,
    "noise_name": "classic",
    "noise_method": "classic",
    "noise_param": null,
    "agg_size": 1125,
    "method_name": "rng",
    "method_param": 1,
    "days_name": "num-start-900",
    "days_param": 900,
    "threads": null,
    "wall_time": 86400,
    "pooled": true,
    "pool_size": 100
  },
  {
    "clients_name": "london_clean-4500",
    "clients_path": "./csv/london_c2.csv",
    "clients_subset": "first-4500",
    "clients_param": null,
    "clients_size": 4500,
    "noise_name": "classic",
    "noise_method": "classic",
    "noise_param": null,
    "agg_size": 1125,
    "method_name": "rng",
    "method_param": 1,
    "days_name": "num-start-1350",
    "days_param": 1350,
    "threads": null,
    "wall_time": 86400,
    "pooled": true,
    "pool_size": 100
  },
  {
    "clients_name": "london_clean-4500",
    "clients_path": "./csv/london_c2.csv",
    "clients_subset": "first-4500",
    "clients_param": null,
    "clients_size": 4500,
    "noise_name": "classic",
    "noise_method": "classic",
    "noise_param": null,
    "agg_size": 1125,
    "method_name": "rng",
    "method_param": 1,
    "days_name": "num-start-1800",
    "days_param": 1800,
    "threads": null,
    "wall_time": 86400,
    "pooled": true,
    "pool_size": 100
  },
  {
    "clients_name": "london_clean-4500",
    "clients_path": "./csv/london_c2.csv",
    "clients_subset": "first-4500",
    "clients_param": null,
    "clients_size": 4500,
    "noise_name": "classic",
    "noise_method": "classic",
    "noise_param": null,
    "agg_size": 1125,
    "method_name": "rng",
    "method_param": 1,
    "days_name": "num-start-2250",
    "days_param": 2250,
    "threads": null,
    "wall_time": 86400,
    "pooled": true,
    "pool_size": 100
  },
  {
    "clients_name": "london_clean-4500",
    "clients_path": "./csv/london_c2.csv",
    "clients_subset": "first-4500",
    "clients_param": null,
    "clients_size": 4500,
    "noise_name": "classic",
    "noise_method": "classic",
    "noise_param": null,
    "agg_size": 1125,
    "method_name": "rng",
    "method_param": 1,
    "days_name": "num-start-2700",
    "days_param": 2700,
    "threads": null,
    "wall_time": 86400,
    "pooled": true,
    "pool_size": 100
  },
  {
    "clients_name": "london_clean-4500",
    "clients_path": "./csv/london_c2.csv",
    "clients_subset": "first-4500",
    "clients_param": null,
    "clients_size": 4500,
    "noise_name": "classic",
    "noise_method": "classic",
    "noise_param": null,
    "agg_size": 1125,
    "method_name": "rng",
    "method_param": 1,
    "days_name": "num-start-3150",
    "days_param": 3150,
    "threads": null,
    "wall_time": 86400,
    "pooled": true,
    "pool_size": 100
  },
  {
    "clients_name": "london_clean-4500",
    "clients_path": "./csv/london_c2.csv",
    "clients_subset": "first-4500",
    "clients_param": null,
    "clients_size": 4500,
    "noise_name": "classic",
    "noise_method": "classic",
    "noise_param": null,
    "agg_size": 1125,
    "method_name": "rng",
    "method_param": 1,
    "days_name": "num-start-3600",
    "days_param": 3600,
    "threads": null,
    "wall_time": 86400,
    "pooled": true,
    "pool_size": 100
  },
  {
    "clients_name": "london_clean-4500",
    "clients_path": "./csv/london_c2.csv",
    "clients_subset": "first-4500",
    "clients_param": null,
    "clients_size": 4500,
    "noise_name": "classic",
    "noise_method": "classic",
    "noise_param": null,
    "agg_size": 1125,
    "method_name": "rng",
    "method_param": 1,
    "days_name": "num-start-4050",
    "days_param": 4050,
    "threads": null,
    "wall_time": 86400,
    "pooled": true,
    "pool_size": 100
  },
  {
    "clients_name": "london_clean-4500",
    "clients_path": "./csv/london_c2.csv",
    "clients_subset": "first-4500",
    "clients_param": null,
    "clients_size": 4500,
    "noise_name": "classic",
    "noise_method": "classic",
    "noise_param": null,
    "agg_size": 1125,
    "method_name": "rng",
    "method_param": 1,
    "days_name": "num-start-4500",
    "days_param": 4500,
    "threads": null,
    "wall_time": 86400,
    "pooled": true,
    "pool_size": 100
  },
  {
    "clients_name": "london_clean-4500",
    "clients_path": "./csv/london_c2.csv",
    "clients_subset": "first-4500",
    "clients_param": null,
    "clients_size": 4500,
    "noise_name": "classic",
    "noise_method": "classic",
    "noise_param": null,
    "agg_size": 1350,
    "method_name": "rng",
    "method_param": 0,
    "days_name": "num-start-450",
    "days_param": 450,
    "threads": null,
    "wall_time": 86400,
    "pooled": true,
    "pool_size": 100
  },
  {
    "clients_name": "london_clean-4500",
    "clients_path": "./csv/london_c2.csv",
    "clients_subset": "first-4500",
    "clients_param": null,
    "clients_size": 4500,
    "noise_name": "classic",
    "noise_method": "classic",
    "noise_param": null,
    "agg_size": 1350,
    "method_name": "rng",
    "method_param": 0,
    "days_name": "num-start-900",
    "days_param": 900,
    "threads": null,
    "wall_time": 86400,
    "pooled": true,
    "pool_size": 100
  },
  {
    "clients_name": "london_clean-4500",
    "clients_path": "./csv/london_c2.csv",
    "clients_subset": "first-4500",
    "clients_param": null,
    "clients_size": 4500,
    "noise_name": "classic",
    "noise_method": "classic",
    "noise_param": null,
    "agg_size": 1350,
    "method_name": "rng",
    "method_param": 0,
    "days_name": "num-start-1350",
    "days_param": 1350,
    "threads": null,
    "wall_time": 86400,
    "pooled": true,
    "pool_size": 100
  },
  {
    "clients_name": "london_clean-4500",
    "clients_path": "./csv/london_c2.csv",
    "clients_subset": "first-4500",
    "clients_param": null,
    "clients_size": 4500,
    "noise_name": "classic",
    "noise_method": "classic",
    "noise_param": null,
    "agg_size": 1350,
    "method_name": "rng",
    "method_param": 0,
    "days_name": "num-start-1800",
    "days_param": 1800,
    "threads": null,
    "wall_time": 86400,
    "pooled": true,
    "pool_size": 100
  },
  {
    "clients_name": "london_clean-4500",
    "clients_path": "./csv/london_c2.csv",
    "clients_subset": "first-4500",
    "clients_param": null,
    "clients_size": 4500,
    "noise_name": "classic",
    "noise_method": "classic",
    "noise_param": null,
    "agg_size": 1350,
    "method_name": "rng",
    "method_param": 0,
    "days_name": "num-start-2250",
    "days_param": 2250,
    "threads": null,
    "wall_time": 86400,
    "pooled": true,
    "pool_size": 100
  },
  {
    "clients_name": "london_clean-4500",
    "clients_path": "./csv/london_c2.csv",
    "clients_subset": "first-4500",
    "clients_param": null,
    "clients_size": 4500,
    "noise_name": "classic",
    "noise_method": "classic",
    "noise_param": null,
    "agg_size": 1350,
    "method_name": "rng",
    "method_param": 0,
    "days_name": "num-start-2700",
    "days_param": 2700,
    "threads": null,
    "wall_time": 86400,
    "pooled": true,
    "pool_size": 100
  },
  {
    "clients_name": "london_clean-4500",
    "clients_path": "./csv/london_c2.csv",
    "clients_subset": "first-4500",
    "clients_param": null,
    "clients_size": 4500,
    "noise_name": "classic",
    "noise_method": "classic",
    "noise_param": null,
    "agg_size": 1350,
    "method_name": "rng",
    "method_param": 0,
    "days_name": "num-start-3150",
    "days_param": 3150,
    "threads": null,
    "wall_time": 86400,
    "pooled": true,
    "pool_size": 100
  },
  {
    "clients_name": "london_clean-4500",
    "clients_path": "./csv/london_c2.csv",
    "clients_subset": "first-4500",
    "clients_param": null,
    "clients_size": 4500,
    "noise_name": "classic",
    "noise_method": "classic",
    "noise_param": null,
    "agg_size": 1350,
    "method_name": "rng",
    "method_param": 0,
    "days_name": "num-start-3600",
    "days_param": 3600,
    "threads": null,
    "wall_time": 86400,
    "pooled": true,
    "pool_size": 100
  },
  {
    "clients_name": "london_clean-4500",
    "clients_path": "./csv/london_c2.csv",
    "clients_subset": "first-4500",
    "clients_param": null,
    "clients_size": 4500,
    "noise_name": "classic",
    "noise_method": "classic",
    "noise_param": null,
    "agg_size": 1350,
    "method_name": "rng",
    "method_param": 0,
    "days_name": "num-start-4050",
    "days_param": 4050,
    "threads": null,
    "wall_time": 86400,
    "pooled": true,
    "pool_size": 100
  },
  {
    "clients_name": "london_clean-4500",
    "clients_path": "./csv/london_c2.csv",
    "clients_subset": "first-4500",
    "clients_param": null,
    "clients_size": 4500,
    "noise_name": "classic",
    "noise_method": "classic",
    "noise_param": null,
    "agg_size": 1350,
    "method_name": "rng",
    "method_param": 0,
    "days_name": "num-start-4500",
    "days_param": 4500,
    "threads": null,
    "wall_time": 86400,
    "pooled": true,
    "pool_size": 100
  },
  {
    "clients_name": "london_clean-4500",
    "clients_path": "./csv/london_c2.csv",
    "clients_subset": "first-4500",
    "clients_param": null,
    "clients_size": 4500,
    "noise_name": "classic",
    "noise_method": "classic",
    "noise_param": null,
    "agg_size": 1350,
    "method_name": "rng",
    "method_param": 1,
    "days_name": "num-start-450",
    "days_param": 450,
    "threads": null,
    "wall_time": 86400,
    "pooled": true,
    "pool_size": 100
  },
  {
    "clients_name": "london_clean-4500",
    "clients_path": "./csv/london_c2.csv",
    "clients_subset": "first-4500",
    "clients_param": null,
    "clients_size": 4500,
    "noise_name": "classic",
    "noise_method": "classic",
    "noise_param": null,
    "agg_size": 1350,
    "method_name": "rng",
    "method_param": 1,
    "days_name": "num-start-900",
    "days_param": 900,
    "threads": null,
    "wall_time": 86400,
    "pooled": true,
    "pool_size": 100
  },
  {
    "clients_name": "london_clean-4500",
    "clients_path": "./csv/london_c2.csv",
    "clients_subset": "first-4500",
    "clients_param": null,
    "clients_size": 4500,
    "noise_name": "classic",
    "noise_method": "classic",
    "noise_param": null,
    "agg_size": 1350,
    "method_name": "rng",
    "method_param": 1,
    "days_name": "num-start-1350",
    "days_param": 1350,
    "threads": null,
    "wall_time": 86400,
    "pooled": true,
    "pool_size": 100
  },
  {
    "clients_name": "london_clean-4500",
    "clients_path": "./csv/london_c2.csv",
    "clients_subset": "first-4500",
    "clients_param": null,
    "clients_size": 4500,
    "noise_name": "classic",
    "noise_method": "classic",
    "noise_param": null,
    "agg_size": 1350,
    "method_name": "rng",
    "method_param": 1,
    "days_name": "num-start-1800",
    "days_param": 1800,
    "threads": null,
    "wall_time": 86400,
    "pooled": true,
    "pool_size": 100
  },
  {
    "clients_name": "london_clean-4500",
    "clients_path": "./csv/london_c2.csv",
    "clients_subset": "first-4500",
    "clients_param": null,
    "clients_size": 4500,
    "noise_name": "classic",
    "noise_method": "classic",
    "noise_param": null,
    "agg_size": 1350,
    "method_name": "rng",
    "method_param": 1,
    "days_name": "num-start-2250",
    "days_param": 2250,
    "threads": null,
    "wall_time": 86400,
    "pooled": true,
    "pool_size": 100
  },
  {
    "clients_name": "london_clean-4500",
    "clients_path": "./csv/london_c2.csv",
    "clients_subset": "first-4500",
    "clients_param": null,
    "clients_size": 4500,
    "noise_name": "classic",
    "noise_method": "classic",
    "noise_param": null,
    "agg_size": 1350,
    "method_name": "rng",
    "method_param": 1,
    "days_name": "num-start-2700",
    "days_param": 2700,
    "threads": null,
    "wall_time": 86400,
    "pooled": true,
    "pool_size": 100
  },
  {
    "clients_name": "london_clean-4500",
    "clients_path": "./csv/london_c2.csv",
    "clients_subset": "first-4500",
    "clients_param": null,
    "clients_size": 4500,
    "noise_name": "classic",
    "noise_method": "classic",
    "noise_param": null,
    "agg_size": 1350,
    "method_name": "rng",
    "method_param": 1,
    "days_name": "num-start-3150",
    "days_param": 3150,
    "threads": null,
    "wall_time": 86400,
    "pooled": true,
    "pool_size": 100
  },
  {
    "clients_name": "london_clean-4500",
    "clients_path": "./csv/london_c2.csv",
    "clients_subset": "first-4500",
    "clients_param": null,
    "clients_size": 4500,
    "noise_name": "classic",
    "noise_method": "classic",
    "noise_param": null,
    "agg_size": 1350,
    "method_name": "rng",
    "method_param": 1,
    "days_name": "num-start-3600",
    "days_param": 3600,
    "threads": null,
    "wall_time": 86400,
    "pooled": true,
    "pool_size": 100
  },
  {
    "clients_name": "london_clean-4500",
    "clients_path": "./csv/london_c2.csv",
    "clients_subset": "first-4500",
    "clients_param": null,
    "clients_size": 4500,
    "noise_name": "classic",
    "noise_method": "classic",
    "noise_param": null,
    "agg_size": 1350,
    "method_name": "rng",
    "method_param": 1,
    "days_name": "num-start-4050",
    "days_param": 4050,
    "threads": null,
    "wall_time": 86400,
    "pooled": true,
    "pool_size": 100
  },
  {
    "clients_name": "london_clean-4500",
    "clients_path": "./csv/london_c2.csv",
    "clients_subset": "first-4500",
    "clients_param": null,
    "clients_size": 4500,
    "noise_name": "classic",
    "noise_method": "classic",
    "noise_param": null,
    "agg_size": 1350,
    "method_name": "rng",
    "method_param": 1,
    "days_name": "num-start-4500",
    "days_param": 4500,
    "threads": null,
    "wall_time": 86400,
    "pooled": true,
    "pool_size": 100
  },
  {
    "clients_name": "london_clean-4500",
    "clients_path": "./csv/london_c2.csv",
    "clients_subset": "first-4500",
    "clients_param": null,
    "clients_size": 4500,
    "noise_name": "classic",
    "noise_method": "classic",
    "noise_param": null,
    "agg_size": 1575,
    "method_name": "rng",
    "method_param": 0,
    "days_name": "num-start-450",
    "days_param": 450,
    "threads": null,
    "wall_time": 86400,
    "pooled": true,
    "pool_size": 100
  },
  {
    "clients_name": "london_clean-4500",
    "clients_path": "./csv/london_c2.csv",
    "clients_subset": "first-4500",
    "clients_param": null,
    "clients_size": 4500,
    "noise_name": "classic",
    "noise_method": "classic",
    "noise_param": null,
    "agg_size": 1575,
    "method_name": "rng",
    "method_param": 0,
    "days_name": "num-start-900",
    "days_param": 900,
    "threads": null,
    "wall_time": 86400,
    "pooled": true,
    "pool_size": 100
  },
  {
    "clients_name": "london_clean-4500",
    "clients_path": "./csv/london_c2.csv",
    "clients_subset": "first-4500",
    "clients_param": null,
    "clients_size": 4500,
    "noise_name": "classic",
    "noise_method": "classic",
    "noise_param": null,
    "agg_size": 1575,
    "method_name": "rng",
    "method_param": 0,
    "days_name": "num-start-1350",
    "days_param": 1350,
    "threads": null,
    "wall_time": 86400,
    "pooled": true,
    "pool_size": 100
  },
  {
    "clients_name": "london_clean-4500",
    "clients_path": "./csv/london_c2.csv",
    "clients_subset": "first-4500",
    "clients_param": null,
    "clients_size": 4500,
    "noise_name": "classic",
    "noise_method": "classic",
    "noise_param": null,
    "agg_size": 1575,
    "method_name": "rng",
    "method_param": 0,
    "days_name": "num-start-1800",
    "days_param": 1800,
    "threads": null,
    "wall_time": 86400,
    "pooled": true,
    "pool_size": 100
  },
  {
    "clients_name": "london_clean-4500",
    "clients_path": "./csv/london_c2.csv",
    "clients_subset": "first-4500",
    "clients_param": null,
    "clients_size": 4500,
    "noise_name": "classic",
    "noise_method": "classic",
    "noise_param": null,
    "agg_size": 1575,
    "method_name": "rng",
    "method_param": 0,
    "days_name": "num-start-2250",
    "days_param": 2250,
    "threads": null,
    "wall_time": 86400,
    "pooled": true,
    "pool_size": 100
  },
  {
    "clients_name": "london_clean-4500",
    "clients_path": "./csv/london_c2.csv",
    "clients_subset": "first-4500",
    "clients_param": null,
    "clients_size": 4500,
    "noise_name": "classic",
    "noise_method": "classic",
    "noise_param": null,
    "agg_size": 1575,
    "method_name": "rng",
    "method_param": 0,
    "days_name": "num-start-2700",
    "days_param": 2700,
    "threads": null,
    "wall_time": 86400,
    "pooled": true,
    "pool_size": 100
  },
  {
    "clients_name": "london_clean-4500",
    "clients_path": "./csv/london_c2.csv",
    "clients_subset": "first-4500",
    "clients_param": null,
    "clients_size": 4500,
    "noise_name": "classic",
    "noise_method": "classic",
    "noise_param": null,
    "agg_size": 1575,
    "method_name": "rng",
    "method_param": 0,
    "days_name": "num-start-3150",
    "days_param": 3150,
    "threads": null,
    "wall_time": 86400,
    "pooled": true,
    "pool_size": 100
  },
  {
    "clients_name": "london_clean-4500",
    "clients_path": "./csv/london_c2.csv",
    "clients_subset": "first-4500",
    "clients_param": null,
    "clients_size": 4500,
    "noise_name": "classic",
    "noise_method": "classic",
    "noise_param": null,
    "agg_size": 1575,
    "method_name": "rng",
    "method_param": 0,
    "days_name": "num-start-3600",
    "days_param": 3600,
    "threads": null,
    "wall_time": 86400,
    "pooled": true,
    "pool_size": 100
  },
  {
    "clients_name": "london_clean-4500",
    "clients_path": "./csv/london_c2.csv",
    "clients_subset": "first-4500",
    "clients_param": null,
    "clients_size": 4500,
    "noise_name": "classic",
    "noise_method": "classic",
    "noise_param": null,
    "agg_size": 1575,
    "method_name": "rng",
    "method_param": 0,
    "days_name": "num-start-4050",
    "days_param": 4050,
    "threads": null,
    "wall_time": 86400,
    "pooled": true,
    "pool_size": 100
  },
  {
    "clients_name": "london_clean-4500",
    "clients_path": "./csv/london_c2.csv",
    "clients_subset": "first-4500",
    "clients_param": null,
    "clients_size": 4500,
    "noise_name": "classic",
    "noise_method": "classic",
    "noise_param": null,
    "agg_size": 1575,
    "method_name": "rng",
    "method_param": 0,
    "days_name": "num-start-4500",
    "days_param": 4500,
    "threads": null,
    "wall_time": 86400,
    "pooled": true,
    "pool_size": 100
  },
  {
    "clients_name": "london_clean-4500",
    "clients_path": "./csv/london_c2.csv",
    "clients_subset": "first-4500",
    "clients_param": null,
    "clients_size": 4500,
    "noise_name": "classic",
    "noise_method": "classic",
    "noise_param": null,
    "agg_size": 1575,
    "method_name": "rng",
    "method_param": 1,
    "days_name": "num-start-450",
    "days_param": 450,
    "threads": null,
    "wall_time": 86400,
    "pooled": true,
    "pool_size": 100
  },
  {
    "clients_name": "london_clean-4500",
    "clients_path": "./csv/london_c2.csv",
    "clients_subset": "first-4500",
    "clients_param": null,
    "clients_size": 4500,
    "noise_name": "classic",
    "noise_method": "classic",
    "noise_param": null,
    "agg_size": 1575,
    "method_name": "rng",
    "method_param": 1,
    "days_name": "num-start-900",
    "days_param": 900,
    "threads": null,
    "wall_time": 86400,
    "pooled": true,
    "pool_size": 100
  },
  {
    "clients_name": "london_clean-4500",
    "clients_path": "./csv/london_c2.csv",
    "clients_subset": "first-4500",
    "clients_param": null,
    "clients_size": 4500,
    "noise_name": "classic",
    "noise_method": "classic",
    "noise_param": null,
    "agg_size": 1575,
    "method_name": "rng",
    "method_param": 1,
    "days_name": "num-start-1350",
    "days_param": 1350,
    "threads": null,
    "wall_time": 86400,
    "pooled": true,
    "pool_size": 100
  },
  {
    "clients_name": "london_clean-4500",
    "clients_path": "./csv/london_c2.csv",
    "clients_subset": "first-4500",
    "clients_param": null,
    "clients_size": 4500,
    "noise_name": "classic",
    "noise_method": "classic",
    "noise_param": null,
    "agg_size": 1575,
    "method_name": "rng",
    "method_param": 1,
    "days_name": "num-start-1800",
    "days_param": 1800,
    "threads": null,
    "wall_time": 86400,
    "pooled": true,
    "pool_size": 100
  },
  {
    "clients_name": "london_clean-4500",
    "clients_path": "./csv/london_c2.csv",
    "clients_subset": "first-4500",
    "clients_param": null,
    "clients_size": 4500,
    "noise_name": "classic",
    "noise_method": "classic",
    "noise_param": null,
    "agg_size": 1575,
    "method_name": "rng",
    "method_param": 1,
    "days_name": "num-start-2250",
    "days_param": 2250,
    "threads": null,
    "wall_time": 86400,
    "pooled": true,
    "pool_size": 100
  },
  {
    "clients_name": "london_clean-4500",
    "clients_path": "./csv/london_c2.csv",
    "clients_subset": "first-4500",
    "clients_param": null,
    "clients_size": 4500,
    "noise_name": "classic",
    "noise_method": "classic",
    "noise_param": null,
    "agg_size": 1575,
    "method_name": "rng",
    "method_param": 1,
    "days_name": "num-start-2700",
    "days_param": 2700,
    "threads": null,
    "wall_time": 86400,
    "pooled": true,
    "pool_size": 100
  },
  {
    "clients_name": "london_clean-4500",
    "clients_path": "./csv/london_c2.csv",
    "clients_subset": "first-4500",
    "clients_param": null,
    "clients_size": 4500,
    "noise_name": "classic",
    "noise_method": "classic",
    "noise_param": null,
    "agg_size": 1575,
    "method_name": "rng",
    "method_param": 1,
    "days_name": "num-start-3150",
    "days_param": 3150,
    "threads": null,
    "wall_time": 86400,
    "pooled": true,
    "pool_size": 100
  },
  {
    "clients_name": "london_clean-4500",
    "clients_path": "./csv/london_c2.csv",
    "clients_subset": "first-4500",
    "clients_param": null,
    "clients_size": 4500,
    "noise_name": "classic",
    "noise_method": "classic",
    "noise_param": null,
    "agg_size": 1575,
    "method_name": "rng",
    "method_param": 1,
    "days_name": "num-start-3600",
    "days_param": 3600,
    "threads": null,
    "wall_time": 86400,
    "pooled": true,
    "pool_size": 100
  },
  {
    "clients_name": "london_clean-4500",
    "clients_path": "./csv/london_c2.csv",
    "clients_subset": "first-4500",
    "clients_param": null,
    "clients_size": 4500,
    "noise_name": "classic",
    "noise_method": "classic",
    "noise_param": null,
    "agg_size": 1575,
    "method_name": "rng",
    "method_param": 1,
    "days_name": "num-start-4050",
    "days_param": 4050,
    "threads": null,
    "wall_time": 86400,
    "pooled": true,
    "pool_size": 100
  },
  {
    "clients_name": "london_clean-4500",
    "clients_path": "./csv/london_c2.csv",
    "clients_subset": "first-4500",
    "clients_param": null,
    "clients_size": 4500,
    "noise_name": "classic",
    "noise_method": "classic",
    "noise_param": null,
    "agg_size": 1575,
    "method_name": "rng",
    "method_param": 1,
    "days_name": "num-start-4500",
    "days_param": 4500,
    "threads": null,
    "wall_time": 86400,
    "pooled": true,
    "pool_size": 100
  },
  {
    "clients_name": "london_clean-4500",
    "clients_path": "./csv/london_c2.csv",
    "clients_subset": "first-4500",
    "clients_param": null,
    "clients_size": 4500,
    "noise_name": "classic",
    "noise_method": "classic",
    "noise_param": null,
    "agg_size": 1800,
    "method_name": "rng",
    "method_param": 0,
    "days_name": "num-start-450",
    "days_param": 450,
    "threads": null,
    "wall_time": 86400,
    "pooled": true,
    "pool_size": 100
  },
  {
    "clients_name": "london_clean-4500",
    "clients_path": "./csv/london_c2.csv",
    "clients_subset": "first-4500",
    "clients_param": null,
    "clients_size": 4500,
    "noise_name": "classic",
    "noise_method": "classic",
    "noise_param": null,
    "agg_size": 1800,
    "method_name": "rng",
    "method_param": 0,
    "days_name": "num-start-900",
    "days_param": 900,
    "threads": null,
    "wall_time": 86400,
    "pooled": true,
    "pool_size": 100
  },
  {
    "clients_name": "london_clean-4500",
    "clients_path": "./csv/london_c2.csv",
    "clients_subset": "first-4500",
    "clients_param": null,
    "clients_size": 4500,
    "noise_name": "classic",
    "noise_method": "classic",
    "noise_param": null,
    "agg_size": 1800,
    "method_name": "rng",
    "method_param": 0,
    "days_name": "num-start-1350",
    "days_param": 1350,
    "threads": null,
    "wall_time": 86400,
    "pooled": true,
    "pool_size": 100
  },
  {
    "clients_name": "london_clean-4500",
    "clients_path": "./csv/london_c2.csv",
    "clients_subset": "first-4500",
    "clients_param": null,
    "clients_size": 4500,
    "noise_name": "classic",
    "noise_method": "classic",
    "noise_param": null,
    "agg_size": 1800,
    "method_name": "rng",
    "method_param": 0,
    "days_name": "num-start-1800",
    "days_param": 1800,
    "threads": null,
    "wall_time": 86400,
    "pooled": true,
    "pool_size": 100
  },
  {
    "clients_name": "london_clean-4500",
    "clients_path": "./csv/london_c2.csv",
    "clients_subset": "first-4500",
    "clients_param": null,
    "clients_size": 4500,
    "noise_name": "classic",
    "noise_method": "classic",
    "noise_param": null,
    "agg_size": 1800,
    "method_name": "rng",
    "method_param": 0,
    "days_name": "num-start-2250",
    "days_param": 2250,
    "threads": null,
    "wall_time": 86400,
    "pooled": true,
    "pool_size": 100
  },
  {
    "clients_name": "london_clean-4500",
    "clients_path": "./csv/london_c2.csv",
    "clients_subset": "first-4500",
    "clients_param": null,
    "clients_size": 4500,
    "noise_name": "classic",
    "noise_method": "classic",
    "noise_param": null,
    "agg_size": 1800,
    "method_name": "rng",
    "method_param": 0,
    "days_name": "num-start-2700",
    "days_param": 2700,
    "threads": null,
    "wall_time": 86400,
    "pooled": true,
    "pool_size": 100
  },
  {
    "clients_name": "london_clean-4500",
    "clients_path": "./csv/london_c2.csv",
    "clients_subset": "first-4500",
    "clients_param": null,
    "clients_size": 4500,
    "noise_name": "classic",
    "noise_method": "classic",
    "noise_param": null,
    "agg_size": 1800,
    "method_name": "rng",
    "method_param": 0,
    "days_name": "num-start-3150",
    "days_param": 3150,
    "threads": null,
    "wall_time": 86400,
    "pooled": true,
    "pool_size": 100
  },
  {
    "clients_name": "london_clean-4500",
    "clients_path": "./csv/london_c2.csv",
    "clients_subset": "first-4500",
    "clients_param": null,
    "clients_size": 4500,
    "noise_name": "classic",
    "noise_method": "classic",
    "noise_param": null,
    "agg_size": 1800,
    "method_name": "rng",
    "method_param": 0,
    "days_name": "num-start-3600",
    "days_param": 3600,
    "threads": null,
    "wall_time": 86400,
    "pooled": true,
    "pool_size": 100
  },
  {
    "clients_name": "london_clean-4500",
    "clients_path": "./csv/london_c2.csv",
    "clients_subset": "first-4500",
    "clients_param": null,
    "clients_size": 4500,
    "noise_name": "classic",
    "noise_method": "classic",
    "noise_param": null,
    "agg_size": 1800,
    "method_name": "rng",
    "method_param": 0,
    "days_name": "num-start-4050",
    "days_param": 4050,
    "threads": null,
    "wall_time": 86400,
    "pooled": true,
    "pool_size": 100
  },
  {
    "clients_name": "london_clean-4500",
    "clients_path": "./csv/london_c2.csv",
    "clients_subset": "first-4500",
    "clients_param": null,
    "clients_size": 4500,
    "noise_name": "classic",
    "noise_method": "classic",
    "noise_param": null,
    "agg_size": 1800,
    "method_name": "rng",
    "method_param": 0,
    "days_name": "num-start-4500",
    "days_param": 4500,
    "threads": null,
    "wall_time": 86400,
    "pooled": true,
    "pool_size": 100
  },
  {
    "clients_name": "london_clean-4500",
    "clients_path": "./csv/london_c2.csv",
    "clients_subset": "first-4500",
    "clients_param": null,
    "clients_size": 4500,
    "noise_name": "classic",
    "noise_method": "classic",
    "noise_param": null,
    "agg_size": 1800,
    "method_name": "rng",
    "method_param": 1,
    "days_name": "num-start-450",
    "days_param": 450,
    "threads": null,
    "wall_time": 86400,
    "pooled": true,
    "pool_size": 100
  },
  {
    "clients_name": "london_clean-4500",
    "clients_path": "./csv/london_c2.csv",
    "clients_subset": "first-4500",
    "clients_param": null,
    "clients_size": 4500,
    "noise_name": "classic",
    "noise_method": "classic",
    "noise_param": null,
    "agg_size": 1800,
    "method_name": "rng",
    "method_param": 1,
    "days_name": "num-start-900",
    "days_param": 900,
    "threads": null,
    "wall_time": 86400,
    "pooled": true,
    "pool_size": 100
  },
  {
    "clients_name": "london_clean-4500",
    "clients_path": "./csv/london_c2.csv",
    "clients_subset": "first-4500",
    "clients_param": null,
    "clients_size": 4500,
    "noise_name": "classic",
    "noise_method": "classic",
    "noise_param": null,
    "agg_size": 1800,
    "method_name": "rng",
    "method_param": 1,
    "days_name": "num-start-1350",
    "days_param": 1350,
    "threads": null,
    "wall_time": 86400,
    "pooled": true,
    "pool_size": 100
  },
  {
    "clients_name": "london_clean-4500",
    "clients_path": "./csv/london_c2.csv",
    "clients_subset": "first-4500",
    "clients_param": null,
    "clients_size": 4500,
    "noise_name": "classic",
    "noise_method": "classic",
    "noise_param": null,
    "agg_size": 1800,
    "method_name": "rng",
    "method_param": 1,
    "days_name": "num-start-1800",
    "days_param": 1800,
    "threads": null,
    "wall_time": 86400,
    "pooled": true,
    "pool_size": 100
  },
  {
    "clients_name": "london_clean-4500",
    "clients_path": "./csv/london_c2.csv",
    "clients_subset": "first-4500",
    "clients_param": null,
    "clients_size": 4500,
    "noise_name": "classic",
    "noise_method": "classic",
    "noise_param": null,
    "agg_size": 1800,
    "method_name": "rng",
    "method_param": 1,
    "days_name": "num-start-2250",
    "days_param": 2250,
    "threads": null,
    "wall_time": 86400,
    "pooled": true,
    "pool_size": 100
  },
  {
    "clients_name": "london_clean-4500",
    "clients_path": "./csv/london_c2.csv",
    "clients_subset": "first-4500",
    "clients_param": null,
    "clients_size": 4500,
    "noise_name": "classic",
    "noise_method": "classic",
    "noise_param": null,
    "agg_size": 1800,
    "method_name": "rng",
    "method_param": 1,
    "days_name": "num-start-2700",
    "days_param": 2700,
    "threads": null,
    "wall_time": 86400,
    "pooled": true,
    "pool_size": 100
  },
  {
    "clients_name": "london_clean-4500",
    "clients_path": "./csv/london_c2.csv",
    "clients_subset": "first-4500",
    "clients_param": null,
    "clients_size": 4500,
    "noise_name": "classic",
    "noise_method": "classic",
    "noise_param": null,
    "agg_size": 1800,
    "method_name": "rng",
    "method_param": 1,
    "days_name": "num-start-3150",
    "days_param": 3150,
    "threads": null,
    "wall_time": 86400,
    "pooled": true,
    "pool_size": 100
  },
  {
    "clients_name": "london_clean-4500",
    "clients_path": "./csv/london_c2.csv",
    "clients_subset": "first-4500",
    "clients_param": null,
    "clients_size": 4500,
    "noise_name": "classic",
    "noise_method": "classic",
    "noise_param": null,
    "agg_size": 1800,
    "method_name": "rng",
    "method_param": 1,
    "days_name": "num-start-3600",
    "days_param": 3600,
    "threads": null,
    "wall_time": 86400,
    "pooled": true,
    "pool_size": 100
  },
  {
    "clients_name": "london_clean-4500",
    "clients_path": "./csv/london_c2.csv",
    "clients_subset": "first-4500",
    "clients_param": null,
    "clients_size": 4500,
    "noise_name": "classic",
    "noise_method": "classic",
    "noise_param": null,
    "agg_size": 1800,
    "method_name": "rng",
    "method_param": 1,
    "days_name": "num-start-4050",
    "days_param": 4050,
    "threads": null,
    "wall_time": 86400,
    "pooled": true,
    "pool_size": 100
  },
  {
    "clients_name": "london_clean-4500",
    "clients_path": "./csv/london_c2.csv",
    "clients_subset": "first-4500",
    "clients_param": null,
    "clients_size": 4500,
    "noise_name": "classic",
    "noise_method": "classic",
    "noise_param": null,
    "agg_size": 1800,
    "method_name": "rng",
    "method_param": 1,
    "days_name": "num-start-4500",
    "days_param": 4500,
    "threads": null,
    "wall_time": 86400,
    "pooled": true,
    "pool_size": 100
  },
  {
    "clients_name": "london_clean-4500",
    "clients_path": "./csv/london_c2.csv",
    "clients_subset": "first-4500",
    "clients_param": null,
    "clients_size": 4500,
    "noise_name": "classic",
    "noise_method": "classic",
    "noise_param": null,
    "agg_size": 2025,
    "method_name": "rng",
    "method_param": 0,
    "days_name": "num-start-450",
    "days_param": 450,
    "threads": null,
    "wall_time": 86400,
    "pooled": true,
    "pool_size": 100
  },
  {
    "clients_name": "london_clean-4500",
    "clients_path": "./csv/london_c2.csv",
    "clients_subset": "first-4500",
    "clients_param": null,
    "clients_size": 4500,
    "noise_name": "classic",
    "noise_method": "classic",
    "noise_param": null,
    "agg_size": 2025,
    "method_name": "rng",
    "method_param": 0,
    "days_name": "num-start-900",
    "days_param": 900,
    "threads": null,
    "wall_time": 86400,
    "pooled": true,
    "pool_size": 100
  },
  {
    "clients_name": "london_clean-4500",
    "clients_path": "./csv/london_c2.csv",
    "clients_subset": "first-4500",
    "clients_param": null,
    "clients_size": 4500,
    "noise_name": "classic",
    "noise_method": "classic",
    "noise_param": null,
    "agg_size": 2025,
    "method_name": "rng",
    "method_param": 0,
    "days_name": "num-start-1350",
    "days_param": 1350,
    "threads": null,
    "wall_time": 86400,
    "pooled": true,
    "pool_size": 100
  },
  {
    "clients_name": "london_clean-4500",
    "clients_path": "./csv/london_c2.csv",
    "clients_subset": "first-4500",
    "clients_param": null,
    "clients_size": 4500,
    "noise_name": "classic",
    "noise_method": "classic",
    "noise_param": null,
    "agg_size": 2025,
    "method_name": "rng",
    "method_param": 0,
    "days_name": "num-start-1800",
    "days_param": 1800,
    "threads": null,
    "wall_time": 86400,
    "pooled": true,
    "pool_size": 100
  },
  {
    "clients_name": "london_clean-4500",
    "clients_path": "./csv/london_c2.csv",
    "clients_subset": "first-4500",
    "clients_param": null,
    "clients_size": 4500,
    "noise_name": "classic",
    "noise_method": "classic",
    "noise_param": null,
    "agg_size": 2025,
    "method_name": "rng",
    "method_param": 0,
    "days_name": "num-start-2250",
    "days_param": 2250,
    "threads": null,
    "wall_time": 86400,
    "pooled": true,
    "pool_size": 100
  },
  {
    "clients_name": "london_clean-4500",
    "clients_path": "./csv/london_c2.csv",
    "clients_subset": "first-4500",
    "clients_param": null,
    "clients_size": 4500,
    "noise_name": "classic",
    "noise_method": "classic",
    "noise_param": null,
    "agg_size": 2025,
    "method_name": "rng",
    "method_param": 0,
    "days_name": "num-start-2700",
    "days_param": 2700,
    "threads": null,
    "wall_time": 86400,
    "pooled": true,
    "pool_size": 100
  },
  {
    "clients_name": "london_clean-4500",
    "clients_path": "./csv/london_c2.csv",
    "clients_subset": "first-4500",
    "clients_param": null,
    "clients_size": 4500,
    "noise_name": "classic",
    "noise_method": "classic",
    "noise_param": null,
    "agg_size": 2025,
    "method_name": "rng",
    "method_param": 0,
    "days_name": "num-start-3150",
    "days_param": 3150,
    "threads": null,
    "wall_time": 86400,
    "pooled": true,
    "pool_size": 100
  },
  {
    "clients_name": "london_clean-4500",
    "clients_path": "./csv/london_c2.csv",
    "clients_subset": "first-4500",
    "clients_param": null,
    "clients_size": 4500,
    "noise_name": "classic",
    "noise_method": "classic",
    "noise_param": null,
    "agg_size": 2025,
    "method_name": "rng",
    "method_param": 0,
    "days_name": "num-start-3600",
    "days_param": 3600,
    "threads": null,
    "wall_time": 86400,
    "pooled": true,
    "pool_size": 100
  },
  {
    "clients_name": "london_clean-4500",
    "clients_path": "./csv/london_c2.csv",
    "clients_subset": "first-4500",
    "clients_param": null,
    "clients_size": 4500,
    "noise_name": "classic",
    "noise_method": "classic",
    "noise_param": null,
    "agg_size": 2025,
    "method_name": "rng",
    "method_param": 0,
    "days_name": "num-start-4050",
    "days_param": 4050,
    "threads": null,
    "wall_time": 86400,
    "pooled": true,
    "pool_size": 100
  },
  {
    "clients_name": "london_clean-4500",
    "clients_path": "./csv/london_c2.csv",
    "clients_subset": "first-4500",
    "clients_param": null,
    "clients_size": 4500,
    "noise_name": "classic",
    "noise_method": "classic",
    "noise_param": null,
    "agg_size": 2025,
    "method_name": "rng",
    "method_param": 0,
    "days_name": "num-start-4500",
    "days_param": 4500,
    "threads": null,
    "wall_time": 86400,
    "pooled": true,
    "pool_size": 100
  },
  {
    "clients_name": "london_clean-4500",
    "clients_path": "./csv/london_c2.csv",
    "clients_subset": "first-4500",
    "clients_param": null,
    "clients_size": 4500,
    "noise_name": "classic",
    "noise_method": "classic",
    "noise_param": null,
    "agg_size": 2025,
    "method_name": "rng",
    "method_param": 1,
    "days_name": "num-start-450",
    "days_param": 450,
    "threads": null,
    "wall_time": 86400,
    "pooled": true,
    "pool_size": 100
  },
  {
    "clients_name": "london_clean-4500",
    "clients_path": "./csv/london_c2.csv",
    "clients_subset": "first-4500",
    "clients_param": null,
    "clients_size": 4500,
    "noise_name": "classic",
    "noise_method": "classic",
    "noise_param": null,
    "agg_size": 2025,
    "method_name": "rng",
    "method_param": 1,
    "days_name": "num-start-900",
    "days_param": 900,
    "threads": null,
    "wall_time": 86400,
    "pooled": true,
    "pool_size": 100
  },
  {
    "clients_name": "london_clean-4500",
    "clients_path": "./csv/london_c2.csv",
    "clients_subset": "first-4500",
    "clients_param": null,
    "clients_size": 4500,
    "noise_name": "classic",
    "noise_method": "classic",
    "noise_param": null,
    "agg_size": 2025,
    "method_name": "rng",
    "method_param": 1,
    "days_name": "num-start-1350",
    "days_param": 1350,
    "threads": null,
    "wall_time": 86400,
    "pooled": true,
    "pool_size": 100
  },
  {
    "clients_name": "london_clean-4500",
    "clients_path": "./csv/london_c2.csv",
    "clients_subset": "first-4500",
    "clients_param": null,
    "clients_size": 4500,
    "noise_name": "classic",
    "noise_method": "classic",
    "noise_param": null,
    "agg_size": 2025,
    "method_name": "rng",
    "method_param": 1,
    "days_name": "num-start-1800",
    "days_param": 1800,
    "threads": null,
    "wall_time": 86400,
    "pooled": true,
    "pool_size": 100
  },
  {
    "clients_name": "london_clean-4500",
    "clients_path": "./csv/london_c2.csv",
    "clients_subset": "first-4500",
    "clients_param": null,
    "clients_size": 4500,
    "noise_name": "classic",
    "noise_method": "classic",
    "noise_param": null,
    "agg_size": 2025,
    "method_name": "rng",
    "method_param": 1,
    "days_name": "num-start-2250",
    "days_param": 2250,
    "threads": null,
    "wall_time": 86400,
    "pooled": true,
    "pool_size": 100
  },
  {
    "clients_name": "london_clean-4500",
    "clients_path": "./csv/london_c2.csv",
    "clients_subset": "first-4500",
    "clients_param": null,
    "clients_size": 4500,
    "noise_name": "classic",
    "noise_method": "classic",
    "noise_param": null,
    "agg_size": 2025,
    "method_name": "rng",
    "method_param": 1,
    "days_name": "num-start-2700",
    "days_param": 2700,
    "threads": null,
    "wall_time": 86400,
    "pooled": true,
    "pool_size": 100
  },
  {
    "clients_name": "london_clean-4500",
    "clients_path": "./csv/london_c2.csv",
    "clients_subset": "first-4500",
    "clients_param": null,
    "clients_size": 4500,
    "noise_name": "classic",
    "noise_method": "classic",
    "noise_param": null,
    "agg_size": 2025,
    "method_name": "rng",
    "method_param": 1,
    "days_name": "num-start-3150",
    "days_param": 3150,
    "threads": null,
    "wall_time": 86400,
    "pooled": true,
    "pool_size": 100
  },
  {
    "clients_name": "london_clean-4500",
    "clients_path": "./csv/london_c2.csv",
    "clients_subset": "first-4500",
    "clients_param": null,
    "clients_size": 4500,
    "noise_name": "classic",
    "noise_method": "classic",
    "noise_param": null,
    "agg_size": 2025,
    "method_name": "rng",
    "method_param": 1,
    "days_name": "num-start-3600",
    "days_param": 3600,
    "threads": null,
    "wall_time": 86400,
    "pooled": true,
    "pool_size": 100
  },
  {
    "clients_name": "london_clean-4500",
    "clients_path": "./csv/london_c2.csv",
    "clients_subset": "first-4500",
    "clients_param": null,
    "clients_size": 4500,
    "noise_name": "classic",
    "noise_method": "classic",
    "noise_param": null,
    "agg_size": 2025,
    "method_name": "rng",
    "method_param": 1,
    "days_name": "num-start-4050",
    "days_param": 4050,
    "threads": null,
    "wall_time": 86400,
    "pooled": true,
    "pool_size": 100
  },
  {
    "clients_name": "london_clean-4500",
    "clients_path": "./csv/london_c2.csv",
    "clients_subset": "first-4500",
    "clients_param": null,
    "clients_size": 4500,
    "noise_name": "classic",
    "noise_method": "classic",
    "noise_param": null,
    "agg_size": 2025,
    "method_name": "rng",
    "method_param": 1,
    "days_name": "num-start-4500",
    "days_param": 4500,
    "threads": null,
    "wall_time": 86400,
    "pooled": true,
    "pool_size": 100
  },
  {
    "clients_name": "london_clean-4500",
    "clients_path": "./csv/london_c2.csv",
    "clients_subset": "first-4500",
    "clients_param": null,
    "clients_size": 4500,
    "noise_name": "classic",
    "noise_method": "classic",
    "noise_param": null,
    "agg_size": 2250,
    "method_name": "rng",
    "method_param": 0,
    "days_name": "num-start-450",
    "days_param": 450,
    "threads": null,
    "wall_time": 86400,
    "pooled": true,
    "pool_size": 100
  },
  {
    "clients_name": "london_clean-4500",
    "clients_path": "./csv/london_c2.csv",
    "clients_subset": "first-4500",
    "clients_param": null,
    "clients_size": 4500,
    "noise_name": "classic",
    "noise_method": "classic",
    "noise_param": null,
    "agg_size": 2250,
    "method_name": "rng",
    "method_param": 0,
    "days_name": "num-start-900",
    "days_param": 900,
    "threads": null,
    "wall_time": 86400,
    "pooled": true,
    "pool_size": 100
  },
  {
    "clients_name": "london_clean-4500",
    "clients_path": "./csv/london_c2.csv",
    "clients_subset": "first-4500",
    "clients_param": null,
    "clients_size": 4500,
    "noise_name": "classic",
    "noise_method": "classic",
    "noise_param": null,
    "agg_size": 2250,
    "method_name": "rng",
    "method_param": 0,
    "days_name": "num-start-1350",
    "days_param": 1350,
    "threads": null,
    "wall_time": 86400,
    "pooled": true,
    "pool_size": 100
  },
  {
    "clients_name": "london_clean-4500",
    "clients_path": "./csv/london_c2.csv",
    "clients_subset": "first-4500",
    "clients_param": null,
    "clients_size": 4500,
    "noise_name": "classic",
    "noise_method": "classic",
    "noise_param": null,
    "agg_size": 2250,
    "method_name": "rng",
    "method_param": 0,
    "days_name": "num-start-1800",
    "days_param": 1800,
    "threads": null,
    "wall_time": 86400,
    "pooled": true,
    "pool_size": 100
  },
  {
    "clients_name": "london_clean-4500",
    "clients_path": "./csv/london_c2.csv",
    "clients_subset": "first-4500",
    "clients_param": null,
    "clients_size": 4500,
    "noise_name": "classic",
    "noise_method": "classic",
    "noise_param": null,
    "agg_size": 2250,
    "method_name": "rng",
    "method_param": 0,
    "days_name": "num-start-2250",
    "days_param": 2250,
    "threads": null,
    "wall_time": 86400,
    "pooled": true,
    "pool_size": 100
  },
  {
    "clients_name": "london_clean-4500",
    "clients_path": "./csv/london_c2.csv",
    "clients_subset": "first-4500",
    "clients_param": null,
    "clients_size": 4500,
    "noise_name": "classic",
    "noise_method": "classic",
    "noise_param": null,
    "agg_size": 2250,
    "method_name": "rng",
    "method_param": 0,
    "days_name": "num-start-2700",
    "days_param": 2700,
    "threads": null,
    "wall_time": 86400,
    "pooled": true,
    "pool_size": 100
  },
  {
    "clients_name": "london_clean-4500",
    "clients_path": "./csv/london_c2.csv",
    "clients_subset": "first-4500",
    "clients_param": null,
    "clients_size": 4500,
    "noise_name": "classic",
    "noise_method": "classic",
    "noise_param": null,
    "agg_size": 2250,
    "method_name": "rng",
    "method_param": 0,
    "days_name": "num-start-3150",
    "days_param": 3150,
    "threads": null,
    "wall_time": 86400,
    "pooled": true,
    "pool_size": 100
  },
  {
    "clients_name": "london_clean-4500",
    "clients_path": "./csv/london_c2.csv",
    "clients_subset": "first-4500",
    "clients_param": null,
    "clients_size": 4500,
    "noise_name": "classic",
    "noise_method": "classic",
    "noise_param": null,
    "agg_size": 2250,
    "method_name": "rng",
    "method_param": 0,
    "days_name": "num-start-3600",
    "days_param": 3600,
    "threads": null,
    "wall_time": 86400,
    "pooled": true,
    "pool_size": 100
  },
  {
    "clients_name": "london_clean-4500",
    "clients_path": "./csv/london_c2.csv",
    "clients_subset": "first-4500",
    "clients_param": null,
    "clients_size": 4500,
    "noise_name": "classic",
    "noise_method": "classic",
    "noise_param": null,
    "agg_size": 2250,
    "method_name": "rng",
    "method_param": 0,
    "days_name": "num-start-4050",
    "days_param": 4050,
    "threads": null,
    "wall_time": 86400,
    "pooled": true,
    "pool_size": 100
  },
  {
    "clients_name": "london_clean-4500",
    "clients_path": "./csv/london_c2.csv",
    "clients_subset": "first-4500",
    "clients_param": null,
    "clients_size": 4500,
    "noise_name": "classic",
    "noise_method": "classic",
    "noise_param": null,
    "agg_size": 2250,
    "method_name": "rng",
    "method_param": 0,
    "days_name": "num-start-4500",
    "days_param": 4500,
    "threads": null,
    "wall_time": 86400,
    "pooled": true,
    "pool_size": 100
  },
  {
    "clients_name": "london_clean-4500",
    "clients_path": "./csv/london_c2.csv",
    "clients_subset": "first-4500",
    "clients_param": null,
    "clients_size": 4500,
    "noise_name": "classic",
    "noise_method": "classic",
    "noise_param": null,
    "agg_size": 2250,
    "method_name": "rng",
    "method_param": 1,
    "days_name": "num-start-450",
    "days_param": 450,
    "threads": null,
    "wall_time": 86400,
    "pooled": true,
    "pool_size": 100
  },
  {
    "clients_name": "london_clean-4500",
    "clients_path": "./csv/london_c2.csv",
    "clients_subset": "first-4500",
    "clients_param": null,
    "clients_size": 4500,
    "noise_name": "classic",
    "noise_method": "classic",
    "noise_param": null,
    "agg_size": 2250,
    "method_name": "rng",
    "method_param": 1,
    "days_name": "num-start-900",
    "days_param": 900,
    "threads": null,
    "wall_time": 86400,
    "pooled": true,
    "pool_size": 100
  },
  {
    "clients_name": "london_clean-4500",
    "clients_path": "./csv/london_c2.csv",
    "clients_subset": "first-4500",
    "clients_param": null,
    "clients_size": 4500,
    "noise_name": "classic",
    "noise_method": "classic",
    "noise_param": null,
    "agg_size": 2250,
    "method_name": "rng",
    "method_param": 1,
    "days_name": "num-start-1350",
    "days_param": 1350,
    "threads": null,
    "wall_time": 86400,
    "pooled": true,
    "pool_size": 100
  },
  {
    "clients_name": "london_clean-4500",
    "clients_path": "./csv/london_c2.csv",
    "clients_subset": "first-4500",
    "clients_param": null,
    "clients_size": 4500,
    "noise_name": "classic",
    "noise_method": "classic",
    "noise_param": null,
    "agg_size": 2250,
    "method_name": "rng",
    "method_param": 1,
    "days_name": "num-start-1800",
    "days_param": 1800,
    "threads": null,
    "wall_time": 86400,
    "pooled": true,
    "pool_size": 100
  },
  {
    "clients_name": "london_clean-4500",
    "clients_path": "./csv/london_c2.csv",
    "clients_subset": "first-4500",
    "clients_param": null,
    "clients_size": 4500,
    "noise_name": "classic",
    "noise_method": "classic",
    "noise_param": null,
    "agg_size": 2250,
    "method_name": "rng",
    "method_param": 1,
    "days_name": "num-start-2250",
    "days_param": 2250,
    "threads": null,
    "wall_time": 86400,
    "pooled": true,
    "pool_size": 100
  },
  {
    "clients_name": "london_clean-4500",
    "clients_path": "./csv/london_c2.csv",
    "clients_subset": "first-4500",
    "clients_param": null,
    "clients_size": 4500,
    "noise_name": "classic",
    "noise_method": "classic",
    "noise_param": null,
    "agg_size": 2250,
    "method_name": "rng",
    "method_param": 1,
    "days_name": "num-start-2700",
    "days_param": 2700,
    "threads": null,
    "wall_time": 86400,
    "pooled": true,
    "pool_size": 100
  },
  {
    "clients_name": "london_clean-4500",
    "clients_path": "./csv/london_c2.csv",
    "clients_subset": "first-4500",
    "clients_param": null,
    "clients_size": 4500,
    "noise_name": "classic",
    "noise_method": "classic",
    "noise_param": null,
    "agg_size": 2250,
    "method_name": "rng",
    "method_param": 1,
    "days_name": "num-start-3150",
    "days_param": 3150,
    "threads": null,
    "wall_time": 86400,
    "pooled": true,
    "pool_size": 100
  },
  {
    "clients_name": "london_clean-4500",
    "clients_path": "./csv/london_c2.csv",
    "clients_subset": "first-4500",
    "clients_param": null,
    "clients_size": 4500,
    "noise_name": "classic",
    "noise_method": "classic",
    "noise_param": null,
    "agg_size": 2250,
    "method_name": "rng",
    "method_param": 1,
    "days_name": "num-start-3600",
    "days_param": 3600,
    "threads": null,
    "wall_time": 86400,
    "pooled": true,
    "pool_size": 100
  },
  {
    "clients_name": "london_clean-4500",
    "clients_path": "./csv/london_c2.csv",
    "clients_subset": "first-4500",
    "clients_param": null,
    "clients_size": 4500,
    "noise_name": "classic",
    "noise_method": "classic",
    "noise_param": null,
    "agg_size": 2250,
    "method_name": "rng",
    "method_param": 1,
    "days_name": "num-start-4050",
    "days_param": 4050,
    "threads": null,
    "wall_time": 86400,
    "pooled": true,
    "pool_size": 100
  },
  {
    "clients_name": "london_clean-4500",
    "clients_path": "./csv/london_c2.csv",
    "clients_subset": "first-4500",
    "clients_param": null,
    "clients_size": 4500,
    "noise_name": "classic",
    "noise_method": "classic",
    "noise_param": null,
    "agg_size": 2250,
    "method_name": "rng",
    "method_param": 1,
    "days_name": "num-start-4500",
    "days_param": 4500,
    "threads": null,
    "wall_time": 86400,
    "pooled": true,
    "pool_size": 100
  }
]