expe,clients,clients_size,clients_subset,agg_size,agg_size_pc,method,days,days_size,days_total,noise_method,time,valid,valid_sum,success,score_avg,score_min,score_max,nsols,oracle,wall_hit,wall_time,pooled,pool_size,uuid,infeasible,optimal,valid_sums
./expes/v2_2021-04-05_issda-30_1000-prng-1-w86-p2_3d,30_issda-1000,1000,first-1000,100,10,rng,num-start-200,200,25726,classic,327.92205119132996,True,,True,1.0,1.0,1.0,1,"['2', '15', '42', '64', '65', '76', '83', '94', '96', '98', '102', '104', '143', '144', '146', '151', '196', '210', '224', '228', '245', '250', '257', '266', '267', '289', '311', '318', '324', '328', '334', '339', '342', '363', '367', '395', '409', '415', '431', '445', '454', '459', '484', '489', '498', '506', '517', '524', '534', '546', '557', '562', '566', '574', '582', '598', '617', '626', '627', '634', '641', '656', '685', '701', '721', '723', '728', '737', '748', '774', '777', '803', '804', '819', '823', '825', '830', '845', '848', '850', '861', '865', '871', '887', '889', '892', '912', '914', '921', '924', '930', '932', '935', '938', '940', '941', '989', '990', '991', '992']",False,86400,True,2,ace6f88b01,0.0,1.0,1.0
./expes/v2_2021-04-05_issda-30_1000-prng-1-w86-p2_3d,30_issda-1000,1000,first-1000,150,15,rng,num-start-400,400,25726,classic,69.84983325004578,True,,True,1.0,1.0,1.0,1,"['9', '25', '29', '37', '58', '78', '87', '94', '140', '163', '166', '169', '171', '174', '178', '181', '182', '187', '196', '213', '218', '228', '237', '242', '256', '258', '275', '286', '311', '316', '317', '320', '327', '333', '350', '360', '363', '369', '370', '371', '373', '376', '381', '390', '403', '410', '417', '425', '434', '442', '456', '457', '466', '468', '473', '477', '492', '499', '501', '502', '511', '513', '515', '517', '520', '522', '523', '525', '527', '528', '531', '538', '539', '544', '558', '571', '574', '576', '582', '596', '603', '608', '621', '622', '631', '632', '639', '654', '668', '671', '675', '678', '686', '691', '698', '701', '717', '724', '733', '741', '742', '744', '749', '753', '754', '757', '773', '782', '792', '804', '809', '816', '819', '823', '829', '835', '841', '852', '856', '870', '875', '880', '881', '884', '892', '898', '904', '905', '906', '914', '916', '922', '923', '925', '929', '930', '931', '934', '943', '948', '955', '957', '959', '964', '971', '973', '978', '979', '981', '985']",False,86400,True,2,fb3c69f2e6,0.0,1.0,1.0
./expes/v2_2021-04-05_issda-30_1000-prng-1-w86-p2_3d,30_issda-1000,1000,first-1000,50,5,rng,num-start-600,600,25726,classic,81.19072270393372,True,,True,1.0,1.0,1.0,1,"['3', '10', '23', '27', '30', '32', '65', '97', '105', '121', '138', '215', '222', '235', '262', '273', '326', '389', '391', '400', '433', '444', '457', '461', '484', '500', '508', '555', '583', '606', '623', '666', '668', '703', '713', '739', '780', '781', '783', '786', '808', '822', '856', '868', '903', '915', '924', '962', '968', '993']",False,86400,True,2,20e98cb6d2,0.0,1.0,1.0
./expes/v2_2021-04-05_issda-30_1000-prng-1-w86-p2_3d,30_issda-1000,1000,first-1000,500,50,rng,num-start-1000,1000,25726,classic,249.09221863746643,True,,True,1.0,1.0,1.0,1,"['2', '4', '5', '6', '8', '12', '14', '16', '19', '21', '22', '23', '25', '27', '28', '29', '30', '32', '33', '34', '35', '36', '37', '38', '44', '45', '46', '47', '48', '51', '52', '53', '55', '57', '62', '63', '65', '66', '68', '69', '70', '71', '74', '79', '80', '82', '86', '88', '89', '91', '95', '99', '100', '102', '103', '105', '106', '107', '108', '110', '111', '112', '117', '118', '122', '123', '124', '125', '126', '127', '128', '129', '130', '131', '132', '133', '134', '135', '137', '138', '140', '142', '147', '153', '155', '156', '160', '161', '164', '165', '167', '168', '174', '176', '182', '183', '184', '185', '188', '190', '191', '192', '196', '197', '203', '204', '205', '217', '223', '224', '227', '228', '230', '231', '233', '238', '240', '241', '242', '244', '245', '246', '248', '251', '255', '256', '258', '259', '265', '266', '269', '270', '271', '272', '274', '276', '277', '278', '281', '286', '287', '292', '294', '296', '298', '299', '301', '306', '307', '308', '309', '311', '312', '318', '321', '322', '323', '324', '327', '328', '330', '331', '333', '334', '335', '336', '337', '339', '341', '342', '345', '348', '349', '350', '353', '354', '355', '359', '360', '361', '362', '369', '370', '373', '375', '377', '379', '382', '383', '384', '385', '386', '387', '390', '396', '397', '399', '400', '404', '405', '407', '410', '411', '418', '420', '421', '423', '424', '426', '427', '429', '430', '431', '432', '434', '436', '437', '438', '439', '441', '442', '445', '446', '447', '448', '449', '454', '456', '462', '466', '468', '472', '476', '478', '481', '482', '485', '486', '488', '489', '493', '494', '495', '496', '500', '502', '507', '509', '510', '513', '515', '516', '518', '520', '523', '524', '525', '528', '530', '531', '532', '533', '534', '536', '538', '540', '542', '543', '545', '547', '548', '549', '550', '554', '555', '557', '558', '562', '563', '564', '565', '567', '568', '569', '570', '573', '578', '581', '582', '583', '585', '586', '588', '589', '591', '593', '594', '595', '599', '600', '601', '602', '603', '604', '605', '606', '607', '610', '614', '615', '616', '619', '620', '621', '624', '626', '627', '630', '631', '633', '635', '636', '638', '641', '642', '643', '644', '648', '649', '650', '651', '652', '655', '658', '659', '660', '662', '663', '666', '670', '672', '676', '679', '684', '688', '689', '690', '691', '692', '693', '695', '696', '698', '699', '701', '703', '707', '708', '711', '712', '713', '714', '715', '716', '717', '720', '724', '730', '731', '732', '733', '734', '735', '736', '737', '738', '741', '746', '750', '752', '753', '756', '760', '764', '766', '767', '771', '772', '775', '777', '779', '780', '786', '788', '791', '793', '794', '796', '798', '799', '802', '806', '807', '808', '810', '811', '812', '813', '815', '818', '820', '821', '823', '824', '826', '827', '830', '831', '832', '833', '837', '840', '844', '848', '852', '853', '854', '857', '858', '859', '862', '864', '865', '871', '873', '875', '876', '877', '878', '879', '882', '883', '884', '885', '887', '888', '889', '891', '892', '894', '900', '901', '902', '903', '905', '907', '908', '909', '911', '912', '919', '920', '922', '926', '927', '931', '935', '938', '939', '940', '943', '944', '945', '947', '949', '950', '952', '957', '959', '962', '964', '966', '972', '973', '974', '976', '978', '981', '982', '984', '987', '988', '989', '990', '991', '993', '995', '996', '997', '999']",False,86400,True,2,257f237ac4,0.0,1.0,1.0
./expes/v2_2021-04-05_issda-30_1000-prng-1-w86-p2_3d,30_issda-1000,1000,first-1000,350,35,rng,num-start-300,300,25726,classic,86419.16181612015,False,,False,0,,,0,"['5', '8', '12', '14', '16', '21', '22', '23', '28', '30', '32', '33', '34', '35', '36', '37', '44', '46', '47', '51', '55', '62', '63', '65', '66', '68', '69', '70', '79', '82', '88', '91', '100', '105', '106', '107', '108', '111', '117', '122', '123', '124', '126', '128', '129', '133', '134', '135', '137', '138', '140', '142', '155', '156', '160', '164', '168', '174', '176', '182', '188', '190', '192', '196', '197', '203', '204', '205', '217', '223', '224', '227', '228', '230', '231', '233', '238', '240', '242', '244', '245', '246', '251', '258', '259', '265', '266', '270', '271', '274', '276', '278', '286', '287', '292', '294', '296', '298', '299', '301', '306', '308', '309', '311', '318', '321', '322', '323', '328', '330', '335', '336', '339', '341', '342', '345', '348', '349', '350', '353', '354', '355', '360', '361', '362', '369', '373', '375', '379', '386', '387', '396', '397', '400', '405', '407', '418', '420', '421', '424', '426', '427', '430', '432', '438', '441', '442', '445', '446', '447', '448', '449', '456', '462', '468', '472', '476', '478', '481', '482', '485', '486', '488', '489', '493', '494', '496', '502', '507', '513', '516', '518', '520', '523', '525', '531', '532', '533', '534', '536', '538', '543', '547', '548', '549', '550', '554', '555', '557', '558', '562', '563', '565', '573', '582', '583', '586', '588', '589', '591', '594', '595', '599', '600', '601', '603', '604', '606', '607', '610', '615', '616', '619', '620', '621', '624', '626', '627', '630', '631', '635', '636', '638', '641', '642', '643', '644', '648', '649', '650', '651', '655', '658', '660', '666', '670', '672', '679', '688', '689', '692', '693', '695', '696', '698', '699', '701', '707', '711', '713', '715', '716', '724', '731', '732', '733', '735', '736', '737', '738', '746', '753', '756', '760', '764', '766', '772', '777', '780', '788', '791', '796', '798', '799', '802', '806', '807', '808', '813', '820', '821', '823', '824', '826', '827', '830', '831', '832', '833', '837', '844', '848', '852', '853', '854', '857', '858', '859', '865', '871', '875', '876', '877', '879', '882', '883', '885', '887', '888', '889', '891', '894', '900', '902', '903', '905', '907', '909', '912', '919', '922', '926', '927', '931', '935', '938', '940', '943', '944', '945', '947', '949', '950', '952', '959', '962', '964', '966', '972', '973', '978', '981', '982', '984', '987', '988', '989', '995', '996', '997']",True,86400,True,2,ba4a1c4652,0.0,0.0,0.0
