expe,clients,clients_size,clients_subset,agg_size,agg_size_pc,method,days,days_size,days_total,noise_method,time,valid,valid_sum,success,score_avg,score_min,score_max,nsols,oracle,wall_hit,wall_time,pooled,pool_size,uuid,infeasible,optimal,valid_sums
./expes/v2_2021-04-05_issda-30_1000-prng-1-w86-p2_3d,30_issda-1000,1000,first-1000,200,20,rng,num-start-600,600,25726,classic,148.86165809631348,True,,True,1.0,1.0,1.0,1,"['2', '15', '17', '34', '40', '42', '47', '64', '65', '71', '76', '83', '85', '92', '94', '96', '98', '102', '104', '112', '119', '120', '128', '134', '143', '144', '146', '150', '151', '154', '175', '189', '192', '194', '195', '196', '209', '210', '221', '224', '225', '226', '228', '242', '245', '248', '249', '250', '257', '266', '267', '278', '282', '283', '289', '295', '298', '299', '309', '311', '318', '324', '325', '328', '333', '334', '339', '341', '342', '344', '363', '366', '367', '381', '395', '401', '409', '415', '430', '431', '437', '445', '454', '456', '459', '462', '484', '488', '489', '498', '499', '502', '505', '506', '517', '521', '524', '534', '535', '538', '546', '554', '557', '561', '562', '565', '566', '574', '582', '588', '590', '594', '598', '602', '604', '611', '617', '618', '626', '627', '628', '634', '641', '646', '650', '656', '657', '673', '677', '685', '696', '700', '701', '715', '717', '718', '721', '723', '724', '728', '737', '748', '750', '774', '776', '777', '802', '803', '804', '813', '814', '818', '819', '823', '825', '830', '832', '835', '836', '837', '842', '845', '846', '848', '850', '858', '861', '863', '865', '866', '870', '871', '876', '887', '889', '892', '897', '898', '912', '914', '917', '920', '921', '924', '930', '932', '935', '938', '939', '940', '941', '945', '946', '956', '973', '987', '989', '990', '991', '992']",False,86400,True,2,94435fb8de,0.0,1.0,1.0
./expes/v2_2021-04-05_issda-30_1000-prng-1-w86-p2_3d,30_issda-1000,1000,first-1000,350,35,rng,num-start-100,100,25726,classic,86403.74582672119,False,,False,0,,,0,"['5', '8', '12', '14', '16', '21', '22', '23', '28', '30', '32', '33', '34', '35', '36', '37', '44', '46', '47', '51', '55', '62', '63', '65', '66', '68', '69', '70', '79', '82', '88', '91', '100', '105', '106', '107', '108', '111', '117', '122', '123', '124', '126', '128', '129', '133', '134', '135', '137', '138', '140', '142', '155', '156', '160', '164', '168', '174', '176', '182', '188', '190', '192', '196', '197', '203', '204', '205', '217', '223', '224', '227', '228', '230', '231', '233', '238', '240', '242', '244', '245', '246', '251', '258', '259', '265', '266', '270', '271', '274', '276', '278', '286', '287', '292', '294', '296', '298', '299', '301', '306', '308', '309', '311', '318', '321', '322', '323', '328', '330', '335', '336', '339', '341', '342', '345', '348', '349', '350', '353', '354', '355', '360', '361', '362', '369', '373', '375', '379', '386', '387', '396', '397', '400', '405', '407', '418', '420', '421', '424', '426', '427', '430', '432', '438', '441', '442', '445', '446', '447', '448', '449', '456', '462', '468', '472', '476', '478', '481', '482', '485', '486', '488', '489', '493', '494', '496', '502', '507', '513', '516', '518', '520', '523', '525', '531', '532', '533', '534', '536', '538', '543', '547', '548', '549', '550', '554', '555', '557', '558', '562', '563', '565', '573', '582', '583', '586', '588', '589', '591', '594', '595', '599', '600', '601', '603', '604', '606', '607', '610', '615', '616', '619', '620', '621', '624', '626', '627', '630', '631', '635', '636', '638', '641', '642', '643', '644', '648', '649', '650', '651', '655', '658', '660', '666', '670', '672', '679', '688', '689', '692', '693', '695', '696', '698', '699', '701', '707', '711', '713', '715', '716', '724', '731', '732', '733', '735', '736', '737', '738', '746', '753', '756', '760', '764', '766', '772', '777', '780', '788', '791', '796', '798', '799', '802', '806', '807', '808', '813', '820', '821', '823', '824', '826', '827', '830', '831', '832', '833', '837', '844', '848', '852', '853', '854', '857', '858', '859', '865', '871', '875', '876', '877', '879', '882', '883', '885', '887', '888', '889', '891', '894', '900', '902', '903', '905', '907', '909', '912', '919', '922', '926', '927', '931', '935', '938', '940', '943', '944', '945', '947', '949', '950', '952', '959', '962', '964', '966', '972', '973', '978', '981', '982', '984', '987', '988', '989', '995', '996', '997']",True,86400,True,2,7ac562b492,0.0,0.0,0.0
