expe,clients,clients_size,clients_subset,agg_size,agg_size_pc,method,days,days_size,days_total,noise_method,time,valid,valid_sum,success,score_avg,score_min,score_max,nsols,oracle,wall_hit,wall_time,pooled,pool_size,uuid,infeasible,optimal,valid_sums
./expes/v2_2021-04-05_issda-30_1000-prng-1-w86-p2_3d,30_issda-1000,1000,first-1000,100,10,rng,num-start-700,700,25726,classic,109.15998888015747,True,,True,1.0,1.0,1.0,1,"['8', '21', '27', '45', '48', '61', '69', '84', '89', '92', '93', '106', '109', '159', '166', '169', '177', '183', '199', '200', '220', '228', '239', '242', '254', '255', '266', '267', '269', '279', '284', '287', '288', '296', '297', '299', '308', '311', '313', '318', '320', '346', '369', '382', '398', '406', '412', '424', '434', '442', '463', '474', '483', '485', '491', '519', '521', '532', '533', '548', '550', '561', '563', '587', '614', '621', '642', '643', '657', '664', '688', '718', '722', '739', '750', '784', '799', '817', '820', '827', '833', '838', '847', '849', '861', '866', '869', '876', '887', '889', '902', '904', '931', '940', '950', '958', '965', '966', '968', '984']",False,86400,True,2,88327d645e,0.0,1.0,1.0
./expes/v2_2021-04-05_issda-30_1000-prng-1-w86-p2_3d,30_issda-1000,1000,first-1000,100,10,rng,num-start-100,100,25726,classic,86406.59309387207,False,,False,0,,,0,"['2', '15', '42', '64', '65', '76', '83', '94', '96', '98', '102', '104', '143', '144', '146', '151', '196', '210', '224', '228', '245', '250', '257', '266', '267', '289', '311', '318', '324', '328', '334', '339', '342', '363', '367', '395', '409', '415', '431', '445', '454', '459', '484', '489', '498', '506', '517', '524', '534', '546', '557', '562', '566', '574', '582', '598', '617', '626', '627', '634', '641', '656', '685', '701', '721', '723', '728', '737', '748', '774', '777', '803', '804', '819', '823', '825', '830', '845', '848', '850', '861', '865', '871', '887', '889', '892', '912', '914', '921', '924', '930', '932', '935', '938', '940', '941', '989', '990', '991', '992']",True,86400,True,2,696640b499,0.0,0.0,0.0
