expe,clients,clients_size,clients_subset,agg_size,agg_size_pc,method,days,days_size,days_total,noise_method,time,valid,valid_sum,success,score_avg,score_min,score_max,nsols,oracle,wall_hit,wall_time,pooled,pool_size,uuid,infeasible,optimal,valid_sums
./expes/v2_2021-04-05_issda-30_1000-prng-1-w86-p2_3d,30_issda-1000,1000,first-1000,200,20,rng,num-start-1000,1000,25726,classic,172.84518194198608,True,,True,1.0,1.0,1.0,1,"['8', '12', '14', '16', '21', '30', '32', '33', '37', '44', '46', '47', '62', '65', '66', '68', '69', '79', '91', '100', '106', '107', '111', '122', '128', '134', '137', '138', '140', '142', '155', '156', '160', '164', '168', '197', '203', '217', '223', '238', '240', '242', '244', '265', '266', '270', '274', '276', '278', '286', '287', '292', '299', '301', '309', '311', '318', '322', '323', '335', '339', '345', '348', '353', '360', '369', '375', '379', '386', '387', '396', '397', '400', '405', '407', '418', '421', '426', '432', '438', '442', '447', '448', '456', '472', '481', '482', '485', '486', '488', '494', '496', '507', '518', '520', '533', '534', '536', '547', '549', '554', '555', '558', '562', '563', '565', '573', '583', '586', '588', '591', '594', '595', '599', '600', '601', '604', '606', '607', '610', '615', '619', '620', '621', '626', '630', '631', '636', '641', '642', '643', '648', '649', '650', '651', '655', '660', '672', '688', '689', '698', '699', '707', '713', '716', '731', '732', '733', '735', '736', '737', '738', '746', '760', '777', '780', '788', '796', '798', '799', '808', '820', '821', '831', '844', '852', '854', '857', '858', '875', '876', '877', '882', '883', '887', '888', '889', '891', '894', '900', '903', '919', '926', '927', '931', '938', '943', '944', '945', '949', '952', '959', '964', '972', '981', '982', '988', '989', '995', '997']",False,86400,True,2,c36e984776,0.0,1.0,1.0
./expes/v2_2021-04-05_issda-30_1000-prng-1-w86-p2_3d,30_issda-1000,1000,first-1000,450,45,rng,num-start-1000,1000,25726,classic,217.86836457252502,True,,True,1.0,1.0,1.0,1,"['2', '5', '6', '9', '17', '19', '20', '21', '22', '25', '26', '29', '31', '32', '33', '35', '37', '38', '39', '42', '45', '47', '51', '53', '55', '58', '59', '61', '62', '69', '70', '73', '76', '78', '79', '83', '84', '85', '87', '89', '90', '94', '96', '97', '99', '103', '104', '105', '108', '109', '114', '115', '116', '118', '119', '122', '125', '126', '131', '132', '135', '140', '144', '145', '148', '149', '151', '155', '156', '158', '160', '161', '162', '163', '165', '166', '169', '171', '174', '175', '177', '178', '181', '182', '185', '186', '187', '189', '193', '196', '197', '204', '213', '214', '216', '218', '223', '225', '228', '231', '233', '234', '237', '238', '239', '241', '242', '247', '251', '253', '254', '255', '256', '257', '258', '260', '261', '262', '263', '264', '266', '269', '271', '273', '275', '276', '280', '281', '286', '292', '293', '294', '297', '298', '304', '311', '314', '316', '317', '318', '320', '324', '327', '333', '336', '337', '338', '339', '343', '346', '350', '353', '354', '360', '363', '365', '367', '368', '369', '370', '371', '372', '373', '375', '376', '381', '382', '383', '384', '390', '393', '394', '395', '400', '401', '402', '403', '405', '410', '412', '413', '414', '415', '417', '419', '421', '423', '425', '427', '429', '430', '434', '436', '438', '442', '445', '450', '452', '456', '457', '459', '460', '463', '465', '466', '468', '469', '473', '475', '476', '477', '478', '482', '484', '485', '490', '492', '495', '496', '498', '499', '501', '502', '503', '504', '510', '511', '513', '515', '517', '520', '521', '522', '523', '524', '525', '527', '528', '529', '531', '532', '534', '535', '536', '537', '538', '539', '544', '546', '549', '554', '558', '559', '561', '562', '565', '571', '572', '574', '576', '582', '586', '588', '589', '590', '596', '599', '600', '603', '604', '606', '608', '610', '611', '620', '621', '622', '626', '629', '631', '632', '634', '637', '639', '640', '643', '651', '653', '654', '657', '658', '664', '668', '669', '671', '675', '677', '678', '680', '683', '686', '687', '689', '691', '696', '697', '698', '699', '701', '702', '704', '707', '709', '710', '713', '716', '717', '721', '723', '724', '726', '727', '728', '731', '732', '733', '734', '735', '737', '741', '742', '744', '746', '747', '749', '753', '754', '755', '757', '758', '761', '763', '764', '766', '769', '772', '773', '774', '778', '779', '780', '782', '783', '785', '792', '794', '796', '800', '802', '804', '808', '809', '811', '814', '816', '818', '819', '820', '822', '823', '824', '826', '829', '830', '832', '833', '835', '836', '838', '840', '841', '845', '846', '852', '856', '857', '859', '861', '870', '871', '873', '875', '880', '881', '884', '887', '892', '896', '897', '898', '902', '903', '904', '905', '906', '907', '909', '911', '914', '916', '917', '920', '922', '923', '924', '925', '929', '930', '931', '934', '938', '939', '941', '943', '944', '948', '952', '955', '957', '958', '959', '960', '961', '964', '967', '971', '973', '978', '979', '981', '982', '983', '984', '985', '986', '987', '993', '994', '995', '998']",False,86400,True,2,bdf8c1ea60,0.0,1.0,1.0
./expes/v2_2021-04-05_issda-30_1000-prng-1-w86-p2_3d,30_issda-1000,1000,first-1000,500,50,rng,num-start-500,500,25726,classic,347.22947573661804,True,,True,1.0,1.0,1.0,1,"['2', '4', '5', '6', '8', '10', '11', '14', '19', '21', '24', '27', '28', '29', '33', '36', '37', '38', '42', '43', '44', '45', '46', '48', '53', '55', '57', '61', '62', '64', '68', '69', '70', '71', '77', '78', '79', '80', '81', '82', '84', '85', '88', '89', '91', '92', '93', '94', '96', '98', '100', '101', '104', '106', '109', '114', '116', '117', '118', '119', '120', '122', '124', '126', '131', '136', '137', '140', '143', '145', '146', '148', '149', '153', '154', '157', '159', '160', '161', '163', '166', '167', '169', '170', '172', '173', '174', '177', '179', '181', '182', '183', '184', '185', '187', '189', '193', '196', '197', '199', '200', '201', '203', '204', '206', '207', '208', '211', '213', '214', '216', '217', '220', '221', '224', '225', '227', '228', '235', '236', '238', '239', '240', '242', '244', '245', '248', '249', '252', '254', '255', '256', '257', '258', '260', '261', '264', '265', '266', '267', '268', '269', '275', '276', '279', '283', '284', '285', '287', '288', '291', '293', '296', '297', '298', '299', '300', '301', '304', '305', '307', '308', '310', '311', '313', '318', '319', '320', '321', '323', '329', '330', '331', '332', '333', '335', '338', '339', '340', '345', '346', '347', '349', '352', '356', '359', '365', '366', '368', '369', '371', '372', '373', '374', '375', '377', '381', '382', '391', '397', '398', '400', '402', '405', '406', '410', '411', '412', '413', '414', '416', '420', '421', '422', '423', '424', '426', '428', '431', '432', '433', '434', '435', '439', '441', '442', '444', '445', '447', '449', '450', '451', '452', '453', '455', '463', '465', '466', '470', '471', '474', '476', '479', '483', '484', '485', '489', '490', '491', '496', '499', '501', '502', '503', '504', '507', '508', '509', '511', '519', '521', '524', '525', '532', '533', '534', '536', '537', '539', '540', '541', '542', '543', '548', '550', '551', '554', '555', '557', '558', '559', '560', '561', '563', '564', '572', '575', '576', '579', '582', '583', '584', '586', '587', '588', '590', '597', '599', '603', '609', '610', '612', '614', '616', '619', '621', '622', '623', '625', '628', '630', '631', '633', '635', '636', '638', '639', '642', '643', '644', '646', '648', '650', '651', '653', '656', '657', '658', '662', '663', '664', '668', '669', '670', '671', '673', '677', '678', '684', '685', '688', '690', '692', '693', '694', '697', '703', '705', '710', '713', '715', '718', '721', '722', '724', '726', '728', '729', '733', '735', '739', '750', '753', '755', '763', '764', '765', '773', '774', '777', '779', '784', '786', '787', '789', '790', '791', '793', '794', '796', '797', '799', '802', '803', '804', '806', '807', '810', '813', '816', '817', '818', '819', '820', '821', '823', '824', '827', '829', '830', '833', '835', '838', '839', '846', '847', '848', '849', '850', '851', '852', '855', '857', '858', '860', '861', '866', '868', '869', '874', '876', '877', '879', '880', '881', '883', '885', '886', '887', '889', '891', '892', '895', '896', '898', '899', '900', '901', '902', '903', '904', '905', '907', '908', '911', '913', '914', '916', '918', '919', '921', '922', '923', '924', '926', '927', '930', '931', '933', '934', '935', '936', '938', '939', '940', '943', '945', '947', '948', '950', '951', '953', '958', '959', '960', '961', '963', '964', '965', '966', '967', '968', '971', '973', '974', '977', '978', '980', '983', '984', '985', '986', '988', '989', '990', '992', '993', '994', '995', '998']",False,86400,True,2,831bcca2d2,0.0,1.0,1.0
./expes/v2_2021-04-05_issda-30_1000-prng-1-w86-p2_3d,30_issda-1000,1000,first-1000,100,10,rng,num-start-900,900,25726,classic,154.21808743476868,True,,True,1.0,1.0,1.0,1,"['2', '15', '42', '64', '65', '76', '83', '94', '96', '98', '102', '104', '143', '144', '146', '151', '196', '210', '224', '228', '245', '250', '257', '266', '267', '289', '311', '318', '324', '328', '334', '339', '342', '363', '367', '395', '409', '415', '431', '445', '454', '459', '484', '489', '498', '506', '517', '524', '534', '546', '557', '562', '566', '574', '582', '598', '617', '626', '627', '634', '641', '656', '685', '701', '721', '723', '728', '737', '748', '774', '777', '803', '804', '819', '823', '825', '830', '845', '848', '850', '861', '865', '871', '887', '889', '892', '912', '914', '921', '924', '930', '932', '935', '938', '940', '941', '989', '990', '991', '992']",False,86400,True,2,91e5e962d6,0.0,1.0,1.0
./expes/v2_2021-04-05_issda-30_1000-prng-1-w86-p2_3d,30_issda-1000,1000,first-1000,400,40,rng,num-start-300,300,25726,classic,86419.56800532341,False,,False,0,,,0,"['2', '4', '5', '8', '12', '14', '16', '21', '22', '23', '28', '30', '32', '33', '34', '35', '36', '37', '44', '46', '47', '48', '51', '52', '53', '55', '57', '62', '63', '65', '66', '68', '69', '70', '71', '74', '79', '82', '88', '89', '91', '100', '105', '106', '107', '108', '111', '117', '122', '123', '124', '126', '127', '128', '129', '130', '131', '132', '133', '134', '135', '137', '138', '140', '142', '155', '156', '160', '161', '164', '168', '174', '176', '182', '183', '188', '190', '192', '196', '197', '203', '204', '205', '217', '223', '224', '227', '228', '230', '231', '233', '238', '240', '242', '244', '245', '246', '251', '255', '258', '259', '265', '266', '270', '271', '272', '274', '276', '278', '281', '286', '287', '292', '294', '296', '298', '299', '301', '306', '308', '309', '311', '312', '318', '321', '322', '323', '324', '328', '330', '331', '335', '336', '337', '339', '341', '342', '345', '348', '349', '350', '353', '354', '355', '360', '361', '362', '369', '370', '373', '375', '379', '386', '387', '390', '396', '397', '399', '400', '405', '407', '410', '418', '420', '421', '424', '426', '427', '430', '432', '434', '438', '439', '441', '442', '445', '446', '447', '448', '449', '456', '462', '468', '472', '476', '478', '481', '482', '485', '486', '488', '489', '493', '494', '495', '496', '500', '502', '507', '513', '515', '516', '518', '520', '523', '525', '528', '531', '532', '533', '534', '536', '538', '540', '543', '547', '548', '549', '550', '554', '555', '557', '558', '562', '563', '565', '569', '573', '581', '582', '583', '585', '586', '588', '589', '591', '594', '595', '599', '600', '601', '603', '604', '606', '607', '610', '615', '616', '619', '620', '621', '624', '626', '627', '630', '631', '633', '635', '636', '638', '641', '642', '643', '644', '648', '649', '650', '651', '655', '658', '660', '663', '666', '670', '672', '679', '688', '689', '692', '693', '695', '696', '698', '699', '701', '707', '711', '713', '715', '716', '724', '730', '731', '732', '733', '734', '735', '736', '737', '738', '741', '746', '753', '756', '760', '764', '766', '772', '775', '777', '780', '788', '791', '794', '796', '798', '799', '802', '806', '807', '808', '811', '813', '815', '820', '821', '823', '824', '826', '827', '830', '831', '832', '833', '837', '840', '844', '848', '852', '853', '854', '857', '858', '859', '865', '871', '875', '876', '877', '878', '879', '882', '883', '884', '885', '887', '888', '889', '891', '894', '900', '902', '903', '905', '907', '909', '911', '912', '919', '922', '926', '927', '931', '935', '938', '940', '943', '944', '945', '947', '949', '950', '952', '959', '962', '964', '966', '972', '973', '978', '981', '982', '984', '987', '988', '989', '995', '996', '997', '999']",True,86400,True,2,673be4ce93,0.0,0.0,0.0
