expe,clients,clients_size,clients_subset,agg_size,agg_size_pc,method,days,days_size,days_total,noise_method,time,valid,valid_sum,success,score_avg,score_min,score_max,nsols,oracle,wall_hit,wall_time,pooled,pool_size,uuid,infeasible,optimal,valid_sums
./expes/v2_2021-04-05_issda-30_1000-prng-1-w86-p2_3d,30_issda-1000,1000,first-1000,100,10,rng,num-start-700,700,25726,classic,89.83706140518188,True,,True,1.0,1.0,1.0,1,"['25', '29', '37', '58', '87', '94', '140', '163', '166', '169', '174', '178', '181', '182', '187', '218', '237', '242', '256', '258', '275', '286', '316', '327', '333', '363', '369', '370', '371', '373', '381', '390', '403', '410', '425', '434', '442', '456', '457', '466', '473', '477', '502', '511', '513', '515', '522', '523', '527', '528', '538', '539', '544', '558', '574', '596', '608', '621', '622', '654', '671', '678', '686', '691', '698', '733', '741', '753', '754', '757', '773', '782', '809', '816', '823', '829', '852', '856', '870', '875', '880', '881', '884', '892', '905', '906', '914', '916', '923', '929', '930', '931', '948', '955', '959', '971', '973', '978', '979', '985']",False,86400,True,2,a0b406f265,0.0,1.0,1.0
./expes/v2_2021-04-05_issda-30_1000-prng-1-w86-p2_3d,30_issda-1000,1000,first-1000,350,35,rng,num-start-900,900,25726,classic,168.25377130508423,True,,True,1.0,1.0,1.0,1,"['4', '8', '10', '11', '14', '19', '21', '27', '28', '33', '36', '37', '38', '42', '43', '44', '45', '46', '48', '53', '55', '57', '61', '62', '64', '69', '77', '80', '81', '82', '84', '85', '88', '89', '92', '93', '96', '100', '104', '106', '109', '116', '117', '119', '120', '126', '131', '140', '143', '146', '149', '154', '157', '159', '161', '163', '166', '169', '170', '172', '173', '174', '177', '182', '183', '189', '193', '196', '197', '199', '200', '201', '204', '206', '207', '208', '211', '213', '214', '216', '217', '220', '221', '224', '225', '228', '235', '238', '239', '242', '244', '248', '249', '254', '255', '256', '257', '260', '261', '264', '266', '267', '268', '269', '275', '276', '279', '283', '284', '285', '287', '288', '293', '296', '297', '298', '299', '300', '301', '304', '305', '308', '311', '313', '318', '320', '323', '329', '330', '331', '332', '333', '335', '339', '340', '345', '346', '347', '352', '356', '365', '366', '369', '372', '373', '374', '382', '391', '397', '398', '400', '402', '405', '406', '412', '413', '414', '420', '421', '423', '424', '428', '431', '432', '434', '435', '439', '441', '442', '447', '450', '451', '452', '455', '463', '465', '466', '471', '474', '476', '483', '484', '485', '490', '491', '501', '503', '504', '507', '509', '511', '519', '521', '532', '533', '536', '539', '540', '541', '542', '548', '550', '557', '560', '561', '563', '564', '572', '575', '576', '579', '583', '584', '586', '587', '597', '603', '609', '610', '614', '621', '622', '623', '625', '631', '633', '635', '636', '642', '643', '648', '650', '651', '657', '658', '663', '664', '668', '669', '670', '671', '673', '684', '685', '688', '690', '692', '694', '697', '703', '705', '713', '715', '718', '722', '726', '735', '739', '750', '753', '755', '763', '765', '784', '786', '787', '789', '791', '793', '794', '799', '802', '803', '804', '807', '810', '817', '818', '819', '820', '821', '824', '827', '830', '833', '835', '838', '839', '847', '848', '849', '851', '855', '858', '860', '861', '866', '869', '876', '877', '880', '883', '886', '887', '889', '891', '892', '895', '898', '899', '900', '901', '902', '904', '911', '913', '914', '916', '918', '921', '922', '923', '927', '931', '936', '938', '939', '940', '945', '947', '950', '951', '953', '958', '965', '966', '967', '968', '974', '978', '980', '983', '984', '985', '986', '988', '990', '992', '994', '995']",False,86400,True,2,94d23c1f07,0.0,1.0,1.0
./expes/v2_2021-04-05_issda-30_1000-prng-1-w86-p2_3d,30_issda-1000,1000,first-1000,400,40,rng,num-start-400,400,25726,classic,86424.98950958252,False,,False,0,,,0,"['2', '3', '6', '9', '10', '13', '15', '18', '19', '22', '23', '25', '27', '29', '30', '31', '32', '34', '36', '37', '39', '41', '42', '45', '47', '49', '58', '61', '65', '67', '72', '73', '75', '79', '84', '86', '87', '89', '94', '97', '99', '102', '103', '105', '107', '111', '112', '113', '117', '118', '121', '124', '129', '133', '134', '137', '138', '139', '150', '151', '161', '163', '164', '165', '168', '171', '172', '173', '174', '175', '176', '178', '182', '186', '190', '191', '193', '195', '199', '205', '206', '211', '215', '218', '219', '222', '223', '225', '226', '228', '229', '230', '231', '233', '235', '236', '237', '238', '239', '241', '249', '256', '259', '260', '262', '265', '273', '274', '275', '276', '280', '284', '288', '289', '291', '297', '298', '299', '302', '303', '304', '306', '311', '314', '316', '318', '320', '326', '329', '330', '334', '336', '340', '341', '347', '348', '349', '350', '352', '353', '354', '355', '356', '362', '366', '374', '376', '377', '380', '384', '388', '389', '390', '391', '393', '396', '400', '403', '404', '405', '407', '412', '414', '415', '417', '424', '425', '427', '432', '433', '437', '440', '443', '444', '449', '450', '457', '461', '462', '464', '466', '469', '470', '471', '472', '481', '484', '486', '492', '493', '497', '500', '501', '502', '505', '508', '509', '512', '513', '515', '517', '518', '519', '520', '521', '522', '523', '525', '527', '529', '532', '534', '537', '541', '546', '548', '552', '553', '554', '555', '558', '561', '562', '564', '565', '567', '568', '570', '575', '577', '578', '579', '580', '583', '584', '585', '588', '590', '592', '593', '594', '599', '602', '604', '605', '606', '608', '615', '619', '621', '623', '624', '627', '628', '629', '630', '638', '639', '640', '645', '646', '647', '651', '658', '663', '664', '665', '666', '668', '673', '676', '680', '681', '682', '687', '690', '691', '692', '694', '695', '703', '704', '712', '713', '720', '721', '722', '729', '733', '737', '739', '742', '743', '744', '747', '748', '751', '756', '759', '761', '762', '773', '774', '778', '780', '781', '783', '786', '787', '789', '790', '795', '797', '798', '799', '801', '802', '803', '806', '808', '816', '817', '818', '822', '823', '824', '829', '831', '833', '837', '840', '841', '848', '849', '850', '853', '856', '858', '861', '862', '867', '868', '869', '871', '872', '874', '878', '879', '880', '881', '882', '887', '889', '891', '893', '897', '900', '903', '904', '908', '909', '913', '915', '918', '919', '922', '923', '924', '932', '933', '937', '939', '940', '943', '945', '948', '949', '954', '955', '959', '961', '962', '964', '967', '968', '973', '975', '976', '978', '981', '983', '986', '989', '991', '992', '993', '997', '998', '999', '1000']",True,86400,True,2,30d089e113,0.0,0.0,0.0
