expe,clients,clients_size,clients_subset,agg_size,agg_size_pc,method,days,days_size,days_total,noise_method,time,valid,valid_sum,success,score_avg,score_min,score_max,nsols,oracle,wall_hit,wall_time,pooled,pool_size,uuid,infeasible,optimal,valid_sums
./expes/v2_2021-04-05_issda-30_1000-prng-1-w86-p2_3d,30_issda-1000,1000,first-1000,300,30,rng,num-start-500,500,25726,classic,337.53777146339417,True,,True,1.0,1.0,1.0,1,"['2', '5', '9', '19', '21', '22', '25', '26', '29', '32', '33', '35', '37', '38', '42', '45', '47', '51', '53', '58', '59', '61', '62', '70', '76', '78', '83', '85', '87', '90', '94', '96', '99', '103', '105', '108', '109', '114', '116', '118', '131', '135', '140', '144', '148', '155', '156', '158', '161', '163', '165', '166', '169', '171', '174', '175', '177', '178', '181', '182', '187', '189', '196', '213', '216', '218', '223', '228', '231', '233', '234', '237', '238', '239', '242', '247', '251', '253', '254', '256', '257', '258', '260', '262', '263', '266', '269', '271', '273', '275', '280', '286', '293', '311', '316', '317', '318', '320', '324', '327', '333', '336', '346', '350', '353', '360', '363', '369', '370', '371', '372', '373', '376', '381', '383', '390', '394', '395', '403', '410', '412', '417', '419', '425', '430', '434', '436', '442', '445', '456', '457', '459', '460', '465', '466', '468', '473', '476', '477', '485', '492', '499', '501', '502', '511', '513', '515', '517', '520', '521', '522', '523', '524', '525', '527', '528', '531', '534', '535', '536', '538', '539', '544', '549', '558', '565', '571', '572', '574', '576', '582', '589', '596', '599', '603', '604', '606', '608', '620', '621', '622', '631', '632', '637', '639', '640', '643', '651', '654', '658', '668', '669', '671', '675', '677', '678', '686', '687', '689', '691', '698', '699', '701', '702', '704', '709', '717', '723', '724', '726', '727', '732', '733', '735', '741', '742', '744', '747', '749', '753', '754', '757', '758', '761', '763', '766', '769', '773', '774', '778', '779', '782', '785', '792', '800', '804', '808', '809', '811', '814', '816', '819', '820', '823', '826', '829', '833', '835', '841', '845', '852', '856', '859', '870', '875', '880', '881', '884', '892', '896', '897', '898', '902', '903', '904', '905', '906', '914', '916', '920', '922', '923', '924', '925', '929', '930', '931', '934', '938', '939', '941', '943', '948', '955', '957', '959', '961', '964', '967', '971', '973', '978', '979', '981', '982', '983', '985', '987', '994', '995']",False,86400,True,2,75041ffc14,0.0,1.0,1.0
./expes/v2_2021-04-05_issda-30_1000-prng-1-w86-p2_3d,30_issda-1000,1000,first-1000,400,40,rng,num-start-700,700,25726,classic,153.54473733901978,True,,True,1.0,1.0,1.0,1,"['2', '4', '5', '8', '12', '14', '16', '21', '22', '23', '28', '30', '32', '33', '34', '35', '36', '37', '44', '46', '47', '48', '51', '52', '53', '55', '57', '62', '63', '65', '66', '68', '69', '70', '71', '74', '79', '82', '88', '89', '91', '100', '105', '106', '107', '108', '111', '117', '122', '123', '124', '126', '127', '128', '129', '130', '131', '132', '133', '134', '135', '137', '138', '140', '142', '155', '156', '160', '161', '164', '168', '174', '176', '182', '183', '188', '190', '192', '196', '197', '203', '204', '205', '217', '223', '224', '227', '228', '230', '231', '233', '238', '240', '242', '244', '245', '246', '251', '255', '258', '259', '265', '266', '270', '271', '272', '274', '276', '278', '281', '286', '287', '292', '294', '296', '298', '299', '301', '306', '308', '309', '311', '312', '318', '321', '322', '323', '324', '328', '330', '331', '335', '336', '337', '339', '341', '342', '345', '348', '349', '350', '353', '354', '355', '360', '361', '362', '369', '370', '373', '375', '379', '386', '387', '390', '396', '397', '399', '400', '405', '407', '410', '418', '420', '421', '424', '426', '427', '430', '432', '434', '438', '439', '441', '442', '445', '446', '447', '448', '449', '456', '462', '468', '472', '476', '478', '481', '482', '485', '486', '488', '489', '493', '494', '495', '496', '500', '502', '507', '513', '515', '516', '518', '520', '523', '525', '528', '531', '532', '533', '534', '536', '538', '540', '543', '547', '548', '549', '550', '554', '555', '557', '558', '562', '563', '565', '569', '573', '581', '582', '583', '585', '586', '588', '589', '591', '594', '595', '599', '600', '601', '603', '604', '606', '607', '610', '615', '616', '619', '620', '621', '624', '626', '627', '630', '631', '633', '635', '636', '638', '641', '642', '643', '644', '648', '649', '650', '651', '655', '658', '660', '663', '666', '670', '672', '679', '688', '689', '692', '693', '695', '696', '698', '699', '701', '707', '711', '713', '715', '716', '724', '730', '731', '732', '733', '734', '735', '736', '737', '738', '741', '746', '753', '756', '760', '764', '766', '772', '775', '777', '780', '788', '791', '794', '796', '798', '799', '802', '806', '807', '808', '811', '813', '815', '820', '821', '823', '824', '826', '827', '830', '831', '832', '833', '837', '840', '844', '848', '852', '853', '854', '857', '858', '859', '865', '871', '875', '876', '877', '878', '879', '882', '883', '884', '885', '887', '888', '889', '891', '894', '900', '902', '903', '905', '907', '909', '911', '912', '919', '922', '926', '927', '931', '935', '938', '940', '943', '944', '945', '947', '949', '950', '952', '959', '962', '964', '966', '972', '973', '978', '981', '982', '984', '987', '988', '989', '995', '996', '997', '999']",False,86400,True,2,1b6e0fa999,0.0,1.0,1.0
./expes/v2_2021-04-05_issda-30_1000-prng-1-w86-p2_3d,30_issda-1000,1000,first-1000,300,30,rng,num-start-200,200,25726,classic,86424.44721102715,False,,False,0,,,0,"['8', '10', '19', '21', '27', '33', '37', '38', '42', '44', '45', '46', '48', '53', '57', '61', '62', '64', '69', '77', '80', '84', '85', '89', '92', '93', '96', '100', '104', '106', '109', '117', '120', '126', '131', '140', '146', '149', '154', '157', '159', '163', '166', '169', '170', '172', '173', '174', '177', '182', '183', '189', '193', '196', '197', '199', '200', '201', '204', '206', '207', '208', '213', '214', '216', '220', '221', '224', '225', '228', '235', '238', '239', '242', '244', '248', '249', '254', '255', '256', '257', '260', '261', '266', '267', '268', '269', '275', '276', '279', '283', '284', '285', '287', '288', '293', '296', '297', '298', '299', '300', '301', '304', '308', '311', '313', '318', '320', '323', '329', '330', '331', '332', '333', '335', '340', '345', '346', '347', '352', '365', '366', '369', '372', '373', '374', '382', '391', '397', '398', '400', '402', '405', '406', '412', '413', '414', '420', '421', '423', '424', '428', '431', '432', '434', '435', '439', '441', '442', '447', '450', '452', '455', '463', '466', '471', '474', '476', '483', '484', '485', '490', '491', '503', '504', '507', '509', '511', '519', '521', '532', '533', '539', '541', '542', '548', '550', '560', '561', '563', '572', '579', '583', '584', '586', '587', '597', '603', '610', '614', '621', '622', '631', '633', '635', '636', '642', '643', '648', '650', '651', '657', '658', '663', '664', '668', '669', '670', '671', '673', '684', '685', '688', '690', '692', '694', '697', '703', '705', '715', '718', '722', '726', '735', '739', '750', '753', '755', '763', '765', '784', '786', '791', '793', '794', '799', '803', '810', '817', '818', '819', '820', '821', '824', '827', '833', '835', '838', '847', '849', '851', '855', '860', '861', '866', '869', '876', '877', '880', '883', '887', '889', '891', '892', '895', '902', '904', '911', '913', '916', '918', '921', '922', '923', '927', '931', '936', '939', '940', '945', '947', '950', '951', '953', '958', '965', '966', '967', '968', '978', '980', '983', '984', '985', '986', '988', '990', '992', '994', '995']",True,86400,True,2,9acf240377,0.0,0.0,0.0
