expe,clients,clients_size,clients_subset,agg_size,method,days,days_size,days_total,time,valid,valid_sum,success,nsols,wall_hit,wall_time,pooled,valid_sums
./expes/v2_2020-12-14_dh_1000-prng-1-holes,30_issda_1000,1000,rng-1000,601,rng,num-start-1201,1201,25726,234.83423709869385,True,,True,1,False,1000,True,1.0
./expes/v2_2020-12-14_dh_1000-prng-1-holes,30_issda_1000,1000,rng-1000,201,rng,num-start-1,1,25726,0.13145899772644043,False,,False,2,False,1000,True,1.0
./expes/v2_2020-12-14_dh_1000-prng-1-holes,30_issda_1000,1000,rng-1000,301,rng,num-start-401,401,25726,975.6627345085144,True,,True,1,False,1000,True,1.0
./expes/v2_2020-12-14_dh_1000-prng-1-holes,30_issda_1000,1000,rng-1000,701,rng,num-start-701,701,25726,135.30929923057556,True,,True,1,False,1000,True,1.0
./expes/v2_2020-12-14_dh_1000-prng-1-holes,30_issda_1000,1000,rng-1000,501,rng,num-start-1401,1401,25726,289.15470123291016,True,,True,1,False,1000,True,1.0
./expes/v2_2020-12-14_dh_1000-prng-1-holes,30_issda_1000,1000,rng-1000,201,rng,num-start-901,901,25726,169.2758686542511,True,,True,1,False,1000,True,1.0
./expes/v2_2020-12-14_dh_1000-prng-1-holes,30_issda_1000,1000,rng-1000,601,rng,num-start-1001,1001,25726,235.8113694190979,True,,True,1,False,1000,True,1.0
./expes/v2_2020-12-14_dh_1000-prng-1-holes,30_issda_1000,1000,rng-1000,101,rng,num-start-501,501,25726,103.07293725013733,True,,True,1,False,1000,True,1.0
./expes/v2_2020-12-14_dh_1000-prng-1-holes,30_issda_1000,1000,rng-1000,801,rng,num-start-1701,1701,25726,258.0628275871277,True,,True,1,False,1000,True,1.0
./expes/v2_2020-12-14_dh_1000-prng-1-holes,30_issda_1000,1000,rng-1000,1,rng,num-start-401,401,25726,25.05370593070984,True,,True,1,False,1000,True,1.0
./expes/v2_2020-12-14_dh_1000-prng-1-holes,30_issda_1000,1000,rng-1000,201,rng,num-start-1,1,25726,0.4043872356414795,False,,False,2,False,1000,True,1.0
./expes/v2_2020-12-14_dh_1000-prng-1-holes,30_issda_1000,1000,rng-1000,901,rng,num-start-1201,1201,25726,297.93305802345276,True,,True,1,False,1000,True,1.0
./expes/v2_2020-12-14_dh_1000-prng-1-holes,30_issda_1000,1000,rng-1000,401,rng,num-start-201,201,25726,1012.7337560653687,False,,False,0,True,1000,True,0.0
./expes/v2_2020-12-14_dh_1000-prng-1-holes,30_issda_1000,1000,rng-1000,201,rng,num-start-1901,1901,25726,398.5306785106659,True,,True,1,False,1000,True,1.0
./expes/v2_2020-12-14_dh_1000-prng-1-holes,30_issda_1000,1000,rng-1000,101,rng,num-start-1501,1501,25726,229.4398317337036,True,,True,1,False,1000,True,1.0
./expes/v2_2020-12-14_dh_1000-prng-1-holes,30_issda_1000,1000,rng-1000,101,rng,num-start-901,901,25726,112.58977198600769,True,,True,1,False,1000,True,1.0
./expes/v2_2020-12-14_dh_1000-prng-1-holes,30_issda_1000,1000,rng-1000,1,rng,num-start-301,301,25726,18.596395015716553,True,,True,1,False,1000,True,1.0
./expes/v2_2020-12-14_dh_1000-prng-1-holes,30_issda_1000,1000,rng-1000,801,rng,num-start-101,101,25726,1006.2585635185242,False,,False,0,True,1000,True,0.0
./expes/v2_2020-12-14_dh_1000-prng-1-holes,30_issda_1000,1000,rng-1000,401,rng,num-start-1201,1201,25726,247.90035343170166,True,,True,1,False,1000,True,1.0
./expes/v2_2020-12-14_dh_1000-prng-1-holes,30_issda_1000,1000,rng-1000,101,rng,num-start-1,1,25726,0.11128020286560059,False,,False,2,False,1000,True,1.0
./expes/v2_2020-12-14_dh_1000-prng-1-holes,30_issda_1000,1000,rng-1000,101,rng,num-start-501,501,25726,62.20791459083557,True,,True,1,False,1000,True,1.0
./expes/v2_2020-12-14_dh_1000-prng-1-holes,30_issda_1000,1000,rng-1000,301,rng,num-start-1401,1401,25726,264.151540517807,True,,True,1,False,1000,True,1.0
./expes/v2_2020-12-14_dh_1000-prng-1-holes,30_issda_1000,1000,rng-1000,801,rng,num-start-101,101,25726,1006.7018504142761,False,,False,0,True,1000,True,0.0
./expes/v2_2020-12-14_dh_1000-prng-1-holes,30_issda_1000,1000,rng-1000,601,rng,num-start-701,701,25726,200.1117296218872,True,,True,1,False,1000,True,1.0
./expes/v2_2020-12-14_dh_1000-prng-1-holes,30_issda_1000,1000,rng-1000,501,rng,num-start-701,701,25726,140.47345209121704,True,,True,1,False,1000,True,1.0
./expes/v2_2020-12-14_dh_1000-prng-1-holes,30_issda_1000,1000,rng-1000,801,rng,num-start-1401,1401,25726,232.66295337677002,True,,True,1,False,1000,True,1.0
./expes/v2_2020-12-14_dh_1000-prng-1-holes,30_issda_1000,1000,rng-1000,601,rng,num-start-1301,1301,25726,347.57096576690674,True,,True,1,False,1000,True,1.0
./expes/v2_2020-12-14_dh_1000-prng-1-holes,30_issda_1000,1000,rng-1000,901,rng,num-start-601,601,25726,89.27287888526917,True,,True,1,False,1000,True,1.0
./expes/v2_2020-12-14_dh_1000-prng-1-holes,30_issda_1000,1000,rng-1000,101,rng,num-start-1,1,25726,0.8805224895477295,False,,False,2,False,1000,True,1.0
./expes/v2_2020-12-14_dh_1000-prng-1-holes,30_issda_1000,1000,rng-1000,401,rng,num-start-501,501,25726,154.00632619857788,True,,True,1,False,1000,True,1.0
./expes/v2_2020-12-14_dh_1000-prng-1-holes,30_issda_1000,1000,rng-1000,201,rng,num-start-401,401,25726,73.58130884170532,True,,True,1,False,1000,True,1.0
./expes/v2_2020-12-14_dh_1000-prng-1-holes,30_issda_1000,1000,rng-1000,601,rng,num-start-801,801,25726,165.96286392211914,True,,True,1,False,1000,True,1.0
./expes/v2_2020-12-14_dh_1000-prng-1-holes,30_issda_1000,1000,rng-1000,301,rng,num-start-1801,1801,25726,360.5290849208832,True,,True,1,False,1000,True,1.0
./expes/v2_2020-12-14_dh_1000-prng-1-holes,30_issda_1000,1000,rng-1000,301,rng,num-start-1301,1301,25726,301.71497559547424,True,,True,1,False,1000,True,1.0
./expes/v2_2020-12-14_dh_1000-prng-1-holes,30_issda_1000,1000,rng-1000,601,rng,num-start-1601,1601,25726,304.4191360473633,True,,True,1,False,1000,True,1.0
./expes/v2_2020-12-14_dh_1000-prng-1-holes,30_issda_1000,1000,rng-1000,901,rng,num-start-1101,1101,25726,168.12535047531128,True,,True,1,False,1000,True,1.0
./expes/v2_2020-12-14_dh_1000-prng-1-holes,30_issda_1000,1000,rng-1000,1,rng,num-start-1201,1201,25726,73.90945339202881,True,,True,1,False,1000,True,1.0
./expes/v2_2020-12-14_dh_1000-prng-1-holes,30_issda_1000,1000,rng-1000,1,rng,num-start-801,801,25726,48.71214008331299,True,,True,1,False,1000,True,1.0
./expes/v2_2020-12-14_dh_1000-prng-1-holes,30_issda_1000,1000,rng-1000,201,rng,num-start-301,301,25726,1018.4774088859558,False,,False,0,True,1000,True,0.0
./expes/v2_2020-12-14_dh_1000-prng-1-holes,30_issda_1000,1000,rng-1000,401,rng,num-start-1901,1901,25726,577.131941318512,True,,True,1,False,1000,True,1.0
./expes/v2_2020-12-14_dh_1000-prng-1-holes,30_issda_1000,1000,rng-1000,201,rng,num-start-1801,1801,25726,321.15379214286804,True,,True,1,False,1000,True,1.0
./expes/v2_2020-12-14_dh_1000-prng-1-holes,30_issda_1000,1000,rng-1000,101,rng,num-start-1201,1201,25726,218.50907945632935,True,,True,1,False,1000,True,1.0
./expes/v2_2020-12-14_dh_1000-prng-1-holes,30_issda_1000,1000,rng-1000,401,rng,num-start-1401,1401,25726,267.4945032596588,True,,True,1,False,1000,True,1.0
./expes/v2_2020-12-14_dh_1000-prng-1-holes,30_issda_1000,1000,rng-1000,1,rng,num-start-101,101,25726,6.213017225265503,True,,True,1,False,1000,True,1.0
./expes/v2_2020-12-14_dh_1000-prng-1-holes,30_issda_1000,1000,rng-1000,301,rng,num-start-1801,1801,25726,350.7036762237549,True,,True,1,False,1000,True,1.0
./expes/v2_2020-12-14_dh_1000-prng-1-holes,30_issda_1000,1000,rng-1000,101,rng,num-start-1501,1501,25726,174.190260887146,True,,True,1,False,1000,True,1.0
./expes/v2_2020-12-14_dh_1000-prng-1-holes,30_issda_1000,1000,rng-1000,101,rng,num-start-1201,1201,25726,138.31312346458435,True,,True,1,False,1000,True,1.0
./expes/v2_2020-12-14_dh_1000-prng-1-holes,30_issda_1000,1000,rng-1000,1,rng,num-start-1001,1001,25726,64.51958107948303,True,,True,1,False,1000,True,1.0
./expes/v2_2020-12-14_dh_1000-prng-1-holes,30_issda_1000,1000,rng-1000,901,rng,num-start-1901,1901,25726,226.93180537223816,True,,True,1,False,1000,True,1.0
./expes/v2_2020-12-14_dh_1000-prng-1-holes,30_issda_1000,1000,rng-1000,401,rng,num-start-1401,1401,25726,287.0293002128601,True,,True,1,False,1000,True,1.0
./expes/v2_2020-12-14_dh_1000-prng-1-holes,30_issda_1000,1000,rng-1000,501,rng,num-start-1,1,25726,0.10783147811889648,False,,False,2,False,1000,True,1.0
./expes/v2_2020-12-14_dh_1000-prng-1-holes,30_issda_1000,1000,rng-1000,101,rng,num-start-501,501,25726,321.423663854599,True,,True,1,False,1000,True,1.0
./expes/v2_2020-12-14_dh_1000-prng-1-holes,30_issda_1000,1000,rng-1000,1,rng,num-start-1301,1301,25726,81.55129480361938,True,,True,1,False,1000,True,1.0
./expes/v2_2020-12-14_dh_1000-prng-1-holes,30_issda_1000,1000,rng-1000,301,rng,num-start-901,901,25726,172.49324750900269,True,,True,1,False,1000,True,1.0
./expes/v2_2020-12-14_dh_1000-prng-1-holes,30_issda_1000,1000,rng-1000,401,rng,num-start-1201,1201,25726,276.03595423698425,True,,True,1,False,1000,True,1.0
./expes/v2_2020-12-14_dh_1000-prng-1-holes,30_issda_1000,1000,rng-1000,501,rng,num-start-1201,1201,25726,312.39514422416687,True,,True,1,False,1000,True,1.0
./expes/v2_2020-12-14_dh_1000-prng-1-holes,30_issda_1000,1000,rng-1000,501,rng,num-start-301,301,25726,1019.2536156177521,False,,False,0,True,1000,True,0.0
./expes/v2_2020-12-14_dh_1000-prng-1-holes,30_issda_1000,1000,rng-1000,501,rng,num-start-301,301,25726,1019.6680734157562,False,,False,0,True,1000,True,0.0
./expes/v2_2020-12-14_dh_1000-prng-1-holes,30_issda_1000,1000,rng-1000,201,rng,num-start-701,701,25726,108.52327871322632,True,,True,1,False,1000,True,1.0
./expes/v2_2020-12-14_dh_1000-prng-1-holes,30_issda_1000,1000,rng-1000,1,rng,num-start-1101,1101,25726,69.15121603012085,True,,True,1,False,1000,True,1.0
./expes/v2_2020-12-14_dh_1000-prng-1-holes,30_issda_1000,1000,rng-1000,401,rng,num-start-901,901,25726,163.62743282318115,True,,True,1,False,1000,True,1.0
./expes/v2_2020-12-14_dh_1000-prng-1-holes,30_issda_1000,1000,rng-1000,701,rng,num-start-1901,1901,25726,386.3019189834595,True,,True,1,False,1000,True,1.0
./expes/v2_2020-12-14_dh_1000-prng-1-holes,30_issda_1000,1000,rng-1000,901,rng,num-start-401,401,25726,69.24436521530151,True,,True,1,False,1000,True,1.0
./expes/v2_2020-12-14_dh_1000-prng-1-holes,30_issda_1000,1000,rng-1000,501,rng,num-start-1001,1001,25726,196.05914759635925,True,,True,1,False,1000,True,1.0
./expes/v2_2020-12-14_dh_1000-prng-1-holes,30_issda_1000,1000,rng-1000,1,rng,num-start-601,601,25726,44.03380990028381,True,,True,1,False,1000,True,1.0
./expes/v2_2020-12-14_dh_1000-prng-1-holes,30_issda_1000,1000,rng-1000,801,rng,num-start-701,701,25726,115.50176072120667,True,,True,1,False,1000,True,1.0
./expes/v2_2020-12-14_dh_1000-prng-1-holes,30_issda_1000,1000,rng-1000,201,rng,num-start-1701,1701,25726,305.10284662246704,True,,True,1,False,1000,True,1.0
./expes/v2_2020-12-14_dh_1000-prng-1-holes,30_issda_1000,1000,rng-1000,501,rng,num-start-201,201,25726,1012.928472995758,False,,False,0,True,1000,True,0.0
./expes/v2_2020-12-14_dh_1000-prng-1-holes,30_issda_1000,1000,rng-1000,501,rng,num-start-401,401,25726,1025.3710894584656,False,,False,0,True,1000,True,0.0
