expe,clients,clients_size,clients_subset,agg_size,method,days,days_size,days_total,time,valid,valid_sum,success,nsols,wall_hit,wall_time,pooled,valid_sums
./expes/v2_2020-12-14_dh_1000-prng-1-holes,30_issda_1000,1000,rng-1000,201,rng,num-start-1501,1501,25726,314.10088777542114,True,,True,1,False,1000,True,1.0
./expes/v2_2020-12-14_dh_1000-prng-1-holes,30_issda_1000,1000,rng-1000,501,rng,num-start-1001,1001,25726,283.99910378456116,True,,True,1,False,1000,True,1.0
./expes/v2_2020-12-14_dh_1000-prng-1-holes,30_issda_1000,1000,rng-1000,601,rng,num-start-501,501,25726,152.1561017036438,True,,True,1,False,1000,True,1.0
./expes/v2_2020-12-14_dh_1000-prng-1-holes,30_issda_1000,1000,rng-1000,501,rng,num-start-701,701,25726,200.78843903541565,True,,True,1,False,1000,True,1.0
./expes/v2_2020-12-14_dh_1000-prng-1-holes,30_issda_1000,1000,rng-1000,801,rng,num-start-901,901,25726,156.10174441337585,True,,False,2,False,1000,True,1.0
./expes/v2_2020-12-14_dh_1000-prng-1-holes,30_issda_1000,1000,rng-1000,301,rng,num-start-601,601,25726,128.63679313659668,True,,True,1,False,1000,True,1.0
./expes/v2_2020-12-14_dh_1000-prng-1-holes,30_issda_1000,1000,rng-1000,301,rng,num-start-101,101,25726,1006.9573664665222,False,,False,0,True,1000,True,0.0
./expes/v2_2020-12-14_dh_1000-prng-1-holes,30_issda_1000,1000,rng-1000,201,rng,num-start-1801,1801,25726,402.62708735466003,True,,True,1,False,1000,True,1.0
./expes/v2_2020-12-14_dh_1000-prng-1-holes,30_issda_1000,1000,rng-1000,201,rng,num-start-601,601,25726,142.69570803642273,True,,True,1,False,1000,True,1.0
./expes/v2_2020-12-14_dh_1000-prng-1-holes,30_issda_1000,1000,rng-1000,501,rng,num-start-1401,1401,25726,416.91832208633423,True,,True,1,False,1000,True,1.0
./expes/v2_2020-12-14_dh_1000-prng-1-holes,30_issda_1000,1000,rng-1000,701,rng,num-start-401,401,25726,654.5361423492432,True,,True,1,False,1000,True,1.0
./expes/v2_2020-12-14_dh_1000-prng-1-holes,30_issda_1000,1000,rng-1000,101,rng,num-start-1601,1601,25726,291.3001379966736,True,,True,1,False,1000,True,1.0
./expes/v2_2020-12-14_dh_1000-prng-1-holes,30_issda_1000,1000,rng-1000,601,rng,num-start-1901,1901,25726,462.2588880062103,True,,True,1,False,1000,True,1.0
./expes/v2_2020-12-14_dh_1000-prng-1-holes,30_issda_1000,1000,rng-1000,701,rng,num-start-401,401,25726,1027.6691799163818,False,,False,0,True,1000,True,0.0
./expes/v2_2020-12-14_dh_1000-prng-1-holes,30_issda_1000,1000,rng-1000,801,rng,num-start-1601,1601,25726,397.3291845321655,True,,True,1,False,1000,True,1.0
./expes/v2_2020-12-14_dh_1000-prng-1-holes,30_issda_1000,1000,rng-1000,601,rng,num-start-1301,1301,25726,438.1392710208893,True,,True,1,False,1000,True,1.0
./expes/v2_2020-12-14_dh_1000-prng-1-holes,30_issda_1000,1000,rng-1000,1,rng,num-start-801,801,25726,59.38912916183472,True,,True,1,False,1000,True,1.0
./expes/v2_2020-12-14_dh_1000-prng-1-holes,30_issda_1000,1000,rng-1000,401,rng,num-start-1101,1101,25726,279.770015001297,True,,True,1,False,1000,True,1.0
./expes/v2_2020-12-14_dh_1000-prng-1-holes,30_issda_1000,1000,rng-1000,901,rng,num-start-1701,1701,25726,298.71022272109985,True,,True,1,False,1000,True,1.0
./expes/v2_2020-12-14_dh_1000-prng-1-holes,30_issda_1000,1000,rng-1000,301,rng,num-start-701,701,25726,192.71882963180542,True,,True,1,False,1000,True,1.0
./expes/v2_2020-12-14_dh_1000-prng-1-holes,30_issda_1000,1000,rng-1000,201,rng,num-start-1201,1201,25726,282.69276213645935,True,,True,1,False,1000,True,1.0
./expes/v2_2020-12-14_dh_1000-prng-1-holes,30_issda_1000,1000,rng-1000,801,rng,num-start-1601,1601,25726,432.44968938827515,True,,True,1,False,1000,True,1.0
./expes/v2_2020-12-14_dh_1000-prng-1-holes,30_issda_1000,1000,rng-1000,801,rng,num-start-101,101,25726,1008.7371520996094,False,,False,0,True,1000,True,0.0
./expes/v2_2020-12-14_dh_1000-prng-1-holes,30_issda_1000,1000,rng-1000,101,rng,num-start-901,901,25726,142.3808696269989,True,,True,1,False,1000,True,1.0
./expes/v2_2020-12-14_dh_1000-prng-1-holes,30_issda_1000,1000,rng-1000,501,rng,num-start-801,801,25726,276.0667543411255,True,,True,1,False,1000,True,1.0
./expes/v2_2020-12-14_dh_1000-prng-1-holes,30_issda_1000,1000,rng-1000,701,rng,num-start-1201,1201,25726,325.55344223976135,True,,True,1,False,1000,True,1.0
./expes/v2_2020-12-14_dh_1000-prng-1-holes,30_issda_1000,1000,rng-1000,1,rng,num-start-1801,1801,25726,123.62022066116333,True,,True,1,False,1000,True,1.0
./expes/v2_2020-12-14_dh_1000-prng-1-holes,30_issda_1000,1000,rng-1000,401,rng,num-start-1601,1601,25726,434.51815605163574,True,,True,1,False,1000,True,1.0
./expes/v2_2020-12-14_dh_1000-prng-1-holes,30_issda_1000,1000,rng-1000,101,rng,num-start-1001,1001,25726,224.18974781036377,True,,True,1,False,1000,True,1.0
./expes/v2_2020-12-14_dh_1000-prng-1-holes,30_issda_1000,1000,rng-1000,401,rng,num-start-201,201,25726,1014.0071363449097,False,,False,0,True,1000,True,0.0
./expes/v2_2020-12-14_dh_1000-prng-1-holes,30_issda_1000,1000,rng-1000,901,rng,num-start-901,901,25726,179.90327835083008,True,,True,1,False,1000,True,1.0
./expes/v2_2020-12-14_dh_1000-prng-1-holes,30_issda_1000,1000,rng-1000,401,rng,num-start-1801,1801,25726,664.5327668190002,True,,True,1,False,1000,True,1.0
./expes/v2_2020-12-14_dh_1000-prng-1-holes,30_issda_1000,1000,rng-1000,201,rng,num-start-701,701,25726,179.367329120636,True,,True,1,False,1000,True,1.0
./expes/v2_2020-12-14_dh_1000-prng-1-holes,30_issda_1000,1000,rng-1000,801,rng,num-start-1901,1901,25726,376.0062985420227,True,,True,1,False,1000,True,1.0
./expes/v2_2020-12-14_dh_1000-prng-1-holes,30_issda_1000,1000,rng-1000,801,rng,num-start-501,501,25726,124.64459013938904,True,,True,1,False,1000,True,1.0
./expes/v2_2020-12-14_dh_1000-prng-1-holes,30_issda_1000,1000,rng-1000,101,rng,num-start-801,801,25726,123.62167501449585,True,,True,1,False,1000,True,1.0
./expes/v2_2020-12-14_dh_1000-prng-1-holes,30_issda_1000,1000,rng-1000,601,rng,num-start-301,301,25726,1020.959484577179,False,,False,0,True,1000,True,0.0
./expes/v2_2020-12-14_dh_1000-prng-1-holes,30_issda_1000,1000,rng-1000,901,rng,num-start-1701,1701,25726,512.7321133613586,True,,True,1,False,1000,True,1.0
./expes/v2_2020-12-14_dh_1000-prng-1-holes,30_issda_1000,1000,rng-1000,1,rng,num-start-1201,1201,25726,84.49275231361389,True,,True,1,False,1000,True,1.0
./expes/v2_2020-12-14_dh_1000-prng-1-holes,30_issda_1000,1000,rng-1000,301,rng,num-start-1701,1701,25726,485.09991455078125,True,,True,1,False,1000,True,1.0
./expes/v2_2020-12-14_dh_1000-prng-1-holes,30_issda_1000,1000,rng-1000,1,rng,num-start-1101,1101,25726,75.9491319656372,True,,True,1,False,1000,True,1.0
./expes/v2_2020-12-14_dh_1000-prng-1-holes,30_issda_1000,1000,rng-1000,501,rng,num-start-601,601,25726,147.18364024162292,True,,True,1,False,1000,True,1.0
./expes/v2_2020-12-14_dh_1000-prng-1-holes,30_issda_1000,1000,rng-1000,501,rng,num-start-701,701,25726,243.4723618030548,True,,True,1,False,1000,True,1.0
./expes/v2_2020-12-14_dh_1000-prng-1-holes,30_issda_1000,1000,rng-1000,501,rng,num-start-401,401,25726,1027.6913440227509,False,,False,0,True,1000,True,0.0
./expes/v2_2020-12-14_dh_1000-prng-1-holes,30_issda_1000,1000,rng-1000,201,rng,num-start-1401,1401,25726,315.8069386482239,True,,True,1,False,1000,True,1.0
./expes/v2_2020-12-14_dh_1000-prng-1-holes,30_issda_1000,1000,rng-1000,801,rng,num-start-701,701,25726,143.99697399139404,False,,False,2,False,1000,True,1.0
./expes/v2_2020-12-14_dh_1000-prng-1-holes,30_issda_1000,1000,rng-1000,1,rng,num-start-1,1,25726,0.13379287719726562,True,,False,2,False,1000,True,1.0
./expes/v2_2020-12-14_dh_1000-prng-1-holes,30_issda_1000,1000,rng-1000,501,rng,num-start-101,101,25726,1007.2766809463501,False,,False,0,True,1000,True,0.0
./expes/v2_2020-12-14_dh_1000-prng-1-holes,30_issda_1000,1000,rng-1000,701,rng,num-start-1,1,25726,0.10859251022338867,False,,False,2,False,1000,True,1.0
./expes/v2_2020-12-14_dh_1000-prng-1-holes,30_issda_1000,1000,rng-1000,701,rng,num-start-1901,1901,25726,437.2509379386902,True,,True,1,False,1000,True,1.0
./expes/v2_2020-12-14_dh_1000-prng-1-holes,30_issda_1000,1000,rng-1000,801,rng,num-start-1001,1001,25726,258.60252809524536,True,,True,1,False,1000,True,1.0
./expes/v2_2020-12-14_dh_1000-prng-1-holes,30_issda_1000,1000,rng-1000,401,rng,num-start-301,301,25726,1021.450201511383,False,,False,0,True,1000,True,0.0
