expe,clients,clients_size,clients_subset,agg_size,method,days,days_size,days_total,time,valid,valid_sum,success,nsols,wall_hit,wall_time,pooled,valid_sums
./expes/v2_2020-12-02_dh_200-prng-1,30_issda_200,200,rng-200,151,rng,num-start-11001,11001,25726,186.01066637039185,True,,True,1,False,1000,True,1.0
./expes/v2_2020-12-02_dh_200-prng-1,30_issda_200,200,rng-200,51,rng,num-start-8001,8001,25726,125.79586982727051,True,,True,1,False,1000,True,1.0
./expes/v2_2020-12-02_dh_200-prng-1,30_issda_200,200,rng-200,91,rng,num-start-7001,7001,25726,155.35282969474792,True,,True,1,False,1000,True,1.0
./expes/v2_2020-12-02_dh_200-prng-1,30_issda_200,200,rng-200,21,rng,num-start-9001,9001,25726,141.6489772796631,True,,True,1,False,1000,True,1.0
./expes/v2_2020-12-02_dh_200-prng-1,30_issda_200,200,rng-200,31,rng,num-start-2001,2001,25726,40.84016752243042,True,,True,1,False,1000,True,1.0
./expes/v2_2020-12-02_dh_200-prng-1,30_issda_200,200,rng-200,61,rng,num-start-4001,4001,25726,66.10251474380493,True,,True,1,False,1000,True,1.0
./expes/v2_2020-12-02_dh_200-prng-1,30_issda_200,200,rng-200,141,rng,num-start-11001,11001,25726,198.8632528781891,True,,True,1,False,1000,True,1.0
./expes/v2_2020-12-02_dh_200-prng-1,30_issda_200,200,rng-200,11,rng,num-start-8001,8001,25726,97.04814434051514,True,,True,1,False,1000,True,1.0
./expes/v2_2020-12-02_dh_200-prng-1,30_issda_200,200,rng-200,51,rng,num-start-4001,4001,25726,62.11519932746887,True,,True,1,False,1000,True,1.0
./expes/v2_2020-12-02_dh_200-prng-1,30_issda_200,200,rng-200,51,rng,num-start-4001,4001,25726,70.60007810592651,True,,True,1,False,1000,True,1.0
./expes/v2_2020-12-02_dh_200-prng-1,30_issda_200,200,rng-200,41,rng,num-start-3001,3001,25726,49.62631297111511,True,,True,1,False,1000,True,1.0
./expes/v2_2020-12-02_dh_200-prng-1,30_issda_200,200,rng-200,91,rng,num-start-15001,15001,25726,280.99796652793884,True,,True,1,False,1000,True,1.0
./expes/v2_2020-12-02_dh_200-prng-1,30_issda_200,200,rng-200,41,rng,num-start-2001,2001,25726,35.208837032318115,True,,True,1,False,1000,True,1.0
./expes/v2_2020-12-02_dh_200-prng-1,30_issda_200,200,rng-200,181,rng,num-start-15001,15001,25726,220.29406690597534,True,,True,1,False,1000,True,1.0
./expes/v2_2020-12-02_dh_200-prng-1,30_issda_200,200,rng-200,141,rng,num-start-4001,4001,25726,75.8926796913147,True,,True,1,False,1000,True,1.0
./expes/v2_2020-12-02_dh_200-prng-1,30_issda_200,200,rng-200,1,rng,num-start-6001,6001,25726,73.69868469238281,True,,True,1,False,1000,True,1.0
./expes/v2_2020-12-02_dh_200-prng-1,30_issda_200,200,rng-200,91,rng,num-start-9001,9001,25726,147.30127882957458,True,,True,1,False,1000,True,1.0
./expes/v2_2020-12-02_dh_200-prng-1,30_issda_200,200,rng-200,151,rng,num-start-16001,16001,25726,381.8390498161316,True,,True,1,False,1000,True,1.0
./expes/v2_2020-12-02_dh_200-prng-1,30_issda_200,200,rng-200,161,rng,num-start-12001,12001,25726,197.8078408241272,True,,True,1,False,1000,True,1.0
./expes/v2_2020-12-02_dh_200-prng-1,30_issda_200,200,rng-200,41,rng,num-start-12001,12001,25726,234.90357542037964,True,,True,1,False,1000,True,1.0
./expes/v2_2020-12-02_dh_200-prng-1,30_issda_200,200,rng-200,11,rng,num-start-1,1,25726,0.05500173568725586,False,,False,2,False,1000,True,1.0
./expes/v2_2020-12-02_dh_200-prng-1,30_issda_200,200,rng-200,41,rng,num-start-16001,16001,25726,236.83829951286316,True,,True,1,False,1000,True,1.0
./expes/v2_2020-12-02_dh_200-prng-1,30_issda_200,200,rng-200,1,rng,num-start-9001,9001,25726,108.45361828804016,True,,True,1,False,1000,True,1.0
./expes/v2_2020-12-02_dh_200-prng-1,30_issda_200,200,rng-200,61,rng,num-start-14001,14001,25726,220.5176076889038,True,,True,1,False,1000,True,1.0
./expes/v2_2020-12-02_dh_200-prng-1,30_issda_200,200,rng-200,151,rng,num-start-16001,16001,25726,286.705442905426,True,,True,1,False,1000,True,1.0
./expes/v2_2020-12-02_dh_200-prng-1,30_issda_200,200,rng-200,81,rng,num-start-1001,1001,25726,17.39305853843689,True,,True,1,False,1000,True,1.0
./expes/v2_2020-12-02_dh_200-prng-1,30_issda_200,200,rng-200,171,rng,num-start-1,1,25726,0.043792009353637695,False,,False,2,False,1000,True,1.0
./expes/v2_2020-12-02_dh_200-prng-1,30_issda_200,200,rng-200,161,rng,num-start-11001,11001,25726,206.25179600715637,True,,True,1,False,1000,True,1.0
./expes/v2_2020-12-02_dh_200-prng-1,30_issda_200,200,rng-200,31,rng,num-start-6001,6001,25726,88.85441780090332,True,,True,1,False,1000,True,1.0
./expes/v2_2020-12-02_dh_200-prng-1,30_issda_200,200,rng-200,11,rng,num-start-1,1,25726,0.04824066162109375,False,,False,2,False,1000,True,1.0
./expes/v2_2020-12-02_dh_200-prng-1,30_issda_200,200,rng-200,191,rng,num-start-10001,10001,25726,120.68723940849304,True,,True,1,False,1000,True,1.0
./expes/v2_2020-12-02_dh_200-prng-1,30_issda_200,200,rng-200,131,rng,num-start-9001,9001,25726,185.8858766555786,True,,True,1,False,1000,True,1.0
./expes/v2_2020-12-02_dh_200-prng-1,30_issda_200,200,rng-200,131,rng,num-start-11001,11001,25726,180.84055352210999,True,,True,1,False,1000,True,1.0
./expes/v2_2020-12-02_dh_200-prng-1,30_issda_200,200,rng-200,31,rng,num-start-6001,6001,25726,87.74091529846191,True,,True,1,False,1000,True,1.0
./expes/v2_2020-12-02_dh_200-prng-1,30_issda_200,200,rng-200,51,rng,num-start-8001,8001,25726,117.45391345024109,True,,True,1,False,1000,True,1.0
./expes/v2_2020-12-02_dh_200-prng-1,30_issda_200,200,rng-200,131,rng,num-start-13001,13001,25726,242.97674560546875,True,,True,1,False,1000,True,1.0
./expes/v2_2020-12-02_dh_200-prng-1,30_issda_200,200,rng-200,71,rng,num-start-5001,5001,25726,80.50698256492615,True,,True,1,False,1000,True,1.0
./expes/v2_2020-12-02_dh_200-prng-1,30_issda_200,200,rng-200,61,rng,num-start-4001,4001,25726,66.51802349090576,True,,True,1,False,1000,True,1.0
./expes/v2_2020-12-02_dh_200-prng-1,30_issda_200,200,rng-200,61,rng,num-start-11001,11001,25726,204.09126734733582,True,,True,1,False,1000,True,1.0
./expes/v2_2020-12-02_dh_200-prng-1,30_issda_200,200,rng-200,151,rng,num-start-15001,15001,25726,255.45778465270996,True,,True,1,False,1000,True,1.0
./expes/v2_2020-12-02_dh_200-prng-1,30_issda_200,200,rng-200,101,rng,num-start-1,1,25726,0.0896308422088623,False,,False,2,False,1000,True,1.0
./expes/v2_2020-12-02_dh_200-prng-1,30_issda_200,200,rng-200,61,rng,num-start-8001,8001,25726,162.47849583625793,True,,True,1,False,1000,True,1.0
./expes/v2_2020-12-02_dh_200-prng-1,30_issda_200,200,rng-200,171,rng,num-start-15001,15001,25726,212.0391583442688,True,,True,1,False,1000,True,1.0
./expes/v2_2020-12-02_dh_200-prng-1,30_issda_200,200,rng-200,131,rng,num-start-4001,4001,25726,75.55863618850708,True,,True,1,False,1000,True,1.0
./expes/v2_2020-12-02_dh_200-prng-1,30_issda_200,200,rng-200,1,rng,num-start-11001,11001,25726,134.00574588775635,True,,True,1,False,1000,True,1.0
./expes/v2_2020-12-02_dh_200-prng-1,30_issda_200,200,rng-200,51,rng,num-start-8001,8001,25726,145.68767619132996,True,,True,1,False,1000,True,1.0
./expes/v2_2020-12-02_dh_200-prng-1,30_issda_200,200,rng-200,81,rng,num-start-6001,6001,25726,116.91037678718567,True,,True,1,False,1000,True,1.0
./expes/v2_2020-12-02_dh_200-prng-1,30_issda_200,200,rng-200,141,rng,num-start-3001,3001,25726,48.57125210762024,True,,True,1,False,1000,True,1.0
./expes/v2_2020-12-02_dh_200-prng-1,30_issda_200,200,rng-200,31,rng,num-start-8001,8001,25726,121.60125803947449,True,,True,1,False,1000,True,1.0
./expes/v2_2020-12-02_dh_200-prng-1,30_issda_200,200,rng-200,91,rng,num-start-3001,3001,25726,41.8079948425293,True,,True,1,False,1000,True,1.0
./expes/v2_2020-12-02_dh_200-prng-1,30_issda_200,200,rng-200,61,rng,num-start-15001,15001,25726,221.84898734092712,True,,True,1,False,1000,True,1.0
./expes/v2_2020-12-02_dh_200-prng-1,30_issda_200,200,rng-200,81,rng,num-start-9001,9001,25726,155.3593089580536,True,,True,1,False,1000,True,1.0
./expes/v2_2020-12-02_dh_200-prng-1,30_issda_200,200,rng-200,41,rng,num-start-14001,14001,25726,211.17573356628418,True,,True,1,False,1000,True,1.0
./expes/v2_2020-12-02_dh_200-prng-1,30_issda_200,200,rng-200,11,rng,num-start-5001,5001,25726,65.36283898353577,True,,True,1,False,1000,True,1.0
./expes/v2_2020-12-02_dh_200-prng-1,30_issda_200,200,rng-200,21,rng,num-start-6001,6001,25726,84.92536091804504,True,,True,1,False,1000,True,1.0
./expes/v2_2020-12-02_dh_200-prng-1,30_issda_200,200,rng-200,91,rng,num-start-4001,4001,25726,72.48165845870972,True,,True,1,False,1000,True,1.0
./expes/v2_2020-12-02_dh_200-prng-1,30_issda_200,200,rng-200,1,rng,num-start-11001,11001,25726,133.9981894493103,True,,True,1,False,1000,True,1.0
./expes/v2_2020-12-02_dh_200-prng-1,30_issda_200,200,rng-200,1,rng,num-start-5001,5001,25726,61.05424761772156,True,,True,1,False,1000,True,1.0
./expes/v2_2020-12-02_dh_200-prng-1,30_issda_200,200,rng-200,31,rng,num-start-9001,9001,25726,224.22528719902039,True,,True,1,False,1000,True,1.0
./expes/v2_2020-12-02_dh_200-prng-1,30_issda_200,200,rng-200,181,rng,num-start-13001,13001,25726,173.25681734085083,True,,True,1,False,1000,True,1.0
./expes/v2_2020-12-02_dh_200-prng-1,30_issda_200,200,rng-200,191,rng,num-start-14001,14001,25726,175.5083930492401,True,,True,1,False,1000,True,1.0
./expes/v2_2020-12-02_dh_200-prng-1,30_issda_200,200,rng-200,71,rng,num-start-6001,6001,25726,102.22775435447693,True,,True,1,False,1000,True,1.0
./expes/v2_2020-12-02_dh_200-prng-1,30_issda_200,200,rng-200,11,rng,num-start-5001,5001,25726,80.63923716545105,True,,True,1,False,1000,True,1.0
./expes/v2_2020-12-02_dh_200-prng-1,30_issda_200,200,rng-200,91,rng,num-start-8001,8001,25726,189.88757228851318,True,,True,1,False,1000,True,1.0
./expes/v2_2020-12-02_dh_200-prng-1,30_issda_200,200,rng-200,21,rng,num-start-2001,2001,25726,33.01777648925781,True,,True,1,False,1000,True,1.0
./expes/v2_2020-12-02_dh_200-prng-1,30_issda_200,200,rng-200,11,rng,num-start-12001,12001,25726,148.84400177001953,True,,True,1,False,1000,True,1.0
./expes/v2_2020-12-02_dh_200-prng-1,30_issda_200,200,rng-200,171,rng,num-start-1001,1001,25726,15.980778932571411,True,,True,1,False,1000,True,1.0
./expes/v2_2020-12-02_dh_200-prng-1,30_issda_200,200,rng-200,151,rng,num-start-1001,1001,25726,15.82139539718628,True,,True,1,False,1000,True,1.0
./expes/v2_2020-12-02_dh_200-prng-1,30_issda_200,200,rng-200,51,rng,num-start-14001,14001,25726,232.38436913490295,True,,True,1,False,1000,True,1.0
./expes/v2_2020-12-02_dh_200-prng-1,30_issda_200,200,rng-200,121,rng,num-start-2001,2001,25726,36.50625443458557,True,,True,1,False,1000,True,1.0
./expes/v2_2020-12-02_dh_200-prng-1,30_issda_200,200,rng-200,61,rng,num-start-3001,3001,25726,55.72024154663086,True,,True,1,False,1000,True,1.0
./expes/v2_2020-12-02_dh_200-prng-1,30_issda_200,200,rng-200,161,rng,num-start-10001,10001,25726,175.38870477676392,True,,True,1,False,1000,True,1.0
./expes/v2_2020-12-02_dh_200-prng-1,30_issda_200,200,rng-200,21,rng,num-start-14001,14001,25726,232.1253592967987,True,,True,1,False,1000,True,1.0
./expes/v2_2020-12-02_dh_200-prng-1,30_issda_200,200,rng-200,81,rng,num-start-5001,5001,25726,79.86584734916687,True,,True,1,False,1000,True,1.0
./expes/v2_2020-12-02_dh_200-prng-1,30_issda_200,200,rng-200,31,rng,num-start-12001,12001,25726,199.8499686717987,True,,True,1,False,1000,True,1.0
./expes/v2_2020-12-02_dh_200-prng-1,30_issda_200,200,rng-200,191,rng,num-start-1,1,25726,0.05792593955993652,False,,False,2,False,1000,True,1.0
./expes/v2_2020-12-02_dh_200-prng-1,30_issda_200,200,rng-200,41,rng,num-start-11001,11001,25726,223.9173514842987,True,,True,1,False,1000,True,1.0
./expes/v2_2020-12-02_dh_200-prng-1,30_issda_200,200,rng-200,51,rng,num-start-10001,10001,25726,160.17436504364014,True,,True,1,False,1000,True,1.0
./expes/v2_2020-12-02_dh_200-prng-1,30_issda_200,200,rng-200,171,rng,num-start-8001,8001,25726,131.28818559646606,True,,True,1,False,1000,True,1.0
./expes/v2_2020-12-02_dh_200-prng-1,30_issda_200,200,rng-200,61,rng,num-start-13001,13001,25726,218.30768299102783,True,,True,1,False,1000,True,1.0
./expes/v2_2020-12-02_dh_200-prng-1,30_issda_200,200,rng-200,41,rng,num-start-1,1,25726,0.06772518157958984,False,,False,2,False,1000,True,1.0
./expes/v2_2020-12-02_dh_200-prng-1,30_issda_200,200,rng-200,171,rng,num-start-13001,13001,25726,190.92408657073975,True,,True,1,False,1000,True,1.0
./expes/v2_2020-12-02_dh_200-prng-1,30_issda_200,200,rng-200,191,rng,num-start-13001,13001,25726,154.9826636314392,True,,True,1,False,1000,True,1.0
./expes/v2_2020-12-02_dh_200-prng-1,30_issda_200,200,rng-200,171,rng,num-start-14001,14001,25726,226.89067912101746,True,,True,1,False,1000,True,1.0
./expes/v2_2020-12-02_dh_200-prng-1,30_issda_200,200,rng-200,101,rng,num-start-3001,3001,25726,45.29622006416321,True,,True,1,False,1000,True,1.0
./expes/v2_2020-12-02_dh_200-prng-1,30_issda_200,200,rng-200,181,rng,num-start-12001,12001,25726,206.35755324363708,True,,True,1,False,1000,True,1.0
./expes/v2_2020-12-02_dh_200-prng-1,30_issda_200,200,rng-200,71,rng,num-start-1001,1001,25726,15.109882593154907,True,,True,1,False,1000,True,1.0
./expes/v2_2020-12-02_dh_200-prng-1,30_issda_200,200,rng-200,191,rng,num-start-6001,6001,25726,76.1735520362854,True,,True,1,False,1000,True,1.0
./expes/v2_2020-12-02_dh_200-prng-1,30_issda_200,200,rng-200,111,rng,num-start-7001,7001,25726,124.18411183357239,True,,True,1,False,1000,True,1.0
./expes/v2_2020-12-02_dh_200-prng-1,30_issda_200,200,rng-200,151,rng,num-start-13001,13001,25726,203.45488047599792,True,,True,1,False,1000,True,1.0
./expes/v2_2020-12-02_dh_200-prng-1,30_issda_200,200,rng-200,161,rng,num-start-4001,4001,25726,59.08512020111084,True,,True,1,False,1000,True,1.0
./expes/v2_2020-12-02_dh_200-prng-1,30_issda_200,200,rng-200,1,rng,num-start-12001,12001,25726,146.00987267494202,True,,True,1,False,1000,True,1.0
./expes/v2_2020-12-02_dh_200-prng-1,30_issda_200,200,rng-200,41,rng,num-start-8001,8001,25726,118.70514750480652,True,,True,1,False,1000,True,1.0
./expes/v2_2020-12-02_dh_200-prng-1,30_issda_200,200,rng-200,11,rng,num-start-15001,15001,25726,182.74908685684204,True,,True,1,False,1000,True,1.0
./expes/v2_2020-12-02_dh_200-prng-1,30_issda_200,200,rng-200,181,rng,num-start-3001,3001,25726,39.51076698303223,True,,True,1,False,1000,True,1.0
./expes/v2_2020-12-02_dh_200-prng-1,30_issda_200,200,rng-200,81,rng,num-start-12001,12001,25726,199.4430592060089,True,,True,1,False,1000,True,1.0
./expes/v2_2020-12-02_dh_200-prng-1,30_issda_200,200,rng-200,21,rng,num-start-4001,4001,25726,62.36397671699524,True,,True,1,False,1000,True,1.0
./expes/v2_2020-12-02_dh_200-prng-1,30_issda_200,200,rng-200,101,rng,num-start-8001,8001,25726,146.31818532943726,True,,True,1,False,1000,True,1.0
./expes/v2_2020-12-02_dh_200-prng-1,30_issda_200,200,rng-200,61,rng,num-start-11001,11001,25726,185.58100819587708,True,,True,1,False,1000,True,1.0
./expes/v2_2020-12-02_dh_200-prng-1,30_issda_200,200,rng-200,151,rng,num-start-15001,15001,25726,288.58455204963684,True,,True,1,False,1000,True,1.0
./expes/v2_2020-12-02_dh_200-prng-1,30_issda_200,200,rng-200,51,rng,num-start-12001,12001,25726,192.700936794281,True,,True,1,False,1000,True,1.0
./expes/v2_2020-12-02_dh_200-prng-1,30_issda_200,200,rng-200,51,rng,num-start-10001,10001,25726,163.77450227737427,True,,True,1,False,1000,True,1.0
./expes/v2_2020-12-02_dh_200-prng-1,30_issda_200,200,rng-200,121,rng,num-start-6001,6001,25726,106.00072455406189,True,,True,1,False,1000,True,1.0
./expes/v2_2020-12-02_dh_200-prng-1,30_issda_200,200,rng-200,91,rng,num-start-6001,6001,25726,90.85822749137878,True,,True,1,False,1000,True,1.0
./expes/v2_2020-12-02_dh_200-prng-1,30_issda_200,200,rng-200,101,rng,num-start-9001,9001,25726,152.52134084701538,True,,True,1,False,1000,True,1.0
./expes/v2_2020-12-02_dh_200-prng-1,30_issda_200,200,rng-200,71,rng,num-start-2001,2001,25726,30.80347514152527,True,,True,1,False,1000,True,1.0
./expes/v2_2020-12-02_dh_200-prng-1,30_issda_200,200,rng-200,121,rng,num-start-6001,6001,25726,92.74269247055054,True,,True,1,False,1000,True,1.0
./expes/v2_2020-12-02_dh_200-prng-1,30_issda_200,200,rng-200,11,rng,num-start-6001,6001,25726,72.72363543510437,True,,True,1,False,1000,True,1.0
./expes/v2_2020-12-02_dh_200-prng-1,30_issda_200,200,rng-200,191,rng,num-start-12001,12001,25726,155.0481526851654,True,,True,1,False,1000,True,1.0
./expes/v2_2020-12-02_dh_200-prng-1,30_issda_200,200,rng-200,41,rng,num-start-3001,3001,25726,58.773284673690796,True,,True,1,False,1000,True,1.0
./expes/v2_2020-12-02_dh_200-prng-1,30_issda_200,200,rng-200,11,rng,num-start-13001,13001,25726,158.33314967155457,True,,True,1,False,1000,True,1.0
./expes/v2_2020-12-02_dh_200-prng-1,30_issda_200,200,rng-200,11,rng,num-start-12001,12001,25726,144.9075849056244,True,,True,1,False,1000,True,1.0
./expes/v2_2020-12-02_dh_200-prng-1,30_issda_200,200,rng-200,171,rng,num-start-7001,7001,25726,98.52850866317749,True,,True,1,False,1000,True,1.0
./expes/v2_2020-12-02_dh_200-prng-1,30_issda_200,200,rng-200,101,rng,num-start-15001,15001,25726,256.2001118659973,True,,True,1,False,1000,True,1.0
./expes/v2_2020-12-02_dh_200-prng-1,30_issda_200,200,rng-200,51,rng,num-start-6001,6001,25726,94.45805788040161,True,,True,1,False,1000,True,1.0
./expes/v2_2020-12-02_dh_200-prng-1,30_issda_200,200,rng-200,151,rng,num-start-1,1,25726,0.18341469764709473,False,,False,2,False,1000,True,1.0
./expes/v2_2020-12-02_dh_200-prng-1,30_issda_200,200,rng-200,31,rng,num-start-7001,7001,25726,108.43117213249207,True,,True,1,False,1000,True,1.0
./expes/v2_2020-12-02_dh_200-prng-1,30_issda_200,200,rng-200,111,rng,num-start-5001,5001,25726,81.1680018901825,True,,True,1,False,1000,True,1.0
./expes/v2_2020-12-02_dh_200-prng-1,30_issda_200,200,rng-200,191,rng,num-start-3001,3001,25726,38.07623553276062,True,,True,1,False,1000,True,1.0
./expes/v2_2020-12-02_dh_200-prng-1,30_issda_200,200,rng-200,141,rng,num-start-13001,13001,25726,215.8538818359375,True,,True,1,False,1000,True,1.0
./expes/v2_2020-12-02_dh_200-prng-1,30_issda_200,200,rng-200,91,rng,num-start-16001,16001,25726,277.570415019989,True,,True,1,False,1000,True,1.0
./expes/v2_2020-12-02_dh_200-prng-1,30_issda_200,200,rng-200,141,rng,num-start-11001,11001,25726,197.30809426307678,True,,True,1,False,1000,True,1.0
./expes/v2_2020-12-02_dh_200-prng-1,30_issda_200,200,rng-200,91,rng,num-start-16001,16001,25726,298.2034864425659,True,,True,1,False,1000,True,1.0
./expes/v2_2020-12-02_dh_200-prng-1,30_issda_200,200,rng-200,161,rng,num-start-15001,15001,25726,255.64088702201843,True,,True,1,False,1000,True,1.0
