expe,clients,clients_size,clients_subset,agg_size,method,days,days_size,days_total,time,valid,valid_sum,success,nsols,wall_hit,wall_time,pooled,valid_sums
./expes/v2_2020-12-02_dh_200-prng-1,30_issda_200,200,rng-200,21,rng,num-start-5001,5001,25726,76.33967018127441,True,,True,1,False,1000,True,1.0
./expes/v2_2020-12-02_dh_200-prng-1,30_issda_200,200,rng-200,111,rng,num-start-16001,16001,25726,263.5829737186432,True,,True,1,False,1000,True,1.0
./expes/v2_2020-12-02_dh_200-prng-1,30_issda_200,200,rng-200,151,rng,num-start-12001,12001,25726,231.73803687095642,True,,True,1,False,1000,True,1.0
./expes/v2_2020-12-02_dh_200-prng-1,30_issda_200,200,rng-200,61,rng,num-start-1001,1001,25726,13.853691101074219,True,,True,1,False,1000,True,1.0
./expes/v2_2020-12-02_dh_200-prng-1,30_issda_200,200,rng-200,101,rng,num-start-1001,1001,25726,13.426734924316406,True,,True,1,False,1000,True,1.0
./expes/v2_2020-12-02_dh_200-prng-1,30_issda_200,200,rng-200,21,rng,num-start-8001,8001,25726,106.81159210205078,True,,True,1,False,1000,True,1.0
./expes/v2_2020-12-02_dh_200-prng-1,30_issda_200,200,rng-200,91,rng,num-start-1001,1001,25726,15.024049282073975,True,,True,1,False,1000,True,1.0
./expes/v2_2020-12-02_dh_200-prng-1,30_issda_200,200,rng-200,11,rng,num-start-1,1,25726,0.09309625625610352,False,,False,2,False,1000,True,1.0
./expes/v2_2020-12-02_dh_200-prng-1,30_issda_200,200,rng-200,21,rng,num-start-8001,8001,25726,106.27143383026123,True,,True,1,False,1000,True,1.0
./expes/v2_2020-12-02_dh_200-prng-1,30_issda_200,200,rng-200,81,rng,num-start-1001,1001,25726,16.388078689575195,True,,True,1,False,1000,True,1.0
./expes/v2_2020-12-02_dh_200-prng-1,30_issda_200,200,rng-200,31,rng,num-start-3001,3001,25726,44.91809391975403,True,,True,1,False,1000,True,1.0
./expes/v2_2020-12-02_dh_200-prng-1,30_issda_200,200,rng-200,71,rng,num-start-7001,7001,25726,95.8137776851654,True,,True,1,False,1000,True,1.0
./expes/v2_2020-12-02_dh_200-prng-1,30_issda_200,200,rng-200,181,rng,num-start-4001,4001,25726,49.54591989517212,True,,True,1,False,1000,True,1.0
./expes/v2_2020-12-02_dh_200-prng-1,30_issda_200,200,rng-200,151,rng,num-start-1,1,25726,0.046915531158447266,False,,False,2,False,1000,True,1.0
./expes/v2_2020-12-02_dh_200-prng-1,30_issda_200,200,rng-200,161,rng,num-start-11001,11001,25726,179.11554741859436,True,,True,1,False,1000,True,1.0
./expes/v2_2020-12-02_dh_200-prng-1,30_issda_200,200,rng-200,171,rng,num-start-2001,2001,25726,26.832759618759155,True,,True,1,False,1000,True,1.0
./expes/v2_2020-12-02_dh_200-prng-1,30_issda_200,200,rng-200,161,rng,num-start-16001,16001,25726,279.1423146724701,True,,True,1,False,1000,True,1.0
./expes/v2_2020-12-02_dh_200-prng-1,30_issda_200,200,rng-200,61,rng,num-start-14001,14001,25726,191.26154136657715,True,,True,1,False,1000,True,1.0
./expes/v2_2020-12-02_dh_200-prng-1,30_issda_200,200,rng-200,101,rng,num-start-16001,16001,25726,313.92587995529175,True,,True,1,False,1000,True,1.0
./expes/v2_2020-12-02_dh_200-prng-1,30_issda_200,200,rng-200,131,rng,num-start-12001,12001,25726,180.6296181678772,True,,True,1,False,1000,True,1.0
./expes/v2_2020-12-02_dh_200-prng-1,30_issda_200,200,rng-200,41,rng,num-start-7001,7001,25726,84.80576515197754,True,,True,1,False,1000,True,1.0
./expes/v2_2020-12-02_dh_200-prng-1,30_issda_200,200,rng-200,11,rng,num-start-10001,10001,25726,111.30013084411621,True,,True,1,False,1000,True,1.0
./expes/v2_2020-12-02_dh_200-prng-1,30_issda_200,200,rng-200,41,rng,num-start-1,1,25726,0.0282437801361084,False,,False,2,False,1000,True,1.0
./expes/v2_2020-12-02_dh_200-prng-1,30_issda_200,200,rng-200,31,rng,num-start-15001,15001,25726,195.30013513565063,True,,True,1,False,1000,True,1.0
./expes/v2_2020-12-02_dh_200-prng-1,30_issda_200,200,rng-200,71,rng,num-start-9001,9001,25726,153.89177179336548,True,,True,1,False,1000,True,1.0
./expes/v2_2020-12-02_dh_200-prng-1,30_issda_200,200,rng-200,131,rng,num-start-2001,2001,25726,25.87785053253174,True,,True,1,False,1000,True,1.0
./expes/v2_2020-12-02_dh_200-prng-1,30_issda_200,200,rng-200,31,rng,num-start-14001,14001,25726,203.3057610988617,True,,True,1,False,1000,True,1.0
./expes/v2_2020-12-02_dh_200-prng-1,30_issda_200,200,rng-200,101,rng,num-start-4001,4001,25726,59.272502422332764,True,,True,1,False,1000,True,1.0
./expes/v2_2020-12-02_dh_200-prng-1,30_issda_200,200,rng-200,91,rng,num-start-4001,4001,25726,60.82790398597717,True,,True,1,False,1000,True,1.0
./expes/v2_2020-12-02_dh_200-prng-1,30_issda_200,200,rng-200,91,rng,num-start-7001,7001,25726,88.88828730583191,True,,True,1,False,1000,True,1.0
./expes/v2_2020-12-02_dh_200-prng-1,30_issda_200,200,rng-200,171,rng,num-start-8001,8001,25726,116.50972151756287,True,,True,1,False,1000,True,1.0
./expes/v2_2020-12-02_dh_200-prng-1,30_issda_200,200,rng-200,171,rng,num-start-13001,13001,25726,184.95467233657837,True,,True,1,False,1000,True,1.0
./expes/v2_2020-12-02_dh_200-prng-1,30_issda_200,200,rng-200,141,rng,num-start-11001,11001,25726,148.3946590423584,True,,True,1,False,1000,True,1.0
./expes/v2_2020-12-02_dh_200-prng-1,30_issda_200,200,rng-200,21,rng,num-start-11001,11001,25726,156.32585310935974,True,,True,1,False,1000,True,1.0
./expes/v2_2020-12-02_dh_200-prng-1,30_issda_200,200,rng-200,31,rng,num-start-5001,5001,25726,94.96452021598816,True,,True,1,False,1000,True,1.0
./expes/v2_2020-12-02_dh_200-prng-1,30_issda_200,200,rng-200,121,rng,num-start-8001,8001,25726,103.79334998130798,True,,True,1,False,1000,True,1.0
./expes/v2_2020-12-02_dh_200-prng-1,30_issda_200,200,rng-200,11,rng,num-start-7001,7001,25726,76.42362451553345,True,,True,1,False,1000,True,1.0
./expes/v2_2020-12-02_dh_200-prng-1,30_issda_200,200,rng-200,181,rng,num-start-10001,10001,25726,128.61548852920532,True,,True,1,False,1000,True,1.0
./expes/v2_2020-12-02_dh_200-prng-1,30_issda_200,200,rng-200,151,rng,num-start-8001,8001,25726,103.69568419456482,True,,True,1,False,1000,True,1.0
./expes/v2_2020-12-02_dh_200-prng-1,30_issda_200,200,rng-200,31,rng,num-start-1,1,25726,0.052633047103881836,False,,False,2,False,1000,True,1.0
./expes/v2_2020-12-02_dh_200-prng-1,30_issda_200,200,rng-200,121,rng,num-start-4001,4001,25726,68.20349168777466,True,,True,1,False,1000,True,1.0
./expes/v2_2020-12-02_dh_200-prng-1,30_issda_200,200,rng-200,41,rng,num-start-3001,3001,25726,39.63007068634033,True,,True,1,False,1000,True,1.0
./expes/v2_2020-12-02_dh_200-prng-1,30_issda_200,200,rng-200,91,rng,num-start-5001,5001,25726,63.84571194648743,True,,True,1,False,1000,True,1.0
./expes/v2_2020-12-02_dh_200-prng-1,30_issda_200,200,rng-200,131,rng,num-start-2001,2001,25726,26.716849327087402,True,,True,1,False,1000,True,1.0
./expes/v2_2020-12-02_dh_200-prng-1,30_issda_200,200,rng-200,191,rng,num-start-9001,9001,25726,90.74055790901184,True,,True,1,False,1000,True,1.0
./expes/v2_2020-12-02_dh_200-prng-1,30_issda_200,200,rng-200,71,rng,num-start-16001,16001,25726,234.56863641738892,True,,True,1,False,1000,True,1.0
./expes/v2_2020-12-02_dh_200-prng-1,30_issda_200,200,rng-200,51,rng,num-start-13001,13001,25726,162.31808948516846,True,,True,1,False,1000,True,1.0
./expes/v2_2020-12-02_dh_200-prng-1,30_issda_200,200,rng-200,21,rng,num-start-11001,11001,25726,146.87638878822327,True,,True,1,False,1000,True,1.0
./expes/v2_2020-12-02_dh_200-prng-1,30_issda_200,200,rng-200,61,rng,num-start-9001,9001,25726,117.32443690299988,True,,True,1,False,1000,True,1.0
./expes/v2_2020-12-02_dh_200-prng-1,30_issda_200,200,rng-200,121,rng,num-start-11001,11001,25726,203.06043601036072,True,,True,1,False,1000,True,1.0
./expes/v2_2020-12-02_dh_200-prng-1,30_issda_200,200,rng-200,191,rng,num-start-11001,11001,25726,127.17788338661194,True,,True,1,False,1000,True,1.0
./expes/v2_2020-12-02_dh_200-prng-1,30_issda_200,200,rng-200,121,rng,num-start-5001,5001,25726,82.18598484992981,True,,True,1,False,1000,True,1.0
./expes/v2_2020-12-02_dh_200-prng-1,30_issda_200,200,rng-200,31,rng,num-start-15001,15001,25726,209.60518097877502,True,,True,1,False,1000,True,1.0
./expes/v2_2020-12-02_dh_200-prng-1,30_issda_200,200,rng-200,31,rng,num-start-8001,8001,25726,103.83421683311462,True,,True,1,False,1000,True,1.0
./expes/v2_2020-12-02_dh_200-prng-1,30_issda_200,200,rng-200,111,rng,num-start-13001,13001,25726,250.14674258232117,True,,True,1,False,1000,True,1.0
./expes/v2_2020-12-02_dh_200-prng-1,30_issda_200,200,rng-200,1,rng,num-start-4001,4001,25726,43.73894739151001,True,,True,1,False,1000,True,1.0
./expes/v2_2020-12-02_dh_200-prng-1,30_issda_200,200,rng-200,41,rng,num-start-6001,6001,25726,72.67382955551147,True,,True,1,False,1000,True,1.0
./expes/v2_2020-12-02_dh_200-prng-1,30_issda_200,200,rng-200,81,rng,num-start-8001,8001,25726,142.74258494377136,True,,True,1,False,1000,True,1.0
./expes/v2_2020-12-02_dh_200-prng-1,30_issda_200,200,rng-200,71,rng,num-start-15001,15001,25726,205.6908824443817,True,,True,1,False,1000,True,1.0
./expes/v2_2020-12-02_dh_200-prng-1,30_issda_200,200,rng-200,61,rng,num-start-9001,9001,25726,141.9899616241455,True,,True,1,False,1000,True,1.0
./expes/v2_2020-12-02_dh_200-prng-1,30_issda_200,200,rng-200,121,rng,num-start-5001,5001,25726,83.33742189407349,True,,True,1,False,1000,True,1.0
./expes/v2_2020-12-02_dh_200-prng-1,30_issda_200,200,rng-200,191,rng,num-start-9001,9001,25726,88.76449942588806,True,,True,1,False,1000,True,1.0
./expes/v2_2020-12-02_dh_200-prng-1,30_issda_200,200,rng-200,161,rng,num-start-16001,16001,25726,233.70822858810425,True,,True,1,False,1000,True,1.0
./expes/v2_2020-12-02_dh_200-prng-1,30_issda_200,200,rng-200,31,rng,num-start-14001,14001,25726,175.18069982528687,True,,True,1,False,1000,True,1.0
./expes/v2_2020-12-02_dh_200-prng-1,30_issda_200,200,rng-200,111,rng,num-start-13001,13001,25726,204.44070982933044,True,,True,1,False,1000,True,1.0
./expes/v2_2020-12-02_dh_200-prng-1,30_issda_200,200,rng-200,101,rng,num-start-10001,10001,25726,155.29635643959045,True,,True,1,False,1000,True,1.0
./expes/v2_2020-12-02_dh_200-prng-1,30_issda_200,200,rng-200,21,rng,num-start-12001,12001,25726,150.0218551158905,True,,True,1,False,1000,True,1.0
./expes/v2_2020-12-02_dh_200-prng-1,30_issda_200,200,rng-200,31,rng,num-start-6001,6001,25726,81.35459184646606,True,,True,1,False,1000,True,1.0
./expes/v2_2020-12-02_dh_200-prng-1,30_issda_200,200,rng-200,11,rng,num-start-3001,3001,25726,29.63061499595642,True,,True,1,False,1000,True,1.0
./expes/v2_2020-12-02_dh_200-prng-1,30_issda_200,200,rng-200,91,rng,num-start-7001,7001,25726,103.98981094360352,True,,True,1,False,1000,True,1.0
./expes/v2_2020-12-02_dh_200-prng-1,30_issda_200,200,rng-200,21,rng,num-start-8001,8001,25726,111.06286358833313,True,,True,1,False,1000,True,1.0
./expes/v2_2020-12-02_dh_200-prng-1,30_issda_200,200,rng-200,171,rng,num-start-3001,3001,25726,48.05550456047058,True,,True,1,False,1000,True,1.0
./expes/v2_2020-12-02_dh_200-prng-1,30_issda_200,200,rng-200,131,rng,num-start-6001,6001,25726,90.76615405082703,True,,True,1,False,1000,True,1.0
./expes/v2_2020-12-02_dh_200-prng-1,30_issda_200,200,rng-200,191,rng,num-start-5001,5001,25726,68.16119956970215,True,,True,1,False,1000,True,1.0
./expes/v2_2020-12-02_dh_200-prng-1,30_issda_200,200,rng-200,31,rng,num-start-1001,1001,25726,10.922021389007568,True,,True,1,False,1000,True,1.0
./expes/v2_2020-12-02_dh_200-prng-1,30_issda_200,200,rng-200,151,rng,num-start-1,1,25726,0.04417991638183594,False,,False,2,False,1000,True,1.0
./expes/v2_2020-12-02_dh_200-prng-1,30_issda_200,200,rng-200,21,rng,num-start-9001,9001,25726,112.14634609222412,True,,True,1,False,1000,True,1.0
./expes/v2_2020-12-02_dh_200-prng-1,30_issda_200,200,rng-200,171,rng,num-start-15001,15001,25726,227.2809820175171,True,,True,1,False,1000,True,1.0
./expes/v2_2020-12-02_dh_200-prng-1,30_issda_200,200,rng-200,71,rng,num-start-1001,1001,25726,14.481969118118286,True,,True,1,False,1000,True,1.0
./expes/v2_2020-12-02_dh_200-prng-1,30_issda_200,200,rng-200,151,rng,num-start-13001,13001,25726,218.33940982818604,True,,True,1,False,1000,True,1.0
./expes/v2_2020-12-02_dh_200-prng-1,30_issda_200,200,rng-200,91,rng,num-start-14001,14001,25726,206.84681391716003,True,,True,1,False,1000,True,1.0
./expes/v2_2020-12-02_dh_200-prng-1,30_issda_200,200,rng-200,181,rng,num-start-8001,8001,25726,98.30164504051208,True,,True,1,False,1000,True,1.0
./expes/v2_2020-12-02_dh_200-prng-1,30_issda_200,200,rng-200,11,rng,num-start-6001,6001,25726,69.62243580818176,True,,True,1,False,1000,True,1.0
./expes/v2_2020-12-02_dh_200-prng-1,30_issda_200,200,rng-200,151,rng,num-start-8001,8001,25726,114.38934135437012,True,,True,1,False,1000,True,1.0
./expes/v2_2020-12-02_dh_200-prng-1,30_issda_200,200,rng-200,161,rng,num-start-1001,1001,25726,13.829566955566406,True,,True,1,False,1000,True,1.0
./expes/v2_2020-12-02_dh_200-prng-1,30_issda_200,200,rng-200,191,rng,num-start-1001,1001,25726,9.972944021224976,True,,True,1,False,1000,True,1.0
./expes/v2_2020-12-02_dh_200-prng-1,30_issda_200,200,rng-200,11,rng,num-start-2001,2001,25726,22.453035354614258,True,,True,1,False,1000,True,1.0
./expes/v2_2020-12-02_dh_200-prng-1,30_issda_200,200,rng-200,181,rng,num-start-11001,11001,25726,227.38979482650757,True,,True,1,False,1000,True,1.0
./expes/v2_2020-12-02_dh_200-prng-1,30_issda_200,200,rng-200,91,rng,num-start-13001,13001,25726,183.5033459663391,True,,True,1,False,1000,True,1.0
./expes/v2_2020-12-02_dh_200-prng-1,30_issda_200,200,rng-200,151,rng,num-start-4001,4001,25726,55.18829822540283,True,,True,1,False,1000,True,1.0
./expes/v2_2020-12-02_dh_200-prng-1,30_issda_200,200,rng-200,161,rng,num-start-1,1,25726,0.04811382293701172,False,,False,2,False,1000,True,1.0
./expes/v2_2020-12-02_dh_200-prng-1,30_issda_200,200,rng-200,1,rng,num-start-13001,13001,25726,133.17305707931519,True,,True,1,False,1000,True,1.0
./expes/v2_2020-12-02_dh_200-prng-1,30_issda_200,200,rng-200,21,rng,num-start-1,1,25726,0.06127166748046875,False,,False,2,False,1000,True,1.0
./expes/v2_2020-12-02_dh_200-prng-1,30_issda_200,200,rng-200,1,rng,num-start-1001,1001,25726,10.096694469451904,True,,True,1,False,1000,True,1.0
./expes/v2_2020-12-02_dh_200-prng-1,30_issda_200,200,rng-200,101,rng,num-start-10001,10001,25726,121.43055820465088,True,,True,1,False,1000,True,1.0
./expes/v2_2020-12-02_dh_200-prng-1,30_issda_200,200,rng-200,21,rng,num-start-6001,6001,25726,88.20615410804749,True,,True,1,False,1000,True,1.0
./expes/v2_2020-12-02_dh_200-prng-1,30_issda_200,200,rng-200,61,rng,num-start-4001,4001,25726,77.03154397010803,True,,True,1,False,1000,True,1.0
./expes/v2_2020-12-02_dh_200-prng-1,30_issda_200,200,rng-200,51,rng,num-start-11001,11001,25726,170.6204228401184,True,,True,1,False,1000,True,1.0
./expes/v2_2020-12-02_dh_200-prng-1,30_issda_200,200,rng-200,141,rng,num-start-7001,7001,25726,111.71191334724426,True,,True,1,False,1000,True,1.0
./expes/v2_2020-12-02_dh_200-prng-1,30_issda_200,200,rng-200,51,rng,num-start-1,1,25726,0.02089834213256836,False,,False,2,False,1000,True,1.0
./expes/v2_2020-12-02_dh_200-prng-1,30_issda_200,200,rng-200,21,rng,num-start-14001,14001,25726,178.94379782676697,True,,True,1,False,1000,True,1.0
./expes/v2_2020-12-02_dh_200-prng-1,30_issda_200,200,rng-200,91,rng,num-start-16001,16001,25726,232.57050776481628,True,,True,1,False,1000,True,1.0
./expes/v2_2020-12-02_dh_200-prng-1,30_issda_200,200,rng-200,11,rng,num-start-13001,13001,25726,130.56635785102844,True,,True,1,False,1000,True,1.0
./expes/v2_2020-12-02_dh_200-prng-1,30_issda_200,200,rng-200,111,rng,num-start-16001,16001,25726,238.17335319519043,True,,True,1,False,1000,True,1.0
./expes/v2_2020-12-02_dh_200-prng-1,30_issda_200,200,rng-200,101,rng,num-start-10001,10001,25726,145.5517065525055,True,,True,1,False,1000,True,1.0
./expes/v2_2020-12-02_dh_200-prng-1,30_issda_200,200,rng-200,111,rng,num-start-6001,6001,25726,102.57800817489624,True,,True,1,False,1000,True,1.0
./expes/v2_2020-12-02_dh_200-prng-1,30_issda_200,200,rng-200,101,rng,num-start-12001,12001,25726,187.09475827217102,True,,True,1,False,1000,True,1.0
./expes/v2_2020-12-02_dh_200-prng-1,30_issda_200,200,rng-200,91,rng,num-start-4001,4001,25726,56.85117816925049,True,,True,1,False,1000,True,1.0
./expes/v2_2020-12-02_dh_200-prng-1,30_issda_200,200,rng-200,181,rng,num-start-15001,15001,25726,187.06620049476624,True,,True,1,False,1000,True,1.0
./expes/v2_2020-12-02_dh_200-prng-1,30_issda_200,200,rng-200,101,rng,num-start-13001,13001,25726,222.54895758628845,True,,True,1,False,1000,True,1.0
./expes/v2_2020-12-02_dh_200-prng-1,30_issda_200,200,rng-200,141,rng,num-start-1001,1001,25726,11.969204425811768,True,,True,1,False,1000,True,1.0
./expes/v2_2020-12-02_dh_200-prng-1,30_issda_200,200,rng-200,171,rng,num-start-6001,6001,25726,76.0532968044281,True,,True,1,False,1000,True,1.0
./expes/v2_2020-12-02_dh_200-prng-1,30_issda_200,200,rng-200,161,rng,num-start-2001,2001,25726,28.794078826904297,True,,True,1,False,1000,True,1.0
./expes/v2_2020-12-02_dh_200-prng-1,30_issda_200,200,rng-200,101,rng,num-start-3001,3001,25726,44.87547063827515,True,,True,1,False,1000,True,1.0
./expes/v2_2020-12-02_dh_200-prng-1,30_issda_200,200,rng-200,71,rng,num-start-4001,4001,25726,52.056968688964844,True,,True,1,False,1000,True,1.0
./expes/v2_2020-12-02_dh_200-prng-1,30_issda_200,200,rng-200,71,rng,num-start-13001,13001,25726,174.6098234653473,True,,True,1,False,1000,True,1.0
./expes/v2_2020-12-02_dh_200-prng-1,30_issda_200,200,rng-200,11,rng,num-start-11001,11001,25726,127.92809128761292,True,,True,1,False,1000,True,1.0
./expes/v2_2020-12-02_dh_200-prng-1,30_issda_200,200,rng-200,191,rng,num-start-5001,5001,25726,56.74589562416077,True,,True,1,False,1000,True,1.0
./expes/v2_2020-12-02_dh_200-prng-1,30_issda_200,200,rng-200,51,rng,num-start-13001,13001,25726,171.93466711044312,True,,True,1,False,1000,True,1.0
./expes/v2_2020-12-02_dh_200-prng-1,30_issda_200,200,rng-200,91,rng,num-start-6001,6001,25726,94.08029246330261,True,,True,1,False,1000,True,1.0
./expes/v2_2020-12-02_dh_200-prng-1,30_issda_200,200,rng-200,91,rng,num-start-9001,9001,25726,126.33962941169739,True,,True,1,False,1000,True,1.0
./expes/v2_2020-12-02_dh_200-prng-1,30_issda_200,200,rng-200,91,rng,num-start-11001,11001,25726,142.28066968917847,True,,True,1,False,1000,True,1.0
./expes/v2_2020-12-02_dh_200-prng-1,30_issda_200,200,rng-200,71,rng,num-start-8001,8001,25726,148.08407163619995,True,,True,1,False,1000,True,1.0
./expes/v2_2020-12-02_dh_200-prng-1,30_issda_200,200,rng-200,31,rng,num-start-9001,9001,25726,135.93935084342957,True,,True,1,False,1000,True,1.0
./expes/v2_2020-12-02_dh_200-prng-1,30_issda_200,200,rng-200,191,rng,num-start-11001,11001,25726,121.06997489929199,True,,True,1,False,1000,True,1.0
./expes/v2_2020-12-02_dh_200-prng-1,30_issda_200,200,rng-200,61,rng,num-start-15001,15001,25726,306.3945496082306,True,,True,1,False,1000,True,1.0
./expes/v2_2020-12-02_dh_200-prng-1,30_issda_200,200,rng-200,81,rng,num-start-1,1,25726,0.04548907279968262,False,,False,2,False,1000,True,1.0
./expes/v2_2020-12-02_dh_200-prng-1,30_issda_200,200,rng-200,11,rng,num-start-11001,11001,25726,126.43471717834473,True,,True,1,False,1000,True,1.0
./expes/v2_2020-12-02_dh_200-prng-1,30_issda_200,200,rng-200,41,rng,num-start-11001,11001,25726,137.0635244846344,True,,True,1,False,1000,True,1.0
./expes/v2_2020-12-02_dh_200-prng-1,30_issda_200,200,rng-200,191,rng,num-start-9001,9001,25726,90.75315141677856,True,,True,1,False,1000,True,1.0
./expes/v2_2020-12-02_dh_200-prng-1,30_issda_200,200,rng-200,1,rng,num-start-15001,15001,25726,151.8045518398285,True,,True,1,False,1000,True,1.0
./expes/v2_2020-12-02_dh_200-prng-1,30_issda_200,200,rng-200,81,rng,num-start-13001,13001,25726,225.27455139160156,True,,True,1,False,1000,True,1.0
./expes/v2_2020-12-02_dh_200-prng-1,30_issda_200,200,rng-200,161,rng,num-start-1,1,25726,0.04735374450683594,False,,False,2,False,1000,True,1.0
./expes/v2_2020-12-02_dh_200-prng-1,30_issda_200,200,rng-200,161,rng,num-start-11001,11001,25726,189.6779284477234,True,,True,1,False,1000,True,1.0
./expes/v2_2020-12-02_dh_200-prng-1,30_issda_200,200,rng-200,41,rng,num-start-10001,10001,25726,186.99949765205383,True,,True,1,False,1000,True,1.0
./expes/v2_2020-12-02_dh_200-prng-1,30_issda_200,200,rng-200,151,rng,num-start-1001,1001,25726,11.77372121810913,True,,True,1,False,1000,True,1.0
./expes/v2_2020-12-02_dh_200-prng-1,30_issda_200,200,rng-200,1,rng,num-start-6001,6001,25726,60.8056116104126,True,,True,1,False,1000,True,1.0
./expes/v2_2020-12-02_dh_200-prng-1,30_issda_200,200,rng-200,151,rng,num-start-9001,9001,25726,139.99269938468933,True,,True,1,False,1000,True,1.0
./expes/v2_2020-12-02_dh_200-prng-1,30_issda_200,200,rng-200,1,rng,num-start-6001,6001,25726,59.73465871810913,True,,True,1,False,1000,True,1.0
./expes/v2_2020-12-02_dh_200-prng-1,30_issda_200,200,rng-200,191,rng,num-start-1,1,25726,0.051856279373168945,False,,False,2,False,1000,True,1.0
./expes/v2_2020-12-02_dh_200-prng-1,30_issda_200,200,rng-200,41,rng,num-start-10001,10001,25726,153.51195979118347,True,,True,1,False,1000,True,1.0
./expes/v2_2020-12-02_dh_200-prng-1,30_issda_200,200,rng-200,131,rng,num-start-1,1,25726,0.02900862693786621,False,,False,2,False,1000,True,1.0
./expes/v2_2020-12-02_dh_200-prng-1,30_issda_200,200,rng-200,71,rng,num-start-1001,1001,25726,12.025884866714478,True,,True,1,False,1000,True,1.0
./expes/v2_2020-12-02_dh_200-prng-1,30_issda_200,200,rng-200,131,rng,num-start-5001,5001,25726,64.4255678653717,True,,True,1,False,1000,True,1.0
./expes/v2_2020-12-02_dh_200-prng-1,30_issda_200,200,rng-200,141,rng,num-start-16001,16001,25726,217.4546022415161,True,,True,1,False,1000,True,1.0
./expes/v2_2020-12-02_dh_200-prng-1,30_issda_200,200,rng-200,61,rng,num-start-2001,2001,25726,28.39962410926819,True,,True,1,False,1000,True,1.0
./expes/v2_2020-12-02_dh_200-prng-1,30_issda_200,200,rng-200,131,rng,num-start-4001,4001,25726,50.4280743598938,True,,True,1,False,1000,True,1.0
./expes/v2_2020-12-02_dh_200-prng-1,30_issda_200,200,rng-200,131,rng,num-start-1001,1001,25726,13.323939561843872,True,,True,1,False,1000,True,1.0
./expes/v2_2020-12-02_dh_200-prng-1,30_issda_200,200,rng-200,191,rng,num-start-11001,11001,25726,109.59630155563354,True,,True,1,False,1000,True,1.0
./expes/v2_2020-12-02_dh_200-prng-1,30_issda_200,200,rng-200,121,rng,num-start-11001,11001,25726,160.60661625862122,True,,True,1,False,1000,True,1.0
./expes/v2_2020-12-02_dh_200-prng-1,30_issda_200,200,rng-200,151,rng,num-start-3001,3001,25726,36.583882331848145,True,,True,1,False,1000,True,1.0
./expes/v2_2020-12-02_dh_200-prng-1,30_issda_200,200,rng-200,1,rng,num-start-10001,10001,25726,99.81783413887024,True,,True,1,False,1000,True,1.0
