expe,clients,clients_size,clients_subset,agg_size,agg_size_pc,method,days,days_size,days_total,noise_method,time,valid,valid_sum,success,score_avg,score_min,score_max,nsols,oracle,wall_hit,wall_time,pooled,pool_size,uuid,optimal,valid_sums
./expes/v3_2021-02-09_hi_2000-prng-1-w5-p10,30_issda-2000,2000,first-2000,650,32,rng,num-start-171,171,25726,classic,5030.808160543442,False,,False,0,,,0,"Index(['6', '8', '9', '11', '12', '16', '26', '28', '30', '31',
       ...
       '1973', '1974', '1976', '1984', '1985', '1986', '1987', '1988', '1995',
       '1997'],
      dtype='object', length=650)",True,5000,True,10,60ba556015,0.0,0.0
./expes/v3_2021-02-09_hi_2000-prng-1-w5-p10,30_issda-2000,2000,first-2000,700,35,rng,num-start-291,291,25726,classic,5057.868399620056,False,,False,0,,,0,"Index(['1', '2', '4', '6', '8', '10', '16', '21', '22', '30',
       ...
       '1968', '1974', '1977', '1983', '1990', '1991', '1992', '1993', '1995',
       '2000'],
      dtype='object', length=700)",True,5000,True,10,54453e9a4e,0.0,0.0
