expe,clients,clients_size,clients_subset,agg_size,agg_size_pc,method,days,days_size,days_total,noise_method,time,valid,valid_sum,success,score_avg,score_min,score_max,nsols,oracle,wall_hit,wall_time,pooled,pool_size,uuid,optimal,valid_sums
./expes/v3_2021-02-09_hi_2000-prng-1-w5-p10,30_issda-2000,2000,first-2000,750,37,rng,num-start-221,221,25726,classic,5039.417594909668,False,,False,0,,,0,"Index(['1', '3', '7', '8', '9', '12', '13', '16', '19', '21',
       ...
       '1984', '1985', '1986', '1987', '1988', '1989', '1991', '1993', '1995',
       '1996'],
      dtype='object', length=750)",True,5000,True,10,f0bf5f7d57,0.0,0.0
./expes/v3_2021-02-09_hi_2000-prng-1-w5-p10,30_issda-2000,2000,first-2000,700,35,rng,num-start-281,281,25726,classic,5057.542190313339,False,,False,0,,,0,"Index(['1', '2', '4', '6', '7', '11', '19', '21', '24', '27',
       ...
       '1976', '1977', '1980', '1983', '1984', '1992', '1993', '1998', '1999',
       '2000'],
      dtype='object', length=700)",True,5000,True,10,2378170e2b,0.0,0.0
./expes/v3_2021-02-09_hi_2000-prng-1-w5-p10,30_issda-2000,2000,first-2000,850,42,rng,num-start-281,281,25726,classic,5054.363216161728,False,,False,0,,,0,"Index(['4', '7', '9', '10', '11', '13', '18', '19', '22', '24',
       ...
       '1980', '1981', '1983', '1985', '1986', '1988', '1989', '1990', '1992',
       '1995'],
      dtype='object', length=850)",True,5000,True,10,73ade20549,0.0,0.0
./expes/v3_2021-02-09_hi_2000-prng-1-w5-p10,30_issda-2000,2000,first-2000,550,27,rng,num-start-7800,7800,25726,classic,5281.756990432739,True,,True,1.0,1.0,1.0,1,"Index(['11', '15', '16', '17', '20', '22', '24', '25', '32', '37',
       ...
       '1975', '1976', '1982', '1987', '1990', '1992', '1994', '1996', '1997',
       '1998'],
      dtype='object', length=550)",False,5000,True,10,2d1629c086,1.0,1.0
