expe,clients,clients_size,clients_subset,agg_size,agg_size_pc,method,days,days_size,days_total,noise_method,time,valid,valid_sum,success,score_avg,score_min,score_max,nsols,oracle,wall_hit,wall_time,pooled,pool_size,uuid,optimal,valid_sums
./expes/v3_2021-02-09_hi_2000-prng-1-w5-p10,30_issda-2000,2000,first-2000,650,32,rng,num-start-12300,12300,25726,classic,6697.583953142166,True,,False,1.0,1.0,1.0,1,"Index(['4', '8', '13', '14', '16', '18', '23', '26', '27', '35',
       ...
       '1968', '1971', '1972', '1975', '1978', '1982', '1989', '1990', '1992',
       '2000'],
      dtype='object', length=650)",True,5000,True,10,fc3846ea6f,0.0,1.0
./expes/v3_2021-02-09_hi_2000-prng-1-w5-p10,30_issda-2000,2000,first-2000,300,15,rng,num-start-8800,8800,25726,classic,4678.757276535034,True,,True,1.0,1.0,1.0,1,"Index(['6', '10', '19', '24', '31', '32', '35', '36', '39', '59',
       ...
       '1935', '1936', '1938', '1942', '1965', '1967', '1971', '1977', '1982',
       '2000'],
      dtype='object', length=300)",False,5000,True,10,4bd2c31f70,1.0,1.0
./expes/v3_2021-02-09_hi_2000-prng-1-w5-p10,30_issda-2000,2000,first-2000,300,15,rng,num-start-9800,9800,25726,classic,6288.455809593201,True,,False,1.0,1.0,1.0,1,"Index(['4', '9', '18', '37', '44', '49', '50', '52', '57', '64',
       ...
       '1955', '1956', '1958', '1961', '1964', '1965', '1966', '1970', '1988',
       '1989'],
      dtype='object', length=300)",True,5000,True,10,98cf94ded7,0.0,1.0
./expes/v3_2021-02-09_hi_2000-prng-1-w5-p10,30_issda-2000,2000,first-2000,200,10,rng,num-start-291,291,25726,classic,5041.326881170273,False,,False,0,,,0,"Index(['4', '14', '18', '23', '39', '49', '53', '58', '63', '67',
       ...
       '1893', '1900', '1928', '1939', '1941', '1958', '1964', '1982', '1990',
       '2000'],
      dtype='object', length=200)",True,5000,True,10,3647f254c1,0.0,0.0
./expes/v3_2021-02-09_hi_2000-prng-1-w5-p10,30_issda-2000,2000,first-2000,450,22,rng,num-start-1300,1300,25726,classic,2380.3525865077972,True,,True,1.0,1.0,1.0,1,"Index(['5', '7', '8', '9', '11', '12', '30', '32', '46', '56',
       ...
       '1949', '1951', '1954', '1963', '1965', '1970', '1982', '1987', '1989',
       '1990'],
      dtype='object', length=450)",False,5000,True,10,cae43c44ac,1.0,1.0
./expes/v3_2021-02-09_hi_2000-prng-1-w5-p10,30_issda-2000,2000,first-2000,400,20,rng,num-start-7300,7300,25726,classic,5000.612167596817,True,,True,1.0,1.0,1.0,1,"Index(['4', '9', '10', '11', '18', '33', '37', '40', '41', '44',
       ...
       '1958', '1961', '1964', '1965', '1966', '1968', '1970', '1973', '1988',
       '1989'],
      dtype='object', length=400)",False,5000,True,10,73319bb227,1.0,1.0
./expes/v3_2021-02-09_hi_2000-prng-1-w5-p10,30_issda-2000,2000,first-2000,350,17,rng,num-start-51,51,25726,classic,5006.907643795013,False,,False,0,,,0,"Index(['4', '5', '12', '18', '19', '26', '30', '35', '37', '43',
       ...
       '1966', '1971', '1978', '1981', '1983', '1985', '1994', '1995', '1998',
       '1999'],
      dtype='object', length=350)",True,5000,True,10,c606dfc22c,0.0,0.0
./expes/v3_2021-02-09_hi_2000-prng-1-w5-p10,30_issda-2000,2000,first-2000,700,35,rng,num-start-3800,3800,25726,classic,3548.5723764896393,True,,True,1.0,1.0,1.0,1,"Index(['1', '2', '4', '6', '7', '11', '19', '21', '24', '27',
       ...
       '1976', '1977', '1980', '1983', '1984', '1992', '1993', '1998', '1999',
       '2000'],
      dtype='object', length=700)",False,5000,True,10,e3d58c1a8e,1.0,1.0
