expe,clients,clients_size,clients_subset,agg_size,agg_size_pc,method,days,days_size,days_total,noise_method,time,valid,valid_sum,success,score_avg,score_min,score_max,nsols,oracle,wall_hit,wall_time,pooled,pool_size,uuid,optimal,valid_sums
./expes/v3_2021-02-09_hi_2000-prng-1-w5-p10,30_issda-2000,2000,first-2000,950,47,rng,num-start-8800,8800,25726,classic,6156.433763027191,True,,False,1.0,1.0,1.0,1,"Index(['1', '3', '4', '9', '12', '13', '14', '16', '18', '19',
       ...
       '1981', '1982', '1983', '1985', '1986', '1987', '1993', '1994', '1998',
       '1999'],
      dtype='object', length=950)",True,5000,True,10,e8fb568488,0.0,1.0
./expes/v3_2021-02-09_hi_2000-prng-1-w5-p10,30_issda-2000,2000,first-2000,150,7,rng,num-start-5300,5300,25726,classic,1565.0144393444061,True,,True,1.0,1.0,1.0,1,"Index(['27', '32', '42', '59', '64', '74', '88', '91', '93', '130',
       ...
       '1885', '1887', '1889', '1897', '1903', '1917', '1961', '1975', '1976',
       '1978'],
      dtype='object', length=150)",False,5000,True,10,7769f2b1ac,1.0,1.0
./expes/v3_2021-02-09_hi_2000-prng-1-w5-p10,30_issda-2000,2000,first-2000,450,22,rng,num-start-131,131,25726,classic,5016.545139312744,False,,False,0,,,0,"Index(['1', '10', '13', '20', '26', '31', '35', '38', '42', '45',
       ...
       '1971', '1976', '1977', '1978', '1979', '1987', '1989', '1992', '1997',
       '2000'],
      dtype='object', length=450)",True,5000,True,10,f6e16e8404,0.0,0.0
./expes/v3_2021-02-09_hi_2000-prng-1-w5-p10,30_issda-2000,2000,first-2000,550,27,rng,num-start-91,91,25726,classic,5013.388790130615,False,,False,0,,,0,"Index(['4', '8', '13', '14', '16', '18', '23', '27', '35', '36',
       ...
       '1968', '1971', '1972', '1975', '1978', '1982', '1989', '1990', '1992',
       '2000'],
      dtype='object', length=550)",True,5000,True,10,8790216bd1,0.0,0.0
./expes/v3_2021-02-09_hi_2000-prng-1-w5-p10,30_issda-2000,2000,first-2000,450,22,rng,num-start-161,161,25726,classic,5020.989699602127,False,,False,0,,,0,"Index(['6', '9', '11', '16', '31', '33', '34', '52', '64', '66',
       ...
       '1958', '1971', '1974', '1976', '1984', '1986', '1987', '1988', '1995',
       '1997'],
      dtype='object', length=450)",True,5000,True,10,82c300f22c,0.0,0.0
