expe,clients,clients_size,clients_subset,agg_size,method,days,days_size,days_total,time,valid,valid_sum,success,nsols,wall_hit,wall_time,pooled,valid_sums
./expes/v2_2020-11-04_dbh_100-prng-1,daily_base_hphc_100,100,first-100,71,rng,num-start-291,291,365,3.425569772720337,True,,True,1,False,1000,True,1.0
./expes/v2_2020-11-04_dbh_100-prng-1,daily_base_hphc_100,100,first-100,31,rng,num-start-141,141,365,1.7220065593719482,True,,True,1,False,1000,True,1.0
./expes/v2_2020-11-04_dbh_100-prng-1,daily_base_hphc_100,100,first-100,81,rng,num-start-281,281,365,3.185725450515747,True,,True,1,False,1000,True,1.0
./expes/v2_2020-11-04_dbh_100-prng-1,daily_base_hphc_100,100,first-100,91,rng,num-start-201,201,365,2.463399887084961,True,,True,1,False,1000,True,1.0
./expes/v2_2020-11-04_dbh_100-prng-1,daily_base_hphc_100,100,first-100,81,rng,num-start-151,151,365,1.911198377609253,True,,True,1,False,1000,True,1.0
./expes/v2_2020-11-04_dbh_100-prng-1,daily_base_hphc_100,100,first-100,71,rng,num-start-221,221,365,2.8391754627227783,True,,True,1,False,1000,True,1.0
./expes/v2_2020-11-04_dbh_100-prng-1,daily_base_hphc_100,100,first-100,31,rng,num-start-71,71,365,1.009761095046997,True,,True,1,False,1000,True,1.0
./expes/v2_2020-11-04_dbh_100-prng-1,daily_base_hphc_100,100,first-100,71,rng,num-start-171,171,365,2.268320322036743,True,,True,1,False,1000,True,1.0
./expes/v2_2020-11-04_dbh_100-prng-1,daily_base_hphc_100,100,first-100,81,rng,num-start-201,201,365,2.48626708984375,True,,True,1,False,1000,True,1.0
./expes/v2_2020-11-04_dbh_100-prng-1,daily_base_hphc_100,100,first-100,1,rng,num-start-221,221,365,2.297295570373535,True,,True,1,False,1000,True,1.0
./expes/v2_2020-11-04_dbh_100-prng-1,daily_base_hphc_100,100,first-100,91,rng,num-start-131,131,365,1.7053589820861816,True,,True,1,False,1000,True,1.0
./expes/v2_2020-11-04_dbh_100-prng-1,daily_base_hphc_100,100,first-100,21,rng,num-start-241,241,365,3.002837896347046,True,,True,1,False,1000,True,1.0
./expes/v2_2020-11-04_dbh_100-prng-1,daily_base_hphc_100,100,first-100,11,rng,num-start-241,241,365,2.9676928520202637,True,,True,1,False,1000,True,1.0
./expes/v2_2020-11-04_dbh_100-prng-1,daily_base_hphc_100,100,first-100,81,rng,num-start-111,111,365,1.4761981964111328,True,,True,1,False,1000,True,1.0
./expes/v2_2020-11-04_dbh_100-prng-1,daily_base_hphc_100,100,first-100,1,rng,num-start-141,141,365,1.5379903316497803,True,,True,1,False,1000,True,1.0
./expes/v2_2020-11-04_dbh_100-prng-1,daily_base_hphc_100,100,first-100,61,rng,num-start-281,281,365,3.132509708404541,True,,True,1,False,1000,True,1.0
./expes/v2_2020-11-04_dbh_100-prng-1,daily_base_hphc_100,100,first-100,1,rng,num-start-241,241,365,2.487963914871216,True,,True,1,False,1000,True,1.0
./expes/v2_2020-11-04_dbh_100-prng-1,daily_base_hphc_100,100,first-100,1,rng,num-start-231,231,365,2.3915469646453857,True,,True,1,False,1000,True,1.0
./expes/v2_2020-11-04_dbh_100-prng-1,daily_base_hphc_100,100,first-100,91,rng,num-start-1,1,365,0.28875136375427246,False,,False,2,False,1000,True,1.0
./expes/v2_2020-11-04_dbh_100-prng-1,daily_base_hphc_100,100,first-100,51,rng,num-start-181,181,365,2.378497362136841,True,,True,1,False,1000,True,1.0
./expes/v2_2020-11-04_dbh_100-prng-1,daily_base_hphc_100,100,first-100,71,rng,num-start-201,201,365,2.57138729095459,True,,True,1,False,1000,True,1.0
./expes/v2_2020-11-04_dbh_100-prng-1,daily_base_hphc_100,100,first-100,61,rng,num-start-131,131,365,1.7450377941131592,True,,True,1,False,1000,True,1.0
./expes/v2_2020-11-04_dbh_100-prng-1,daily_base_hphc_100,100,first-100,11,rng,num-start-281,281,365,3.0249292850494385,True,,True,1,False,1000,True,1.0
./expes/v2_2020-11-04_dbh_100-prng-1,daily_base_hphc_100,100,first-100,91,rng,num-start-181,181,365,2.2429704666137695,True,,True,1,False,1000,True,1.0
./expes/v2_2020-11-04_dbh_100-prng-1,daily_base_hphc_100,100,first-100,61,rng,num-start-51,51,365,0.8226001262664795,True,,True,1,False,1000,True,1.0
./expes/v2_2020-11-04_dbh_100-prng-1,daily_base_hphc_100,100,first-100,41,rng,num-start-231,231,365,3.0112764835357666,True,,True,1,False,1000,True,1.0
