expe,clients,clients_size,clients_subset,agg_size,method,days,days_size,days_total,time,valid,valid_sum,success,nsols,wall_hit,wall_time,pooled,valid_sums
./expes/v2_2020-11-05_dbh_50-prng-1,daily_base_hphc_50,50,first-50,41,rng,num-start-231,231,365,2.139065980911255,True,,True,1,False,1000,True,1.0
./expes/v2_2020-11-05_dbh_50-prng-1,daily_base_hphc_50,50,first-50,11,rng,num-start-241,241,365,2.1948904991149902,True,,True,1,False,1000,True,1.0
./expes/v2_2020-11-05_dbh_50-prng-1,daily_base_hphc_50,50,first-50,41,rng,num-start-201,201,365,1.8882849216461182,True,,True,1,False,1000,True,1.0
./expes/v2_2020-11-05_dbh_50-prng-1,daily_base_hphc_50,50,first-50,21,rng,num-start-21,21,365,0.4405214786529541,True,,True,1,False,1000,True,1.0
