expe,clients,clients_size,clients_subset,agg_size,method,days,days_size,days_total,time,valid,valid_sum,success,nsols,wall_hit,wall_time,pooled,valid_sums
./expes/v2_2020-11-05_dbh_50-prng-1,daily_base_hphc_50,50,first-50,21,rng,num-start-231,231,365,0.9227416515350342,True,,True,1,False,1000,True,1.0
./expes/v2_2020-11-05_dbh_50-prng-1,daily_base_hphc_50,50,first-50,1,rng,num-start-121,121,365,0.25580739974975586,True,,True,1,False,1000,True,1.0
./expes/v2_2020-11-05_dbh_50-prng-1,daily_base_hphc_50,50,first-50,1,rng,num-start-161,161,365,0.3393549919128418,True,,True,1,False,1000,True,1.0
./expes/v2_2020-11-05_dbh_50-prng-1,daily_base_hphc_50,50,first-50,1,rng,num-start-251,251,365,0.5293166637420654,True,,True,1,False,1000,True,1.0
./expes/v2_2020-11-05_dbh_50-prng-1,daily_base_hphc_50,50,first-50,31,rng,num-start-121,121,365,0.47808146476745605,True,,True,1,False,1000,True,1.0
./expes/v2_2020-11-05_dbh_50-prng-1,daily_base_hphc_50,50,first-50,21,rng,num-start-131,131,365,0.3626229763031006,True,,True,1,False,1000,True,1.0
./expes/v2_2020-11-05_dbh_50-prng-1,daily_base_hphc_50,50,first-50,41,rng,num-start-41,41,365,0.2946197986602783,True,,True,1,False,1000,True,1.0
./expes/v2_2020-11-05_dbh_50-prng-1,daily_base_hphc_50,50,first-50,1,rng,num-start-251,251,365,0.5365667343139648,True,,True,1,False,1000,True,1.0
./expes/v2_2020-11-05_dbh_50-prng-1,daily_base_hphc_50,50,first-50,1,rng,num-start-231,231,365,0.5063033103942871,True,,True,1,False,1000,True,1.0
./expes/v2_2020-11-05_dbh_50-prng-1,daily_base_hphc_50,50,first-50,41,rng,num-start-131,131,365,0.4899172782897949,True,,True,1,False,1000,True,1.0
./expes/v2_2020-11-05_dbh_50-prng-1,daily_base_hphc_50,50,first-50,11,rng,num-start-61,61,365,0.29789304733276367,True,,True,1,False,1000,True,1.0
./expes/v2_2020-11-05_dbh_50-prng-1,daily_base_hphc_50,50,first-50,21,rng,num-start-241,241,365,0.7434117794036865,True,,True,1,False,1000,True,1.0
./expes/v2_2020-11-05_dbh_50-prng-1,daily_base_hphc_50,50,first-50,1,rng,num-start-101,101,365,0.21820354461669922,True,,True,1,False,1000,True,1.0
./expes/v2_2020-11-05_dbh_50-prng-1,daily_base_hphc_50,50,first-50,21,rng,num-start-201,201,365,0.6480457782745361,True,,True,1,False,1000,True,1.0
./expes/v2_2020-11-05_dbh_50-prng-1,daily_base_hphc_50,50,first-50,11,rng,num-start-71,71,365,0.3066253662109375,True,,True,1,False,1000,True,1.0
./expes/v2_2020-11-05_dbh_50-prng-1,daily_base_hphc_50,50,first-50,41,rng,num-start-271,271,365,0.5933682918548584,True,,True,1,False,1000,True,1.0
./expes/v2_2020-11-05_dbh_50-prng-1,daily_base_hphc_50,50,first-50,21,rng,num-start-141,141,365,0.5081064701080322,True,,True,1,False,1000,True,1.0
./expes/v2_2020-11-05_dbh_50-prng-1,daily_base_hphc_50,50,first-50,31,rng,num-start-31,31,365,0.21996188163757324,True,,True,1,False,1000,True,1.0
./expes/v2_2020-11-05_dbh_50-prng-1,daily_base_hphc_50,50,first-50,1,rng,num-start-111,111,365,0.23982000350952148,True,,True,1,False,1000,True,1.0
./expes/v2_2020-11-05_dbh_50-prng-1,daily_base_hphc_50,50,first-50,21,rng,num-start-131,131,365,0.4484233856201172,True,,True,1,False,1000,True,1.0
./expes/v2_2020-11-05_dbh_50-prng-1,daily_base_hphc_50,50,first-50,11,rng,num-start-141,141,365,0.47908449172973633,True,,True,1,False,1000,True,1.0
./expes/v2_2020-11-05_dbh_50-prng-1,daily_base_hphc_50,50,first-50,21,rng,num-start-261,261,365,0.5790927410125732,True,,True,1,False,1000,True,1.0
./expes/v2_2020-11-05_dbh_50-prng-1,daily_base_hphc_50,50,first-50,1,rng,num-start-241,241,365,0.5111773014068604,True,,True,1,False,1000,True,1.0
./expes/v2_2020-11-05_dbh_50-prng-1,daily_base_hphc_50,50,first-50,31,rng,num-start-291,291,365,0.6759724617004395,True,,True,1,False,1000,True,1.0
./expes/v2_2020-11-05_dbh_50-prng-1,daily_base_hphc_50,50,first-50,41,rng,num-start-61,61,365,0.27106332778930664,True,,True,1,False,1000,True,1.0
./expes/v2_2020-11-05_dbh_50-prng-1,daily_base_hphc_50,50,first-50,21,rng,num-start-261,261,365,0.5860028266906738,True,,True,1,False,1000,True,1.0
./expes/v2_2020-11-05_dbh_50-prng-1,daily_base_hphc_50,50,first-50,21,rng,num-start-31,31,365,0.2663736343383789,True,,True,1,False,1000,True,1.0
./expes/v2_2020-11-05_dbh_50-prng-1,daily_base_hphc_50,50,first-50,31,rng,num-start-171,171,365,0.5667600631713867,True,,True,1,False,1000,True,1.0
./expes/v2_2020-11-05_dbh_50-prng-1,daily_base_hphc_50,50,first-50,31,rng,num-start-1,1,365,0.3083529472351074,False,,False,2,False,1000,True,1.0
./expes/v2_2020-11-05_dbh_50-prng-1,daily_base_hphc_50,50,first-50,41,rng,num-start-41,41,365,0.30170750617980957,True,,True,1,False,1000,True,1.0
./expes/v2_2020-11-05_dbh_50-prng-1,daily_base_hphc_50,50,first-50,1,rng,num-start-41,41,365,0.08954548835754395,True,,True,1,False,1000,True,1.0
./expes/v2_2020-11-05_dbh_50-prng-1,daily_base_hphc_50,50,first-50,31,rng,num-start-121,121,365,0.4507005214691162,True,,True,1,False,1000,True,1.0
./expes/v2_2020-11-05_dbh_50-prng-1,daily_base_hphc_50,50,first-50,21,rng,num-start-131,131,365,0.4687538146972656,True,,True,1,False,1000,True,1.0
./expes/v2_2020-11-05_dbh_50-prng-1,daily_base_hphc_50,50,first-50,1,rng,num-start-11,11,365,0.026859045028686523,True,,True,1,False,1000,True,1.0
./expes/v2_2020-11-05_dbh_50-prng-1,daily_base_hphc_50,50,first-50,41,rng,num-start-141,141,365,0.5390567779541016,True,,True,1,False,1000,True,1.0
./expes/v2_2020-11-05_dbh_50-prng-1,daily_base_hphc_50,50,first-50,11,rng,num-start-201,201,365,0.6426985263824463,True,,True,1,False,1000,True,1.0
./expes/v2_2020-11-05_dbh_50-prng-1,daily_base_hphc_50,50,first-50,1,rng,num-start-121,121,365,0.2716197967529297,True,,True,1,False,1000,True,1.0
./expes/v2_2020-11-05_dbh_50-prng-1,daily_base_hphc_50,50,first-50,11,rng,num-start-171,171,365,0.6123325824737549,True,,True,1,False,1000,True,1.0
./expes/v2_2020-11-05_dbh_50-prng-1,daily_base_hphc_50,50,first-50,21,rng,num-start-91,91,365,0.38533782958984375,True,,True,1,False,1000,True,1.0
./expes/v2_2020-11-05_dbh_50-prng-1,daily_base_hphc_50,50,first-50,41,rng,num-start-81,81,365,0.3407609462738037,True,,True,1,False,1000,True,1.0
./expes/v2_2020-11-05_dbh_50-prng-1,daily_base_hphc_50,50,first-50,31,rng,num-start-231,231,365,0.6815481185913086,True,,True,1,False,1000,True,1.0
./expes/v2_2020-11-05_dbh_50-prng-1,daily_base_hphc_50,50,first-50,31,rng,num-start-41,41,365,0.27345728874206543,True,,True,1,False,1000,True,1.0
