expe,clients,clients_size,clients_subset,agg_size,method,days,days_size,days_total,time,valid,valid_sum,success,nsols,wall_hit,wall_time,pooled,valid_sums
./expes/v2_2020-11-05_dbh_50-prng-1,daily_base_hphc_50,50,first-50,31,rng,num-start-191,191,365,0.9677412509918213,True,,True,1,False,1000,True,1.0
./expes/v2_2020-11-05_dbh_50-prng-1,daily_base_hphc_50,50,first-50,1,rng,num-start-21,21,365,0.0747215747833252,True,,True,1,False,1000,True,1.0
./expes/v2_2020-11-05_dbh_50-prng-1,daily_base_hphc_50,50,first-50,21,rng,num-start-241,241,365,1.1326568126678467,True,,True,1,False,1000,True,1.0
./expes/v2_2020-11-05_dbh_50-prng-1,daily_base_hphc_50,50,first-50,1,rng,num-start-151,151,365,0.5161268711090088,True,,True,1,False,1000,True,1.0
./expes/v2_2020-11-05_dbh_50-prng-1,daily_base_hphc_50,50,first-50,11,rng,num-start-271,271,365,0.9529151916503906,True,,True,1,False,1000,True,1.0
./expes/v2_2020-11-05_dbh_50-prng-1,daily_base_hphc_50,50,first-50,21,rng,num-start-31,31,365,0.22258234024047852,True,,True,1,False,1000,True,1.0
./expes/v2_2020-11-05_dbh_50-prng-1,daily_base_hphc_50,50,first-50,11,rng,num-start-41,41,365,0.2893640995025635,True,,True,1,False,1000,True,1.0
./expes/v2_2020-11-05_dbh_50-prng-1,daily_base_hphc_50,50,first-50,31,rng,num-start-221,221,365,1.0969343185424805,True,,True,1,False,1000,True,1.0
./expes/v2_2020-11-05_dbh_50-prng-1,daily_base_hphc_50,50,first-50,41,rng,num-start-21,21,365,0.23604702949523926,True,,True,1,False,1000,True,1.0
./expes/v2_2020-11-05_dbh_50-prng-1,daily_base_hphc_50,50,first-50,11,rng,num-start-171,171,365,0.786017894744873,True,,True,1,False,1000,True,1.0
./expes/v2_2020-11-05_dbh_50-prng-1,daily_base_hphc_50,50,first-50,11,rng,num-start-21,21,365,0.2160496711730957,True,,True,1,False,1000,True,1.0
./expes/v2_2020-11-05_dbh_50-prng-1,daily_base_hphc_50,50,first-50,21,rng,num-start-181,181,365,0.8314976692199707,True,,True,1,False,1000,True,1.0
./expes/v2_2020-11-05_dbh_50-prng-1,daily_base_hphc_50,50,first-50,11,rng,num-start-201,201,365,0.9513537883758545,True,,True,1,False,1000,True,1.0
./expes/v2_2020-11-05_dbh_50-prng-1,daily_base_hphc_50,50,first-50,21,rng,num-start-211,211,365,0.9934415817260742,True,,True,1,False,1000,True,1.0
./expes/v2_2020-11-05_dbh_50-prng-1,daily_base_hphc_50,50,first-50,11,rng,num-start-211,211,365,0.9337701797485352,True,,True,1,False,1000,True,1.0
./expes/v2_2020-11-05_dbh_50-prng-1,daily_base_hphc_50,50,first-50,41,rng,num-start-241,241,365,1.0928373336791992,True,,True,1,False,1000,True,1.0
./expes/v2_2020-11-05_dbh_50-prng-1,daily_base_hphc_50,50,first-50,11,rng,num-start-211,211,365,0.9682021141052246,True,,True,1,False,1000,True,1.0
./expes/v2_2020-11-05_dbh_50-prng-1,daily_base_hphc_50,50,first-50,11,rng,num-start-121,121,365,0.5758721828460693,True,,True,1,False,1000,True,1.0
./expes/v2_2020-11-05_dbh_50-prng-1,daily_base_hphc_50,50,first-50,41,rng,num-start-11,11,365,0.24167227745056152,True,,True,1,False,1000,True,1.0
./expes/v2_2020-11-05_dbh_50-prng-1,daily_base_hphc_50,50,first-50,31,rng,num-start-201,201,365,0.910506010055542,True,,True,1,False,1000,True,1.0
./expes/v2_2020-11-05_dbh_50-prng-1,daily_base_hphc_50,50,first-50,41,rng,num-start-291,291,365,1.0400378704071045,True,,True,1,False,1000,True,1.0
./expes/v2_2020-11-05_dbh_50-prng-1,daily_base_hphc_50,50,first-50,41,rng,num-start-131,131,365,0.6175074577331543,True,,True,1,False,1000,True,1.0
./expes/v2_2020-11-05_dbh_50-prng-1,daily_base_hphc_50,50,first-50,31,rng,num-start-101,101,365,0.5123353004455566,True,,True,1,False,1000,True,1.0
./expes/v2_2020-11-05_dbh_50-prng-1,daily_base_hphc_50,50,first-50,21,rng,num-start-291,291,365,1.0402023792266846,True,,True,1,False,1000,True,1.0
./expes/v2_2020-11-05_dbh_50-prng-1,daily_base_hphc_50,50,first-50,41,rng,num-start-171,171,365,0.8088858127593994,True,,True,1,False,1000,True,1.0
./expes/v2_2020-11-05_dbh_50-prng-1,daily_base_hphc_50,50,first-50,41,rng,num-start-291,291,365,1.0477290153503418,True,,True,1,False,1000,True,1.0
./expes/v2_2020-11-05_dbh_50-prng-1,daily_base_hphc_50,50,first-50,31,rng,num-start-181,181,365,0.8426122665405273,True,,True,1,False,1000,True,1.0
./expes/v2_2020-11-05_dbh_50-prng-1,daily_base_hphc_50,50,first-50,21,rng,num-start-191,191,365,0.8835625648498535,True,,True,1,False,1000,True,1.0
./expes/v2_2020-11-05_dbh_50-prng-1,daily_base_hphc_50,50,first-50,21,rng,num-start-291,291,365,1.0362548828125,True,,True,1,False,1000,True,1.0
./expes/v2_2020-11-05_dbh_50-prng-1,daily_base_hphc_50,50,first-50,41,rng,num-start-181,181,365,0.8786587715148926,True,,True,1,False,1000,True,1.0
./expes/v2_2020-11-05_dbh_50-prng-1,daily_base_hphc_50,50,first-50,21,rng,num-start-121,121,365,0.5867323875427246,True,,True,1,False,1000,True,1.0
./expes/v2_2020-11-05_dbh_50-prng-1,daily_base_hphc_50,50,first-50,1,rng,num-start-31,31,365,0.10996055603027344,True,,True,1,False,1000,True,1.0
./expes/v2_2020-11-05_dbh_50-prng-1,daily_base_hphc_50,50,first-50,41,rng,num-start-221,221,365,1.030426263809204,True,,True,1,False,1000,True,1.0
./expes/v2_2020-11-05_dbh_50-prng-1,daily_base_hphc_50,50,first-50,41,rng,num-start-231,231,365,1.0671067237854004,True,,True,1,False,1000,True,1.0
./expes/v2_2020-11-05_dbh_50-prng-1,daily_base_hphc_50,50,first-50,21,rng,num-start-41,41,365,0.3289029598236084,True,,True,1,False,1000,True,1.0
./expes/v2_2020-11-05_dbh_50-prng-1,daily_base_hphc_50,50,first-50,31,rng,num-start-201,201,365,0.9568281173706055,True,,True,1,False,1000,True,1.0
./expes/v2_2020-11-05_dbh_50-prng-1,daily_base_hphc_50,50,first-50,21,rng,num-start-171,171,365,0.871478796005249,True,,True,1,False,1000,True,1.0
./expes/v2_2020-11-05_dbh_50-prng-1,daily_base_hphc_50,50,first-50,31,rng,num-start-61,61,365,0.3778371810913086,True,,True,1,False,1000,True,1.0
./expes/v2_2020-11-05_dbh_50-prng-1,daily_base_hphc_50,50,first-50,31,rng,num-start-71,71,365,0.4176523685455322,True,,True,1,False,1000,True,1.0
./expes/v2_2020-11-05_dbh_50-prng-1,daily_base_hphc_50,50,first-50,21,rng,num-start-121,121,365,0.5963239669799805,True,,True,1,False,1000,True,1.0
./expes/v2_2020-11-05_dbh_50-prng-1,daily_base_hphc_50,50,first-50,11,rng,num-start-71,71,365,0.42021703720092773,True,,True,1,False,1000,True,1.0
./expes/v2_2020-11-05_dbh_50-prng-1,daily_base_hphc_50,50,first-50,31,rng,num-start-1,1,365,0.28276848793029785,False,,False,2,False,1000,True,1.0
./expes/v2_2020-11-05_dbh_50-prng-1,daily_base_hphc_50,50,first-50,41,rng,num-start-281,281,365,1.0079810619354248,True,,True,1,False,1000,True,1.0
