expe,clients,clients_size,clients_subset,agg_size,method,days,days_size,days_total,time,valid,valid_sum,success,nsols,wall_hit,wall_time,pooled,valid_sums
./expes/v2_2020-11-04_dbh_250-prng-1,daily_base_hphc_250,250,first-250,1,rng,num-start-251,251,365,4.199608564376831,True,,True,1,False,1000,True,1.0
./expes/v2_2020-11-04_dbh_250-prng-1,daily_base_hphc_250,250,first-250,141,rng,num-start-91,91,365,1001.5429100990295,False,,False,0,True,1000,True,0.0
./expes/v2_2020-11-04_dbh_250-prng-1,daily_base_hphc_250,250,first-250,211,rng,num-start-241,241,365,5.688866376876831,True,,True,1,False,1000,True,1.0
./expes/v2_2020-11-04_dbh_250-prng-1,daily_base_hphc_250,250,first-250,41,rng,num-start-51,51,365,1000.9047873020172,False,,False,0,True,1000,True,0.0
