expe,clients,clients_size,clients_subset,agg_size,method,days,days_size,days_total,time,valid,valid_sum,success,nsols,wall_hit,wall_time,pooled,valid_sums
./expes/v2_2020-11-04_dbh_250-prng-1,daily_base_hphc_250,250,first-250,71,rng,num-start-51,51,365,1001.0527248382568,False,,False,0,True,1000,True,0.0
./expes/v2_2020-11-04_dbh_250-prng-1,daily_base_hphc_250,250,first-250,141,rng,num-start-211,211,365,5.214078426361084,True,,True,1,False,1000,True,1.0
./expes/v2_2020-11-04_dbh_250-prng-1,daily_base_hphc_250,250,first-250,61,rng,num-start-201,201,365,5.615179777145386,True,,True,1,False,1000,True,1.0
./expes/v2_2020-11-04_dbh_250-prng-1,daily_base_hphc_250,250,first-250,201,rng,num-start-281,281,365,7.241576910018921,True,,True,1,False,1000,True,1.0
./expes/v2_2020-11-04_dbh_250-prng-1,daily_base_hphc_250,250,first-250,31,rng,num-start-261,261,365,5.896905183792114,True,,True,1,False,1000,True,1.0
./expes/v2_2020-11-04_dbh_250-prng-1,daily_base_hphc_250,250,first-250,201,rng,num-start-231,231,365,5.528439044952393,True,,True,1,False,1000,True,1.0
./expes/v2_2020-11-04_dbh_250-prng-1,daily_base_hphc_250,250,first-250,141,rng,num-start-131,131,365,3.5808770656585693,True,,True,1,False,1000,True,1.0
./expes/v2_2020-11-04_dbh_250-prng-1,daily_base_hphc_250,250,first-250,21,rng,num-start-231,231,365,6.127063512802124,True,,True,1,False,1000,True,1.0
./expes/v2_2020-11-04_dbh_250-prng-1,daily_base_hphc_250,250,first-250,51,rng,num-start-231,231,365,5.553252458572388,True,,True,1,False,1000,True,1.0
./expes/v2_2020-11-04_dbh_250-prng-1,daily_base_hphc_250,250,first-250,221,rng,num-start-121,121,365,2.839545249938965,True,,True,1,False,1000,True,1.0
./expes/v2_2020-11-04_dbh_250-prng-1,daily_base_hphc_250,250,first-250,71,rng,num-start-71,71,365,1001.2791578769684,False,,False,0,True,1000,True,0.0
./expes/v2_2020-11-04_dbh_250-prng-1,daily_base_hphc_250,250,first-250,211,rng,num-start-221,221,365,4.704879283905029,True,,True,1,False,1000,True,1.0
./expes/v2_2020-11-04_dbh_250-prng-1,daily_base_hphc_250,250,first-250,101,rng,num-start-211,211,365,5.322405576705933,True,,True,1,False,1000,True,1.0
./expes/v2_2020-11-04_dbh_250-prng-1,daily_base_hphc_250,250,first-250,191,rng,num-start-51,51,365,1000.8937411308289,False,,False,0,True,1000,True,0.0
