expe,clients,clients_size,clients_subset,agg_size,agg_size_pc,method,days,days_size,days_total,noise_method,time,valid,valid_sum,success,score_avg,score_min,score_max,nsols,oracle,wall_hit,wall_time,pooled,pool_size,uuid,infeasible,optimal,valid_sums
./expes/v3_2021-03-17_issda_1000-prng-1-w1-p100-ukn95_95,30_issda-1000,950,first-1000,350,36,rng,num-start-400,400,25726,ukn-95-95,39.234904289245605,False,,False,0.17239003331824773,0.15164573874962772,0.8661583276551768,100,"['1', '2', '4', '6', '10', '12', '14', '19', '23', '24', '29', '30', '33', '34', '36', '37', '38', '43', '48', '50', '54', '56', '58', '59', '61', '65', '67', '68', '74', '81', '83', '92', '94', '95', '98', '105', '110', '111', '114', '116', '118', '122', '130', '134', '136', '137', '143', '145', '146', '150', '151', '152', '153', '161', '164', '166', '170', '171', '173', '174', '176', '177', '181', '182', '183', '184', '185', '186', '187', '190', '199', '201', '202', '204', '210', '213', '214', '215', '221', '222', '225', '232', '244', '252', '253', '256', '257', '262', '263', '271', '272', '278', '279', '281', '283', '286', '287', '288', '290', '296', '297', '299', '301', '302', '303', '306', '309', '310', '314', '317', '318', '320', '322', '324', '325', '326', '334', '340', '343', '347', '348', '349', '353', '354', '357', '359', '360', '364', '365', '366', '367', '368', '370', '371', '372', '373', '374', '375', '377', '381', '382', '383', '386', '387', '390', '393', '399', '414', '416', '418', '419', '420', '424', '425', '426', '427', '429', '431', '432', '444', '445', '452', '456', '461', '464', '465', '467', '474', '475', '477', '481', '482', '483', '484', '486', '489', '491', '493', '495', '496', '498', '500', '504', '506', '512', '513', '515', '525', '526', '528', '529', '531', '535', '538', '543', '545', '547', '553', '557', '559', '561', '562', '563', '564', '567', '573', '578', '588', '593', '595', '601', '602', '604', '605', '609', '611', '616', '618', '626', '627', '629', '632', '633', '636', '638', '639', '640', '641', '642', '643', '646', '647', '653', '654', '660', '663', '665', '666', '667', '668', '679', '680', '682', '685', '687', '688', '690', '695', '703', '705', '706', '708', '709', '712', '714', '720', '722', '725', '734', '736', '737', '738', '739', '748', '749', '750', '756', '758', '759', '760', '767', '768', '774', '778', '781', '785', '789', '793', '794', '795', '800', '801', '805', '807', '815', '817', '818', '821', '837', '838', '839', '840', '842', '847', '849', '852', '856', '857', '859', '861', '862', '864', '866', '873', '875', '877', '881', '888', '889', '890', '891', '893', '894', '898', '914', '915', '916', '919', '923', '924', '925', '939', '941', '945', '946', '947', '952', '959', '960', '961', '962', '964', '965', '966', '969', '973', '975', '978', '979', '980', '983', '984', '985', '988', '989', '990', '992', '996', '999', '1000']",False,1000,True,100,ca7077c6b4,0.0,1.0,0.0
./expes/v3_2021-03-17_issda_1000-prng-1-w1-p100-ukn95_95,30_issda-1000,950,first-1000,350,36,rng,num-start-800,800,25726,ukn-95-95,75.77694439888,False,,False,0.32205471826882387,0.15164573874962772,0.8661583276551768,100,"['4', '8', '10', '11', '14', '19', '21', '27', '28', '33', '36', '37', '38', '42', '43', '44', '45', '46', '48', '53', '55', '57', '61', '62', '64', '69', '77', '80', '81', '82', '84', '85', '88', '89', '92', '93', '96', '100', '104', '106', '109', '116', '117', '119', '120', '126', '131', '140', '143', '146', '149', '154', '157', '159', '161', '163', '166', '169', '170', '172', '173', '174', '177', '182', '183', '189', '193', '196', '197', '199', '200', '201', '204', '206', '207', '208', '211', '213', '214', '216', '217', '220', '221', '224', '225', '228', '235', '238', '239', '242', '244', '248', '249', '254', '255', '256', '257', '260', '261', '264', '266', '267', '268', '269', '275', '276', '279', '283', '284', '285', '287', '288', '293', '296', '297', '298', '299', '300', '301', '304', '305', '308', '311', '313', '318', '320', '323', '329', '330', '331', '332', '333', '335', '339', '340', '345', '346', '347', '352', '356', '365', '366', '369', '372', '373', '374', '382', '391', '397', '398', '400', '402', '405', '406', '412', '413', '414', '420', '421', '423', '424', '428', '431', '432', '434', '435', '439', '441', '442', '447', '450', '451', '452', '455', '463', '465', '466', '471', '474', '476', '483', '484', '485', '490', '491', '501', '503', '504', '507', '509', '511', '519', '521', '532', '533', '536', '539', '540', '541', '542', '548', '550', '557', '560', '561', '563', '564', '572', '575', '576', '579', '583', '584', '586', '587', '597', '603', '609', '610', '614', '621', '622', '623', '625', '631', '633', '635', '636', '642', '643', '648', '650', '651', '657', '658', '663', '664', '668', '669', '670', '671', '673', '684', '685', '688', '690', '692', '694', '697', '703', '705', '713', '715', '718', '722', '726', '735', '739', '750', '753', '755', '763', '765', '784', '786', '787', '789', '791', '793', '794', '799', '802', '803', '804', '807', '810', '817', '818', '819', '820', '821', '824', '827', '830', '833', '835', '838', '839', '847', '848', '849', '851', '855', '858', '860', '861', '866', '869', '876', '877', '880', '883', '886', '887', '889', '891', '892', '895', '898', '899', '900', '901', '902', '904', '911', '913', '914', '916', '918', '921', '922', '923', '927', '931', '936', '938', '939', '940', '945', '947', '950', '951', '953', '958', '965', '966', '967', '968', '974', '978', '980', '983', '984', '985', '986', '988', '990', '992', '994', '995']",False,1000,True,100,9d89f9e7b4,0.0,1.0,0.0
./expes/v3_2021-03-17_issda_1000-prng-1-w1-p100-ukn95_95,30_issda-1000,950,first-1000,450,47,rng,num-start-900,900,25726,ukn-95-95,87.69140195846558,False,,False,0.23882846269712552,0.03813493428835901,0.8409723963758611,100,"['1', '2', '5', '13', '15', '20', '22', '24', '27', '28', '29', '30', '39', '41', '44', '48', '50', '51', '54', '56', '59', '60', '61', '62', '63', '64', '65', '67', '69', '71', '72', '73', '75', '80', '83', '84', '85', '87', '88', '89', '93', '94', '96', '97', '100', '101', '104', '105', '106', '107', '109', '113', '119', '120', '121', '123', '124', '125', '126', '127', '129', '131', '133', '134', '135', '137', '141', '143', '145', '147', '148', '150', '151', '153', '154', '155', '156', '159', '160', '163', '166', '167', '169', '171', '172', '173', '175', '177', '181', '183', '185', '186', '187', '188', '193', '196', '199', '200', '202', '205', '208', '210', '211', '213', '214', '217', '218', '220', '224', '225', '226', '227', '229', '233', '237', '238', '239', '246', '247', '250', '254', '255', '258', '259', '260', '266', '268', '270', '272', '277', '284', '285', '286', '287', '289', '292', '295', '297', '300', '306', '307', '308', '311', '316', '318', '320', '322', '324', '327', '332', '334', '338', '341', '346', '349', '351', '352', '353', '356', '358', '359', '363', '364', '365', '368', '371', '373', '374', '375', '376', '379', '382', '386', '390', '396', '398', '401', '402', '404', '405', '406', '407', '408', '409', '411', '412', '426', '427', '429', '430', '431', '432', '435', '438', '439', '441', '445', '451', '452', '453', '454', '457', '458', '459', '460', '464', '465', '468', '470', '473', '475', '477', '478', '479', '482', '484', '485', '486', '490', '491', '492', '494', '495', '496', '497', '499', '500', '501', '505', '506', '507', '509', '514', '515', '518', '520', '521', '523', '525', '528', '529', '530', '531', '536', '537', '538', '540', '541', '544', '545', '546', '547', '548', '549', '550', '554', '555', '557', '558', '561', '562', '563', '564', '565', '569', '570', '571', '572', '573', '574', '576', '578', '580', '581', '585', '587', '589', '591', '592', '594', '596', '597', '598', '600', '601', '604', '605', '609', '611', '616', '617', '620', '621', '624', '625', '626', '627', '628', '629', '633', '634', '640', '643', '646', '650', '652', '655', '659', '663', '666', '667', '669', '671', '672', '674', '675', '677', '679', '681', '685', '686', '688', '693', '697', '698', '699', '700', '707', '708', '709', '710', '712', '713', '714', '716', '719', '724', '729', '730', '734', '740', '741', '743', '744', '747', '749', '757', '758', '759', '762', '765', '768', '769', '776', '777', '779', '783', '787', '791', '795', '796', '798', '799', '802', '803', '804', '808', '809', '810', '814', '817', '818', '819', '821', '823', '826', '827', '828', '831', '835', '836', '838', '839', '841', '842', '846', '847', '849', '852', '855', '861', '866', '870', '874', '880', '885', '892', '893', '894', '895', '896', '897', '898', '900', '905', '906', '907', '909', '911', '915', '916', '919', '920', '922', '926', '927', '931', '932', '935', '937', '939', '940', '945', '946', '951', '956', '957', '960', '963', '964', '965', '966', '968', '969', '970', '971', '972', '974', '975', '976', '978', '979', '980', '981', '986', '991', '995', '997', '998', '1000']",False,1000,True,100,6713cf30b0,0.0,1.0,0.0
./expes/v3_2021-03-17_issda_1000-prng-1-w1-p100-ukn95_95,30_issda-1000,950,first-1000,300,31,rng,num-start-900,900,25726,ukn-95-95,84.86657977104187,False,,False,0.3652832511561481,0.21486411611467948,0.8742776404273184,100,"['5', '8', '12', '14', '16', '21', '22', '23', '28', '30', '32', '33', '35', '37', '44', '46', '47', '62', '63', '65', '66', '68', '69', '79', '82', '88', '91', '100', '105', '106', '107', '108', '111', '122', '124', '128', '133', '134', '135', '137', '138', '140', '142', '155', '156', '160', '164', '168', '174', '182', '188', '190', '192', '196', '197', '203', '205', '217', '223', '224', '228', '230', '231', '238', '240', '242', '244', '245', '258', '265', '266', '270', '271', '274', '276', '278', '286', '287', '292', '298', '299', '301', '306', '308', '309', '311', '318', '321', '322', '323', '328', '330', '335', '336', '339', '341', '342', '345', '348', '349', '353', '354', '355', '360', '362', '369', '373', '375', '379', '386', '387', '396', '397', '400', '405', '407', '418', '420', '421', '424', '426', '427', '430', '432', '438', '442', '445', '446', '447', '448', '449', '456', '462', '468', '472', '476', '478', '481', '482', '485', '486', '488', '489', '494', '496', '502', '507', '513', '518', '520', '523', '531', '533', '534', '536', '543', '547', '549', '554', '555', '558', '562', '563', '565', '573', '582', '583', '586', '588', '589', '591', '594', '595', '599', '600', '601', '604', '606', '607', '610', '615', '616', '619', '620', '621', '624', '626', '630', '631', '635', '636', '638', '641', '642', '643', '644', '648', '649', '650', '651', '655', '658', '660', '666', '670', '672', '688', '689', '692', '693', '695', '696', '698', '699', '701', '707', '713', '715', '716', '724', '731', '732', '733', '735', '736', '737', '738', '746', '753', '756', '760', '777', '780', '788', '791', '796', '798', '799', '806', '807', '808', '813', '820', '821', '824', '826', '827', '830', '831', '833', '844', '848', '852', '853', '854', '857', '858', '859', '865', '871', '875', '876', '877', '882', '883', '885', '887', '888', '889', '891', '894', '900', '902', '903', '907', '919', '926', '927', '931', '938', '940', '943', '944', '945', '949', '952', '959', '964', '966', '972', '973', '978', '981', '982', '984', '987', '988', '989', '995', '997']",False,1000,True,100,ffabcb451e,0.0,1.0,0.0
