expe,clients,clients_size,clients_subset,agg_size,agg_size_pc,method,days,days_size,days_total,noise_method,time,valid,valid_sum,success,score_avg,score_min,score_max,nsols,oracle,wall_hit,wall_time,pooled,pool_size,uuid,infeasible,optimal,valid_sums
./expes/v3_2021-03-17_issda_1000-prng-1-w1-p100-ukn95_95,30_issda-1000,950,first-1000,150,15,rng,num-start-100,100,25726,ukn-95-95,8.655257225036621,False,,False,0.4978383033180777,0.4443507864919848,0.9141152780852307,100,"['4', '6', '7', '9', '18', '25', '36', '42', '43', '45', '53', '56', '57', '65', '71', '83', '86', '87', '89', '90', '96', '105', '114', '115', '125', '136', '137', '142', '143', '149', '153', '161', '166', '173', '174', '177', '191', '197', '203', '205', '208', '210', '215', '230', '243', '244', '274', '275', '277', '288', '299', '339', '343', '347', '350', '375', '383', '388', '389', '393', '407', '408', '413', '422', '431', '432', '433', '435', '463', '475', '504', '509', '513', '515', '518', '519', '535', '551', '553', '568', '569', '579', '587', '590', '593', '594', '605', '612', '620', '621', '624', '626', '628', '632', '655', '691', '693', '700', '705', '717', '718', '721', '723', '726', '737', '743', '744', '746', '754', '755', '764', '765', '783', '784', '792', '793', '794', '809', '813', '829', '866', '867', '872', '873', '888', '889', '890', '893', '901', '908', '909', '911', '914', '917', '918', '920', '928', '929', '934', '940', '942', '944', '947', '959', '963', '969', '974', '975', '982', '988']",False,1000,True,100,6df223aeac,0.0,1.0,0.0
./expes/v3_2021-03-17_issda_1000-prng-1-w1-p100-ukn95_95,30_issda-1000,950,first-1000,500,52,rng,num-start-200,200,25726,ukn-95-95,16.894099712371826,False,,False,0.035024209572541994,0.012725863153721706,0.8313257546222874,100,"['2', '4', '5', '6', '8', '10', '11', '14', '19', '21', '24', '27', '28', '29', '33', '36', '37', '38', '42', '43', '44', '45', '46', '48', '53', '55', '57', '61', '62', '64', '68', '69', '70', '71', '77', '78', '79', '80', '81', '82', '84', '85', '88', '89', '91', '92', '93', '94', '96', '98', '100', '101', '104', '106', '109', '114', '116', '117', '118', '119', '120', '122', '124', '126', '131', '136', '137', '140', '143', '145', '146', '148', '149', '153', '154', '157', '159', '160', '161', '163', '166', '167', '169', '170', '172', '173', '174', '177', '179', '181', '182', '183', '184', '185', '187', '189', '193', '196', '197', '199', '200', '201', '203', '204', '206', '207', '208', '211', '213', '214', '216', '217', '220', '221', '224', '225', '227', '228', '235', '236', '238', '239', '240', '242', '244', '245', '248', '249', '252', '254', '255', '256', '257', '258', '260', '261', '264', '265', '266', '267', '268', '269', '275', '276', '279', '283', '284', '285', '287', '288', '291', '293', '296', '297', '298', '299', '300', '301', '304', '305', '307', '308', '310', '311', '313', '318', '319', '320', '321', '323', '329', '330', '331', '332', '333', '335', '338', '339', '340', '345', '346', '347', '349', '352', '356', '359', '365', '366', '368', '369', '371', '372', '373', '374', '375', '377', '381', '382', '391', '397', '398', '400', '402', '405', '406', '410', '411', '412', '413', '414', '416', '420', '421', '422', '423', '424', '426', '428', '431', '432', '433', '434', '435', '439', '441', '442', '444', '445', '447', '449', '450', '451', '452', '453', '455', '463', '465', '466', '470', '471', '474', '476', '479', '483', '484', '485', '489', '490', '491', '496', '499', '501', '502', '503', '504', '507', '508', '509', '511', '519', '521', '524', '525', '532', '533', '534', '536', '537', '539', '540', '541', '542', '543', '548', '550', '551', '554', '555', '557', '558', '559', '560', '561', '563', '564', '572', '575', '576', '579', '582', '583', '584', '586', '587', '588', '590', '597', '599', '603', '609', '610', '612', '614', '616', '619', '621', '622', '623', '625', '628', '630', '631', '633', '635', '636', '638', '639', '642', '643', '644', '646', '648', '650', '651', '653', '656', '657', '658', '662', '663', '664', '668', '669', '670', '671', '673', '677', '678', '684', '685', '688', '690', '692', '693', '694', '697', '703', '705', '710', '713', '715', '718', '721', '722', '724', '726', '728', '729', '733', '735', '739', '750', '753', '755', '763', '764', '765', '773', '774', '777', '779', '784', '786', '787', '789', '790', '791', '793', '794', '796', '797', '799', '802', '803', '804', '806', '807', '810', '813', '816', '817', '818', '819', '820', '821', '823', '824', '827', '829', '830', '833', '835', '838', '839', '846', '847', '848', '849', '850', '851', '852', '855', '857', '858', '860', '861', '866', '868', '869', '874', '876', '877', '879', '880', '881', '883', '885', '886', '887', '889', '891', '892', '895', '896', '898', '899', '900', '901', '902', '903', '904', '905', '907', '908', '911', '913', '914', '916', '918', '919', '921', '922', '923', '924', '926', '927', '930', '931', '933', '934', '935', '936', '938', '939', '940', '943', '945', '947', '948', '950', '951', '953', '958', '959', '960', '961', '963', '964', '965', '966', '967', '968', '971', '973', '974', '977', '978', '980', '983', '984', '985', '986', '988', '989', '990', '992', '993', '994', '995', '998']",False,1000,True,100,dbcb751480,0.0,1.0,0.0
./expes/v3_2021-03-17_issda_1000-prng-1-w1-p100-ukn95_95,30_issda-1000,950,first-1000,150,15,rng,num-start-100,100,25726,ukn-95-95,9.34375262260437,False,,False,0.4914812904475802,0.4443507864919848,0.9141152780852307,100,"['1', '13', '18', '23', '30', '38', '47', '56', '83', '91', '92', '96', '97', '99', '100', '120', '123', '130', '142', '150', '174', '190', '194', '198', '199', '201', '202', '203', '204', '206', '215', '229', '251', '252', '257', '268', '272', '275', '280', '297', '299', '312', '314', '320', '328', '341', '344', '366', '370', '371', '383', '384', '387', '389', '399', '408', '420', '424', '434', '435', '441', '452', '456', '457', '458', '482', '496', '497', '499', '501', '513', '516', '528', '535', '538', '541', '552', '553', '567', '572', '577', '588', '590', '601', '603', '604', '609', '612', '617', '618', '623', '625', '634', '636', '649', '651', '661', '664', '672', '679', '687', '688', '695', '696', '699', '703', '715', '717', '718', '737', '747', '748', '753', '765', '774', '778', '781', '789', '797', '803', '813', '816', '820', '822', '823', '825', '826', '842', '848', '853', '855', '865', '887', '892', '894', '898', '902', '911', '914', '925', '927', '932', '933', '935', '939', '956', '975', '989', '994', '1000']",False,1000,True,100,495ee8f32c,0.0,1.0,0.0
./expes/v3_2021-03-17_issda_1000-prng-1-w1-p100-ukn95_95,30_issda-1000,950,first-1000,350,36,rng,num-start-300,300,25726,ukn-95-95,23.783766508102417,False,,False,0.3274474653860481,0.15164573874962772,0.8661583276551768,100,"['1', '7', '13', '16', '18', '19', '21', '23', '30', '31', '32', '33', '34', '35', '38', '39', '47', '54', '56', '59', '64', '66', '71', '76', '77', '78', '79', '80', '83', '86', '88', '91', '92', '96', '97', '99', '100', '103', '108', '115', '117', '120', '123', '127', '130', '131', '132', '139', '141', '142', '146', '148', '149', '150', '154', '155', '159', '162', '165', '167', '174', '177', '178', '187', '189', '190', '191', '193', '194', '197', '198', '199', '201', '202', '203', '204', '206', '215', '229', '238', '245', '250', '251', '252', '256', '257', '258', '261', '263', '268', '272', '273', '275', '276', '280', '281', '283', '284', '287', '289', '293', '297', '298', '299', '311', '312', '314', '320', '326', '328', '332', '338', '341', '344', '345', '352', '359', '366', '369', '370', '371', '373', '376', '380', '381', '383', '384', '386', '387', '389', '390', '399', '408', '410', '419', '420', '421', '424', '432', '433', '434', '435', '437', '441', '442', '444', '451', '452', '455', '456', '457', '458', '461', '463', '474', '476', '479', '481', '482', '483', '485', '487', '489', '490', '491', '496', '497', '498', '499', '500', '501', '504', '507', '509', '510', '512', '513', '515', '516', '520', '528', '530', '533', '535', '538', '539', '541', '549', '551', '552', '553', '561', '565', '567', '572', '574', '577', '583', '584', '588', '590', '594', '601', '603', '604', '609', '612', '617', '618', '620', '622', '623', '625', '627', '629', '632', '633', '634', '635', '636', '639', '641', '644', '645', '647', '649', '650', '651', '653', '654', '655', '661', '662', '664', '670', '672', '673', '676', '679', '685', '687', '688', '693', '695', '696', '697', '698', '699', '703', '711', '712', '715', '717', '718', '719', '723', '726', '730', '731', '732', '736', '737', '739', '740', '742', '747', '748', '750', '753', '757', '758', '761', '764', '765', '770', '774', '778', '781', '784', '789', '793', '797', '798', '802', '803', '811', '813', '816', '820', '822', '823', '825', '826', '834', '836', '837', '838', '842', '848', '852', '853', '855', '859', '865', '874', '879', '887', '892', '894', '898', '901', '902', '907', '911', '914', '915', '922', '925', '927', '930', '931', '932', '933', '934', '935', '936', '939', '942', '945', '946', '947', '950', '956', '957', '960', '961', '963', '964', '967', '971', '973', '975', '986', '988', '989', '990', '994', '995', '999', '1000']",False,1000,True,100,89dde96976,0.0,1.0,0.0
./expes/v3_2021-03-17_issda_1000-prng-1-w1-p100-ukn95_95,30_issda-1000,950,first-1000,100,10,rng,num-start-500,500,25726,ukn-95-95,37.75706338882446,False,,False,0.5719409025250696,0.5467015860883755,0.9274141618575573,100,"['2', '15', '42', '64', '65', '76', '83', '94', '96', '98', '102', '104', '143', '144', '146', '151', '196', '210', '224', '228', '245', '250', '257', '266', '267', '289', '311', '318', '324', '328', '334', '339', '342', '363', '367', '395', '409', '415', '431', '445', '454', '459', '484', '489', '498', '506', '517', '524', '534', '546', '557', '562', '566', '574', '582', '598', '617', '626', '627', '634', '641', '656', '685', '701', '721', '723', '728', '737', '748', '774', '777', '803', '804', '819', '823', '825', '830', '845', '848', '850', '861', '865', '871', '887', '889', '892', '912', '914', '921', '924', '930', '932', '935', '938', '940', '941', '989', '990', '991', '992']",False,1000,True,100,3c2cedf91a,0.0,1.0,0.0
./expes/v3_2021-03-17_issda_1000-prng-1-w1-p100-ukn95_95,30_issda-1000,950,first-1000,350,36,rng,num-start-500,500,25726,ukn-95-95,40.76782250404358,False,,False,0.17145355657368536,0.15164573874962772,0.8661583276551768,100,"['2', '3', '6', '9', '10', '13', '15', '18', '19', '22', '23', '25', '27', '29', '30', '31', '32', '34', '36', '37', '39', '45', '49', '58', '61', '65', '72', '73', '79', '86', '89', '94', '97', '99', '102', '103', '105', '107', '111', '112', '113', '117', '121', '124', '129', '133', '134', '138', '139', '150', '161', '163', '164', '165', '168', '172', '173', '175', '176', '178', '182', '186', '190', '191', '193', '195', '199', '205', '206', '211', '215', '218', '219', '222', '223', '225', '226', '228', '229', '231', '233', '235', '236', '237', '238', '239', '249', '256', '259', '260', '262', '265', '273', '276', '280', '288', '289', '291', '297', '298', '302', '304', '306', '311', '314', '316', '318', '320', '326', '329', '330', '334', '336', '340', '341', '348', '352', '353', '354', '355', '356', '362', '366', '374', '376', '380', '384', '388', '389', '391', '393', '396', '400', '403', '404', '405', '407', '412', '414', '415', '424', '425', '427', '432', '433', '437', '440', '443', '444', '449', '450', '457', '461', '462', '464', '466', '470', '471', '472', '481', '484', '486', '492', '493', '497', '500', '502', '505', '508', '509', '512', '513', '515', '517', '518', '519', '520', '521', '522', '523', '525', '527', '529', '532', '534', '537', '541', '552', '553', '554', '555', '558', '562', '564', '565', '567', '568', '570', '575', '577', '579', '583', '584', '588', '590', '592', '593', '599', '602', '604', '605', '606', '608', '615', '621', '623', '624', '627', '628', '630', '638', '639', '640', '645', '646', '647', '651', '658', '663', '664', '665', '666', '668', '673', '676', '680', '681', '682', '687', '690', '691', '692', '694', '695', '703', '712', '713', '720', '721', '722', '729', '737', '739', '742', '744', '747', '748', '751', '756', '759', '761', '762', '773', '774', '780', '781', '783', '786', '790', '795', '797', '798', '799', '802', '803', '806', '808', '816', '817', '818', '822', '823', '824', '829', '831', '833', '837', '840', '841', '848', '850', '853', '856', '858', '861', '862', '867', '868', '869', '871', '872', '874', '878', '879', '880', '881', '882', '889', '891', '893', '897', '900', '903', '904', '908', '915', '918', '919', '922', '923', '924', '932', '933', '939', '940', '943', '945', '949', '954', '959', '961', '962', '964', '967', '968', '973', '975', '976', '978', '981', '983', '986', '989', '991', '992', '993', '997', '998', '999', '1000']",False,1000,True,100,2bb7c7411d,0.0,1.0,0.0
./expes/v3_2021-03-17_issda_1000-prng-1-w1-p100-ukn95_95,30_issda-1000,950,first-1000,350,36,rng,num-start-700,700,25726,ukn-95-95,51.39278292655945,False,,False,0.3177912854963769,0.15164573874962772,0.8661583276551768,100,"['1', '7', '13', '16', '18', '19', '21', '23', '30', '31', '32', '33', '34', '35', '38', '39', '47', '54', '56', '59', '64', '66', '71', '76', '77', '78', '79', '80', '83', '86', '88', '91', '92', '96', '97', '99', '100', '103', '108', '115', '117', '120', '123', '127', '130', '131', '132', '139', '141', '142', '146', '148', '149', '150', '154', '155', '159', '162', '165', '167', '174', '177', '178', '187', '189', '190', '191', '193', '194', '197', '198', '199', '201', '202', '203', '204', '206', '215', '229', '238', '245', '250', '251', '252', '256', '257', '258', '261', '263', '268', '272', '273', '275', '276', '280', '281', '283', '284', '287', '289', '293', '297', '298', '299', '311', '312', '314', '320', '326', '328', '332', '338', '341', '344', '345', '352', '359', '366', '369', '370', '371', '373', '376', '380', '381', '383', '384', '386', '387', '389', '390', '399', '408', '410', '419', '420', '421', '424', '432', '433', '434', '435', '437', '441', '442', '444', '451', '452', '455', '456', '457', '458', '461', '463', '474', '476', '479', '481', '482', '483', '485', '487', '489', '490', '491', '496', '497', '498', '499', '500', '501', '504', '507', '509', '510', '512', '513', '515', '516', '520', '528', '530', '533', '535', '538', '539', '541', '549', '551', '552', '553', '561', '565', '567', '572', '574', '577', '583', '584', '588', '590', '594', '601', '603', '604', '609', '612', '617', '618', '620', '622', '623', '625', '627', '629', '632', '633', '634', '635', '636', '639', '641', '644', '645', '647', '649', '650', '651', '653', '654', '655', '661', '662', '664', '670', '672', '673', '676', '679', '685', '687', '688', '693', '695', '696', '697', '698', '699', '703', '711', '712', '715', '717', '718', '719', '723', '726', '730', '731', '732', '736', '737', '739', '740', '742', '747', '748', '750', '753', '757', '758', '761', '764', '765', '770', '774', '778', '781', '784', '789', '793', '797', '798', '802', '803', '811', '813', '816', '820', '822', '823', '825', '826', '834', '836', '837', '838', '842', '848', '852', '853', '855', '859', '865', '874', '879', '887', '892', '894', '898', '901', '902', '907', '911', '914', '915', '922', '925', '927', '930', '931', '932', '933', '934', '935', '936', '939', '942', '945', '946', '947', '950', '956', '957', '960', '961', '963', '964', '967', '971', '973', '975', '986', '988', '989', '990', '994', '995', '999', '1000']",False,1000,True,100,cd5ca1b44d,0.0,1.0,0.0
