expe,clients,clients_size,clients_subset,agg_size,agg_size_pc,method,days,days_size,days_total,noise_method,time,valid,valid_sum,success,score_avg,score_min,score_max,nsols,oracle,wall_hit,wall_time,pooled,pool_size,uuid,infeasible,optimal,valid_sums
./expes/v3_2021-03-17_issda_1000-prng-1-w1-p100-ukn95_95,30_issda-1000,950,first-1000,450,47,rng,num-start-300,300,25726,ukn-95-95,20.35955286026001,False,,False,0.06079864614336285,0.03813493428835901,0.8477426614087193,100,"['2', '5', '6', '9', '17', '19', '20', '21', '22', '25', '26', '29', '31', '32', '33', '35', '37', '38', '39', '42', '45', '47', '51', '53', '55', '58', '59', '61', '62', '69', '70', '73', '76', '78', '79', '83', '84', '85', '87', '89', '90', '94', '96', '97', '99', '103', '104', '105', '108', '109', '114', '115', '116', '118', '119', '122', '125', '126', '131', '132', '135', '140', '144', '145', '148', '149', '151', '155', '156', '158', '160', '161', '162', '163', '165', '166', '169', '171', '174', '175', '177', '178', '181', '182', '185', '186', '187', '189', '193', '196', '197', '204', '213', '214', '216', '218', '223', '225', '228', '231', '233', '234', '237', '238', '239', '241', '242', '247', '251', '253', '254', '255', '256', '257', '258', '260', '261', '262', '263', '264', '266', '269', '271', '273', '275', '276', '280', '281', '286', '292', '293', '294', '297', '298', '304', '311', '314', '316', '317', '318', '320', '324', '327', '333', '336', '337', '338', '339', '343', '346', '350', '353', '354', '360', '363', '365', '367', '368', '369', '370', '371', '372', '373', '375', '376', '381', '382', '383', '384', '390', '393', '394', '395', '400', '401', '402', '403', '405', '410', '412', '413', '414', '415', '417', '419', '421', '423', '425', '427', '429', '430', '434', '436', '438', '442', '445', '450', '452', '456', '457', '459', '460', '463', '465', '466', '468', '469', '473', '475', '476', '477', '478', '482', '484', '485', '490', '492', '495', '496', '498', '499', '501', '502', '503', '504', '510', '511', '513', '515', '517', '520', '521', '522', '523', '524', '525', '527', '528', '529', '531', '532', '534', '535', '536', '537', '538', '539', '544', '546', '549', '554', '558', '559', '561', '562', '565', '571', '572', '574', '576', '582', '586', '588', '589', '590', '596', '599', '600', '603', '604', '606', '608', '610', '611', '620', '621', '622', '626', '629', '631', '632', '634', '637', '639', '640', '643', '651', '653', '654', '657', '658', '664', '668', '669', '671', '675', '677', '678', '680', '683', '686', '687', '689', '691', '696', '697', '698', '699', '701', '702', '704', '707', '709', '710', '713', '716', '717', '721', '723', '724', '726', '727', '728', '731', '732', '733', '734', '735', '737', '741', '742', '744', '746', '747', '749', '753', '754', '755', '757', '758', '761', '763', '764', '766', '769', '772', '773', '774', '778', '779', '780', '782', '783', '785', '792', '794', '796', '800', '802', '804', '808', '809', '811', '814', '816', '818', '819', '820', '822', '823', '824', '826', '829', '830', '832', '833', '835', '836', '838', '840', '841', '845', '846', '852', '856', '857', '859', '861', '870', '871', '873', '875', '880', '881', '884', '887', '892', '896', '897', '898', '902', '903', '904', '905', '906', '907', '909', '911', '914', '916', '917', '920', '922', '923', '924', '925', '929', '930', '931', '934', '938', '939', '941', '943', '944', '948', '952', '955', '957', '958', '959', '960', '961', '964', '967', '971', '973', '978', '979', '981', '982', '983', '984', '985', '986', '987', '993', '994', '995', '998']",False,1000,True,100,c1bad20b8c,0.0,1.0,0.0
./expes/v3_2021-03-17_issda_1000-prng-1-w1-p100-ukn95_95,30_issda-1000,950,first-1000,100,10,rng,num-start-200,200,25726,ukn-95-95,14.36545443534851,False,,False,0.5871434511456703,0.5467015860883755,0.9274141618575573,100,"['25', '29', '37', '58', '87', '94', '140', '163', '166', '169', '174', '178', '181', '182', '187', '218', '237', '242', '256', '258', '275', '286', '316', '327', '333', '363', '369', '370', '371', '373', '381', '390', '403', '410', '425', '434', '442', '456', '457', '466', '473', '477', '502', '511', '513', '515', '522', '523', '527', '528', '538', '539', '544', '558', '574', '596', '608', '621', '622', '654', '671', '678', '686', '691', '698', '733', '741', '753', '754', '757', '773', '782', '809', '816', '823', '829', '852', '856', '870', '875', '880', '881', '884', '892', '905', '906', '914', '916', '923', '929', '930', '931', '948', '955', '959', '971', '973', '978', '979', '985']",False,1000,True,100,8472a2a0a8,0.0,1.0,0.0
./expes/v3_2021-03-17_issda_1000-prng-1-w1-p100-ukn95_95,30_issda-1000,950,first-1000,200,21,rng,num-start-200,200,25726,ukn-95-95,15.328733921051025,False,,False,0.4344139770363209,0.35893923524396765,0.8973481232627393,100,"['8', '12', '14', '16', '21', '30', '32', '33', '37', '44', '46', '47', '62', '65', '66', '68', '69', '79', '91', '100', '106', '107', '111', '122', '128', '134', '137', '138', '140', '142', '155', '156', '160', '164', '168', '197', '203', '217', '223', '238', '240', '242', '244', '265', '266', '270', '274', '276', '278', '286', '287', '292', '299', '301', '309', '311', '318', '322', '323', '335', '339', '345', '348', '353', '360', '369', '375', '379', '386', '387', '396', '397', '400', '405', '407', '418', '421', '426', '432', '438', '442', '447', '448', '456', '472', '481', '482', '485', '486', '488', '494', '496', '507', '518', '520', '533', '534', '536', '547', '549', '554', '555', '558', '562', '563', '565', '573', '583', '586', '588', '591', '594', '595', '599', '600', '601', '604', '606', '607', '610', '615', '619', '620', '621', '626', '630', '631', '636', '641', '642', '643', '648', '649', '650', '651', '655', '660', '672', '688', '689', '698', '699', '707', '713', '716', '731', '732', '733', '735', '736', '737', '738', '746', '760', '777', '780', '788', '796', '798', '799', '808', '820', '821', '831', '844', '852', '854', '857', '858', '875', '876', '877', '882', '883', '887', '888', '889', '891', '894', '900', '903', '919', '926', '927', '931', '938', '943', '944', '945', '949', '952', '959', '964', '972', '981', '982', '988', '989', '995', '997']",False,1000,True,100,917847590d,0.0,1.0,0.0
./expes/v3_2021-03-17_issda_1000-prng-1-w1-p100-ukn95_95,30_issda-1000,950,first-1000,400,42,rng,num-start-700,700,25726,ukn-95-95,48.51021957397461,False,,False,0.11377388579623716,0.09340317217675087,0.8548283237151146,100,"['2', '3', '6', '9', '10', '13', '15', '18', '19', '22', '23', '25', '27', '29', '30', '31', '32', '34', '36', '37', '39', '41', '42', '45', '47', '49', '58', '61', '65', '67', '72', '73', '75', '79', '84', '86', '87', '89', '94', '97', '99', '102', '103', '105', '107', '111', '112', '113', '117', '118', '121', '124', '129', '133', '134', '137', '138', '139', '150', '151', '161', '163', '164', '165', '168', '171', '172', '173', '174', '175', '176', '178', '182', '186', '190', '191', '193', '195', '199', '205', '206', '211', '215', '218', '219', '222', '223', '225', '226', '228', '229', '230', '231', '233', '235', '236', '237', '238', '239', '241', '249', '256', '259', '260', '262', '265', '273', '274', '275', '276', '280', '284', '288', '289', '291', '297', '298', '299', '302', '303', '304', '306', '311', '314', '316', '318', '320', '326', '329', '330', '334', '336', '340', '341', '347', '348', '349', '350', '352', '353', '354', '355', '356', '362', '366', '374', '376', '377', '380', '384', '388', '389', '390', '391', '393', '396', '400', '403', '404', '405', '407', '412', '414', '415', '417', '424', '425', '427', '432', '433', '437', '440', '443', '444', '449', '450', '457', '461', '462', '464', '466', '469', '470', '471', '472', '481', '484', '486', '492', '493', '497', '500', '501', '502', '505', '508', '509', '512', '513', '515', '517', '518', '519', '520', '521', '522', '523', '525', '527', '529', '532', '534', '537', '541', '546', '548', '552', '553', '554', '555', '558', '561', '562', '564', '565', '567', '568', '570', '575', '577', '578', '579', '580', '583', '584', '585', '588', '590', '592', '593', '594', '599', '602', '604', '605', '606', '608', '615', '619', '621', '623', '624', '627', '628', '629', '630', '638', '639', '640', '645', '646', '647', '651', '658', '663', '664', '665', '666', '668', '673', '676', '680', '681', '682', '687', '690', '691', '692', '694', '695', '703', '704', '712', '713', '720', '721', '722', '729', '733', '737', '739', '742', '743', '744', '747', '748', '751', '756', '759', '761', '762', '773', '774', '778', '780', '781', '783', '786', '787', '789', '790', '795', '797', '798', '799', '801', '802', '803', '806', '808', '816', '817', '818', '822', '823', '824', '829', '831', '833', '837', '840', '841', '848', '849', '850', '853', '856', '858', '861', '862', '867', '868', '869', '871', '872', '874', '878', '879', '880', '881', '882', '887', '889', '891', '893', '897', '900', '903', '904', '908', '909', '913', '915', '918', '919', '922', '923', '924', '932', '933', '937', '939', '940', '943', '945', '948', '949', '954', '955', '959', '961', '962', '964', '967', '968', '973', '975', '976', '978', '981', '983', '986', '989', '991', '992', '993', '997', '998', '999', '1000']",False,1000,True,100,7417a0ada6,0.0,1.0,0.0
./expes/v3_2021-03-17_issda_1000-prng-1-w1-p100-ukn95_95,30_issda-1000,950,first-1000,450,47,rng,num-start-600,600,25726,ukn-95-95,41.53972244262695,False,,False,0.29341449142948806,0.03813493428835901,0.8409723963758611,100,"['1', '4', '6', '7', '8', '9', '12', '13', '14', '16', '18', '19', '20', '23', '25', '27', '28', '30', '31', '35', '36', '37', '40', '42', '43', '44', '45', '49', '50', '52', '53', '54', '55', '56', '57', '60', '61', '62', '63', '65', '66', '67', '68', '69', '71', '74', '77', '78', '81', '83', '84', '85', '86', '87', '88', '89', '90', '91', '94', '95', '96', '97', '99', '102', '103', '105', '106', '107', '109', '112', '113', '114', '115', '121', '123', '124', '125', '132', '133', '136', '137', '141', '142', '143', '145', '146', '149', '152', '153', '161', '166', '167', '168', '169', '173', '174', '175', '176', '177', '178', '181', '186', '191', '192', '194', '197', '203', '204', '205', '206', '208', '210', '211', '214', '215', '216', '217', '219', '226', '227', '228', '230', '233', '237', '242', '243', '244', '249', '250', '254', '255', '258', '260', '263', '266', '269', '270', '274', '275', '277', '281', '282', '284', '285', '288', '292', '298', '299', '302', '304', '308', '309', '310', '315', '317', '323', '326', '330', '332', '333', '337', '338', '339', '342', '343', '344', '346', '347', '350', '355', '356', '358', '362', '364', '374', '375', '379', '381', '382', '383', '388', '389', '391', '393', '395', '396', '398', '399', '407', '408', '409', '411', '412', '413', '417', '420', '422', '427', '428', '431', '432', '433', '435', '436', '439', '441', '444', '447', '450', '451', '455', '458', '460', '462', '463', '465', '467', '468', '470', '473', '475', '478', '479', '482', '486', '487', '490', '493', '494', '502', '504', '507', '508', '509', '510', '513', '515', '518', '519', '522', '523', '527', '530', '531', '532', '535', '537', '540', '542', '547', '549', '551', '553', '555', '556', '557', '558', '559', '561', '562', '566', '568', '569', '570', '573', '574', '576', '577', '579', '580', '583', '587', '588', '589', '590', '593', '594', '595', '599', '600', '603', '605', '606', '608', '612', '614', '618', '619', '620', '621', '622', '623', '624', '626', '627', '628', '632', '638', '640', '641', '642', '645', '650', '653', '655', '658', '659', '661', '664', '667', '675', '680', '684', '686', '687', '688', '691', '693', '695', '696', '698', '700', '705', '710', '711', '713', '714', '717', '718', '721', '723', '726', '727', '729', '733', '735', '737', '738', '743', '744', '745', '746', '748', '752', '754', '755', '756', '759', '764', '765', '766', '771', '779', '780', '782', '783', '784', '790', '791', '792', '793', '794', '795', '797', '799', '800', '802', '803', '806', '809', '813', '814', '816', '818', '819', '820', '823', '827', '829', '830', '835', '841', '843', '853', '854', '858', '864', '866', '867', '872', '873', '880', '881', '885', '888', '889', '890', '893', '896', '897', '898', '899', '900', '901', '902', '903', '905', '908', '909', '911', '914', '915', '917', '918', '919', '920', '921', '924', '928', '929', '932', '934', '940', '942', '943', '944', '946', '947', '954', '959', '961', '963', '964', '967', '969', '970', '974', '975', '977', '979', '982', '984', '985', '986', '988', '990', '991', '992', '999', '1000']",False,1000,True,100,db8d0c6b4b,0.0,1.0,0.0
./expes/v3_2021-03-17_issda_1000-prng-1-w1-p100-ukn95_95,30_issda-1000,950,first-1000,50,5,rng,num-start-600,600,25726,ukn-95-95,45.48559045791626,False,,False,0.7016109868057447,0.6786487958365779,0.9540926851195112,100,"['3', '10', '23', '27', '30', '32', '65', '97', '105', '121', '138', '215', '222', '235', '262', '273', '326', '389', '391', '400', '433', '444', '457', '461', '484', '500', '508', '555', '583', '606', '623', '666', '668', '703', '713', '739', '780', '781', '783', '786', '808', '822', '856', '868', '903', '915', '924', '962', '968', '993']",False,1000,True,100,f3ec4c5ea3,0.0,1.0,0.0
