expe,clients,clients_size,clients_subset,agg_size,agg_size_pc,method,days,days_size,days_total,noise_method,time,valid,valid_sum,success,score_avg,score_min,score_max,nsols,oracle,wall_hit,wall_time,pooled,pool_size,uuid,infeasible,optimal,valid_sums
./expes/v3_2021-03-17_issda_1000-prng-1-w1-p100-ukn95_95,30_issda-1000,950,first-1000,450,47,rng,num-start-900,900,25726,ukn-95-95,63.386292695999146,False,,False,0.24807835904455458,0.03813493428835901,0.8409723963758611,100,"['2', '4', '5', '6', '8', '12', '14', '16', '19', '21', '22', '23', '25', '27', '28', '29', '30', '32', '33', '34', '35', '36', '37', '44', '45', '46', '47', '48', '51', '52', '53', '55', '57', '62', '63', '65', '66', '68', '69', '70', '71', '74', '79', '82', '88', '89', '91', '95', '100', '102', '105', '106', '107', '108', '111', '112', '117', '118', '122', '123', '124', '125', '126', '127', '128', '129', '130', '131', '132', '133', '134', '135', '137', '138', '140', '142', '147', '155', '156', '160', '161', '164', '168', '174', '176', '182', '183', '184', '188', '190', '192', '196', '197', '203', '204', '205', '217', '223', '224', '227', '228', '230', '231', '233', '238', '240', '242', '244', '245', '246', '251', '255', '258', '259', '265', '266', '269', '270', '271', '272', '274', '276', '277', '278', '281', '286', '287', '292', '294', '296', '298', '299', '301', '306', '308', '309', '311', '312', '318', '321', '322', '323', '324', '327', '328', '330', '331', '334', '335', '336', '337', '339', '341', '342', '345', '348', '349', '350', '353', '354', '355', '360', '361', '362', '369', '370', '373', '375', '379', '382', '383', '384', '385', '386', '387', '390', '396', '397', '399', '400', '405', '407', '410', '418', '420', '421', '424', '426', '427', '429', '430', '431', '432', '434', '436', '437', '438', '439', '441', '442', '445', '446', '447', '448', '449', '456', '462', '468', '472', '476', '478', '481', '482', '485', '486', '488', '489', '493', '494', '495', '496', '500', '502', '507', '509', '513', '515', '516', '518', '520', '523', '525', '528', '531', '532', '533', '534', '536', '538', '540', '543', '545', '547', '548', '549', '550', '554', '555', '557', '558', '562', '563', '565', '569', '573', '578', '581', '582', '583', '585', '586', '588', '589', '591', '594', '595', '599', '600', '601', '602', '603', '604', '605', '606', '607', '610', '615', '616', '619', '620', '621', '624', '626', '627', '630', '631', '633', '635', '636', '638', '641', '642', '643', '644', '648', '649', '650', '651', '652', '655', '658', '660', '663', '666', '670', '672', '676', '679', '684', '688', '689', '692', '693', '695', '696', '698', '699', '701', '707', '708', '711', '712', '713', '715', '716', '720', '724', '730', '731', '732', '733', '734', '735', '736', '737', '738', '741', '746', '750', '752', '753', '756', '760', '764', '766', '772', '775', '777', '779', '780', '788', '791', '793', '794', '796', '798', '799', '802', '806', '807', '808', '810', '811', '812', '813', '815', '820', '821', '823', '824', '826', '827', '830', '831', '832', '833', '837', '840', '844', '848', '852', '853', '854', '857', '858', '859', '862', '865', '871', '873', '875', '876', '877', '878', '879', '882', '883', '884', '885', '887', '888', '889', '891', '892', '894', '900', '901', '902', '903', '905', '907', '908', '909', '911', '912', '919', '920', '922', '926', '927', '931', '935', '938', '940', '943', '944', '945', '947', '949', '950', '952', '959', '962', '964', '966', '972', '973', '974', '978', '981', '982', '984', '987', '988', '989', '993', '995', '996', '997', '999']",False,1000,True,100,f237c36da5,0.0,1.0,0.0
./expes/v3_2021-03-17_issda_1000-prng-1-w1-p100-ukn95_95,30_issda-1000,950,first-1000,50,5,rng,num-start-500,500,25726,ukn-95-95,37.35620641708374,False,,False,0.7030244631277731,0.6786487958365779,0.9540926851195112,100,"['14', '16', '32', '44', '66', '68', '134', '155', '156', '164', '197', '238', '240', '244', '266', '309', '379', '400', '407', '481', '482', '486', '488', '536', '554', '558', '563', '565', '595', '606', '607', '619', '621', '641', '651', '655', '688', '735', '760', '777', '796', '799', '857', '858', '882', '889', '931', '938', '949', '981']",False,1000,True,100,87d6c7d754,0.0,1.0,0.0
./expes/v3_2021-03-17_issda_1000-prng-1-w1-p100-ukn95_95,30_issda-1000,950,first-1000,100,10,rng,num-start-600,600,25726,ukn-95-95,42.415929555892944,False,,False,0.5866785307516181,0.5467015860883755,0.9274141618575573,100,"['21', '32', '39', '45', '60', '65', '66', '88', '89', '92', '100', '111', '117', '130', '139', '141', '146', '152', '163', '197', '198', '199', '213', '215', '233', '240', '241', '254', '265', '274', '293', '322', '347', '366', '380', '385', '387', '389', '396', '400', '411', '413', '418', '437', '456', '465', '468', '471', '486', '497', '500', '501', '507', '510', '516', '519', '530', '533', '545', '553', '571', '587', '593', '596', '599', '616', '622', '636', '639', '658', '660', '666', '677', '679', '707', '708', '718', '719', '722', '744', '747', '778', '783', '828', '831', '834', '850', '851', '864', '876', '881', '900', '903', '919', '924', '926', '934', '969', '973', '986']",False,1000,True,100,34c11e0afa,0.0,1.0,0.0
./expes/v3_2021-03-17_issda_1000-prng-1-w1-p100-ukn95_95,30_issda-1000,950,first-1000,500,52,rng,num-start-700,700,25726,ukn-95-95,48.05863833427429,False,,False,0.03548259551323994,0.01379376410102362,0.8376931317097012,100,"['1', '2', '3', '4', '9', '10', '13', '14', '15', '16', '17', '20', '23', '24', '28', '29', '33', '34', '37', '38', '39', '40', '41', '42', '43', '44', '47', '48', '50', '52', '60', '63', '64', '65', '66', '68', '71', '72', '73', '74', '76', '81', '83', '84', '85', '86', '87', '90', '92', '94', '96', '98', '101', '102', '103', '104', '108', '112', '118', '119', '120', '121', '122', '123', '127', '128', '133', '134', '136', '137', '139', '142', '143', '144', '146', '150', '151', '152', '154', '155', '158', '159', '160', '162', '163', '164', '166', '168', '170', '171', '174', '175', '180', '183', '184', '185', '187', '189', '190', '192', '193', '194', '195', '196', '197', '200', '203', '204', '205', '207', '209', '210', '211', '213', '216', '219', '221', '222', '223', '224', '225', '226', '227', '228', '229', '242', '245', '246', '248', '249', '250', '257', '263', '264', '266', '267', '268', '277', '278', '282', '283', '286', '287', '288', '289', '295', '297', '298', '299', '301', '307', '309', '310', '311', '316', '318', '319', '320', '323', '324', '325', '326', '328', '330', '331', '333', '334', '337', '339', '341', '342', '343', '344', '346', '347', '349', '351', '352', '356', '359', '361', '363', '366', '367', '368', '370', '371', '376', '377', '378', '380', '381', '382', '385', '388', '389', '395', '398', '401', '404', '405', '407', '408', '409', '412', '413', '415', '416', '420', '425', '426', '428', '429', '430', '431', '434', '436', '437', '442', '445', '446', '447', '453', '454', '456', '457', '458', '459', '460', '462', '463', '464', '469', '470', '479', '482', '483', '484', '486', '488', '489', '490', '491', '493', '494', '498', '499', '500', '501', '502', '505', '506', '507', '508', '510', '511', '516', '517', '521', '524', '532', '534', '535', '536', '538', '539', '541', '542', '543', '546', '548', '551', '554', '556', '557', '558', '560', '561', '562', '565', '566', '570', '572', '574', '575', '578', '579', '582', '583', '584', '588', '590', '594', '597', '598', '599', '600', '602', '604', '605', '609', '611', '612', '617', '618', '619', '621', '623', '625', '626', '627', '628', '634', '636', '639', '641', '642', '643', '646', '649', '650', '651', '653', '654', '655', '656', '657', '660', '661', '663', '665', '667', '670', '672', '673', '674', '677', '679', '682', '685', '687', '689', '690', '692', '693', '694', '695', '696', '697', '698', '700', '701', '704', '706', '708', '715', '716', '717', '718', '719', '721', '723', '724', '727', '728', '730', '732', '733', '735', '736', '737', '743', '745', '747', '748', '749', '750', '753', '757', '760', '765', '767', '768', '771', '773', '774', '776', '777', '781', '786', '791', '796', '799', '802', '803', '804', '808', '809', '812', '813', '814', '817', '818', '819', '820', '823', '825', '826', '828', '829', '830', '832', '835', '836', '837', '838', '842', '843', '845', '846', '847', '848', '849', '850', '851', '854', '856', '858', '859', '861', '862', '863', '865', '866', '867', '870', '871', '872', '874', '875', '876', '878', '883', '885', '887', '889', '892', '893', '895', '896', '897', '898', '899', '906', '907', '910', '912', '914', '916', '917', '920', '921', '922', '924', '925', '927', '930', '931', '932', '935', '936', '938', '939', '940', '941', '942', '943', '944', '945', '946', '954', '956', '957', '959', '960', '961', '970', '971', '973', '977', '985', '986', '987', '989', '990', '991', '992', '994', '998', '1000']",False,1000,True,100,83ce0e28a2,0.0,1.0,0.0
./expes/v3_2021-03-17_issda_1000-prng-1-w1-p100-ukn95_95,30_issda-1000,950,first-1000,300,31,rng,num-start-600,600,25726,ukn-95-95,42.95741128921509,False,,False,0.3543112161647803,0.21486411611467948,0.8742776404273184,100,"['1', '5', '13', '24', '27', '28', '29', '30', '39', '41', '48', '50', '51', '54', '56', '60', '61', '62', '63', '64', '65', '67', '69', '71', '72', '73', '75', '80', '83', '84', '85', '88', '89', '93', '94', '96', '97', '100', '104', '105', '106', '107', '113', '119', '120', '121', '126', '127', '129', '133', '137', '141', '148', '150', '151', '153', '155', '156', '166', '167', '169', '171', '172', '173', '181', '185', '186', '187', '193', '196', '200', '205', '211', '213', '214', '220', '224', '227', '229', '233', '237', '238', '239', '246', '247', '250', '254', '255', '259', '268', '270', '272', '277', '285', '286', '289', '292', '295', '297', '306', '307', '308', '316', '318', '320', '322', '327', '332', '338', '349', '351', '352', '356', '359', '364', '365', '368', '371', '373', '375', '376', '379', '382', '386', '390', '396', '401', '402', '404', '405', '407', '408', '409', '411', '412', '426', '429', '430', '432', '435', '438', '441', '445', '452', '457', '460', '465', '468', '473', '477', '478', '486', '491', '492', '494', '496', '497', '500', '501', '505', '506', '507', '509', '515', '520', '525', '528', '529', '531', '538', '541', '545', '546', '548', '549', '550', '554', '555', '557', '561', '563', '564', '565', '571', '572', '573', '574', '578', '580', '581', '585', '587', '589', '591', '592', '594', '596', '597', '600', '604', '609', '616', '617', '624', '625', '626', '628', '629', '633', '634', '643', '646', '650', '652', '655', '659', '663', '667', '671', '675', '681', '685', '693', '697', '698', '699', '700', '707', '708', '709', '712', '713', '714', '716', '719', '724', '730', '734', '747', '749', '757', '758', '759', '768', '776', '777', '783', '787', '791', '796', '798', '799', '808', '809', '810', '814', '817', '818', '823', '826', '831', '836', '838', '839', '841', '842', '847', '849', '852', '861', '866', '870', '874', '880', '885', '892', '893', '896', '897', '905', '906', '909', '922', '931', '932', '937', '939', '946', '956', '964', '968', '971', '972', '974', '975', '976', '979', '981', '986', '1000']",False,1000,True,100,7bcac18874,0.0,1.0,0.0
