expe,clients,clients_size,clients_subset,agg_size,agg_size_pc,method,days,days_size,days_total,noise_method,time,valid,valid_sum,success,score_avg,score_min,score_max,nsols,oracle,wall_hit,wall_time,pooled,pool_size,uuid,infeasible,optimal,valid_sums
./expes/v3_2021-02-19_hi_1000-prng-1-w1-fpa10-0.6-p100,30_issda-1000,1000,first-1000,450,45,rng,num-start-3500,3500,25726,fpa-09-10-0.6-20,497.9574644565582,False,,False,0.28203207812491754,0.2785289191377658,0.33183351891430046,100,"['2', '4', '5', '6', '8', '10', '11', '14', '19', '21', '24', '27', '28', '33', '36', '37', '38', '42', '43', '44', '45', '46', '48', '53', '55', '57', '61', '62', '64', '69', '77', '78', '79', '80', '81', '82', '84', '85', '88', '89', '91', '92', '93', '96', '98', '100', '101', '104', '106', '109', '114', '116', '117', '118', '119', '120', '122', '124', '126', '131', '137', '140', '143', '145', '146', '148', '149', '153', '154', '157', '159', '161', '163', '166', '167', '169', '170', '172', '173', '174', '177', '179', '181', '182', '183', '184', '185', '187', '189', '193', '196', '197', '199', '200', '201', '203', '204', '206', '207', '208', '211', '213', '214', '216', '217', '220', '221', '224', '225', '228', '235', '238', '239', '240', '242', '244', '248', '249', '252', '254', '255', '256', '257', '258', '260', '261', '264', '265', '266', '267', '268', '269', '275', '276', '279', '283', '284', '285', '287', '288', '293', '296', '297', '298', '299', '300', '301', '304', '305', '308', '310', '311', '313', '318', '319', '320', '321', '323', '329', '330', '331', '332', '333', '335', '338', '339', '340', '345', '346', '347', '349', '352', '356', '359', '365', '366', '368', '369', '371', '372', '373', '374', '375', '381', '382', '391', '397', '398', '400', '402', '405', '406', '410', '412', '413', '414', '420', '421', '422', '423', '424', '426', '428', '431', '432', '433', '434', '435', '439', '441', '442', '444', '445', '447', '450', '451', '452', '453', '455', '463', '465', '466', '471', '474', '476', '479', '483', '484', '485', '490', '491', '496', '499', '501', '503', '504', '507', '509', '511', '519', '521', '525', '532', '533', '534', '536', '537', '539', '540', '541', '542', '548', '550', '555', '557', '558', '559', '560', '561', '563', '564', '572', '575', '576', '579', '582', '583', '584', '586', '587', '590', '597', '599', '603', '609', '610', '612', '614', '616', '619', '621', '622', '623', '625', '628', '631', '633', '635', '636', '638', '642', '643', '644', '648', '650', '651', '653', '657', '658', '662', '663', '664', '668', '669', '670', '671', '673', '678', '684', '685', '688', '690', '692', '693', '694', '697', '703', '705', '713', '715', '718', '722', '724', '726', '728', '729', '733', '735', '739', '750', '753', '755', '763', '765', '773', '777', '784', '786', '787', '789', '790', '791', '793', '794', '796', '799', '802', '803', '804', '806', '807', '810', '813', '817', '818', '819', '820', '821', '824', '827', '829', '830', '833', '835', '838', '839', '847', '848', '849', '850', '851', '855', '857', '858', '860', '861', '866', '868', '869', '876', '877', '879', '880', '881', '883', '885', '886', '887', '889', '891', '892', '895', '896', '898', '899', '900', '901', '902', '903', '904', '905', '907', '911', '913', '914', '916', '918', '921', '922', '923', '924', '926', '927', '930', '931', '934', '935', '936', '938', '939', '940', '945', '947', '950', '951', '953', '958', '959', '960', '963', '964', '965', '966', '967', '968', '973', '974', '977', '978', '980', '983', '984', '985', '986', '988', '990', '992', '994', '995', '998']",False,1000,True,100,4625a34a5c,0.0,1.0,0.0
./expes/v3_2021-02-19_hi_1000-prng-1-w1-fpa10-0.6-p100,30_issda-1000,1000,first-1000,250,25,rng,num-start-500,500,25726,fpa-09-10-0.6-20,62.12935996055603,False,,False,0.3759339800425394,0.37358768180024393,0.39969977481233576,100,"['8', '10', '19', '21', '27', '33', '37', '38', '42', '44', '45', '46', '48', '53', '57', '61', '64', '69', '80', '84', '85', '89', '92', '93', '100', '104', '106', '109', '117', '120', '126', '140', '146', '149', '154', '157', '159', '163', '166', '169', '173', '174', '177', '182', '183', '189', '193', '197', '199', '200', '201', '204', '206', '207', '208', '213', '214', '220', '221', '225', '228', '235', '238', '239', '242', '244', '248', '249', '254', '255', '256', '257', '260', '261', '266', '267', '268', '269', '279', '283', '284', '285', '287', '288', '293', '296', '297', '298', '299', '300', '301', '308', '311', '313', '318', '320', '323', '329', '330', '331', '332', '333', '335', '340', '346', '352', '365', '366', '369', '372', '373', '374', '382', '391', '397', '398', '406', '412', '413', '420', '421', '423', '424', '428', '432', '434', '435', '439', '442', '447', '450', '452', '455', '463', '466', '471', '474', '483', '485', '490', '491', '503', '504', '507', '511', '519', '521', '532', '533', '539', '542', '548', '550', '560', '561', '563', '572', '579', '584', '586', '587', '597', '603', '610', '614', '621', '622', '631', '633', '636', '642', '643', '648', '650', '651', '657', '663', '664', '668', '669', '670', '688', '690', '692', '694', '697', '715', '718', '722', '726', '735', '739', '750', '753', '755', '763', '765', '784', '791', '793', '794', '799', '803', '810', '817', '820', '824', '827', '833', '838', '847', '849', '851', '855', '860', '861', '866', '869', '876', '883', '887', '889', '891', '892', '902', '904', '911', '913', '916', '918', '923', '927', '931', '936', '939', '940', '950', '951', '958', '965', '966', '968', '978', '983', '984', '985', '986', '988', '990', '994']",False,1000,True,100,25580bee6c,0.0,1.0,0.0
./expes/v3_2021-02-19_hi_1000-prng-1-w1-fpa10-0.6-p100,30_issda-1000,1000,first-1000,200,20,rng,num-start-2750,2750,25726,fpa-09-10-0.6-20,474.8886127471924,False,,False,0.43417834559487967,0.42178348835895874,0.43936258213145074,100,"['8', '12', '14', '16', '21', '30', '32', '33', '37', '44', '46', '47', '62', '65', '66', '68', '69', '79', '91', '100', '106', '107', '111', '122', '128', '134', '137', '138', '140', '142', '155', '156', '160', '164', '168', '197', '203', '217', '223', '238', '240', '242', '244', '265', '266', '270', '274', '276', '278', '286', '287', '292', '299', '301', '309', '311', '318', '322', '323', '335', '339', '345', '348', '353', '360', '369', '375', '379', '386', '387', '396', '397', '400', '405', '407', '418', '421', '426', '432', '438', '442', '447', '448', '456', '472', '481', '482', '485', '486', '488', '494', '496', '507', '518', '520', '533', '534', '536', '547', '549', '554', '555', '558', '562', '563', '565', '573', '583', '586', '588', '591', '594', '595', '599', '600', '601', '604', '606', '607', '610', '615', '619', '620', '621', '626', '630', '631', '636', '641', '642', '643', '648', '649', '650', '651', '655', '660', '672', '688', '689', '698', '699', '707', '713', '716', '731', '732', '733', '735', '736', '737', '738', '746', '760', '777', '780', '788', '796', '798', '799', '808', '820', '821', '831', '844', '852', '854', '857', '858', '875', '876', '877', '882', '883', '887', '888', '889', '891', '894', '900', '903', '919', '926', '927', '931', '938', '943', '944', '945', '949', '952', '959', '964', '972', '981', '982', '988', '989', '995', '997']",False,1000,True,100,c451f72ba8,0.0,1.0,0.0
./expes/v3_2021-02-19_hi_1000-prng-1-w1-fpa10-0.6-p100,30_issda-1000,1000,first-1000,250,25,rng,num-start-2250,2250,25726,fpa-09-10-0.6-20,462.49954056739807,False,,False,0.3792012019051105,0.37358768180024393,0.3980345837488981,100,"['2', '15', '17', '23', '24', '28', '34', '38', '40', '41', '42', '47', '60', '63', '64', '65', '71', '72', '74', '76', '83', '85', '92', '94', '96', '98', '102', '104', '112', '119', '120', '123', '127', '128', '134', '143', '144', '146', '150', '151', '154', '174', '175', '185', '189', '190', '192', '194', '195', '196', '200', '205', '209', '210', '216', '221', '224', '225', '226', '227', '228', '242', '245', '248', '249', '250', '257', '266', '267', '278', '282', '283', '289', '295', '298', '299', '309', '311', '318', '324', '325', '328', '333', '334', '339', '341', '342', '344', '359', '363', '366', '367', '368', '380', '381', '395', '401', '409', '415', '430', '431', '436', '437', '445', '447', '454', '456', '459', '462', '479', '482', '484', '488', '489', '491', '498', '499', '502', '505', '506', '516', '517', '521', '524', '534', '535', '538', '546', '548', '554', '557', '558', '561', '562', '565', '566', '574', '582', '584', '588', '590', '594', '598', '602', '604', '611', '617', '618', '621', '626', '627', '628', '634', '636', '641', '646', '650', '651', '656', '657', '663', '673', '677', '685', '689', '696', '697', '700', '701', '715', '717', '718', '721', '723', '724', '728', '736', '737', '745', '748', '750', '774', '776', '777', '786', '802', '803', '804', '808', '813', '814', '818', '819', '820', '823', '825', '830', '832', '835', '836', '837', '842', '845', '846', '848', '850', '851', '854', '856', '858', '859', '861', '863', '865', '866', '870', '871', '876', '887', '889', '892', '897', '898', '912', '914', '917', '920', '921', '924', '927', '930', '932', '935', '938', '939', '940', '941', '945', '946', '956', '959', '960', '973', '985', '987', '989', '990', '991', '992', '994']",False,1000,True,100,baecfaef54,0.0,1.0,0.0
./expes/v3_2021-02-19_hi_1000-prng-1-w1-fpa10-0.6-p100,30_issda-1000,1000,first-1000,400,40,rng,num-start-3250,3250,25726,fpa-09-10-0.6-20,541.1190164089203,False,,False,0.29476500309643017,0.2925394000366518,0.3288439447859757,100,"['4', '5', '6', '8', '10', '11', '14', '19', '21', '27', '28', '33', '36', '37', '38', '42', '43', '44', '45', '46', '48', '53', '55', '57', '61', '62', '64', '69', '77', '78', '80', '81', '82', '84', '85', '88', '89', '92', '93', '96', '98', '100', '104', '106', '109', '114', '116', '117', '118', '119', '120', '122', '124', '126', '131', '140', '143', '146', '149', '153', '154', '157', '159', '161', '163', '166', '167', '169', '170', '172', '173', '174', '177', '181', '182', '183', '185', '189', '193', '196', '197', '199', '200', '201', '204', '206', '207', '208', '211', '213', '214', '216', '217', '220', '221', '224', '225', '228', '235', '238', '239', '240', '242', '244', '248', '249', '252', '254', '255', '256', '257', '260', '261', '264', '265', '266', '267', '268', '269', '275', '276', '279', '283', '284', '285', '287', '288', '293', '296', '297', '298', '299', '300', '301', '304', '305', '308', '310', '311', '313', '318', '319', '320', '323', '329', '330', '331', '332', '333', '335', '339', '340', '345', '346', '347', '352', '356', '365', '366', '369', '372', '373', '374', '375', '381', '382', '391', '397', '398', '400', '402', '405', '406', '410', '412', '413', '414', '420', '421', '422', '423', '424', '426', '428', '431', '432', '433', '434', '435', '439', '441', '442', '445', '447', '450', '451', '452', '455', '463', '465', '466', '471', '474', '476', '483', '484', '485', '490', '491', '496', '499', '501', '503', '504', '507', '509', '511', '519', '521', '525', '532', '533', '534', '536', '539', '540', '541', '542', '548', '550', '555', '557', '559', '560', '561', '563', '564', '572', '575', '576', '579', '583', '584', '586', '587', '597', '603', '609', '610', '614', '616', '621', '622', '623', '625', '631', '633', '635', '636', '642', '643', '644', '648', '650', '651', '653', '657', '658', '663', '664', '668', '669', '670', '671', '673', '684', '685', '688', '690', '692', '694', '697', '703', '705', '713', '715', '718', '722', '724', '726', '728', '729', '733', '735', '739', '750', '753', '755', '763', '765', '777', '784', '786', '787', '789', '791', '793', '794', '796', '799', '802', '803', '804', '806', '807', '810', '817', '818', '819', '820', '821', '824', '827', '830', '833', '835', '838', '839', '847', '848', '849', '851', '855', '857', '858', '860', '861', '866', '868', '869', '876', '877', '879', '880', '881', '883', '886', '887', '889', '891', '892', '895', '896', '898', '899', '900', '901', '902', '903', '904', '907', '911', '913', '914', '916', '918', '921', '922', '923', '926', '927', '931', '936', '938', '939', '940', '945', '947', '950', '951', '953', '958', '964', '965', '966', '967', '968', '974', '978', '980', '983', '984', '985', '986', '988', '990', '992', '994', '995', '998']",False,1000,True,100,05a9ecbafc,0.0,1.0,0.0
./expes/v3_2021-02-19_hi_1000-prng-1-w1-fpa10-0.6-p100,30_issda-1000,1000,first-1000,200,20,rng,num-start-1250,1250,25726,fpa-09-10-0.6-20,250.48461198806763,False,,False,0.4239939972388985,0.42005488506554667,0.43936258213145074,100,"['8', '10', '19', '21', '27', '42', '44', '45', '46', '48', '57', '61', '64', '69', '80', '84', '85', '89', '92', '93', '100', '104', '106', '109', '117', '126', '140', '149', '154', '157', '159', '163', '166', '169', '173', '174', '177', '182', '183', '189', '197', '199', '200', '201', '204', '208', '213', '220', '228', '235', '239', '242', '244', '254', '255', '256', '257', '266', '267', '269', '279', '283', '284', '285', '287', '288', '293', '296', '297', '298', '299', '300', '301', '308', '311', '313', '318', '320', '329', '330', '331', '332', '335', '340', '346', '352', '365', '366', '369', '372', '373', '374', '382', '391', '398', '406', '412', '421', '423', '424', '434', '435', '442', '447', '450', '452', '455', '463', '466', '471', '474', '483', '485', '491', '503', '519', '521', '532', '533', '548', '550', '560', '561', '563', '572', '586', '587', '597', '603', '610', '614', '621', '622', '631', '633', '636', '642', '643', '648', '650', '651', '657', '664', '668', '688', '690', '692', '694', '697', '715', '718', '722', '726', '739', '750', '753', '755', '765', '784', '794', '799', '803', '817', '820', '824', '827', '833', '838', '847', '849', '860', '861', '866', '869', '876', '883', '887', '889', '891', '902', '904', '916', '918', '927', '931', '936', '939', '940', '950', '958', '965', '966', '968', '978', '983', '984', '985', '988', '990', '994']",False,1000,True,100,3b26448672,0.0,1.0,0.0
./expes/v3_2021-02-19_hi_1000-prng-1-w1-fpa10-0.6-p100,30_issda-1000,1000,first-1000,500,50,rng,num-start-4000,4000,25726,fpa-09-10-0.6-20,487.2512593269348,False,,False,0.283601644017477,0.2813091648584096,0.301080484970917,100,"['2', '4', '5', '6', '9', '12', '17', '18', '19', '20', '21', '22', '25', '26', '29', '31', '32', '33', '35', '37', '38', '39', '42', '45', '47', '51', '53', '55', '58', '59', '61', '62', '68', '69', '70', '73', '75', '76', '78', '79', '82', '83', '84', '85', '87', '89', '90', '94', '96', '97', '99', '103', '104', '105', '108', '109', '114', '115', '116', '118', '119', '122', '125', '126', '131', '132', '135', '139', '140', '142', '144', '145', '148', '149', '151', '155', '156', '158', '160', '161', '162', '163', '165', '166', '169', '171', '174', '175', '177', '178', '181', '182', '185', '186', '187', '189', '193', '196', '197', '204', '205', '210', '213', '214', '216', '218', '221', '222', '223', '225', '228', '231', '233', '234', '237', '238', '239', '241', '242', '247', '251', '253', '254', '255', '256', '257', '258', '260', '261', '262', '263', '264', '266', '269', '271', '273', '274', '275', '276', '280', '281', '286', '292', '293', '294', '297', '298', '304', '311', '314', '316', '317', '318', '320', '321', '324', '327', '333', '336', '337', '338', '339', '343', '346', '350', '353', '354', '356', '359', '360', '363', '365', '367', '368', '369', '370', '371', '372', '373', '375', '376', '381', '382', '383', '384', '390', '392', '393', '394', '395', '396', '400', '401', '402', '403', '405', '410', '412', '413', '414', '415', '417', '419', '421', '423', '425', '427', '429', '430', '434', '436', '438', '442', '445', '450', '452', '456', '457', '459', '460', '463', '465', '466', '468', '469', '471', '472', '473', '475', '476', '477', '478', '479', '482', '484', '485', '490', '492', '494', '495', '496', '497', '498', '499', '501', '502', '503', '504', '510', '511', '513', '515', '517', '520', '521', '522', '523', '524', '525', '526', '527', '528', '529', '531', '532', '534', '535', '536', '537', '538', '539', '544', '546', '549', '554', '558', '559', '561', '562', '565', '571', '572', '574', '576', '580', '582', '583', '586', '588', '589', '590', '595', '596', '599', '600', '601', '603', '604', '606', '608', '610', '611', '620', '621', '622', '626', '627', '628', '629', '631', '632', '634', '637', '639', '640', '641', '643', '651', '653', '654', '657', '658', '664', '666', '668', '669', '671', '675', '677', '678', '680', '683', '686', '687', '689', '691', '692', '695', '696', '697', '698', '699', '701', '702', '704', '707', '709', '710', '713', '716', '717', '721', '723', '724', '726', '727', '728', '729', '730', '731', '732', '733', '734', '735', '737', '741', '742', '744', '746', '747', '749', '753', '754', '755', '757', '758', '761', '763', '764', '766', '769', '772', '773', '774', '778', '779', '780', '782', '783', '785', '786', '792', '794', '796', '800', '802', '804', '807', '808', '809', '811', '814', '816', '818', '819', '820', '821', '822', '823', '824', '826', '829', '830', '832', '833', '835', '836', '838', '840', '841', '845', '846', '852', '854', '856', '857', '858', '859', '861', '870', '871', '873', '875', '880', '881', '884', '885', '887', '892', '896', '897', '898', '899', '902', '903', '904', '905', '906', '907', '909', '911', '914', '916', '917', '920', '922', '923', '924', '925', '928', '929', '930', '931', '934', '937', '938', '939', '941', '943', '944', '945', '948', '952', '955', '957', '958', '959', '960', '961', '962', '964', '966', '967', '971', '973', '978', '979', '981', '982', '983', '984', '985', '986', '987', '990', '993', '994', '995', '996', '998']",False,1000,True,100,206ae0fe86,0.0,1.0,0.0
./expes/v3_2021-02-19_hi_1000-prng-1-w1-fpa10-0.6-p100,30_issda-1000,1000,first-1000,400,40,rng,num-start-4250,4250,25726,fpa-09-10-0.6-20,518.961608171463,False,,False,0.3136615442598221,0.298221906517101,0.33333333333333337,100,"['4', '5', '6', '8', '10', '11', '14', '19', '21', '27', '28', '33', '36', '37', '38', '42', '43', '44', '45', '46', '48', '53', '55', '57', '61', '62', '64', '69', '77', '78', '80', '81', '82', '84', '85', '88', '89', '92', '93', '96', '98', '100', '104', '106', '109', '114', '116', '117', '118', '119', '120', '122', '124', '126', '131', '140', '143', '146', '149', '153', '154', '157', '159', '161', '163', '166', '167', '169', '170', '172', '173', '174', '177', '181', '182', '183', '185', '189', '193', '196', '197', '199', '200', '201', '204', '206', '207', '208', '211', '213', '214', '216', '217', '220', '221', '224', '225', '228', '235', '238', '239', '240', '242', '244', '248', '249', '252', '254', '255', '256', '257', '260', '261', '264', '265', '266', '267', '268', '269', '275', '276', '279', '283', '284', '285', '287', '288', '293', '296', '297', '298', '299', '300', '301', '304', '305', '308', '310', '311', '313', '318', '319', '320', '323', '329', '330', '331', '332', '333', '335', '339', '340', '345', '346', '347', '352', '356', '365', '366', '369', '372', '373', '374', '375', '381', '382', '391', '397', '398', '400', '402', '405', '406', '410', '412', '413', '414', '420', '421', '422', '423', '424', '426', '428', '431', '432', '433', '434', '435', '439', '441', '442', '445', '447', '450', '451', '452', '455', '463', '465', '466', '471', '474', '476', '483', '484', '485', '490', '491', '496', '499', '501', '503', '504', '507', '509', '511', '519', '521', '525', '532', '533', '534', '536', '539', '540', '541', '542', '548', '550', '555', '557', '559', '560', '561', '563', '564', '572', '575', '576', '579', '583', '584', '586', '587', '597', '603', '609', '610', '614', '616', '621', '622', '623', '625', '631', '633', '635', '636', '642', '643', '644', '648', '650', '651', '653', '657', '658', '663', '664', '668', '669', '670', '671', '673', '684', '685', '688', '690', '692', '694', '697', '703', '705', '713', '715', '718', '722', '724', '726', '728', '729', '733', '735', '739', '750', '753', '755', '763', '765', '777', '784', '786', '787', '789', '791', '793', '794', '796', '799', '802', '803', '804', '806', '807', '810', '817', '818', '819', '820', '821', '824', '827', '830', '833', '835', '838', '839', '847', '848', '849', '851', '855', '857', '858', '860', '861', '866', '868', '869', '876', '877', '879', '880', '881', '883', '886', '887', '889', '891', '892', '895', '896', '898', '899', '900', '901', '902', '903', '904', '907', '911', '913', '914', '916', '918', '921', '922', '923', '926', '927', '931', '936', '938', '939', '940', '945', '947', '950', '951', '953', '958', '964', '965', '966', '967', '968', '974', '978', '980', '983', '984', '985', '986', '988', '990', '992', '994', '995', '998']",False,1000,True,100,9b8e13cc29,0.0,1.0,0.0
./expes/v3_2021-02-19_hi_1000-prng-1-w1-fpa10-0.6-p100,30_issda-1000,1000,first-1000,100,10,rng,num-start-1250,1250,25726,fpa-09-10-0.6-20,218.70032382011414,False,,False,0.5742860196430681,0.5708331511123159,0.5923651558488086,100,"['3', '10', '23', '27', '30', '32', '65', '97', '103', '105', '121', '124', '138', '191', '195', '215', '222', '225', '228', '235', '237', '239', '262', '273', '291', '297', '304', '311', '326', '341', '354', '389', '391', '400', '403', '427', '433', '444', '449', '457', '461', '471', '484', '500', '508', '512', '513', '518', '520', '541', '555', '567', '570', '583', '602', '604', '606', '623', '645', '658', '666', '668', '687', '694', '703', '713', '729', '739', '742', '744', '761', '780', '781', '783', '786', '808', '822', '850', '856', '858', '867', '868', '881', '903', '904', '915', '918', '924', '933', '939', '945', '949', '959', '962', '964', '968', '976', '991', '993', '997']",False,1000,True,100,1467f6cbf4,0.0,1.0,0.0
./expes/v3_2021-02-19_hi_1000-prng-1-w1-fpa10-0.6-p100,30_issda-1000,1000,first-1000,350,35,rng,num-start-3750,3750,25726,fpa-09-10-0.6-20,533.1977531909943,False,,False,0.3217846913169838,0.3184837019817762,0.32586762838856753,100,"['5', '8', '12', '14', '16', '21', '22', '23', '28', '30', '32', '33', '34', '35', '36', '37', '44', '46', '47', '51', '55', '62', '63', '65', '66', '68', '69', '70', '79', '82', '88', '91', '100', '105', '106', '107', '108', '111', '117', '122', '123', '124', '126', '128', '129', '133', '134', '135', '137', '138', '140', '142', '155', '156', '160', '164', '168', '174', '176', '182', '188', '190', '192', '196', '197', '203', '204', '205', '217', '223', '224', '227', '228', '230', '231', '233', '238', '240', '242', '244', '245', '246', '251', '258', '259', '265', '266', '270', '271', '274', '276', '278', '286', '287', '292', '294', '296', '298', '299', '301', '306', '308', '309', '311', '318', '321', '322', '323', '328', '330', '335', '336', '339', '341', '342', '345', '348', '349', '350', '353', '354', '355', '360', '361', '362', '369', '373', '375', '379', '386', '387', '396', '397', '400', '405', '407', '418', '420', '421', '424', '426', '427', '430', '432', '438', '441', '442', '445', '446', '447', '448', '449', '456', '462', '468', '472', '476', '478', '481', '482', '485', '486', '488', '489', '493', '494', '496', '502', '507', '513', '516', '518', '520', '523', '525', '531', '532', '533', '534', '536', '538', '543', '547', '548', '549', '550', '554', '555', '557', '558', '562', '563', '565', '573', '582', '583', '586', '588', '589', '591', '594', '595', '599', '600', '601', '603', '604', '606', '607', '610', '615', '616', '619', '620', '621', '624', '626', '627', '630', '631', '635', '636', '638', '641', '642', '643', '644', '648', '649', '650', '651', '655', '658', '660', '666', '670', '672', '679', '688', '689', '692', '693', '695', '696', '698', '699', '701', '707', '711', '713', '715', '716', '724', '731', '732', '733', '735', '736', '737', '738', '746', '753', '756', '760', '764', '766', '772', '777', '780', '788', '791', '796', '798', '799', '802', '806', '807', '808', '813', '820', '821', '823', '824', '826', '827', '830', '831', '832', '833', '837', '844', '848', '852', '853', '854', '857', '858', '859', '865', '871', '875', '876', '877', '879', '882', '883', '885', '887', '888', '889', '891', '894', '900', '902', '903', '905', '907', '909', '912', '919', '922', '926', '927', '931', '935', '938', '940', '943', '944', '945', '947', '949', '950', '952', '959', '962', '964', '966', '972', '973', '978', '981', '982', '984', '987', '988', '989', '995', '996', '997']",False,1000,True,100,624b0118fa,0.0,1.0,0.0
./expes/v3_2021-02-19_hi_1000-prng-1-w1-fpa10-0.6-p100,30_issda-1000,1000,first-1000,200,20,rng,num-start-2000,2000,25726,fpa-09-10-0.6-20,349.512656211853,False,,False,0.4251310295967275,0.4183314188145123,0.4411509038100604,100,"['8', '10', '19', '21', '27', '42', '44', '45', '46', '48', '57', '61', '64', '69', '80', '84', '85', '89', '92', '93', '100', '104', '106', '109', '117', '126', '140', '149', '154', '157', '159', '163', '166', '169', '173', '174', '177', '182', '183', '189', '197', '199', '200', '201', '204', '208', '213', '220', '228', '235', '239', '242', '244', '254', '255', '256', '257', '266', '267', '269', '279', '283', '284', '285', '287', '288', '293', '296', '297', '298', '299', '300', '301', '308', '311', '313', '318', '320', '329', '330', '331', '332', '335', '340', '346', '352', '365', '366', '369', '372', '373', '374', '382', '391', '398', '406', '412', '421', '423', '424', '434', '435', '442', '447', '450', '452', '455', '463', '466', '471', '474', '483', '485', '491', '503', '519', '521', '532', '533', '548', '550', '560', '561', '563', '572', '586', '587', '597', '603', '610', '614', '621', '622', '631', '633', '636', '642', '643', '648', '650', '651', '657', '664', '668', '688', '690', '692', '694', '697', '715', '718', '722', '726', '739', '750', '753', '755', '765', '784', '794', '799', '803', '817', '820', '824', '827', '833', '838', '847', '849', '860', '861', '866', '869', '876', '883', '887', '889', '891', '902', '904', '916', '918', '927', '931', '936', '939', '940', '950', '958', '965', '966', '968', '978', '983', '984', '985', '988', '990', '994']",False,1000,True,100,57e32a0203,0.0,1.0,0.0
