expe,clients,clients_size,clients_subset,agg_size,agg_size_pc,method,days,days_size,days_total,noise_method,time,valid,valid_sum,success,score_avg,score_min,score_max,nsols,oracle,wall_hit,wall_time,pooled,pool_size,uuid,infeasible,optimal,valid_sums
./expes/v3_2021-02-19_hi_1000-prng-1-w1-fpa10-0.6-p100,30_issda-1000,1000,first-1000,500,50,rng,num-start-1750,1750,25726,fpa-09-10-0.6-20,275.71966218948364,False,,False,0.30479469062298464,0.2883072948901987,0.30972724486875736,100,"['2', '3', '6', '9', '10', '11', '13', '15', '18', '19', '21', '22', '23', '25', '27', '28', '29', '30', '31', '32', '33', '34', '36', '37', '39', '41', '42', '43', '45', '47', '49', '58', '61', '65', '66', '67', '72', '73', '75', '77', '79', '84', '86', '87', '89', '92', '93', '94', '95', '97', '99', '102', '103', '104', '105', '106', '107', '110', '111', '112', '113', '115', '117', '118', '119', '121', '124', '129', '130', '133', '134', '137', '138', '139', '145', '146', '150', '151', '154', '158', '161', '163', '164', '165', '166', '168', '171', '172', '173', '174', '175', '176', '178', '182', '183', '184', '186', '188', '190', '191', '192', '193', '195', '199', '204', '205', '206', '211', '212', '213', '215', '218', '219', '221', '222', '223', '225', '226', '228', '229', '230', '231', '233', '235', '236', '237', '238', '239', '241', '246', '248', '249', '250', '251', '252', '253', '256', '257', '259', '260', '262', '265', '266', '273', '274', '275', '276', '280', '284', '288', '289', '291', '297', '298', '299', '301', '302', '303', '304', '306', '311', '313', '314', '315', '316', '318', '320', '321', '323', '324', '325', '326', '328', '329', '330', '334', '336', '340', '341', '343', '347', '348', '349', '350', '352', '353', '354', '355', '356', '362', '365', '366', '368', '370', '374', '376', '377', '380', '384', '388', '389', '390', '391', '393', '396', '400', '401', '403', '404', '405', '407', '409', '412', '414', '415', '417', '424', '425', '427', '432', '433', '437', '440', '443', '444', '446', '449', '450', '457', '459', '461', '462', '464', '466', '467', '469', '470', '471', '472', '481', '484', '486', '489', '492', '493', '497', '500', '501', '502', '505', '506', '508', '509', '512', '513', '514', '515', '517', '518', '519', '520', '521', '522', '523', '525', '527', '529', '532', '534', '537', '541', '546', '548', '552', '553', '554', '555', '556', '558', '559', '561', '562', '564', '565', '567', '568', '570', '575', '577', '578', '579', '580', '583', '584', '585', '588', '589', '590', '592', '593', '594', '599', '601', '602', '604', '605', '606', '608', '611', '615', '616', '617', '619', '621', '623', '624', '627', '628', '629', '630', '633', '638', '639', '640', '645', '646', '647', '651', '658', '659', '663', '664', '665', '666', '668', '673', '676', '678', '680', '681', '682', '687', '689', '690', '691', '692', '694', '695', '698', '703', '704', '705', '707', '712', '713', '720', '721', '722', '727', '729', '733', '737', '739', '740', '742', '743', '744', '747', '748', '751', '756', '759', '761', '762', '765', '769', '772', '773', '774', '778', '780', '781', '783', '786', '787', '789', '790', '795', '797', '798', '799', '801', '802', '803', '804', '805', '806', '808', '809', '812', '815', '816', '817', '818', '822', '823', '824', '826', '827', '828', '829', '831', '833', '837', '838', '840', '841', '842', '846', '848', '849', '850', '853', '855', '856', '858', '861', '862', '866', '867', '868', '869', '871', '872', '874', '878', '879', '880', '881', '882', '884', '887', '889', '891', '893', '897', '900', '903', '904', '907', '908', '909', '913', '915', '916', '918', '919', '922', '923', '924', '925', '929', '932', '933', '936', '937', '939', '940', '942', '943', '944', '945', '948', '949', '954', '955', '959', '961', '962', '964', '967', '968', '973', '975', '976', '978', '981', '983', '986', '988', '989', '990', '991', '992', '993', '994', '997', '998', '999', '1000']",False,1000,True,100,97682fba13,0.0,1.0,0.0
./expes/v3_2021-02-19_hi_1000-prng-1-w1-fpa10-0.6-p100,30_issda-1000,1000,first-1000,450,45,rng,num-start-250,250,25726,fpa-09-10-0.6-20,30.82982587814331,False,,False,0.2863985718019346,0.2841002077717073,0.2939557389947154,100,"['2', '5', '6', '9', '17', '19', '20', '21', '22', '25', '26', '29', '31', '32', '33', '35', '37', '38', '39', '42', '45', '47', '51', '53', '55', '58', '59', '61', '62', '69', '70', '73', '76', '78', '79', '83', '84', '85', '87', '89', '90', '94', '96', '97', '99', '103', '104', '105', '108', '109', '114', '115', '116', '118', '119', '122', '125', '126', '131', '132', '135', '140', '144', '145', '148', '149', '151', '155', '156', '158', '160', '161', '162', '163', '165', '166', '169', '171', '174', '175', '177', '178', '181', '182', '185', '186', '187', '189', '193', '196', '197', '204', '213', '214', '216', '218', '223', '225', '228', '231', '233', '234', '237', '238', '239', '241', '242', '247', '251', '253', '254', '255', '256', '257', '258', '260', '261', '262', '263', '264', '266', '269', '271', '273', '275', '276', '280', '281', '286', '292', '293', '294', '297', '298', '304', '311', '314', '316', '317', '318', '320', '324', '327', '333', '336', '337', '338', '339', '343', '346', '350', '353', '354', '360', '363', '365', '367', '368', '369', '370', '371', '372', '373', '375', '376', '381', '382', '383', '384', '390', '393', '394', '395', '400', '401', '402', '403', '405', '410', '412', '413', '414', '415', '417', '419', '421', '423', '425', '427', '429', '430', '434', '436', '438', '442', '445', '450', '452', '456', '457', '459', '460', '463', '465', '466', '468', '469', '473', '475', '476', '477', '478', '482', '484', '485', '490', '492', '495', '496', '498', '499', '501', '502', '503', '504', '510', '511', '513', '515', '517', '520', '521', '522', '523', '524', '525', '527', '528', '529', '531', '532', '534', '535', '536', '537', '538', '539', '544', '546', '549', '554', '558', '559', '561', '562', '565', '571', '572', '574', '576', '582', '586', '588', '589', '590', '596', '599', '600', '603', '604', '606', '608', '610', '611', '620', '621', '622', '626', '629', '631', '632', '634', '637', '639', '640', '643', '651', '653', '654', '657', '658', '664', '668', '669', '671', '675', '677', '678', '680', '683', '686', '687', '689', '691', '696', '697', '698', '699', '701', '702', '704', '707', '709', '710', '713', '716', '717', '721', '723', '724', '726', '727', '728', '731', '732', '733', '734', '735', '737', '741', '742', '744', '746', '747', '749', '753', '754', '755', '757', '758', '761', '763', '764', '766', '769', '772', '773', '774', '778', '779', '780', '782', '783', '785', '792', '794', '796', '800', '802', '804', '808', '809', '811', '814', '816', '818', '819', '820', '822', '823', '824', '826', '829', '830', '832', '833', '835', '836', '838', '840', '841', '845', '846', '852', '856', '857', '859', '861', '870', '871', '873', '875', '880', '881', '884', '887', '892', '896', '897', '898', '902', '903', '904', '905', '906', '907', '909', '911', '914', '916', '917', '920', '922', '923', '924', '925', '929', '930', '931', '934', '938', '939', '941', '943', '944', '948', '952', '955', '957', '958', '959', '960', '961', '964', '967', '971', '973', '978', '979', '981', '982', '983', '984', '985', '986', '987', '993', '994', '995', '998']",False,1000,True,100,fdf4c6395a,0.0,1.0,0.0
./expes/v3_2021-02-19_hi_1000-prng-1-w1-fpa10-0.6-p100,30_issda-1000,1000,first-1000,50,5,rng,num-start-4750,4750,25726,fpa-09-10-0.6-20,790.0146083831787,False,,False,0.6860086686829204,0.6836140014158336,0.7032036252106706,100,"['3', '10', '23', '27', '30', '32', '65', '97', '105', '121', '138', '215', '222', '235', '262', '273', '326', '389', '391', '400', '433', '444', '457', '461', '484', '500', '508', '555', '583', '606', '623', '666', '668', '703', '713', '739', '780', '781', '783', '786', '808', '822', '856', '868', '903', '915', '924', '962', '968', '993']",False,1000,True,100,fa2f5baa40,0.0,1.0,0.0
./expes/v3_2021-02-19_hi_1000-prng-1-w1-fpa10-0.6-p100,30_issda-1000,1000,first-1000,200,20,rng,num-start-2750,2750,25726,fpa-09-10-0.6-20,467.84929871559143,False,,False,0.43510301402795726,0.4148997159953327,0.43936258213145074,100,"['2', '3', '6', '10', '13', '23', '27', '30', '31', '32', '36', '45', '58', '65', '89', '97', '103', '105', '111', '121', '124', '133', '138', '168', '173', '175', '178', '191', '195', '205', '211', '215', '222', '225', '228', '233', '235', '237', '238', '239', '249', '262', '273', '276', '291', '297', '304', '311', '316', '326', '340', '341', '353', '354', '355', '362', '366', '374', '376', '380', '384', '389', '391', '393', '400', '403', '404', '414', '415', '424', '425', '427', '433', '437', '444', '449', '450', '457', '461', '470', '471', '481', '484', '492', '493', '497', '500', '502', '508', '512', '513', '515', '517', '518', '520', '521', '525', '527', '532', '534', '541', '552', '553', '554', '555', '562', '567', '568', '570', '575', '583', '584', '592', '593', '602', '604', '606', '608', '615', '623', '624', '628', '630', '639', '645', '658', '663', '666', '668', '676', '680', '681', '687', '691', '694', '703', '713', '720', '721', '729', '739', '742', '744', '747', '751', '756', '759', '761', '762', '780', '781', '783', '786', '790', '795', '797', '798', '803', '806', '808', '817', '822', '829', '833', '841', '850', '856', '858', '861', '867', '868', '869', '874', '878', '881', '891', '903', '904', '908', '915', '918', '924', '932', '933', '939', '943', '945', '949', '959', '961', '962', '964', '968', '973', '976', '978', '981', '991', '993', '997']",False,1000,True,100,ebc2675f40,0.0,1.0,0.0
./expes/v3_2021-02-19_hi_1000-prng-1-w1-fpa10-0.6-p100,30_issda-1000,1000,first-1000,50,5,rng,num-start-2750,2750,25726,fpa-09-10-0.6-20,590.8591148853302,False,,False,0.6966620233359051,0.686793840900122,0.7065956951813998,100,"['14', '16', '32', '44', '66', '68', '134', '155', '156', '164', '197', '238', '240', '244', '266', '309', '379', '400', '407', '481', '482', '486', '488', '536', '554', '558', '563', '565', '595', '606', '607', '619', '621', '641', '651', '655', '688', '735', '760', '777', '796', '799', '857', '858', '882', '889', '931', '938', '949', '981']",False,1000,True,100,e719dcae6c,0.0,1.0,0.0
./expes/v3_2021-02-19_hi_1000-prng-1-w1-fpa10-0.6-p100,30_issda-1000,1000,first-1000,200,20,rng,num-start-500,500,25726,fpa-09-10-0.6-20,60.418816804885864,False,,False,0.4309373467663905,0.4252562916130962,0.4593593686261712,100,"['2', '15', '17', '34', '40', '42', '47', '64', '65', '71', '76', '83', '85', '92', '94', '96', '98', '102', '104', '112', '119', '120', '128', '134', '143', '144', '146', '150', '151', '154', '175', '189', '192', '194', '195', '196', '209', '210', '221', '224', '225', '226', '228', '242', '245', '248', '249', '250', '257', '266', '267', '278', '282', '283', '289', '295', '298', '299', '309', '311', '318', '324', '325', '328', '333', '334', '339', '341', '342', '344', '363', '366', '367', '381', '395', '401', '409', '415', '430', '431', '437', '445', '454', '456', '459', '462', '484', '488', '489', '498', '499', '502', '505', '506', '517', '521', '524', '534', '535', '538', '546', '554', '557', '561', '562', '565', '566', '574', '582', '588', '590', '594', '598', '602', '604', '611', '617', '618', '626', '627', '628', '634', '641', '646', '650', '656', '657', '673', '677', '685', '696', '700', '701', '715', '717', '718', '721', '723', '724', '728', '737', '748', '750', '774', '776', '777', '802', '803', '804', '813', '814', '818', '819', '823', '825', '830', '832', '835', '836', '837', '842', '845', '846', '848', '850', '858', '861', '863', '865', '866', '870', '871', '876', '887', '889', '892', '897', '898', '912', '914', '917', '920', '921', '924', '930', '932', '935', '938', '939', '940', '941', '945', '946', '956', '973', '987', '989', '990', '991', '992']",False,1000,True,100,96a39077d0,0.0,1.0,0.0
./expes/v3_2021-02-19_hi_1000-prng-1-w1-fpa10-0.6-p100,30_issda-1000,1000,first-1000,250,25,rng,num-start-4750,4750,25726,fpa-09-10-0.6-20,734.3819165229797,False,,False,0.39009370637873475,0.3800125933662972,0.4030440917820175,100,"['2', '3', '6', '10', '13', '15', '18', '23', '25', '27', '29', '30', '31', '32', '34', '36', '45', '58', '65', '72', '73', '86', '89', '94', '97', '103', '105', '111', '113', '117', '121', '124', '133', '138', '164', '168', '172', '173', '175', '178', '182', '186', '190', '191', '195', '205', '211', '215', '222', '225', '228', '233', '235', '236', '237', '238', '239', '249', '256', '262', '273', '276', '280', '288', '291', '297', '298', '302', '304', '311', '316', '320', '326', '330', '340', '341', '352', '353', '354', '355', '362', '366', '374', '376', '380', '384', '389', '391', '393', '396', '400', '403', '404', '414', '415', '424', '425', '427', '433', '437', '444', '449', '450', '457', '461', '464', '466', '470', '471', '481', '484', '486', '492', '493', '497', '500', '502', '508', '509', '512', '513', '515', '517', '518', '520', '521', '525', '527', '532', '534', '541', '552', '553', '554', '555', '562', '564', '565', '567', '568', '570', '575', '583', '584', '592', '593', '599', '602', '604', '606', '608', '615', '623', '624', '628', '630', '639', '640', '645', '651', '658', '663', '664', '666', '668', '673', '676', '680', '681', '687', '690', '691', '694', '703', '713', '720', '721', '729', '739', '742', '744', '747', '751', '756', '759', '761', '762', '773', '774', '780', '781', '783', '786', '790', '795', '797', '798', '803', '806', '808', '817', '818', '822', '824', '829', '833', '837', '841', '850', '856', '858', '861', '862', '867', '868', '869', '872', '874', '878', '881', '882', '889', '891', '903', '904', '908', '915', '918', '924', '932', '933', '939', '943', '945', '949', '954', '959', '961', '962', '964', '967', '968', '973', '975', '976', '978', '981', '991', '993', '997']",False,1000,True,100,692a6ce999,0.0,1.0,0.0
./expes/v3_2021-02-19_hi_1000-prng-1-w1-fpa10-0.6-p100,30_issda-1000,1000,first-1000,150,15,rng,num-start-3500,3500,25726,fpa-09-10-0.6-20,531.9135935306549,False,,False,0.48595787920242406,0.48205379790149216,0.4977527976660773,100,"['8', '19', '21', '27', '44', '45', '48', '61', '64', '69', '84', '85', '89', '92', '93', '104', '106', '109', '126', '149', '159', '166', '169', '177', '182', '183', '189', '199', '200', '201', '204', '208', '220', '228', '235', '239', '242', '244', '254', '255', '266', '267', '269', '279', '283', '284', '285', '287', '288', '293', '296', '297', '298', '299', '308', '311', '313', '318', '320', '329', '332', '335', '340', '346', '352', '365', '366', '369', '382', '398', '406', '412', '423', '424', '434', '442', '447', '452', '463', '471', '474', '483', '485', '491', '519', '521', '532', '533', '548', '550', '561', '563', '572', '587', '597', '603', '614', '621', '631', '642', '643', '648', '650', '651', '657', '664', '688', '690', '692', '715', '718', '722', '726', '739', '750', '753', '765', '784', '799', '817', '820', '827', '833', '838', '847', '849', '860', '861', '866', '869', '876', '883', '887', '889', '902', '904', '918', '927', '931', '936', '940', '950', '958', '965', '966', '968', '978', '983', '984', '988']",False,1000,True,100,7f2ac1a45b,0.0,1.0,0.0
./expes/v3_2021-02-19_hi_1000-prng-1-w1-fpa10-0.6-p100,30_issda-1000,1000,first-1000,250,25,rng,num-start-4500,4500,25726,fpa-09-10-0.6-20,694.0651252269745,False,,False,0.39545254219523734,0.3784001396506058,0.404723295975431,100,"['2', '5', '9', '19', '22', '25', '26', '29', '32', '33', '37', '38', '42', '45', '47', '51', '58', '59', '61', '62', '70', '78', '85', '87', '94', '96', '105', '109', '116', '118', '131', '140', '144', '148', '156', '158', '161', '163', '166', '169', '171', '174', '177', '178', '181', '182', '187', '189', '196', '213', '216', '218', '228', '231', '233', '237', '242', '251', '254', '256', '258', '262', '266', '269', '271', '273', '275', '280', '286', '293', '311', '316', '317', '320', '324', '327', '333', '336', '346', '350', '353', '360', '363', '369', '370', '371', '372', '373', '376', '381', '383', '390', '395', '403', '410', '412', '417', '425', '430', '434', '442', '456', '457', '459', '460', '466', '468', '473', '477', '485', '492', '499', '501', '502', '511', '513', '515', '517', '520', '522', '523', '525', '527', '528', '531', '535', '536', '538', '539', '544', '558', '565', '571', '572', '574', '576', '582', '589', '596', '599', '603', '604', '606', '608', '620', '621', '622', '631', '632', '637', '639', '643', '654', '668', '669', '671', '675', '677', '678', '686', '689', '691', '698', '699', '701', '704', '709', '717', '723', '724', '733', '735', '741', '742', '744', '747', '749', '753', '754', '757', '758', '761', '763', '766', '773', '774', '778', '782', '785', '792', '800', '804', '808', '809', '814', '816', '819', '823', '829', '833', '835', '841', '845', '852', '856', '859', '870', '875', '880', '881', '884', '892', '896', '897', '898', '902', '904', '905', '906', '914', '916', '920', '922', '923', '924', '925', '929', '930', '931', '934', '938', '941', '943', '948', '955', '957', '959', '961', '964', '967', '971', '973', '978', '979', '981', '982', '983', '985', '994', '995']",False,1000,True,100,fd9cbfe0d0,0.0,1.0,0.0
./expes/v3_2021-02-19_hi_1000-prng-1-w1-fpa10-0.6-p100,30_issda-1000,1000,first-1000,50,5,rng,num-start-4250,4250,25726,fpa-09-10-0.6-20,716.0545017719269,False,,False,0.7020408155811879,0.686793840900122,0.7065956951813998,100,"['14', '16', '32', '44', '66', '68', '134', '155', '156', '164', '197', '238', '240', '244', '266', '309', '379', '400', '407', '481', '482', '486', '488', '536', '554', '558', '563', '565', '595', '606', '607', '619', '621', '641', '651', '655', '688', '735', '760', '777', '796', '799', '857', '858', '882', '889', '931', '938', '949', '981']",False,1000,True,100,a3be7af438,0.0,1.0,0.0
