expe,clients,clients_size,clients_subset,agg_size,agg_size_pc,method,days,days_size,days_total,noise_method,time,valid,valid_sum,success,score_avg,score_min,score_max,nsols,oracle,wall_hit,wall_time,pooled,pool_size,uuid,infeasible,optimal,valid_sums
./expes/v2_2021-03-23_issda-30_2000-prng-1-w2-p2,30_issda-2000,2000,first-2000,100,5,rng,num-start-3000,3000,25726,classic,1835.7761301994324,True,,True,1.0,1.0,1.0,1,"['30', '62', '146', '174', '241', '259', '267', '268', '277', '286', '301', '302', '362', '368', '381', '384', '415', '439', '462', '473', '480', '519', '526', '531', '537', '538', '539', '565', '574', '596', '601', '604', '643', '709', '729', '730', '746', '761', '811', '880', '881', '884', '895', '902', '909', '919', '924', '941', '997', '1006', '1071', '1089', '1098', '1126', '1136', '1156', '1183', '1218', '1241', '1247', '1252', '1298', '1308', '1313', '1336', '1342', '1365', '1374', '1387', '1401', '1402', '1404', '1416', '1493', '1504', '1526', '1533', '1547', '1626', '1627', '1635', '1643', '1651', '1659', '1679', '1693', '1709', '1716', '1733', '1740', '1741', '1781', '1785', '1797', '1820', '1822', '1823', '1840', '1863', '1945']",False,2000,True,2,971e4e6efb,0.0,1.0,1.0
./expes/v2_2021-03-23_issda-30_2000-prng-1-w2-p2,30_issda-2000,2000,first-2000,600,30,rng,num-start-1600,1600,25726,classic,1296.5518181324005,True,,True,1.0,1.0,1.0,1,"['1', '2', '4', '10', '16', '21', '22', '31', '32', '36', '40', '41', '43', '49', '52', '53', '57', '58', '60', '63', '65', '72', '82', '83', '88', '92', '95', '98', '103', '105', '106', '112', '114', '122', '123', '127', '128', '133', '137', '140', '141', '143', '144', '149', '153', '154', '158', '166', '167', '171', '184', '185', '186', '191', '194', '195', '196', '199', '201', '203', '210', '212', '214', '218', '219', '220', '227', '229', '230', '231', '232', '234', '235', '236', '243', '244', '245', '247', '249', '250', '252', '253', '258', '264', '267', '270', '273', '274', '277', '281', '289', '294', '300', '301', '307', '314', '316', '325', '330', '332', '338', '339', '345', '349', '350', '352', '353', '358', '360', '364', '366', '372', '374', '377', '387', '388', '389', '395', '397', '400', '403', '405', '407', '408', '409', '411', '415', '416', '419', '420', '421', '426', '429', '434', '438', '443', '444', '447', '455', '456', '458', '461', '463', '464', '468', '469', '472', '473', '480', '483', '484', '496', '498', '500', '501', '502', '505', '506', '507', '509', '510', '513', '516', '517', '519', '522', '523', '524', '525', '526', '530', '534', '539', '540', '542', '545', '547', '555', '556', '558', '560', '562', '564', '571', '575', '576', '577', '578', '579', '580', '597', '601', '606', '607', '608', '616', '617', '620', '621', '625', '626', '629', '634', '637', '640', '644', '647', '650', '652', '661', '680', '683', '684', '687', '691', '694', '696', '697', '703', '709', '712', '714', '718', '720', '722', '724', '726', '729', '734', '739', '740', '745', '746', '748', '749', '751', '754', '755', '756', '764', '771', '772', '777', '780', '783', '784', '787', '788', '791', '792', '795', '805', '807', '808', '813', '815', '825', '827', '831', '833', '844', '856', '858', '864', '866', '867', '869', '871', '873', '874', '880', '886', '893', '896', '898', '899', '904', '905', '907', '912', '913', '917', '921', '922', '925', '927', '929', '932', '933', '942', '944', '956', '960', '961', '962', '963', '965', '969', '972', '974', '975', '977', '984', '987', '992', '993', '994', '996', '997', '998', '1000', '1002', '1005', '1015', '1020', '1025', '1026', '1035', '1038', '1039', '1041', '1048', '1049', '1053', '1058', '1065', '1068', '1069', '1073', '1077', '1080', '1082', '1086', '1092', '1094', '1095', '1096', '1098', '1103', '1107', '1109', '1110', '1111', '1113', '1116', '1117', '1119', '1124', '1130', '1134', '1138', '1140', '1142', '1143', '1144', '1147', '1150', '1161', '1166', '1167', '1171', '1182', '1184', '1186', '1192', '1195', '1197', '1201', '1205', '1206', '1207', '1211', '1216', '1218', '1219', '1220', '1221', '1232', '1234', '1237', '1240', '1245', '1249', '1255', '1261', '1262', '1279', '1281', '1283', '1285', '1287', '1294', '1296', '1298', '1301', '1304', '1306', '1313', '1315', '1318', '1321', '1322', '1323', '1324', '1325', '1327', '1331', '1335', '1336', '1339', '1345', '1346', '1349', '1351', '1356', '1360', '1363', '1365', '1369', '1374', '1377', '1379', '1383', '1386', '1393', '1394', '1395', '1396', '1398', '1402', '1404', '1406', '1407', '1416', '1418', '1427', '1437', '1439', '1440', '1441', '1442', '1444', '1446', '1454', '1464', '1466', '1471', '1472', '1478', '1484', '1485', '1486', '1504', '1506', '1514', '1515', '1516', '1517', '1519', '1525', '1527', '1530', '1539', '1540', '1541', '1546', '1547', '1551', '1557', '1560', '1564', '1565', '1567', '1575', '1577', '1578', '1584', '1585', '1587', '1588', '1593', '1597', '1602', '1603', '1607', '1608', '1613', '1621', '1623', '1626', '1627', '1632', '1634', '1635', '1648', '1651', '1652', '1654', '1655', '1656', '1660', '1664', '1668', '1676', '1680', '1682', '1685', '1686', '1687', '1688', '1691', '1694', '1696', '1697', '1698', '1701', '1711', '1720', '1724', '1737', '1739', '1740', '1741', '1748', '1750', '1752', '1756', '1761', '1762', '1765', '1768', '1770', '1771', '1772', '1773', '1776', '1784', '1786', '1788', '1791', '1792', '1795', '1800', '1802', '1807', '1810', '1815', '1816', '1819', '1821', '1835', '1836', '1837', '1840', '1841', '1842', '1845', '1846', '1847', '1848', '1852', '1853', '1861', '1862', '1864', '1875', '1877', '1879', '1886', '1888', '1896', '1902', '1908', '1910', '1911', '1912', '1913', '1914', '1917', '1918', '1924', '1926', '1930', '1932', '1934', '1938', '1946', '1950', '1951', '1959', '1965', '1967', '1968', '1974', '1983', '1990', '1991', '1993', '1995', '2000']",False,2000,True,2,b26667e09c,0.0,1.0,1.0
./expes/v2_2021-03-23_issda-30_2000-prng-1-w2-p2,30_issda-2000,2000,first-2000,700,35,rng,num-start-600,600,25726,classic,2111.6404020786285,False,,False,0,,,0,"['12', '13', '14', '18', '19', '23', '27', '30', '34', '36', '38', '42', '43', '45', '47', '55', '59', '60', '64', '73', '74', '76', '84', '87', '93', '94', '98', '102', '106', '113', '115', '117', '120', '125', '129', '130', '133', '136', '137', '141', '142', '144', '147', '156', '157', '159', '161', '162', '164', '168', '171', '172', '178', '179', '181', '182', '184', '185', '190', '192', '208', '218', '220', '221', '223', '227', '229', '235', '236', '239', '242', '244', '250', '252', '256', '258', '259', '263', '265', '267', '270', '272', '273', '277', '280', '281', '285', '287', '294', '297', '298', '300', '301', '303', '308', '309', '310', '312', '314', '321', '329', '331', '333', '334', '335', '337', '342', '344', '347', '350', '353', '358', '361', '362', '366', '372', '374', '375', '377', '378', '385', '386', '387', '389', '390', '392', '396', '402', '406', '409', '411', '413', '414', '415', '418', '419', '423', '424', '428', '429', '430', '433', '436', '438', '440', '442', '443', '449', '450', '452', '456', '459', '461', '462', '472', '473', '478', '479', '481', '484', '487', '491', '495', '497', '505', '507', '511', '512', '516', '520', '525', '528', '529', '530', '531', '532', '533', '535', '538', '540', '542', '543', '547', '550', '553', '554', '555', '556', '558', '560', '561', '562', '564', '565', '575', '577', '579', '582', '583', '588', '592', '593', '599', '603', '606', '609', '612', '613', '615', '618', '619', '621', '623', '629', '632', '633', '641', '644', '646', '647', '651', '655', '659', '660', '661', '664', '665', '671', '672', '673', '675', '681', '683', '685', '686', '688', '690', '693', '694', '696', '698', '702', '706', '707', '709', '712', '716', '718', '722', '726', '730', '731', '733', '736', '738', '739', '740', '745', '748', '749', '750', '754', '755', '764', '766', '767', '775', '778', '780', '786', '790', '793', '798', '799', '802', '806', '808', '813', '814', '820', '824', '826', '828', '829', '831', '832', '833', '834', '836', '837', '838', '839', '844', '848', '849', '850', '851', '853', '855', '856', '860', '865', '866', '867', '868', '870', '874', '876', '878', '882', '883', '888', '889', '890', '895', '897', '911', '913', '915', '920', '930', '931', '932', '933', '936', '939', '940', '942', '950', '953', '955', '958', '959', '962', '963', '967', '973', '978', '979', '980', '983', '984', '985', '994', '997', '1003', '1005', '1006', '1007', '1008', '1010', '1012', '1014', '1016', '1023', '1026', '1038', '1039', '1040', '1043', '1046', '1047', '1049', '1051', '1052', '1054', '1062', '1064', '1066', '1067', '1069', '1070', '1073', '1075', '1078', '1079', '1083', '1085', '1086', '1087', '1091', '1095', '1102', '1104', '1107', '1109', '1111', '1114', '1116', '1117', '1119', '1124', '1127', '1130', '1131', '1133', '1137', '1140', '1143', '1144', '1145', '1149', '1152', '1158', '1159', '1164', '1166', '1170', '1171', '1173', '1174', '1176', '1179', '1183', '1186', '1192', '1194', '1195', '1198', '1203', '1206', '1207', '1216', '1218', '1224', '1225', '1229', '1235', '1242', '1244', '1251', '1252', '1254', '1255', '1258', '1260', '1261', '1264', '1266', '1267', '1275', '1281', '1287', '1289', '1290', '1291', '1292', '1293', '1300', '1304', '1306', '1308', '1309', '1322', '1325', '1326', '1327', '1328', '1336', '1339', '1344', '1345', '1346', '1347', '1353', '1354', '1355', '1359', '1370', '1372', '1375', '1378', '1381', '1383', '1384', '1385', '1386', '1388', '1389', '1391', '1393', '1395', '1396', '1400', '1401', '1402', '1406', '1407', '1408', '1412', '1414', '1415', '1417', '1419', '1422', '1427', '1431', '1432', '1433', '1438', '1440', '1444', '1446', '1447', '1449', '1451', '1452', '1453', '1454', '1458', '1461', '1462', '1464', '1467', '1469', '1471', '1472', '1474', '1480', '1482', '1489', '1490', '1496', '1505', '1506', '1507', '1508', '1513', '1519', '1522', '1525', '1526', '1527', '1529', '1533', '1538', '1544', '1545', '1548', '1549', '1550', '1551', '1552', '1553', '1554', '1556', '1557', '1562', '1573', '1574', '1575', '1578', '1579', '1581', '1584', '1587', '1589', '1593', '1594', '1595', '1598', '1599', '1600', '1605', '1607', '1609', '1613', '1615', '1620', '1622', '1623', '1625', '1626', '1627', '1632', '1639', '1642', '1644', '1652', '1654', '1657', '1660', '1662', '1663', '1664', '1666', '1668', '1669', '1674', '1676', '1688', '1691', '1692', '1693', '1695', '1697', '1700', '1703', '1705', '1706', '1708', '1711', '1712', '1713', '1715', '1719', '1720', '1722', '1724', '1726', '1728', '1729', '1733', '1736', '1738', '1746', '1749', '1750', '1756', '1758', '1760', '1762', '1766', '1769', '1774', '1777', '1780', '1783', '1789', '1790', '1791', '1792', '1795', '1804', '1805', '1807', '1811', '1814', '1817', '1818', '1823', '1825', '1826', '1827', '1829', '1834', '1837', '1841', '1842', '1844', '1847', '1854', '1857', '1858', '1859', '1865', '1867', '1869', '1871', '1880', '1888', '1889', '1891', '1895', '1896', '1899', '1900', '1904', '1905', '1909', '1910', '1912', '1916', '1919', '1931', '1934', '1935', '1936', '1938', '1939', '1941', '1946', '1950', '1951', '1955', '1960', '1961', '1962', '1964', '1968', '1979', '1980', '1981', '1985', '1986', '1987', '1993', '1994', '1998', '1999']",True,2000,True,2,dc08fe9dfe,0.0,0.0,0.0
./expes/v2_2021-03-23_issda-30_2000-prng-1-w2-p2,30_issda-2000,2000,first-2000,700,35,rng,num-start-2000,2000,25726,classic,1415.9041152000427,True,,True,1.0,1.0,1.0,1,"['6', '8', '9', '11', '12', '16', '21', '26', '28', '30', '31', '33', '34', '36', '39', '52', '54', '56', '57', '64', '65', '66', '67', '68', '69', '71', '73', '74', '75', '76', '77', '85', '88', '89', '90', '91', '92', '95', '98', '100', '102', '103', '104', '107', '109', '110', '113', '114', '116', '122', '123', '124', '129', '133', '134', '135', '139', '143', '144', '145', '148', '152', '154', '156', '160', '161', '164', '166', '167', '172', '181', '183', '187', '190', '194', '196', '197', '198', '199', '203', '205', '215', '217', '219', '223', '232', '237', '238', '239', '241', '243', '245', '247', '253', '256', '257', '261', '262', '267', '273', '275', '279', '285', '286', '289', '290', '294', '299', '301', '306', '307', '310', '312', '313', '314', '315', '316', '317', '321', '324', '325', '329', '334', '337', '338', '339', '340', '341', '345', '346', '348', '351', '352', '355', '357', '358', '359', '360', '361', '362', '365', '366', '367', '374', '375', '381', '382', '384', '387', '390', '391', '392', '393', '394', '397', '399', '400', '401', '410', '413', '422', '423', '426', '428', '430', '433', '434', '439', '447', '451', '454', '458', '459', '460', '469', '482', '483', '487', '489', '491', '492', '494', '495', '497', '501', '503', '505', '506', '512', '519', '522', '531', '532', '537', '538', '540', '544', '545', '547', '557', '562', '563', '568', '569', '570', '579', '581', '585', '589', '590', '593', '594', '596', '603', '607', '614', '617', '620', '621', '627', '628', '631', '632', '637', '644', '649', '650', '655', '660', '662', '665', '670', '672', '673', '680', '686', '688', '694', '695', '700', '703', '704', '708', '712', '713', '715', '716', '717', '724', '725', '728', '735', '738', '739', '740', '743', '747', '750', '752', '766', '767', '769', '771', '778', '779', '782', '783', '788', '790', '792', '795', '796', '798', '800', '803', '804', '811', '813', '814', '817', '818', '820', '821', '822', '825', '829', '830', '831', '837', '846', '849', '851', '852', '858', '861', '862', '863', '864', '866', '867', '868', '869', '874', '876', '879', '882', '887', '888', '889', '891', '892', '893', '894', '899', '900', '901', '904', '905', '906', '911', '913', '915', '916', '917', '918', '923', '925', '930', '933', '934', '936', '938', '939', '940', '941', '942', '944', '946', '948', '950', '951', '956', '959', '962', '963', '965', '972', '974', '976', '977', '978', '979', '981', '983', '984', '989', '994', '1002', '1003', '1004', '1007', '1014', '1016', '1018', '1023', '1024', '1027', '1028', '1038', '1040', '1044', '1046', '1047', '1051', '1052', '1058', '1060', '1065', '1066', '1067', '1069', '1070', '1071', '1072', '1075', '1076', '1082', '1088', '1091', '1093', '1097', '1099', '1100', '1104', '1106', '1109', '1116', '1117', '1125', '1128', '1129', '1130', '1138', '1139', '1140', '1144', '1145', '1146', '1153', '1156', '1157', '1158', '1160', '1162', '1167', '1168', '1171', '1172', '1177', '1179', '1180', '1182', '1184', '1185', '1188', '1191', '1194', '1198', '1203', '1206', '1210', '1212', '1216', '1219', '1220', '1224', '1225', '1232', '1234', '1235', '1236', '1238', '1240', '1241', '1242', '1243', '1245', '1246', '1247', '1248', '1249', '1250', '1257', '1259', '1265', '1267', '1268', '1270', '1275', '1279', '1281', '1282', '1285', '1286', '1288', '1299', '1301', '1303', '1305', '1308', '1309', '1310', '1311', '1314', '1315', '1317', '1324', '1329', '1331', '1335', '1336', '1338', '1339', '1345', '1347', '1348', '1351', '1353', '1356', '1361', '1363', '1364', '1366', '1371', '1373', '1380', '1381', '1383', '1387', '1395', '1402', '1405', '1408', '1413', '1416', '1418', '1420', '1421', '1424', '1428', '1430', '1435', '1438', '1440', '1445', '1447', '1453', '1455', '1460', '1461', '1471', '1475', '1476', '1478', '1479', '1480', '1481', '1482', '1488', '1489', '1503', '1508', '1513', '1515', '1517', '1523', '1524', '1526', '1527', '1535', '1539', '1541', '1544', '1556', '1559', '1561', '1564', '1565', '1571', '1572', '1573', '1575', '1579', '1582', '1583', '1584', '1587', '1589', '1590', '1592', '1593', '1604', '1612', '1613', '1616', '1617', '1620', '1626', '1633', '1638', '1641', '1648', '1650', '1653', '1654', '1657', '1659', '1661', '1662', '1664', '1666', '1673', '1674', '1675', '1676', '1681', '1682', '1685', '1687', '1688', '1690', '1691', '1694', '1695', '1698', '1699', '1707', '1708', '1709', '1712', '1713', '1714', '1715', '1718', '1725', '1729', '1736', '1737', '1740', '1742', '1744', '1748', '1751', '1752', '1759', '1761', '1762', '1763', '1766', '1768', '1771', '1772', '1773', '1781', '1783', '1785', '1786', '1790', '1792', '1794', '1800', '1802', '1805', '1808', '1818', '1819', '1821', '1823', '1825', '1826', '1830', '1837', '1839', '1840', '1842', '1846', '1847', '1852', '1853', '1856', '1858', '1860', '1863', '1865', '1866', '1870', '1871', '1872', '1874', '1878', '1882', '1884', '1886', '1887', '1890', '1893', '1907', '1910', '1911', '1912', '1916', '1917', '1918', '1923', '1928', '1932', '1937', '1941', '1946', '1948', '1951', '1952', '1956', '1958', '1959', '1965', '1966', '1967', '1968', '1971', '1973', '1974', '1976', '1984', '1985', '1986', '1987', '1988', '1995', '1997']",False,2000,True,2,cbeb65526d,0.0,1.0,1.0
./expes/v2_2021-03-23_issda-30_2000-prng-1-w2-p2,30_issda-2000,2000,first-2000,1000,50,rng,num-start-2600,2600,25726,classic,2034.6114871501923,True,,True,1.0,1.0,1.0,1,"['1', '2', '3', '5', '7', '8', '9', '10', '12', '13', '16', '17', '19', '21', '23', '27', '28', '29', '30', '32', '35', '37', '40', '41', '42', '44', '45', '46', '47', '48', '50', '51', '54', '57', '58', '63', '66', '67', '68', '69', '73', '75', '77', '78', '80', '81', '84', '88', '89', '90', '91', '96', '98', '99', '106', '108', '110', '111', '113', '114', '115', '116', '119', '120', '122', '123', '125', '127', '131', '133', '134', '135', '137', '146', '147', '148', '150', '152', '153', '157', '161', '162', '163', '164', '165', '169', '172', '177', '178', '179', '182', '183', '184', '186', '187', '189', '190', '191', '192', '196', '198', '199', '202', '205', '207', '208', '211', '212', '213', '214', '215', '218', '219', '220', '221', '222', '223', '231', '233', '236', '238', '239', '241', '242', '245', '247', '249', '252', '253', '254', '255', '256', '257', '258', '261', '268', '269', '271', '274', '276', '280', '285', '290', '291', '292', '294', '295', '296', '301', '302', '303', '304', '309', '311', '313', '314', '315', '316', '317', '318', '319', '321', '322', '323', '324', '325', '326', '327', '328', '330', '337', '338', '342', '344', '347', '348', '349', '352', '353', '354', '355', '357', '360', '365', '368', '369', '373', '374', '379', '381', '384', '387', '389', '391', '392', '393', '395', '397', '400', '401', '402', '405', '406', '407', '408', '410', '413', '416', '417', '418', '419', '420', '421', '424', '427', '428', '429', '430', '432', '434', '435', '436', '437', '440', '443', '445', '446', '447', '448', '449', '452', '454', '456', '457', '459', '460', '461', '465', '467', '471', '476', '479', '481', '482', '483', '485', '486', '487', '488', '490', '491', '494', '495', '497', '498', '500', '501', '502', '503', '504', '505', '506', '509', '512', '513', '519', '520', '523', '524', '527', '529', '531', '533', '535', '538', '539', '540', '541', '545', '548', '549', '551', '552', '553', '554', '556', '558', '560', '561', '565', '567', '571', '573', '577', '579', '580', '581', '582', '583', '584', '587', '588', '591', '593', '594', '595', '596', '597', '601', '602', '603', '605', '607', '608', '609', '610', '612', '613', '614', '616', '619', '620', '621', '624', '625', '626', '627', '629', '631', '632', '633', '634', '635', '636', '641', '642', '643', '645', '646', '647', '649', '650', '655', '656', '658', '659', '660', '662', '664', '667', '673', '681', '683', '684', '685', '686', '687', '689', '690', '692', '693', '696', '700', '703', '704', '705', '706', '707', '711', '713', '715', '716', '717', '719', '723', '724', '725', '726', '727', '728', '731', '733', '736', '738', '740', '741', '743', '747', '751', '756', '757', '761', '763', '764', '765', '766', '767', '769', '771', '773', '774', '778', '779', '780', '783', '784', '785', '786', '787', '790', '792', '793', '795', '796', '802', '805', '808', '810', '811', '815', '817', '819', '820', '823', '825', '826', '827', '829', '830', '832', '833', '834', '836', '837', '838', '839', '840', '843', '844', '845', '846', '848', '850', '852', '854', '855', '856', '857', '858', '859', '860', '861', '863', '865', '867', '869', '874', '875', '876', '877', '878', '879', '880', '884', '885', '887', '889', '891', '892', '893', '894', '896', '899', '901', '902', '904', '906', '910', '911', '912', '914', '915', '916', '917', '922', '926', '929', '931', '934', '936', '941', '942', '943', '944', '946', '947', '952', '954', '956', '960', '961', '966', '968', '971', '972', '973', '978', '985', '986', '988', '991', '994', '995', '999', '1000', '1001', '1003', '1004', '1005', '1007', '1009', '1012', '1013', '1015', '1016', '1017', '1019', '1020', '1022', '1023', '1024', '1027', '1028', '1030', '1032', '1041', '1044', '1045', '1046', '1047', '1049', '1052', '1053', '1058', '1059', '1060', '1061', '1062', '1067', '1072', '1073', '1077', '1078', '1081', '1083', '1087', '1089', '1090', '1092', '1094', '1095', '1097', '1099', '1101', '1102', '1103', '1105', '1106', '1110', '1111', '1112', '1125', '1127', '1129', '1132', '1133', '1134', '1136', '1142', '1144', '1146', '1149', '1150', '1152', '1153', '1157', '1162', '1163', '1166', '1168', '1169', '1171', '1173', '1176', '1177', '1184', '1186', '1189', '1193', '1202', '1203', '1207', '1208', '1209', '1211', '1212', '1213', '1215', '1216', '1217', '1218', '1219', '1220', '1222', '1223', '1224', '1225', '1227', '1234', '1235', '1237', '1238', '1241', '1242', '1243', '1245', '1248', '1250', '1251', '1252', '1253', '1255', '1256', '1257', '1258', '1260', '1263', '1264', '1267', '1269', '1271', '1273', '1275', '1276', '1277', '1280', '1281', '1282', '1284', '1285', '1287', '1288', '1293', '1295', '1296', '1297', '1301', '1302', '1304', '1305', '1307', '1308', '1311', '1312', '1313', '1314', '1317', '1318', '1319', '1320', '1321', '1329', '1332', '1334', '1335', '1337', '1339', '1341', '1342', '1343', '1344', '1347', '1349', '1351', '1352', '1353', '1355', '1356', '1357', '1358', '1364', '1365', '1366', '1367', '1369', '1370', '1371', '1374', '1380', '1381', '1391', '1392', '1394', '1395', '1397', '1402', '1407', '1408', '1411', '1413', '1415', '1417', '1421', '1425', '1426', '1429', '1430', '1432', '1433', '1434', '1435', '1441', '1442', '1443', '1448', '1449', '1450', '1452', '1457', '1460', '1463', '1469', '1471', '1472', '1473', '1474', '1475', '1477', '1478', '1480', '1483', '1485', '1487', '1491', '1496', '1497', '1499', '1500', '1502', '1506', '1508', '1509', '1510', '1511', '1512', '1513', '1516', '1521', '1522', '1523', '1525', '1528', '1533', '1535', '1536', '1540', '1542', '1547', '1548', '1549', '1551', '1553', '1554', '1556', '1558', '1559', '1560', '1562', '1564', '1565', '1566', '1567', '1568', '1574', '1576', '1580', '1583', '1584', '1586', '1589', '1591', '1595', '1596', '1597', '1598', '1599', '1600', '1602', '1603', '1604', '1605', '1607', '1609', '1610', '1611', '1612', '1614', '1616', '1617', '1618', '1619', '1624', '1628', '1629', '1630', '1631', '1635', '1636', '1637', '1638', '1645', '1646', '1647', '1648', '1650', '1651', '1652', '1653', '1654', '1655', '1656', '1658', '1659', '1660', '1664', '1667', '1669', '1671', '1674', '1677', '1678', '1680', '1683', '1686', '1688', '1689', '1692', '1693', '1694', '1696', '1697', '1700', '1703', '1704', '1706', '1707', '1709', '1710', '1711', '1712', '1714', '1717', '1721', '1722', '1724', '1725', '1726', '1727', '1729', '1731', '1732', '1735', '1736', '1738', '1741', '1745', '1746', '1748', '1750', '1752', '1754', '1760', '1762', '1763', '1764', '1765', '1770', '1771', '1772', '1773', '1776', '1777', '1778', '1784', '1785', '1786', '1787', '1788', '1789', '1791', '1795', '1801', '1803', '1806', '1809', '1810', '1811', '1812', '1813', '1814', '1816', '1820', '1825', '1830', '1831', '1833', '1836', '1837', '1839', '1842', '1843', '1847', '1848', '1849', '1852', '1855', '1857', '1858', '1865', '1872', '1873', '1874', '1875', '1877', '1879', '1880', '1882', '1883', '1884', '1885', '1886', '1888', '1892', '1895', '1896', '1897', '1900', '1901', '1902', '1905', '1908', '1909', '1913', '1915', '1921', '1925', '1927', '1930', '1931', '1932', '1933', '1934', '1940', '1941', '1942', '1943', '1947', '1948', '1949', '1950', '1952', '1953', '1954', '1955', '1956', '1957', '1959', '1961', '1962', '1965', '1970', '1971', '1973', '1976', '1978', '1979', '1981', '1982', '1983', '1984', '1985', '1986', '1987', '1988', '1989', '1990', '1991', '1993', '1995', '1996']",False,2000,True,2,f0239e767b,0.0,1.0,1.0
./expes/v2_2021-03-23_issda-30_2000-prng-1-w2-p2,30_issda-2000,2000,first-2000,900,45,rng,num-start-400,400,25726,classic,2074.850977897644,False,,False,0,,,0,"['2', '7', '8', '11', '12', '14', '15', '17', '18', '19', '20', '21', '23', '24', '25', '26', '27', '29', '31', '32', '36', '38', '40', '42', '44', '46', '49', '53', '54', '56', '58', '59', '60', '61', '62', '68', '70', '71', '74', '80', '84', '85', '86', '87', '89', '97', '100', '102', '104', '105', '106', '108', '109', '110', '111', '113', '116', '117', '119', '120', '121', '122', '123', '124', '125', '130', '131', '132', '133', '134', '135', '136', '137', '141', '142', '143', '147', '152', '153', '155', '156', '157', '161', '162', '164', '166', '167', '168', '170', '171', '172', '173', '174', '176', '178', '179', '180', '181', '182', '183', '188', '189', '192', '193', '194', '197', '198', '203', '204', '205', '209', '210', '212', '213', '217', '218', '223', '226', '227', '228', '229', '230', '239', '242', '243', '244', '246', '247', '249', '251', '253', '263', '266', '271', '272', '273', '275', '276', '277', '282', '283', '284', '285', '288', '289', '292', '295', '298', '301', '304', '305', '306', '307', '311', '312', '319', '322', '326', '329', '331', '332', '333', '334', '335', '337', '341', '345', '346', '347', '348', '350', '351', '352', '354', '355', '360', '361', '362', '365', '367', '371', '372', '373', '374', '375', '377', '382', '383', '387', '388', '391', '394', '398', '400', '402', '405', '406', '408', '409', '410', '411', '412', '414', '416', '420', '421', '423', '428', '429', '430', '431', '432', '433', '438', '444', '452', '453', '455', '456', '457', '459', '460', '462', '466', '473', '474', '476', '477', '484', '485', '488', '496', '497', '498', '499', '503', '507', '509', '514', '515', '519', '520', '522', '523', '524', '526', '530', '531', '532', '533', '535', '538', '539', '543', '546', '547', '548', '550', '552', '553', '557', '559', '562', '564', '565', '567', '569', '571', '576', '581', '583', '584', '585', '589', '590', '595', '596', '597', '599', '603', '605', '607', '610', '615', '616', '617', '620', '625', '626', '627', '630', '631', '633', '636', '638', '642', '644', '645', '646', '650', '651', '653', '657', '659', '661', '662', '663', '664', '666', '667', '673', '674', '675', '676', '677', '678', '681', '684', '685', '687', '688', '689', '691', '692', '693', '694', '698', '700', '706', '709', '711', '712', '714', '715', '723', '724', '727', '732', '734', '736', '746', '747', '748', '749', '750', '757', '758', '761', '763', '764', '765', '766', '767', '771', '776', '777', '780', '782', '785', '786', '789', '791', '795', '796', '797', '798', '799', '806', '808', '810', '811', '813', '816', '817', '818', '822', '824', '825', '826', '827', '832', '833', '835', '836', '837', '838', '840', '843', '846', '850', '853', '854', '855', '861', '863', '864', '866', '867', '868', '870', '871', '873', '875', '878', '881', '888', '892', '893', '894', '896', '897', '899', '900', '901', '903', '906', '910', '916', '920', '923', '925', '926', '929', '930', '933', '934', '936', '937', '940', '946', '949', '950', '951', '952', '956', '958', '962', '964', '965', '969', '971', '973', '974', '977', '978', '980', '981', '985', '987', '988', '1001', '1004', '1007', '1008', '1010', '1013', '1016', '1017', '1018', '1019', '1021', '1024', '1026', '1028', '1029', '1030', '1035', '1036', '1037', '1041', '1042', '1044', '1045', '1046', '1047', '1050', '1053', '1056', '1057', '1059', '1060', '1061', '1062', '1063', '1064', '1066', '1070', '1071', '1072', '1073', '1075', '1077', '1079', '1080', '1083', '1084', '1088', '1089', '1091', '1092', '1093', '1097', '1098', '1100', '1101', '1102', '1106', '1110', '1111', '1113', '1114', '1115', '1118', '1119', '1121', '1124', '1132', '1133', '1136', '1137', '1139', '1141', '1142', '1146', '1148', '1151', '1153', '1154', '1158', '1160', '1162', '1165', '1168', '1169', '1173', '1174', '1176', '1177', '1179', '1183', '1185', '1186', '1188', '1190', '1191', '1195', '1197', '1198', '1199', '1202', '1204', '1205', '1206', '1209', '1210', '1212', '1215', '1223', '1224', '1225', '1228', '1230', '1231', '1235', '1238', '1239', '1240', '1241', '1242', '1243', '1245', '1246', '1247', '1248', '1249', '1251', '1252', '1253', '1255', '1256', '1262', '1263', '1264', '1275', '1280', '1281', '1284', '1289', '1290', '1295', '1300', '1303', '1305', '1308', '1309', '1312', '1315', '1317', '1320', '1322', '1325', '1327', '1328', '1330', '1334', '1338', '1347', '1349', '1350', '1357', '1358', '1359', '1360', '1362', '1364', '1367', '1368', '1370', '1371', '1372', '1373', '1375', '1381', '1386', '1387', '1389', '1390', '1391', '1393', '1394', '1395', '1396', '1399', '1400', '1402', '1405', '1406', '1409', '1410', '1414', '1415', '1419', '1421', '1423', '1424', '1426', '1427', '1428', '1429', '1432', '1433', '1434', '1436', '1438', '1439', '1441', '1442', '1445', '1446', '1449', '1450', '1451', '1452', '1453', '1454', '1455', '1457', '1458', '1464', '1466', '1468', '1469', '1474', '1476', '1481', '1483', '1485', '1487', '1489', '1490', '1491', '1492', '1495', '1503', '1508', '1510', '1511', '1513', '1518', '1520', '1523', '1524', '1526', '1527', '1528', '1529', '1531', '1532', '1533', '1540', '1541', '1542', '1545', '1546', '1551', '1556', '1558', '1559', '1560', '1561', '1564', '1565', '1566', '1567', '1572', '1574', '1580', '1581', '1582', '1583', '1584', '1585', '1586', '1587', '1589', '1592', '1593', '1594', '1595', '1597', '1598', '1599', '1604', '1606', '1611', '1618', '1625', '1628', '1629', '1630', '1631', '1634', '1636', '1637', '1638', '1639', '1645', '1653', '1654', '1656', '1657', '1658', '1659', '1669', '1670', '1681', '1682', '1684', '1686', '1688', '1703', '1704', '1705', '1706', '1708', '1709', '1713', '1715', '1719', '1720', '1721', '1724', '1728', '1730', '1731', '1732', '1733', '1734', '1738', '1741', '1743', '1744', '1745', '1746', '1749', '1755', '1760', '1762', '1763', '1770', '1774', '1775', '1776', '1777', '1779', '1780', '1786', '1789', '1791', '1792', '1794', '1796', '1797', '1800', '1801', '1803', '1804', '1806', '1808', '1809', '1810', '1811', '1813', '1816', '1817', '1818', '1820', '1821', '1822', '1825', '1828', '1829', '1831', '1834', '1835', '1837', '1838', '1840', '1841', '1847', '1849', '1853', '1856', '1857', '1861', '1863', '1867', '1874', '1875', '1880', '1883', '1885', '1887', '1889', '1891', '1893', '1894', '1903', '1906', '1907', '1908', '1911', '1918', '1922', '1925', '1927', '1928', '1930', '1932', '1933', '1934', '1936', '1938', '1939', '1940', '1941', '1945', '1947', '1948', '1949', '1951', '1952', '1953', '1954', '1957', '1958', '1960', '1963', '1967', '1968', '1970', '1971', '1972', '1975', '1976', '1977', '1979', '1980', '1982', '1984', '1985', '1986', '1988', '1991', '1992', '1994', '1995', '1997', '1998', '2000']",True,2000,True,2,3a5055c23e,0.0,0.0,0.0
