expe,clients,clients_size,clients_subset,agg_size,agg_size_pc,method,days,days_size,days_total,noise_method,time,valid,valid_sum,success,score_avg,score_min,score_max,nsols,oracle,wall_hit,wall_time,pooled,pool_size,uuid,infeasible,optimal,valid_sums
./expes/v2_2021-03-23_issda-30_2000-prng-1-w2-p2,30_issda-2000,2000,first-2000,200,10,rng,num-start-800,800,25726,classic,367.3546121120453,True,,True,1.0,1.0,1.0,1,"['1', '4', '22', '40', '43', '52', '57', '58', '65', '72', '88', '137', '144', '149', '171', '184', '191', '194', '195', '196', '201', '210', '219', '229', '234', '243', '249', '252', '294', '300', '307', '330', '332', '338', '345', '372', '374', '387', '395', '397', '408', '419', '426', '447', '458', '472', '484', '506', '510', '513', '516', '522', '524', '525', '526', '534', '540', '542', '547', '555', '556', '562', '564', '571', '575', '577', '579', '597', '620', '621', '634', '640', '647', '680', '691', '712', '729', '734', '739', '746', '754', '756', '783', '792', '795', '807', '808', '813', '827', '831', '844', '856', '867', '871', '896', '899', '904', '921', '922', '927', '933', '942', '956', '962', '965', '972', '984', '993', '994', '997', '1002', '1025', '1026', '1038', '1053', '1058', '1069', '1077', '1080', '1086', '1096', '1130', '1147', '1150', '1166', '1167', '1171', '1186', '1195', '1201', '1207', '1219', '1220', '1221', '1237', '1245', '1261', '1262', '1279', '1287', '1294', '1296', '1298', '1306', '1313', '1335', '1336', '1349', '1360', '1363', '1377', '1393', '1402', '1404', '1406', '1407', '1439', '1441', '1444', '1454', '1478', '1504', '1506', '1517', '1519', '1530', '1547', '1551', '1560', '1588', '1593', '1613', '1634', '1635', '1648', '1655', '1676', '1691', '1694', '1750', '1772', '1773', '1784', '1788', '1792', '1815', '1835', '1836', '1847', '1862', '1879', '1888', '1914', '1918', '1924', '1926', '1930', '1934', '1959', '1995']",False,2000,True,2,915a143bc8,0.0,1.0,1.0
./expes/v2_2021-03-23_issda-30_2000-prng-1-w2-p2,30_issda-2000,2000,first-2000,600,30,rng,num-start-800,800,25726,classic,2146.586268186569,False,,False,0,,,0,"['5', '7', '8', '9', '11', '12', '20', '24', '27', '30', '32', '33', '45', '46', '54', '56', '60', '62', '63', '66', '69', '71', '74', '79', '80', '84', '88', '89', '90', '94', '97', '101', '105', '107', '108', '110', '111', '112', '114', '116', '125', '126', '138', '139', '141', '142', '145', '146', '151', '159', '160', '164', '166', '174', '178', '183', '184', '187', '188', '190', '191', '193', '194', '205', '206', '211', '214', '220', '225', '229', '230', '232', '237', '241', '249', '256', '257', '258', '259', '260', '263', '264', '265', '267', '268', '269', '273', '274', '277', '281', '286', '291', '294', '299', '300', '301', '302', '304', '306', '307', '309', '315', '318', '321', '322', '326', '328', '329', '337', '342', '343', '357', '362', '365', '366', '367', '368', '374', '380', '381', '384', '390', '391', '396', '398', '399', '400', '415', '416', '418', '422', '425', '426', '434', '435', '438', '439', '441', '442', '448', '452', '457', '461', '462', '463', '464', '465', '473', '474', '480', '483', '487', '488', '489', '500', '501', '502', '507', '509', '513', '515', '519', '520', '526', '527', '528', '530', '531', '535', '536', '537', '538', '539', '541', '549', '551', '556', '565', '566', '574', '575', '577', '581', '589', '593', '595', '596', '601', '604', '605', '606', '608', '610', '611', '614', '615', '617', '618', '622', '625', '628', '630', '631', '632', '637', '642', '643', '648', '650', '655', '661', '665', '671', '680', '682', '684', '686', '693', '697', '700', '703', '707', '709', '712', '715', '719', '722', '729', '730', '736', '740', '746', '751', '755', '756', '760', '761', '762', '764', '768', '769', '770', '771', '778', '781', '792', '794', '796', '798', '799', '806', '811', '813', '815', '831', '836', '839', '841', '847', '848', '849', '853', '864', '869', '870', '871', '872', '874', '875', '877', '878', '879', '880', '881', '882', '884', '890', '891', '895', '896', '901', '902', '903', '905', '909', '911', '912', '917', '919', '921', '922', '924', '941', '944', '945', '947', '949', '950', '956', '963', '966', '972', '976', '980', '981', '985', '987', '988', '992', '997', '998', '1006', '1017', '1018', '1020', '1023', '1026', '1027', '1033', '1045', '1048', '1052', '1059', '1063', '1065', '1066', '1067', '1068', '1070', '1071', '1074', '1075', '1078', '1079', '1080', '1082', '1087', '1088', '1089', '1090', '1091', '1092', '1093', '1094', '1096', '1098', '1100', '1113', '1117', '1118', '1120', '1121', '1126', '1127', '1136', '1138', '1140', '1147', '1150', '1156', '1158', '1159', '1168', '1170', '1171', '1172', '1174', '1175', '1183', '1184', '1185', '1186', '1188', '1190', '1195', '1199', '1205', '1207', '1210', '1211', '1213', '1218', '1219', '1222', '1224', '1229', '1236', '1241', '1246', '1247', '1250', '1252', '1257', '1265', '1269', '1271', '1272', '1275', '1285', '1287', '1289', '1292', '1298', '1308', '1309', '1313', '1315', '1318', '1322', '1330', '1332', '1334', '1336', '1338', '1339', '1342', '1344', '1346', '1351', '1365', '1366', '1367', '1372', '1374', '1377', '1381', '1387', '1395', '1396', '1401', '1402', '1404', '1416', '1424', '1430', '1432', '1435', '1436', '1437', '1438', '1442', '1445', '1447', '1452', '1460', '1461', '1463', '1465', '1467', '1468', '1472', '1473', '1477', '1481', '1485', '1488', '1489', '1491', '1493', '1500', '1502', '1504', '1506', '1508', '1513', '1515', '1517', '1526', '1527', '1533', '1536', '1538', '1547', '1553', '1557', '1561', '1564', '1569', '1570', '1577', '1583', '1585', '1588', '1589', '1592', '1595', '1602', '1607', '1608', '1611', '1613', '1626', '1627', '1633', '1635', '1636', '1641', '1643', '1645', '1646', '1649', '1651', '1653', '1657', '1659', '1664', '1668', '1669', '1674', '1679', '1680', '1682', '1683', '1687', '1688', '1689', '1691', '1693', '1696', '1703', '1707', '1709', '1710', '1713', '1716', '1717', '1720', '1721', '1733', '1739', '1740', '1741', '1745', '1748', '1749', '1760', '1765', '1766', '1769', '1775', '1777', '1778', '1779', '1781', '1785', '1795', '1797', '1810', '1813', '1815', '1816', '1817', '1820', '1822', '1823', '1827', '1829', '1832', '1833', '1839', '1840', '1845', '1847', '1848', '1851', '1855', '1857', '1858', '1863', '1865', '1866', '1869', '1870', '1873', '1881', '1886', '1887', '1897', '1901', '1909', '1911', '1912', '1916', '1920', '1922', '1931', '1945', '1949', '1951', '1954', '1958', '1963', '1965', '1970', '1982', '1983', '1987', '1989', '1990', '1996']",True,2000,True,2,a7c635c520,0.0,0.0,0.0
./expes/v2_2021-03-23_issda-30_2000-prng-1-w2-p2,30_issda-2000,2000,first-2000,1000,50,rng,num-start-3400,3400,25726,classic,2623.234767436981,True,,False,1.0,1.0,1.0,1,"['1', '5', '6', '7', '9', '11', '14', '15', '18', '26', '27', '30', '31', '32', '34', '35', '37', '39', '41', '43', '45', '47', '48', '49', '50', '51', '52', '54', '55', '57', '66', '69', '71', '73', '75', '81', '84', '85', '86', '87', '89', '90', '93', '96', '98', '100', '102', '110', '114', '118', '123', '124', '127', '128', '130', '131', '132', '133', '135', '136', '137', '140', '141', '142', '145', '147', '148', '149', '151', '153', '155', '159', '162', '164', '167', '171', '172', '173', '175', '176', '177', '178', '180', '181', '184', '187', '188', '190', '192', '193', '194', '195', '196', '199', '202', '204', '207', '208', '210', '211', '212', '215', '216', '218', '219', '220', '221', '223', '224', '227', '228', '230', '232', '233', '234', '236', '238', '239', '242', '245', '246', '248', '249', '251', '253', '257', '258', '259', '262', '263', '264', '265', '267', '271', '272', '273', '274', '275', '276', '277', '279', '280', '282', '284', '286', '287', '288', '290', '294', '297', '300', '304', '305', '307', '309', '310', '312', '314', '316', '317', '320', '321', '325', '326', '336', '337', '338', '340', '341', '342', '344', '348', '349', '351', '352', '354', '359', '360', '361', '362', '363', '365', '366', '367', '369', '370', '371', '372', '376', '377', '380', '382', '383', '384', '385', '387', '388', '389', '390', '392', '393', '394', '396', '397', '399', '401', '402', '404', '409', '410', '413', '414', '415', '416', '421', '422', '424', '425', '428', '429', '430', '431', '432', '436', '438', '441', '444', '446', '448', '450', '453', '455', '456', '459', '461', '462', '463', '464', '465', '466', '472', '475', '477', '478', '480', '486', '489', '493', '494', '495', '496', '497', '500', '502', '503', '509', '510', '511', '512', '515', '517', '519', '520', '521', '523', '529', '530', '533', '534', '535', '537', '539', '540', '542', '549', '550', '551', '554', '555', '556', '557', '559', '560', '562', '563', '564', '567', '568', '571', '572', '576', '579', '581', '582', '583', '585', '586', '591', '592', '593', '594', '597', '599', '601', '602', '603', '606', '608', '609', '612', '613', '614', '616', '617', '619', '623', '624', '627', '630', '632', '633', '634', '636', '637', '638', '641', '642', '646', '648', '650', '651', '655', '660', '663', '664', '665', '667', '671', '672', '674', '675', '676', '680', '682', '683', '684', '689', '690', '695', '696', '698', '699', '700', '703', '707', '710', '711', '712', '716', '718', '720', '721', '723', '724', '725', '726', '727', '731', '734', '735', '737', '742', '743', '744', '745', '746', '747', '750', '751', '752', '755', '756', '757', '758', '760', '763', '767', '771', '772', '776', '777', '781', '783', '785', '788', '792', '793', '794', '795', '796', '798', '800', '801', '803', '804', '806', '812', '813', '814', '817', '819', '821', '823', '827', '829', '830', '831', '833', '834', '843', '844', '845', '846', '847', '848', '849', '852', '854', '855', '856', '857', '862', '867', '872', '874', '875', '878', '879', '880', '881', '882', '888', '889', '890', '891', '893', '895', '896', '897', '898', '899', '901', '902', '906', '908', '910', '912', '914', '915', '917', '918', '921', '922', '923', '925', '926', '928', '930', '931', '932', '933', '934', '937', '938', '939', '941', '943', '945', '947', '949', '950', '952', '955', '956', '957', '959', '960', '962', '963', '964', '967', '968', '969', '975', '978', '979', '980', '982', '983', '984', '986', '987', '989', '991', '994', '995', '996', '998', '999', '1001', '1002', '1003', '1004', '1006', '1008', '1009', '1011', '1012', '1015', '1018', '1019', '1021', '1022', '1025', '1026', '1028', '1029', '1030', '1034', '1036', '1043', '1045', '1048', '1049', '1050', '1051', '1053', '1054', '1056', '1057', '1058', '1065', '1066', '1067', '1069', '1072', '1073', '1075', '1077', '1078', '1080', '1083', '1084', '1085', '1086', '1087', '1089', '1090', '1094', '1095', '1098', '1099', '1100', '1101', '1102', '1104', '1105', '1106', '1108', '1110', '1111', '1112', '1115', '1117', '1118', '1120', '1121', '1124', '1125', '1126', '1129', '1134', '1135', '1136', '1137', '1141', '1143', '1145', '1151', '1152', '1153', '1155', '1156', '1165', '1166', '1167', '1169', '1175', '1178', '1179', '1181', '1184', '1186', '1188', '1190', '1191', '1193', '1194', '1195', '1198', '1199', '1200', '1202', '1203', '1204', '1206', '1208', '1210', '1211', '1213', '1215', '1216', '1217', '1218', '1219', '1221', '1222', '1223', '1224', '1226', '1227', '1229', '1232', '1240', '1243', '1246', '1248', '1249', '1250', '1251', '1254', '1256', '1259', '1261', '1265', '1267', '1268', '1269', '1270', '1271', '1272', '1274', '1280', '1281', '1282', '1283', '1286', '1287', '1290', '1292', '1293', '1298', '1299', '1301', '1302', '1303', '1305', '1308', '1310', '1311', '1313', '1315', '1320', '1323', '1325', '1329', '1330', '1331', '1333', '1336', '1337', '1339', '1344', '1345', '1347', '1349', '1351', '1352', '1353', '1355', '1356', '1360', '1364', '1367', '1368', '1370', '1371', '1372', '1373', '1374', '1376', '1378', '1380', '1381', '1385', '1387', '1388', '1389', '1391', '1394', '1396', '1397', '1398', '1401', '1405', '1406', '1407', '1408', '1409', '1410', '1411', '1415', '1420', '1423', '1424', '1426', '1427', '1428', '1429', '1432', '1435', '1436', '1437', '1438', '1442', '1445', '1452', '1454', '1461', '1463', '1465', '1467', '1468', '1469', '1470', '1473', '1474', '1475', '1484', '1485', '1486', '1490', '1491', '1497', '1498', '1500', '1501', '1503', '1507', '1509', '1510', '1512', '1513', '1514', '1515', '1519', '1523', '1524', '1525', '1526', '1528', '1532', '1534', '1540', '1541', '1543', '1545', '1546', '1548', '1550', '1553', '1556', '1557', '1559', '1560', '1561', '1565', '1568', '1569', '1570', '1572', '1577', '1584', '1585', '1586', '1587', '1588', '1591', '1594', '1595', '1600', '1601', '1602', '1604', '1605', '1607', '1608', '1609', '1611', '1612', '1614', '1617', '1618', '1622', '1623', '1624', '1625', '1626', '1629', '1630', '1632', '1639', '1642', '1644', '1645', '1646', '1647', '1648', '1653', '1655', '1661', '1662', '1663', '1667', '1670', '1673', '1674', '1675', '1679', '1680', '1684', '1686', '1688', '1689', '1690', '1692', '1696', '1698', '1700', '1702', '1704', '1705', '1708', '1709', '1710', '1712', '1715', '1716', '1720', '1722', '1724', '1729', '1730', '1731', '1732', '1733', '1735', '1737', '1738', '1740', '1741', '1742', '1744', '1745', '1746', '1747', '1748', '1752', '1753', '1754', '1755', '1761', '1762', '1763', '1766', '1767', '1768', '1770', '1774', '1776', '1777', '1779', '1786', '1790', '1795', '1799', '1800', '1801', '1804', '1807', '1809', '1811', '1812', '1814', '1815', '1816', '1820', '1822', '1824', '1831', '1832', '1833', '1834', '1835', '1836', '1837', '1838', '1839', '1843', '1848', '1849', '1850', '1851', '1853', '1854', '1855', '1856', '1859', '1860', '1862', '1863', '1865', '1874', '1876', '1883', '1884', '1885', '1887', '1892', '1893', '1894', '1896', '1897', '1898', '1901', '1903', '1905', '1906', '1907', '1908', '1909', '1911', '1913', '1914', '1915', '1916', '1917', '1918', '1919', '1921', '1924', '1925', '1929', '1932', '1933', '1934', '1936', '1937', '1938', '1941', '1942', '1945', '1946', '1947', '1949', '1952', '1954', '1956', '1957', '1959', '1960', '1963', '1964', '1970', '1973', '1974', '1977', '1978', '1979', '1980', '1981', '1983', '1984', '1987', '1989', '1990', '1991', '1993', '1995', '1999']",True,2000,True,2,4158a557aa,0.0,0.0,1.0
./expes/v2_2021-03-23_issda-30_2000-prng-1-w2-p2,30_issda-2000,2000,first-2000,400,20,rng,num-start-3800,3800,25726,classic,2437.8570947647095,True,,True,1.0,1.0,1.0,1,"['1', '2', '10', '20', '23', '24', '26', '30', '31', '32', '34', '35', '37', '41', '44', '46', '61', '62', '69', '72', '74', '80', '86', '87', '92', '96', '98', '108', '122', '123', '124', '130', '137', '138', '141', '142', '144', '148', '149', '150', '151', '152', '153', '154', '155', '160', '161', '165', '171', '172', '174', '175', '179', '180', '185', '186', '189', '193', '206', '207', '213', '221', '222', '224', '232', '237', '239', '242', '259', '261', '266', '269', '270', '276', '278', '279', '280', '284', '288', '291', '294', '300', '316', '323', '325', '348', '360', '361', '364', '375', '379', '382', '384', '386', '389', '390', '391', '401', '403', '407', '411', '415', '418', '428', '430', '432', '435', '436', '437', '438', '439', '450', '468', '471', '472', '479', '489', '495', '496', '498', '505', '511', '514', '521', '523', '524', '527', '529', '552', '553', '570', '574', '578', '592', '596', '601', '603', '607', '617', '622', '623', '636', '637', '638', '639', '646', '649', '654', '669', '670', '674', '677', '678', '682', '690', '700', '702', '719', '721', '733', '742', '754', '756', '762', '769', '777', '784', '786', '788', '791', '792', '796', '803', '808', '809', '812', '814', '821', '829', '834', '840', '843', '853', '855', '859', '860', '862', '864', '883', '903', '905', '906', '913', '915', '917', '923', '926', '927', '928', '929', '937', '938', '948', '951', '953', '954', '963', '970', '973', '975', '982', '985', '988', '989', '991', '996', '998', '1006', '1017', '1019', '1021', '1024', '1041', '1043', '1049', '1050', '1051', '1054', '1062', '1063', '1064', '1066', '1069', '1083', '1088', '1104', '1109', '1119', '1129', '1135', '1146', '1147', '1154', '1160', '1172', '1174', '1177', '1182', '1190', '1194', '1195', '1197', '1203', '1209', '1211', '1214', '1220', '1222', '1226', '1229', '1232', '1233', '1237', '1247', '1250', '1251', '1253', '1258', '1259', '1261', '1262', '1275', '1277', '1280', '1285', '1289', '1290', '1299', '1300', '1303', '1304', '1310', '1312', '1315', '1319', '1332', '1339', '1340', '1342', '1346', '1352', '1357', '1364', '1383', '1389', '1397', '1403', '1404', '1407', '1416', '1421', '1422', '1431', '1436', '1442', '1443', '1448', '1450', '1452', '1476', '1486', '1492', '1497', '1499', '1501', '1506', '1510', '1514', '1515', '1516', '1534', '1537', '1544', '1546', '1553', '1570', '1576', '1583', '1594', '1595', '1598', '1600', '1620', '1625', '1633', '1646', '1647', '1651', '1659', '1675', '1687', '1701', '1704', '1705', '1717', '1721', '1726', '1734', '1736', '1746', '1750', '1752', '1755', '1756', '1769', '1771', '1774', '1775', '1785', '1802', '1803', '1807', '1813', '1824', '1825', '1827', '1836', '1844', '1845', '1854', '1855', '1861', '1865', '1873', '1874', '1879', '1886', '1890', '1892', '1893', '1899', '1904', '1906', '1909', '1914', '1918', '1926', '1934', '1940', '1946', '1961', '1963', '1965', '1972', '1974', '1975', '1976', '1989', '1993', '1997']",False,2000,True,2,14e0e5122f,0.0,1.0,1.0
./expes/v2_2021-03-23_issda-30_2000-prng-1-w2-p2,30_issda-2000,2000,first-2000,600,30,rng,num-start-200,200,25726,classic,2036.2973098754883,False,,False,0,,,0,"['2', '7', '8', '11', '12', '14', '15', '17', '18', '20', '21', '23', '25', '27', '31', '32', '36', '38', '40', '42', '46', '49', '53', '54', '56', '59', '60', '61', '62', '70', '71', '74', '80', '84', '85', '87', '89', '97', '100', '102', '104', '105', '106', '108', '109', '111', '113', '119', '121', '124', '125', '130', '132', '133', '135', '136', '137', '141', '142', '147', '153', '155', '156', '161', '166', '167', '170', '171', '172', '173', '174', '176', '178', '180', '182', '188', '189', '192', '194', '197', '198', '203', '204', '205', '209', '212', '213', '218', '223', '226', '227', '228', '229', '230', '242', '246', '247', '249', '263', '266', '271', '272', '273', '276', '277', '282', '283', '284', '285', '289', '292', '295', '298', '301', '304', '305', '306', '322', '332', '333', '335', '337', '341', '345', '347', '350', '351', '352', '354', '355', '361', '365', '367', '372', '374', '382', '383', '387', '388', '391', '394', '405', '406', '408', '409', '411', '414', '416', '420', '421', '428', '430', '431', '432', '433', '438', '444', '452', '453', '455', '456', '459', '460', '466', '473', '474', '476', '484', '485', '488', '498', '499', '507', '509', '515', '519', '526', '531', '533', '538', '539', '547', '548', '550', '553', '559', '562', '564', '567', '569', '571', '576', '583', '584', '595', '597', '603', '607', '615', '616', '617', '620', '627', '630', '633', '645', '646', '651', '657', '659', '663', '666', '673', '674', '675', '677', '678', '684', '685', '687', '692', '693', '698', '700', '706', '709', '711', '712', '715', '724', '727', '732', '736', '747', '749', '750', '757', '761', '763', '764', '765', '776', '777', '782', '785', '786', '789', '791', '796', '797', '798', '810', '813', '816', '817', '818', '822', '824', '825', '826', '827', '833', '840', '843', '854', '855', '861', '864', '866', '867', '870', '871', '875', '878', '881', '888', '893', '896', '900', '901', '910', '916', '920', '923', '925', '926', '929', '934', '936', '940', '946', '949', '950', '956', '958', '964', '971', '973', '974', '980', '981', '985', '988', '1004', '1007', '1008', '1013', '1016', '1017', '1018', '1019', '1026', '1029', '1030', '1035', '1037', '1042', '1044', '1045', '1053', '1056', '1059', '1060', '1061', '1064', '1070', '1071', '1073', '1080', '1084', '1093', '1097', '1101', '1102', '1106', '1110', '1111', '1113', '1114', '1115', '1118', '1121', '1124', '1132', '1136', '1137', '1139', '1146', '1148', '1151', '1154', '1158', '1160', '1162', '1165', '1169', '1174', '1176', '1177', '1179', '1185', '1186', '1188', '1190', '1197', '1199', '1202', '1204', '1205', '1206', '1209', '1210', '1212', '1215', '1223', '1224', '1228', '1231', '1235', '1238', '1239', '1240', '1242', '1243', '1245', '1246', '1247', '1248', '1251', '1252', '1253', '1255', '1256', '1263', '1275', '1280', '1281', '1284', '1290', '1295', '1300', '1305', '1309', '1315', '1317', '1322', '1327', '1330', '1334', '1350', '1359', '1368', '1371', '1372', '1373', '1375', '1381', '1386', '1387', '1389', '1390', '1391', '1393', '1396', '1399', '1400', '1402', '1405', '1409', '1410', '1414', '1419', '1421', '1426', '1428', '1433', '1434', '1436', '1441', '1442', '1445', '1452', '1453', '1458', '1466', '1469', '1474', '1476', '1485', '1487', '1489', '1490', '1492', '1495', '1503', '1508', '1510', '1511', '1518', '1523', '1527', '1528', '1529', '1531', '1532', '1533', '1542', '1546', '1558', '1560', '1561', '1564', '1565', '1566', '1567', '1572', '1580', '1581', '1583', '1585', '1586', '1587', '1589', '1592', '1593', '1595', '1598', '1599', '1604', '1606', '1611', '1618', '1625', '1628', '1631', '1636', '1637', '1638', '1639', '1645', '1654', '1656', '1658', '1659', '1669', '1681', '1686', '1688', '1706', '1708', '1715', '1719', '1720', '1728', '1732', '1733', '1734', '1743', '1745', '1746', '1760', '1762', '1770', '1774', '1775', '1776', '1777', '1779', '1780', '1786', '1791', '1792', '1794', '1796', '1797', '1800', '1801', '1803', '1804', '1806', '1810', '1816', '1817', '1818', '1820', '1821', '1822', '1825', '1828', '1829', '1834', '1835', '1837', '1840', '1841', '1847', '1849', '1856', '1857', '1861', '1863', '1867', '1874', '1880', '1883', '1885', '1887', '1891', '1893', '1894', '1903', '1907', '1918', '1922', '1925', '1927', '1928', '1933', '1934', '1938', '1939', '1940', '1947', '1948', '1949', '1954', '1957', '1958', '1963', '1968', '1970', '1971', '1972', '1975', '1980', '1982', '1984', '1997', '1998', '2000']",True,2000,True,2,7c4609842a,0.0,0.0,0.0
./expes/v2_2021-03-23_issda-30_2000-prng-1-w2-p2,30_issda-2000,2000,first-2000,200,10,rng,num-start-2400,2400,25726,classic,1033.9494125843048,True,,True,1.0,1.0,1.0,1,"['4', '5', '12', '19', '26', '45', '46', '53', '59', '60', '61', '63', '71', '90', '115', '130', '178', '193', '205', '210', '222', '242', '248', '265', '276', '336', '346', '349', '355', '381', '389', '409', '410', '421', '430', '444', '449', '455', '465', '469', '473', '476', '478', '498', '523', '546', '552', '582', '594', '608', '622', '632', '651', '682', '705', '708', '709', '724', '731', '747', '752', '759', '768', '778', '781', '786', '799', '806', '807', '828', '829', '847', '849', '853', '865', '873', '887', '897', '899', '913', '921', '941', '942', '962', '968', '984', '986', '994', '1000', '1003', '1015', '1016', '1023', '1026', '1029', '1034', '1035', '1040', '1042', '1050', '1053', '1063', '1067', '1081', '1106', '1109', '1123', '1124', '1133', '1136', '1140', '1150', '1166', '1168', '1184', '1185', '1204', '1207', '1211', '1215', '1245', '1248', '1260', '1289', '1316', '1326', '1331', '1335', '1351', '1360', '1362', '1373', '1382', '1387', '1406', '1426', '1440', '1441', '1457', '1478', '1483', '1487', '1494', '1501', '1512', '1517', '1522', '1524', '1559', '1562', '1565', '1572', '1579', '1589', '1593', '1595', '1605', '1616', '1634', '1643', '1644', '1658', '1666', '1681', '1700', '1712', '1716', '1721', '1734', '1736', '1738', '1748', '1756', '1762', '1782', '1805', '1808', '1815', '1830', '1835', '1847', '1864', '1865', '1877', '1885', '1889', '1898', '1918', '1922', '1924', '1927', '1928', '1936', '1946', '1951', '1956', '1961', '1981', '1985', '1994']",False,2000,True,2,345b304d6f,0.0,1.0,1.0
