expe,clients,clients_size,clients_subset,agg_size,agg_size_pc,method,days,days_size,days_total,noise_method,time,valid,valid_sum,success,score_avg,score_min,score_max,nsols,oracle,wall_hit,wall_time,pooled,pool_size,uuid,infeasible,optimal,valid_sums
./expes/v2_2021-03-23_issda-30_2000-prng-1-w2-p2,30_issda-2000,2000,first-2000,400,20,rng,num-start-3000,3000,25726,classic,1955.9074034690857,True,,True,1.0,1.0,1.0,1,"['2', '8', '11', '14', '17', '18', '25', '27', '31', '36', '38', '49', '53', '54', '59', '60', '61', '62', '70', '71', '74', '84', '85', '89', '97', '100', '104', '106', '108', '109', '111', '113', '124', '125', '130', '132', '133', '135', '136', '137', '141', '142', '153', '155', '166', '167', '170', '171', '172', '173', '174', '178', '180', '182', '192', '197', '204', '205', '209', '212', '213', '218', '223', '226', '227', '228', '229', '230', '242', '246', '247', '249', '263', '266', '272', '273', '282', '283', '284', '285', '289', '292', '298', '304', '305', '306', '322', '332', '333', '337', '345', '347', '351', '354', '355', '361', '372', '382', '388', '394', '405', '406', '408', '409', '411', '416', '420', '428', '430', '431', '438', '453', '455', '456', '460', '473', '474', '484', '485', '488', '498', '499', '509', '531', '538', '539', '547', '548', '550', '553', '562', '567', '569', '576', '584', '595', '597', '603', '607', '616', '630', '633', '659', '666', '674', '677', '684', '685', '693', '700', '709', '712', '715', '727', '749', '750', '757', '761', '763', '764', '765', '776', '777', '782', '785', '786', '791', '796', '797', '813', '816', '822', '824', '825', '833', '840', '843', '861', '864', '866', '870', '871', '878', '888', '893', '910', '920', '923', '925', '926', '929', '936', '940', '949', '950', '958', '964', '971', '973', '980', '985', '988', '1004', '1007', '1008', '1013', '1016', '1018', '1019', '1026', '1030', '1035', '1037', '1045', '1060', '1070', '1073', '1080', '1084', '1097', '1101', '1106', '1111', '1115', '1118', '1121', '1124', '1136', '1137', '1139', '1146', '1148', '1151', '1158', '1160', '1174', '1176', '1177', '1179', '1186', '1188', '1190', '1197', '1199', '1205', '1206', '1209', '1210', '1212', '1215', '1223', '1224', '1235', '1239', '1242', '1243', '1245', '1246', '1247', '1248', '1252', '1253', '1256', '1263', '1275', '1280', '1284', '1290', '1300', '1305', '1309', '1315', '1317', '1322', '1327', '1334', '1359', '1368', '1375', '1381', '1386', '1389', '1391', '1400', '1409', '1410', '1419', '1426', '1433', '1434', '1436', '1441', '1442', '1445', '1452', '1453', '1466', '1474', '1476', '1485', '1487', '1490', '1492', '1495', '1508', '1510', '1511', '1518', '1527', '1528', '1529', '1531', '1542', '1558', '1566', '1567', '1581', '1583', '1586', '1587', '1589', '1593', '1598', '1599', '1604', '1606', '1611', '1618', '1625', '1628', '1631', '1636', '1638', '1645', '1654', '1658', '1659', '1669', '1681', '1686', '1706', '1728', '1732', '1733', '1743', '1745', '1746', '1760', '1762', '1770', '1775', '1777', '1780', '1786', '1791', '1794', '1797', '1800', '1801', '1803', '1806', '1816', '1817', '1818', '1821', '1822', '1828', '1829', '1834', '1835', '1840', '1856', '1857', '1863', '1867', '1880', '1883', '1887', '1891', '1893', '1918', '1922', '1925', '1928', '1938', '1939', '1940', '1948', '1949', '1954', '1957', '1958', '1963', '1970', '1972', '1975', '1980', '1984', '1998', '2000']",False,2000,True,2,522d84c502,0.0,1.0,1.0
./expes/v2_2021-03-23_issda-30_2000-prng-1-w2-p2,30_issda-2000,2000,first-2000,700,35,rng,num-start-3400,3400,25726,classic,2613.8642349243164,True,,False,1.0,1.0,1.0,1,"['12', '13', '14', '18', '19', '23', '27', '30', '34', '36', '38', '42', '43', '45', '47', '55', '59', '60', '64', '73', '74', '76', '84', '87', '93', '94', '98', '102', '106', '113', '115', '117', '120', '125', '129', '130', '133', '136', '137', '141', '142', '144', '147', '156', '157', '159', '161', '162', '164', '168', '171', '172', '178', '179', '181', '182', '184', '185', '190', '192', '208', '218', '220', '221', '223', '227', '229', '235', '236', '239', '242', '244', '250', '252', '256', '258', '259', '263', '265', '267', '270', '272', '273', '277', '280', '281', '285', '287', '294', '297', '298', '300', '301', '303', '308', '309', '310', '312', '314', '321', '329', '331', '333', '334', '335', '337', '342', '344', '347', '350', '353', '358', '361', '362', '366', '372', '374', '375', '377', '378', '385', '386', '387', '389', '390', '392', '396', '402', '406', '409', '411', '413', '414', '415', '418', '419', '423', '424', '428', '429', '430', '433', '436', '438', '440', '442', '443', '449', '450', '452', '456', '459', '461', '462', '472', '473', '478', '479', '481', '484', '487', '491', '495', '497', '505', '507', '511', '512', '516', '520', '525', '528', '529', '530', '531', '532', '533', '535', '538', '540', '542', '543', '547', '550', '553', '554', '555', '556', '558', '560', '561', '562', '564', '565', '575', '577', '579', '582', '583', '588', '592', '593', '599', '603', '606', '609', '612', '613', '615', '618', '619', '621', '623', '629', '632', '633', '641', '644', '646', '647', '651', '655', '659', '660', '661', '664', '665', '671', '672', '673', '675', '681', '683', '685', '686', '688', '690', '693', '694', '696', '698', '702', '706', '707', '709', '712', '716', '718', '722', '726', '730', '731', '733', '736', '738', '739', '740', '745', '748', '749', '750', '754', '755', '764', '766', '767', '775', '778', '780', '786', '790', '793', '798', '799', '802', '806', '808', '813', '814', '820', '824', '826', '828', '829', '831', '832', '833', '834', '836', '837', '838', '839', '844', '848', '849', '850', '851', '853', '855', '856', '860', '865', '866', '867', '868', '870', '874', '876', '878', '882', '883', '888', '889', '890', '895', '897', '911', '913', '915', '920', '930', '931', '932', '933', '936', '939', '940', '942', '950', '953', '955', '958', '959', '962', '963', '967', '973', '978', '979', '980', '983', '984', '985', '994', '997', '1003', '1005', '1006', '1007', '1008', '1010', '1012', '1014', '1016', '1023', '1026', '1038', '1039', '1040', '1043', '1046', '1047', '1049', '1051', '1052', '1054', '1062', '1064', '1066', '1067', '1069', '1070', '1073', '1075', '1078', '1079', '1083', '1085', '1086', '1087', '1091', '1095', '1102', '1104', '1107', '1109', '1111', '1114', '1116', '1117', '1119', '1124', '1127', '1130', '1131', '1133', '1137', '1140', '1143', '1144', '1145', '1149', '1152', '1158', '1159', '1164', '1166', '1170', '1171', '1173', '1174', '1176', '1179', '1183', '1186', '1192', '1194', '1195', '1198', '1203', '1206', '1207', '1216', '1218', '1224', '1225', '1229', '1235', '1242', '1244', '1251', '1252', '1254', '1255', '1258', '1260', '1261', '1264', '1266', '1267', '1275', '1281', '1287', '1289', '1290', '1291', '1292', '1293', '1300', '1304', '1306', '1308', '1309', '1322', '1325', '1326', '1327', '1328', '1336', '1339', '1344', '1345', '1346', '1347', '1353', '1354', '1355', '1359', '1370', '1372', '1375', '1378', '1381', '1383', '1384', '1385', '1386', '1388', '1389', '1391', '1393', '1395', '1396', '1400', '1401', '1402', '1406', '1407', '1408', '1412', '1414', '1415', '1417', '1419', '1422', '1427', '1431', '1432', '1433', '1438', '1440', '1444', '1446', '1447', '1449', '1451', '1452', '1453', '1454', '1458', '1461', '1462', '1464', '1467', '1469', '1471', '1472', '1474', '1480', '1482', '1489', '1490', '1496', '1505', '1506', '1507', '1508', '1513', '1519', '1522', '1525', '1526', '1527', '1529', '1533', '1538', '1544', '1545', '1548', '1549', '1550', '1551', '1552', '1553', '1554', '1556', '1557', '1562', '1573', '1574', '1575', '1578', '1579', '1581', '1584', '1587', '1589', '1593', '1594', '1595', '1598', '1599', '1600', '1605', '1607', '1609', '1613', '1615', '1620', '1622', '1623', '1625', '1626', '1627', '1632', '1639', '1642', '1644', '1652', '1654', '1657', '1660', '1662', '1663', '1664', '1666', '1668', '1669', '1674', '1676', '1688', '1691', '1692', '1693', '1695', '1697', '1700', '1703', '1705', '1706', '1708', '1711', '1712', '1713', '1715', '1719', '1720', '1722', '1724', '1726', '1728', '1729', '1733', '1736', '1738', '1746', '1749', '1750', '1756', '1758', '1760', '1762', '1766', '1769', '1774', '1777', '1780', '1783', '1789', '1790', '1791', '1792', '1795', '1804', '1805', '1807', '1811', '1814', '1817', '1818', '1823', '1825', '1826', '1827', '1829', '1834', '1837', '1841', '1842', '1844', '1847', '1854', '1857', '1858', '1859', '1865', '1867', '1869', '1871', '1880', '1888', '1889', '1891', '1895', '1896', '1899', '1900', '1904', '1905', '1909', '1910', '1912', '1916', '1919', '1931', '1934', '1935', '1936', '1938', '1939', '1941', '1946', '1950', '1951', '1955', '1960', '1961', '1962', '1964', '1968', '1979', '1980', '1981', '1985', '1986', '1987', '1993', '1994', '1998', '1999']",True,2000,True,2,24f63eef0a,0.0,0.0,1.0
./expes/v2_2021-03-23_issda-30_2000-prng-1-w2-p2,30_issda-2000,2000,first-2000,1000,50,rng,num-start-200,200,25726,classic,2035.647029876709,False,,False,0,,,0,"['1', '2', '3', '5', '7', '8', '9', '10', '12', '13', '16', '17', '19', '21', '23', '27', '28', '29', '30', '32', '35', '37', '40', '41', '42', '44', '45', '46', '47', '48', '50', '51', '54', '57', '58', '63', '66', '67', '68', '69', '73', '75', '77', '78', '80', '81', '84', '88', '89', '90', '91', '96', '98', '99', '106', '108', '110', '111', '113', '114', '115', '116', '119', '120', '122', '123', '125', '127', '131', '133', '134', '135', '137', '146', '147', '148', '150', '152', '153', '157', '161', '162', '163', '164', '165', '169', '172', '177', '178', '179', '182', '183', '184', '186', '187', '189', '190', '191', '192', '196', '198', '199', '202', '205', '207', '208', '211', '212', '213', '214', '215', '218', '219', '220', '221', '222', '223', '231', '233', '236', '238', '239', '241', '242', '245', '247', '249', '252', '253', '254', '255', '256', '257', '258', '261', '268', '269', '271', '274', '276', '280', '285', '290', '291', '292', '294', '295', '296', '301', '302', '303', '304', '309', '311', '313', '314', '315', '316', '317', '318', '319', '321', '322', '323', '324', '325', '326', '327', '328', '330', '337', '338', '342', '344', '347', '348', '349', '352', '353', '354', '355', '357', '360', '365', '368', '369', '373', '374', '379', '381', '384', '387', '389', '391', '392', '393', '395', '397', '400', '401', '402', '405', '406', '407', '408', '410', '413', '416', '417', '418', '419', '420', '421', '424', '427', '428', '429', '430', '432', '434', '435', '436', '437', '440', '443', '445', '446', '447', '448', '449', '452', '454', '456', '457', '459', '460', '461', '465', '467', '471', '476', '479', '481', '482', '483', '485', '486', '487', '488', '490', '491', '494', '495', '497', '498', '500', '501', '502', '503', '504', '505', '506', '509', '512', '513', '519', '520', '523', '524', '527', '529', '531', '533', '535', '538', '539', '540', '541', '545', '548', '549', '551', '552', '553', '554', '556', '558', '560', '561', '565', '567', '571', '573', '577', '579', '580', '581', '582', '583', '584', '587', '588', '591', '593', '594', '595', '596', '597', '601', '602', '603', '605', '607', '608', '609', '610', '612', '613', '614', '616', '619', '620', '621', '624', '625', '626', '627', '629', '631', '632', '633', '634', '635', '636', '641', '642', '643', '645', '646', '647', '649', '650', '655', '656', '658', '659', '660', '662', '664', '667', '673', '681', '683', '684', '685', '686', '687', '689', '690', '692', '693', '696', '700', '703', '704', '705', '706', '707', '711', '713', '715', '716', '717', '719', '723', '724', '725', '726', '727', '728', '731', '733', '736', '738', '740', '741', '743', '747', '751', '756', '757', '761', '763', '764', '765', '766', '767', '769', '771', '773', '774', '778', '779', '780', '783', '784', '785', '786', '787', '790', '792', '793', '795', '796', '802', '805', '808', '810', '811', '815', '817', '819', '820', '823', '825', '826', '827', '829', '830', '832', '833', '834', '836', '837', '838', '839', '840', '843', '844', '845', '846', '848', '850', '852', '854', '855', '856', '857', '858', '859', '860', '861', '863', '865', '867', '869', '874', '875', '876', '877', '878', '879', '880', '884', '885', '887', '889', '891', '892', '893', '894', '896', '899', '901', '902', '904', '906', '910', '911', '912', '914', '915', '916', '917', '922', '926', '929', '931', '934', '936', '941', '942', '943', '944', '946', '947', '952', '954', '956', '960', '961', '966', '968', '971', '972', '973', '978', '985', '986', '988', '991', '994', '995', '999', '1000', '1001', '1003', '1004', '1005', '1007', '1009', '1012', '1013', '1015', '1016', '1017', '1019', '1020', '1022', '1023', '1024', '1027', '1028', '1030', '1032', '1041', '1044', '1045', '1046', '1047', '1049', '1052', '1053', '1058', '1059', '1060', '1061', '1062', '1067', '1072', '1073', '1077', '1078', '1081', '1083', '1087', '1089', '1090', '1092', '1094', '1095', '1097', '1099', '1101', '1102', '1103', '1105', '1106', '1110', '1111', '1112', '1125', '1127', '1129', '1132', '1133', '1134', '1136', '1142', '1144', '1146', '1149', '1150', '1152', '1153', '1157', '1162', '1163', '1166', '1168', '1169', '1171', '1173', '1176', '1177', '1184', '1186', '1189', '1193', '1202', '1203', '1207', '1208', '1209', '1211', '1212', '1213', '1215', '1216', '1217', '1218', '1219', '1220', '1222', '1223', '1224', '1225', '1227', '1234', '1235', '1237', '1238', '1241', '1242', '1243', '1245', '1248', '1250', '1251', '1252', '1253', '1255', '1256', '1257', '1258', '1260', '1263', '1264', '1267', '1269', '1271', '1273', '1275', '1276', '1277', '1280', '1281', '1282', '1284', '1285', '1287', '1288', '1293', '1295', '1296', '1297', '1301', '1302', '1304', '1305', '1307', '1308', '1311', '1312', '1313', '1314', '1317', '1318', '1319', '1320', '1321', '1329', '1332', '1334', '1335', '1337', '1339', '1341', '1342', '1343', '1344', '1347', '1349', '1351', '1352', '1353', '1355', '1356', '1357', '1358', '1364', '1365', '1366', '1367', '1369', '1370', '1371', '1374', '1380', '1381', '1391', '1392', '1394', '1395', '1397', '1402', '1407', '1408', '1411', '1413', '1415', '1417', '1421', '1425', '1426', '1429', '1430', '1432', '1433', '1434', '1435', '1441', '1442', '1443', '1448', '1449', '1450', '1452', '1457', '1460', '1463', '1469', '1471', '1472', '1473', '1474', '1475', '1477', '1478', '1480', '1483', '1485', '1487', '1491', '1496', '1497', '1499', '1500', '1502', '1506', '1508', '1509', '1510', '1511', '1512', '1513', '1516', '1521', '1522', '1523', '1525', '1528', '1533', '1535', '1536', '1540', '1542', '1547', '1548', '1549', '1551', '1553', '1554', '1556', '1558', '1559', '1560', '1562', '1564', '1565', '1566', '1567', '1568', '1574', '1576', '1580', '1583', '1584', '1586', '1589', '1591', '1595', '1596', '1597', '1598', '1599', '1600', '1602', '1603', '1604', '1605', '1607', '1609', '1610', '1611', '1612', '1614', '1616', '1617', '1618', '1619', '1624', '1628', '1629', '1630', '1631', '1635', '1636', '1637', '1638', '1645', '1646', '1647', '1648', '1650', '1651', '1652', '1653', '1654', '1655', '1656', '1658', '1659', '1660', '1664', '1667', '1669', '1671', '1674', '1677', '1678', '1680', '1683', '1686', '1688', '1689', '1692', '1693', '1694', '1696', '1697', '1700', '1703', '1704', '1706', '1707', '1709', '1710', '1711', '1712', '1714', '1717', '1721', '1722', '1724', '1725', '1726', '1727', '1729', '1731', '1732', '1735', '1736', '1738', '1741', '1745', '1746', '1748', '1750', '1752', '1754', '1760', '1762', '1763', '1764', '1765', '1770', '1771', '1772', '1773', '1776', '1777', '1778', '1784', '1785', '1786', '1787', '1788', '1789', '1791', '1795', '1801', '1803', '1806', '1809', '1810', '1811', '1812', '1813', '1814', '1816', '1820', '1825', '1830', '1831', '1833', '1836', '1837', '1839', '1842', '1843', '1847', '1848', '1849', '1852', '1855', '1857', '1858', '1865', '1872', '1873', '1874', '1875', '1877', '1879', '1880', '1882', '1883', '1884', '1885', '1886', '1888', '1892', '1895', '1896', '1897', '1900', '1901', '1902', '1905', '1908', '1909', '1913', '1915', '1921', '1925', '1927', '1930', '1931', '1932', '1933', '1934', '1940', '1941', '1942', '1943', '1947', '1948', '1949', '1950', '1952', '1953', '1954', '1955', '1956', '1957', '1959', '1961', '1962', '1965', '1970', '1971', '1973', '1976', '1978', '1979', '1981', '1982', '1983', '1984', '1985', '1986', '1987', '1988', '1989', '1990', '1991', '1993', '1995', '1996']",True,2000,True,2,01ec493829,0.0,0.0,0.0
./expes/v2_2021-03-23_issda-30_2000-prng-1-w2-p2,30_issda-2000,2000,first-2000,500,25,rng,num-start-1200,1200,25726,classic,2224.665060520172,True,,False,1.0,1.0,1.0,1,"['1', '2', '10', '14', '20', '23', '24', '26', '30', '31', '32', '34', '35', '37', '40', '41', '44', '46', '51', '61', '62', '65', '69', '72', '74', '75', '80', '84', '85', '86', '87', '92', '96', '97', '98', '108', '122', '123', '124', '130', '132', '137', '138', '141', '142', '144', '148', '149', '150', '151', '152', '153', '154', '155', '160', '161', '165', '171', '172', '174', '175', '179', '180', '185', '186', '189', '193', '203', '206', '207', '213', '221', '222', '224', '232', '237', '239', '242', '259', '261', '266', '267', '269', '270', '276', '278', '279', '280', '284', '288', '289', '291', '294', '300', '316', '323', '325', '327', '347', '348', '360', '361', '364', '366', '367', '375', '379', '382', '384', '386', '389', '390', '391', '401', '403', '404', '406', '407', '409', '411', '415', '418', '420', '428', '430', '432', '435', '436', '437', '438', '439', '450', '459', '464', '468', '471', '472', '479', '487', '489', '495', '496', '498', '505', '511', '514', '521', '523', '524', '525', '527', '529', '546', '552', '553', '558', '564', '567', '570', '574', '576', '578', '592', '596', '601', '603', '607', '617', '622', '623', '633', '636', '637', '638', '639', '646', '649', '654', '657', '669', '670', '674', '677', '678', '682', '690', '700', '702', '703', '709', '719', '721', '726', '733', '742', '754', '756', '762', '769', '772', '777', '784', '786', '788', '791', '792', '795', '796', '803', '806', '808', '809', '812', '814', '821', '829', '830', '834', '840', '841', '843', '848', '853', '855', '859', '860', '862', '864', '883', '903', '905', '906', '913', '915', '917', '923', '926', '927', '928', '929', '932', '937', '938', '948', '950', '951', '953', '954', '963', '966', '968', '970', '973', '974', '975', '982', '985', '988', '989', '991', '996', '998', '1006', '1012', '1017', '1019', '1021', '1024', '1025', '1030', '1041', '1043', '1049', '1050', '1051', '1054', '1062', '1063', '1064', '1065', '1066', '1069', '1083', '1088', '1096', '1097', '1104', '1106', '1109', '1119', '1127', '1129', '1135', '1146', '1147', '1154', '1156', '1160', '1165', '1169', '1172', '1174', '1177', '1182', '1190', '1194', '1195', '1197', '1203', '1209', '1211', '1214', '1220', '1222', '1226', '1229', '1232', '1233', '1237', '1245', '1247', '1250', '1251', '1253', '1258', '1259', '1261', '1262', '1275', '1277', '1280', '1282', '1285', '1289', '1290', '1291', '1299', '1300', '1303', '1304', '1310', '1311', '1312', '1313', '1315', '1319', '1330', '1332', '1334', '1337', '1339', '1340', '1342', '1346', '1352', '1357', '1364', '1377', '1383', '1389', '1390', '1397', '1402', '1403', '1404', '1407', '1416', '1421', '1422', '1429', '1431', '1434', '1436', '1442', '1443', '1448', '1450', '1452', '1457', '1463', '1467', '1476', '1479', '1480', '1486', '1492', '1497', '1499', '1501', '1506', '1510', '1514', '1515', '1516', '1534', '1537', '1544', '1546', '1547', '1549', '1553', '1570', '1576', '1583', '1594', '1595', '1596', '1598', '1600', '1620', '1622', '1625', '1632', '1633', '1646', '1647', '1651', '1654', '1659', '1675', '1676', '1679', '1684', '1687', '1688', '1698', '1700', '1701', '1702', '1704', '1705', '1715', '1717', '1719', '1721', '1725', '1726', '1734', '1736', '1739', '1746', '1750', '1752', '1755', '1756', '1769', '1771', '1774', '1775', '1785', '1788', '1801', '1802', '1803', '1807', '1813', '1818', '1824', '1825', '1827', '1829', '1835', '1836', '1844', '1845', '1854', '1855', '1856', '1861', '1864', '1865', '1873', '1874', '1879', '1886', '1890', '1892', '1893', '1896', '1899', '1904', '1906', '1909', '1910', '1914', '1918', '1926', '1934', '1940', '1946', '1961', '1963', '1965', '1972', '1974', '1975', '1976', '1989', '1993', '1997']",True,2000,True,2,295bb2966f,0.0,0.0,1.0
./expes/v2_2021-03-23_issda-30_2000-prng-1-w2-p2,30_issda-2000,2000,first-2000,1000,50,rng,num-start-3000,3000,25726,classic,2427.686449766159,True,,True,1.0,1.0,1.0,1,"['1', '2', '10', '11', '14', '20', '22', '23', '24', '25', '26', '28', '29', '30', '31', '32', '33', '34', '35', '37', '40', '41', '44', '46', '47', '48', '50', '51', '56', '57', '59', '61', '62', '65', '69', '72', '73', '74', '75', '77', '78', '80', '81', '84', '85', '86', '87', '88', '91', '92', '93', '94', '96', '97', '98', '102', '103', '104', '107', '108', '109', '119', '120', '122', '123', '124', '125', '127', '130', '132', '135', '137', '138', '141', '142', '144', '145', '148', '149', '150', '151', '152', '153', '154', '155', '156', '157', '158', '159', '160', '161', '165', '168', '170', '171', '172', '173', '174', '175', '177', '178', '179', '180', '181', '184', '185', '186', '189', '191', '193', '195', '196', '197', '199', '202', '203', '205', '206', '207', '210', '213', '215', '218', '221', '222', '223', '224', '232', '234', '235', '236', '237', '239', '241', '242', '245', '246', '250', '252', '253', '255', '259', '261', '264', '266', '267', '269', '270', '272', '273', '274', '275', '276', '278', '279', '280', '281', '284', '287', '288', '289', '290', '291', '293', '294', '296', '300', '301', '305', '309', '315', '316', '317', '318', '319', '321', '323', '324', '325', '327', '328', '330', '337', '339', '342', '347', '348', '354', '355', '360', '361', '362', '364', '366', '367', '371', '372', '373', '375', '377', '378', '379', '382', '384', '386', '388', '389', '390', '391', '392', '393', '398', '399', '400', '401', '402', '403', '404', '405', '406', '407', '409', '411', '412', '415', '418', '419', '420', '424', '427', '428', '430', '431', '432', '435', '436', '437', '438', '439', '443', '447', '448', '449', '450', '454', '456', '459', '464', '466', '468', '471', '472', '476', '477', '479', '481', '486', '487', '489', '491', '495', '496', '497', '498', '500', '501', '502', '503', '505', '509', '510', '511', '514', '521', '523', '524', '525', '526', '527', '529', '530', '532', '533', '537', '546', '552', '553', '555', '557', '558', '560', '563', '564', '565', '567', '570', '571', '572', '573', '574', '576', '577', '578', '580', '581', '582', '583', '586', '592', '595', '596', '601', '603', '606', '607', '613', '617', '618', '622', '623', '624', '625', '633', '635', '636', '637', '638', '639', '640', '646', '647', '649', '650', '651', '654', '657', '660', '661', '663', '664', '667', '669', '670', '672', '674', '676', '677', '678', '682', '687', '690', '692', '693', '696', '699', '700', '701', '702', '703', '704', '709', '712', '714', '719', '721', '726', '727', '728', '729', '731', '733', '736', '737', '740', '741', '742', '745', '746', '749', '751', '754', '755', '756', '757', '758', '759', '762', '765', '769', '770', '772', '773', '777', '781', '784', '786', '788', '791', '792', '794', '795', '796', '798', '799', '800', '801', '803', '806', '808', '809', '810', '811', '812', '814', '815', '817', '819', '821', '823', '825', '828', '829', '830', '831', '832', '834', '836', '838', '840', '841', '842', '843', '847', '848', '852', '853', '854', '855', '859', '860', '862', '864', '870', '871', '874', '876', '879', '880', '881', '883', '885', '889', '891', '895', '898', '900', '902', '903', '904', '905', '906', '907', '909', '911', '913', '915', '917', '923', '926', '927', '928', '929', '930', '931', '932', '933', '934', '937', '938', '939', '940', '947', '948', '950', '951', '953', '954', '957', '960', '961', '963', '964', '966', '967', '968', '970', '973', '974', '975', '976', '979', '981', '982', '985', '986', '988', '989', '990', '991', '992', '993', '996', '998', '999', '1006', '1009', '1010', '1012', '1013', '1014', '1015', '1017', '1019', '1020', '1021', '1022', '1024', '1025', '1029', '1030', '1031', '1033', '1034', '1036', '1040', '1041', '1043', '1046', '1049', '1050', '1051', '1054', '1055', '1056', '1057', '1058', '1062', '1063', '1064', '1065', '1066', '1067', '1069', '1071', '1072', '1074', '1076', '1079', '1082', '1083', '1085', '1086', '1087', '1088', '1092', '1094', '1096', '1097', '1098', '1100', '1103', '1104', '1106', '1107', '1108', '1109', '1110', '1112', '1113', '1114', '1115', '1116', '1119', '1124', '1126', '1127', '1128', '1129', '1130', '1135', '1145', '1146', '1147', '1149', '1151', '1153', '1154', '1155', '1156', '1157', '1160', '1163', '1164', '1165', '1166', '1167', '1168', '1169', '1172', '1174', '1177', '1178', '1182', '1186', '1188', '1190', '1192', '1193', '1194', '1195', '1197', '1198', '1200', '1202', '1203', '1209', '1211', '1212', '1214', '1219', '1220', '1222', '1224', '1225', '1226', '1228', '1229', '1231', '1232', '1233', '1236', '1237', '1239', '1240', '1245', '1247', '1249', '1250', '1251', '1252', '1253', '1257', '1258', '1259', '1261', '1262', '1266', '1270', '1275', '1277', '1278', '1279', '1280', '1282', '1285', '1286', '1287', '1289', '1290', '1291', '1293', '1297', '1299', '1300', '1303', '1304', '1307', '1308', '1309', '1310', '1311', '1312', '1313', '1315', '1316', '1319', '1321', '1328', '1330', '1332', '1334', '1337', '1338', '1339', '1340', '1342', '1346', '1347', '1352', '1356', '1357', '1360', '1364', '1365', '1368', '1369', '1375', '1377', '1379', '1383', '1386', '1387', '1389', '1390', '1395', '1397', '1398', '1400', '1402', '1403', '1404', '1405', '1407', '1408', '1412', '1416', '1421', '1422', '1423', '1424', '1429', '1431', '1432', '1434', '1436', '1437', '1438', '1442', '1443', '1444', '1447', '1448', '1450', '1452', '1453', '1457', '1463', '1467', '1468', '1470', '1472', '1473', '1476', '1479', '1480', '1481', '1482', '1485', '1486', '1487', '1489', '1492', '1493', '1495', '1497', '1499', '1501', '1504', '1506', '1510', '1514', '1515', '1516', '1518', '1522', '1524', '1525', '1526', '1529', '1531', '1532', '1533', '1534', '1537', '1543', '1544', '1546', '1547', '1548', '1549', '1553', '1555', '1560', '1561', '1562', '1565', '1567', '1568', '1570', '1572', '1574', '1575', '1576', '1583', '1589', '1594', '1595', '1596', '1598', '1600', '1607', '1614', '1618', '1620', '1622', '1623', '1625', '1631', '1632', '1633', '1634', '1635', '1637', '1639', '1640', '1641', '1642', '1644', '1645', '1646', '1647', '1649', '1651', '1654', '1658', '1659', '1660', '1663', '1669', '1670', '1671', '1673', '1675', '1676', '1679', '1682', '1684', '1687', '1688', '1690', '1692', '1697', '1698', '1700', '1701', '1702', '1703', '1704', '1705', '1706', '1713', '1715', '1717', '1718', '1719', '1721', '1725', '1726', '1728', '1730', '1732', '1734', '1736', '1739', '1743', '1744', '1745', '1746', '1750', '1751', '1752', '1753', '1755', '1756', '1763', '1764', '1769', '1770', '1771', '1774', '1775', '1777', '1781', '1782', '1785', '1788', '1793', '1794', '1800', '1801', '1802', '1803', '1805', '1806', '1807', '1813', '1818', '1819', '1821', '1824', '1825', '1827', '1829', '1830', '1833', '1835', '1836', '1837', '1839', '1844', '1845', '1846', '1849', '1854', '1855', '1856', '1857', '1858', '1861', '1862', '1863', '1864', '1865', '1866', '1867', '1870', '1871', '1873', '1874', '1876', '1879', '1882', '1884', '1885', '1886', '1888', '1890', '1892', '1893', '1895', '1896', '1899', '1904', '1905', '1906', '1907', '1909', '1910', '1913', '1914', '1915', '1917', '1918', '1920', '1923', '1925', '1926', '1928', '1934', '1935', '1936', '1937', '1940', '1944', '1946', '1949', '1950', '1951', '1956', '1957', '1960', '1961', '1963', '1965', '1966', '1969', '1972', '1974', '1975', '1976', '1980', '1981', '1982', '1984', '1986', '1987', '1989', '1993', '1994', '1997']",False,2000,True,2,8479f88d21,0.0,1.0,1.0
