expe,clients,clients_size,clients_subset,agg_size,agg_size_pc,method,days,days_size,days_total,noise_method,time,valid,valid_sum,success,score_avg,score_min,score_max,nsols,oracle,wall_hit,wall_time,pooled,pool_size,uuid,infeasible,optimal,valid_sums
./expes/v2_2021-03-23_issda-30_2000-prng-1-w2-p2,30_issda-2000,2000,first-2000,400,20,rng,num-start-2000,2000,25726,classic,1460.573466539383,True,,True,1.0,1.0,1.0,1,"['12', '13', '14', '18', '23', '27', '30', '36', '38', '43', '47', '60', '94', '115', '120', '125', '133', '136', '137', '156', '157', '162', '171', '179', '181', '182', '184', '190', '192', '208', '218', '220', '236', '242', '252', '259', '265', '267', '270', '273', '280', '281', '287', '294', '298', '300', '303', '309', '310', '312', '329', '333', '334', '335', '342', '344', '347', '350', '353', '358', '361', '362', '366', '372', '375', '386', '389', '390', '402', '406', '411', '413', '414', '418', '424', '433', '438', '442', '443', '449', '452', '461', '472', '473', '481', '484', '487', '491', '497', '505', '512', '520', '525', '528', '532', '533', '538', '542', '543', '547', '550', '553', '555', '558', '560', '561', '564', '565', '575', '577', '582', '588', '599', '606', '609', '613', '615', '618', '621', '632', '644', '646', '665', '671', '673', '686', '688', '694', '696', '702', '709', '712', '718', '722', '733', '739', '745', '748', '749', '755', '766', '767', '780', '790', '806', '813', '814', '820', '824', '826', '828', '829', '831', '832', '834', '836', '839', '844', '850', '851', '853', '865', '868', '870', '874', '889', '890', '895', '897', '915', '920', '930', '931', '933', '939', '940', '955', '958', '962', '967', '973', '978', '979', '980', '983', '984', '1003', '1006', '1007', '1012', '1016', '1023', '1026', '1038', '1039', '1040', '1043', '1049', '1051', '1052', '1054', '1066', '1069', '1070', '1073', '1078', '1079', '1085', '1086', '1091', '1095', '1102', '1104', '1107', '1109', '1114', '1116', '1117', '1124', '1130', '1131', '1140', '1143', '1144', '1145', '1158', '1164', '1166', '1171', '1173', '1174', '1176', '1179', '1183', '1186', '1203', '1206', '1216', '1229', '1235', '1242', '1244', '1251', '1252', '1254', '1255', '1258', '1261', '1267', '1281', '1287', '1290', '1293', '1304', '1309', '1322', '1325', '1326', '1327', '1328', '1336', '1346', '1347', '1354', '1355', '1381', '1383', '1385', '1386', '1388', '1393', '1396', '1401', '1402', '1406', '1412', '1414', '1417', '1422', '1431', '1432', '1438', '1444', '1446', '1449', '1451', '1452', '1453', '1454', '1461', '1462', '1467', '1469', '1474', '1480', '1490', '1496', '1505', '1508', '1513', '1519', '1522', '1526', '1529', '1538', '1549', '1550', '1552', '1553', '1554', '1556', '1562', '1574', '1575', '1578', '1579', '1581', '1584', '1587', '1589', '1594', '1595', '1598', '1605', '1607', '1613', '1620', '1623', '1625', '1626', '1627', '1632', '1639', '1644', '1652', '1654', '1660', '1662', '1663', '1674', '1676', '1688', '1691', '1695', '1697', '1700', '1706', '1708', '1711', '1712', '1713', '1719', '1720', '1728', '1729', '1733', '1736', '1749', '1758', '1760', '1766', '1769', '1774', '1777', '1780', '1783', '1789', '1792', '1795', '1811', '1817', '1818', '1825', '1826', '1827', '1841', '1842', '1854', '1858', '1865', '1869', '1880', '1891', '1895', '1896', '1899', '1905', '1910', '1916', '1919', '1934', '1935', '1938', '1946', '1950', '1962', '1981', '1985', '1993', '1999']",False,2000,True,2,713da359ae,0.0,1.0,1.0
./expes/v2_2021-03-23_issda-30_2000-prng-1-w2-p2,30_issda-2000,2000,first-2000,500,25,rng,num-start-3400,3400,25726,classic,2440.992019891739,True,,False,1.0,1.0,1.0,1,"['4', '8', '10', '15', '16', '24', '27', '32', '37', '41', '42', '44', '46', '56', '58', '59', '64', '65', '67', '68', '70', '72', '73', '74', '87', '88', '89', '91', '93', '95', '102', '103', '105', '109', '110', '113', '124', '125', '126', '130', '132', '135', '137', '140', '141', '147', '158', '164', '176', '177', '182', '199', '200', '209', '211', '214', '215', '222', '233', '244', '245', '246', '248', '249', '251', '253', '254', '255', '256', '257', '260', '262', '264', '266', '267', '268', '270', '273', '275', '279', '284', '309', '311', '320', '322', '327', '335', '347', '351', '352', '364', '366', '376', '380', '384', '391', '392', '393', '405', '407', '409', '433', '445', '447', '448', '453', '455', '456', '460', '461', '466', '475', '476', '480', '484', '487', '488', '489', '490', '491', '501', '502', '509', '515', '518', '529', '532', '537', '540', '541', '543', '547', '551', '552', '554', '555', '556', '561', '571', '572', '573', '584', '588', '592', '595', '598', '602', '612', '615', '616', '617', '621', '623', '635', '641', '643', '645', '646', '647', '656', '660', '662', '667', '669', '672', '674', '678', '681', '684', '690', '695', '696', '697', '699', '700', '705', '708', '710', '719', '720', '721', '723', '738', '739', '746', '749', '757', '758', '763', '765', '767', '772', '773', '774', '779', '791', '794', '798', '799', '809', '814', '820', '835', '836', '839', '841', '847', '848', '851', '854', '857', '860', '862', '863', '867', '871', '873', '875', '878', '881', '884', '890', '892', '894', '896', '898', '911', '924', '935', '936', '943', '944', '951', '952', '955', '961', '964', '969', '971', '976', '978', '986', '988', '989', '991', '999', '1003', '1004', '1014', '1017', '1025', '1029', '1031', '1036', '1039', '1045', '1050', '1056', '1062', '1063', '1065', '1066', '1068', '1072', '1076', '1080', '1085', '1094', '1095', '1097', '1098', '1100', '1108', '1109', '1110', '1114', '1115', '1124', '1126', '1129', '1138', '1145', '1146', '1161', '1164', '1165', '1166', '1170', '1172', '1175', '1176', '1178', '1182', '1188', '1190', '1197', '1199', '1201', '1202', '1206', '1207', '1208', '1209', '1211', '1214', '1219', '1220', '1229', '1231', '1232', '1237', '1238', '1240', '1241', '1247', '1251', '1254', '1259', '1262', '1266', '1269', '1271', '1276', '1282', '1284', '1285', '1286', '1287', '1288', '1295', '1297', '1298', '1299', '1300', '1301', '1304', '1309', '1315', '1319', '1325', '1331', '1332', '1339', '1343', '1358', '1375', '1376', '1377', '1383', '1385', '1389', '1392', '1395', '1397', '1401', '1413', '1415', '1421', '1422', '1424', '1425', '1430', '1431', '1440', '1448', '1460', '1462', '1463', '1466', '1467', '1469', '1472', '1473', '1476', '1481', '1492', '1506', '1512', '1519', '1520', '1527', '1532', '1543', '1550', '1553', '1557', '1560', '1575', '1582', '1588', '1591', '1592', '1596', '1598', '1603', '1612', '1613', '1615', '1620', '1622', '1626', '1629', '1640', '1641', '1645', '1647', '1651', '1652', '1653', '1654', '1659', '1660', '1662', '1663', '1666', '1673', '1679', '1687', '1696', '1704', '1706', '1707', '1708', '1713', '1714', '1716', '1718', '1729', '1741', '1749', '1750', '1752', '1753', '1754', '1756', '1758', '1763', '1764', '1765', '1767', '1769', '1773', '1776', '1778', '1782', '1783', '1788', '1800', '1802', '1803', '1805', '1810', '1813', '1816', '1818', '1822', '1823', '1837', '1838', '1839', '1843', '1851', '1852', '1853', '1862', '1870', '1876', '1879', '1885', '1886', '1887', '1888', '1889', '1893', '1897', '1900', '1903', '1917', '1918', '1924', '1927', '1932', '1944', '1946', '1947', '1956', '1961', '1962', '1964', '1968', '1973', '1975', '1976', '1978', '1985', '1989', '1990', '1991', '1993', '1997']",True,2000,True,2,804309bae8,0.0,0.0,1.0
./expes/v2_2021-03-23_issda-30_2000-prng-1-w2-p2,30_issda-2000,2000,first-2000,500,25,rng,num-start-1600,1600,25726,classic,2197.2799830436707,True,,False,1.0,1.0,1.0,1,"['5', '6', '15', '18', '26', '34', '35', '37', '39', '45', '47', '51', '52', '54', '55', '66', '69', '71', '73', '75', '81', '84', '86', '89', '90', '93', '96', '100', '102', '114', '123', '127', '128', '130', '131', '132', '135', '137', '140', '142', '145', '147', '148', '149', '151', '155', '159', '172', '175', '177', '181', '187', '188', '192', '194', '195', '202', '204', '207', '208', '210', '211', '212', '215', '219', '221', '230', '233', '234', '238', '239', '245', '246', '248', '249', '253', '258', '259', '263', '276', '279', '280', '282', '284', '286', '287', '304', '305', '312', '314', '317', '320', '325', '336', '337', '340', '342', '349', '351', '354', '359', '363', '369', '370', '376', '380', '382', '383', '384', '385', '388', '390', '392', '393', '397', '404', '409', '413', '415', '416', '425', '428', '429', '431', '432', '453', '459', '461', '462', '464', '466', '472', '477', '494', '496', '500', '502', '503', '509', '511', '512', '515', '517', '519', '530', '534', '535', '537', '539', '542', '549', '551', '556', '557', '562', '563', '568', '572', '576', '582', '585', '586', '593', '594', '601', '602', '606', '613', '617', '623', '624', '627', '630', '632', '633', '634', '636', '637', '638', '646', '650', '651', '663', '665', '667', '671', '676', '680', '682', '689', '690', '710', '711', '712', '718', '721', '725', '731', '742', '744', '752', '756', '757', '763', '772', '777', '781', '785', '788', '792', '796', '800', '803', '806', '812', '813', '819', '823', '827', '830', '831', '833', '844', '847', '849', '852', '855', '862', '867', '872', '875', '878', '879', '880', '881', '893', '895', '896', '898', '899', '902', '910', '912', '917', '921', '922', '925', '926', '928', '931', '934', '938', '939', '943', '945', '949', '952', '955', '956', '957', '959', '960', '962', '963', '975', '978', '980', '983', '984', '995', '996', '999', '1002', '1004', '1006', '1008', '1011', '1012', '1025', '1029', '1030', '1034', '1036', '1043', '1048', '1051', '1054', '1066', '1067', '1069', '1073', '1077', '1080', '1083', '1084', '1085', '1094', '1095', '1099', '1100', '1102', '1106', '1110', '1111', '1115', '1117', '1118', '1121', '1136', '1137', '1141', '1145', '1152', '1166', '1167', '1169', '1178', '1179', '1181', '1184', '1186', '1195', '1198', '1204', '1206', '1208', '1211', '1213', '1216', '1217', '1219', '1221', '1222', '1223', '1226', '1227', '1246', '1248', '1249', '1256', '1259', '1265', '1271', '1272', '1283', '1286', '1290', '1293', '1299', '1302', '1303', '1305', '1308', '1311', '1313', '1323', '1325', '1329', '1330', '1337', '1339', '1345', '1347', '1349', '1351', '1355', '1360', '1367', '1368', '1370', '1381', '1385', '1387', '1388', '1396', '1398', '1401', '1406', '1408', '1410', '1411', '1420', '1423', '1426', '1427', '1432', '1445', '1454', '1465', '1467', '1468', '1470', '1474', '1475', '1485', '1491', '1497', '1498', '1503', '1507', '1512', '1513', '1514', '1519', '1528', '1540', '1541', '1546', '1548', '1550', '1568', '1584', '1586', '1587', '1588', '1605', '1607', '1608', '1609', '1614', '1617', '1622', '1629', '1642', '1645', '1646', '1647', '1648', '1655', '1661', '1663', '1679', '1689', '1692', '1702', '1704', '1708', '1710', '1712', '1724', '1729', '1731', '1740', '1741', '1747', '1748', '1753', '1762', '1774', '1779', '1786', '1790', '1799', '1800', '1801', '1809', '1812', '1824', '1834', '1836', '1837', '1838', '1854', '1856', '1860', '1874', '1885', '1892', '1896', '1901', '1903', '1905', '1907', '1911', '1916', '1917', '1918', '1924', '1936', '1937', '1938', '1941', '1946', '1954', '1957', '1959', '1960', '1963', '1970', '1973', '1974', '1977', '1978', '1979', '1981', '1983', '1984', '1987', '1989', '1993']",True,2000,True,2,98d4405d34,0.0,0.0,1.0
./expes/v2_2021-03-23_issda-30_2000-prng-1-w2-p2,30_issda-2000,2000,first-2000,100,5,rng,num-start-2000,2000,25726,classic,633.8619549274445,True,,True,1.0,1.0,1.0,1,"['14', '208', '236', '242', '252', '270', '298', '329', '347', '358', '372', '375', '389', '402', '406', '411', '413', '414', '424', '443', '452', '481', '487', '491', '520', '542', '543', '553', '558', '577', '606', '613', '621', '665', '686', '702', '709', '749', '831', '832', '834', '895', '920', '939', '978', '983', '984', '1003', '1012', '1016', '1026', '1040', '1052', '1070', '1079', '1102', '1131', '1164', '1174', '1176', '1179', '1206', '1216', '1229', '1287', '1293', '1326', '1355', '1383', '1388', '1401', '1406', '1417', '1444', '1452', '1467', '1490', '1505', '1549', '1562', '1581', '1613', '1625', '1627', '1652', '1660', '1662', '1691', '1712', '1774', '1789', '1817', '1827', '1842', '1869', '1891', '1934', '1950', '1981', '1999']",False,2000,True,2,52ac4a0b02,0.0,1.0,1.0
./expes/v2_2021-03-23_issda-30_2000-prng-1-w2-p2,30_issda-2000,2000,first-2000,400,20,rng,num-start-1200,1200,25726,classic,2152.9891657829285,True,,False,1.0,1.0,1.0,1,"['6', '8', '10', '19', '24', '31', '32', '35', '36', '39', '49', '59', '63', '64', '70', '75', '85', '89', '98', '113', '115', '116', '121', '122', '124', '127', '132', '135', '138', '141', '145', '151', '152', '161', '162', '168', '174', '190', '202', '204', '205', '206', '222', '223', '237', '239', '240', '249', '256', '264', '267', '288', '292', '295', '301', '302', '311', '319', '321', '322', '324', '325', '328', '331', '337', '341', '347', '349', '351', '353', '355', '368', '383', '401', '402', '421', '423', '428', '436', '438', '451', '458', '462', '463', '469', '470', '474', '475', '476', '479', '482', '490', '491', '500', '507', '511', '515', '516', '523', '524', '533', '537', '540', '558', '560', '562', '575', '587', '589', '606', '620', '626', '636', '638', '639', '642', '645', '646', '652', '653', '660', '663', '666', '677', '678', '679', '681', '683', '686', '688', '689', '691', '693', '694', '697', '704', '706', '712', '713', '725', '728', '729', '732', '738', '753', '755', '756', '763', '771', '778', '789', '793', '796', '799', '800', '804', '807', '810', '818', '823', '829', '830', '831', '836', '857', '860', '862', '867', '883', '886', '889', '900', '905', '906', '910', '912', '913', '920', '922', '923', '924', '926', '931', '933', '939', '942', '945', '947', '951', '955', '956', '957', '958', '959', '960', '970', '972', '976', '981', '983', '986', '992', '1003', '1005', '1008', '1009', '1014', '1021', '1022', '1024', '1025', '1027', '1029', '1036', '1037', '1048', '1050', '1062', '1065', '1066', '1068', '1086', '1094', '1097', '1114', '1115', '1122', '1124', '1127', '1130', '1137', '1141', '1157', '1158', '1161', '1167', '1170', '1172', '1180', '1183', '1186', '1191', '1196', '1197', '1202', '1203', '1216', '1220', '1222', '1239', '1251', '1254', '1257', '1258', '1263', '1265', '1267', '1283', '1288', '1302', '1314', '1323', '1324', '1325', '1329', '1336', '1343', '1349', '1357', '1363', '1370', '1371', '1386', '1387', '1388', '1390', '1396', '1398', '1402', '1404', '1415', '1419', '1422', '1423', '1425', '1427', '1428', '1438', '1445', '1450', '1451', '1454', '1473', '1477', '1478', '1482', '1483', '1486', '1489', '1493', '1508', '1511', '1515', '1518', '1520', '1526', '1537', '1539', '1544', '1547', '1551', '1554', '1557', '1558', '1592', '1593', '1595', '1602', '1604', '1606', '1608', '1615', '1616', '1627', '1631', '1634', '1637', '1640', '1649', '1651', '1659', '1683', '1686', '1690', '1701', '1711', '1716', '1718', '1721', '1722', '1728', '1729', '1735', '1737', '1752', '1753', '1756', '1757', '1763', '1769', '1773', '1781', '1783', '1787', '1792', '1797', '1800', '1802', '1806', '1812', '1816', '1817', '1823', '1827', '1829', '1830', '1831', '1842', '1854', '1858', '1859', '1862', '1867', '1870', '1874', '1877', '1884', '1888', '1890', '1895', '1896', '1900', '1901', '1906', '1915', '1916', '1922', '1935', '1936', '1938', '1940', '1942', '1953', '1965', '1967', '1971', '1977', '1982', '1992', '2000']",True,2000,True,2,79e5c26c1c,0.0,0.0,1.0
./expes/v2_2021-03-23_issda-30_2000-prng-1-w2-p2,30_issda-2000,2000,first-2000,400,20,rng,num-start-2400,2400,25726,classic,1494.857307434082,True,,True,1.0,1.0,1.0,1,"['4', '5', '12', '18', '19', '26', '30', '35', '36', '37', '38', '43', '45', '46', '49', '53', '58', '59', '60', '61', '63', '67', '71', '73', '77', '78', '83', '90', '98', '115', '121', '130', '134', '143', '145', '157', '171', '174', '178', '188', '193', '198', '203', '205', '210', '214', '222', '223', '225', '234', '242', '248', '258', '265', '268', '273', '276', '277', '300', '322', '325', '327', '329', '336', '342', '343', '345', '346', '348', '349', '352', '355', '363', '371', '379', '381', '386', '389', '398', '409', '410', '411', '412', '421', '422', '429', '430', '435', '437', '444', '446', '449', '452', '455', '458', '462', '465', '469', '471', '473', '476', '478', '481', '498', '512', '517', '520', '523', '530', '546', '551', '552', '559', '576', '577', '582', '594', '595', '604', '607', '608', '611', '612', '622', '628', '632', '636', '639', '651', '658', '660', '667', '672', '679', '682', '695', '704', '705', '706', '708', '709', '711', '724', '731', '747', '752', '759', '768', '775', '777', '778', '781', '786', '792', '799', '806', '807', '809', '814', '824', '828', '829', '847', '849', '853', '863', '865', '873', '874', '880', '885', '887', '897', '899', '913', '921', '924', '928', '932', '939', '941', '942', '944', '962', '968', '971', '984', '986', '993', '994', '1000', '1003', '1009', '1015', '1016', '1017', '1023', '1024', '1026', '1029', '1033', '1034', '1035', '1037', '1040', '1042', '1043', '1045', '1050', '1053', '1058', '1063', '1067', '1073', '1081', '1091', '1095', '1103', '1106', '1107', '1109', '1116', '1122', '1123', '1124', '1128', '1129', '1133', '1136', '1140', '1149', '1150', '1154', '1157', '1166', '1168', '1175', '1180', '1184', '1185', '1197', '1204', '1207', '1210', '1211', '1212', '1215', '1229', '1241', '1245', '1248', '1254', '1255', '1260', '1276', '1277', '1280', '1289', '1292', '1293', '1302', '1316', '1326', '1328', '1329', '1331', '1335', '1345', '1351', '1352', '1360', '1362', '1364', '1373', '1379', '1381', '1382', '1383', '1387', '1389', '1406', '1408', '1424', '1426', '1439', '1440', '1441', '1442', '1444', '1457', '1458', '1473', '1478', '1483', '1486', '1487', '1494', '1496', '1501', '1511', '1512', '1517', '1522', '1524', '1545', '1548', '1559', '1562', '1565', '1572', '1573', '1579', '1589', '1593', '1595', '1598', '1603', '1605', '1611', '1616', '1631', '1633', '1634', '1636', '1643', '1644', '1646', '1648', '1658', '1662', '1666', '1673', '1674', '1679', '1681', '1696', '1700', '1705', '1712', '1716', '1721', '1724', '1734', '1736', '1738', '1742', '1744', '1748', '1756', '1757', '1759', '1762', '1764', '1778', '1782', '1786', '1794', '1800', '1805', '1808', '1815', '1830', '1835', '1837', '1843', '1845', '1847', '1864', '1865', '1873', '1877', '1879', '1885', '1889', '1898', '1907', '1910', '1918', '1921', '1922', '1924', '1927', '1928', '1933', '1936', '1946', '1950', '1951', '1956', '1961', '1966', '1971', '1978', '1981', '1983', '1985', '1994', '1995', '1998', '1999']",False,2000,True,2,3450c9dede,0.0,1.0,1.0
