expe,clients,clients_size,clients_subset,agg_size,agg_size_pc,method,days,days_size,days_total,noise_method,time,valid,valid_sum,success,score_avg,score_min,score_max,nsols,oracle,wall_hit,wall_time,pooled,pool_size,uuid,infeasible,optimal,valid_sums
./expes/v2_2021-03-23_issda-30_2000-prng-1-w2-p2,30_issda-2000,2000,first-2000,300,15,rng,num-start-1400,1400,25726,classic,2185.393146276474,True,,False,1.0,1.0,1.0,1,"['1', '2', '10', '20', '23', '31', '32', '34', '35', '37', '41', '44', '61', '62', '69', '72', '74', '80', '86', '87', '96', '98', '108', '122', '123', '124', '130', '137', '138', '141', '142', '144', '150', '151', '152', '153', '154', '161', '171', '175', '179', '185', '186', '189', '193', '206', '207', '213', '221', '222', '224', '239', '242', '259', '261', '269', '270', '276', '278', '280', '284', '288', '291', '300', '316', '323', '325', '360', '361', '364', '375', '379', '382', '384', '386', '389', '390', '391', '401', '403', '407', '418', '428', '430', '432', '435', '436', '437', '438', '468', '471', '479', '489', '496', '498', '505', '511', '521', '523', '527', '529', '552', '553', '570', '574', '578', '592', '596', '601', '603', '607', '622', '623', '637', '638', '639', '646', '654', '669', '674', '678', '682', '690', '733', '742', '756', '762', '769', '786', '791', '792', '796', '803', '808', '809', '812', '814', '821', '834', '840', '843', '859', '860', '862', '864', '903', '905', '913', '915', '917', '923', '926', '927', '928', '929', '937', '951', '953', '954', '963', '973', '975', '982', '988', '989', '991', '998', '1006', '1024', '1041', '1043', '1049', '1050', '1051', '1064', '1066', '1069', '1083', '1088', '1104', '1129', '1135', '1146', '1147', '1154', '1160', '1172', '1177', '1182', '1194', '1197', '1203', '1209', '1211', '1214', '1220', '1222', '1226', '1229', '1232', '1233', '1237', '1250', '1251', '1258', '1259', '1261', '1262', '1275', '1277', '1285', '1289', '1290', '1300', '1303', '1304', '1312', '1315', '1319', '1332', '1339', '1340', '1342', '1346', '1357', '1383', '1397', '1403', '1407', '1416', '1421', '1436', '1443', '1448', '1450', '1452', '1476', '1486', '1497', '1499', '1501', '1514', '1515', '1516', '1534', '1553', '1570', '1576', '1583', '1594', '1595', '1600', '1625', '1633', '1646', '1647', '1659', '1675', '1687', '1701', '1704', '1705', '1721', '1726', '1734', '1736', '1746', '1750', '1752', '1755', '1771', '1774', '1775', '1802', '1807', '1813', '1824', '1825', '1854', '1861', '1865', '1874', '1879', '1890', '1892', '1893', '1899', '1904', '1909', '1926', '1940', '1946', '1963', '1965', '1972', '1975', '1976', '1989', '1993', '1997']",True,2000,True,2,9a86d6a113,0.0,0.0,1.0
./expes/v2_2021-03-23_issda-30_2000-prng-1-w2-p2,30_issda-2000,2000,first-2000,1000,50,rng,num-start-1000,1000,25726,classic,1351.3239433765411,True,,True,1.0,1.0,1.0,1,"['4', '5', '6', '8', '10', '11', '15', '16', '24', '27', '32', '37', '39', '40', '41', '42', '44', '46', '48', '49', '53', '55', '56', '57', '58', '59', '61', '62', '63', '64', '65', '67', '68', '70', '71', '72', '73', '74', '75', '76', '77', '81', '87', '88', '89', '91', '93', '94', '95', '99', '100', '102', '103', '104', '105', '107', '109', '110', '111', '113', '116', '117', '122', '123', '124', '125', '126', '130', '132', '135', '137', '140', '141', '142', '147', '148', '149', '157', '158', '159', '160', '164', '165', '166', '171', '176', '177', '180', '182', '184', '186', '187', '189', '190', '192', '194', '197', '199', '200', '204', '205', '209', '211', '212', '214', '215', '216', '219', '220', '221', '222', '223', '224', '226', '229', '230', '231', '233', '235', '236', '238', '242', '244', '245', '246', '248', '249', '251', '253', '254', '255', '256', '257', '260', '262', '264', '266', '267', '268', '270', '273', '275', '276', '278', '279', '280', '282', '284', '286', '290', '294', '295', '300', '301', '306', '307', '309', '311', '313', '316', '320', '322', '326', '327', '329', '330', '333', '335', '338', '345', '347', '348', '349', '350', '351', '352', '353', '355', '358', '362', '364', '366', '367', '369', '370', '372', '373', '376', '377', '378', '379', '380', '382', '383', '384', '388', '389', '391', '392', '393', '397', '400', '405', '407', '408', '409', '410', '411', '412', '414', '421', '422', '427', '428', '429', '431', '433', '434', '445', '446', '447', '448', '449', '451', '453', '455', '456', '459', '460', '461', '466', '470', '471', '475', '476', '479', '480', '481', '482', '484', '486', '487', '488', '489', '490', '491', '493', '495', '496', '501', '502', '507', '509', '512', '513', '514', '515', '518', '521', '523', '526', '529', '530', '532', '537', '540', '541', '542', '543', '544', '545', '547', '548', '550', '551', '552', '554', '555', '556', '561', '563', '564', '571', '572', '573', '581', '583', '584', '588', '589', '592', '595', '596', '598', '601', '602', '603', '606', '612', '614', '615', '616', '617', '621', '623', '624', '625', '630', '635', '638', '640', '641', '642', '643', '645', '646', '647', '648', '650', '651', '653', '656', '660', '662', '665', '667', '669', '672', '673', '674', '678', '679', '681', '682', '684', '685', '686', '690', '691', '694', '695', '696', '697', '699', '700', '704', '705', '707', '708', '710', '718', '719', '720', '721', '722', '723', '726', '731', '736', '738', '739', '741', '744', '746', '749', '752', '753', '755', '757', '758', '760', '763', '765', '767', '769', '770', '771', '772', '773', '774', '778', '779', '783', '784', '785', '786', '791', '793', '794', '797', '798', '799', '801', '802', '803', '807', '808', '809', '813', '814', '816', '818', '820', '822', '823', '825', '826', '827', '835', '836', '837', '839', '841', '846', '847', '848', '850', '851', '854', '857', '860', '861', '862', '863', '865', '867', '871', '873', '875', '878', '881', '884', '886', '890', '892', '894', '896', '898', '907', '908', '910', '911', '912', '917', '918', '922', '923', '924', '927', '931', '933', '935', '936', '938', '943', '944', '951', '952', '954', '955', '956', '957', '958', '959', '961', '964', '969', '970', '971', '972', '976', '977', '978', '981', '982', '983', '985', '986', '987', '988', '989', '991', '992', '994', '996', '998', '999', '1001', '1002', '1003', '1004', '1005', '1008', '1011', '1012', '1014', '1017', '1019', '1020', '1022', '1025', '1029', '1031', '1032', '1034', '1036', '1037', '1039', '1040', '1042', '1044', '1045', '1048', '1050', '1055', '1056', '1060', '1062', '1063', '1065', '1066', '1068', '1072', '1073', '1076', '1077', '1080', '1081', '1084', '1085', '1086', '1090', '1094', '1095', '1097', '1098', '1099', '1100', '1101', '1102', '1104', '1108', '1109', '1110', '1113', '1114', '1115', '1116', '1121', '1124', '1126', '1127', '1129', '1132', '1134', '1135', '1136', '1137', '1138', '1140', '1141', '1145', '1146', '1147', '1150', '1152', '1155', '1156', '1160', '1161', '1162', '1164', '1165', '1166', '1168', '1170', '1172', '1175', '1176', '1178', '1180', '1182', '1186', '1188', '1189', '1190', '1195', '1197', '1198', '1199', '1200', '1201', '1202', '1204', '1206', '1207', '1208', '1209', '1211', '1213', '1214', '1218', '1219', '1220', '1222', '1224', '1227', '1228', '1229', '1231', '1232', '1237', '1238', '1240', '1241', '1243', '1245', '1247', '1251', '1254', '1259', '1262', '1265', '1266', '1267', '1269', '1271', '1274', '1275', '1276', '1277', '1281', '1282', '1284', '1285', '1286', '1287', '1288', '1289', '1293', '1294', '1295', '1297', '1298', '1299', '1300', '1301', '1304', '1309', '1315', '1316', '1317', '1319', '1320', '1321', '1323', '1325', '1327', '1328', '1330', '1331', '1332', '1337', '1339', '1340', '1341', '1343', '1347', '1349', '1351', '1353', '1356', '1357', '1358', '1363', '1366', '1368', '1373', '1375', '1376', '1377', '1378', '1380', '1381', '1383', '1384', '1385', '1388', '1389', '1390', '1392', '1393', '1395', '1396', '1397', '1398', '1401', '1405', '1407', '1410', '1413', '1415', '1416', '1417', '1421', '1422', '1423', '1424', '1425', '1427', '1428', '1429', '1430', '1431', '1432', '1433', '1434', '1436', '1437', '1440', '1441', '1444', '1445', '1446', '1448', '1456', '1460', '1462', '1463', '1465', '1466', '1467', '1468', '1469', '1470', '1471', '1472', '1473', '1474', '1476', '1477', '1481', '1489', '1490', '1491', '1492', '1493', '1496', '1499', '1501', '1503', '1504', '1506', '1512', '1515', '1516', '1519', '1520', '1521', '1523', '1527', '1531', '1532', '1533', '1534', '1540', '1541', '1542', '1543', '1544', '1545', '1546', '1549', '1550', '1551', '1552', '1553', '1554', '1557', '1560', '1572', '1575', '1578', '1581', '1582', '1586', '1588', '1589', '1591', '1592', '1595', '1596', '1597', '1598', '1601', '1602', '1603', '1604', '1612', '1613', '1614', '1615', '1617', '1620', '1622', '1623', '1626', '1629', '1635', '1636', '1637', '1640', '1641', '1642', '1645', '1646', '1647', '1651', '1652', '1653', '1654', '1658', '1659', '1660', '1662', '1663', '1665', '1666', '1669', '1671', '1673', '1674', '1679', '1682', '1683', '1684', '1686', '1687', '1696', '1704', '1706', '1707', '1708', '1710', '1712', '1713', '1714', '1716', '1718', '1719', '1724', '1726', '1728', '1729', '1732', '1735', '1739', '1741', '1743', '1744', '1745', '1746', '1749', '1750', '1752', '1753', '1754', '1755', '1756', '1758', '1759', '1761', '1762', '1763', '1764', '1765', '1767', '1769', '1770', '1771', '1772', '1773', '1776', '1778', '1779', '1780', '1781', '1782', '1783', '1787', '1788', '1793', '1800', '1802', '1803', '1804', '1805', '1807', '1809', '1810', '1813', '1816', '1817', '1818', '1822', '1823', '1824', '1825', '1826', '1827', '1835', '1837', '1838', '1839', '1842', '1843', '1844', '1847', '1851', '1852', '1853', '1856', '1862', '1864', '1866', '1870', '1872', '1875', '1876', '1878', '1879', '1885', '1886', '1887', '1888', '1889', '1892', '1893', '1897', '1899', '1900', '1902', '1903', '1904', '1905', '1909', '1911', '1913', '1914', '1915', '1916', '1917', '1918', '1921', '1923', '1924', '1926', '1927', '1928', '1930', '1931', '1932', '1934', '1935', '1936', '1939', '1941', '1944', '1945', '1946', '1947', '1948', '1951', '1953', '1956', '1957', '1958', '1961', '1962', '1964', '1965', '1967', '1968', '1969', '1970', '1973', '1975', '1976', '1978', '1980', '1981', '1985', '1986', '1987', '1989', '1990', '1991', '1993', '1995', '1997']",False,2000,True,2,846b668e6b,0.0,1.0,1.0
./expes/v2_2021-03-23_issda-30_2000-prng-1-w2-p2,30_issda-2000,2000,first-2000,100,5,rng,num-start-3200,3200,25726,classic,1422.1244823932648,True,,True,1.0,1.0,1.0,1,"['24', '35', '36', '39', '75', '98', '113', '135', '151', '162', '205', '239', '240', '288', '302', '311', '324', '353', '401', '423', '428', '458', '469', '474', '490', '491', '540', '575', '587', '606', '626', '642', '646', '693', '706', '728', '729', '738', '753', '804', '810', '823', '830', '860', '862', '900', '923', '933', '945', '956', '960', '1003', '1005', '1014', '1048', '1068', '1086', '1094', '1137', '1157', '1167', '1183', '1258', '1323', '1396', '1415', '1422', '1423', '1451', '1473', '1486', '1489', '1508', '1592', '1608', '1634', '1637', '1649', '1659', '1718', '1722', '1729', '1753', '1756', '1757', '1769', '1792', '1802', '1817', '1827', '1870', '1888', '1890', '1895', '1906', '1915', '1922', '1936', '1965', '1977']",False,2000,True,2,b62b07df6b,0.0,1.0,1.0
./expes/v2_2021-03-23_issda-30_2000-prng-1-w2-p2,30_issda-2000,2000,first-2000,1000,50,rng,num-start-1200,1200,25726,classic,2157.993644475937,True,,False,1.0,1.0,1.0,1,"['2', '3', '7', '8', '11', '12', '13', '14', '15', '16', '17', '18', '19', '20', '21', '23', '24', '25', '26', '27', '29', '31', '32', '35', '36', '38', '40', '42', '43', '44', '46', '49', '53', '54', '55', '56', '58', '59', '60', '61', '62', '68', '70', '71', '74', '77', '80', '84', '85', '86', '87', '89', '97', '100', '102', '104', '105', '106', '107', '108', '109', '110', '111', '113', '116', '117', '119', '120', '121', '122', '123', '124', '125', '129', '130', '131', '132', '133', '134', '135', '136', '137', '141', '142', '143', '147', '148', '149', '152', '153', '155', '156', '157', '161', '162', '164', '166', '167', '168', '170', '171', '172', '173', '174', '176', '178', '179', '180', '181', '182', '183', '188', '189', '191', '192', '193', '194', '197', '198', '201', '202', '203', '204', '205', '209', '210', '212', '213', '217', '218', '221', '223', '226', '227', '228', '229', '230', '239', '242', '243', '244', '246', '247', '249', '251', '253', '263', '264', '266', '269', '271', '272', '273', '275', '276', '277', '282', '283', '284', '285', '288', '289', '292', '295', '296', '298', '301', '304', '305', '306', '307', '309', '311', '312', '319', '322', '323', '326', '329', '330', '331', '332', '333', '334', '335', '337', '339', '341', '345', '346', '347', '348', '350', '351', '352', '354', '355', '360', '361', '362', '364', '365', '367', '371', '372', '373', '374', '375', '377', '379', '382', '383', '387', '388', '390', '391', '393', '394', '397', '398', '400', '402', '405', '406', '408', '409', '410', '411', '412', '414', '416', '420', '421', '423', '424', '428', '429', '430', '431', '432', '433', '438', '442', '444', '452', '453', '455', '456', '457', '459', '460', '462', '466', '471', '473', '474', '476', '477', '482', '484', '485', '487', '488', '496', '497', '498', '499', '503', '507', '509', '514', '515', '519', '520', '522', '523', '524', '526', '527', '530', '531', '532', '533', '535', '538', '539', '540', '543', '546', '547', '548', '550', '552', '553', '557', '559', '562', '564', '565', '567', '569', '571', '576', '578', '581', '583', '584', '585', '589', '590', '595', '596', '597', '599', '601', '603', '605', '607', '610', '615', '616', '617', '620', '623', '625', '626', '627', '630', '631', '633', '636', '638', '642', '644', '645', '646', '650', '651', '653', '654', '657', '659', '661', '662', '663', '664', '666', '667', '673', '674', '675', '676', '677', '678', '681', '684', '685', '687', '688', '689', '691', '692', '693', '694', '697', '698', '700', '706', '709', '711', '712', '714', '715', '723', '724', '727', '732', '734', '735', '736', '744', '746', '747', '748', '749', '750', '753', '754', '757', '758', '761', '763', '764', '765', '766', '767', '771', '776', '777', '780', '782', '785', '786', '789', '791', '795', '796', '797', '798', '799', '806', '808', '810', '811', '813', '816', '817', '818', '819', '822', '824', '825', '826', '827', '830', '832', '833', '835', '836', '837', '838', '840', '843', '846', '850', '852', '853', '854', '855', '859', '861', '863', '864', '866', '867', '868', '870', '871', '873', '875', '878', '881', '888', '892', '893', '894', '896', '897', '899', '900', '901', '903', '906', '910', '916', '918', '920', '923', '925', '926', '928', '929', '930', '933', '934', '936', '937', '940', '942', '946', '947', '949', '950', '951', '952', '956', '958', '962', '964', '965', '969', '971', '973', '974', '977', '978', '980', '981', '984', '985', '987', '988', '1001', '1004', '1007', '1008', '1010', '1013', '1016', '1017', '1018', '1019', '1021', '1024', '1026', '1028', '1029', '1030', '1035', '1036', '1037', '1041', '1042', '1044', '1045', '1046', '1047', '1050', '1051', '1053', '1056', '1057', '1059', '1060', '1061', '1062', '1063', '1064', '1066', '1070', '1071', '1072', '1073', '1075', '1077', '1079', '1080', '1083', '1084', '1088', '1089', '1091', '1092', '1093', '1097', '1098', '1100', '1101', '1102', '1106', '1110', '1111', '1113', '1114', '1115', '1118', '1119', '1120', '1121', '1124', '1126', '1128', '1132', '1133', '1136', '1137', '1139', '1141', '1142', '1146', '1148', '1151', '1153', '1154', '1156', '1157', '1158', '1159', '1160', '1162', '1165', '1168', '1169', '1173', '1174', '1176', '1177', '1179', '1183', '1185', '1186', '1187', '1188', '1190', '1191', '1193', '1195', '1197', '1198', '1199', '1202', '1204', '1205', '1206', '1209', '1210', '1212', '1213', '1215', '1223', '1224', '1225', '1228', '1230', '1231', '1235', '1238', '1239', '1240', '1241', '1242', '1243', '1245', '1246', '1247', '1248', '1249', '1251', '1252', '1253', '1254', '1255', '1256', '1262', '1263', '1264', '1275', '1280', '1281', '1282', '1283', '1284', '1289', '1290', '1295', '1300', '1303', '1305', '1308', '1309', '1312', '1315', '1317', '1319', '1320', '1322', '1323', '1325', '1326', '1327', '1328', '1330', '1334', '1338', '1344', '1347', '1349', '1350', '1352', '1357', '1358', '1359', '1360', '1361', '1362', '1363', '1364', '1367', '1368', '1370', '1371', '1372', '1373', '1375', '1377', '1381', '1385', '1386', '1387', '1389', '1390', '1391', '1393', '1394', '1395', '1396', '1399', '1400', '1402', '1403', '1405', '1406', '1409', '1410', '1414', '1415', '1418', '1419', '1421', '1423', '1424', '1426', '1427', '1428', '1429', '1432', '1433', '1434', '1435', '1436', '1438', '1439', '1441', '1442', '1445', '1446', '1449', '1450', '1451', '1452', '1453', '1454', '1455', '1457', '1458', '1461', '1464', '1466', '1468', '1469', '1470', '1472', '1474', '1476', '1481', '1483', '1485', '1487', '1489', '1490', '1491', '1492', '1493', '1495', '1501', '1503', '1508', '1510', '1511', '1513', '1518', '1520', '1522', '1523', '1524', '1526', '1527', '1528', '1529', '1531', '1532', '1533', '1540', '1541', '1542', '1545', '1546', '1551', '1556', '1558', '1559', '1560', '1561', '1564', '1565', '1566', '1567', '1568', '1572', '1573', '1574', '1580', '1581', '1582', '1583', '1584', '1585', '1586', '1587', '1589', '1592', '1593', '1594', '1595', '1597', '1598', '1599', '1604', '1606', '1610', '1611', '1618', '1625', '1628', '1629', '1630', '1631', '1634', '1636', '1637', '1638', '1639', '1642', '1645', '1649', '1651', '1653', '1654', '1656', '1657', '1658', '1659', '1669', '1670', '1679', '1681', '1682', '1684', '1686', '1688', '1702', '1703', '1704', '1705', '1706', '1708', '1709', '1710', '1713', '1715', '1719', '1720', '1721', '1724', '1728', '1730', '1731', '1732', '1733', '1734', '1738', '1739', '1741', '1743', '1744', '1745', '1746', '1749', '1755', '1757', '1760', '1762', '1763', '1770', '1774', '1775', '1776', '1777', '1779', '1780', '1786', '1789', '1791', '1792', '1794', '1796', '1797', '1800', '1801', '1803', '1804', '1806', '1808', '1809', '1810', '1811', '1813', '1816', '1817', '1818', '1820', '1821', '1822', '1825', '1828', '1829', '1831', '1832', '1834', '1835', '1837', '1838', '1840', '1841', '1847', '1849', '1853', '1854', '1856', '1857', '1858', '1861', '1863', '1867', '1874', '1875', '1880', '1883', '1885', '1887', '1889', '1891', '1893', '1894', '1897', '1903', '1906', '1907', '1908', '1911', '1914', '1918', '1921', '1922', '1925', '1927', '1928', '1930', '1932', '1933', '1934', '1936', '1938', '1939', '1940', '1941', '1945', '1947', '1948', '1949', '1951', '1952', '1953', '1954', '1957', '1958', '1960', '1963', '1967', '1968', '1970', '1971', '1972', '1975', '1976', '1977', '1979', '1980', '1982', '1984', '1985', '1986', '1988', '1991', '1992', '1994', '1995', '1997', '1998', '2000']",True,2000,True,2,df9e26b9ec,0.0,0.0,1.0
./expes/v2_2021-03-23_issda-30_2000-prng-1-w2-p2,30_issda-2000,2000,first-2000,1000,50,rng,num-start-1600,1600,25726,classic,1804.307647228241,True,,True,1.0,1.0,1.0,1,"['1', '2', '3', '4', '6', '7', '11', '13', '19', '21', '24', '26', '27', '28', '30', '34', '35', '36', '38', '39', '41', '42', '45', '46', '47', '49', '52', '53', '55', '56', '57', '58', '60', '61', '66', '68', '69', '70', '71', '74', '75', '76', '78', '81', '82', '86', '90', '93', '96', '97', '99', '100', '101', '104', '106', '107', '108', '110', '111', '115', '117', '118', '121', '124', '125', '126', '128', '129', '130', '131', '134', '136', '137', '138', '141', '146', '148', '155', '158', '160', '161', '162', '166', '168', '172', '173', '175', '178', '179', '180', '181', '183', '187', '188', '189', '193', '195', '196', '199', '202', '203', '205', '209', '213', '219', '221', '222', '224', '226', '227', '228', '231', '232', '236', '237', '238', '242', '243', '244', '248', '250', '251', '253', '256', '257', '259', '260', '265', '266', '267', '268', '269', '270', '271', '272', '273', '274', '276', '280', '282', '284', '285', '287', '289', '290', '291', '292', '293', '294', '295', '299', '301', '304', '305', '306', '307', '309', '310', '312', '315', '317', '320', '322', '326', '327', '328', '329', '331', '332', '335', '339', '340', '341', '343', '346', '347', '348', '351', '352', '354', '360', '361', '364', '365', '366', '368', '369', '370', '371', '372', '373', '375', '378', '379', '380', '382', '386', '392', '393', '397', '399', '401', '403', '404', '407', '408', '409', '410', '412', '413', '415', '419', '420', '424', '425', '426', '427', '428', '429', '434', '436', '437', '440', '441', '442', '444', '449', '452', '457', '459', '464', '468', '472', '473', '474', '479', '481', '482', '483', '486', '487', '488', '489', '490', '492', '493', '495', '499', '502', '503', '504', '505', '509', '510', '511', '513', '514', '515', '517', '521', '524', '525', '529', '533', '538', '540', '541', '543', '548', '549', '550', '555', '558', '561', '562', '563', '565', '568', '569', '571', '573', '574', '576', '577', '579', '580', '581', '582', '585', '586', '587', '588', '592', '593', '594', '595', '597', '600', '601', '602', '604', '605', '606', '607', '608', '612', '616', '617', '618', '620', '622', '626', '627', '628', '629', '630', '634', '635', '637', '639', '640', '641', '643', '645', '647', '648', '649', '650', '651', '654', '658', '659', '662', '663', '664', '665', '667', '668', '677', '678', '680', '683', '685', '689', '693', '694', '696', '697', '698', '700', '701', '705', '706', '708', '713', '714', '715', '716', '717', '718', '720', '721', '724', '726', '727', '728', '729', '731', '732', '733', '734', '735', '740', '741', '742', '743', '744', '745', '746', '747', '750', '751', '753', '756', '757', '761', '762', '764', '766', '767', '768', '770', '771', '772', '773', '775', '777', '778', '779', '780', '782', '783', '784', '785', '787', '788', '790', '791', '792', '797', '798', '799', '800', '803', '804', '805', '806', '811', '814', '817', '818', '821', '822', '825', '827', '828', '830', '831', '832', '835', '836', '837', '839', '840', '841', '847', '848', '850', '851', '854', '858', '859', '860', '862', '864', '867', '868', '872', '875', '876', '878', '879', '880', '882', '885', '887', '888', '890', '893', '897', '904', '905', '906', '909', '912', '914', '920', '922', '928', '929', '930', '934', '936', '945', '946', '947', '948', '949', '951', '953', '954', '958', '959', '961', '962', '963', '966', '967', '968', '970', '972', '973', '975', '976', '977', '978', '980', '982', '983', '984', '985', '986', '987', '988', '989', '990', '991', '995', '997', '1000', '1003', '1004', '1006', '1007', '1008', '1009', '1011', '1013', '1017', '1019', '1020', '1023', '1025', '1027', '1030', '1036', '1038', '1042', '1049', '1050', '1051', '1052', '1056', '1057', '1058', '1059', '1060', '1062', '1063', '1070', '1075', '1081', '1083', '1085', '1086', '1087', '1089', '1090', '1091', '1093', '1094', '1100', '1102', '1103', '1105', '1106', '1109', '1110', '1111', '1114', '1115', '1117', '1118', '1121', '1123', '1124', '1125', '1127', '1130', '1131', '1133', '1134', '1136', '1137', '1138', '1139', '1142', '1146', '1148', '1151', '1152', '1155', '1156', '1158', '1159', '1165', '1170', '1171', '1174', '1175', '1176', '1178', '1179', '1182', '1185', '1187', '1189', '1190', '1193', '1197', '1200', '1201', '1202', '1204', '1208', '1209', '1210', '1214', '1216', '1217', '1219', '1221', '1222', '1226', '1230', '1231', '1236', '1237', '1240', '1241', '1246', '1247', '1250', '1251', '1252', '1253', '1254', '1257', '1259', '1260', '1264', '1265', '1266', '1269', '1271', '1272', '1274', '1275', '1276', '1277', '1278', '1279', '1280', '1281', '1282', '1284', '1285', '1290', '1292', '1293', '1295', '1305', '1308', '1312', '1316', '1320', '1321', '1323', '1326', '1327', '1328', '1329', '1330', '1331', '1332', '1334', '1336', '1338', '1339', '1340', '1342', '1343', '1344', '1345', '1352', '1353', '1355', '1356', '1357', '1359', '1360', '1363', '1364', '1365', '1368', '1369', '1370', '1373', '1374', '1375', '1376', '1377', '1380', '1382', '1385', '1388', '1389', '1392', '1394', '1395', '1396', '1397', '1398', '1399', '1404', '1405', '1408', '1409', '1410', '1411', '1412', '1415', '1417', '1419', '1423', '1424', '1425', '1427', '1428', '1429', '1435', '1437', '1439', '1441', '1443', '1444', '1445', '1446', '1448', '1450', '1451', '1453', '1460', '1461', '1464', '1465', '1467', '1468', '1470', '1471', '1472', '1474', '1475', '1476', '1477', '1478', '1480', '1481', '1485', '1487', '1488', '1489', '1491', '1494', '1495', '1496', '1498', '1499', '1500', '1501', '1509', '1512', '1513', '1514', '1516', '1517', '1518', '1520', '1521', '1523', '1526', '1527', '1533', '1536', '1537', '1538', '1539', '1541', '1543', '1544', '1547', '1548', '1549', '1553', '1555', '1556', '1558', '1561', '1565', '1566', '1567', '1569', '1572', '1574', '1576', '1577', '1582', '1585', '1587', '1589', '1590', '1595', '1596', '1598', '1599', '1600', '1601', '1602', '1609', '1610', '1614', '1620', '1622', '1627', '1628', '1629', '1631', '1632', '1633', '1634', '1636', '1640', '1641', '1642', '1643', '1645', '1648', '1650', '1654', '1655', '1657', '1663', '1664', '1665', '1666', '1668', '1671', '1673', '1675', '1677', '1679', '1681', '1682', '1683', '1684', '1689', '1693', '1694', '1697', '1700', '1703', '1704', '1706', '1707', '1711', '1712', '1713', '1714', '1715', '1717', '1718', '1721', '1722', '1723', '1724', '1725', '1727', '1729', '1731', '1738', '1739', '1741', '1742', '1745', '1746', '1749', '1751', '1753', '1755', '1759', '1761', '1768', '1769', '1775', '1776', '1777', '1778', '1779', '1780', '1782', '1785', '1787', '1793', '1795', '1796', '1800', '1803', '1804', '1806', '1808', '1814', '1817', '1819', '1821', '1822', '1823', '1826', '1827', '1829', '1830', '1831', '1833', '1836', '1837', '1838', '1841', '1843', '1844', '1846', '1848', '1850', '1861', '1862', '1865', '1866', '1867', '1868', '1870', '1872', '1874', '1877', '1878', '1881', '1886', '1887', '1888', '1889', '1892', '1893', '1894', '1899', '1903', '1904', '1906', '1910', '1915', '1916', '1917', '1918', '1920', '1921', '1923', '1924', '1925', '1926', '1927', '1928', '1930', '1931', '1932', '1935', '1936', '1937', '1945', '1946', '1947', '1948', '1949', '1950', '1951', '1953', '1955', '1956', '1957', '1959', '1960', '1961', '1963', '1966', '1967', '1968', '1969', '1970', '1973', '1976', '1977', '1980', '1982', '1983', '1984', '1985', '1986', '1990', '1992', '1993', '1994', '1997', '1998', '1999', '2000']",False,2000,True,2,0a09d82197,0.0,1.0,1.0
./expes/v2_2021-03-23_issda-30_2000-prng-1-w2-p2,30_issda-2000,2000,first-2000,1000,50,rng,num-start-800,800,25726,classic,2109.063198328018,False,,False,0,,,0,"['4', '7', '8', '9', '10', '11', '13', '18', '19', '22', '24', '26', '33', '36', '37', '38', '40', '41', '44', '49', '50', '51', '52', '57', '58', '60', '61', '63', '64', '65', '66', '69', '70', '73', '74', '75', '77', '79', '81', '84', '86', '89', '94', '95', '96', '97', '98', '100', '101', '102', '105', '109', '110', '111', '113', '116', '117', '120', '121', '123', '124', '126', '127', '130', '133', '135', '137', '139', '144', '145', '146', '148', '149', '150', '151', '152', '155', '157', '158', '159', '164', '165', '167', '169', '170', '173', '174', '177', '178', '180', '183', '186', '188', '189', '191', '192', '193', '194', '195', '197', '201', '204', '205', '206', '207', '208', '209', '210', '213', '214', '216', '218', '222', '228', '230', '232', '236', '238', '239', '243', '245', '250', '252', '261', '262', '263', '264', '265', '268', '270', '271', '272', '274', '275', '277', '278', '280', '282', '283', '284', '286', '287', '288', '290', '291', '292', '295', '296', '297', '301', '307', '309', '310', '311', '315', '320', '321', '322', '323', '325', '326', '329', '331', '333', '334', '337', '341', '343', '347', '348', '350', '353', '354', '355', '356', '358', '359', '361', '362', '364', '370', '372', '373', '377', '380', '382', '385', '389', '391', '392', '393', '394', '399', '402', '406', '407', '409', '412', '414', '416', '419', '420', '423', '425', '426', '427', '428', '431', '432', '434', '435', '436', '437', '438', '440', '441', '442', '443', '444', '446', '449', '452', '453', '455', '456', '459', '460', '461', '462', '465', '466', '467', '468', '470', '473', '474', '475', '476', '477', '478', '481', '484', '485', '487', '488', '489', '492', '493', '494', '495', '502', '505', '506', '508', '510', '511', '512', '513', '514', '515', '516', '519', '520', '521', '522', '523', '524', '525', '526', '527', '529', '531', '532', '536', '537', '538', '541', '545', '547', '550', '551', '557', '558', '559', '560', '562', '568', '569', '571', '572', '573', '574', '575', '579', '583', '584', '586', '588', '594', '596', '598', '604', '605', '607', '608', '610', '613', '620', '622', '623', '627', '631', '632', '634', '635', '636', '639', '640', '641', '642', '643', '645', '648', '649', '653', '654', '657', '658', '659', '665', '666', '669', '672', '674', '675', '678', '679', '683', '684', '686', '689', '690', '691', '692', '693', '698', '699', '700', '701', '702', '703', '705', '707', '709', '712', '718', '719', '725', '730', '733', '735', '736', '737', '738', '739', '740', '742', '743', '746', '747', '750', '751', '753', '757', '761', '762', '763', '764', '765', '766', '768', '770', '773', '775', '777', '779', '782', '784', '785', '788', '790', '791', '794', '799', '800', '801', '802', '803', '804', '805', '806', '807', '809', '810', '816', '819', '820', '822', '823', '825', '826', '828', '829', '830', '833', '834', '838', '842', '844', '845', '846', '850', '851', '854', '857', '858', '859', '860', '861', '862', '867', '868', '872', '876', '881', '882', '883', '889', '890', '894', '896', '899', '903', '904', '906', '907', '909', '911', '912', '913', '916', '917', '918', '919', '925', '928', '929', '930', '931', '932', '933', '934', '936', '937', '938', '941', '943', '945', '949', '951', '952', '953', '954', '955', '956', '957', '958', '961', '962', '964', '966', '968', '969', '970', '971', '973', '974', '976', '977', '979', '981', '983', '987', '988', '989', '991', '992', '994', '995', '996', '997', '998', '1001', '1002', '1004', '1005', '1008', '1010', '1015', '1016', '1020', '1021', '1023', '1025', '1026', '1029', '1030', '1033', '1034', '1039', '1040', '1041', '1042', '1043', '1045', '1046', '1047', '1048', '1049', '1052', '1053', '1054', '1055', '1056', '1058', '1061', '1062', '1064', '1065', '1067', '1070', '1071', '1072', '1073', '1074', '1075', '1076', '1077', '1078', '1081', '1083', '1087', '1090', '1091', '1092', '1093', '1097', '1102', '1103', '1104', '1106', '1107', '1108', '1109', '1111', '1112', '1114', '1115', '1116', '1117', '1119', '1121', '1122', '1124', '1128', '1130', '1140', '1142', '1143', '1145', '1147', '1148', '1150', '1152', '1156', '1157', '1160', '1163', '1166', '1171', '1175', '1177', '1180', '1182', '1188', '1189', '1190', '1191', '1198', '1200', '1201', '1205', '1206', '1208', '1211', '1212', '1216', '1218', '1219', '1222', '1224', '1225', '1233', '1235', '1240', '1241', '1242', '1243', '1251', '1253', '1254', '1255', '1257', '1260', '1261', '1262', '1263', '1267', '1269', '1273', '1274', '1275', '1276', '1277', '1278', '1279', '1281', '1283', '1285', '1286', '1288', '1290', '1295', '1297', '1298', '1301', '1303', '1304', '1305', '1306', '1307', '1308', '1310', '1313', '1314', '1315', '1317', '1320', '1322', '1324', '1327', '1328', '1329', '1330', '1332', '1335', '1338', '1339', '1340', '1342', '1349', '1350', '1351', '1353', '1354', '1356', '1359', '1361', '1362', '1364', '1366', '1368', '1370', '1371', '1372', '1373', '1374', '1378', '1382', '1383', '1384', '1386', '1390', '1391', '1393', '1394', '1395', '1396', '1397', '1398', '1402', '1403', '1404', '1407', '1408', '1412', '1413', '1414', '1417', '1419', '1420', '1422', '1425', '1432', '1433', '1436', '1439', '1440', '1441', '1442', '1443', '1444', '1445', '1446', '1447', '1449', '1451', '1454', '1456', '1457', '1458', '1460', '1461', '1462', '1463', '1465', '1466', '1467', '1468', '1469', '1470', '1472', '1473', '1474', '1475', '1476', '1477', '1479', '1481', '1482', '1483', '1484', '1487', '1491', '1492', '1493', '1494', '1497', '1498', '1500', '1504', '1505', '1508', '1509', '1513', '1516', '1521', '1525', '1526', '1528', '1532', '1535', '1537', '1538', '1539', '1540', '1541', '1544', '1545', '1546', '1547', '1548', '1556', '1557', '1558', '1560', '1561', '1563', '1566', '1568', '1569', '1570', '1571', '1573', '1574', '1580', '1582', '1584', '1588', '1592', '1595', '1600', '1603', '1604', '1606', '1607', '1611', '1613', '1615', '1616', '1618', '1622', '1623', '1627', '1629', '1630', '1631', '1632', '1634', '1635', '1636', '1637', '1639', '1641', '1642', '1644', '1646', '1647', '1648', '1651', '1652', '1656', '1657', '1659', '1662', '1664', '1666', '1668', '1669', '1670', '1671', '1672', '1675', '1677', '1679', '1680', '1681', '1684', '1685', '1686', '1687', '1688', '1689', '1690', '1691', '1703', '1707', '1708', '1711', '1712', '1713', '1714', '1715', '1716', '1718', '1722', '1732', '1734', '1738', '1739', '1741', '1743', '1746', '1749', '1754', '1755', '1758', '1759', '1760', '1762', '1764', '1766', '1767', '1768', '1770', '1774', '1779', '1781', '1783', '1784', '1785', '1791', '1792', '1794', '1796', '1798', '1799', '1800', '1804', '1805', '1806', '1807', '1809', '1811', '1812', '1813', '1815', '1818', '1819', '1822', '1827', '1831', '1833', '1834', '1840', '1841', '1842', '1843', '1845', '1846', '1848', '1849', '1850', '1852', '1855', '1857', '1859', '1860', '1861', '1865', '1867', '1868', '1873', '1874', '1875', '1876', '1877', '1878', '1880', '1882', '1885', '1886', '1887', '1888', '1889', '1890', '1892', '1895', '1897', '1903', '1904', '1909', '1910', '1914', '1915', '1916', '1917', '1919', '1920', '1922', '1923', '1926', '1927', '1930', '1931', '1932', '1933', '1934', '1935', '1937', '1941', '1942', '1943', '1944', '1945', '1946', '1955', '1956', '1958', '1961', '1962', '1964', '1965', '1966', '1968', '1969', '1970', '1971', '1973', '1976', '1980', '1981', '1983', '1985', '1986', '1988', '1989', '1990', '1992', '1995']",True,2000,True,2,796de3bc1c,0.0,0.0,0.0
./expes/v2_2021-03-23_issda-30_2000-prng-1-w2-p2,30_issda-2000,2000,first-2000,700,35,rng,num-start-3000,3000,25726,classic,2420.2953736782074,True,,False,1.0,1.0,1.0,1,"['4', '8', '10', '11', '15', '16', '24', '27', '32', '37', '41', '42', '44', '46', '48', '49', '53', '56', '57', '58', '59', '61', '64', '65', '67', '68', '70', '72', '73', '74', '75', '76', '87', '88', '89', '91', '93', '94', '95', '102', '103', '105', '109', '110', '113', '124', '125', '126', '130', '132', '135', '137', '140', '141', '142', '147', '149', '157', '158', '159', '160', '164', '171', '176', '177', '182', '187', '189', '190', '197', '199', '200', '204', '205', '209', '211', '212', '214', '215', '219', '222', '223', '231', '233', '236', '242', '244', '245', '246', '248', '249', '251', '253', '254', '255', '256', '257', '260', '262', '264', '266', '267', '268', '270', '273', '275', '279', '280', '282', '284', '294', '295', '301', '306', '309', '311', '320', '322', '327', '329', '333', '335', '347', '348', '351', '352', '353', '364', '366', '367', '369', '370', '376', '380', '382', '384', '389', '391', '392', '393', '405', '407', '408', '409', '411', '422', '431', '433', '445', '446', '447', '448', '453', '455', '456', '460', '461', '466', '471', '475', '476', '480', '481', '482', '484', '487', '488', '489', '490', '491', '496', '501', '502', '509', '512', '514', '515', '518', '521', '523', '529', '530', '532', '537', '540', '541', '542', '543', '547', '548', '550', '551', '552', '554', '555', '556', '561', '563', '571', '572', '573', '583', '584', '588', '592', '595', '598', '602', '606', '612', '614', '615', '616', '617', '621', '623', '630', '635', '641', '642', '643', '645', '646', '647', '653', '656', '660', '662', '665', '667', '669', '672', '674', '678', '679', '681', '684', '686', '690', '695', '696', '697', '699', '700', '705', '708', '710', '718', '719', '720', '721', '723', '731', '738', '739', '746', '749', '753', '755', '757', '758', '763', '765', '767', '769', '770', '771', '772', '773', '774', '778', '779', '784', '791', '794', '797', '798', '799', '801', '807', '809', '813', '814', '820', '822', '835', '836', '839', '841', '846', '847', '848', '851', '854', '857', '860', '862', '863', '867', '871', '873', '875', '878', '881', '884', '886', '890', '892', '894', '896', '898', '908', '911', '924', '927', '931', '935', '936', '943', '944', '951', '952', '955', '958', '959', '961', '964', '969', '970', '971', '976', '978', '982', '983', '986', '987', '988', '989', '991', '996', '999', '1003', '1004', '1014', '1017', '1020', '1025', '1029', '1031', '1036', '1039', '1045', '1048', '1050', '1056', '1060', '1062', '1063', '1065', '1066', '1068', '1072', '1076', '1080', '1081', '1084', '1085', '1086', '1090', '1094', '1095', '1097', '1098', '1100', '1102', '1108', '1109', '1110', '1114', '1115', '1124', '1126', '1127', '1129', '1134', '1136', '1138', '1140', '1141', '1145', '1146', '1155', '1156', '1161', '1164', '1165', '1166', '1168', '1170', '1172', '1175', '1176', '1178', '1182', '1186', '1188', '1189', '1190', '1197', '1198', '1199', '1200', '1201', '1202', '1204', '1206', '1207', '1208', '1209', '1211', '1214', '1219', '1220', '1227', '1228', '1229', '1231', '1232', '1237', '1238', '1240', '1241', '1247', '1251', '1254', '1259', '1262', '1266', '1269', '1271', '1274', '1276', '1282', '1284', '1285', '1286', '1287', '1288', '1295', '1297', '1298', '1299', '1300', '1301', '1304', '1309', '1315', '1317', '1319', '1320', '1323', '1325', '1328', '1331', '1332', '1337', '1339', '1343', '1351', '1357', '1358', '1363', '1368', '1375', '1376', '1377', '1380', '1381', '1383', '1384', '1385', '1389', '1390', '1392', '1395', '1397', '1401', '1405', '1413', '1415', '1416', '1421', '1422', '1424', '1425', '1427', '1429', '1430', '1431', '1434', '1436', '1437', '1440', '1444', '1445', '1448', '1460', '1462', '1463', '1465', '1466', '1467', '1468', '1469', '1470', '1472', '1473', '1476', '1477', '1481', '1492', '1493', '1499', '1503', '1504', '1506', '1512', '1519', '1520', '1521', '1527', '1531', '1532', '1533', '1534', '1541', '1543', '1544', '1549', '1550', '1551', '1553', '1557', '1560', '1572', '1575', '1582', '1586', '1588', '1589', '1591', '1592', '1596', '1597', '1598', '1603', '1604', '1612', '1613', '1615', '1620', '1622', '1623', '1626', '1629', '1636', '1637', '1640', '1641', '1645', '1647', '1651', '1652', '1653', '1654', '1659', '1660', '1662', '1663', '1666', '1673', '1679', '1683', '1687', '1696', '1704', '1706', '1707', '1708', '1710', '1713', '1714', '1716', '1718', '1724', '1728', '1729', '1741', '1744', '1746', '1749', '1750', '1752', '1753', '1754', '1755', '1756', '1758', '1759', '1763', '1764', '1765', '1767', '1769', '1770', '1772', '1773', '1776', '1778', '1781', '1782', '1783', '1788', '1800', '1802', '1803', '1804', '1805', '1807', '1810', '1813', '1816', '1817', '1818', '1822', '1823', '1824', '1825', '1837', '1838', '1839', '1843', '1847', '1851', '1852', '1853', '1862', '1866', '1870', '1872', '1876', '1878', '1879', '1885', '1886', '1887', '1888', '1889', '1893', '1897', '1900', '1903', '1904', '1913', '1914', '1915', '1917', '1918', '1923', '1924', '1927', '1928', '1931', '1932', '1941', '1944', '1946', '1947', '1948', '1951', '1953', '1956', '1957', '1961', '1962', '1964', '1967', '1968', '1973', '1975', '1976', '1978', '1980', '1981', '1985', '1989', '1990', '1991', '1993', '1997']",True,2000,True,2,3dca797e5e,0.0,0.0,1.0
./expes/v2_2021-03-23_issda-30_2000-prng-1-w2-p2,30_issda-2000,2000,first-2000,400,20,rng,num-start-600,600,25726,classic,2086.36461520195,False,,False,0,,,0,"['4', '5', '12', '18', '19', '26', '30', '35', '36', '37', '38', '43', '45', '46', '49', '53', '58', '59', '60', '61', '63', '67', '71', '73', '77', '78', '83', '90', '98', '115', '121', '130', '134', '143', '145', '157', '171', '174', '178', '188', '193', '198', '203', '205', '210', '214', '222', '223', '225', '234', '242', '248', '258', '265', '268', '273', '276', '277', '300', '322', '325', '327', '329', '336', '342', '343', '345', '346', '348', '349', '352', '355', '363', '371', '379', '381', '386', '389', '398', '409', '410', '411', '412', '421', '422', '429', '430', '435', '437', '444', '446', '449', '452', '455', '458', '462', '465', '469', '471', '473', '476', '478', '481', '498', '512', '517', '520', '523', '530', '546', '551', '552', '559', '576', '577', '582', '594', '595', '604', '607', '608', '611', '612', '622', '628', '632', '636', '639', '651', '658', '660', '667', '672', '679', '682', '695', '704', '705', '706', '708', '709', '711', '724', '731', '747', '752', '759', '768', '775', '777', '778', '781', '786', '792', '799', '806', '807', '809', '814', '824', '828', '829', '847', '849', '853', '863', '865', '873', '874', '880', '885', '887', '897', '899', '913', '921', '924', '928', '932', '939', '941', '942', '944', '962', '968', '971', '984', '986', '993', '994', '1000', '1003', '1009', '1015', '1016', '1017', '1023', '1024', '1026', '1029', '1033', '1034', '1035', '1037', '1040', '1042', '1043', '1045', '1050', '1053', '1058', '1063', '1067', '1073', '1081', '1091', '1095', '1103', '1106', '1107', '1109', '1116', '1122', '1123', '1124', '1128', '1129', '1133', '1136', '1140', '1149', '1150', '1154', '1157', '1166', '1168', '1175', '1180', '1184', '1185', '1197', '1204', '1207', '1210', '1211', '1212', '1215', '1229', '1241', '1245', '1248', '1254', '1255', '1260', '1276', '1277', '1280', '1289', '1292', '1293', '1302', '1316', '1326', '1328', '1329', '1331', '1335', '1345', '1351', '1352', '1360', '1362', '1364', '1373', '1379', '1381', '1382', '1383', '1387', '1389', '1406', '1408', '1424', '1426', '1439', '1440', '1441', '1442', '1444', '1457', '1458', '1473', '1478', '1483', '1486', '1487', '1494', '1496', '1501', '1511', '1512', '1517', '1522', '1524', '1545', '1548', '1559', '1562', '1565', '1572', '1573', '1579', '1589', '1593', '1595', '1598', '1603', '1605', '1611', '1616', '1631', '1633', '1634', '1636', '1643', '1644', '1646', '1648', '1658', '1662', '1666', '1673', '1674', '1679', '1681', '1696', '1700', '1705', '1712', '1716', '1721', '1724', '1734', '1736', '1738', '1742', '1744', '1748', '1756', '1757', '1759', '1762', '1764', '1778', '1782', '1786', '1794', '1800', '1805', '1808', '1815', '1830', '1835', '1837', '1843', '1845', '1847', '1864', '1865', '1873', '1877', '1879', '1885', '1889', '1898', '1907', '1910', '1918', '1921', '1922', '1924', '1927', '1928', '1933', '1936', '1946', '1950', '1951', '1956', '1961', '1966', '1971', '1978', '1981', '1983', '1985', '1994', '1995', '1998', '1999']",True,2000,True,2,06967fdb86,0.0,0.0,0.0
./expes/v2_2021-03-23_issda-30_2000-prng-1-w2-p2,30_issda-2000,2000,first-2000,400,20,rng,num-start-3200,3200,25726,classic,2423.134068965912,True,,False,1.0,1.0,1.0,1,"['1', '10', '13', '26', '31', '35', '38', '42', '45', '59', '62', '63', '64', '66', '67', '70', '76', '78', '93', '94', '107', '111', '117', '128', '131', '142', '152', '154', '156', '157', '159', '166', '172', '176', '181', '183', '184', '191', '193', '197', '200', '206', '216', '230', '234', '240', '245', '253', '258', '260', '261', '263', '278', '281', '283', '292', '296', '297', '299', '308', '310', '317', '323', '324', '330', '334', '335', '347', '353', '355', '374', '377', '380', '381', '385', '387', '394', '395', '396', '397', '402', '404', '406', '408', '412', '429', '430', '454', '457', '476', '489', '493', '499', '502', '503', '512', '513', '515', '522', '525', '536', '544', '545', '549', '552', '559', '562', '565', '567', '574', '577', '586', '593', '596', '597', '598', '622', '624', '627', '640', '649', '652', '655', '656', '663', '675', '682', '688', '689', '704', '718', '732', '738', '739', '740', '741', '742', '745', '751', '759', '760', '761', '765', '768', '771', '773', '774', '778', '779', '796', '798', '815', '816', '819', '838', '840', '841', '848', '859', '864', '865', '867', '870', '874', '881', '883', '887', '901', '903', '904', '910', '912', '914', '916', '921', '925', '926', '948', '951', '957', '961', '964', '965', '969', '973', '978', '979', '981', '982', '991', '994', '995', '997', '999', '1000', '1001', '1002', '1007', '1008', '1013', '1018', '1019', '1024', '1025', '1029', '1030', '1032', '1039', '1055', '1059', '1066', '1070', '1075', '1076', '1077', '1081', '1097', '1102', '1103', '1105', '1121', '1130', '1134', '1143', '1144', '1147', '1149', '1154', '1156', '1165', '1167', '1173', '1176', '1180', '1187', '1202', '1206', '1207', '1208', '1217', '1224', '1233', '1234', '1236', '1239', '1243', '1246', '1250', '1254', '1257', '1263', '1266', '1267', '1269', '1271', '1278', '1282', '1287', '1289', '1293', '1298', '1300', '1301', '1306', '1308', '1310', '1321', '1323', '1324', '1328', '1340', '1343', '1345', '1351', '1358', '1369', '1373', '1375', '1385', '1390', '1391', '1394', '1395', '1397', '1405', '1415', '1421', '1423', '1425', '1430', '1433', '1436', '1437', '1446', '1451', '1460', '1462', '1463', '1465', '1472', '1473', '1478', '1480', '1483', '1493', '1494', '1495', '1499', '1505', '1514', '1516', '1522', '1527', '1529', '1539', '1548', '1551', '1556', '1562', '1568', '1578', '1585', '1594', '1595', '1603', '1606', '1611', '1621', '1625', '1631', '1632', '1639', '1643', '1646', '1649', '1650', '1651', '1652', '1667', '1672', '1673', '1676', '1684', '1696', '1703', '1706', '1709', '1718', '1730', '1741', '1748', '1758', '1773', '1783', '1787', '1795', '1801', '1803', '1813', '1822', '1828', '1830', '1843', '1849', '1853', '1860', '1862', '1863', '1865', '1867', '1870', '1871', '1877', '1883', '1889', '1891', '1893', '1899', '1900', '1911', '1914', '1919', '1922', '1925', '1927', '1933', '1936', '1941', '1946', '1949', '1950', '1971', '1976', '1977', '1978', '1979', '1987', '1989', '1997', '2000']",True,2000,True,2,3409ca30a7,0.0,0.0,1.0
./expes/v2_2021-03-23_issda-30_2000-prng-1-w2-p2,30_issda-2000,2000,first-2000,200,10,rng,num-start-200,200,25726,classic,2026.6177275180817,False,,False,0,,,0,"['5', '7', '30', '62', '80', '88', '89', '142', '146', '151', '174', '190', '230', '241', '249', '259', '260', '267', '268', '269', '277', '281', '286', '291', '301', '302', '328', '337', '343', '362', '368', '374', '381', '384', '396', '399', '415', '416', '434', '439', '461', '462', '473', '480', '483', '487', '515', '519', '520', '526', '531', '537', '538', '539', '551', '565', '574', '596', '601', '604', '605', '618', '637', '643', '700', '703', '709', '719', '729', '730', '736', '746', '751', '761', '768', '799', '811', '836', '847', '869', '879', '880', '881', '882', '884', '895', '901', '902', '909', '912', '919', '924', '941', '950', '997', '1006', '1017', '1020', '1066', '1071', '1079', '1089', '1098', '1113', '1126', '1127', '1136', '1138', '1140', '1156', '1158', '1168', '1183', '1190', '1195', '1211', '1218', '1219', '1236', '1241', '1247', '1252', '1265', '1289', '1292', '1298', '1308', '1309', '1313', '1318', '1322', '1334', '1336', '1342', '1346', '1365', '1374', '1387', '1401', '1402', '1404', '1416', '1424', '1430', '1437', '1438', '1442', '1445', '1468', '1473', '1481', '1491', '1493', '1502', '1504', '1508', '1526', '1533', '1547', '1557', '1613', '1626', '1627', '1635', '1643', '1645', '1651', '1653', '1659', '1679', '1691', '1693', '1709', '1716', '1717', '1733', '1740', '1741', '1749', '1765', '1777', '1779', '1781', '1785', '1797', '1815', '1816', '1820', '1822', '1823', '1840', '1845', '1847', '1857', '1863', '1911', '1945', '1954', '1989', '1990']",True,2000,True,2,3f44e4ba68,0.0,0.0,0.0
./expes/v2_2021-03-23_issda-30_2000-prng-1-w2-p2,30_issda-2000,2000,first-2000,100,5,rng,num-start-1600,1600,25726,classic,677.1526429653168,True,,True,1.0,1.0,1.0,1,"['3', '29', '83', '128', '129', '152', '192', '195', '203', '207', '286', '287', '292', '301', '392', '419', '448', '455', '489', '500', '514', '531', '534', '578', '622', '636', '648', '667', '677', '683', '725', '734', '789', '817', '830', '862', '890', '907', '918', '967', '977', '996', '1011', '1034', '1048', '1068', '1091', '1113', '1124', '1132', '1147', '1163', '1195', '1233', '1252', '1254', '1267', '1281', '1312', '1369', '1401', '1442', '1445', '1455', '1474', '1495', '1496', '1548', '1553', '1606', '1608', '1638', '1645', '1646', '1649', '1660', '1690', '1696', '1700', '1721', '1730', '1742', '1773', '1777', '1783', '1824', '1827', '1841', '1848', '1860', '1864', '1870', '1876', '1879', '1881', '1882', '1978', '1980', '1982', '1983']",False,2000,True,2,f219ef9213,0.0,1.0,1.0
./expes/v2_2021-03-23_issda-30_2000-prng-1-w2-p2,30_issda-2000,2000,first-2000,200,10,rng,num-start-3000,3000,25726,classic,2410.5300209522247,True,,False,1.0,1.0,1.0,1,"['5', '7', '30', '62', '80', '88', '89', '142', '146', '151', '174', '190', '230', '241', '249', '259', '260', '267', '268', '269', '277', '281', '286', '291', '301', '302', '328', '337', '343', '362', '368', '374', '381', '384', '396', '399', '415', '416', '434', '439', '461', '462', '473', '480', '483', '487', '515', '519', '520', '526', '531', '537', '538', '539', '551', '565', '574', '596', '601', '604', '605', '618', '637', '643', '700', '703', '709', '719', '729', '730', '736', '746', '751', '761', '768', '799', '811', '836', '847', '869', '879', '880', '881', '882', '884', '895', '901', '902', '909', '912', '919', '924', '941', '950', '997', '1006', '1017', '1020', '1066', '1071', '1079', '1089', '1098', '1113', '1126', '1127', '1136', '1138', '1140', '1156', '1158', '1168', '1183', '1190', '1195', '1211', '1218', '1219', '1236', '1241', '1247', '1252', '1265', '1289', '1292', '1298', '1308', '1309', '1313', '1318', '1322', '1334', '1336', '1342', '1346', '1365', '1374', '1387', '1401', '1402', '1404', '1416', '1424', '1430', '1437', '1438', '1442', '1445', '1468', '1473', '1481', '1491', '1493', '1502', '1504', '1508', '1526', '1533', '1547', '1557', '1613', '1626', '1627', '1635', '1643', '1645', '1651', '1653', '1659', '1679', '1691', '1693', '1709', '1716', '1717', '1733', '1740', '1741', '1749', '1765', '1777', '1779', '1781', '1785', '1797', '1815', '1816', '1820', '1822', '1823', '1840', '1845', '1847', '1857', '1863', '1911', '1945', '1954', '1989', '1990']",True,2000,True,2,530d383f67,0.0,0.0,1.0
./expes/v2_2021-03-23_issda-30_2000-prng-1-w2-p2,30_issda-2000,2000,first-2000,100,5,rng,num-start-3400,3400,25726,classic,1070.0840408802032,True,,True,1.0,1.0,1.0,1,"['3', '29', '83', '128', '129', '152', '192', '195', '203', '207', '286', '287', '292', '301', '392', '419', '448', '455', '489', '500', '514', '531', '534', '578', '622', '636', '648', '667', '677', '683', '725', '734', '789', '817', '830', '862', '890', '907', '918', '967', '977', '996', '1011', '1034', '1048', '1068', '1091', '1113', '1124', '1132', '1147', '1163', '1195', '1233', '1252', '1254', '1267', '1281', '1312', '1369', '1401', '1442', '1445', '1455', '1474', '1495', '1496', '1548', '1553', '1606', '1608', '1638', '1645', '1646', '1649', '1660', '1690', '1696', '1700', '1721', '1730', '1742', '1773', '1777', '1783', '1824', '1827', '1841', '1848', '1860', '1864', '1870', '1876', '1879', '1881', '1882', '1978', '1980', '1982', '1983']",False,2000,True,2,6a350eccff,0.0,1.0,1.0
./expes/v2_2021-03-23_issda-30_2000-prng-1-w2-p2,30_issda-2000,2000,first-2000,200,10,rng,num-start-3800,3800,25726,classic,2528.7676231861115,True,,False,1.0,1.0,1.0,1,"['9', '25', '47', '77', '81', '96', '99', '102', '119', '121', '122', '123', '125', '127', '129', '134', '141', '144', '149', '150', '159', '166', '168', '170', '177', '186', '192', '193', '200', '212', '240', '242', '254', '265', '273', '281', '296', '309', '310', '312', '338', '341', '345', '361', '369', '371', '374', '385', '422', '440', '447', '453', '458', '473', '476', '478', '493', '500', '508', '509', '539', '553', '570', '571', '578', '583', '589', '590', '594', '614', '615', '632', '635', '643', '644', '664', '697', '701', '704', '711', '718', '728', '735', '741', '749', '763', '780', '791', '801', '809', '813', '815', '823', '851', '857', '859', '864', '870', '876', '882', '889', '913', '920', '929', '935', '946', '954', '971', '994', '1002', '1012', '1014', '1017', '1018', '1040', '1049', '1076', '1089', '1098', '1108', '1122', '1126', '1127', '1129', '1141', '1143', '1148', '1156', '1159', '1170', '1174', '1177', '1182', '1184', '1188', '1192', '1194', '1200', '1207', '1218', '1248', '1252', '1268', '1285', '1292', '1309', '1326', '1334', '1349', '1361', '1369', '1370', '1394', '1396', '1397', '1399', '1424', '1428', '1432', '1437', '1447', '1459', '1468', '1494', '1498', '1513', '1551', '1566', '1574', '1592', '1598', '1617', '1627', '1633', '1672', '1676', '1678', '1682', '1684', '1694', '1703', '1721', '1759', '1770', '1785', '1793', '1810', '1811', '1817', '1864', '1878', '1892', '1912', '1927', '1935', '1941', '1942', '1962', '1971', '2000']",True,2000,True,2,a6be6fada6,0.0,0.0,1.0
./expes/v2_2021-03-23_issda-30_2000-prng-1-w2-p2,30_issda-2000,2000,first-2000,700,35,rng,num-start-3200,3200,25726,classic,2425.285526037216,True,,False,1.0,1.0,1.0,1,"['2', '7', '8', '11', '12', '14', '15', '17', '18', '20', '21', '23', '24', '25', '27', '29', '31', '32', '36', '38', '40', '42', '46', '49', '53', '54', '56', '58', '59', '60', '61', '62', '68', '70', '71', '74', '80', '84', '85', '86', '87', '89', '97', '100', '102', '104', '105', '106', '108', '109', '111', '113', '116', '119', '121', '124', '125', '130', '132', '133', '135', '136', '137', '141', '142', '147', '153', '155', '156', '157', '161', '166', '167', '170', '171', '172', '173', '174', '176', '178', '180', '182', '183', '188', '189', '192', '194', '197', '198', '203', '204', '205', '209', '212', '213', '218', '223', '226', '227', '228', '229', '230', '242', '246', '247', '249', '253', '263', '266', '271', '272', '273', '276', '277', '282', '283', '284', '285', '288', '289', '292', '295', '298', '301', '304', '305', '306', '312', '322', '329', '332', '333', '335', '337', '341', '345', '347', '350', '351', '352', '354', '355', '361', '365', '367', '371', '372', '374', '382', '383', '387', '388', '391', '394', '405', '406', '408', '409', '411', '414', '416', '420', '421', '423', '428', '430', '431', '432', '433', '438', '444', '452', '453', '455', '456', '457', '459', '460', '462', '466', '473', '474', '476', '484', '485', '488', '498', '499', '503', '507', '509', '515', '519', '520', '522', '526', '530', '531', '533', '535', '538', '539', '547', '548', '550', '553', '557', '559', '562', '564', '567', '569', '571', '576', '581', '583', '584', '585', '595', '597', '603', '605', '607', '610', '615', '616', '617', '620', '627', '630', '633', '636', '638', '644', '645', '646', '651', '657', '659', '662', '663', '666', '673', '674', '675', '677', '678', '684', '685', '687', '688', '692', '693', '694', '698', '700', '706', '709', '711', '712', '714', '715', '724', '727', '732', '736', '747', '749', '750', '757', '758', '761', '763', '764', '765', '766', '776', '777', '782', '785', '786', '789', '791', '796', '797', '798', '810', '811', '813', '816', '817', '818', '822', '824', '825', '826', '827', '832', '833', '840', '843', '850', '853', '854', '855', '861', '864', '866', '867', '870', '871', '875', '878', '881', '888', '893', '896', '900', '901', '910', '916', '920', '923', '925', '926', '929', '930', '934', '936', '940', '946', '949', '950', '951', '952', '956', '958', '962', '964', '971', '973', '974', '980', '981', '985', '987', '988', '1004', '1007', '1008', '1013', '1016', '1017', '1018', '1019', '1021', '1026', '1028', '1029', '1030', '1035', '1037', '1042', '1044', '1045', '1050', '1053', '1056', '1059', '1060', '1061', '1064', '1066', '1070', '1071', '1072', '1073', '1077', '1080', '1083', '1084', '1088', '1093', '1097', '1100', '1101', '1102', '1106', '1110', '1111', '1113', '1114', '1115', '1118', '1121', '1124', '1132', '1133', '1136', '1137', '1139', '1146', '1148', '1151', '1154', '1158', '1160', '1162', '1165', '1169', '1174', '1176', '1177', '1179', '1185', '1186', '1188', '1190', '1191', '1197', '1199', '1202', '1204', '1205', '1206', '1209', '1210', '1212', '1215', '1223', '1224', '1228', '1231', '1235', '1238', '1239', '1240', '1242', '1243', '1245', '1246', '1247', '1248', '1251', '1252', '1253', '1255', '1256', '1263', '1264', '1275', '1280', '1281', '1284', '1290', '1295', '1300', '1303', '1305', '1308', '1309', '1315', '1317', '1322', '1325', '1327', '1330', '1334', '1347', '1350', '1357', '1359', '1364', '1367', '1368', '1370', '1371', '1372', '1373', '1375', '1381', '1386', '1387', '1389', '1390', '1391', '1393', '1394', '1396', '1399', '1400', '1402', '1405', '1409', '1410', '1414', '1419', '1421', '1423', '1426', '1428', '1433', '1434', '1436', '1441', '1442', '1445', '1449', '1452', '1453', '1457', '1458', '1466', '1468', '1469', '1474', '1476', '1485', '1487', '1489', '1490', '1492', '1495', '1503', '1508', '1510', '1511', '1513', '1518', '1520', '1523', '1527', '1528', '1529', '1531', '1532', '1533', '1542', '1546', '1551', '1558', '1559', '1560', '1561', '1564', '1565', '1566', '1567', '1572', '1580', '1581', '1582', '1583', '1585', '1586', '1587', '1589', '1592', '1593', '1595', '1597', '1598', '1599', '1604', '1606', '1611', '1618', '1625', '1628', '1629', '1631', '1636', '1637', '1638', '1639', '1645', '1654', '1656', '1658', '1659', '1669', '1681', '1684', '1686', '1688', '1703', '1705', '1706', '1708', '1713', '1715', '1719', '1720', '1721', '1728', '1731', '1732', '1733', '1734', '1738', '1741', '1743', '1744', '1745', '1746', '1749', '1760', '1762', '1763', '1770', '1774', '1775', '1776', '1777', '1779', '1780', '1786', '1791', '1792', '1794', '1796', '1797', '1800', '1801', '1803', '1804', '1806', '1809', '1810', '1813', '1816', '1817', '1818', '1820', '1821', '1822', '1825', '1828', '1829', '1834', '1835', '1837', '1840', '1841', '1847', '1849', '1856', '1857', '1861', '1863', '1867', '1874', '1875', '1880', '1883', '1885', '1887', '1889', '1891', '1893', '1894', '1903', '1907', '1908', '1911', '1918', '1922', '1925', '1927', '1928', '1932', '1933', '1934', '1938', '1939', '1940', '1945', '1947', '1948', '1949', '1954', '1957', '1958', '1963', '1967', '1968', '1970', '1971', '1972', '1975', '1976', '1980', '1982', '1984', '1985', '1988', '1992', '1997', '1998', '2000']",True,2000,True,2,1379766ffa,0.0,0.0,1.0
./expes/v2_2021-03-23_issda-30_2000-prng-1-w2-p2,30_issda-2000,2000,first-2000,500,25,rng,num-start-2200,2200,25726,classic,2163.7666368484497,True,,True,1.0,1.0,1.0,1,"['11', '15', '16', '17', '20', '22', '25', '32', '37', '40', '43', '54', '56', '57', '59', '62', '69', '73', '101', '102', '103', '104', '106', '107', '110', '111', '120', '123', '124', '128', '132', '135', '142', '145', '150', '151', '154', '158', '159', '162', '166', '168', '171', '175', '178', '191', '192', '193', '202', '203', '214', '217', '226', '227', '232', '240', '241', '251', '252', '253', '256', '261', '263', '264', '266', '281', '282', '284', '287', '291', '293', '294', '305', '307', '309', '310', '311', '316', '331', '333', '335', '337', '346', '347', '349', '350', '353', '358', '367', '376', '377', '386', '387', '388', '392', '394', '395', '401', '403', '407', '411', '417', '418', '427', '431', '433', '435', '437', '438', '444', '448', '455', '456', '461', '470', '474', '483', '484', '486', '490', '496', '497', '499', '500', '510', '512', '513', '514', '515', '517', '523', '528', '529', '532', '538', '540', '544', '545', '548', '552', '554', '559', '565', '570', '577', '581', '584', '591', '592', '594', '602', '603', '605', '608', '618', '620', '622', '625', '630', '631', '632', '634', '635', '636', '639', '642', '647', '648', '650', '651', '652', '654', '659', '667', '674', '678', '681', '685', '687', '689', '691', '695', '696', '712', '713', '721', '727', '729', '731', '737', '743', '746', '749', '754', '757', '763', '768', '769', '775', '786', '787', '796', '802', '805', '820', '823', '826', '827', '828', '829', '831', '834', '836', '837', '840', '849', '850', '854', '859', '860', '862', '866', '867', '875', '877', '882', '887', '889', '893', '894', '897', '907', '908', '912', '913', '920', '921', '928', '933', '941', '948', '950', '957', '958', '967', '971', '973', '978', '984', '989', '990', '994', '997', '1008', '1010', '1011', '1013', '1016', '1028', '1029', '1033', '1034', '1037', '1039', '1053', '1056', '1057', '1061', '1063', '1064', '1070', '1072', '1076', '1077', '1080', '1082', '1091', '1092', '1096', '1099', '1100', '1103', '1104', '1105', '1106', '1107', '1111', '1113', '1114', '1116', '1121', '1126', '1129', '1134', '1135', '1138', '1139', '1141', '1145', '1146', '1156', '1164', '1166', '1171', '1172', '1178', '1180', '1184', '1185', '1188', '1191', '1193', '1201', '1202', '1209', '1212', '1226', '1229', '1237', '1238', '1250', '1254', '1256', '1264', '1272', '1282', '1283', '1284', '1295', '1297', '1302', '1304', '1309', '1312', '1325', '1330', '1332', '1340', '1347', '1349', '1355', '1359', '1367', '1383', '1386', '1395', '1398', '1402', '1403', '1405', '1412', '1416', '1433', '1442', '1443', '1445', '1446', '1455', '1458', '1465', '1466', '1484', '1485', '1489', '1493', '1497', '1499', '1510', '1513', '1514', '1523', '1525', '1526', '1529', '1531', '1533', '1535', '1537', '1540', '1541', '1543', '1546', '1547', '1552', '1553', '1556', '1557', '1564', '1567', '1569', '1579', '1582', '1585', '1586', '1594', '1598', '1600', '1603', '1607', '1611', '1613', '1622', '1626', '1627', '1637', '1642', '1643', '1644', '1645', '1649', '1653', '1661', '1664', '1665', '1666', '1670', '1673', '1676', '1679', '1680', '1682', '1684', '1689', '1693', '1698', '1702', '1705', '1715', '1719', '1725', '1734', '1742', '1749', '1753', '1759', '1761', '1769', '1772', '1777', '1778', '1780', '1789', '1793', '1805', '1808', '1819', '1823', '1829', '1830', '1837', '1838', '1840', '1841', '1844', '1847', '1848', '1856', '1858', '1859', '1861', '1862', '1864', '1870', '1878', '1880', '1885', '1888', '1892', '1893', '1897', '1905', '1907', '1911', '1917', '1923', '1925', '1926', '1927', '1930', '1936', '1944', '1949', '1957', '1958', '1960', '1961', '1962', '1966', '1968', '1970', '1975', '1976', '1982', '1987', '1990', '1992', '1994', '1996', '1997', '1998']",False,2000,True,2,e7cc1e42cc,0.0,1.0,1.0
./expes/v2_2021-03-23_issda-30_2000-prng-1-w2-p2,30_issda-2000,2000,first-2000,400,20,rng,num-start-1200,1200,25726,classic,901.9372766017914,True,,True,1.0,1.0,1.0,1,"['7', '10', '14', '25', '28', '35', '41', '46', '47', '53', '63', '68', '69', '70', '77', '90', '93', '101', '105', '119', '125', '129', '130', '132', '141', '144', '147', '164', '165', '168', '171', '173', '175', '177', '179', '184', '186', '190', '192', '195', '196', '199', '200', '217', '219', '221', '222', '223', '224', '229', '233', '239', '240', '248', '250', '259', '277', '281', '285', '288', '292', '304', '305', '308', '315', '317', '325', '330', '335', '341', '349', '350', '353', '359', '365', '389', '392', '394', '396', '398', '401', '402', '405', '411', '414', '421', '426', '429', '431', '433', '451', '459', '462', '465', '470', '475', '480', '481', '500', '501', '504', '507', '508', '512', '522', '530', '542', '547', '551', '555', '562', '568', '579', '583', '586', '592', '594', '595', '598', '606', '608', '612', '614', '615', '619', '633', '639', '643', '658', '664', '667', '692', '694', '698', '701', '703', '705', '720', '729', '731', '732', '733', '738', '739', '741', '742', '746', '750', '754', '757', '758', '759', '769', '772', '773', '776', '777', '780', '781', '786', '787', '792', '795', '800', '807', '812', '814', '821', '825', '826', '834', '835', '840', '844', '854', '856', '860', '868', '873', '876', '883', '886', '893', '901', '905', '912', '914', '928', '929', '933', '935', '938', '941', '942', '948', '966', '970', '972', '994', '999', '1000', '1001', '1004', '1014', '1018', '1019', '1020', '1021', '1022', '1028', '1030', '1032', '1033', '1034', '1035', '1038', '1039', '1040', '1045', '1054', '1058', '1059', '1065', '1066', '1067', '1073', '1076', '1077', '1080', '1082', '1083', '1084', '1090', '1106', '1117', '1121', '1142', '1155', '1156', '1160', '1161', '1166', '1174', '1175', '1186', '1188', '1190', '1191', '1197', '1199', '1206', '1222', '1230', '1231', '1232', '1238', '1239', '1240', '1243', '1244', '1250', '1253', '1256', '1265', '1271', '1278', '1280', '1281', '1295', '1296', '1315', '1319', '1323', '1326', '1327', '1331', '1335', '1341', '1342', '1346', '1347', '1349', '1354', '1358', '1359', '1371', '1379', '1385', '1402', '1403', '1414', '1415', '1416', '1436', '1437', '1438', '1444', '1445', '1451', '1466', '1469', '1474', '1477', '1486', '1487', '1492', '1493', '1502', '1518', '1523', '1524', '1525', '1531', '1534', '1548', '1555', '1556', '1566', '1570', '1598', '1600', '1605', '1611', '1619', '1625', '1632', '1648', '1653', '1655', '1656', '1661', '1662', '1666', '1668', '1673', '1678', '1682', '1685', '1690', '1691', '1699', '1700', '1701', '1703', '1709', '1712', '1713', '1717', '1726', '1728', '1733', '1735', '1742', '1746', '1752', '1755', '1762', '1775', '1780', '1793', '1799', '1805', '1809', '1820', '1826', '1834', '1838', '1847', '1848', '1850', '1851', '1854', '1855', '1857', '1858', '1860', '1862', '1864', '1867', '1870', '1882', '1883', '1886', '1896', '1900', '1902', '1910', '1918', '1929', '1938', '1946', '1961', '1964', '1971', '1977', '1978', '1983', '1987', '1993', '1997']",False,2000,True,2,c7dc6bbf5a,0.0,1.0,1.0
./expes/v2_2021-03-23_issda-30_2000-prng-1-w2-p2,30_issda-2000,2000,first-2000,200,10,rng,num-start-3800,3800,25726,classic,2512.8622624874115,True,,False,1.0,1.0,1.0,1,"['5', '7', '30', '62', '80', '88', '89', '142', '146', '151', '174', '190', '230', '241', '249', '259', '260', '267', '268', '269', '277', '281', '286', '291', '301', '302', '328', '337', '343', '362', '368', '374', '381', '384', '396', '399', '415', '416', '434', '439', '461', '462', '473', '480', '483', '487', '515', '519', '520', '526', '531', '537', '538', '539', '551', '565', '574', '596', '601', '604', '605', '618', '637', '643', '700', '703', '709', '719', '729', '730', '736', '746', '751', '761', '768', '799', '811', '836', '847', '869', '879', '880', '881', '882', '884', '895', '901', '902', '909', '912', '919', '924', '941', '950', '997', '1006', '1017', '1020', '1066', '1071', '1079', '1089', '1098', '1113', '1126', '1127', '1136', '1138', '1140', '1156', '1158', '1168', '1183', '1190', '1195', '1211', '1218', '1219', '1236', '1241', '1247', '1252', '1265', '1289', '1292', '1298', '1308', '1309', '1313', '1318', '1322', '1334', '1336', '1342', '1346', '1365', '1374', '1387', '1401', '1402', '1404', '1416', '1424', '1430', '1437', '1438', '1442', '1445', '1468', '1473', '1481', '1491', '1493', '1502', '1504', '1508', '1526', '1533', '1547', '1557', '1613', '1626', '1627', '1635', '1643', '1645', '1651', '1653', '1659', '1679', '1691', '1693', '1709', '1716', '1717', '1733', '1740', '1741', '1749', '1765', '1777', '1779', '1781', '1785', '1797', '1815', '1816', '1820', '1822', '1823', '1840', '1845', '1847', '1857', '1863', '1911', '1945', '1954', '1989', '1990']",True,2000,True,2,44ac2aff12,0.0,0.0,1.0
