expe,clients,clients_size,clients_subset,agg_size,agg_size_pc,method,days,days_size,days_total,noise_method,time,valid,valid_sum,success,score_avg,score_min,score_max,nsols,oracle,wall_hit,wall_time,pooled,pool_size,uuid,infeasible,optimal,valid_sums
./expes/v2_2021-03-23_issda-30_2000-prng-1-w2-p2,30_issda-2000,2000,first-2000,500,25,rng,num-start-400,400,25726,classic,2034.1542654037476,False,,False,0,,,0,"['5', '7', '8', '9', '11', '12', '20', '27', '30', '32', '45', '46', '56', '60', '62', '63', '66', '69', '71', '74', '79', '80', '84', '88', '89', '90', '94', '97', '101', '105', '107', '108', '110', '112', '114', '116', '126', '141', '142', '145', '146', '151', '159', '166', '174', '178', '184', '187', '190', '191', '193', '194', '205', '206', '211', '214', '220', '225', '230', '237', '241', '249', '257', '258', '259', '260', '263', '265', '267', '268', '269', '273', '274', '277', '281', '286', '291', '294', '300', '301', '302', '304', '306', '307', '309', '315', '318', '321', '322', '328', '329', '337', '342', '343', '362', '366', '367', '368', '374', '381', '384', '390', '391', '396', '398', '399', '400', '415', '416', '418', '425', '434', '438', '439', '441', '448', '452', '457', '461', '462', '463', '464', '465', '473', '480', '483', '487', '488', '489', '500', '501', '507', '509', '515', '519', '520', '526', '527', '528', '530', '531', '535', '536', '537', '538', '539', '541', '549', '551', '556', '565', '566', '574', '581', '589', '593', '595', '596', '601', '604', '605', '606', '608', '611', '614', '617', '618', '622', '628', '630', '631', '632', '637', '643', '648', '650', '655', '661', '680', '682', '684', '686', '697', '700', '703', '707', '709', '712', '719', '722', '729', '730', '736', '740', '746', '751', '755', '756', '760', '761', '762', '764', '768', '770', '771', '794', '796', '799', '806', '811', '813', '815', '831', '836', '839', '847', '853', '869', '870', '871', '872', '875', '877', '878', '879', '880', '881', '882', '884', '890', '891', '895', '901', '902', '903', '905', '909', '912', '919', '921', '922', '924', '941', '944', '945', '949', '950', '956', '963', '966', '972', '976', '981', '985', '988', '992', '997', '1006', '1017', '1018', '1020', '1026', '1027', '1033', '1045', '1048', '1059', '1065', '1066', '1068', '1070', '1071', '1074', '1075', '1078', '1079', '1082', '1087', '1089', '1090', '1092', '1093', '1094', '1096', '1098', '1100', '1113', '1117', '1118', '1120', '1121', '1126', '1127', '1136', '1138', '1140', '1147', '1156', '1158', '1168', '1170', '1171', '1174', '1175', '1183', '1185', '1190', '1195', '1199', '1205', '1207', '1210', '1211', '1213', '1218', '1219', '1222', '1224', '1229', '1236', '1241', '1246', '1247', '1250', '1252', '1257', '1265', '1269', '1271', '1275', '1285', '1289', '1292', '1298', '1308', '1309', '1313', '1315', '1318', '1322', '1330', '1332', '1334', '1336', '1338', '1339', '1342', '1346', '1365', '1366', '1367', '1372', '1374', '1381', '1387', '1395', '1396', '1401', '1402', '1404', '1416', '1424', '1430', '1432', '1435', '1436', '1437', '1438', '1442', '1445', '1460', '1463', '1467', '1468', '1472', '1473', '1477', '1481', '1485', '1488', '1489', '1491', '1493', '1500', '1502', '1504', '1506', '1508', '1513', '1515', '1517', '1526', '1527', '1533', '1538', '1547', '1553', '1557', '1561', '1564', '1570', '1583', '1585', '1592', '1608', '1611', '1613', '1626', '1627', '1635', '1636', '1641', '1643', '1645', '1646', '1651', '1653', '1657', '1659', '1664', '1674', '1679', '1682', '1683', '1687', '1688', '1689', '1691', '1693', '1696', '1703', '1707', '1709', '1710', '1713', '1716', '1717', '1720', '1733', '1739', '1740', '1741', '1745', '1749', '1765', '1766', '1769', '1775', '1777', '1778', '1779', '1781', '1785', '1795', '1797', '1813', '1815', '1816', '1817', '1820', '1822', '1823', '1827', '1829', '1833', '1839', '1840', '1845', '1847', '1848', '1851', '1855', '1857', '1858', '1863', '1865', '1866', '1869', '1873', '1881', '1886', '1887', '1897', '1909', '1911', '1916', '1920', '1922', '1931', '1945', '1949', '1951', '1954', '1963', '1965', '1970', '1982', '1987', '1989', '1990']",True,2000,True,2,41a7d17661,0.0,0.0,0.0
./expes/v2_2021-03-23_issda-30_2000-prng-1-w2-p2,30_issda-2000,2000,first-2000,300,15,rng,num-start-3400,3400,25726,classic,1660.624923467636,True,,True,1.0,1.0,1.0,1,"['4', '7', '11', '19', '24', '27', '38', '45', '47', '60', '66', '68', '71', '76', '96', '100', '107', '115', '117', '121', '130', '134', '136', '148', '161', '166', '183', '187', '189', '209', '219', '222', '231', '232', '244', '260', '268', '271', '272', '285', '290', '299', '301', '304', '305', '306', '322', '327', '331', '340', '341', '346', '347', '361', '364', '366', '368', '369', '371', '373', '379', '403', '404', '408', '420', '425', '427', '429', '442', '444', '487', '504', '505', '511', '513', '514', '524', '525', '541', '543', '558', '561', '562', '565', '573', '576', '592', '593', '597', '602', '604', '606', '612', '618', '627', '628', '634', '635', '640', '643', '647', '649', '651', '668', '680', '685', '693', '694', '697', '698', '705', '706', '727', '728', '729', '733', '735', '740', '743', '745', '750', '753', '762', '764', '771', '773', '780', '785', '798', '827', '828', '832', '836', '848', '850', '858', '862', '864', '887', '890', '912', '928', '929', '934', '947', '948', '949', '954', '961', '963', '968', '972', '982', '985', '986', '991', '995', '1000', '1008', '1011', '1023', '1025', '1030', '1050', '1051', '1056', '1070', '1075', '1086', '1090', '1093', '1105', '1114', '1117', '1121', '1123', '1125', '1146', '1156', '1176', '1185', '1190', '1201', '1204', '1208', '1217', '1221', '1231', '1236', '1251', '1265', '1266', '1271', '1276', '1278', '1282', '1284', '1285', '1292', '1308', '1330', '1331', '1334', '1336', '1360', '1369', '1376', '1389', '1405', '1411', '1412', '1415', '1423', '1427', '1439', '1443', '1444', '1450', '1467', '1475', '1477', '1495', '1498', '1499', '1516', '1517', '1520', '1533', '1536', '1548', '1556', '1561', '1569', '1577', '1585', '1587', '1589', '1590', '1600', '1602', '1610', '1614', '1629', '1633', '1636', '1642', '1673', '1675', '1677', '1679', '1684', '1693', '1711', '1718', '1722', '1723', '1724', '1731', '1745', '1746', '1761', '1777', '1778', '1779', '1785', '1787', '1795', '1829', '1831', '1837', '1846', '1848', '1877', '1881', '1889', '1892', '1893', '1904', '1917', '1920', '1924', '1928', '1930', '1931', '1932', '1937', '1945', '1946', '1955', '1957', '1960', '1966', '1967', '1970', '1977', '1980', '1984', '1992', '1998', '1999']",False,2000,True,2,e6fc8452c9,0.0,1.0,1.0
./expes/v2_2021-03-23_issda-30_2000-prng-1-w2-p2,30_issda-2000,2000,first-2000,700,35,rng,num-start-4000,4000,25726,classic,2390.440561771393,True,,False,1.0,1.0,1.0,1,"['4', '7', '9', '10', '11', '18', '22', '24', '33', '36', '37', '40', '41', '44', '49', '50', '51', '52', '57', '61', '64', '65', '66', '69', '70', '73', '74', '75', '77', '84', '89', '94', '101', '105', '110', '111', '116', '117', '121', '123', '124', '126', '135', '137', '139', '146', '149', '150', '151', '152', '155', '157', '158', '159', '164', '165', '167', '170', '173', '174', '177', '180', '183', '188', '191', '192', '193', '194', '197', '204', '205', '206', '208', '209', '216', '218', '228', '230', '232', '236', '238', '243', '250', '252', '262', '264', '270', '274', '275', '277', '278', '280', '283', '287', '288', '290', '295', '297', '301', '307', '310', '311', '315', '320', '321', '322', '323', '325', '326', '329', '331', '333', '337', '341', '347', '348', '350', '353', '354', '356', '361', '362', '364', '370', '372', '373', '377', '380', '385', '389', '392', '393', '394', '407', '409', '419', '420', '426', '427', '431', '432', '435', '436', '438', '442', '443', '444', '446', '449', '455', '461', '462', '465', '468', '473', '475', '476', '477', '478', '481', '484', '488', '494', '502', '506', '508', '510', '511', '512', '514', '516', '519', '520', '521', '523', '524', '526', '527', '529', '531', '532', '537', '541', '545', '547', '550', '551', '560', '562', '569', '571', '572', '575', '579', '583', '586', '588', '594', '596', '598', '604', '607', '608', '620', '622', '623', '627', '631', '632', '634', '635', '639', '640', '641', '642', '648', '653', '657', '665', '666', '669', '672', '674', '675', '678', '684', '686', '691', '699', '700', '701', '705', '707', '712', '718', '719', '725', '730', '733', '735', '737', '738', '740', '742', '743', '746', '747', '750', '751', '762', '763', '764', '765', '766', '768', '775', '777', '779', '782', '784', '785', '788', '790', '791', '799', '800', '801', '802', '803', '805', '806', '809', '810', '819', '820', '823', '825', '826', '828', '829', '830', '833', '838', '842', '845', '850', '854', '857', '859', '860', '867', '868', '872', '876', '883', '889', '890', '899', '904', '906', '907', '911', '912', '913', '918', '919', '925', '929', '930', '932', '936', '937', '938', '941', '943', '945', '949', '952', '953', '955', '956', '957', '958', '961', '964', '968', '969', '979', '983', '988', '989', '991', '992', '994', '995', '996', '997', '998', '1001', '1002', '1004', '1005', '1008', '1020', '1021', '1023', '1026', '1029', '1030', '1033', '1034', '1040', '1041', '1042', '1043', '1045', '1048', '1049', '1052', '1053', '1054', '1055', '1056', '1058', '1061', '1062', '1064', '1067', '1070', '1071', '1072', '1073', '1074', '1076', '1077', '1078', '1087', '1090', '1092', '1097', '1102', '1103', '1108', '1115', '1117', '1122', '1124', '1128', '1130', '1142', '1143', '1147', '1148', '1150', '1152', '1156', '1160', '1163', '1166', '1171', '1175', '1177', '1180', '1189', '1190', '1191', '1198', '1200', '1201', '1205', '1206', '1208', '1211', '1212', '1216', '1219', '1222', '1240', '1241', '1242', '1243', '1251', '1254', '1255', '1257', '1261', '1262', '1263', '1267', '1273', '1274', '1275', '1277', '1278', '1279', '1281', '1286', '1288', '1295', '1297', '1298', '1301', '1305', '1306', '1308', '1310', '1313', '1315', '1317', '1324', '1327', '1328', '1330', '1332', '1335', '1338', '1339', '1342', '1349', '1350', '1354', '1356', '1359', '1366', '1371', '1372', '1374', '1378', '1382', '1383', '1384', '1386', '1390', '1391', '1394', '1395', '1396', '1398', '1402', '1403', '1404', '1408', '1413', '1414', '1417', '1419', '1425', '1432', '1433', '1441', '1443', '1445', '1446', '1447', '1451', '1454', '1456', '1457', '1458', '1460', '1461', '1462', '1463', '1465', '1466', '1467', '1468', '1469', '1472', '1473', '1474', '1475', '1481', '1482', '1483', '1487', '1491', '1493', '1494', '1497', '1498', '1500', '1505', '1508', '1509', '1513', '1516', '1521', '1525', '1526', '1528', '1532', '1535', '1537', '1538', '1539', '1541', '1544', '1545', '1546', '1547', '1548', '1556', '1557', '1558', '1560', '1563', '1566', '1569', '1571', '1584', '1588', '1592', '1600', '1604', '1607', '1613', '1615', '1618', '1622', '1627', '1629', '1630', '1631', '1632', '1635', '1636', '1637', '1639', '1642', '1644', '1646', '1647', '1648', '1651', '1652', '1656', '1657', '1659', '1664', '1666', '1669', '1670', '1671', '1672', '1675', '1677', '1679', '1681', '1687', '1689', '1690', '1691', '1703', '1707', '1711', '1712', '1713', '1715', '1718', '1722', '1734', '1738', '1739', '1741', '1743', '1746', '1749', '1755', '1760', '1762', '1767', '1768', '1770', '1774', '1781', '1783', '1784', '1791', '1792', '1794', '1796', '1798', '1800', '1804', '1805', '1806', '1807', '1809', '1811', '1812', '1813', '1818', '1819', '1822', '1827', '1831', '1833', '1834', '1840', '1843', '1846', '1848', '1850', '1855', '1857', '1859', '1860', '1861', '1867', '1868', '1874', '1876', '1877', '1882', '1885', '1886', '1888', '1889', '1895', '1897', '1903', '1904', '1909', '1910', '1914', '1916', '1917', '1919', '1922', '1923', '1927', '1932', '1933', '1941', '1942', '1943', '1944', '1945', '1946', '1955', '1956', '1958', '1961', '1962', '1964', '1965', '1966', '1968', '1970', '1971', '1973', '1980', '1981', '1985', '1986', '1988', '1989', '1992', '1995']",True,2000,True,2,30b0e82767,0.0,0.0,1.0
./expes/v2_2021-03-23_issda-30_2000-prng-1-w2-p2,30_issda-2000,2000,first-2000,300,15,rng,num-start-800,800,25726,classic,2075.5138750076294,True,,False,1.0,1.0,1.0,1,"['1', '9', '25', '47', '48', '53', '56', '77', '81', '96', '99', '102', '108', '111', '119', '121', '122', '123', '125', '127', '128', '129', '134', '138', '141', '144', '145', '149', '150', '159', '166', '168', '170', '176', '177', '186', '187', '192', '193', '200', '208', '210', '212', '213', '226', '237', '240', '242', '252', '254', '258', '265', '273', '281', '296', '299', '301', '305', '309', '310', '312', '331', '333', '338', '341', '345', '361', '369', '371', '374', '385', '391', '421', '422', '426', '428', '440', '447', '453', '458', '473', '476', '478', '493', '500', '508', '509', '517', '535', '539', '543', '553', '570', '571', '578', '583', '589', '590', '594', '611', '614', '615', '632', '635', '639', '643', '644', '653', '664', '697', '701', '702', '704', '711', '712', '718', '728', '735', '741', '745', '746', '749', '752', '757', '763', '771', '780', '791', '801', '804', '808', '809', '813', '815', '816', '818', '821', '823', '851', '857', '859', '864', '870', '876', '882', '889', '903', '913', '920', '929', '935', '936', '946', '954', '955', '971', '972', '981', '984', '987', '991', '994', '1000', '1002', '1012', '1014', '1017', '1018', '1040', '1049', '1056', '1058', '1062', '1076', '1082', '1089', '1095', '1098', '1099', '1108', '1113', '1122', '1126', '1127', '1129', '1141', '1143', '1146', '1148', '1156', '1159', '1160', '1161', '1170', '1174', '1177', '1182', '1184', '1188', '1192', '1194', '1200', '1207', '1218', '1231', '1234', '1248', '1249', '1252', '1257', '1258', '1265', '1268', '1285', '1292', '1300', '1309', '1317', '1326', '1334', '1342', '1349', '1361', '1369', '1370', '1385', '1394', '1396', '1397', '1399', '1414', '1415', '1418', '1424', '1426', '1428', '1432', '1437', '1447', '1459', '1468', '1494', '1498', '1513', '1516', '1517', '1536', '1551', '1553', '1566', '1574', '1592', '1598', '1617', '1627', '1633', '1635', '1672', '1676', '1678', '1682', '1684', '1694', '1698', '1703', '1721', '1732', '1739', '1759', '1760', '1769', '1770', '1784', '1785', '1791', '1792', '1793', '1810', '1811', '1817', '1843', '1861', '1864', '1873', '1878', '1892', '1912', '1927', '1935', '1941', '1942', '1944', '1947', '1948', '1950', '1952', '1957', '1962', '1971', '2000']",True,2000,True,2,27422bba72,0.0,0.0,1.0
./expes/v2_2021-03-23_issda-30_2000-prng-1-w2-p2,30_issda-2000,2000,first-2000,500,25,rng,num-start-2400,2400,25726,classic,2091.6714222431183,True,,True,1.0,1.0,1.0,1,"['4', '5', '12', '18', '19', '22', '26', '30', '35', '36', '37', '38', '43', '45', '46', '49', '53', '56', '58', '59', '60', '61', '63', '67', '71', '73', '77', '78', '81', '82', '83', '90', '94', '98', '115', '121', '129', '130', '132', '134', '143', '145', '150', '157', '168', '171', '174', '178', '188', '193', '198', '203', '205', '206', '210', '211', '214', '221', '222', '223', '225', '234', '235', '236', '237', '242', '248', '257', '258', '265', '268', '273', '276', '277', '278', '300', '302', '322', '325', '326', '327', '329', '332', '336', '342', '343', '345', '346', '348', '349', '352', '355', '363', '371', '379', '381', '385', '386', '389', '398', '409', '410', '411', '412', '421', '422', '426', '429', '430', '435', '437', '444', '446', '449', '452', '455', '458', '459', '462', '465', '469', '471', '473', '476', '478', '481', '482', '491', '495', '498', '512', '517', '519', '520', '523', '530', '546', '547', '549', '551', '552', '559', '568', '576', '577', '582', '594', '595', '597', '603', '604', '606', '607', '608', '611', '612', '622', '628', '632', '636', '639', '642', '645', '650', '651', '656', '657', '658', '660', '667', '672', '679', '681', '682', '694', '695', '697', '699', '704', '705', '706', '708', '709', '711', '724', '731', '747', '748', '752', '754', '759', '768', '775', '777', '778', '779', '781', '786', '792', '799', '802', '806', '807', '809', '814', '817', '824', '828', '829', '833', '847', '849', '853', '863', '865', '873', '874', '880', '885', '887', '892', '897', '899', '913', '921', '922', '924', '928', '932', '938', '939', '941', '942', '944', '962', '968', '971', '977', '984', '986', '993', '994', '1000', '1002', '1003', '1009', '1015', '1016', '1017', '1023', '1024', '1026', '1029', '1033', '1034', '1035', '1037', '1040', '1042', '1043', '1045', '1050', '1053', '1058', '1063', '1067', '1073', '1081', '1091', '1095', '1103', '1106', '1107', '1109', '1112', '1116', '1122', '1123', '1124', '1127', '1128', '1129', '1133', '1136', '1140', '1149', '1150', '1154', '1156', '1157', '1160', '1166', '1168', '1169', '1175', '1180', '1184', '1185', '1188', '1197', '1202', '1204', '1207', '1210', '1211', '1212', '1215', '1222', '1229', '1230', '1232', '1237', '1241', '1245', '1248', '1254', '1255', '1257', '1260', '1276', '1277', '1280', '1289', '1292', '1293', '1302', '1316', '1326', '1328', '1329', '1331', '1335', '1336', '1345', '1351', '1352', '1360', '1362', '1364', '1373', '1374', '1379', '1381', '1382', '1383', '1387', '1389', '1395', '1406', '1408', '1424', '1426', '1439', '1440', '1441', '1442', '1444', '1457', '1458', '1465', '1473', '1478', '1483', '1486', '1487', '1488', '1494', '1496', '1501', '1511', '1512', '1517', '1522', '1524', '1545', '1548', '1555', '1559', '1562', '1565', '1572', '1573', '1578', '1579', '1589', '1593', '1595', '1597', '1598', '1602', '1603', '1605', '1609', '1611', '1612', '1615', '1616', '1618', '1631', '1633', '1634', '1636', '1643', '1644', '1646', '1648', '1652', '1658', '1662', '1666', '1673', '1674', '1676', '1679', '1681', '1692', '1696', '1697', '1700', '1705', '1712', '1716', '1721', '1723', '1724', '1731', '1734', '1736', '1738', '1742', '1744', '1748', '1756', '1757', '1759', '1762', '1764', '1774', '1777', '1778', '1782', '1786', '1794', '1800', '1805', '1808', '1813', '1815', '1818', '1825', '1830', '1835', '1837', '1843', '1845', '1847', '1863', '1864', '1865', '1866', '1871', '1873', '1877', '1879', '1885', '1889', '1895', '1896', '1897', '1898', '1907', '1910', '1918', '1921', '1922', '1924', '1927', '1928', '1933', '1934', '1936', '1946', '1950', '1951', '1955', '1956', '1961', '1966', '1971', '1976', '1978', '1981', '1983', '1985', '1987', '1988', '1994', '1995', '1998', '1999']",False,2000,True,2,d0818997d9,0.0,1.0,1.0
