expe,clients,clients_size,clients_subset,agg_size,method,days,days_size,days_total,time,valid,valid_sum,success,nsols,wall_hit,wall_time,pooled,valid_sums
./expes/v2_2020-12-03_dh_100-prng-1,30_issda_100,100,rng-100,11,rng,num-start-871,871,25726,8.202612400054932,True,,True,1,False,1000,True,1.0
./expes/v2_2020-12-03_dh_100-prng-1,30_issda_100,100,rng-100,1,rng,num-start-921,921,25726,8.796754837036133,True,,True,1,False,1000,True,1.0
./expes/v2_2020-12-03_dh_100-prng-1,30_issda_100,100,rng-100,1,rng,num-start-171,171,25726,1.5546481609344482,True,,True,1,False,1000,True,1.0
./expes/v2_2020-12-03_dh_100-prng-1,30_issda_100,100,rng-100,41,rng,num-start-191,191,25726,2.134951591491699,True,,True,1,False,1000,True,1.0
./expes/v2_2020-12-03_dh_100-prng-1,30_issda_100,100,rng-100,41,rng,num-start-751,751,25726,8.085611343383789,True,,True,1,False,1000,True,1.0
./expes/v2_2020-12-03_dh_100-prng-1,30_issda_100,100,rng-100,71,rng,num-start-581,581,25726,6.6693315505981445,True,,True,1,False,1000,True,1.0
./expes/v2_2020-12-03_dh_100-prng-1,30_issda_100,100,rng-100,31,rng,num-start-551,551,25726,5.636768817901611,True,,True,1,False,1000,True,1.0
./expes/v2_2020-12-03_dh_100-prng-1,30_issda_100,100,rng-100,31,rng,num-start-721,721,25726,7.572937726974487,True,,True,1,False,1000,True,1.0
./expes/v2_2020-12-03_dh_100-prng-1,30_issda_100,100,rng-100,41,rng,num-start-61,61,25726,0.7362775802612305,True,,True,1,False,1000,True,1.0
./expes/v2_2020-12-03_dh_100-prng-1,30_issda_100,100,rng-100,21,rng,num-start-371,371,25726,3.890388250350952,True,,True,1,False,1000,True,1.0
./expes/v2_2020-12-03_dh_100-prng-1,30_issda_100,100,rng-100,31,rng,num-start-381,381,25726,4.003988265991211,True,,True,1,False,1000,True,1.0
./expes/v2_2020-12-03_dh_100-prng-1,30_issda_100,100,rng-100,11,rng,num-start-111,111,25726,1.2474229335784912,True,,True,1,False,1000,True,1.0
./expes/v2_2020-12-03_dh_100-prng-1,30_issda_100,100,rng-100,81,rng,num-start-661,661,25726,6.448352336883545,True,,True,1,False,1000,True,1.0
./expes/v2_2020-12-03_dh_100-prng-1,30_issda_100,100,rng-100,21,rng,num-start-861,861,25726,8.569267272949219,True,,True,1,False,1000,True,1.0
./expes/v2_2020-12-03_dh_100-prng-1,30_issda_100,100,rng-100,51,rng,num-start-671,671,25726,7.142033815383911,True,,True,1,False,1000,True,1.0
./expes/v2_2020-12-03_dh_100-prng-1,30_issda_100,100,rng-100,81,rng,num-start-901,901,25726,8.980465412139893,True,,True,1,False,1000,True,1.0
./expes/v2_2020-12-03_dh_100-prng-1,30_issda_100,100,rng-100,41,rng,num-start-371,371,25726,3.9818520545959473,True,,True,1,False,1000,True,1.0
./expes/v2_2020-12-03_dh_100-prng-1,30_issda_100,100,rng-100,41,rng,num-start-511,511,25726,5.30203652381897,True,,True,1,False,1000,True,1.0
./expes/v2_2020-12-03_dh_100-prng-1,30_issda_100,100,rng-100,41,rng,num-start-901,901,25726,9.582992553710938,True,,True,1,False,1000,True,1.0
./expes/v2_2020-12-03_dh_100-prng-1,30_issda_100,100,rng-100,51,rng,num-start-141,141,25726,1.6211280822753906,True,,True,1,False,1000,True,1.0
./expes/v2_2020-12-03_dh_100-prng-1,30_issda_100,100,rng-100,51,rng,num-start-341,341,25726,3.4521050453186035,True,,True,1,False,1000,True,1.0
./expes/v2_2020-12-03_dh_100-prng-1,30_issda_100,100,rng-100,91,rng,num-start-311,311,25726,2.883333921432495,True,,True,1,False,1000,True,1.0
./expes/v2_2020-12-03_dh_100-prng-1,30_issda_100,100,rng-100,21,rng,num-start-861,861,25726,8.883934259414673,True,,True,1,False,1000,True,1.0
./expes/v2_2020-12-03_dh_100-prng-1,30_issda_100,100,rng-100,71,rng,num-start-941,941,25726,9.644308090209961,True,,True,1,False,1000,True,1.0
./expes/v2_2020-12-03_dh_100-prng-1,30_issda_100,100,rng-100,1,rng,num-start-641,641,25726,5.923132658004761,True,,True,1,False,1000,True,1.0
./expes/v2_2020-12-03_dh_100-prng-1,30_issda_100,100,rng-100,21,rng,num-start-621,621,25726,6.133454322814941,True,,True,1,False,1000,True,1.0
./expes/v2_2020-12-03_dh_100-prng-1,30_issda_100,100,rng-100,51,rng,num-start-681,681,25726,6.703252077102661,True,,True,1,False,1000,True,1.0
./expes/v2_2020-12-03_dh_100-prng-1,30_issda_100,100,rng-100,91,rng,num-start-451,451,25726,4.107093811035156,True,,True,1,False,1000,True,1.0
./expes/v2_2020-12-03_dh_100-prng-1,30_issda_100,100,rng-100,11,rng,num-start-441,441,25726,4.261585235595703,True,,True,1,False,1000,True,1.0
./expes/v2_2020-12-03_dh_100-prng-1,30_issda_100,100,rng-100,31,rng,num-start-551,551,25726,6.129438400268555,True,,True,1,False,1000,True,1.0
./expes/v2_2020-12-03_dh_100-prng-1,30_issda_100,100,rng-100,11,rng,num-start-381,381,25726,4.077075481414795,True,,True,1,False,1000,True,1.0
./expes/v2_2020-12-03_dh_100-prng-1,30_issda_100,100,rng-100,91,rng,num-start-311,311,25726,3.121506929397583,True,,True,1,False,1000,True,1.0
./expes/v2_2020-12-03_dh_100-prng-1,30_issda_100,100,rng-100,81,rng,num-start-581,581,25726,5.831550359725952,True,,True,1,False,1000,True,1.0
./expes/v2_2020-12-03_dh_100-prng-1,30_issda_100,100,rng-100,71,rng,num-start-431,431,25726,4.354488849639893,True,,True,1,False,1000,True,1.0
./expes/v2_2020-12-03_dh_100-prng-1,30_issda_100,100,rng-100,1,rng,num-start-111,111,25726,0.9917488098144531,True,,True,1,False,1000,True,1.0
./expes/v2_2020-12-03_dh_100-prng-1,30_issda_100,100,rng-100,11,rng,num-start-691,691,25726,6.477135896682739,True,,True,1,False,1000,True,1.0
./expes/v2_2020-12-03_dh_100-prng-1,30_issda_100,100,rng-100,21,rng,num-start-411,411,25726,4.189572811126709,True,,True,1,False,1000,True,1.0
./expes/v2_2020-12-03_dh_100-prng-1,30_issda_100,100,rng-100,31,rng,num-start-911,911,25726,9.977798700332642,True,,True,1,False,1000,True,1.0
./expes/v2_2020-12-03_dh_100-prng-1,30_issda_100,100,rng-100,21,rng,num-start-901,901,25726,9.431772232055664,True,,True,1,False,1000,True,1.0
./expes/v2_2020-12-03_dh_100-prng-1,30_issda_100,100,rng-100,51,rng,num-start-41,41,25726,0.9157130718231201,True,,True,1,False,1000,True,1.0
./expes/v2_2020-12-03_dh_100-prng-1,30_issda_100,100,rng-100,61,rng,num-start-911,911,25726,9.376920223236084,True,,True,1,False,1000,True,1.0
./expes/v2_2020-12-03_dh_100-prng-1,30_issda_100,100,rng-100,31,rng,num-start-381,381,25726,3.8784637451171875,True,,True,1,False,1000,True,1.0
./expes/v2_2020-12-03_dh_100-prng-1,30_issda_100,100,rng-100,91,rng,num-start-831,831,25726,7.842734336853027,True,,True,1,False,1000,True,1.0
./expes/v2_2020-12-03_dh_100-prng-1,30_issda_100,100,rng-100,61,rng,num-start-781,781,25726,7.914431095123291,True,,True,1,False,1000,True,1.0
./expes/v2_2020-12-03_dh_100-prng-1,30_issda_100,100,rng-100,81,rng,num-start-761,761,25726,7.226778745651245,True,,True,1,False,1000,True,1.0
./expes/v2_2020-12-03_dh_100-prng-1,30_issda_100,100,rng-100,61,rng,num-start-281,281,25726,2.840266227722168,True,,True,1,False,1000,True,1.0
./expes/v2_2020-12-03_dh_100-prng-1,30_issda_100,100,rng-100,81,rng,num-start-811,811,25726,8.069457292556763,True,,True,1,False,1000,True,1.0
./expes/v2_2020-12-03_dh_100-prng-1,30_issda_100,100,rng-100,71,rng,num-start-411,411,25726,4.150747537612915,True,,True,1,False,1000,True,1.0
./expes/v2_2020-12-03_dh_100-prng-1,30_issda_100,100,rng-100,31,rng,num-start-31,31,25726,0.7649693489074707,True,,True,1,False,1000,True,1.0
./expes/v2_2020-12-03_dh_100-prng-1,30_issda_100,100,rng-100,11,rng,num-start-551,551,25726,5.2285192012786865,True,,True,1,False,1000,True,1.0
./expes/v2_2020-12-03_dh_100-prng-1,30_issda_100,100,rng-100,31,rng,num-start-421,421,25726,4.495943784713745,True,,True,1,False,1000,True,1.0
./expes/v2_2020-12-03_dh_100-prng-1,30_issda_100,100,rng-100,1,rng,num-start-761,761,25726,6.77767276763916,True,,True,1,False,1000,True,1.0
./expes/v2_2020-12-03_dh_100-prng-1,30_issda_100,100,rng-100,41,rng,num-start-921,921,25726,9.264519929885864,True,,True,1,False,1000,True,1.0
./expes/v2_2020-12-03_dh_100-prng-1,30_issda_100,100,rng-100,91,rng,num-start-891,891,25726,7.995493650436401,True,,True,1,False,1000,True,1.0
./expes/v2_2020-12-03_dh_100-prng-1,30_issda_100,100,rng-100,51,rng,num-start-751,751,25726,7.62170147895813,True,,True,1,False,1000,True,1.0
./expes/v2_2020-12-03_dh_100-prng-1,30_issda_100,100,rng-100,41,rng,num-start-91,91,25726,1.0375111103057861,True,,True,1,False,1000,True,1.0
./expes/v2_2020-12-03_dh_100-prng-1,30_issda_100,100,rng-100,81,rng,num-start-741,741,25726,7.10090970993042,True,,True,1,False,1000,True,1.0
./expes/v2_2020-12-03_dh_100-prng-1,30_issda_100,100,rng-100,71,rng,num-start-251,251,25726,2.500269651412964,True,,True,1,False,1000,True,1.0
./expes/v2_2020-12-03_dh_100-prng-1,30_issda_100,100,rng-100,91,rng,num-start-261,261,25726,2.3054020404815674,True,,True,1,False,1000,True,1.0
./expes/v2_2020-12-03_dh_100-prng-1,30_issda_100,100,rng-100,1,rng,num-start-431,431,25726,3.8833346366882324,True,,True,1,False,1000,True,1.0
./expes/v2_2020-12-03_dh_100-prng-1,30_issda_100,100,rng-100,1,rng,num-start-651,651,25726,5.8348517417907715,True,,True,1,False,1000,True,1.0
./expes/v2_2020-12-03_dh_100-prng-1,30_issda_100,100,rng-100,51,rng,num-start-201,201,25726,2.2451515197753906,True,,True,1,False,1000,True,1.0
./expes/v2_2020-12-03_dh_100-prng-1,30_issda_100,100,rng-100,21,rng,num-start-121,121,25726,1.472665786743164,True,,True,1,False,1000,True,1.0
./expes/v2_2020-12-03_dh_100-prng-1,30_issda_100,100,rng-100,81,rng,num-start-11,11,25726,1000.1790204048157,False,,False,0,True,1000,True,0.0
./expes/v2_2020-12-03_dh_100-prng-1,30_issda_100,100,rng-100,91,rng,num-start-811,811,25726,7.479933261871338,True,,True,1,False,1000,True,1.0
./expes/v2_2020-12-03_dh_100-prng-1,30_issda_100,100,rng-100,61,rng,num-start-141,141,25726,1.661435604095459,True,,True,1,False,1000,True,1.0
./expes/v2_2020-12-03_dh_100-prng-1,30_issda_100,100,rng-100,61,rng,num-start-621,621,25726,6.0922651290893555,True,,True,1,False,1000,True,1.0
./expes/v2_2020-12-03_dh_100-prng-1,30_issda_100,100,rng-100,31,rng,num-start-861,861,25726,8.856786251068115,True,,True,1,False,1000,True,1.0
./expes/v2_2020-12-03_dh_100-prng-1,30_issda_100,100,rng-100,1,rng,num-start-721,721,25726,6.307709217071533,True,,True,1,False,1000,True,1.0
./expes/v2_2020-12-03_dh_100-prng-1,30_issda_100,100,rng-100,1,rng,num-start-591,591,25726,8.693759441375732,True,,True,1,False,1000,True,1.0
./expes/v2_2020-12-03_dh_100-prng-1,30_issda_100,100,rng-100,61,rng,num-start-961,961,25726,9.431756258010864,True,,True,1,False,1000,True,1.0
./expes/v2_2020-12-03_dh_100-prng-1,30_issda_100,100,rng-100,11,rng,num-start-711,711,25726,6.766472816467285,True,,True,1,False,1000,True,1.0
./expes/v2_2020-12-03_dh_100-prng-1,30_issda_100,100,rng-100,31,rng,num-start-871,871,25726,9.03960633277893,True,,True,1,False,1000,True,1.0
./expes/v2_2020-12-03_dh_100-prng-1,30_issda_100,100,rng-100,91,rng,num-start-751,751,25726,6.683899164199829,True,,True,1,False,1000,True,1.0
./expes/v2_2020-12-03_dh_100-prng-1,30_issda_100,100,rng-100,11,rng,num-start-391,391,25726,3.782959461212158,True,,True,1,False,1000,True,1.0
./expes/v2_2020-12-03_dh_100-prng-1,30_issda_100,100,rng-100,61,rng,num-start-941,941,25726,9.335207223892212,True,,True,1,False,1000,True,1.0
./expes/v2_2020-12-03_dh_100-prng-1,30_issda_100,100,rng-100,81,rng,num-start-101,101,25726,1.1626596450805664,True,,True,1,False,1000,True,1.0
./expes/v2_2020-12-03_dh_100-prng-1,30_issda_100,100,rng-100,61,rng,num-start-291,291,25726,3.083871841430664,True,,True,1,False,1000,True,1.0
./expes/v2_2020-12-03_dh_100-prng-1,30_issda_100,100,rng-100,21,rng,num-start-91,91,25726,1.003570556640625,True,,True,1,False,1000,True,1.0
./expes/v2_2020-12-03_dh_100-prng-1,30_issda_100,100,rng-100,31,rng,num-start-141,141,25726,1.5592279434204102,True,,True,1,False,1000,True,1.0
./expes/v2_2020-12-03_dh_100-prng-1,30_issda_100,100,rng-100,61,rng,num-start-151,151,25726,1.6543664932250977,True,,True,1,False,1000,True,1.0
./expes/v2_2020-12-03_dh_100-prng-1,30_issda_100,100,rng-100,91,rng,num-start-211,211,25726,1.855597972869873,True,,True,1,False,1000,True,1.0
./expes/v2_2020-12-03_dh_100-prng-1,30_issda_100,100,rng-100,61,rng,num-start-321,321,25726,3.126919746398926,True,,True,1,False,1000,True,1.0
./expes/v2_2020-12-03_dh_100-prng-1,30_issda_100,100,rng-100,91,rng,num-start-711,711,25726,6.309189081192017,True,,True,1,False,1000,True,1.0
./expes/v2_2020-12-03_dh_100-prng-1,30_issda_100,100,rng-100,71,rng,num-start-861,861,25726,8.598589658737183,True,,True,1,False,1000,True,1.0
./expes/v2_2020-12-03_dh_100-prng-1,30_issda_100,100,rng-100,41,rng,num-start-911,911,25726,9.121194124221802,True,,True,1,False,1000,True,1.0
./expes/v2_2020-12-03_dh_100-prng-1,30_issda_100,100,rng-100,11,rng,num-start-321,321,25726,3.1003105640411377,True,,True,1,False,1000,True,1.0
./expes/v2_2020-12-03_dh_100-prng-1,30_issda_100,100,rng-100,91,rng,num-start-911,911,25726,8.305634498596191,True,,True,1,False,1000,True,1.0
./expes/v2_2020-12-03_dh_100-prng-1,30_issda_100,100,rng-100,61,rng,num-start-111,111,25726,1.2717828750610352,True,,True,1,False,1000,True,1.0
./expes/v2_2020-12-03_dh_100-prng-1,30_issda_100,100,rng-100,71,rng,num-start-411,411,25726,4.431307554244995,True,,True,1,False,1000,True,1.0
./expes/v2_2020-12-03_dh_100-prng-1,30_issda_100,100,rng-100,41,rng,num-start-721,721,25726,7.344762802124023,True,,True,1,False,1000,True,1.0
./expes/v2_2020-12-03_dh_100-prng-1,30_issda_100,100,rng-100,51,rng,num-start-571,571,25726,5.695763111114502,True,,True,1,False,1000,True,1.0
./expes/v2_2020-12-03_dh_100-prng-1,30_issda_100,100,rng-100,71,rng,num-start-831,831,25726,8.276444673538208,True,,True,1,False,1000,True,1.0
./expes/v2_2020-12-03_dh_100-prng-1,30_issda_100,100,rng-100,21,rng,num-start-861,861,25726,8.548280954360962,True,,True,1,False,1000,True,1.0
./expes/v2_2020-12-03_dh_100-prng-1,30_issda_100,100,rng-100,21,rng,num-start-561,561,25726,5.809890270233154,True,,True,1,False,1000,True,1.0
./expes/v2_2020-12-03_dh_100-prng-1,30_issda_100,100,rng-100,91,rng,num-start-421,421,25726,3.8838958740234375,True,,True,1,False,1000,True,1.0
./expes/v2_2020-12-03_dh_100-prng-1,30_issda_100,100,rng-100,1,rng,num-start-721,721,25726,6.7287352085113525,True,,True,1,False,1000,True,1.0
./expes/v2_2020-12-03_dh_100-prng-1,30_issda_100,100,rng-100,61,rng,num-start-421,421,25726,4.111363649368286,True,,True,1,False,1000,True,1.0
./expes/v2_2020-12-03_dh_100-prng-1,30_issda_100,100,rng-100,41,rng,num-start-311,311,25726,3.208094358444214,True,,True,1,False,1000,True,1.0
./expes/v2_2020-12-03_dh_100-prng-1,30_issda_100,100,rng-100,71,rng,num-start-321,321,25726,3.4684605598449707,True,,True,1,False,1000,True,1.0
./expes/v2_2020-12-03_dh_100-prng-1,30_issda_100,100,rng-100,41,rng,num-start-61,61,25726,0.7510049343109131,True,,True,1,False,1000,True,1.0
./expes/v2_2020-12-03_dh_100-prng-1,30_issda_100,100,rng-100,1,rng,num-start-341,341,25726,3.080681562423706,True,,True,1,False,1000,True,1.0
./expes/v2_2020-12-03_dh_100-prng-1,30_issda_100,100,rng-100,41,rng,num-start-561,561,25726,5.478649854660034,True,,True,1,False,1000,True,1.0
./expes/v2_2020-12-03_dh_100-prng-1,30_issda_100,100,rng-100,61,rng,num-start-211,211,25726,2.155259370803833,True,,True,1,False,1000,True,1.0
./expes/v2_2020-12-03_dh_100-prng-1,30_issda_100,100,rng-100,91,rng,num-start-651,651,25726,6.049631357192993,True,,True,1,False,1000,True,1.0
./expes/v2_2020-12-03_dh_100-prng-1,30_issda_100,100,rng-100,1,rng,num-start-971,971,25726,8.630348682403564,True,,True,1,False,1000,True,1.0
./expes/v2_2020-12-03_dh_100-prng-1,30_issda_100,100,rng-100,1,rng,num-start-31,31,25726,0.3024101257324219,True,,True,1,False,1000,True,1.0
./expes/v2_2020-12-03_dh_100-prng-1,30_issda_100,100,rng-100,81,rng,num-start-511,511,25726,5.004838228225708,True,,True,1,False,1000,True,1.0
./expes/v2_2020-12-03_dh_100-prng-1,30_issda_100,100,rng-100,91,rng,num-start-571,571,25726,5.196633338928223,True,,True,1,False,1000,True,1.0
./expes/v2_2020-12-03_dh_100-prng-1,30_issda_100,100,rng-100,81,rng,num-start-801,801,25726,7.929533958435059,True,,True,1,False,1000,True,1.0
./expes/v2_2020-12-03_dh_100-prng-1,30_issda_100,100,rng-100,51,rng,num-start-461,461,25726,4.8696417808532715,True,,True,1,False,1000,True,1.0
./expes/v2_2020-12-03_dh_100-prng-1,30_issda_100,100,rng-100,1,rng,num-start-671,671,25726,6.148759365081787,True,,True,1,False,1000,True,1.0
./expes/v2_2020-12-03_dh_100-prng-1,30_issda_100,100,rng-100,91,rng,num-start-131,131,25726,1.4843378067016602,True,,True,1,False,1000,True,1.0
./expes/v2_2020-12-03_dh_100-prng-1,30_issda_100,100,rng-100,81,rng,num-start-641,641,25726,6.227312326431274,True,,True,1,False,1000,True,1.0
./expes/v2_2020-12-03_dh_100-prng-1,30_issda_100,100,rng-100,61,rng,num-start-931,931,25726,9.328627347946167,True,,True,1,False,1000,True,1.0
./expes/v2_2020-12-03_dh_100-prng-1,30_issda_100,100,rng-100,31,rng,num-start-361,361,25726,3.85356068611145,True,,True,1,False,1000,True,1.0
./expes/v2_2020-12-03_dh_100-prng-1,30_issda_100,100,rng-100,41,rng,num-start-141,141,25726,1.5372090339660645,True,,True,1,False,1000,True,1.0
./expes/v2_2020-12-03_dh_100-prng-1,30_issda_100,100,rng-100,21,rng,num-start-481,481,25726,4.751538515090942,True,,True,1,False,1000,True,1.0
./expes/v2_2020-12-03_dh_100-prng-1,30_issda_100,100,rng-100,1,rng,num-start-31,31,25726,0.33184099197387695,True,,True,1,False,1000,True,1.0
./expes/v2_2020-12-03_dh_100-prng-1,30_issda_100,100,rng-100,11,rng,num-start-621,621,25726,5.570857524871826,True,,True,1,False,1000,True,1.0
./expes/v2_2020-12-03_dh_100-prng-1,30_issda_100,100,rng-100,31,rng,num-start-591,591,25726,6.092970371246338,True,,True,1,False,1000,True,1.0
./expes/v2_2020-12-03_dh_100-prng-1,30_issda_100,100,rng-100,11,rng,num-start-111,111,25726,1.2949321269989014,True,,True,1,False,1000,True,1.0
./expes/v2_2020-12-03_dh_100-prng-1,30_issda_100,100,rng-100,21,rng,num-start-721,721,25726,7.085758447647095,True,,True,1,False,1000,True,1.0
./expes/v2_2020-12-03_dh_100-prng-1,30_issda_100,100,rng-100,81,rng,num-start-441,441,25726,4.449089527130127,True,,True,1,False,1000,True,1.0
./expes/v2_2020-12-03_dh_100-prng-1,30_issda_100,100,rng-100,61,rng,num-start-411,411,25726,4.238229751586914,True,,True,1,False,1000,True,1.0
./expes/v2_2020-12-03_dh_100-prng-1,30_issda_100,100,rng-100,91,rng,num-start-761,761,25726,7.329622983932495,True,,True,1,False,1000,True,1.0
./expes/v2_2020-12-03_dh_100-prng-1,30_issda_100,100,rng-100,91,rng,num-start-871,871,25726,7.938149690628052,True,,True,1,False,1000,True,1.0
./expes/v2_2020-12-03_dh_100-prng-1,30_issda_100,100,rng-100,31,rng,num-start-401,401,25726,4.283412933349609,True,,True,1,False,1000,True,1.0
./expes/v2_2020-12-03_dh_100-prng-1,30_issda_100,100,rng-100,41,rng,num-start-81,81,25726,0.8609874248504639,True,,True,1,False,1000,True,1.0
./expes/v2_2020-12-03_dh_100-prng-1,30_issda_100,100,rng-100,71,rng,num-start-831,831,25726,8.167280673980713,True,,True,1,False,1000,True,1.0
./expes/v2_2020-12-03_dh_100-prng-1,30_issda_100,100,rng-100,21,rng,num-start-501,501,25726,4.836935758590698,True,,True,1,False,1000,True,1.0
./expes/v2_2020-12-03_dh_100-prng-1,30_issda_100,100,rng-100,61,rng,num-start-811,811,25726,8.011386632919312,True,,True,1,False,1000,True,1.0
./expes/v2_2020-12-03_dh_100-prng-1,30_issda_100,100,rng-100,41,rng,num-start-921,921,25726,9.27838921546936,True,,True,1,False,1000,True,1.0
./expes/v2_2020-12-03_dh_100-prng-1,30_issda_100,100,rng-100,41,rng,num-start-741,741,25726,7.115391254425049,True,,True,1,False,1000,True,1.0
./expes/v2_2020-12-03_dh_100-prng-1,30_issda_100,100,rng-100,51,rng,num-start-21,21,25726,96.44746661186218,True,,True,1,False,1000,True,1.0
./expes/v2_2020-12-03_dh_100-prng-1,30_issda_100,100,rng-100,81,rng,num-start-221,221,25726,2.3793277740478516,True,,True,1,False,1000,True,1.0
./expes/v2_2020-12-03_dh_100-prng-1,30_issda_100,100,rng-100,71,rng,num-start-391,391,25726,3.963587999343872,True,,True,1,False,1000,True,1.0
./expes/v2_2020-12-03_dh_100-prng-1,30_issda_100,100,rng-100,81,rng,num-start-271,271,25726,2.6702823638916016,True,,True,1,False,1000,True,1.0
./expes/v2_2020-12-03_dh_100-prng-1,30_issda_100,100,rng-100,31,rng,num-start-621,621,25726,6.383953809738159,True,,True,1,False,1000,True,1.0
./expes/v2_2020-12-03_dh_100-prng-1,30_issda_100,100,rng-100,31,rng,num-start-231,231,25726,2.487121820449829,True,,True,1,False,1000,True,1.0
./expes/v2_2020-12-03_dh_100-prng-1,30_issda_100,100,rng-100,1,rng,num-start-511,511,25726,4.645415306091309,True,,True,1,False,1000,True,1.0
./expes/v2_2020-12-03_dh_100-prng-1,30_issda_100,100,rng-100,91,rng,num-start-991,991,25726,9.867130041122437,True,,True,1,False,1000,True,1.0
./expes/v2_2020-12-03_dh_100-prng-1,30_issda_100,100,rng-100,41,rng,num-start-841,841,25726,8.466079473495483,True,,True,1,False,1000,True,1.0
./expes/v2_2020-12-03_dh_100-prng-1,30_issda_100,100,rng-100,41,rng,num-start-231,231,25726,2.6086912155151367,True,,True,1,False,1000,True,1.0
./expes/v2_2020-12-03_dh_100-prng-1,30_issda_100,100,rng-100,81,rng,num-start-191,191,25726,2.08829402923584,True,,True,1,False,1000,True,1.0
./expes/v2_2020-12-03_dh_100-prng-1,30_issda_100,100,rng-100,11,rng,num-start-301,301,25726,2.9153823852539062,True,,True,1,False,1000,True,1.0
./expes/v2_2020-12-03_dh_100-prng-1,30_issda_100,100,rng-100,71,rng,num-start-331,331,25726,3.1897518634796143,True,,True,1,False,1000,True,1.0
./expes/v2_2020-12-03_dh_100-prng-1,30_issda_100,100,rng-100,61,rng,num-start-171,171,25726,1.8197600841522217,True,,True,1,False,1000,True,1.0
./expes/v2_2020-12-03_dh_100-prng-1,30_issda_100,100,rng-100,1,rng,num-start-571,571,25726,5.0178587436676025,True,,True,1,False,1000,True,1.0
./expes/v2_2020-12-03_dh_100-prng-1,30_issda_100,100,rng-100,91,rng,num-start-211,211,25726,1.974120855331421,True,,True,1,False,1000,True,1.0
./expes/v2_2020-12-03_dh_100-prng-1,30_issda_100,100,rng-100,81,rng,num-start-941,941,25726,9.410797119140625,True,,True,1,False,1000,True,1.0
./expes/v2_2020-12-03_dh_100-prng-1,30_issda_100,100,rng-100,1,rng,num-start-111,111,25726,1.0758485794067383,True,,True,1,False,1000,True,1.0
./expes/v2_2020-12-03_dh_100-prng-1,30_issda_100,100,rng-100,61,rng,num-start-911,911,25726,9.683929204940796,True,,True,1,False,1000,True,1.0
./expes/v2_2020-12-03_dh_100-prng-1,30_issda_100,100,rng-100,71,rng,num-start-751,751,25726,7.554229736328125,True,,True,1,False,1000,True,1.0
./expes/v2_2020-12-03_dh_100-prng-1,30_issda_100,100,rng-100,41,rng,num-start-361,361,25726,3.633676767349243,True,,True,1,False,1000,True,1.0
./expes/v2_2020-12-03_dh_100-prng-1,30_issda_100,100,rng-100,81,rng,num-start-901,901,25726,8.793855905532837,True,,True,1,False,1000,True,1.0
./expes/v2_2020-12-03_dh_100-prng-1,30_issda_100,100,rng-100,61,rng,num-start-31,31,25726,1.1814823150634766,True,,True,1,False,1000,True,1.0
./expes/v2_2020-12-03_dh_100-prng-1,30_issda_100,100,rng-100,11,rng,num-start-301,301,25726,2.724128246307373,True,,True,1,False,1000,True,1.0
./expes/v2_2020-12-03_dh_100-prng-1,30_issda_100,100,rng-100,41,rng,num-start-91,91,25726,1.1580681800842285,True,,True,1,False,1000,True,1.0
./expes/v2_2020-12-03_dh_100-prng-1,30_issda_100,100,rng-100,21,rng,num-start-461,461,25726,4.703171253204346,True,,True,1,False,1000,True,1.0
./expes/v2_2020-12-03_dh_100-prng-1,30_issda_100,100,rng-100,61,rng,num-start-1,1,25726,0.16973233222961426,False,,False,2,False,1000,True,1.0
./expes/v2_2020-12-03_dh_100-prng-1,30_issda_100,100,rng-100,21,rng,num-start-421,421,25726,4.493881464004517,True,,True,1,False,1000,True,1.0
./expes/v2_2020-12-03_dh_100-prng-1,30_issda_100,100,rng-100,91,rng,num-start-991,991,25726,9.056157112121582,True,,True,1,False,1000,True,1.0
./expes/v2_2020-12-03_dh_100-prng-1,30_issda_100,100,rng-100,51,rng,num-start-111,111,25726,1.1884028911590576,True,,True,1,False,1000,True,1.0
./expes/v2_2020-12-03_dh_100-prng-1,30_issda_100,100,rng-100,1,rng,num-start-461,461,25726,4.16818904876709,True,,True,1,False,1000,True,1.0
./expes/v2_2020-12-03_dh_100-prng-1,30_issda_100,100,rng-100,91,rng,num-start-51,51,25726,0.5931646823883057,True,,True,1,False,1000,True,1.0
./expes/v2_2020-12-03_dh_100-prng-1,30_issda_100,100,rng-100,31,rng,num-start-461,461,25726,4.803231716156006,True,,True,1,False,1000,True,1.0
./expes/v2_2020-12-03_dh_100-prng-1,30_issda_100,100,rng-100,61,rng,num-start-901,901,25726,9.535716533660889,True,,True,1,False,1000,True,1.0
./expes/v2_2020-12-03_dh_100-prng-1,30_issda_100,100,rng-100,61,rng,num-start-571,571,25726,5.71655797958374,True,,True,1,False,1000,True,1.0
./expes/v2_2020-12-03_dh_100-prng-1,30_issda_100,100,rng-100,11,rng,num-start-101,101,25726,1.0560669898986816,True,,True,1,False,1000,True,1.0
./expes/v2_2020-12-03_dh_100-prng-1,30_issda_100,100,rng-100,71,rng,num-start-571,571,25726,5.710427284240723,True,,True,1,False,1000,True,1.0
./expes/v2_2020-12-03_dh_100-prng-1,30_issda_100,100,rng-100,1,rng,num-start-941,941,25726,8.45943021774292,True,,True,1,False,1000,True,1.0
./expes/v2_2020-12-03_dh_100-prng-1,30_issda_100,100,rng-100,51,rng,num-start-811,811,25726,8.341055870056152,True,,True,1,False,1000,True,1.0
./expes/v2_2020-12-03_dh_100-prng-1,30_issda_100,100,rng-100,21,rng,num-start-251,251,25726,2.667501449584961,True,,True,1,False,1000,True,1.0
./expes/v2_2020-12-03_dh_100-prng-1,30_issda_100,100,rng-100,71,rng,num-start-821,821,25726,8.059360265731812,True,,True,1,False,1000,True,1.0
./expes/v2_2020-12-03_dh_100-prng-1,30_issda_100,100,rng-100,61,rng,num-start-221,221,25726,2.3056631088256836,True,,True,1,False,1000,True,1.0
./expes/v2_2020-12-03_dh_100-prng-1,30_issda_100,100,rng-100,1,rng,num-start-51,51,25726,0.4761776924133301,True,,True,1,False,1000,True,1.0
./expes/v2_2020-12-03_dh_100-prng-1,30_issda_100,100,rng-100,91,rng,num-start-961,961,25726,8.78920841217041,True,,True,1,False,1000,True,1.0
./expes/v2_2020-12-03_dh_100-prng-1,30_issda_100,100,rng-100,61,rng,num-start-81,81,25726,1.0526320934295654,True,,True,1,False,1000,True,1.0
./expes/v2_2020-12-03_dh_100-prng-1,30_issda_100,100,rng-100,41,rng,num-start-951,951,25726,9.67900562286377,True,,True,1,False,1000,True,1.0
./expes/v2_2020-12-03_dh_100-prng-1,30_issda_100,100,rng-100,61,rng,num-start-521,521,25726,5.277005672454834,True,,True,1,False,1000,True,1.0
./expes/v2_2020-12-03_dh_100-prng-1,30_issda_100,100,rng-100,1,rng,num-start-181,181,25726,1.652385950088501,True,,True,1,False,1000,True,1.0
./expes/v2_2020-12-03_dh_100-prng-1,30_issda_100,100,rng-100,41,rng,num-start-221,221,25726,2.515263795852661,True,,True,1,False,1000,True,1.0
./expes/v2_2020-12-03_dh_100-prng-1,30_issda_100,100,rng-100,61,rng,num-start-381,381,25726,4.006404399871826,True,,True,1,False,1000,True,1.0
./expes/v2_2020-12-03_dh_100-prng-1,30_issda_100,100,rng-100,61,rng,num-start-741,741,25726,7.670689821243286,True,,True,1,False,1000,True,1.0
./expes/v2_2020-12-03_dh_100-prng-1,30_issda_100,100,rng-100,91,rng,num-start-931,931,25726,8.680538177490234,True,,True,1,False,1000,True,1.0
./expes/v2_2020-12-03_dh_100-prng-1,30_issda_100,100,rng-100,21,rng,num-start-431,431,25726,4.208245754241943,True,,True,1,False,1000,True,1.0
./expes/v2_2020-12-03_dh_100-prng-1,30_issda_100,100,rng-100,11,rng,num-start-541,541,25726,5.114252328872681,True,,True,1,False,1000,True,1.0
./expes/v2_2020-12-03_dh_100-prng-1,30_issda_100,100,rng-100,21,rng,num-start-511,511,25726,5.356760740280151,True,,True,1,False,1000,True,1.0
./expes/v2_2020-12-03_dh_100-prng-1,30_issda_100,100,rng-100,61,rng,num-start-361,361,25726,3.815150499343872,True,,True,1,False,1000,True,1.0
./expes/v2_2020-12-03_dh_100-prng-1,30_issda_100,100,rng-100,21,rng,num-start-411,411,25726,4.040822267532349,True,,True,1,False,1000,True,1.0
./expes/v2_2020-12-03_dh_100-prng-1,30_issda_100,100,rng-100,41,rng,num-start-181,181,25726,1.9759020805358887,True,,True,1,False,1000,True,1.0
./expes/v2_2020-12-03_dh_100-prng-1,30_issda_100,100,rng-100,11,rng,num-start-491,491,25726,4.934502124786377,True,,True,1,False,1000,True,1.0
./expes/v2_2020-12-03_dh_100-prng-1,30_issda_100,100,rng-100,71,rng,num-start-761,761,25726,7.618655443191528,True,,True,1,False,1000,True,1.0
./expes/v2_2020-12-03_dh_100-prng-1,30_issda_100,100,rng-100,11,rng,num-start-251,251,25726,2.5511953830718994,True,,True,1,False,1000,True,1.0
./expes/v2_2020-12-03_dh_100-prng-1,30_issda_100,100,rng-100,51,rng,num-start-161,161,25726,1.8084204196929932,True,,True,1,False,1000,True,1.0
./expes/v2_2020-12-03_dh_100-prng-1,30_issda_100,100,rng-100,1,rng,num-start-371,371,25726,3.320465564727783,True,,True,1,False,1000,True,1.0
./expes/v2_2020-12-03_dh_100-prng-1,30_issda_100,100,rng-100,1,rng,num-start-91,91,25726,0.8041439056396484,True,,True,1,False,1000,True,1.0
./expes/v2_2020-12-03_dh_100-prng-1,30_issda_100,100,rng-100,91,rng,num-start-751,751,25726,7.195497751235962,True,,True,1,False,1000,True,1.0
./expes/v2_2020-12-03_dh_100-prng-1,30_issda_100,100,rng-100,41,rng,num-start-581,581,25726,6.908658742904663,True,,True,1,False,1000,True,1.0
./expes/v2_2020-12-03_dh_100-prng-1,30_issda_100,100,rng-100,21,rng,num-start-481,481,25726,4.841334104537964,True,,True,1,False,1000,True,1.0
./expes/v2_2020-12-03_dh_100-prng-1,30_issda_100,100,rng-100,1,rng,num-start-371,371,25726,3.3589673042297363,True,,True,1,False,1000,True,1.0
./expes/v2_2020-12-03_dh_100-prng-1,30_issda_100,100,rng-100,61,rng,num-start-961,961,25726,9.962637662887573,True,,True,1,False,1000,True,1.0
./expes/v2_2020-12-03_dh_100-prng-1,30_issda_100,100,rng-100,61,rng,num-start-121,121,25726,1.2867038249969482,True,,True,1,False,1000,True,1.0
./expes/v2_2020-12-03_dh_100-prng-1,30_issda_100,100,rng-100,31,rng,num-start-461,461,25726,4.627071857452393,True,,True,1,False,1000,True,1.0
./expes/v2_2020-12-03_dh_100-prng-1,30_issda_100,100,rng-100,71,rng,num-start-111,111,25726,1.2978966236114502,True,,True,1,False,1000,True,1.0
./expes/v2_2020-12-03_dh_100-prng-1,30_issda_100,100,rng-100,1,rng,num-start-641,641,25726,5.98786187171936,True,,True,1,False,1000,True,1.0
./expes/v2_2020-12-03_dh_100-prng-1,30_issda_100,100,rng-100,71,rng,num-start-471,471,25726,4.975528717041016,True,,True,1,False,1000,True,1.0
./expes/v2_2020-12-03_dh_100-prng-1,30_issda_100,100,rng-100,11,rng,num-start-141,141,25726,1.374997615814209,True,,True,1,False,1000,True,1.0
./expes/v2_2020-12-03_dh_100-prng-1,30_issda_100,100,rng-100,81,rng,num-start-51,51,25726,0.5957155227661133,True,,True,1,False,1000,True,1.0
./expes/v2_2020-12-03_dh_100-prng-1,30_issda_100,100,rng-100,41,rng,num-start-851,851,25726,9.371367454528809,True,,True,1,False,1000,True,1.0
./expes/v2_2020-12-03_dh_100-prng-1,30_issda_100,100,rng-100,81,rng,num-start-231,231,25726,2.531773090362549,True,,True,1,False,1000,True,1.0
./expes/v2_2020-12-03_dh_100-prng-1,30_issda_100,100,rng-100,81,rng,num-start-941,941,25726,9.898200273513794,True,,True,1,False,1000,True,1.0
./expes/v2_2020-12-03_dh_100-prng-1,30_issda_100,100,rng-100,71,rng,num-start-251,251,25726,2.625983953475952,True,,True,1,False,1000,True,1.0
./expes/v2_2020-12-03_dh_100-prng-1,30_issda_100,100,rng-100,91,rng,num-start-321,321,25726,3.2222509384155273,True,,True,1,False,1000,True,1.0
./expes/v2_2020-12-03_dh_100-prng-1,30_issda_100,100,rng-100,61,rng,num-start-361,361,25726,3.6126108169555664,True,,True,1,False,1000,True,1.0
./expes/v2_2020-12-03_dh_100-prng-1,30_issda_100,100,rng-100,41,rng,num-start-101,101,25726,1.204026460647583,True,,True,1,False,1000,True,1.0
./expes/v2_2020-12-03_dh_100-prng-1,30_issda_100,100,rng-100,71,rng,num-start-171,171,25726,1.8052935600280762,True,,True,1,False,1000,True,1.0
./expes/v2_2020-12-03_dh_100-prng-1,30_issda_100,100,rng-100,1,rng,num-start-391,391,25726,3.91225528717041,True,,True,1,False,1000,True,1.0
./expes/v2_2020-12-03_dh_100-prng-1,30_issda_100,100,rng-100,51,rng,num-start-391,391,25726,3.8404793739318848,True,,True,1,False,1000,True,1.0
./expes/v2_2020-12-03_dh_100-prng-1,30_issda_100,100,rng-100,91,rng,num-start-61,61,25726,0.6990411281585693,True,,True,1,False,1000,True,1.0
./expes/v2_2020-12-03_dh_100-prng-1,30_issda_100,100,rng-100,31,rng,num-start-711,711,25726,7.482804775238037,True,,True,1,False,1000,True,1.0
./expes/v2_2020-12-03_dh_100-prng-1,30_issda_100,100,rng-100,71,rng,num-start-911,911,25726,9.339993238449097,True,,True,1,False,1000,True,1.0
./expes/v2_2020-12-03_dh_100-prng-1,30_issda_100,100,rng-100,51,rng,num-start-511,511,25726,5.40806770324707,True,,True,1,False,1000,True,1.0
./expes/v2_2020-12-03_dh_100-prng-1,30_issda_100,100,rng-100,91,rng,num-start-781,781,25726,7.0730226039886475,True,,True,1,False,1000,True,1.0
./expes/v2_2020-12-03_dh_100-prng-1,30_issda_100,100,rng-100,81,rng,num-start-51,51,25726,0.6697888374328613,True,,True,1,False,1000,True,1.0
./expes/v2_2020-12-03_dh_100-prng-1,30_issda_100,100,rng-100,41,rng,num-start-941,941,25726,9.32836103439331,True,,True,1,False,1000,True,1.0
./expes/v2_2020-12-03_dh_100-prng-1,30_issda_100,100,rng-100,61,rng,num-start-851,851,25726,8.599302768707275,True,,True,1,False,1000,True,1.0
./expes/v2_2020-12-03_dh_100-prng-1,30_issda_100,100,rng-100,1,rng,num-start-291,291,25726,2.686873197555542,True,,True,1,False,1000,True,1.0
./expes/v2_2020-12-03_dh_100-prng-1,30_issda_100,100,rng-100,31,rng,num-start-871,871,25726,8.922070503234863,True,,True,1,False,1000,True,1.0
./expes/v2_2020-12-03_dh_100-prng-1,30_issda_100,100,rng-100,51,rng,num-start-181,181,25726,1.97304105758667,True,,True,1,False,1000,True,1.0
./expes/v2_2020-12-03_dh_100-prng-1,30_issda_100,100,rng-100,41,rng,num-start-151,151,25726,1.7564036846160889,True,,True,1,False,1000,True,1.0
./expes/v2_2020-12-03_dh_100-prng-1,30_issda_100,100,rng-100,1,rng,num-start-381,381,25726,3.5651016235351562,True,,True,1,False,1000,True,1.0
./expes/v2_2020-12-03_dh_100-prng-1,30_issda_100,100,rng-100,11,rng,num-start-531,531,25726,4.919813394546509,True,,True,1,False,1000,True,1.0
./expes/v2_2020-12-03_dh_100-prng-1,30_issda_100,100,rng-100,91,rng,num-start-181,181,25726,1.6677038669586182,True,,True,1,False,1000,True,1.0
./expes/v2_2020-12-03_dh_100-prng-1,30_issda_100,100,rng-100,71,rng,num-start-991,991,25726,10.39298152923584,True,,True,1,False,1000,True,1.0
./expes/v2_2020-12-03_dh_100-prng-1,30_issda_100,100,rng-100,41,rng,num-start-681,681,25726,6.817670583724976,True,,True,1,False,1000,True,1.0
./expes/v2_2020-12-03_dh_100-prng-1,30_issda_100,100,rng-100,81,rng,num-start-531,531,25726,5.323054552078247,True,,True,1,False,1000,True,1.0
./expes/v2_2020-12-03_dh_100-prng-1,30_issda_100,100,rng-100,61,rng,num-start-51,51,25726,0.6713895797729492,True,,True,1,False,1000,True,1.0
./expes/v2_2020-12-03_dh_100-prng-1,30_issda_100,100,rng-100,41,rng,num-start-811,811,25726,8.079057216644287,True,,True,1,False,1000,True,1.0
./expes/v2_2020-12-03_dh_100-prng-1,30_issda_100,100,rng-100,71,rng,num-start-971,971,25726,10.073371410369873,True,,True,1,False,1000,True,1.0
./expes/v2_2020-12-03_dh_100-prng-1,30_issda_100,100,rng-100,11,rng,num-start-241,241,25726,2.4102773666381836,True,,True,1,False,1000,True,1.0
./expes/v2_2020-12-03_dh_100-prng-1,30_issda_100,100,rng-100,1,rng,num-start-421,421,25726,3.7655084133148193,True,,True,1,False,1000,True,1.0
./expes/v2_2020-12-03_dh_100-prng-1,30_issda_100,100,rng-100,51,rng,num-start-41,41,25726,0.7680611610412598,True,,True,1,False,1000,True,1.0
./expes/v2_2020-12-03_dh_100-prng-1,30_issda_100,100,rng-100,71,rng,num-start-991,991,25726,9.783926486968994,True,,True,1,False,1000,True,1.0
./expes/v2_2020-12-03_dh_100-prng-1,30_issda_100,100,rng-100,81,rng,num-start-831,831,25726,8.219235181808472,True,,True,1,False,1000,True,1.0
./expes/v2_2020-12-03_dh_100-prng-1,30_issda_100,100,rng-100,21,rng,num-start-221,221,25726,2.394655704498291,True,,True,1,False,1000,True,1.0
./expes/v2_2020-12-03_dh_100-prng-1,30_issda_100,100,rng-100,1,rng,num-start-21,21,25726,0.19318127632141113,True,,True,1,False,1000,True,1.0
./expes/v2_2020-12-03_dh_100-prng-1,30_issda_100,100,rng-100,21,rng,num-start-51,51,25726,0.6594700813293457,True,,True,1,False,1000,True,1.0
./expes/v2_2020-12-03_dh_100-prng-1,30_issda_100,100,rng-100,1,rng,num-start-511,511,25726,4.623173952102661,True,,True,1,False,1000,True,1.0
./expes/v2_2020-12-03_dh_100-prng-1,30_issda_100,100,rng-100,91,rng,num-start-451,451,25726,4.268061876296997,True,,True,1,False,1000,True,1.0
./expes/v2_2020-12-03_dh_100-prng-1,30_issda_100,100,rng-100,51,rng,num-start-901,901,25726,9.141438245773315,True,,True,1,False,1000,True,1.0
./expes/v2_2020-12-03_dh_100-prng-1,30_issda_100,100,rng-100,71,rng,num-start-621,621,25726,6.031117677688599,True,,True,1,False,1000,True,1.0
./expes/v2_2020-12-03_dh_100-prng-1,30_issda_100,100,rng-100,81,rng,num-start-601,601,25726,6.0844902992248535,True,,True,1,False,1000,True,1.0
./expes/v2_2020-12-03_dh_100-prng-1,30_issda_100,100,rng-100,91,rng,num-start-661,661,25726,6.203956604003906,True,,True,1,False,1000,True,1.0
./expes/v2_2020-12-03_dh_100-prng-1,30_issda_100,100,rng-100,11,rng,num-start-371,371,25726,3.4506869316101074,True,,True,1,False,1000,True,1.0
./expes/v2_2020-12-03_dh_100-prng-1,30_issda_100,100,rng-100,21,rng,num-start-81,81,25726,0.9932894706726074,True,,True,1,False,1000,True,1.0
./expes/v2_2020-12-03_dh_100-prng-1,30_issda_100,100,rng-100,81,rng,num-start-721,721,25726,7.310824632644653,True,,True,1,False,1000,True,1.0
./expes/v2_2020-12-03_dh_100-prng-1,30_issda_100,100,rng-100,1,rng,num-start-261,261,25726,2.4526546001434326,True,,True,1,False,1000,True,1.0
./expes/v2_2020-12-03_dh_100-prng-1,30_issda_100,100,rng-100,91,rng,num-start-891,891,25726,8.13376784324646,True,,True,1,False,1000,True,1.0
./expes/v2_2020-12-03_dh_100-prng-1,30_issda_100,100,rng-100,41,rng,num-start-481,481,25726,4.800630331039429,True,,True,1,False,1000,True,1.0
./expes/v2_2020-12-03_dh_100-prng-1,30_issda_100,100,rng-100,31,rng,num-start-911,911,25726,9.064339399337769,True,,True,1,False,1000,True,1.0
./expes/v2_2020-12-03_dh_100-prng-1,30_issda_100,100,rng-100,31,rng,num-start-311,311,25726,3.103553056716919,True,,True,1,False,1000,True,1.0
./expes/v2_2020-12-03_dh_100-prng-1,30_issda_100,100,rng-100,11,rng,num-start-481,481,25726,4.8576819896698,True,,True,1,False,1000,True,1.0
./expes/v2_2020-12-03_dh_100-prng-1,30_issda_100,100,rng-100,41,rng,num-start-461,461,25726,4.617689847946167,True,,True,1,False,1000,True,1.0
./expes/v2_2020-12-03_dh_100-prng-1,30_issda_100,100,rng-100,81,rng,num-start-801,801,25726,7.780411720275879,True,,True,1,False,1000,True,1.0
./expes/v2_2020-12-03_dh_100-prng-1,30_issda_100,100,rng-100,81,rng,num-start-831,831,25726,7.841857433319092,True,,True,1,False,1000,True,1.0
./expes/v2_2020-12-03_dh_100-prng-1,30_issda_100,100,rng-100,41,rng,num-start-551,551,25726,5.477940559387207,True,,True,1,False,1000,True,1.0
./expes/v2_2020-12-03_dh_100-prng-1,30_issda_100,100,rng-100,11,rng,num-start-1,1,25726,0.045160770416259766,False,,False,2,False,1000,True,1.0
./expes/v2_2020-12-03_dh_100-prng-1,30_issda_100,100,rng-100,1,rng,num-start-1,1,25726,0.020848989486694336,True,,True,1,False,1000,True,1.0
./expes/v2_2020-12-03_dh_100-prng-1,30_issda_100,100,rng-100,21,rng,num-start-301,301,25726,3.030137300491333,True,,True,1,False,1000,True,1.0
./expes/v2_2020-12-03_dh_100-prng-1,30_issda_100,100,rng-100,21,rng,num-start-541,541,25726,5.534579515457153,True,,True,1,False,1000,True,1.0
./expes/v2_2020-12-03_dh_100-prng-1,30_issda_100,100,rng-100,51,rng,num-start-31,31,25726,2.599228858947754,True,,True,1,False,1000,True,1.0
./expes/v2_2020-12-03_dh_100-prng-1,30_issda_100,100,rng-100,51,rng,num-start-301,301,25726,3.4628190994262695,True,,True,1,False,1000,True,1.0
./expes/v2_2020-12-03_dh_100-prng-1,30_issda_100,100,rng-100,1,rng,num-start-511,511,25726,4.5934898853302,True,,True,1,False,1000,True,1.0
./expes/v2_2020-12-03_dh_100-prng-1,30_issda_100,100,rng-100,11,rng,num-start-421,421,25726,3.9597766399383545,True,,True,1,False,1000,True,1.0
./expes/v2_2020-12-03_dh_100-prng-1,30_issda_100,100,rng-100,81,rng,num-start-791,791,25726,8.513637065887451,True,,True,1,False,1000,True,1.0
./expes/v2_2020-12-03_dh_100-prng-1,30_issda_100,100,rng-100,81,rng,num-start-301,301,25726,3.200674057006836,True,,True,1,False,1000,True,1.0
./expes/v2_2020-12-03_dh_100-prng-1,30_issda_100,100,rng-100,41,rng,num-start-871,871,25726,9.192785739898682,True,,True,1,False,1000,True,1.0
./expes/v2_2020-12-03_dh_100-prng-1,30_issda_100,100,rng-100,61,rng,num-start-61,61,25726,0.8039243221282959,True,,True,1,False,1000,True,1.0
./expes/v2_2020-12-03_dh_100-prng-1,30_issda_100,100,rng-100,61,rng,num-start-251,251,25726,2.69868540763855,True,,True,1,False,1000,True,1.0
./expes/v2_2020-12-03_dh_100-prng-1,30_issda_100,100,rng-100,1,rng,num-start-121,121,25726,1.117112159729004,True,,True,1,False,1000,True,1.0
./expes/v2_2020-12-03_dh_100-prng-1,30_issda_100,100,rng-100,31,rng,num-start-81,81,25726,0.9485659599304199,True,,True,1,False,1000,True,1.0
./expes/v2_2020-12-03_dh_100-prng-1,30_issda_100,100,rng-100,31,rng,num-start-821,821,25726,8.265792846679688,True,,True,1,False,1000,True,1.0
./expes/v2_2020-12-03_dh_100-prng-1,30_issda_100,100,rng-100,21,rng,num-start-931,931,25726,9.199034690856934,True,,True,1,False,1000,True,1.0
./expes/v2_2020-12-03_dh_100-prng-1,30_issda_100,100,rng-100,91,rng,num-start-741,741,25726,6.849969863891602,True,,True,1,False,1000,True,1.0
./expes/v2_2020-12-03_dh_100-prng-1,30_issda_100,100,rng-100,21,rng,num-start-821,821,25726,8.274542808532715,True,,True,1,False,1000,True,1.0
./expes/v2_2020-12-03_dh_100-prng-1,30_issda_100,100,rng-100,21,rng,num-start-441,441,25726,4.453871726989746,True,,True,1,False,1000,True,1.0
./expes/v2_2020-12-03_dh_100-prng-1,30_issda_100,100,rng-100,31,rng,num-start-281,281,25726,3.1572277545928955,True,,True,1,False,1000,True,1.0
./expes/v2_2020-12-03_dh_100-prng-1,30_issda_100,100,rng-100,41,rng,num-start-61,61,25726,0.7342104911804199,True,,True,1,False,1000,True,1.0
./expes/v2_2020-12-03_dh_100-prng-1,30_issda_100,100,rng-100,11,rng,num-start-591,591,25726,5.9335832595825195,True,,True,1,False,1000,True,1.0
./expes/v2_2020-12-03_dh_100-prng-1,30_issda_100,100,rng-100,51,rng,num-start-851,851,25726,9.005529880523682,True,,True,1,False,1000,True,1.0
./expes/v2_2020-12-03_dh_100-prng-1,30_issda_100,100,rng-100,21,rng,num-start-1,1,25726,0.23412370681762695,False,,False,2,False,1000,True,1.0
./expes/v2_2020-12-03_dh_100-prng-1,30_issda_100,100,rng-100,41,rng,num-start-11,11,25726,1004.2234816551208,False,,False,0,True,1000,True,0.0
./expes/v2_2020-12-03_dh_100-prng-1,30_issda_100,100,rng-100,71,rng,num-start-621,621,25726,6.30000638961792,True,,True,1,False,1000,True,1.0
./expes/v2_2020-12-03_dh_100-prng-1,30_issda_100,100,rng-100,21,rng,num-start-991,991,25726,10.06043028831482,True,,True,1,False,1000,True,1.0
./expes/v2_2020-12-03_dh_100-prng-1,30_issda_100,100,rng-100,71,rng,num-start-331,331,25726,3.6247057914733887,True,,True,1,False,1000,True,1.0
./expes/v2_2020-12-03_dh_100-prng-1,30_issda_100,100,rng-100,81,rng,num-start-751,751,25726,7.404424428939819,True,,True,1,False,1000,True,1.0
./expes/v2_2020-12-03_dh_100-prng-1,30_issda_100,100,rng-100,71,rng,num-start-131,131,25726,1.5450530052185059,True,,True,1,False,1000,True,1.0
./expes/v2_2020-12-03_dh_100-prng-1,30_issda_100,100,rng-100,31,rng,num-start-391,391,25726,3.993931770324707,True,,True,1,False,1000,True,1.0
./expes/v2_2020-12-03_dh_100-prng-1,30_issda_100,100,rng-100,91,rng,num-start-821,821,25726,8.021921157836914,True,,True,1,False,1000,True,1.0
./expes/v2_2020-12-03_dh_100-prng-1,30_issda_100,100,rng-100,81,rng,num-start-31,31,25726,0.5661330223083496,True,,True,1,False,1000,True,1.0
./expes/v2_2020-12-03_dh_100-prng-1,30_issda_100,100,rng-100,61,rng,num-start-811,811,25726,8.580457925796509,True,,True,1,False,1000,True,1.0
./expes/v2_2020-12-03_dh_100-prng-1,30_issda_100,100,rng-100,11,rng,num-start-611,611,25726,5.636521339416504,True,,True,1,False,1000,True,1.0
./expes/v2_2020-12-03_dh_100-prng-1,30_issda_100,100,rng-100,41,rng,num-start-951,951,25726,9.463015079498291,True,,True,1,False,1000,True,1.0
./expes/v2_2020-12-03_dh_100-prng-1,30_issda_100,100,rng-100,41,rng,num-start-871,871,25726,9.432757139205933,True,,True,1,False,1000,True,1.0
