expe,clients,clients_size,clients_subset,agg_size,method,days,days_size,days_total,time,valid,valid_sum,success,nsols,wall_hit,wall_time,pooled,valid_sums
./expes/v2_2020-12-03_dh_100-prng-1,30_issda_100,100,rng-100,91,rng,num-start-641,641,25726,5.893580198287964,True,,True,1,False,1000,True,1.0
./expes/v2_2020-12-03_dh_100-prng-1,30_issda_100,100,rng-100,11,rng,num-start-681,681,25726,7.6646387577056885,True,,True,1,False,1000,True,1.0
./expes/v2_2020-12-03_dh_100-prng-1,30_issda_100,100,rng-100,41,rng,num-start-191,191,25726,2.131434679031372,True,,True,1,False,1000,True,1.0
./expes/v2_2020-12-03_dh_100-prng-1,30_issda_100,100,rng-100,51,rng,num-start-651,651,25726,6.312694787979126,True,,True,1,False,1000,True,1.0
./expes/v2_2020-12-03_dh_100-prng-1,30_issda_100,100,rng-100,71,rng,num-start-661,661,25726,6.28101372718811,True,,True,1,False,1000,True,1.0
./expes/v2_2020-12-03_dh_100-prng-1,30_issda_100,100,rng-100,41,rng,num-start-1,1,25726,0.025245189666748047,False,,False,2,False,1000,True,1.0
./expes/v2_2020-12-03_dh_100-prng-1,30_issda_100,100,rng-100,71,rng,num-start-271,271,25726,2.6580862998962402,True,,True,1,False,1000,True,1.0
./expes/v2_2020-12-03_dh_100-prng-1,30_issda_100,100,rng-100,1,rng,num-start-861,861,25726,7.614243984222412,True,,True,1,False,1000,True,1.0
./expes/v2_2020-12-03_dh_100-prng-1,30_issda_100,100,rng-100,11,rng,num-start-1,1,25726,0.02587604522705078,False,,False,2,False,1000,True,1.0
./expes/v2_2020-12-03_dh_100-prng-1,30_issda_100,100,rng-100,81,rng,num-start-591,591,25726,5.784430980682373,True,,True,1,False,1000,True,1.0
./expes/v2_2020-12-03_dh_100-prng-1,30_issda_100,100,rng-100,61,rng,num-start-801,801,25726,7.663804531097412,True,,True,1,False,1000,True,1.0
./expes/v2_2020-12-03_dh_100-prng-1,30_issda_100,100,rng-100,11,rng,num-start-21,21,25726,0.46455907821655273,True,,True,1,False,1000,True,1.0
./expes/v2_2020-12-03_dh_100-prng-1,30_issda_100,100,rng-100,61,rng,num-start-541,541,25726,5.56234073638916,True,,True,1,False,1000,True,1.0
./expes/v2_2020-12-03_dh_100-prng-1,30_issda_100,100,rng-100,41,rng,num-start-851,851,25726,8.708956956863403,True,,True,1,False,1000,True,1.0
./expes/v2_2020-12-03_dh_100-prng-1,30_issda_100,100,rng-100,51,rng,num-start-841,841,25726,8.239264965057373,True,,True,1,False,1000,True,1.0
./expes/v2_2020-12-03_dh_100-prng-1,30_issda_100,100,rng-100,41,rng,num-start-161,161,25726,1.796989917755127,True,,True,1,False,1000,True,1.0
./expes/v2_2020-12-03_dh_100-prng-1,30_issda_100,100,rng-100,71,rng,num-start-811,811,25726,9.286827564239502,True,,True,1,False,1000,True,1.0
./expes/v2_2020-12-03_dh_100-prng-1,30_issda_100,100,rng-100,31,rng,num-start-611,611,25726,5.93281102180481,True,,True,1,False,1000,True,1.0
./expes/v2_2020-12-03_dh_100-prng-1,30_issda_100,100,rng-100,91,rng,num-start-461,461,25726,4.570778846740723,True,,True,1,False,1000,True,1.0
./expes/v2_2020-12-03_dh_100-prng-1,30_issda_100,100,rng-100,41,rng,num-start-91,91,25726,1.0587639808654785,True,,True,1,False,1000,True,1.0
./expes/v2_2020-12-03_dh_100-prng-1,30_issda_100,100,rng-100,41,rng,num-start-881,881,25726,8.672251462936401,True,,True,1,False,1000,True,1.0
./expes/v2_2020-12-03_dh_100-prng-1,30_issda_100,100,rng-100,61,rng,num-start-901,901,25726,9.422579526901245,True,,True,1,False,1000,True,1.0
./expes/v2_2020-12-03_dh_100-prng-1,30_issda_100,100,rng-100,91,rng,num-start-131,131,25726,1.1622605323791504,True,,True,1,False,1000,True,1.0
./expes/v2_2020-12-03_dh_100-prng-1,30_issda_100,100,rng-100,81,rng,num-start-691,691,25726,6.968811273574829,True,,True,1,False,1000,True,1.0
./expes/v2_2020-12-03_dh_100-prng-1,30_issda_100,100,rng-100,11,rng,num-start-301,301,25726,3.1146960258483887,True,,True,1,False,1000,True,1.0
./expes/v2_2020-12-03_dh_100-prng-1,30_issda_100,100,rng-100,31,rng,num-start-991,991,25726,9.890718460083008,True,,True,1,False,1000,True,1.0
./expes/v2_2020-12-03_dh_100-prng-1,30_issda_100,100,rng-100,31,rng,num-start-21,21,25726,1.6767690181732178,True,,True,1,False,1000,True,1.0
./expes/v2_2020-12-03_dh_100-prng-1,30_issda_100,100,rng-100,41,rng,num-start-491,491,25726,5.1193766593933105,True,,True,1,False,1000,True,1.0
./expes/v2_2020-12-03_dh_100-prng-1,30_issda_100,100,rng-100,31,rng,num-start-21,21,25726,0.657095193862915,True,,True,1,False,1000,True,1.0
./expes/v2_2020-12-03_dh_100-prng-1,30_issda_100,100,rng-100,81,rng,num-start-471,471,25726,4.6873509883880615,True,,True,1,False,1000,True,1.0
./expes/v2_2020-12-03_dh_100-prng-1,30_issda_100,100,rng-100,11,rng,num-start-421,421,25726,3.8770716190338135,True,,True,1,False,1000,True,1.0
./expes/v2_2020-12-03_dh_100-prng-1,30_issda_100,100,rng-100,21,rng,num-start-321,321,25726,3.452462673187256,True,,True,1,False,1000,True,1.0
./expes/v2_2020-12-03_dh_100-prng-1,30_issda_100,100,rng-100,51,rng,num-start-281,281,25726,3.024383306503296,True,,True,1,False,1000,True,1.0
./expes/v2_2020-12-03_dh_100-prng-1,30_issda_100,100,rng-100,81,rng,num-start-491,491,25726,4.74972939491272,True,,True,1,False,1000,True,1.0
./expes/v2_2020-12-03_dh_100-prng-1,30_issda_100,100,rng-100,11,rng,num-start-51,51,25726,0.5840697288513184,True,,True,1,False,1000,True,1.0
./expes/v2_2020-12-03_dh_100-prng-1,30_issda_100,100,rng-100,71,rng,num-start-701,701,25726,7.322995901107788,True,,True,1,False,1000,True,1.0
./expes/v2_2020-12-03_dh_100-prng-1,30_issda_100,100,rng-100,11,rng,num-start-491,491,25726,5.253626585006714,True,,True,1,False,1000,True,1.0
./expes/v2_2020-12-03_dh_100-prng-1,30_issda_100,100,rng-100,31,rng,num-start-371,371,25726,3.8707008361816406,True,,True,1,False,1000,True,1.0
./expes/v2_2020-12-03_dh_100-prng-1,30_issda_100,100,rng-100,41,rng,num-start-921,921,25726,9.398354291915894,True,,True,1,False,1000,True,1.0
./expes/v2_2020-12-03_dh_100-prng-1,30_issda_100,100,rng-100,41,rng,num-start-411,411,25726,4.568970203399658,True,,True,1,False,1000,True,1.0
./expes/v2_2020-12-03_dh_100-prng-1,30_issda_100,100,rng-100,61,rng,num-start-931,931,25726,9.987965106964111,True,,True,1,False,1000,True,1.0
./expes/v2_2020-12-03_dh_100-prng-1,30_issda_100,100,rng-100,41,rng,num-start-21,21,25726,248.36409211158752,True,,True,1,False,1000,True,1.0
./expes/v2_2020-12-03_dh_100-prng-1,30_issda_100,100,rng-100,11,rng,num-start-521,521,25726,4.767957448959351,True,,True,1,False,1000,True,1.0
./expes/v2_2020-12-03_dh_100-prng-1,30_issda_100,100,rng-100,1,rng,num-start-891,891,25726,7.9747796058654785,True,,True,1,False,1000,True,1.0
./expes/v2_2020-12-03_dh_100-prng-1,30_issda_100,100,rng-100,41,rng,num-start-21,21,25726,78.06200361251831,True,,True,1,False,1000,True,1.0
./expes/v2_2020-12-03_dh_100-prng-1,30_issda_100,100,rng-100,81,rng,num-start-251,251,25726,2.594118356704712,True,,True,1,False,1000,True,1.0
./expes/v2_2020-12-03_dh_100-prng-1,30_issda_100,100,rng-100,91,rng,num-start-991,991,25726,10.163929224014282,True,,True,1,False,1000,True,1.0
./expes/v2_2020-12-03_dh_100-prng-1,30_issda_100,100,rng-100,11,rng,num-start-21,21,25726,1.0028440952301025,True,,True,1,False,1000,True,1.0
./expes/v2_2020-12-03_dh_100-prng-1,30_issda_100,100,rng-100,41,rng,num-start-151,151,25726,1.7382638454437256,True,,True,1,False,1000,True,1.0
./expes/v2_2020-12-03_dh_100-prng-1,30_issda_100,100,rng-100,31,rng,num-start-921,921,25726,9.284809827804565,True,,True,1,False,1000,True,1.0
./expes/v2_2020-12-03_dh_100-prng-1,30_issda_100,100,rng-100,11,rng,num-start-191,191,25726,1.854818344116211,True,,True,1,False,1000,True,1.0
./expes/v2_2020-12-03_dh_100-prng-1,30_issda_100,100,rng-100,1,rng,num-start-821,821,25726,7.4348602294921875,True,,True,1,False,1000,True,1.0
./expes/v2_2020-12-03_dh_100-prng-1,30_issda_100,100,rng-100,41,rng,num-start-71,71,25726,0.8390805721282959,True,,True,1,False,1000,True,1.0
./expes/v2_2020-12-03_dh_100-prng-1,30_issda_100,100,rng-100,71,rng,num-start-561,561,25726,5.596947193145752,True,,True,1,False,1000,True,1.0
./expes/v2_2020-12-03_dh_100-prng-1,30_issda_100,100,rng-100,11,rng,num-start-531,531,25726,5.513767957687378,True,,True,1,False,1000,True,1.0
./expes/v2_2020-12-03_dh_100-prng-1,30_issda_100,100,rng-100,1,rng,num-start-471,471,25726,4.167057991027832,True,,True,1,False,1000,True,1.0
./expes/v2_2020-12-03_dh_100-prng-1,30_issda_100,100,rng-100,91,rng,num-start-721,721,25726,6.624529838562012,True,,True,1,False,1000,True,1.0
./expes/v2_2020-12-03_dh_100-prng-1,30_issda_100,100,rng-100,81,rng,num-start-581,581,25726,5.377295970916748,True,,True,1,False,1000,True,1.0
./expes/v2_2020-12-03_dh_100-prng-1,30_issda_100,100,rng-100,71,rng,num-start-951,951,25726,9.202896356582642,True,,True,1,False,1000,True,1.0
./expes/v2_2020-12-03_dh_100-prng-1,30_issda_100,100,rng-100,41,rng,num-start-731,731,25726,7.175491571426392,True,,True,1,False,1000,True,1.0
./expes/v2_2020-12-03_dh_100-prng-1,30_issda_100,100,rng-100,21,rng,num-start-811,811,25726,7.880016565322876,True,,True,1,False,1000,True,1.0
./expes/v2_2020-12-03_dh_100-prng-1,30_issda_100,100,rng-100,61,rng,num-start-711,711,25726,7.5487213134765625,True,,True,1,False,1000,True,1.0
./expes/v2_2020-12-03_dh_100-prng-1,30_issda_100,100,rng-100,31,rng,num-start-351,351,25726,3.7492308616638184,True,,True,1,False,1000,True,1.0
./expes/v2_2020-12-03_dh_100-prng-1,30_issda_100,100,rng-100,71,rng,num-start-31,31,25726,1.5187952518463135,True,,True,1,False,1000,True,1.0
./expes/v2_2020-12-03_dh_100-prng-1,30_issda_100,100,rng-100,11,rng,num-start-711,711,25726,6.342190265655518,True,,True,1,False,1000,True,1.0
./expes/v2_2020-12-03_dh_100-prng-1,30_issda_100,100,rng-100,41,rng,num-start-781,781,25726,7.497664451599121,True,,True,1,False,1000,True,1.0
./expes/v2_2020-12-03_dh_100-prng-1,30_issda_100,100,rng-100,81,rng,num-start-871,871,25726,8.313058376312256,True,,True,1,False,1000,True,1.0
./expes/v2_2020-12-03_dh_100-prng-1,30_issda_100,100,rng-100,41,rng,num-start-451,451,25726,4.3061699867248535,True,,True,1,False,1000,True,1.0
./expes/v2_2020-12-03_dh_100-prng-1,30_issda_100,100,rng-100,71,rng,num-start-261,261,25726,2.505255699157715,True,,True,1,False,1000,True,1.0
./expes/v2_2020-12-03_dh_100-prng-1,30_issda_100,100,rng-100,11,rng,num-start-411,411,25726,3.7142574787139893,True,,True,1,False,1000,True,1.0
./expes/v2_2020-12-03_dh_100-prng-1,30_issda_100,100,rng-100,11,rng,num-start-641,641,25726,6.028344631195068,True,,True,1,False,1000,True,1.0
./expes/v2_2020-12-03_dh_100-prng-1,30_issda_100,100,rng-100,51,rng,num-start-161,161,25726,1.6926918029785156,True,,True,1,False,1000,True,1.0
./expes/v2_2020-12-03_dh_100-prng-1,30_issda_100,100,rng-100,11,rng,num-start-631,631,25726,5.589173793792725,True,,True,1,False,1000,True,1.0
./expes/v2_2020-12-03_dh_100-prng-1,30_issda_100,100,rng-100,31,rng,num-start-621,621,25726,6.058370113372803,True,,True,1,False,1000,True,1.0
./expes/v2_2020-12-03_dh_100-prng-1,30_issda_100,100,rng-100,71,rng,num-start-371,371,25726,4.368525981903076,True,,True,1,False,1000,True,1.0
./expes/v2_2020-12-03_dh_100-prng-1,30_issda_100,100,rng-100,51,rng,num-start-91,91,25726,1.1486389636993408,True,,True,1,False,1000,True,1.0
./expes/v2_2020-12-03_dh_100-prng-1,30_issda_100,100,rng-100,81,rng,num-start-231,231,25726,2.904496192932129,True,,True,1,False,1000,True,1.0
./expes/v2_2020-12-03_dh_100-prng-1,30_issda_100,100,rng-100,51,rng,num-start-921,921,25726,11.445741415023804,True,,True,1,False,1000,True,1.0
./expes/v2_2020-12-03_dh_100-prng-1,30_issda_100,100,rng-100,71,rng,num-start-171,171,25726,4.788224220275879,True,,True,1,False,1000,True,1.0
./expes/v2_2020-12-03_dh_100-prng-1,30_issda_100,100,rng-100,1,rng,num-start-811,811,25726,8.556501150131226,True,,True,1,False,1000,True,1.0
./expes/v2_2020-12-03_dh_100-prng-1,30_issda_100,100,rng-100,1,rng,num-start-491,491,25726,5.390202760696411,True,,True,1,False,1000,True,1.0
./expes/v2_2020-12-03_dh_100-prng-1,30_issda_100,100,rng-100,61,rng,num-start-511,511,25726,6.37135648727417,True,,True,1,False,1000,True,1.0
./expes/v2_2020-12-03_dh_100-prng-1,30_issda_100,100,rng-100,51,rng,num-start-411,411,25726,4.880031585693359,True,,True,1,False,1000,True,1.0
./expes/v2_2020-12-03_dh_100-prng-1,30_issda_100,100,rng-100,61,rng,num-start-351,351,25726,4.26226806640625,True,,True,1,False,1000,True,1.0
./expes/v2_2020-12-03_dh_100-prng-1,30_issda_100,100,rng-100,31,rng,num-start-411,411,25726,5.084696054458618,True,,True,1,False,1000,True,1.0
./expes/v2_2020-12-03_dh_100-prng-1,30_issda_100,100,rng-100,51,rng,num-start-11,11,25726,1000.6160984039307,False,,False,0,True,1000,True,0.0
./expes/v2_2020-12-03_dh_100-prng-1,30_issda_100,100,rng-100,81,rng,num-start-931,931,25726,9.022837162017822,True,,True,1,False,1000,True,1.0
./expes/v2_2020-12-03_dh_100-prng-1,30_issda_100,100,rng-100,91,rng,num-start-581,581,25726,5.56392240524292,True,,True,1,False,1000,True,1.0
./expes/v2_2020-12-03_dh_100-prng-1,30_issda_100,100,rng-100,1,rng,num-start-891,891,25726,7.952311277389526,True,,True,1,False,1000,True,1.0
./expes/v2_2020-12-03_dh_100-prng-1,30_issda_100,100,rng-100,81,rng,num-start-891,891,25726,8.582692623138428,True,,True,1,False,1000,True,1.0
./expes/v2_2020-12-03_dh_100-prng-1,30_issda_100,100,rng-100,41,rng,num-start-971,971,25726,10.285841226577759,True,,True,1,False,1000,True,1.0
./expes/v2_2020-12-03_dh_100-prng-1,30_issda_100,100,rng-100,31,rng,num-start-611,611,25726,5.942773103713989,True,,True,1,False,1000,True,1.0
./expes/v2_2020-12-03_dh_100-prng-1,30_issda_100,100,rng-100,11,rng,num-start-841,841,25726,7.490034818649292,True,,True,1,False,1000,True,1.0
./expes/v2_2020-12-03_dh_100-prng-1,30_issda_100,100,rng-100,51,rng,num-start-1,1,25726,0.17032694816589355,False,,False,2,False,1000,True,1.0
./expes/v2_2020-12-03_dh_100-prng-1,30_issda_100,100,rng-100,51,rng,num-start-541,541,25726,5.490872621536255,True,,True,1,False,1000,True,1.0
./expes/v2_2020-12-03_dh_100-prng-1,30_issda_100,100,rng-100,41,rng,num-start-461,461,25726,4.804940938949585,True,,True,1,False,1000,True,1.0
./expes/v2_2020-12-03_dh_100-prng-1,30_issda_100,100,rng-100,51,rng,num-start-401,401,25726,3.8316195011138916,True,,True,1,False,1000,True,1.0
./expes/v2_2020-12-03_dh_100-prng-1,30_issda_100,100,rng-100,61,rng,num-start-401,401,25726,3.8674111366271973,True,,True,1,False,1000,True,1.0
./expes/v2_2020-12-03_dh_100-prng-1,30_issda_100,100,rng-100,21,rng,num-start-361,361,25726,3.480436325073242,True,,True,1,False,1000,True,1.0
./expes/v2_2020-12-03_dh_100-prng-1,30_issda_100,100,rng-100,1,rng,num-start-111,111,25726,0.9817140102386475,True,,True,1,False,1000,True,1.0
./expes/v2_2020-12-03_dh_100-prng-1,30_issda_100,100,rng-100,41,rng,num-start-241,241,25726,2.3492345809936523,True,,True,1,False,1000,True,1.0
./expes/v2_2020-12-03_dh_100-prng-1,30_issda_100,100,rng-100,61,rng,num-start-721,721,25726,6.9004387855529785,True,,True,1,False,1000,True,1.0
./expes/v2_2020-12-03_dh_100-prng-1,30_issda_100,100,rng-100,51,rng,num-start-101,101,25726,1.189851999282837,True,,True,1,False,1000,True,1.0
./expes/v2_2020-12-03_dh_100-prng-1,30_issda_100,100,rng-100,11,rng,num-start-831,831,25726,7.436323404312134,True,,True,1,False,1000,True,1.0
./expes/v2_2020-12-03_dh_100-prng-1,30_issda_100,100,rng-100,91,rng,num-start-561,561,25726,5.1189961433410645,True,,True,1,False,1000,True,1.0
./expes/v2_2020-12-03_dh_100-prng-1,30_issda_100,100,rng-100,91,rng,num-start-361,361,25726,3.4749724864959717,True,,True,1,False,1000,True,1.0
./expes/v2_2020-12-03_dh_100-prng-1,30_issda_100,100,rng-100,81,rng,num-start-511,511,25726,5.076159954071045,True,,True,1,False,1000,True,1.0
./expes/v2_2020-12-03_dh_100-prng-1,30_issda_100,100,rng-100,41,rng,num-start-291,291,25726,2.900416374206543,True,,True,1,False,1000,True,1.0
./expes/v2_2020-12-03_dh_100-prng-1,30_issda_100,100,rng-100,41,rng,num-start-61,61,25726,0.7179865837097168,True,,True,1,False,1000,True,1.0
./expes/v2_2020-12-03_dh_100-prng-1,30_issda_100,100,rng-100,41,rng,num-start-601,601,25726,5.98397970199585,True,,True,1,False,1000,True,1.0
./expes/v2_2020-12-03_dh_100-prng-1,30_issda_100,100,rng-100,1,rng,num-start-461,461,25726,4.050530433654785,True,,True,1,False,1000,True,1.0
./expes/v2_2020-12-03_dh_100-prng-1,30_issda_100,100,rng-100,61,rng,num-start-501,501,25726,4.878516912460327,True,,True,1,False,1000,True,1.0
./expes/v2_2020-12-03_dh_100-prng-1,30_issda_100,100,rng-100,41,rng,num-start-661,661,25726,6.813879489898682,True,,True,1,False,1000,True,1.0
./expes/v2_2020-12-03_dh_100-prng-1,30_issda_100,100,rng-100,41,rng,num-start-601,601,25726,5.759531736373901,True,,True,1,False,1000,True,1.0
./expes/v2_2020-12-03_dh_100-prng-1,30_issda_100,100,rng-100,91,rng,num-start-741,741,25726,6.546963453292847,True,,True,1,False,1000,True,1.0
./expes/v2_2020-12-03_dh_100-prng-1,30_issda_100,100,rng-100,21,rng,num-start-91,91,25726,1.1227741241455078,True,,True,1,False,1000,True,1.0
./expes/v2_2020-12-03_dh_100-prng-1,30_issda_100,100,rng-100,51,rng,num-start-181,181,25726,1.9911105632781982,True,,True,1,False,1000,True,1.0
./expes/v2_2020-12-03_dh_100-prng-1,30_issda_100,100,rng-100,41,rng,num-start-771,771,25726,7.606901407241821,True,,True,1,False,1000,True,1.0
./expes/v2_2020-12-03_dh_100-prng-1,30_issda_100,100,rng-100,51,rng,num-start-241,241,25726,2.5338094234466553,True,,True,1,False,1000,True,1.0
./expes/v2_2020-12-03_dh_100-prng-1,30_issda_100,100,rng-100,91,rng,num-start-31,31,25726,0.39442920684814453,True,,True,1,False,1000,True,1.0
./expes/v2_2020-12-03_dh_100-prng-1,30_issda_100,100,rng-100,91,rng,num-start-931,931,25726,8.1848886013031,True,,True,1,False,1000,True,1.0
./expes/v2_2020-12-03_dh_100-prng-1,30_issda_100,100,rng-100,81,rng,num-start-981,981,25726,9.572250127792358,True,,True,1,False,1000,True,1.0
./expes/v2_2020-12-03_dh_100-prng-1,30_issda_100,100,rng-100,41,rng,num-start-451,451,25726,4.474132537841797,True,,True,1,False,1000,True,1.0
./expes/v2_2020-12-03_dh_100-prng-1,30_issda_100,100,rng-100,51,rng,num-start-931,931,25726,8.827524185180664,True,,True,1,False,1000,True,1.0
./expes/v2_2020-12-03_dh_100-prng-1,30_issda_100,100,rng-100,31,rng,num-start-781,781,25726,8.219646215438843,True,,True,1,False,1000,True,1.0
./expes/v2_2020-12-03_dh_100-prng-1,30_issda_100,100,rng-100,81,rng,num-start-821,821,25726,7.813900470733643,True,,True,1,False,1000,True,1.0
./expes/v2_2020-12-03_dh_100-prng-1,30_issda_100,100,rng-100,11,rng,num-start-741,741,25726,6.628983974456787,True,,True,1,False,1000,True,1.0
./expes/v2_2020-12-03_dh_100-prng-1,30_issda_100,100,rng-100,71,rng,num-start-91,91,25726,0.9659829139709473,True,,True,1,False,1000,True,1.0
./expes/v2_2020-12-03_dh_100-prng-1,30_issda_100,100,rng-100,21,rng,num-start-201,201,25726,2.2193663120269775,True,,True,1,False,1000,True,1.0
./expes/v2_2020-12-03_dh_100-prng-1,30_issda_100,100,rng-100,41,rng,num-start-871,871,25726,8.886327028274536,True,,True,1,False,1000,True,1.0
./expes/v2_2020-12-03_dh_100-prng-1,30_issda_100,100,rng-100,91,rng,num-start-31,31,25726,0.39419078826904297,True,,True,1,False,1000,True,1.0
./expes/v2_2020-12-03_dh_100-prng-1,30_issda_100,100,rng-100,61,rng,num-start-171,171,25726,1.9002225399017334,True,,True,1,False,1000,True,1.0
./expes/v2_2020-12-03_dh_100-prng-1,30_issda_100,100,rng-100,41,rng,num-start-771,771,25726,7.568340301513672,True,,True,1,False,1000,True,1.0
./expes/v2_2020-12-03_dh_100-prng-1,30_issda_100,100,rng-100,81,rng,num-start-251,251,25726,2.916255235671997,True,,True,1,False,1000,True,1.0
./expes/v2_2020-12-03_dh_100-prng-1,30_issda_100,100,rng-100,71,rng,num-start-821,821,25726,8.569515466690063,True,,True,1,False,1000,True,1.0
./expes/v2_2020-12-03_dh_100-prng-1,30_issda_100,100,rng-100,31,rng,num-start-751,751,25726,7.311175346374512,True,,True,1,False,1000,True,1.0
./expes/v2_2020-12-03_dh_100-prng-1,30_issda_100,100,rng-100,41,rng,num-start-551,551,25726,6.116647720336914,True,,True,1,False,1000,True,1.0
./expes/v2_2020-12-03_dh_100-prng-1,30_issda_100,100,rng-100,31,rng,num-start-641,641,25726,6.415642499923706,True,,True,1,False,1000,True,1.0
./expes/v2_2020-12-03_dh_100-prng-1,30_issda_100,100,rng-100,11,rng,num-start-121,121,25726,1.3210673332214355,True,,True,1,False,1000,True,1.0
./expes/v2_2020-12-03_dh_100-prng-1,30_issda_100,100,rng-100,71,rng,num-start-61,61,25726,0.7230405807495117,True,,True,1,False,1000,True,1.0
./expes/v2_2020-12-03_dh_100-prng-1,30_issda_100,100,rng-100,1,rng,num-start-621,621,25726,5.581191062927246,True,,True,1,False,1000,True,1.0
./expes/v2_2020-12-03_dh_100-prng-1,30_issda_100,100,rng-100,41,rng,num-start-521,521,25726,5.312835931777954,True,,True,1,False,1000,True,1.0
./expes/v2_2020-12-03_dh_100-prng-1,30_issda_100,100,rng-100,91,rng,num-start-181,181,25726,1.8384554386138916,True,,True,1,False,1000,True,1.0
./expes/v2_2020-12-03_dh_100-prng-1,30_issda_100,100,rng-100,81,rng,num-start-1,1,25726,0.02924346923828125,False,,False,2,False,1000,True,1.0
./expes/v2_2020-12-03_dh_100-prng-1,30_issda_100,100,rng-100,51,rng,num-start-801,801,25726,8.34824538230896,True,,True,1,False,1000,True,1.0
./expes/v2_2020-12-03_dh_100-prng-1,30_issda_100,100,rng-100,41,rng,num-start-281,281,25726,2.742861270904541,True,,True,1,False,1000,True,1.0
./expes/v2_2020-12-03_dh_100-prng-1,30_issda_100,100,rng-100,61,rng,num-start-311,311,25726,2.982541799545288,True,,True,1,False,1000,True,1.0
./expes/v2_2020-12-03_dh_100-prng-1,30_issda_100,100,rng-100,11,rng,num-start-391,391,25726,3.5449039936065674,True,,True,1,False,1000,True,1.0
./expes/v2_2020-12-03_dh_100-prng-1,30_issda_100,100,rng-100,71,rng,num-start-451,451,25726,4.524189472198486,True,,True,1,False,1000,True,1.0
./expes/v2_2020-12-03_dh_100-prng-1,30_issda_100,100,rng-100,41,rng,num-start-881,881,25726,8.740654706954956,True,,True,1,False,1000,True,1.0
./expes/v2_2020-12-03_dh_100-prng-1,30_issda_100,100,rng-100,21,rng,num-start-811,811,25726,8.150606155395508,True,,True,1,False,1000,True,1.0
./expes/v2_2020-12-03_dh_100-prng-1,30_issda_100,100,rng-100,31,rng,num-start-901,901,25726,9.890264749526978,True,,True,1,False,1000,True,1.0
./expes/v2_2020-12-03_dh_100-prng-1,30_issda_100,100,rng-100,61,rng,num-start-111,111,25726,1.2148656845092773,True,,True,1,False,1000,True,1.0
./expes/v2_2020-12-03_dh_100-prng-1,30_issda_100,100,rng-100,61,rng,num-start-751,751,25726,7.804853677749634,True,,True,1,False,1000,True,1.0
./expes/v2_2020-12-03_dh_100-prng-1,30_issda_100,100,rng-100,21,rng,num-start-441,441,25726,4.3835320472717285,True,,True,1,False,1000,True,1.0
./expes/v2_2020-12-03_dh_100-prng-1,30_issda_100,100,rng-100,31,rng,num-start-631,631,25726,6.049461364746094,True,,True,1,False,1000,True,1.0
./expes/v2_2020-12-03_dh_100-prng-1,30_issda_100,100,rng-100,21,rng,num-start-51,51,25726,0.654815673828125,True,,True,1,False,1000,True,1.0
./expes/v2_2020-12-03_dh_100-prng-1,30_issda_100,100,rng-100,41,rng,num-start-251,251,25726,2.691835880279541,True,,True,1,False,1000,True,1.0
./expes/v2_2020-12-03_dh_100-prng-1,30_issda_100,100,rng-100,31,rng,num-start-111,111,25726,1.2748785018920898,True,,True,1,False,1000,True,1.0
./expes/v2_2020-12-03_dh_100-prng-1,30_issda_100,100,rng-100,61,rng,num-start-991,991,25726,10.284219741821289,True,,True,1,False,1000,True,1.0
./expes/v2_2020-12-03_dh_100-prng-1,30_issda_100,100,rng-100,21,rng,num-start-371,371,25726,3.798283100128174,True,,True,1,False,1000,True,1.0
./expes/v2_2020-12-03_dh_100-prng-1,30_issda_100,100,rng-100,31,rng,num-start-51,51,25726,0.6321215629577637,True,,True,1,False,1000,True,1.0
./expes/v2_2020-12-03_dh_100-prng-1,30_issda_100,100,rng-100,11,rng,num-start-491,491,25726,4.664066314697266,True,,True,1,False,1000,True,1.0
./expes/v2_2020-12-03_dh_100-prng-1,30_issda_100,100,rng-100,11,rng,num-start-251,251,25726,2.4842610359191895,True,,True,1,False,1000,True,1.0
./expes/v2_2020-12-03_dh_100-prng-1,30_issda_100,100,rng-100,51,rng,num-start-71,71,25726,0.8388628959655762,True,,True,1,False,1000,True,1.0
./expes/v2_2020-12-03_dh_100-prng-1,30_issda_100,100,rng-100,81,rng,num-start-611,611,25726,5.982614040374756,True,,True,1,False,1000,True,1.0
./expes/v2_2020-12-03_dh_100-prng-1,30_issda_100,100,rng-100,11,rng,num-start-941,941,25726,8.702998638153076,True,,True,1,False,1000,True,1.0
./expes/v2_2020-12-03_dh_100-prng-1,30_issda_100,100,rng-100,11,rng,num-start-331,331,25726,2.993068218231201,True,,True,1,False,1000,True,1.0
./expes/v2_2020-12-03_dh_100-prng-1,30_issda_100,100,rng-100,11,rng,num-start-561,561,25726,5.545916557312012,True,,True,1,False,1000,True,1.0
./expes/v2_2020-12-03_dh_100-prng-1,30_issda_100,100,rng-100,51,rng,num-start-631,631,25726,6.652890682220459,True,,True,1,False,1000,True,1.0
./expes/v2_2020-12-03_dh_100-prng-1,30_issda_100,100,rng-100,41,rng,num-start-921,921,25726,8.976359605789185,True,,True,1,False,1000,True,1.0
./expes/v2_2020-12-03_dh_100-prng-1,30_issda_100,100,rng-100,61,rng,num-start-971,971,25726,9.449012756347656,True,,True,1,False,1000,True,1.0
./expes/v2_2020-12-03_dh_100-prng-1,30_issda_100,100,rng-100,71,rng,num-start-211,211,25726,2.4363765716552734,True,,True,1,False,1000,True,1.0
./expes/v2_2020-12-03_dh_100-prng-1,30_issda_100,100,rng-100,91,rng,num-start-271,271,25726,2.5339243412017822,True,,True,1,False,1000,True,1.0
./expes/v2_2020-12-03_dh_100-prng-1,30_issda_100,100,rng-100,41,rng,num-start-771,771,25726,7.648195028305054,True,,True,1,False,1000,True,1.0
./expes/v2_2020-12-03_dh_100-prng-1,30_issda_100,100,rng-100,41,rng,num-start-21,21,25726,34.20442581176758,True,,True,1,False,1000,True,1.0
./expes/v2_2020-12-03_dh_100-prng-1,30_issda_100,100,rng-100,1,rng,num-start-741,741,25726,6.757431745529175,True,,True,1,False,1000,True,1.0
./expes/v2_2020-12-03_dh_100-prng-1,30_issda_100,100,rng-100,51,rng,num-start-821,821,25726,8.39717984199524,True,,True,1,False,1000,True,1.0
./expes/v2_2020-12-03_dh_100-prng-1,30_issda_100,100,rng-100,41,rng,num-start-931,931,25726,9.95419692993164,True,,True,1,False,1000,True,1.0
./expes/v2_2020-12-03_dh_100-prng-1,30_issda_100,100,rng-100,21,rng,num-start-391,391,25726,4.081291675567627,True,,True,1,False,1000,True,1.0
./expes/v2_2020-12-03_dh_100-prng-1,30_issda_100,100,rng-100,51,rng,num-start-281,281,25726,3.0098061561584473,True,,True,1,False,1000,True,1.0
./expes/v2_2020-12-03_dh_100-prng-1,30_issda_100,100,rng-100,81,rng,num-start-201,201,25726,2.12246036529541,True,,True,1,False,1000,True,1.0
./expes/v2_2020-12-03_dh_100-prng-1,30_issda_100,100,rng-100,31,rng,num-start-261,261,25726,2.6431479454040527,True,,True,1,False,1000,True,1.0
./expes/v2_2020-12-03_dh_100-prng-1,30_issda_100,100,rng-100,21,rng,num-start-371,371,25726,4.096835374832153,True,,True,1,False,1000,True,1.0
./expes/v2_2020-12-03_dh_100-prng-1,30_issda_100,100,rng-100,51,rng,num-start-961,961,25726,10.419942140579224,True,,True,1,False,1000,True,1.0
./expes/v2_2020-12-03_dh_100-prng-1,30_issda_100,100,rng-100,41,rng,num-start-851,851,25726,8.17110800743103,True,,True,1,False,1000,True,1.0
./expes/v2_2020-12-03_dh_100-prng-1,30_issda_100,100,rng-100,61,rng,num-start-421,421,25726,3.8904285430908203,True,,True,1,False,1000,True,1.0
./expes/v2_2020-12-03_dh_100-prng-1,30_issda_100,100,rng-100,11,rng,num-start-771,771,25726,7.1943206787109375,True,,True,1,False,1000,True,1.0
./expes/v2_2020-12-03_dh_100-prng-1,30_issda_100,100,rng-100,61,rng,num-start-891,891,25726,9.288228511810303,True,,True,1,False,1000,True,1.0
./expes/v2_2020-12-03_dh_100-prng-1,30_issda_100,100,rng-100,31,rng,num-start-561,561,25726,6.011874437332153,True,,True,1,False,1000,True,1.0
./expes/v2_2020-12-03_dh_100-prng-1,30_issda_100,100,rng-100,11,rng,num-start-51,51,25726,0.5999703407287598,True,,True,1,False,1000,True,1.0
./expes/v2_2020-12-03_dh_100-prng-1,30_issda_100,100,rng-100,41,rng,num-start-651,651,25726,6.668651342391968,True,,True,1,False,1000,True,1.0
./expes/v2_2020-12-03_dh_100-prng-1,30_issda_100,100,rng-100,21,rng,num-start-761,761,25726,7.530373811721802,True,,True,1,False,1000,True,1.0
./expes/v2_2020-12-03_dh_100-prng-1,30_issda_100,100,rng-100,81,rng,num-start-811,811,25726,7.760165214538574,True,,True,1,False,1000,True,1.0
./expes/v2_2020-12-03_dh_100-prng-1,30_issda_100,100,rng-100,1,rng,num-start-231,231,25726,2.138866662979126,True,,True,1,False,1000,True,1.0
./expes/v2_2020-12-03_dh_100-prng-1,30_issda_100,100,rng-100,91,rng,num-start-641,641,25726,6.0342042446136475,True,,True,1,False,1000,True,1.0
./expes/v2_2020-12-03_dh_100-prng-1,30_issda_100,100,rng-100,91,rng,num-start-271,271,25726,2.6283926963806152,True,,True,1,False,1000,True,1.0
./expes/v2_2020-12-03_dh_100-prng-1,30_issda_100,100,rng-100,31,rng,num-start-821,821,25726,7.995973348617554,True,,True,1,False,1000,True,1.0
./expes/v2_2020-12-03_dh_100-prng-1,30_issda_100,100,rng-100,91,rng,num-start-51,51,25726,0.6152160167694092,True,,True,1,False,1000,True,1.0
./expes/v2_2020-12-03_dh_100-prng-1,30_issda_100,100,rng-100,61,rng,num-start-851,851,25726,9.001797914505005,True,,True,1,False,1000,True,1.0
./expes/v2_2020-12-03_dh_100-prng-1,30_issda_100,100,rng-100,31,rng,num-start-421,421,25726,4.228393316268921,True,,True,1,False,1000,True,1.0
./expes/v2_2020-12-03_dh_100-prng-1,30_issda_100,100,rng-100,41,rng,num-start-991,991,25726,9.866127014160156,True,,True,1,False,1000,True,1.0
./expes/v2_2020-12-03_dh_100-prng-1,30_issda_100,100,rng-100,91,rng,num-start-821,821,25726,7.297266483306885,True,,True,1,False,1000,True,1.0
./expes/v2_2020-12-03_dh_100-prng-1,30_issda_100,100,rng-100,81,rng,num-start-51,51,25726,0.8081362247467041,True,,True,1,False,1000,True,1.0
./expes/v2_2020-12-03_dh_100-prng-1,30_issda_100,100,rng-100,91,rng,num-start-371,371,25726,3.5214767456054688,True,,True,1,False,1000,True,1.0
./expes/v2_2020-12-03_dh_100-prng-1,30_issda_100,100,rng-100,11,rng,num-start-101,101,25726,1.1514537334442139,True,,True,1,False,1000,True,1.0
./expes/v2_2020-12-03_dh_100-prng-1,30_issda_100,100,rng-100,11,rng,num-start-971,971,25726,9.568873405456543,True,,True,1,False,1000,True,1.0
./expes/v2_2020-12-03_dh_100-prng-1,30_issda_100,100,rng-100,31,rng,num-start-951,951,25726,9.360420227050781,True,,True,1,False,1000,True,1.0
./expes/v2_2020-12-03_dh_100-prng-1,30_issda_100,100,rng-100,51,rng,num-start-311,311,25726,3.401912212371826,True,,True,1,False,1000,True,1.0
./expes/v2_2020-12-03_dh_100-prng-1,30_issda_100,100,rng-100,1,rng,num-start-381,381,25726,3.3713486194610596,True,,True,1,False,1000,True,1.0
./expes/v2_2020-12-03_dh_100-prng-1,30_issda_100,100,rng-100,71,rng,num-start-591,591,25726,6.0110650062561035,True,,True,1,False,1000,True,1.0
./expes/v2_2020-12-03_dh_100-prng-1,30_issda_100,100,rng-100,41,rng,num-start-471,471,25726,4.525172710418701,True,,True,1,False,1000,True,1.0
./expes/v2_2020-12-03_dh_100-prng-1,30_issda_100,100,rng-100,1,rng,num-start-911,911,25726,8.158757209777832,True,,True,1,False,1000,True,1.0
./expes/v2_2020-12-03_dh_100-prng-1,30_issda_100,100,rng-100,31,rng,num-start-961,961,25726,9.854800939559937,True,,True,1,False,1000,True,1.0
./expes/v2_2020-12-03_dh_100-prng-1,30_issda_100,100,rng-100,31,rng,num-start-741,741,25726,7.4392547607421875,True,,True,1,False,1000,True,1.0
./expes/v2_2020-12-03_dh_100-prng-1,30_issda_100,100,rng-100,11,rng,num-start-701,701,25726,6.694535970687866,True,,True,1,False,1000,True,1.0
./expes/v2_2020-12-03_dh_100-prng-1,30_issda_100,100,rng-100,81,rng,num-start-241,241,25726,2.525972366333008,True,,True,1,False,1000,True,1.0
./expes/v2_2020-12-03_dh_100-prng-1,30_issda_100,100,rng-100,41,rng,num-start-51,51,25726,0.6342563629150391,True,,True,1,False,1000,True,1.0
./expes/v2_2020-12-03_dh_100-prng-1,30_issda_100,100,rng-100,91,rng,num-start-761,761,25726,7.107623100280762,True,,True,1,False,1000,True,1.0
./expes/v2_2020-12-03_dh_100-prng-1,30_issda_100,100,rng-100,71,rng,num-start-981,981,25726,9.770336627960205,True,,True,1,False,1000,True,1.0
./expes/v2_2020-12-03_dh_100-prng-1,30_issda_100,100,rng-100,41,rng,num-start-361,361,25726,3.4730618000030518,True,,True,1,False,1000,True,1.0
./expes/v2_2020-12-03_dh_100-prng-1,30_issda_100,100,rng-100,21,rng,num-start-841,841,25726,8.260612487792969,True,,True,1,False,1000,True,1.0
./expes/v2_2020-12-03_dh_100-prng-1,30_issda_100,100,rng-100,31,rng,num-start-141,141,25726,1.615128755569458,True,,True,1,False,1000,True,1.0
./expes/v2_2020-12-03_dh_100-prng-1,30_issda_100,100,rng-100,21,rng,num-start-811,811,25726,7.807414531707764,True,,True,1,False,1000,True,1.0
./expes/v2_2020-12-03_dh_100-prng-1,30_issda_100,100,rng-100,71,rng,num-start-661,661,25726,6.66008448600769,True,,True,1,False,1000,True,1.0
./expes/v2_2020-12-03_dh_100-prng-1,30_issda_100,100,rng-100,11,rng,num-start-31,31,25726,0.4105989933013916,True,,True,1,False,1000,True,1.0
./expes/v2_2020-12-03_dh_100-prng-1,30_issda_100,100,rng-100,51,rng,num-start-491,491,25726,4.907708644866943,True,,True,1,False,1000,True,1.0
./expes/v2_2020-12-03_dh_100-prng-1,30_issda_100,100,rng-100,41,rng,num-start-241,241,25726,2.56482195854187,True,,True,1,False,1000,True,1.0
./expes/v2_2020-12-03_dh_100-prng-1,30_issda_100,100,rng-100,61,rng,num-start-831,831,25726,8.616509437561035,True,,True,1,False,1000,True,1.0
./expes/v2_2020-12-03_dh_100-prng-1,30_issda_100,100,rng-100,41,rng,num-start-581,581,25726,5.753531455993652,True,,True,1,False,1000,True,1.0
./expes/v2_2020-12-03_dh_100-prng-1,30_issda_100,100,rng-100,21,rng,num-start-301,301,25726,3.21616530418396,True,,True,1,False,1000,True,1.0
./expes/v2_2020-12-03_dh_100-prng-1,30_issda_100,100,rng-100,51,rng,num-start-671,671,25726,6.659984588623047,True,,True,1,False,1000,True,1.0
./expes/v2_2020-12-03_dh_100-prng-1,30_issda_100,100,rng-100,91,rng,num-start-511,511,25726,4.827893018722534,True,,True,1,False,1000,True,1.0
./expes/v2_2020-12-03_dh_100-prng-1,30_issda_100,100,rng-100,41,rng,num-start-261,261,25726,2.7919435501098633,True,,True,1,False,1000,True,1.0
./expes/v2_2020-12-03_dh_100-prng-1,30_issda_100,100,rng-100,11,rng,num-start-351,351,25726,3.430565595626831,True,,True,1,False,1000,True,1.0
./expes/v2_2020-12-03_dh_100-prng-1,30_issda_100,100,rng-100,71,rng,num-start-261,261,25726,2.586527109146118,True,,True,1,False,1000,True,1.0
./expes/v2_2020-12-03_dh_100-prng-1,30_issda_100,100,rng-100,1,rng,num-start-661,661,25726,5.994110345840454,True,,True,1,False,1000,True,1.0
./expes/v2_2020-12-03_dh_100-prng-1,30_issda_100,100,rng-100,71,rng,num-start-721,721,25726,7.05661678314209,True,,True,1,False,1000,True,1.0
./expes/v2_2020-12-03_dh_100-prng-1,30_issda_100,100,rng-100,41,rng,num-start-941,941,25726,9.172056436538696,True,,True,1,False,1000,True,1.0
./expes/v2_2020-12-03_dh_100-prng-1,30_issda_100,100,rng-100,1,rng,num-start-261,261,25726,2.305002212524414,True,,True,1,False,1000,True,1.0
./expes/v2_2020-12-03_dh_100-prng-1,30_issda_100,100,rng-100,91,rng,num-start-391,391,25726,3.4689598083496094,True,,True,1,False,1000,True,1.0
./expes/v2_2020-12-03_dh_100-prng-1,30_issda_100,100,rng-100,41,rng,num-start-201,201,25726,2.309340238571167,True,,True,1,False,1000,True,1.0
./expes/v2_2020-12-03_dh_100-prng-1,30_issda_100,100,rng-100,41,rng,num-start-161,161,25726,1.7228960990905762,True,,True,1,False,1000,True,1.0
./expes/v2_2020-12-03_dh_100-prng-1,30_issda_100,100,rng-100,21,rng,num-start-621,621,25726,6.152525186538696,True,,True,1,False,1000,True,1.0
./expes/v2_2020-12-03_dh_100-prng-1,30_issda_100,100,rng-100,21,rng,num-start-781,781,25726,7.438826322555542,True,,True,1,False,1000,True,1.0
./expes/v2_2020-12-03_dh_100-prng-1,30_issda_100,100,rng-100,51,rng,num-start-211,211,25726,2.3703291416168213,True,,True,1,False,1000,True,1.0
./expes/v2_2020-12-03_dh_100-prng-1,30_issda_100,100,rng-100,61,rng,num-start-181,181,25726,1.987802267074585,True,,True,1,False,1000,True,1.0
./expes/v2_2020-12-03_dh_100-prng-1,30_issda_100,100,rng-100,61,rng,num-start-741,741,25726,7.781180143356323,True,,True,1,False,1000,True,1.0
./expes/v2_2020-12-03_dh_100-prng-1,30_issda_100,100,rng-100,1,rng,num-start-741,741,25726,6.5758843421936035,True,,True,1,False,1000,True,1.0
./expes/v2_2020-12-03_dh_100-prng-1,30_issda_100,100,rng-100,11,rng,num-start-181,181,25726,1.6908860206604004,True,,True,1,False,1000,True,1.0
./expes/v2_2020-12-03_dh_100-prng-1,30_issda_100,100,rng-100,31,rng,num-start-581,581,25726,5.960179090499878,True,,True,1,False,1000,True,1.0
./expes/v2_2020-12-03_dh_100-prng-1,30_issda_100,100,rng-100,51,rng,num-start-101,101,25726,1.23301100730896,True,,True,1,False,1000,True,1.0
./expes/v2_2020-12-03_dh_100-prng-1,30_issda_100,100,rng-100,11,rng,num-start-511,511,25726,4.551956415176392,True,,True,1,False,1000,True,1.0
./expes/v2_2020-12-03_dh_100-prng-1,30_issda_100,100,rng-100,21,rng,num-start-111,111,25726,1.27236008644104,True,,True,1,False,1000,True,1.0
./expes/v2_2020-12-03_dh_100-prng-1,30_issda_100,100,rng-100,21,rng,num-start-891,891,25726,8.887970209121704,True,,True,1,False,1000,True,1.0
./expes/v2_2020-12-03_dh_100-prng-1,30_issda_100,100,rng-100,1,rng,num-start-311,311,25726,2.7844455242156982,True,,True,1,False,1000,True,1.0
./expes/v2_2020-12-03_dh_100-prng-1,30_issda_100,100,rng-100,41,rng,num-start-391,391,25726,3.7280685901641846,True,,True,1,False,1000,True,1.0
./expes/v2_2020-12-03_dh_100-prng-1,30_issda_100,100,rng-100,11,rng,num-start-421,421,25726,3.8957345485687256,True,,True,1,False,1000,True,1.0
./expes/v2_2020-12-03_dh_100-prng-1,30_issda_100,100,rng-100,1,rng,num-start-721,721,25726,6.6466639041900635,True,,True,1,False,1000,True,1.0
./expes/v2_2020-12-03_dh_100-prng-1,30_issda_100,100,rng-100,41,rng,num-start-321,321,25726,3.3694019317626953,True,,True,1,False,1000,True,1.0
./expes/v2_2020-12-03_dh_100-prng-1,30_issda_100,100,rng-100,81,rng,num-start-121,121,25726,1.355830430984497,True,,True,1,False,1000,True,1.0
./expes/v2_2020-12-03_dh_100-prng-1,30_issda_100,100,rng-100,21,rng,num-start-351,351,25726,3.6332647800445557,True,,True,1,False,1000,True,1.0
./expes/v2_2020-12-03_dh_100-prng-1,30_issda_100,100,rng-100,61,rng,num-start-581,581,25726,6.236150741577148,True,,True,1,False,1000,True,1.0
./expes/v2_2020-12-03_dh_100-prng-1,30_issda_100,100,rng-100,41,rng,num-start-421,421,25726,4.328485727310181,True,,True,1,False,1000,True,1.0
./expes/v2_2020-12-03_dh_100-prng-1,30_issda_100,100,rng-100,81,rng,num-start-771,771,25726,7.223151683807373,True,,True,1,False,1000,True,1.0
./expes/v2_2020-12-03_dh_100-prng-1,30_issda_100,100,rng-100,51,rng,num-start-71,71,25726,0.8043594360351562,True,,True,1,False,1000,True,1.0
./expes/v2_2020-12-03_dh_100-prng-1,30_issda_100,100,rng-100,31,rng,num-start-461,461,25726,4.457401990890503,True,,True,1,False,1000,True,1.0
./expes/v2_2020-12-03_dh_100-prng-1,30_issda_100,100,rng-100,71,rng,num-start-201,201,25726,2.147545576095581,True,,True,1,False,1000,True,1.0
./expes/v2_2020-12-03_dh_100-prng-1,30_issda_100,100,rng-100,71,rng,num-start-201,201,25726,2.3223397731781006,True,,True,1,False,1000,True,1.0
./expes/v2_2020-12-03_dh_100-prng-1,30_issda_100,100,rng-100,41,rng,num-start-841,841,25726,8.206600904464722,True,,True,1,False,1000,True,1.0
./expes/v2_2020-12-03_dh_100-prng-1,30_issda_100,100,rng-100,31,rng,num-start-251,251,25726,2.5130667686462402,True,,True,1,False,1000,True,1.0
./expes/v2_2020-12-03_dh_100-prng-1,30_issda_100,100,rng-100,41,rng,num-start-51,51,25726,0.6556558609008789,True,,True,1,False,1000,True,1.0
./expes/v2_2020-12-03_dh_100-prng-1,30_issda_100,100,rng-100,11,rng,num-start-941,941,25726,8.761014699935913,True,,True,1,False,1000,True,1.0
./expes/v2_2020-12-03_dh_100-prng-1,30_issda_100,100,rng-100,91,rng,num-start-201,201,25726,2.124000072479248,True,,True,1,False,1000,True,1.0
./expes/v2_2020-12-03_dh_100-prng-1,30_issda_100,100,rng-100,41,rng,num-start-361,361,25726,3.5573008060455322,True,,True,1,False,1000,True,1.0
./expes/v2_2020-12-03_dh_100-prng-1,30_issda_100,100,rng-100,61,rng,num-start-981,981,25726,10.479296445846558,True,,True,1,False,1000,True,1.0
./expes/v2_2020-12-03_dh_100-prng-1,30_issda_100,100,rng-100,81,rng,num-start-711,711,25726,7.103123426437378,True,,True,1,False,1000,True,1.0
./expes/v2_2020-12-03_dh_100-prng-1,30_issda_100,100,rng-100,31,rng,num-start-371,371,25726,3.693981170654297,True,,True,1,False,1000,True,1.0
./expes/v2_2020-12-03_dh_100-prng-1,30_issda_100,100,rng-100,51,rng,num-start-371,371,25726,3.620061159133911,True,,True,1,False,1000,True,1.0
./expes/v2_2020-12-03_dh_100-prng-1,30_issda_100,100,rng-100,21,rng,num-start-621,621,25726,6.080103635787964,True,,True,1,False,1000,True,1.0
./expes/v2_2020-12-03_dh_100-prng-1,30_issda_100,100,rng-100,21,rng,num-start-681,681,25726,6.661264181137085,True,,True,1,False,1000,True,1.0
./expes/v2_2020-12-03_dh_100-prng-1,30_issda_100,100,rng-100,21,rng,num-start-591,591,25726,5.933881998062134,True,,True,1,False,1000,True,1.0
./expes/v2_2020-12-03_dh_100-prng-1,30_issda_100,100,rng-100,41,rng,num-start-641,641,25726,6.8091795444488525,True,,True,1,False,1000,True,1.0
./expes/v2_2020-12-03_dh_100-prng-1,30_issda_100,100,rng-100,41,rng,num-start-861,861,25726,8.958656787872314,True,,True,1,False,1000,True,1.0
./expes/v2_2020-12-03_dh_100-prng-1,30_issda_100,100,rng-100,51,rng,num-start-361,361,25726,3.8554847240448,True,,True,1,False,1000,True,1.0
./expes/v2_2020-12-03_dh_100-prng-1,30_issda_100,100,rng-100,21,rng,num-start-581,581,25726,5.923214673995972,True,,True,1,False,1000,True,1.0
./expes/v2_2020-12-03_dh_100-prng-1,30_issda_100,100,rng-100,61,rng,num-start-731,731,25726,7.116920709609985,True,,True,1,False,1000,True,1.0
./expes/v2_2020-12-03_dh_100-prng-1,30_issda_100,100,rng-100,31,rng,num-start-151,151,25726,1.714019775390625,True,,True,1,False,1000,True,1.0
./expes/v2_2020-12-03_dh_100-prng-1,30_issda_100,100,rng-100,21,rng,num-start-421,421,25726,4.892811059951782,True,,True,1,False,1000,True,1.0
./expes/v2_2020-12-03_dh_100-prng-1,30_issda_100,100,rng-100,91,rng,num-start-621,621,25726,6.279088020324707,True,,True,1,False,1000,True,1.0
./expes/v2_2020-12-03_dh_100-prng-1,30_issda_100,100,rng-100,71,rng,num-start-721,721,25726,7.678003549575806,True,,True,1,False,1000,True,1.0
./expes/v2_2020-12-03_dh_100-prng-1,30_issda_100,100,rng-100,41,rng,num-start-151,151,25726,1.7173118591308594,True,,True,1,False,1000,True,1.0
./expes/v2_2020-12-03_dh_100-prng-1,30_issda_100,100,rng-100,71,rng,num-start-691,691,25726,7.040872812271118,True,,True,1,False,1000,True,1.0
./expes/v2_2020-12-03_dh_100-prng-1,30_issda_100,100,rng-100,11,rng,num-start-281,281,25726,2.5941948890686035,True,,True,1,False,1000,True,1.0
./expes/v2_2020-12-03_dh_100-prng-1,30_issda_100,100,rng-100,11,rng,num-start-641,641,25726,6.333913087844849,True,,True,1,False,1000,True,1.0
./expes/v2_2020-12-03_dh_100-prng-1,30_issda_100,100,rng-100,21,rng,num-start-301,301,25726,3.1048357486724854,True,,True,1,False,1000,True,1.0
./expes/v2_2020-12-03_dh_100-prng-1,30_issda_100,100,rng-100,41,rng,num-start-251,251,25726,2.834439277648926,True,,True,1,False,1000,True,1.0
./expes/v2_2020-12-03_dh_100-prng-1,30_issda_100,100,rng-100,51,rng,num-start-161,161,25726,2.3554680347442627,True,,True,1,False,1000,True,1.0
./expes/v2_2020-12-03_dh_100-prng-1,30_issda_100,100,rng-100,61,rng,num-start-481,481,25726,4.719393491744995,True,,True,1,False,1000,True,1.0
./expes/v2_2020-12-03_dh_100-prng-1,30_issda_100,100,rng-100,31,rng,num-start-651,651,25726,6.208981275558472,True,,True,1,False,1000,True,1.0
./expes/v2_2020-12-03_dh_100-prng-1,30_issda_100,100,rng-100,41,rng,num-start-91,91,25726,1.1523635387420654,True,,True,1,False,1000,True,1.0
./expes/v2_2020-12-03_dh_100-prng-1,30_issda_100,100,rng-100,11,rng,num-start-171,171,25726,1.9334864616394043,True,,True,1,False,1000,True,1.0
./expes/v2_2020-12-03_dh_100-prng-1,30_issda_100,100,rng-100,51,rng,num-start-801,801,25726,7.934437036514282,True,,True,1,False,1000,True,1.0
./expes/v2_2020-12-03_dh_100-prng-1,30_issda_100,100,rng-100,11,rng,num-start-561,561,25726,5.378304481506348,True,,True,1,False,1000,True,1.0
./expes/v2_2020-12-03_dh_100-prng-1,30_issda_100,100,rng-100,81,rng,num-start-591,591,25726,5.996373414993286,True,,True,1,False,1000,True,1.0
./expes/v2_2020-12-03_dh_100-prng-1,30_issda_100,100,rng-100,91,rng,num-start-131,131,25726,1.2333426475524902,True,,True,1,False,1000,True,1.0
./expes/v2_2020-12-03_dh_100-prng-1,30_issda_100,100,rng-100,21,rng,num-start-821,821,25726,8.203543663024902,True,,True,1,False,1000,True,1.0
./expes/v2_2020-12-03_dh_100-prng-1,30_issda_100,100,rng-100,1,rng,num-start-951,951,25726,8.308396100997925,True,,True,1,False,1000,True,1.0
./expes/v2_2020-12-03_dh_100-prng-1,30_issda_100,100,rng-100,81,rng,num-start-871,871,25726,8.733820676803589,True,,True,1,False,1000,True,1.0
./expes/v2_2020-12-03_dh_100-prng-1,30_issda_100,100,rng-100,41,rng,num-start-41,41,25726,1.054527997970581,True,,True,1,False,1000,True,1.0
./expes/v2_2020-12-03_dh_100-prng-1,30_issda_100,100,rng-100,71,rng,num-start-281,281,25726,2.7779481410980225,True,,True,1,False,1000,True,1.0
./expes/v2_2020-12-03_dh_100-prng-1,30_issda_100,100,rng-100,91,rng,num-start-251,251,25726,2.226457357406616,True,,True,1,False,1000,True,1.0
./expes/v2_2020-12-03_dh_100-prng-1,30_issda_100,100,rng-100,1,rng,num-start-291,291,25726,2.681157112121582,True,,True,1,False,1000,True,1.0
./expes/v2_2020-12-03_dh_100-prng-1,30_issda_100,100,rng-100,1,rng,num-start-321,321,25726,3.033390760421753,True,,True,1,False,1000,True,1.0
./expes/v2_2020-12-03_dh_100-prng-1,30_issda_100,100,rng-100,71,rng,num-start-691,691,25726,7.055529356002808,True,,True,1,False,1000,True,1.0
./expes/v2_2020-12-03_dh_100-prng-1,30_issda_100,100,rng-100,11,rng,num-start-911,911,25726,8.590380191802979,True,,True,1,False,1000,True,1.0
./expes/v2_2020-12-03_dh_100-prng-1,30_issda_100,100,rng-100,51,rng,num-start-41,41,25726,0.6219954490661621,True,,True,1,False,1000,True,1.0
./expes/v2_2020-12-03_dh_100-prng-1,30_issda_100,100,rng-100,21,rng,num-start-381,381,25726,3.73799204826355,True,,True,1,False,1000,True,1.0
./expes/v2_2020-12-03_dh_100-prng-1,30_issda_100,100,rng-100,1,rng,num-start-761,761,25726,7.054814100265503,True,,True,1,False,1000,True,1.0
./expes/v2_2020-12-03_dh_100-prng-1,30_issda_100,100,rng-100,71,rng,num-start-241,241,25726,2.60683536529541,True,,True,1,False,1000,True,1.0
./expes/v2_2020-12-03_dh_100-prng-1,30_issda_100,100,rng-100,41,rng,num-start-81,81,25726,1.0138118267059326,True,,True,1,False,1000,True,1.0
./expes/v2_2020-12-03_dh_100-prng-1,30_issda_100,100,rng-100,71,rng,num-start-541,541,25726,5.524790287017822,True,,True,1,False,1000,True,1.0
./expes/v2_2020-12-03_dh_100-prng-1,30_issda_100,100,rng-100,41,rng,num-start-931,931,25726,9.459381103515625,True,,True,1,False,1000,True,1.0
./expes/v2_2020-12-03_dh_100-prng-1,30_issda_100,100,rng-100,1,rng,num-start-641,641,25726,6.083658933639526,True,,True,1,False,1000,True,1.0
./expes/v2_2020-12-03_dh_100-prng-1,30_issda_100,100,rng-100,11,rng,num-start-611,611,25726,5.600840330123901,True,,True,1,False,1000,True,1.0
./expes/v2_2020-12-03_dh_100-prng-1,30_issda_100,100,rng-100,81,rng,num-start-201,201,25726,2.172597646713257,True,,True,1,False,1000,True,1.0
./expes/v2_2020-12-03_dh_100-prng-1,30_issda_100,100,rng-100,61,rng,num-start-891,891,25726,8.729180812835693,True,,True,1,False,1000,True,1.0
./expes/v2_2020-12-03_dh_100-prng-1,30_issda_100,100,rng-100,41,rng,num-start-521,521,25726,5.865720748901367,True,,True,1,False,1000,True,1.0
./expes/v2_2020-12-03_dh_100-prng-1,30_issda_100,100,rng-100,11,rng,num-start-771,771,25726,7.151977062225342,True,,True,1,False,1000,True,1.0
./expes/v2_2020-12-03_dh_100-prng-1,30_issda_100,100,rng-100,81,rng,num-start-921,921,25726,8.986279249191284,True,,True,1,False,1000,True,1.0
./expes/v2_2020-12-03_dh_100-prng-1,30_issda_100,100,rng-100,11,rng,num-start-791,791,25726,7.181033372879028,True,,True,1,False,1000,True,1.0
./expes/v2_2020-12-03_dh_100-prng-1,30_issda_100,100,rng-100,31,rng,num-start-371,371,25726,3.987372398376465,True,,True,1,False,1000,True,1.0
./expes/v2_2020-12-03_dh_100-prng-1,30_issda_100,100,rng-100,81,rng,num-start-291,291,25726,2.9764773845672607,True,,True,1,False,1000,True,1.0
./expes/v2_2020-12-03_dh_100-prng-1,30_issda_100,100,rng-100,31,rng,num-start-511,511,25726,4.749611139297485,True,,True,1,False,1000,True,1.0
