expe,clients,clients_size,clients_subset,agg_size,method,days,days_size,days_total,time,valid,valid_sum,success,nsols,wall_hit,wall_time,pooled,valid_sums
./expes/v2_2020-12-03_dh_100-prng-1,30_issda_100,100,rng-100,61,rng,num-start-871,871,25726,8.237138509750366,True,,True,1,False,1000,True,1.0
./expes/v2_2020-12-03_dh_100-prng-1,30_issda_100,100,rng-100,1,rng,num-start-781,781,25726,6.827281713485718,True,,True,1,False,1000,True,1.0
./expes/v2_2020-12-03_dh_100-prng-1,30_issda_100,100,rng-100,51,rng,num-start-971,971,25726,10.1690194606781,True,,True,1,False,1000,True,1.0
./expes/v2_2020-12-03_dh_100-prng-1,30_issda_100,100,rng-100,31,rng,num-start-31,31,25726,0.7958564758300781,True,,True,1,False,1000,True,1.0
./expes/v2_2020-12-03_dh_100-prng-1,30_issda_100,100,rng-100,1,rng,num-start-391,391,25726,3.4701523780822754,True,,True,1,False,1000,True,1.0
./expes/v2_2020-12-03_dh_100-prng-1,30_issda_100,100,rng-100,1,rng,num-start-101,101,25726,0.9337272644042969,True,,True,1,False,1000,True,1.0
./expes/v2_2020-12-03_dh_100-prng-1,30_issda_100,100,rng-100,91,rng,num-start-571,571,25726,5.060088872909546,True,,True,1,False,1000,True,1.0
./expes/v2_2020-12-03_dh_100-prng-1,30_issda_100,100,rng-100,61,rng,num-start-151,151,25726,1.6968750953674316,True,,True,1,False,1000,True,1.0
./expes/v2_2020-12-03_dh_100-prng-1,30_issda_100,100,rng-100,31,rng,num-start-351,351,25726,3.8584446907043457,True,,True,1,False,1000,True,1.0
./expes/v2_2020-12-03_dh_100-prng-1,30_issda_100,100,rng-100,91,rng,num-start-691,691,25726,6.358861923217773,True,,True,1,False,1000,True,1.0
./expes/v2_2020-12-03_dh_100-prng-1,30_issda_100,100,rng-100,51,rng,num-start-511,511,25726,5.160508394241333,True,,True,1,False,1000,True,1.0
./expes/v2_2020-12-03_dh_100-prng-1,30_issda_100,100,rng-100,51,rng,num-start-691,691,25726,6.787206649780273,True,,True,1,False,1000,True,1.0
./expes/v2_2020-12-03_dh_100-prng-1,30_issda_100,100,rng-100,61,rng,num-start-301,301,25726,3.0400872230529785,True,,True,1,False,1000,True,1.0
./expes/v2_2020-12-03_dh_100-prng-1,30_issda_100,100,rng-100,11,rng,num-start-611,611,25726,6.084614038467407,True,,True,1,False,1000,True,1.0
./expes/v2_2020-12-03_dh_100-prng-1,30_issda_100,100,rng-100,21,rng,num-start-741,741,25726,7.19866156578064,True,,True,1,False,1000,True,1.0
./expes/v2_2020-12-03_dh_100-prng-1,30_issda_100,100,rng-100,51,rng,num-start-91,91,25726,1.060309648513794,True,,True,1,False,1000,True,1.0
./expes/v2_2020-12-03_dh_100-prng-1,30_issda_100,100,rng-100,81,rng,num-start-841,841,25726,8.39290714263916,True,,True,1,False,1000,True,1.0
./expes/v2_2020-12-03_dh_100-prng-1,30_issda_100,100,rng-100,21,rng,num-start-361,361,25726,3.910430908203125,True,,True,1,False,1000,True,1.0
./expes/v2_2020-12-03_dh_100-prng-1,30_issda_100,100,rng-100,1,rng,num-start-371,371,25726,3.2663185596466064,True,,True,1,False,1000,True,1.0
./expes/v2_2020-12-03_dh_100-prng-1,30_issda_100,100,rng-100,51,rng,num-start-721,721,25726,7.175275802612305,True,,True,1,False,1000,True,1.0
./expes/v2_2020-12-03_dh_100-prng-1,30_issda_100,100,rng-100,41,rng,num-start-151,151,25726,1.8365554809570312,True,,True,1,False,1000,True,1.0
./expes/v2_2020-12-03_dh_100-prng-1,30_issda_100,100,rng-100,11,rng,num-start-281,281,25726,2.7672312259674072,True,,True,1,False,1000,True,1.0
./expes/v2_2020-12-03_dh_100-prng-1,30_issda_100,100,rng-100,31,rng,num-start-491,491,25726,4.831644773483276,True,,True,1,False,1000,True,1.0
./expes/v2_2020-12-03_dh_100-prng-1,30_issda_100,100,rng-100,61,rng,num-start-981,981,25726,9.766403675079346,True,,True,1,False,1000,True,1.0
./expes/v2_2020-12-03_dh_100-prng-1,30_issda_100,100,rng-100,1,rng,num-start-1,1,25726,0.020053625106811523,True,,True,1,False,1000,True,1.0
./expes/v2_2020-12-03_dh_100-prng-1,30_issda_100,100,rng-100,11,rng,num-start-121,121,25726,1.3081815242767334,True,,True,1,False,1000,True,1.0
./expes/v2_2020-12-03_dh_100-prng-1,30_issda_100,100,rng-100,51,rng,num-start-221,221,25726,2.3249125480651855,True,,True,1,False,1000,True,1.0
./expes/v2_2020-12-03_dh_100-prng-1,30_issda_100,100,rng-100,51,rng,num-start-331,331,25726,3.1852893829345703,True,,True,1,False,1000,True,1.0
./expes/v2_2020-12-03_dh_100-prng-1,30_issda_100,100,rng-100,81,rng,num-start-261,261,25726,2.5478806495666504,True,,True,1,False,1000,True,1.0
./expes/v2_2020-12-03_dh_100-prng-1,30_issda_100,100,rng-100,41,rng,num-start-41,41,25726,0.6977238655090332,True,,True,1,False,1000,True,1.0
./expes/v2_2020-12-03_dh_100-prng-1,30_issda_100,100,rng-100,81,rng,num-start-81,81,25726,0.89322829246521,True,,True,1,False,1000,True,1.0
./expes/v2_2020-12-03_dh_100-prng-1,30_issda_100,100,rng-100,41,rng,num-start-251,251,25726,2.7363526821136475,True,,True,1,False,1000,True,1.0
./expes/v2_2020-12-03_dh_100-prng-1,30_issda_100,100,rng-100,81,rng,num-start-251,251,25726,2.6579623222351074,True,,True,1,False,1000,True,1.0
./expes/v2_2020-12-03_dh_100-prng-1,30_issda_100,100,rng-100,81,rng,num-start-431,431,25726,4.060840606689453,True,,True,1,False,1000,True,1.0
./expes/v2_2020-12-03_dh_100-prng-1,30_issda_100,100,rng-100,61,rng,num-start-881,881,25726,8.829416751861572,True,,True,1,False,1000,True,1.0
./expes/v2_2020-12-03_dh_100-prng-1,30_issda_100,100,rng-100,21,rng,num-start-191,191,25726,2.0861947536468506,True,,True,1,False,1000,True,1.0
./expes/v2_2020-12-03_dh_100-prng-1,30_issda_100,100,rng-100,81,rng,num-start-851,851,25726,8.336315155029297,True,,True,1,False,1000,True,1.0
./expes/v2_2020-12-03_dh_100-prng-1,30_issda_100,100,rng-100,71,rng,num-start-41,41,25726,0.5337159633636475,True,,True,1,False,1000,True,1.0
./expes/v2_2020-12-03_dh_100-prng-1,30_issda_100,100,rng-100,41,rng,num-start-101,101,25726,1.0980892181396484,True,,True,1,False,1000,True,1.0
./expes/v2_2020-12-03_dh_100-prng-1,30_issda_100,100,rng-100,61,rng,num-start-201,201,25726,2.1905133724212646,True,,True,1,False,1000,True,1.0
./expes/v2_2020-12-03_dh_100-prng-1,30_issda_100,100,rng-100,11,rng,num-start-661,661,25726,6.000638246536255,True,,True,1,False,1000,True,1.0
./expes/v2_2020-12-03_dh_100-prng-1,30_issda_100,100,rng-100,31,rng,num-start-721,721,25726,6.876620292663574,True,,True,1,False,1000,True,1.0
./expes/v2_2020-12-03_dh_100-prng-1,30_issda_100,100,rng-100,31,rng,num-start-241,241,25726,2.5058164596557617,True,,True,1,False,1000,True,1.0
./expes/v2_2020-12-03_dh_100-prng-1,30_issda_100,100,rng-100,61,rng,num-start-411,411,25726,4.747773170471191,True,,True,1,False,1000,True,1.0
./expes/v2_2020-12-03_dh_100-prng-1,30_issda_100,100,rng-100,11,rng,num-start-961,961,25726,8.640996217727661,True,,True,1,False,1000,True,1.0
./expes/v2_2020-12-03_dh_100-prng-1,30_issda_100,100,rng-100,71,rng,num-start-151,151,25726,1.7043840885162354,True,,True,1,False,1000,True,1.0
./expes/v2_2020-12-03_dh_100-prng-1,30_issda_100,100,rng-100,51,rng,num-start-261,261,25726,2.9350152015686035,True,,True,1,False,1000,True,1.0
./expes/v2_2020-12-03_dh_100-prng-1,30_issda_100,100,rng-100,21,rng,num-start-601,601,25726,5.777367115020752,True,,True,1,False,1000,True,1.0
./expes/v2_2020-12-03_dh_100-prng-1,30_issda_100,100,rng-100,1,rng,num-start-901,901,25726,7.864782333374023,True,,True,1,False,1000,True,1.0
./expes/v2_2020-12-03_dh_100-prng-1,30_issda_100,100,rng-100,61,rng,num-start-981,981,25726,10.316571950912476,True,,True,1,False,1000,True,1.0
./expes/v2_2020-12-03_dh_100-prng-1,30_issda_100,100,rng-100,61,rng,num-start-251,251,25726,2.6799001693725586,True,,True,1,False,1000,True,1.0
./expes/v2_2020-12-03_dh_100-prng-1,30_issda_100,100,rng-100,71,rng,num-start-271,271,25726,2.6157219409942627,True,,True,1,False,1000,True,1.0
./expes/v2_2020-12-03_dh_100-prng-1,30_issda_100,100,rng-100,1,rng,num-start-201,201,25726,1.7495133876800537,True,,True,1,False,1000,True,1.0
./expes/v2_2020-12-03_dh_100-prng-1,30_issda_100,100,rng-100,71,rng,num-start-931,931,25726,10.289406538009644,True,,True,1,False,1000,True,1.0
./expes/v2_2020-12-03_dh_100-prng-1,30_issda_100,100,rng-100,41,rng,num-start-311,311,25726,3.1411211490631104,True,,True,1,False,1000,True,1.0
./expes/v2_2020-12-03_dh_100-prng-1,30_issda_100,100,rng-100,91,rng,num-start-81,81,25726,0.8869102001190186,True,,True,1,False,1000,True,1.0
./expes/v2_2020-12-03_dh_100-prng-1,30_issda_100,100,rng-100,1,rng,num-start-431,431,25726,3.9061903953552246,True,,True,1,False,1000,True,1.0
./expes/v2_2020-12-03_dh_100-prng-1,30_issda_100,100,rng-100,11,rng,num-start-611,611,25726,5.818559169769287,True,,True,1,False,1000,True,1.0
./expes/v2_2020-12-03_dh_100-prng-1,30_issda_100,100,rng-100,21,rng,num-start-151,151,25726,1.7949955463409424,True,,True,1,False,1000,True,1.0
./expes/v2_2020-12-03_dh_100-prng-1,30_issda_100,100,rng-100,51,rng,num-start-91,91,25726,1.0650684833526611,True,,True,1,False,1000,True,1.0
./expes/v2_2020-12-03_dh_100-prng-1,30_issda_100,100,rng-100,1,rng,num-start-721,721,25726,6.349471807479858,True,,True,1,False,1000,True,1.0
./expes/v2_2020-12-03_dh_100-prng-1,30_issda_100,100,rng-100,81,rng,num-start-171,171,25726,1.9132938385009766,True,,True,1,False,1000,True,1.0
./expes/v2_2020-12-03_dh_100-prng-1,30_issda_100,100,rng-100,11,rng,num-start-751,751,25726,6.811886548995972,True,,True,1,False,1000,True,1.0
./expes/v2_2020-12-03_dh_100-prng-1,30_issda_100,100,rng-100,11,rng,num-start-371,371,25726,3.3947227001190186,True,,True,1,False,1000,True,1.0
./expes/v2_2020-12-03_dh_100-prng-1,30_issda_100,100,rng-100,1,rng,num-start-401,401,25726,3.491128921508789,True,,True,1,False,1000,True,1.0
./expes/v2_2020-12-03_dh_100-prng-1,30_issda_100,100,rng-100,51,rng,num-start-971,971,25726,9.624634265899658,True,,True,1,False,1000,True,1.0
./expes/v2_2020-12-03_dh_100-prng-1,30_issda_100,100,rng-100,41,rng,num-start-531,531,25726,5.19026780128479,True,,True,1,False,1000,True,1.0
./expes/v2_2020-12-03_dh_100-prng-1,30_issda_100,100,rng-100,31,rng,num-start-771,771,25726,7.328134298324585,True,,True,1,False,1000,True,1.0
./expes/v2_2020-12-03_dh_100-prng-1,30_issda_100,100,rng-100,81,rng,num-start-1,1,25726,0.202345609664917,False,,False,2,False,1000,True,1.0
./expes/v2_2020-12-03_dh_100-prng-1,30_issda_100,100,rng-100,81,rng,num-start-451,451,25726,4.265482187271118,True,,True,1,False,1000,True,1.0
./expes/v2_2020-12-03_dh_100-prng-1,30_issda_100,100,rng-100,1,rng,num-start-571,571,25726,5.04998254776001,True,,True,1,False,1000,True,1.0
./expes/v2_2020-12-03_dh_100-prng-1,30_issda_100,100,rng-100,1,rng,num-start-51,51,25726,0.44466590881347656,True,,True,1,False,1000,True,1.0
./expes/v2_2020-12-03_dh_100-prng-1,30_issda_100,100,rng-100,21,rng,num-start-751,751,25726,7.18200421333313,True,,True,1,False,1000,True,1.0
./expes/v2_2020-12-03_dh_100-prng-1,30_issda_100,100,rng-100,51,rng,num-start-571,571,25726,5.621629238128662,True,,True,1,False,1000,True,1.0
./expes/v2_2020-12-03_dh_100-prng-1,30_issda_100,100,rng-100,11,rng,num-start-951,951,25726,8.3850839138031,True,,True,1,False,1000,True,1.0
./expes/v2_2020-12-03_dh_100-prng-1,30_issda_100,100,rng-100,41,rng,num-start-601,601,25726,6.008590221405029,True,,True,1,False,1000,True,1.0
./expes/v2_2020-12-03_dh_100-prng-1,30_issda_100,100,rng-100,71,rng,num-start-811,811,25726,7.47610878944397,True,,True,1,False,1000,True,1.0
./expes/v2_2020-12-03_dh_100-prng-1,30_issda_100,100,rng-100,71,rng,num-start-541,541,25726,5.128512144088745,True,,True,1,False,1000,True,1.0
./expes/v2_2020-12-03_dh_100-prng-1,30_issda_100,100,rng-100,91,rng,num-start-201,201,25726,2.0935754776000977,True,,True,1,False,1000,True,1.0
./expes/v2_2020-12-03_dh_100-prng-1,30_issda_100,100,rng-100,1,rng,num-start-21,21,25726,0.18977999687194824,True,,True,1,False,1000,True,1.0
./expes/v2_2020-12-03_dh_100-prng-1,30_issda_100,100,rng-100,61,rng,num-start-851,851,25726,8.658563613891602,True,,True,1,False,1000,True,1.0
./expes/v2_2020-12-03_dh_100-prng-1,30_issda_100,100,rng-100,11,rng,num-start-441,441,25726,3.8837149143218994,True,,True,1,False,1000,True,1.0
./expes/v2_2020-12-03_dh_100-prng-1,30_issda_100,100,rng-100,41,rng,num-start-351,351,25726,3.8628101348876953,True,,True,1,False,1000,True,1.0
./expes/v2_2020-12-03_dh_100-prng-1,30_issda_100,100,rng-100,61,rng,num-start-471,471,25726,4.613174676895142,True,,True,1,False,1000,True,1.0
./expes/v2_2020-12-03_dh_100-prng-1,30_issda_100,100,rng-100,91,rng,num-start-121,121,25726,1.085031270980835,True,,True,1,False,1000,True,1.0
./expes/v2_2020-12-03_dh_100-prng-1,30_issda_100,100,rng-100,1,rng,num-start-21,21,25726,0.1991748809814453,True,,True,1,False,1000,True,1.0
./expes/v2_2020-12-03_dh_100-prng-1,30_issda_100,100,rng-100,91,rng,num-start-601,601,25726,5.478152751922607,True,,True,1,False,1000,True,1.0
./expes/v2_2020-12-03_dh_100-prng-1,30_issda_100,100,rng-100,1,rng,num-start-371,371,25726,3.2430667877197266,True,,True,1,False,1000,True,1.0
./expes/v2_2020-12-03_dh_100-prng-1,30_issda_100,100,rng-100,81,rng,num-start-381,381,25726,3.7462449073791504,True,,True,1,False,1000,True,1.0
./expes/v2_2020-12-03_dh_100-prng-1,30_issda_100,100,rng-100,11,rng,num-start-911,911,25726,10.336045026779175,True,,True,1,False,1000,True,1.0
./expes/v2_2020-12-03_dh_100-prng-1,30_issda_100,100,rng-100,61,rng,num-start-961,961,25726,11.656409502029419,True,,True,1,False,1000,True,1.0
./expes/v2_2020-12-03_dh_100-prng-1,30_issda_100,100,rng-100,71,rng,num-start-391,391,25726,4.473247528076172,True,,True,1,False,1000,True,1.0
./expes/v2_2020-12-03_dh_100-prng-1,30_issda_100,100,rng-100,31,rng,num-start-991,991,25726,12.02301549911499,True,,True,1,False,1000,True,1.0
./expes/v2_2020-12-03_dh_100-prng-1,30_issda_100,100,rng-100,21,rng,num-start-741,741,25726,8.342752695083618,True,,True,1,False,1000,True,1.0
./expes/v2_2020-12-03_dh_100-prng-1,30_issda_100,100,rng-100,41,rng,num-start-721,721,25726,8.627174377441406,True,,True,1,False,1000,True,1.0
./expes/v2_2020-12-03_dh_100-prng-1,30_issda_100,100,rng-100,31,rng,num-start-731,731,25726,8.838251113891602,True,,True,1,False,1000,True,1.0
./expes/v2_2020-12-03_dh_100-prng-1,30_issda_100,100,rng-100,81,rng,num-start-251,251,25726,3.054417371749878,True,,True,1,False,1000,True,1.0
./expes/v2_2020-12-03_dh_100-prng-1,30_issda_100,100,rng-100,21,rng,num-start-171,171,25726,2.1369011402130127,True,,True,1,False,1000,True,1.0
./expes/v2_2020-12-03_dh_100-prng-1,30_issda_100,100,rng-100,61,rng,num-start-141,141,25726,1.8596272468566895,True,,True,1,False,1000,True,1.0
./expes/v2_2020-12-03_dh_100-prng-1,30_issda_100,100,rng-100,41,rng,num-start-681,681,25726,7.930287837982178,True,,True,1,False,1000,True,1.0
./expes/v2_2020-12-03_dh_100-prng-1,30_issda_100,100,rng-100,11,rng,num-start-431,431,25726,3.7572178840637207,True,,True,1,False,1000,True,1.0
./expes/v2_2020-12-03_dh_100-prng-1,30_issda_100,100,rng-100,51,rng,num-start-481,481,25726,4.570485830307007,True,,True,1,False,1000,True,1.0
./expes/v2_2020-12-03_dh_100-prng-1,30_issda_100,100,rng-100,91,rng,num-start-81,81,25726,0.7217650413513184,True,,True,1,False,1000,True,1.0
./expes/v2_2020-12-03_dh_100-prng-1,30_issda_100,100,rng-100,11,rng,num-start-151,151,25726,1.5504779815673828,True,,True,1,False,1000,True,1.0
./expes/v2_2020-12-03_dh_100-prng-1,30_issda_100,100,rng-100,71,rng,num-start-1,1,25726,0.033402204513549805,False,,False,2,False,1000,True,1.0
./expes/v2_2020-12-03_dh_100-prng-1,30_issda_100,100,rng-100,21,rng,num-start-301,301,25726,3.1054468154907227,True,,True,1,False,1000,True,1.0
./expes/v2_2020-12-03_dh_100-prng-1,30_issda_100,100,rng-100,41,rng,num-start-831,831,25726,8.358664989471436,True,,True,1,False,1000,True,1.0
./expes/v2_2020-12-03_dh_100-prng-1,30_issda_100,100,rng-100,1,rng,num-start-571,571,25726,4.970118999481201,True,,True,1,False,1000,True,1.0
./expes/v2_2020-12-03_dh_100-prng-1,30_issda_100,100,rng-100,91,rng,num-start-931,931,25726,8.400078773498535,True,,True,1,False,1000,True,1.0
./expes/v2_2020-12-03_dh_100-prng-1,30_issda_100,100,rng-100,51,rng,num-start-681,681,25726,6.452722072601318,True,,True,1,False,1000,True,1.0
./expes/v2_2020-12-03_dh_100-prng-1,30_issda_100,100,rng-100,81,rng,num-start-731,731,25726,7.378134250640869,True,,True,1,False,1000,True,1.0
./expes/v2_2020-12-03_dh_100-prng-1,30_issda_100,100,rng-100,31,rng,num-start-461,461,25726,4.5315165519714355,True,,True,1,False,1000,True,1.0
./expes/v2_2020-12-03_dh_100-prng-1,30_issda_100,100,rng-100,1,rng,num-start-151,151,25726,1.365807056427002,True,,True,1,False,1000,True,1.0
./expes/v2_2020-12-03_dh_100-prng-1,30_issda_100,100,rng-100,51,rng,num-start-651,651,25726,6.795453310012817,True,,True,1,False,1000,True,1.0
./expes/v2_2020-12-03_dh_100-prng-1,30_issda_100,100,rng-100,51,rng,num-start-581,581,25726,5.765429496765137,True,,True,1,False,1000,True,1.0
./expes/v2_2020-12-03_dh_100-prng-1,30_issda_100,100,rng-100,21,rng,num-start-861,861,25726,8.69685411453247,True,,True,1,False,1000,True,1.0
./expes/v2_2020-12-03_dh_100-prng-1,30_issda_100,100,rng-100,91,rng,num-start-561,561,25726,5.000372648239136,True,,True,1,False,1000,True,1.0
./expes/v2_2020-12-03_dh_100-prng-1,30_issda_100,100,rng-100,51,rng,num-start-111,111,25726,1.2286665439605713,True,,True,1,False,1000,True,1.0
./expes/v2_2020-12-03_dh_100-prng-1,30_issda_100,100,rng-100,31,rng,num-start-671,671,25726,6.705472469329834,True,,True,1,False,1000,True,1.0
./expes/v2_2020-12-03_dh_100-prng-1,30_issda_100,100,rng-100,51,rng,num-start-61,61,25726,0.7448000907897949,True,,True,1,False,1000,True,1.0
./expes/v2_2020-12-03_dh_100-prng-1,30_issda_100,100,rng-100,71,rng,num-start-781,781,25726,7.729479074478149,True,,True,1,False,1000,True,1.0
./expes/v2_2020-12-03_dh_100-prng-1,30_issda_100,100,rng-100,21,rng,num-start-121,121,25726,1.3969058990478516,True,,True,1,False,1000,True,1.0
./expes/v2_2020-12-03_dh_100-prng-1,30_issda_100,100,rng-100,91,rng,num-start-871,871,25726,7.750302314758301,True,,True,1,False,1000,True,1.0
./expes/v2_2020-12-03_dh_100-prng-1,30_issda_100,100,rng-100,1,rng,num-start-661,661,25726,5.695816278457642,True,,True,1,False,1000,True,1.0
./expes/v2_2020-12-03_dh_100-prng-1,30_issda_100,100,rng-100,51,rng,num-start-801,801,25726,7.7603819370269775,True,,True,1,False,1000,True,1.0
./expes/v2_2020-12-03_dh_100-prng-1,30_issda_100,100,rng-100,71,rng,num-start-671,671,25726,6.453535079956055,True,,True,1,False,1000,True,1.0
./expes/v2_2020-12-03_dh_100-prng-1,30_issda_100,100,rng-100,11,rng,num-start-81,81,25726,0.8468952178955078,True,,True,1,False,1000,True,1.0
./expes/v2_2020-12-03_dh_100-prng-1,30_issda_100,100,rng-100,51,rng,num-start-731,731,25726,7.46462082862854,True,,True,1,False,1000,True,1.0
./expes/v2_2020-12-03_dh_100-prng-1,30_issda_100,100,rng-100,81,rng,num-start-391,391,25726,3.7987802028656006,True,,True,1,False,1000,True,1.0
./expes/v2_2020-12-03_dh_100-prng-1,30_issda_100,100,rng-100,71,rng,num-start-381,381,25726,3.864126205444336,True,,True,1,False,1000,True,1.0
./expes/v2_2020-12-03_dh_100-prng-1,30_issda_100,100,rng-100,91,rng,num-start-251,251,25726,2.1966543197631836,True,,True,1,False,1000,True,1.0
./expes/v2_2020-12-03_dh_100-prng-1,30_issda_100,100,rng-100,61,rng,num-start-691,691,25726,6.893747329711914,True,,True,1,False,1000,True,1.0
./expes/v2_2020-12-03_dh_100-prng-1,30_issda_100,100,rng-100,31,rng,num-start-1,1,25726,0.024149417877197266,False,,False,2,False,1000,True,1.0
./expes/v2_2020-12-03_dh_100-prng-1,30_issda_100,100,rng-100,71,rng,num-start-121,121,25726,1.2971913814544678,True,,True,1,False,1000,True,1.0
./expes/v2_2020-12-03_dh_100-prng-1,30_issda_100,100,rng-100,1,rng,num-start-81,81,25726,0.7294046878814697,True,,True,1,False,1000,True,1.0
./expes/v2_2020-12-03_dh_100-prng-1,30_issda_100,100,rng-100,91,rng,num-start-151,151,25726,1.42372727394104,True,,True,1,False,1000,True,1.0
./expes/v2_2020-12-03_dh_100-prng-1,30_issda_100,100,rng-100,41,rng,num-start-661,661,25726,6.424677848815918,True,,True,1,False,1000,True,1.0
./expes/v2_2020-12-03_dh_100-prng-1,30_issda_100,100,rng-100,51,rng,num-start-241,241,25726,2.582127809524536,True,,True,1,False,1000,True,1.0
./expes/v2_2020-12-03_dh_100-prng-1,30_issda_100,100,rng-100,11,rng,num-start-531,531,25726,4.783955812454224,True,,True,1,False,1000,True,1.0
./expes/v2_2020-12-03_dh_100-prng-1,30_issda_100,100,rng-100,91,rng,num-start-171,171,25726,1.5538504123687744,True,,True,1,False,1000,True,1.0
./expes/v2_2020-12-03_dh_100-prng-1,30_issda_100,100,rng-100,11,rng,num-start-851,851,25726,7.662601947784424,True,,True,1,False,1000,True,1.0
./expes/v2_2020-12-03_dh_100-prng-1,30_issda_100,100,rng-100,61,rng,num-start-551,551,25726,5.777660608291626,True,,True,1,False,1000,True,1.0
./expes/v2_2020-12-03_dh_100-prng-1,30_issda_100,100,rng-100,21,rng,num-start-831,831,25726,8.121080160140991,True,,True,1,False,1000,True,1.0
./expes/v2_2020-12-03_dh_100-prng-1,30_issda_100,100,rng-100,71,rng,num-start-911,911,25726,8.976104497909546,True,,True,1,False,1000,True,1.0
./expes/v2_2020-12-03_dh_100-prng-1,30_issda_100,100,rng-100,11,rng,num-start-31,31,25726,0.4562721252441406,True,,True,1,False,1000,True,1.0
./expes/v2_2020-12-03_dh_100-prng-1,30_issda_100,100,rng-100,31,rng,num-start-241,241,25726,2.3607046604156494,True,,True,1,False,1000,True,1.0
./expes/v2_2020-12-03_dh_100-prng-1,30_issda_100,100,rng-100,31,rng,num-start-551,551,25726,5.596678972244263,True,,True,1,False,1000,True,1.0
./expes/v2_2020-12-03_dh_100-prng-1,30_issda_100,100,rng-100,61,rng,num-start-731,731,25726,7.327615976333618,True,,True,1,False,1000,True,1.0
./expes/v2_2020-12-03_dh_100-prng-1,30_issda_100,100,rng-100,71,rng,num-start-431,431,25726,4.402771234512329,True,,True,1,False,1000,True,1.0
./expes/v2_2020-12-03_dh_100-prng-1,30_issda_100,100,rng-100,21,rng,num-start-981,981,25726,9.915701389312744,True,,True,1,False,1000,True,1.0
./expes/v2_2020-12-03_dh_100-prng-1,30_issda_100,100,rng-100,71,rng,num-start-391,391,25726,3.8536784648895264,True,,True,1,False,1000,True,1.0
./expes/v2_2020-12-03_dh_100-prng-1,30_issda_100,100,rng-100,1,rng,num-start-121,121,25726,1.0882580280303955,True,,True,1,False,1000,True,1.0
./expes/v2_2020-12-03_dh_100-prng-1,30_issda_100,100,rng-100,11,rng,num-start-281,281,25726,2.645975112915039,True,,True,1,False,1000,True,1.0
./expes/v2_2020-12-03_dh_100-prng-1,30_issda_100,100,rng-100,41,rng,num-start-901,901,25726,8.665664434432983,True,,True,1,False,1000,True,1.0
./expes/v2_2020-12-03_dh_100-prng-1,30_issda_100,100,rng-100,11,rng,num-start-141,141,25726,1.6022121906280518,True,,True,1,False,1000,True,1.0
./expes/v2_2020-12-03_dh_100-prng-1,30_issda_100,100,rng-100,51,rng,num-start-401,401,25726,3.9080162048339844,True,,True,1,False,1000,True,1.0
./expes/v2_2020-12-03_dh_100-prng-1,30_issda_100,100,rng-100,11,rng,num-start-171,171,25726,1.6118106842041016,True,,True,1,False,1000,True,1.0
./expes/v2_2020-12-03_dh_100-prng-1,30_issda_100,100,rng-100,21,rng,num-start-931,931,25726,9.43541431427002,True,,True,1,False,1000,True,1.0
./expes/v2_2020-12-03_dh_100-prng-1,30_issda_100,100,rng-100,71,rng,num-start-691,691,25726,6.706441640853882,True,,True,1,False,1000,True,1.0
./expes/v2_2020-12-03_dh_100-prng-1,30_issda_100,100,rng-100,81,rng,num-start-391,391,25726,3.8571135997772217,True,,True,1,False,1000,True,1.0
./expes/v2_2020-12-03_dh_100-prng-1,30_issda_100,100,rng-100,71,rng,num-start-171,171,25726,1.8486628532409668,True,,True,1,False,1000,True,1.0
./expes/v2_2020-12-03_dh_100-prng-1,30_issda_100,100,rng-100,21,rng,num-start-981,981,25726,9.73249626159668,True,,True,1,False,1000,True,1.0
./expes/v2_2020-12-03_dh_100-prng-1,30_issda_100,100,rng-100,21,rng,num-start-971,971,25726,9.309563636779785,True,,True,1,False,1000,True,1.0
./expes/v2_2020-12-03_dh_100-prng-1,30_issda_100,100,rng-100,21,rng,num-start-811,811,25726,7.945184946060181,True,,True,1,False,1000,True,1.0
./expes/v2_2020-12-03_dh_100-prng-1,30_issda_100,100,rng-100,1,rng,num-start-691,691,25726,6.230641603469849,True,,True,1,False,1000,True,1.0
./expes/v2_2020-12-03_dh_100-prng-1,30_issda_100,100,rng-100,91,rng,num-start-471,471,25726,4.217936992645264,True,,True,1,False,1000,True,1.0
./expes/v2_2020-12-03_dh_100-prng-1,30_issda_100,100,rng-100,11,rng,num-start-911,911,25726,8.694461584091187,True,,True,1,False,1000,True,1.0
./expes/v2_2020-12-03_dh_100-prng-1,30_issda_100,100,rng-100,1,rng,num-start-961,961,25726,8.643494844436646,True,,True,1,False,1000,True,1.0
./expes/v2_2020-12-03_dh_100-prng-1,30_issda_100,100,rng-100,1,rng,num-start-411,411,25726,3.5300137996673584,True,,True,1,False,1000,True,1.0
./expes/v2_2020-12-03_dh_100-prng-1,30_issda_100,100,rng-100,91,rng,num-start-161,161,25726,1.5273957252502441,True,,True,1,False,1000,True,1.0
./expes/v2_2020-12-03_dh_100-prng-1,30_issda_100,100,rng-100,71,rng,num-start-541,541,25726,5.247783899307251,True,,True,1,False,1000,True,1.0
./expes/v2_2020-12-03_dh_100-prng-1,30_issda_100,100,rng-100,71,rng,num-start-701,701,25726,6.666041851043701,True,,True,1,False,1000,True,1.0
./expes/v2_2020-12-03_dh_100-prng-1,30_issda_100,100,rng-100,91,rng,num-start-501,501,25726,4.36739182472229,True,,True,1,False,1000,True,1.0
./expes/v2_2020-12-03_dh_100-prng-1,30_issda_100,100,rng-100,11,rng,num-start-581,581,25726,5.212889194488525,True,,True,1,False,1000,True,1.0
./expes/v2_2020-12-03_dh_100-prng-1,30_issda_100,100,rng-100,41,rng,num-start-181,181,25726,1.9578118324279785,True,,True,1,False,1000,True,1.0
./expes/v2_2020-12-03_dh_100-prng-1,30_issda_100,100,rng-100,41,rng,num-start-241,241,25726,2.6587493419647217,True,,True,1,False,1000,True,1.0
./expes/v2_2020-12-03_dh_100-prng-1,30_issda_100,100,rng-100,21,rng,num-start-681,681,25726,6.4650490283966064,True,,True,1,False,1000,True,1.0
./expes/v2_2020-12-03_dh_100-prng-1,30_issda_100,100,rng-100,71,rng,num-start-391,391,25726,3.94486927986145,True,,True,1,False,1000,True,1.0
./expes/v2_2020-12-03_dh_100-prng-1,30_issda_100,100,rng-100,81,rng,num-start-611,611,25726,5.8297646045684814,True,,True,1,False,1000,True,1.0
./expes/v2_2020-12-03_dh_100-prng-1,30_issda_100,100,rng-100,11,rng,num-start-41,41,25726,0.5862040519714355,True,,True,1,False,1000,True,1.0
./expes/v2_2020-12-03_dh_100-prng-1,30_issda_100,100,rng-100,51,rng,num-start-881,881,25726,8.428160429000854,True,,True,1,False,1000,True,1.0
./expes/v2_2020-12-03_dh_100-prng-1,30_issda_100,100,rng-100,31,rng,num-start-21,21,25726,1013.2027859687805,False,,False,1,True,1000,True,0.0
./expes/v2_2020-12-03_dh_100-prng-1,30_issda_100,100,rng-100,81,rng,num-start-831,831,25726,8.52063274383545,True,,True,1,False,1000,True,1.0
./expes/v2_2020-12-03_dh_100-prng-1,30_issda_100,100,rng-100,91,rng,num-start-141,141,25726,1.4219789505004883,True,,True,1,False,1000,True,1.0
./expes/v2_2020-12-03_dh_100-prng-1,30_issda_100,100,rng-100,31,rng,num-start-201,201,25726,2.2635481357574463,True,,True,1,False,1000,True,1.0
./expes/v2_2020-12-03_dh_100-prng-1,30_issda_100,100,rng-100,31,rng,num-start-971,971,25726,9.947656631469727,True,,True,1,False,1000,True,1.0
./expes/v2_2020-12-03_dh_100-prng-1,30_issda_100,100,rng-100,21,rng,num-start-741,741,25726,7.188023805618286,True,,True,1,False,1000,True,1.0
./expes/v2_2020-12-03_dh_100-prng-1,30_issda_100,100,rng-100,81,rng,num-start-71,71,25726,0.8085587024688721,True,,True,1,False,1000,True,1.0
./expes/v2_2020-12-03_dh_100-prng-1,30_issda_100,100,rng-100,11,rng,num-start-341,341,25726,3.2295613288879395,True,,True,1,False,1000,True,1.0
./expes/v2_2020-12-03_dh_100-prng-1,30_issda_100,100,rng-100,41,rng,num-start-371,371,25726,3.6883256435394287,True,,True,1,False,1000,True,1.0
./expes/v2_2020-12-03_dh_100-prng-1,30_issda_100,100,rng-100,51,rng,num-start-951,951,25726,9.390871047973633,True,,True,1,False,1000,True,1.0
./expes/v2_2020-12-03_dh_100-prng-1,30_issda_100,100,rng-100,51,rng,num-start-991,991,25726,10.006111145019531,True,,True,1,False,1000,True,1.0
./expes/v2_2020-12-03_dh_100-prng-1,30_issda_100,100,rng-100,11,rng,num-start-271,271,25726,2.595144510269165,True,,True,1,False,1000,True,1.0
./expes/v2_2020-12-03_dh_100-prng-1,30_issda_100,100,rng-100,71,rng,num-start-481,481,25726,4.440467834472656,True,,True,1,False,1000,True,1.0
./expes/v2_2020-12-03_dh_100-prng-1,30_issda_100,100,rng-100,61,rng,num-start-501,501,25726,4.671696424484253,True,,True,1,False,1000,True,1.0
./expes/v2_2020-12-03_dh_100-prng-1,30_issda_100,100,rng-100,31,rng,num-start-661,661,25726,6.162145376205444,True,,True,1,False,1000,True,1.0
./expes/v2_2020-12-03_dh_100-prng-1,30_issda_100,100,rng-100,31,rng,num-start-111,111,25726,1.271472692489624,True,,True,1,False,1000,True,1.0
./expes/v2_2020-12-03_dh_100-prng-1,30_issda_100,100,rng-100,51,rng,num-start-481,481,25726,5.106447696685791,True,,True,1,False,1000,True,1.0
./expes/v2_2020-12-03_dh_100-prng-1,30_issda_100,100,rng-100,41,rng,num-start-231,231,25726,2.5039076805114746,True,,True,1,False,1000,True,1.0
./expes/v2_2020-12-03_dh_100-prng-1,30_issda_100,100,rng-100,81,rng,num-start-181,181,25726,2.03843355178833,True,,True,1,False,1000,True,1.0
./expes/v2_2020-12-03_dh_100-prng-1,30_issda_100,100,rng-100,11,rng,num-start-601,601,25726,5.823593616485596,True,,True,1,False,1000,True,1.0
./expes/v2_2020-12-03_dh_100-prng-1,30_issda_100,100,rng-100,11,rng,num-start-561,561,25726,5.062952041625977,True,,True,1,False,1000,True,1.0
./expes/v2_2020-12-03_dh_100-prng-1,30_issda_100,100,rng-100,71,rng,num-start-881,881,25726,8.600970983505249,True,,True,1,False,1000,True,1.0
./expes/v2_2020-12-03_dh_100-prng-1,30_issda_100,100,rng-100,1,rng,num-start-941,941,25726,8.220089673995972,True,,True,1,False,1000,True,1.0
./expes/v2_2020-12-03_dh_100-prng-1,30_issda_100,100,rng-100,11,rng,num-start-751,751,25726,6.697406053543091,True,,True,1,False,1000,True,1.0
./expes/v2_2020-12-03_dh_100-prng-1,30_issda_100,100,rng-100,41,rng,num-start-271,271,25726,2.6435837745666504,True,,True,1,False,1000,True,1.0
./expes/v2_2020-12-03_dh_100-prng-1,30_issda_100,100,rng-100,61,rng,num-start-131,131,25726,1.3800945281982422,True,,True,1,False,1000,True,1.0
./expes/v2_2020-12-03_dh_100-prng-1,30_issda_100,100,rng-100,11,rng,num-start-791,791,25726,7.149989366531372,True,,True,1,False,1000,True,1.0
./expes/v2_2020-12-03_dh_100-prng-1,30_issda_100,100,rng-100,61,rng,num-start-201,201,25726,2.1675758361816406,True,,True,1,False,1000,True,1.0
./expes/v2_2020-12-03_dh_100-prng-1,30_issda_100,100,rng-100,91,rng,num-start-791,791,25726,7.053807258605957,True,,True,1,False,1000,True,1.0
./expes/v2_2020-12-03_dh_100-prng-1,30_issda_100,100,rng-100,91,rng,num-start-71,71,25726,0.7603704929351807,True,,True,1,False,1000,True,1.0
./expes/v2_2020-12-03_dh_100-prng-1,30_issda_100,100,rng-100,81,rng,num-start-601,601,25726,5.810590744018555,True,,True,1,False,1000,True,1.0
./expes/v2_2020-12-03_dh_100-prng-1,30_issda_100,100,rng-100,31,rng,num-start-151,151,25726,1.7867581844329834,True,,True,1,False,1000,True,1.0
./expes/v2_2020-12-03_dh_100-prng-1,30_issda_100,100,rng-100,81,rng,num-start-211,211,25726,2.4147589206695557,True,,True,1,False,1000,True,1.0
./expes/v2_2020-12-03_dh_100-prng-1,30_issda_100,100,rng-100,41,rng,num-start-921,921,25726,9.584459781646729,True,,True,1,False,1000,True,1.0
./expes/v2_2020-12-03_dh_100-prng-1,30_issda_100,100,rng-100,81,rng,num-start-481,481,25726,4.989203691482544,True,,True,1,False,1000,True,1.0
./expes/v2_2020-12-03_dh_100-prng-1,30_issda_100,100,rng-100,61,rng,num-start-691,691,25726,6.615403413772583,True,,True,1,False,1000,True,1.0
./expes/v2_2020-12-03_dh_100-prng-1,30_issda_100,100,rng-100,71,rng,num-start-421,421,25726,4.637021541595459,True,,True,1,False,1000,True,1.0
./expes/v2_2020-12-03_dh_100-prng-1,30_issda_100,100,rng-100,1,rng,num-start-741,741,25726,6.470491170883179,True,,True,1,False,1000,True,1.0
./expes/v2_2020-12-03_dh_100-prng-1,30_issda_100,100,rng-100,11,rng,num-start-621,621,25726,5.853989362716675,True,,True,1,False,1000,True,1.0
./expes/v2_2020-12-03_dh_100-prng-1,30_issda_100,100,rng-100,71,rng,num-start-171,171,25726,1.91823148727417,True,,True,1,False,1000,True,1.0
./expes/v2_2020-12-03_dh_100-prng-1,30_issda_100,100,rng-100,21,rng,num-start-161,161,25726,1.83017897605896,True,,True,1,False,1000,True,1.0
./expes/v2_2020-12-03_dh_100-prng-1,30_issda_100,100,rng-100,61,rng,num-start-571,571,25726,5.6759278774261475,True,,True,1,False,1000,True,1.0
./expes/v2_2020-12-03_dh_100-prng-1,30_issda_100,100,rng-100,31,rng,num-start-991,991,25726,9.725164651870728,True,,True,1,False,1000,True,1.0
./expes/v2_2020-12-03_dh_100-prng-1,30_issda_100,100,rng-100,81,rng,num-start-991,991,25726,9.431964874267578,True,,True,1,False,1000,True,1.0
./expes/v2_2020-12-03_dh_100-prng-1,30_issda_100,100,rng-100,51,rng,num-start-141,141,25726,1.6851770877838135,True,,True,1,False,1000,True,1.0
./expes/v2_2020-12-03_dh_100-prng-1,30_issda_100,100,rng-100,11,rng,num-start-541,541,25726,5.30327296257019,True,,True,1,False,1000,True,1.0
./expes/v2_2020-12-03_dh_100-prng-1,30_issda_100,100,rng-100,21,rng,num-start-531,531,25726,5.333442449569702,True,,True,1,False,1000,True,1.0
./expes/v2_2020-12-03_dh_100-prng-1,30_issda_100,100,rng-100,61,rng,num-start-301,301,25726,3.0643603801727295,True,,True,1,False,1000,True,1.0
./expes/v2_2020-12-03_dh_100-prng-1,30_issda_100,100,rng-100,31,rng,num-start-211,211,25726,2.2547824382781982,True,,True,1,False,1000,True,1.0
./expes/v2_2020-12-03_dh_100-prng-1,30_issda_100,100,rng-100,71,rng,num-start-841,841,25726,8.023144721984863,True,,True,1,False,1000,True,1.0
./expes/v2_2020-12-03_dh_100-prng-1,30_issda_100,100,rng-100,71,rng,num-start-351,351,25726,3.756150007247925,True,,True,1,False,1000,True,1.0
./expes/v2_2020-12-03_dh_100-prng-1,30_issda_100,100,rng-100,11,rng,num-start-91,91,25726,0.9673762321472168,True,,True,1,False,1000,True,1.0
./expes/v2_2020-12-03_dh_100-prng-1,30_issda_100,100,rng-100,1,rng,num-start-761,761,25726,6.742050647735596,True,,True,1,False,1000,True,1.0
./expes/v2_2020-12-03_dh_100-prng-1,30_issda_100,100,rng-100,81,rng,num-start-611,611,25726,6.126702308654785,True,,True,1,False,1000,True,1.0
./expes/v2_2020-12-03_dh_100-prng-1,30_issda_100,100,rng-100,51,rng,num-start-511,511,25726,5.121772766113281,True,,True,1,False,1000,True,1.0
./expes/v2_2020-12-03_dh_100-prng-1,30_issda_100,100,rng-100,1,rng,num-start-431,431,25726,3.820387601852417,True,,True,1,False,1000,True,1.0
./expes/v2_2020-12-03_dh_100-prng-1,30_issda_100,100,rng-100,41,rng,num-start-71,71,25726,0.8120007514953613,True,,True,1,False,1000,True,1.0
./expes/v2_2020-12-03_dh_100-prng-1,30_issda_100,100,rng-100,81,rng,num-start-351,351,25726,3.7015371322631836,True,,True,1,False,1000,True,1.0
./expes/v2_2020-12-03_dh_100-prng-1,30_issda_100,100,rng-100,21,rng,num-start-101,101,25726,1.083327293395996,True,,True,1,False,1000,True,1.0
./expes/v2_2020-12-03_dh_100-prng-1,30_issda_100,100,rng-100,31,rng,num-start-221,221,25726,2.3580241203308105,True,,True,1,False,1000,True,1.0
./expes/v2_2020-12-03_dh_100-prng-1,30_issda_100,100,rng-100,11,rng,num-start-531,531,25726,4.681260347366333,True,,True,1,False,1000,True,1.0
./expes/v2_2020-12-03_dh_100-prng-1,30_issda_100,100,rng-100,31,rng,num-start-501,501,25726,4.759217023849487,True,,True,1,False,1000,True,1.0
./expes/v2_2020-12-03_dh_100-prng-1,30_issda_100,100,rng-100,41,rng,num-start-91,91,25726,1.0921223163604736,True,,True,1,False,1000,True,1.0
./expes/v2_2020-12-03_dh_100-prng-1,30_issda_100,100,rng-100,31,rng,num-start-581,581,25726,5.832591533660889,True,,True,1,False,1000,True,1.0
./expes/v2_2020-12-03_dh_100-prng-1,30_issda_100,100,rng-100,31,rng,num-start-31,31,25726,1.2946662902832031,True,,True,1,False,1000,True,1.0
./expes/v2_2020-12-03_dh_100-prng-1,30_issda_100,100,rng-100,41,rng,num-start-341,341,25726,3.4735822677612305,True,,True,1,False,1000,True,1.0
./expes/v2_2020-12-03_dh_100-prng-1,30_issda_100,100,rng-100,61,rng,num-start-811,811,25726,7.795293092727661,True,,True,1,False,1000,True,1.0
./expes/v2_2020-12-03_dh_100-prng-1,30_issda_100,100,rng-100,81,rng,num-start-411,411,25726,3.80534291267395,True,,True,1,False,1000,True,1.0
./expes/v2_2020-12-03_dh_100-prng-1,30_issda_100,100,rng-100,41,rng,num-start-711,711,25726,6.967074632644653,True,,True,1,False,1000,True,1.0
./expes/v2_2020-12-03_dh_100-prng-1,30_issda_100,100,rng-100,11,rng,num-start-821,821,25726,7.258813858032227,True,,True,1,False,1000,True,1.0
./expes/v2_2020-12-03_dh_100-prng-1,30_issda_100,100,rng-100,51,rng,num-start-331,331,25726,3.3206629753112793,True,,True,1,False,1000,True,1.0
./expes/v2_2020-12-03_dh_100-prng-1,30_issda_100,100,rng-100,31,rng,num-start-571,571,25726,5.500725746154785,True,,True,1,False,1000,True,1.0
./expes/v2_2020-12-03_dh_100-prng-1,30_issda_100,100,rng-100,11,rng,num-start-821,821,25726,7.208255052566528,True,,True,1,False,1000,True,1.0
./expes/v2_2020-12-03_dh_100-prng-1,30_issda_100,100,rng-100,71,rng,num-start-141,141,25726,1.567507266998291,True,,True,1,False,1000,True,1.0
./expes/v2_2020-12-03_dh_100-prng-1,30_issda_100,100,rng-100,11,rng,num-start-341,341,25726,3.336803436279297,True,,True,1,False,1000,True,1.0
./expes/v2_2020-12-03_dh_100-prng-1,30_issda_100,100,rng-100,21,rng,num-start-381,381,25726,3.8534016609191895,True,,True,1,False,1000,True,1.0
./expes/v2_2020-12-03_dh_100-prng-1,30_issda_100,100,rng-100,71,rng,num-start-781,781,25726,7.9681313037872314,True,,True,1,False,1000,True,1.0
./expes/v2_2020-12-03_dh_100-prng-1,30_issda_100,100,rng-100,71,rng,num-start-801,801,25726,7.62532377243042,True,,True,1,False,1000,True,1.0
./expes/v2_2020-12-03_dh_100-prng-1,30_issda_100,100,rng-100,61,rng,num-start-591,591,25726,5.582166910171509,True,,True,1,False,1000,True,1.0
./expes/v2_2020-12-03_dh_100-prng-1,30_issda_100,100,rng-100,1,rng,num-start-671,671,25726,5.844707489013672,True,,True,1,False,1000,True,1.0
./expes/v2_2020-12-03_dh_100-prng-1,30_issda_100,100,rng-100,51,rng,num-start-21,21,25726,2.6532139778137207,True,,True,1,False,1000,True,1.0
./expes/v2_2020-12-03_dh_100-prng-1,30_issda_100,100,rng-100,21,rng,num-start-871,871,25726,8.402811050415039,True,,True,1,False,1000,True,1.0
./expes/v2_2020-12-03_dh_100-prng-1,30_issda_100,100,rng-100,61,rng,num-start-791,791,25726,8.529417514801025,True,,True,1,False,1000,True,1.0
./expes/v2_2020-12-03_dh_100-prng-1,30_issda_100,100,rng-100,91,rng,num-start-211,211,25726,1.8345694541931152,True,,True,1,False,1000,True,1.0
./expes/v2_2020-12-03_dh_100-prng-1,30_issda_100,100,rng-100,51,rng,num-start-481,481,25726,4.911876916885376,True,,True,1,False,1000,True,1.0
./expes/v2_2020-12-03_dh_100-prng-1,30_issda_100,100,rng-100,61,rng,num-start-991,991,25726,9.701151847839355,True,,True,1,False,1000,True,1.0
./expes/v2_2020-12-03_dh_100-prng-1,30_issda_100,100,rng-100,1,rng,num-start-651,651,25726,5.697309494018555,True,,True,1,False,1000,True,1.0
./expes/v2_2020-12-03_dh_100-prng-1,30_issda_100,100,rng-100,11,rng,num-start-71,71,25726,0.8080105781555176,True,,True,1,False,1000,True,1.0
./expes/v2_2020-12-03_dh_100-prng-1,30_issda_100,100,rng-100,21,rng,num-start-51,51,25726,0.5882117748260498,True,,True,1,False,1000,True,1.0
./expes/v2_2020-12-03_dh_100-prng-1,30_issda_100,100,rng-100,21,rng,num-start-11,11,25726,1000.1644937992096,False,,False,0,True,1000,True,0.0
./expes/v2_2020-12-03_dh_100-prng-1,30_issda_100,100,rng-100,81,rng,num-start-351,351,25726,3.866356372833252,True,,True,1,False,1000,True,1.0
./expes/v2_2020-12-03_dh_100-prng-1,30_issda_100,100,rng-100,91,rng,num-start-141,141,25726,1.261772871017456,True,,True,1,False,1000,True,1.0
./expes/v2_2020-12-03_dh_100-prng-1,30_issda_100,100,rng-100,61,rng,num-start-581,581,25726,5.765212059020996,True,,True,1,False,1000,True,1.0
./expes/v2_2020-12-03_dh_100-prng-1,30_issda_100,100,rng-100,51,rng,num-start-661,661,25726,6.523235082626343,True,,True,1,False,1000,True,1.0
./expes/v2_2020-12-03_dh_100-prng-1,30_issda_100,100,rng-100,91,rng,num-start-641,641,25726,6.02333664894104,True,,True,1,False,1000,True,1.0
./expes/v2_2020-12-03_dh_100-prng-1,30_issda_100,100,rng-100,41,rng,num-start-371,371,25726,3.7149953842163086,True,,True,1,False,1000,True,1.0
./expes/v2_2020-12-03_dh_100-prng-1,30_issda_100,100,rng-100,61,rng,num-start-301,301,25726,2.9695191383361816,True,,True,1,False,1000,True,1.0
./expes/v2_2020-12-03_dh_100-prng-1,30_issda_100,100,rng-100,91,rng,num-start-451,451,25726,4.079812526702881,True,,True,1,False,1000,True,1.0
./expes/v2_2020-12-03_dh_100-prng-1,30_issda_100,100,rng-100,31,rng,num-start-871,871,25726,8.449052810668945,True,,True,1,False,1000,True,1.0
./expes/v2_2020-12-03_dh_100-prng-1,30_issda_100,100,rng-100,81,rng,num-start-501,501,25726,5.0827343463897705,True,,True,1,False,1000,True,1.0
./expes/v2_2020-12-03_dh_100-prng-1,30_issda_100,100,rng-100,61,rng,num-start-751,751,25726,7.285564184188843,True,,True,1,False,1000,True,1.0
./expes/v2_2020-12-03_dh_100-prng-1,30_issda_100,100,rng-100,61,rng,num-start-421,421,25726,4.412829637527466,True,,True,1,False,1000,True,1.0
./expes/v2_2020-12-03_dh_100-prng-1,30_issda_100,100,rng-100,51,rng,num-start-521,521,25726,5.251219749450684,True,,True,1,False,1000,True,1.0
./expes/v2_2020-12-03_dh_100-prng-1,30_issda_100,100,rng-100,51,rng,num-start-131,131,25726,1.467881441116333,True,,True,1,False,1000,True,1.0
./expes/v2_2020-12-03_dh_100-prng-1,30_issda_100,100,rng-100,11,rng,num-start-661,661,25726,6.128137111663818,True,,True,1,False,1000,True,1.0
./expes/v2_2020-12-03_dh_100-prng-1,30_issda_100,100,rng-100,11,rng,num-start-301,301,25726,2.675978422164917,True,,True,1,False,1000,True,1.0
./expes/v2_2020-12-03_dh_100-prng-1,30_issda_100,100,rng-100,71,rng,num-start-981,981,25726,9.323742628097534,True,,True,1,False,1000,True,1.0
./expes/v2_2020-12-03_dh_100-prng-1,30_issda_100,100,rng-100,71,rng,num-start-831,831,25726,8.087172508239746,True,,True,1,False,1000,True,1.0
./expes/v2_2020-12-03_dh_100-prng-1,30_issda_100,100,rng-100,1,rng,num-start-531,531,25726,4.675505876541138,True,,True,1,False,1000,True,1.0
./expes/v2_2020-12-03_dh_100-prng-1,30_issda_100,100,rng-100,91,rng,num-start-21,21,25726,0.3302175998687744,True,,True,1,False,1000,True,1.0
./expes/v2_2020-12-03_dh_100-prng-1,30_issda_100,100,rng-100,31,rng,num-start-431,431,25726,4.56359601020813,True,,True,1,False,1000,True,1.0
./expes/v2_2020-12-03_dh_100-prng-1,30_issda_100,100,rng-100,81,rng,num-start-991,991,25726,9.48781704902649,True,,True,1,False,1000,True,1.0
./expes/v2_2020-12-03_dh_100-prng-1,30_issda_100,100,rng-100,1,rng,num-start-951,951,25726,8.345534563064575,True,,True,1,False,1000,True,1.0
./expes/v2_2020-12-03_dh_100-prng-1,30_issda_100,100,rng-100,71,rng,num-start-51,51,25726,0.6080508232116699,True,,True,1,False,1000,True,1.0
./expes/v2_2020-12-03_dh_100-prng-1,30_issda_100,100,rng-100,71,rng,num-start-951,951,25726,8.931425333023071,True,,True,1,False,1000,True,1.0
./expes/v2_2020-12-03_dh_100-prng-1,30_issda_100,100,rng-100,11,rng,num-start-241,241,25726,2.4753265380859375,True,,True,1,False,1000,True,1.0
./expes/v2_2020-12-03_dh_100-prng-1,30_issda_100,100,rng-100,11,rng,num-start-501,501,25726,4.798027753829956,True,,True,1,False,1000,True,1.0
./expes/v2_2020-12-03_dh_100-prng-1,30_issda_100,100,rng-100,91,rng,num-start-51,51,25726,0.4729769229888916,True,,True,1,False,1000,True,1.0
./expes/v2_2020-12-03_dh_100-prng-1,30_issda_100,100,rng-100,51,rng,num-start-641,641,25726,6.258808135986328,True,,True,1,False,1000,True,1.0
./expes/v2_2020-12-03_dh_100-prng-1,30_issda_100,100,rng-100,71,rng,num-start-391,391,25726,3.798976182937622,True,,True,1,False,1000,True,1.0
./expes/v2_2020-12-03_dh_100-prng-1,30_issda_100,100,rng-100,31,rng,num-start-221,221,25726,2.4494950771331787,True,,True,1,False,1000,True,1.0
./expes/v2_2020-12-03_dh_100-prng-1,30_issda_100,100,rng-100,11,rng,num-start-871,871,25726,7.771628141403198,True,,True,1,False,1000,True,1.0
./expes/v2_2020-12-03_dh_100-prng-1,30_issda_100,100,rng-100,21,rng,num-start-891,891,25726,9.09672474861145,True,,True,1,False,1000,True,1.0
./expes/v2_2020-12-03_dh_100-prng-1,30_issda_100,100,rng-100,41,rng,num-start-821,821,25726,8.099764108657837,True,,True,1,False,1000,True,1.0
./expes/v2_2020-12-03_dh_100-prng-1,30_issda_100,100,rng-100,41,rng,num-start-441,441,25726,4.466456174850464,True,,True,1,False,1000,True,1.0
./expes/v2_2020-12-03_dh_100-prng-1,30_issda_100,100,rng-100,71,rng,num-start-951,951,25726,9.471792697906494,True,,True,1,False,1000,True,1.0
./expes/v2_2020-12-03_dh_100-prng-1,30_issda_100,100,rng-100,31,rng,num-start-191,191,25726,2.053786516189575,True,,True,1,False,1000,True,1.0
./expes/v2_2020-12-03_dh_100-prng-1,30_issda_100,100,rng-100,1,rng,num-start-591,591,25726,5.847633123397827,True,,True,1,False,1000,True,1.0
./expes/v2_2020-12-03_dh_100-prng-1,30_issda_100,100,rng-100,61,rng,num-start-431,431,25726,4.375065326690674,True,,True,1,False,1000,True,1.0
./expes/v2_2020-12-03_dh_100-prng-1,30_issda_100,100,rng-100,21,rng,num-start-771,771,25726,7.45562219619751,True,,True,1,False,1000,True,1.0
./expes/v2_2020-12-03_dh_100-prng-1,30_issda_100,100,rng-100,71,rng,num-start-201,201,25726,2.1379640102386475,True,,True,1,False,1000,True,1.0
./expes/v2_2020-12-03_dh_100-prng-1,30_issda_100,100,rng-100,41,rng,num-start-191,191,25726,1.9867310523986816,True,,True,1,False,1000,True,1.0
./expes/v2_2020-12-03_dh_100-prng-1,30_issda_100,100,rng-100,61,rng,num-start-681,681,25726,6.652522325515747,True,,True,1,False,1000,True,1.0
./expes/v2_2020-12-03_dh_100-prng-1,30_issda_100,100,rng-100,41,rng,num-start-301,301,25726,3.120722532272339,True,,True,1,False,1000,True,1.0
