expe,clients,clients_size,clients_subset,agg_size,method,days,days_size,days_total,time,valid,valid_sum,success,nsols,wall_hit,wall_time,pooled,valid_sums
./expes/v2_2020-11-05_dbh_150-prng-1,daily_base_hphc_150,150,first-150,11,rng,num-start-101,101,365,2.160118818283081,True,,True,1,False,1000,True,1.0
./expes/v2_2020-11-05_dbh_150-prng-1,daily_base_hphc_150,150,first-150,31,rng,num-start-111,111,365,2.139451026916504,True,,True,1,False,1000,True,1.0
./expes/v2_2020-11-05_dbh_150-prng-1,daily_base_hphc_150,150,first-150,51,rng,num-start-81,81,365,1.6119956970214844,True,,True,1,False,1000,True,1.0
./expes/v2_2020-11-05_dbh_150-prng-1,daily_base_hphc_150,150,first-150,131,rng,num-start-51,51,365,0.9148416519165039,True,,True,1,False,1000,True,1.0
./expes/v2_2020-11-05_dbh_150-prng-1,daily_base_hphc_150,150,first-150,21,rng,num-start-181,181,365,3.3306405544281006,True,,True,1,False,1000,True,1.0
./expes/v2_2020-11-05_dbh_150-prng-1,daily_base_hphc_150,150,first-150,101,rng,num-start-291,291,365,4.688202857971191,True,,True,1,False,1000,True,1.0
./expes/v2_2020-11-05_dbh_150-prng-1,daily_base_hphc_150,150,first-150,41,rng,num-start-141,141,365,2.5246872901916504,True,,True,1,False,1000,True,1.0
./expes/v2_2020-11-05_dbh_150-prng-1,daily_base_hphc_150,150,first-150,81,rng,num-start-181,181,365,3.5488903522491455,True,,True,1,False,1000,True,1.0
./expes/v2_2020-11-05_dbh_150-prng-1,daily_base_hphc_150,150,first-150,81,rng,num-start-121,121,365,2.3280160427093506,True,,True,1,False,1000,True,1.0
./expes/v2_2020-11-05_dbh_150-prng-1,daily_base_hphc_150,150,first-150,111,rng,num-start-241,241,365,4.455639839172363,True,,True,1,False,1000,True,1.0
./expes/v2_2020-11-05_dbh_150-prng-1,daily_base_hphc_150,150,first-150,41,rng,num-start-21,21,365,1000.4023354053497,False,,False,0,True,1000,True,0.0
./expes/v2_2020-11-05_dbh_150-prng-1,daily_base_hphc_150,150,first-150,51,rng,num-start-201,201,365,3.579726219177246,True,,True,1,False,1000,True,1.0
./expes/v2_2020-11-05_dbh_150-prng-1,daily_base_hphc_150,150,first-150,71,rng,num-start-211,211,365,3.9918160438537598,True,,True,1,False,1000,True,1.0
./expes/v2_2020-11-05_dbh_150-prng-1,daily_base_hphc_150,150,first-150,121,rng,num-start-11,11,365,1000.1781139373779,False,,False,0,True,1000,True,0.0
./expes/v2_2020-11-05_dbh_150-prng-1,daily_base_hphc_150,150,first-150,111,rng,num-start-71,71,365,1.3348751068115234,True,,True,1,False,1000,True,1.0
./expes/v2_2020-11-05_dbh_150-prng-1,daily_base_hphc_150,150,first-150,51,rng,num-start-161,161,365,2.8810677528381348,True,,True,1,False,1000,True,1.0
./expes/v2_2020-11-05_dbh_150-prng-1,daily_base_hphc_150,150,first-150,131,rng,num-start-141,141,365,2.4429452419281006,True,,True,1,False,1000,True,1.0
./expes/v2_2020-11-05_dbh_150-prng-1,daily_base_hphc_150,150,first-150,111,rng,num-start-61,61,365,1.5059101581573486,True,,True,1,False,1000,True,1.0
./expes/v2_2020-11-05_dbh_150-prng-1,daily_base_hphc_150,150,first-150,141,rng,num-start-41,41,365,0.7604324817657471,True,,True,1,False,1000,True,1.0
./expes/v2_2020-11-05_dbh_150-prng-1,daily_base_hphc_150,150,first-150,111,rng,num-start-101,101,365,1.8383452892303467,True,,True,1,False,1000,True,1.0
./expes/v2_2020-11-05_dbh_150-prng-1,daily_base_hphc_150,150,first-150,121,rng,num-start-151,151,365,2.592324733734131,True,,True,1,False,1000,True,1.0
./expes/v2_2020-11-05_dbh_150-prng-1,daily_base_hphc_150,150,first-150,21,rng,num-start-241,241,365,4.35407280921936,True,,True,1,False,1000,True,1.0
./expes/v2_2020-11-05_dbh_150-prng-1,daily_base_hphc_150,150,first-150,31,rng,num-start-131,131,365,2.4125683307647705,True,,True,1,False,1000,True,1.0
./expes/v2_2020-11-05_dbh_150-prng-1,daily_base_hphc_150,150,first-150,71,rng,num-start-41,41,365,1000.664947271347,False,,False,0,True,1000,True,0.0
./expes/v2_2020-11-05_dbh_150-prng-1,daily_base_hphc_150,150,first-150,81,rng,num-start-221,221,365,3.9298672676086426,True,,True,1,False,1000,True,1.0
./expes/v2_2020-11-05_dbh_150-prng-1,daily_base_hphc_150,150,first-150,31,rng,num-start-1,1,365,0.05631613731384277,False,,False,2,False,1000,True,1.0
./expes/v2_2020-11-05_dbh_150-prng-1,daily_base_hphc_150,150,first-150,1,rng,num-start-111,111,365,1.5915634632110596,True,,True,1,False,1000,True,1.0
./expes/v2_2020-11-05_dbh_150-prng-1,daily_base_hphc_150,150,first-150,91,rng,num-start-61,61,365,15.400892496109009,True,,True,1,False,1000,True,1.0
./expes/v2_2020-11-05_dbh_150-prng-1,daily_base_hphc_150,150,first-150,111,rng,num-start-121,121,365,2.1117846965789795,True,,True,1,False,1000,True,1.0
./expes/v2_2020-11-05_dbh_150-prng-1,daily_base_hphc_150,150,first-150,11,rng,num-start-201,201,365,3.7694308757781982,True,,True,1,False,1000,True,1.0
./expes/v2_2020-11-05_dbh_150-prng-1,daily_base_hphc_150,150,first-150,1,rng,num-start-111,111,365,1.5926949977874756,True,,True,1,False,1000,True,1.0
./expes/v2_2020-11-05_dbh_150-prng-1,daily_base_hphc_150,150,first-150,41,rng,num-start-221,221,365,3.857398271560669,True,,True,1,False,1000,True,1.0
./expes/v2_2020-11-05_dbh_150-prng-1,daily_base_hphc_150,150,first-150,91,rng,num-start-41,41,365,1000.6340389251709,False,,False,0,True,1000,True,0.0
./expes/v2_2020-11-05_dbh_150-prng-1,daily_base_hphc_150,150,first-150,121,rng,num-start-171,171,365,2.9145941734313965,True,,True,1,False,1000,True,1.0
./expes/v2_2020-11-05_dbh_150-prng-1,daily_base_hphc_150,150,first-150,1,rng,num-start-161,161,365,2.401333808898926,True,,True,1,False,1000,True,1.0
./expes/v2_2020-11-05_dbh_150-prng-1,daily_base_hphc_150,150,first-150,11,rng,num-start-101,101,365,1.8658103942871094,True,,True,1,False,1000,True,1.0
./expes/v2_2020-11-05_dbh_150-prng-1,daily_base_hphc_150,150,first-150,121,rng,num-start-271,271,365,4.366189479827881,True,,True,1,False,1000,True,1.0
./expes/v2_2020-11-05_dbh_150-prng-1,daily_base_hphc_150,150,first-150,61,rng,num-start-41,41,365,1000.6195242404938,False,,False,0,True,1000,True,0.0
./expes/v2_2020-11-05_dbh_150-prng-1,daily_base_hphc_150,150,first-150,11,rng,num-start-101,101,365,1.7694075107574463,True,,True,1,False,1000,True,1.0
./expes/v2_2020-11-05_dbh_150-prng-1,daily_base_hphc_150,150,first-150,121,rng,num-start-191,191,365,3.418015480041504,True,,True,1,False,1000,True,1.0
./expes/v2_2020-11-05_dbh_150-prng-1,daily_base_hphc_150,150,first-150,41,rng,num-start-191,191,365,3.4695522785186768,True,,True,1,False,1000,True,1.0
./expes/v2_2020-11-05_dbh_150-prng-1,daily_base_hphc_150,150,first-150,101,rng,num-start-91,91,365,1.6101601123809814,True,,True,1,False,1000,True,1.0
./expes/v2_2020-11-05_dbh_150-prng-1,daily_base_hphc_150,150,first-150,141,rng,num-start-151,151,365,2.6395609378814697,True,,True,1,False,1000,True,1.0
./expes/v2_2020-11-05_dbh_150-prng-1,daily_base_hphc_150,150,first-150,51,rng,num-start-41,41,365,1000.7139286994934,False,,False,0,True,1000,True,0.0
