expe,clients,clients_size,clients_subset,agg_size,agg_size_pc,method,days,days_size,days_total,noise_method,time,valid,valid_sum,success,score_avg,score_min,score_max,nsols,oracle,wall_hit,wall_time,pooled,pool_size,uuid,infeasible,optimal,valid_sums
./expes/v2_2021-04-05_issda-30_3000-prng-1-w86-p2_3d,30_issda-3000,3000,first-3000,300,10,rng,num-start-3000,3000,25726,classic,7419.866684675217,True,,False,0.9870879033171636,0.9741758066343271,1.0,2,"['1', '5', '7', '51', '55', '58', '67', '89', '94', '110', '130', '136', '150', '159', '160', '162', '166', '186', '188', '192', '205', '238', '251', '255', '256', '258', '262', '283', '287', '295', '303', '304', '324', '329', '330', '331', '338', '342', '368', '374', '375', '376', '383', '389', '405', '413', '414', '416', '447', '473', '476', '480', '481', '491', '508', '510', '512', '534', '543', '553', '571', '573', '584', '600', '602', '613', '629', '646', '649', '656', '664', '679', '694', '699', '717', '739', '754', '758', '765', '771', '773', '776', '780', '783', '788', '798', '817', '833', '834', '838', '863', '882', '895', '897', '904', '905', '909', '914', '965', '978', '981', '984', '992', '996', '1000', '1027', '1028', '1061', '1062', '1065', '1066', '1067', '1111', '1128', '1129', '1151', '1155', '1179', '1180', '1190', '1193', '1234', '1235', '1243', '1271', '1276', '1279', '1296', '1299', '1311', '1329', '1333', '1336', '1353', '1363', '1365', '1370', '1374', '1376', '1403', '1435', '1443', '1450', '1463', '1464', '1467', '1469', '1472', '1517', '1524', '1551', '1577', '1578', '1590', '1592', '1603', '1634', '1648', '1659', '1679', '1698', '1701', '1714', '1718', '1723', '1744', '1746', '1779', '1787', '1812', '1814', '1823', '1825', '1829', '1835', '1836', '1846', '1876', '1913', '1914', '1927', '1932', '1934', '1952', '1953', '1954', '1963', '1974', '1991', '1993', '1996', '2005', '2018', '2022', '2026', '2063', '2068', '2081', '2084', '2095', '2136', '2138', '2149', '2161', '2169', '2182', '2189', '2214', '2215', '2225', '2230', '2242', '2243', '2247', '2248', '2258', '2264', '2293', '2297', '2300', '2325', '2328', '2332', '2334', '2351', '2358', '2360', '2375', '2390', '2405', '2407', '2416', '2418', '2436', '2443', '2444', '2445', '2466', '2467', '2471', '2474', '2481', '2484', '2500', '2503', '2507', '2510', '2533', '2542', '2544', '2562', '2582', '2594', '2596', '2598', '2601', '2611', '2624', '2627', '2650', '2659', '2666', '2690', '2694', '2705', '2713', '2727', '2737', '2756', '2759', '2760', '2770', '2781', '2783', '2784', '2788', '2791', '2800', '2802', '2830', '2858', '2862', '2865', '2869', '2874', '2875', '2883', '2889', '2890', '2895', '2905', '2910', '2932', '2942', '2948', '2972', '2979', '2990', '2992', '2997']",False,86400,True,2,83aed5334e,0.0,1.0,1.0
./expes/v2_2021-04-05_issda-30_3000-prng-1-w86-p2_3d,30_issda-3000,3000,first-3000,1050,35,rng,num-start-2700,2700,25726,classic,7357.302192926407,True,,True,1.0,1.0,1.0,1,"['7', '8', '13', '15', '18', '20', '22', '26', '34', '35', '37', '43', '44', '48', '52', '65', '66', '71', '74', '75', '79', '80', '82', '87', '88', '95', '97', '98', '99', '100', '101', '102', '103', '104', '105', '113', '115', '119', '121', '125', '126', '127', '129', '131', '138', '139', '140', '146', '147', '148', '149', '154', '157', '161', '165', '168', '172', '177', '182', '185', '188', '190', '192', '193', '196', '199', '201', '204', '208', '210', '215', '217', '218', '220', '221', '222', '226', '232', '233', '240', '241', '246', '248', '251', '253', '254', '259', '260', '265', '266', '269', '274', '277', '288', '290', '292', '295', '298', '299', '302', '303', '309', '314', '315', '316', '317', '327', '328', '330', '334', '337', '340', '346', '348', '353', '355', '360', '366', '370', '371', '376', '377', '378', '381', '383', '385', '387', '390', '393', '394', '399', '402', '407', '408', '409', '410', '412', '414', '415', '416', '418', '419', '422', '426', '428', '431', '432', '435', '436', '439', '444', '450', '455', '456', '459', '460', '464', '469', '472', '475', '477', '478', '480', '486', '490', '499', '500', '504', '519', '521', '523', '524', '525', '526', '527', '528', '530', '531', '535', '540', '541', '544', '547', '549', '553', '555', '559', '560', '564', '565', '566', '567', '568', '572', '573', '574', '575', '576', '580', '581', '583', '589', '590', '592', '593', '594', '597', '601', '602', '613', '614', '617', '619', '620', '621', '629', '635', '639', '640', '641', '644', '646', '649', '652', '654', '657', '661', '665', '666', '668', '674', '679', '681', '682', '685', '693', '694', '695', '699', '700', '705', '707', '708', '710', '711', '712', '713', '716', '718', '722', '724', '727', '740', '743', '744', '745', '749', '753', '760', '764', '767', '769', '770', '771', '777', '778', '782', '784', '785', '787', '788', '797', '803', '811', '813', '818', '824', '827', '828', '832', '837', '838', '840', '845', '846', '850', '852', '853', '856', '861', '862', '863', '868', '869', '870', '871', '873', '876', '879', '882', '883', '885', '887', '891', '898', '899', '900', '904', '906', '907', '909', '911', '918', '920', '922', '924', '929', '931', '933', '935', '939', '945', '948', '949', '950', '951', '953', '955', '956', '957', '961', '962', '968', '970', '974', '975', '977', '983', '984', '986', '987', '989', '990', '994', '1003', '1007', '1009', '1010', '1011', '1013', '1016', '1019', '1022', '1024', '1025', '1026', '1028', '1029', '1030', '1031', '1037', '1040', '1042', '1043', '1046', '1048', '1049', '1052', '1054', '1057', '1062', '1063', '1072', '1073', '1076', '1082', '1084', '1089', '1094', '1099', '1101', '1102', '1104', '1109', '1114', '1116', '1118', '1119', '1123', '1124', '1129', '1136', '1137', '1142', '1144', '1146', '1147', '1150', '1152', '1158', '1160', '1165', '1166', '1167', '1172', '1176', '1181', '1187', '1191', '1195', '1196', '1208', '1210', '1214', '1216', '1219', '1226', '1239', '1240', '1243', '1246', '1253', '1254', '1261', '1262', '1263', '1264', '1268', '1269', '1272', '1278', '1279', '1281', '1282', '1283', '1285', '1290', '1296', '1298', '1305', '1307', '1313', '1315', '1318', '1329', '1330', '1332', '1337', '1344', '1347', '1350', '1355', '1358', '1365', '1367', '1371', '1372', '1377', '1379', '1380', '1382', '1383', '1384', '1385', '1393', '1395', '1396', '1397', '1399', '1402', '1404', '1405', '1410', '1413', '1417', '1424', '1426', '1429', '1432', '1435', '1437', '1438', '1447', '1450', '1455', '1459', '1465', '1469', '1472', '1473', '1474', '1475', '1476', '1477', '1479', '1480', '1482', '1483', '1485', '1486', '1489', '1492', '1493', '1494', '1496', '1500', '1502', '1506', '1514', '1522', '1524', '1525', '1527', '1528', '1529', '1530', '1532', '1536', '1539', '1546', '1549', '1553', '1554', '1557', '1564', '1567', '1569', '1570', '1576', '1580', '1581', '1582', '1585', '1587', '1598', '1600', '1602', '1603', '1604', '1605', '1606', '1607', '1608', '1609', '1610', '1612', '1614', '1617', '1618', '1619', '1631', '1637', '1638', '1640', '1642', '1644', '1645', '1646', '1650', '1651', '1652', '1656', '1657', '1659', '1661', '1666', '1667', '1668', '1674', '1675', '1683', '1687', '1689', '1691', '1699', '1702', '1708', '1713', '1715', '1717', '1718', '1720', '1722', '1724', '1733', '1736', '1744', '1748', '1749', '1750', '1751', '1752', '1756', '1761', '1764', '1765', '1773', '1777', '1778', '1780', '1784', '1787', '1788', '1792', '1798', '1803', '1805', '1806', '1808', '1811', '1812', '1814', '1817', '1822', '1823', '1826', '1827', '1832', '1834', '1835', '1838', '1848', '1849', '1850', '1854', '1855', '1858', '1860', '1862', '1863', '1866', '1867', '1871', '1872', '1873', '1874', '1875', '1882', '1884', '1885', '1886', '1888', '1889', '1890', '1891', '1892', '1898', '1901', '1903', '1904', '1905', '1907', '1910', '1911', '1912', '1914', '1915', '1921', '1923', '1926', '1927', '1928', '1931', '1936', '1937', '1939', '1941', '1945', '1947', '1951', '1953', '1955', '1957', '1959', '1961', '1962', '1966', '1973', '1975', '1977', '1982', '1983', '1984', '1987', '1989', '1991', '1994', '1995', '2002', '2003', '2007', '2008', '2009', '2016', '2019', '2030', '2031', '2039', '2040', '2041', '2042', '2044', '2046', '2049', '2052', '2057', '2059', '2060', '2066', '2068', '2071', '2076', '2078', '2079', '2082', '2083', '2086', '2087', '2090', '2091', '2093', '2095', '2096', '2097', '2098', '2104', '2105', '2107', '2109', '2112', '2116', '2120', '2121', '2123', '2124', '2127', '2130', '2133', '2136', '2138', '2140', '2141', '2142', '2143', '2145', '2147', '2149', '2150', '2151', '2152', '2153', '2154', '2156', '2161', '2162', '2165', '2173', '2179', '2182', '2183', '2184', '2185', '2190', '2191', '2193', '2194', '2203', '2204', '2206', '2207', '2211', '2213', '2214', '2216', '2217', '2221', '2223', '2227', '2229', '2230', '2231', '2234', '2238', '2241', '2243', '2244', '2247', '2254', '2256', '2259', '2260', '2278', '2279', '2282', '2284', '2285', '2286', '2289', '2294', '2296', '2299', '2300', '2303', '2304', '2312', '2314', '2319', '2326', '2331', '2332', '2334', '2337', '2342', '2343', '2349', '2353', '2359', '2363', '2375', '2377', '2380', '2381', '2382', '2384', '2396', '2400', '2402', '2409', '2410', '2412', '2415', '2422', '2423', '2424', '2427', '2430', '2431', '2432', '2436', '2438', '2443', '2444', '2446', '2448', '2450', '2455', '2459', '2466', '2470', '2479', '2482', '2483', '2484', '2486', '2495', '2497', '2501', '2502', '2505', '2507', '2509', '2510', '2513', '2514', '2520', '2521', '2522', '2523', '2524', '2525', '2526', '2533', '2535', '2538', '2545', '2546', '2547', '2550', '2551', '2553', '2556', '2557', '2561', '2562', '2566', '2569', '2572', '2576', '2579', '2582', '2590', '2591', '2593', '2594', '2595', '2601', '2602', '2605', '2607', '2610', '2611', '2613', '2616', '2620', '2626', '2628', '2629', '2633', '2639', '2643', '2648', '2650', '2653', '2654', '2655', '2656', '2658', '2659', '2660', '2663', '2669', '2670', '2675', '2676', '2677', '2679', '2683', '2697', '2698', '2699', '2700', '2701', '2704', '2706', '2707', '2711', '2713', '2717', '2718', '2722', '2723', '2727', '2732', '2734', '2736', '2739', '2741', '2743', '2744', '2745', '2746', '2747', '2748', '2755', '2756', '2758', '2763', '2764', '2765', '2767', '2768', '2771', '2779', '2780', '2782', '2785', '2787', '2790', '2791', '2793', '2795', '2796', '2803', '2804', '2805', '2808', '2812', '2813', '2816', '2823', '2825', '2827', '2828', '2833', '2836', '2838', '2840', '2843', '2850', '2852', '2864', '2866', '2872', '2877', '2878', '2879', '2880', '2881', '2883', '2886', '2887', '2889', '2890', '2891', '2893', '2897', '2898', '2901', '2902', '2907', '2911', '2913', '2914', '2915', '2916', '2917', '2920', '2922', '2924', '2925', '2927', '2930', '2931', '2933', '2935', '2937', '2940', '2943', '2945', '2947', '2948', '2950', '2952', '2954', '2957', '2958', '2962', '2964', '2965', '2967', '2973', '2974', '2982', '2983', '2986', '2988', '2994', '2996', '2999', '3000']",False,86400,True,2,1f814383d5,0.0,1.0,1.0
./expes/v2_2021-04-05_issda-30_3000-prng-1-w86-p2_3d,30_issda-3000,3000,first-3000,600,20,rng,num-start-3000,3000,25726,classic,6556.500482559204,False,,False,0.9870879033171636,0.9741758066343271,1.0,2,"['8', '15', '20', '21', '29', '30', '31', '47', '54', '63', '74', '82', '83', '88', '91', '95', '97', '105', '111', '114', '116', '118', '121', '128', '129', '133', '136', '139', '144', '146', '147', '148', '149', '151', '174', '176', '178', '182', '185', '188', '190', '203', '205', '209', '218', '219', '225', '244', '247', '249', '251', '252', '260', '263', '269', '273', '279', '281', '284', '294', '297', '313', '316', '317', '320', '328', '342', '351', '352', '353', '363', '364', '373', '377', '380', '393', '397', '398', '400', '407', '410', '418', '421', '423', '427', '430', '438', '439', '443', '445', '461', '465', '466', '472', '484', '488', '489', '492', '495', '496', '497', '498', '501', '505', '507', '510', '511', '514', '520', '523', '527', '532', '534', '535', '539', '546', '550', '557', '559', '564', '567', '588', '589', '601', '612', '617', '618', '622', '639', '640', '644', '653', '658', '666', '669', '694', '696', '702', '704', '706', '727', '732', '734', '737', '740', '746', '751', '752', '759', '763', '767', '768', '777', '782', '783', '786', '809', '813', '816', '818', '822', '843', '861', '865', '889', '891', '892', '894', '896', '905', '910', '912', '920', '922', '932', '941', '950', '952', '960', '962', '964', '967', '974', '975', '977', '978', '979', '980', '981', '992', '1002', '1004', '1017', '1024', '1028', '1029', '1035', '1036', '1042', '1045', '1057', '1058', '1060', '1063', '1074', '1079', '1082', '1083', '1086', '1088', '1094', '1095', '1096', '1099', '1101', '1104', '1107', '1109', '1111', '1112', '1122', '1126', '1142', '1143', '1144', '1146', '1166', '1168', '1176', '1184', '1190', '1195', '1196', '1204', '1206', '1211', '1212', '1224', '1227', '1229', '1231', '1234', '1242', '1246', '1259', '1269', '1270', '1281', '1284', '1286', '1289', '1290', '1291', '1294', '1305', '1306', '1311', '1319', '1320', '1324', '1329', '1334', '1337', '1343', '1347', '1356', '1358', '1362', '1368', '1372', '1379', '1380', '1387', '1389', '1392', '1394', '1398', '1399', '1410', '1415', '1419', '1435', '1438', '1439', '1442', '1443', '1445', '1446', '1461', '1476', '1477', '1478', '1491', '1498', '1506', '1510', '1513', '1516', '1526', '1529', '1533', '1538', '1540', '1542', '1543', '1544', '1545', '1548', '1556', '1558', '1568', '1581', '1582', '1588', '1593', '1596', '1598', '1602', '1613', '1618', '1625', '1627', '1640', '1643', '1670', '1671', '1678', '1682', '1691', '1693', '1695', '1701', '1708', '1714', '1720', '1723', '1726', '1733', '1734', '1741', '1745', '1749', '1750', '1756', '1761', '1767', '1768', '1772', '1780', '1783', '1787', '1792', '1796', '1815', '1822', '1845', '1848', '1853', '1861', '1870', '1871', '1886', '1888', '1902', '1904', '1910', '1915', '1918', '1922', '1927', '1937', '1940', '1942', '1952', '1955', '1956', '1964', '1965', '1971', '1972', '1974', '1975', '1977', '1978', '1981', '1982', '1991', '1997', '2006', '2007', '2008', '2023', '2028', '2033', '2040', '2049', '2050', '2057', '2062', '2071', '2077', '2078', '2084', '2090', '2095', '2099', '2112', '2119', '2124', '2126', '2129', '2131', '2135', '2143', '2151', '2154', '2160', '2161', '2162', '2167', '2170', '2172', '2179', '2188', '2190', '2194', '2195', '2197', '2200', '2204', '2216', '2218', '2220', '2228', '2230', '2247', '2252', '2254', '2257', '2267', '2272', '2276', '2280', '2282', '2290', '2291', '2309', '2310', '2311', '2312', '2319', '2320', '2322', '2328', '2329', '2332', '2335', '2339', '2343', '2350', '2352', '2355', '2364', '2372', '2375', '2376', '2377', '2378', '2380', '2394', '2395', '2397', '2399', '2402', '2403', '2408', '2412', '2414', '2415', '2417', '2422', '2428', '2437', '2439', '2440', '2454', '2456', '2457', '2461', '2464', '2474', '2476', '2479', '2481', '2482', '2494', '2501', '2508', '2518', '2523', '2524', '2532', '2537', '2541', '2548', '2551', '2552', '2563', '2567', '2570', '2571', '2573', '2575', '2590', '2593', '2595', '2598', '2599', '2601', '2608', '2617', '2618', '2630', '2634', '2638', '2640', '2645', '2646', '2650', '2656', '2661', '2664', '2673', '2678', '2680', '2685', '2701', '2713', '2716', '2726', '2732', '2735', '2745', '2750', '2751', '2753', '2756', '2759', '2761', '2765', '2766', '2767', '2769', '2778', '2779', '2780', '2783', '2790', '2794', '2801', '2809', '2826', '2829', '2830', '2831', '2842', '2844', '2848', '2850', '2853', '2858', '2860', '2862', '2868', '2871', '2874', '2879', '2887', '2890', '2896', '2920', '2924', '2926', '2930', '2932', '2933', '2936', '2938', '2940', '2942', '2943', '2945', '2951', '2953', '2962', '2982', '2983', '2986', '2991', '2997']",False,86400,True,2,4ade2953de,0.0,1.0,1.0
