expe,clients,clients_size,clients_subset,agg_size,agg_size_pc,method,days,days_size,days_total,noise_method,time,valid,valid_sum,success,score_avg,score_min,score_max,nsols,oracle,wall_hit,wall_time,pooled,pool_size,uuid,infeasible,optimal,valid_sums
./expes/v2_2021-04-05_issda-30_3000-prng-1-w86-p2_3d,30_issda-3000,3000,first-3000,300,10,rng,num-start-300,300,25726,classic,86438.73491239548,False,,False,0,,,0,"['7', '9', '24', '35', '38', '51', '60', '69', '71', '74', '75', '86', '89', '92', '97', '105', '115', '117', '119', '122', '126', '133', '142', '145', '154', '156', '179', '195', '230', '241', '259', '285', '289', '290', '314', '341', '355', '376', '385', '395', '406', '410', '419', '428', '443', '446', '449', '468', '483', '496', '515', '530', '535', '551', '554', '600', '643', '649', '654', '657', '671', '686', '689', '691', '698', '703', '709', '726', '741', '757', '762', '771', '778', '796', '818', '819', '821', '823', '842', '843', '857', '860', '869', '873', '888', '892', '897', '904', '909', '915', '924', '930', '938', '941', '946', '951', '955', '995', '1023', '1034', '1039', '1045', '1046', '1059', '1091', '1092', '1101', '1103', '1118', '1152', '1153', '1164', '1187', '1190', '1207', '1213', '1215', '1221', '1224', '1243', '1255', '1264', '1272', '1278', '1301', '1316', '1319', '1333', '1343', '1357', '1363', '1389', '1407', '1409', '1411', '1416', '1418', '1422', '1448', '1462', '1494', '1504', '1518', '1535', '1549', '1554', '1555', '1562', '1572', '1584', '1597', '1598', '1611', '1612', '1613', '1618', '1628', '1648', '1656', '1657', '1694', '1698', '1705', '1725', '1729', '1746', '1747', '1748', '1759', '1769', '1773', '1774', '1794', '1798', '1825', '1826', '1842', '1847', '1856', '1863', '1877', '1881', '1883', '1888', '1923', '1935', '1941', '1968', '1971', '1985', '1987', '1999', '2006', '2017', '2030', '2031', '2034', '2046', '2048', '2052', '2058', '2065', '2068', '2070', '2074', '2080', '2083', '2085', '2090', '2100', '2105', '2116', '2125', '2134', '2146', '2161', '2162', '2189', '2206', '2211', '2213', '2218', '2232', '2244', '2245', '2246', '2248', '2256', '2258', '2265', '2271', '2280', '2297', '2300', '2308', '2314', '2332', '2335', '2336', '2349', '2359', '2367', '2369', '2394', '2407', '2413', '2420', '2422', '2423', '2430', '2458', '2481', '2489', '2495', '2508', '2509', '2519', '2552', '2554', '2560', '2578', '2584', '2585', '2603', '2631', '2651', '2656', '2657', '2661', '2669', '2690', '2701', '2703', '2719', '2723', '2728', '2746', '2758', '2762', '2763', '2765', '2773', '2778', '2812', '2815', '2847', '2851', '2878', '2880', '2882', '2884', '2887', '2914', '2915', '2945', '2956', '2965', '2974', '2988', '2991']",True,86400,True,2,8a8ab87a6a,0.0,0.0,0.0
./expes/v2_2021-04-05_issda-30_3000-prng-1-w86-p2_3d,30_issda-3000,3000,first-3000,900,30,rng,num-start-3000,3000,25726,classic,8124.276641845703,True,,True,1.0,1.0,1.0,1,"['4', '7', '11', '14', '15', '20', '22', '23', '24', '30', '33', '36', '39', '44', '54', '63', '74', '75', '76', '78', '81', '82', '83', '87', '94', '95', '106', '107', '109', '111', '112', '115', '122', '124', '130', '131', '132', '133', '135', '140', '141', '143', '146', '149', '151', '152', '153', '156', '157', '160', '166', '168', '170', '175', '176', '177', '178', '183', '184', '185', '190', '191', '193', '203', '211', '217', '219', '223', '227', '235', '236', '242', '244', '248', '251', '253', '254', '255', '256', '262', '265', '266', '272', '273', '275', '278', '283', '289', '293', '296', '303', '305', '307', '311', '315', '316', '317', '319', '322', '324', '327', '328', '330', '331', '333', '334', '336', '339', '342', '349', '352', '355', '356', '364', '366', '370', '375', '378', '379', '381', '382', '383', '384', '390', '391', '393', '397', '398', '399', '404', '414', '423', '425', '427', '435', '439', '454', '459', '463', '466', '467', '468', '469', '471', '475', '479', '483', '485', '490', '496', '499', '501', '523', '533', '543', '544', '545', '546', '549', '555', '559', '565', '567', '569', '571', '572', '573', '576', '577', '581', '587', '590', '594', '595', '610', '612', '613', '618', '624', '625', '626', '627', '632', '635', '639', '640', '642', '643', '644', '646', '650', '651', '652', '658', '661', '664', '666', '667', '669', '670', '671', '676', '678', '680', '682', '686', '689', '691', '692', '695', '697', '698', '699', '704', '705', '706', '707', '708', '709', '716', '717', '721', '723', '726', '728', '729', '732', '735', '736', '739', '742', '743', '748', '750', '753', '754', '758', '759', '769', '770', '781', '783', '784', '785', '793', '795', '796', '797', '800', '802', '803', '804', '807', '809', '814', '815', '818', '820', '821', '823', '827', '828', '831', '835', '842', '845', '849', '851', '852', '853', '857', '861', '864', '866', '867', '869', '871', '874', '879', '880', '881', '882', '884', '886', '896', '898', '899', '906', '910', '911', '913', '920', '927', '938', '939', '944', '948', '949', '951', '955', '956', '957', '958', '967', '973', '976', '977', '988', '991', '993', '1001', '1006', '1014', '1015', '1019', '1020', '1021', '1024', '1025', '1030', '1031', '1038', '1039', '1042', '1048', '1049', '1053', '1055', '1057', '1060', '1064', '1067', '1072', '1073', '1075', '1077', '1078', '1080', '1099', '1103', '1104', '1109', '1114', '1116', '1124', '1131', '1132', '1134', '1135', '1137', '1142', '1146', '1147', '1148', '1149', '1151', '1158', '1159', '1162', '1163', '1169', '1170', '1171', '1177', '1180', '1181', '1184', '1186', '1187', '1190', '1192', '1194', '1196', '1197', '1200', '1202', '1210', '1211', '1214', '1215', '1216', '1217', '1222', '1224', '1226', '1230', '1232', '1239', '1241', '1243', '1246', '1247', '1250', '1252', '1255', '1260', '1264', '1269', '1270', '1271', '1275', '1277', '1278', '1279', '1282', '1283', '1284', '1288', '1289', '1291', '1292', '1295', '1296', '1297', '1314', '1316', '1317', '1318', '1319', '1321', '1323', '1326', '1329', '1332', '1338', '1339', '1340', '1345', '1346', '1351', '1354', '1355', '1357', '1358', '1363', '1373', '1378', '1379', '1383', '1387', '1390', '1391', '1393', '1395', '1405', '1410', '1413', '1416', '1419', '1420', '1421', '1423', '1427', '1436', '1437', '1447', '1458', '1462', '1463', '1468', '1471', '1472', '1474', '1476', '1484', '1485', '1486', '1489', '1490', '1493', '1496', '1499', '1506', '1510', '1523', '1524', '1526', '1528', '1539', '1540', '1555', '1561', '1562', '1564', '1568', '1572', '1583', '1585', '1588', '1589', '1592', '1600', '1603', '1605', '1607', '1610', '1612', '1618', '1622', '1623', '1630', '1639', '1640', '1641', '1642', '1645', '1649', '1650', '1651', '1654', '1656', '1663', '1664', '1668', '1677', '1678', '1682', '1685', '1686', '1688', '1689', '1691', '1694', '1696', '1700', '1704', '1708', '1709', '1714', '1721', '1726', '1731', '1733', '1736', '1737', '1739', '1741', '1753', '1762', '1766', '1776', '1778', '1783', '1786', '1787', '1790', '1791', '1792', '1796', '1798', '1800', '1801', '1806', '1807', '1808', '1809', '1811', '1817', '1820', '1829', '1833', '1849', '1851', '1853', '1854', '1859', '1863', '1867', '1872', '1877', '1879', '1881', '1896', '1900', '1903', '1913', '1930', '1931', '1932', '1935', '1936', '1940', '1946', '1948', '1951', '1953', '1954', '1956', '1957', '1959', '1961', '1962', '1963', '1973', '1977', '1981', '1983', '1984', '1993', '1994', '2003', '2007', '2010', '2015', '2023', '2025', '2029', '2032', '2034', '2038', '2041', '2043', '2045', '2059', '2073', '2074', '2076', '2079', '2080', '2083', '2085', '2087', '2092', '2094', '2095', '2100', '2104', '2109', '2119', '2121', '2126', '2127', '2130', '2132', '2133', '2135', '2143', '2144', '2147', '2148', '2150', '2151', '2154', '2156', '2157', '2159', '2163', '2168', '2169', '2170', '2173', '2181', '2185', '2190', '2194', '2198', '2199', '2201', '2203', '2206', '2207', '2213', '2215', '2216', '2217', '2220', '2226', '2228', '2229', '2230', '2233', '2234', '2235', '2238', '2242', '2244', '2250', '2251', '2256', '2258', '2263', '2268', '2277', '2286', '2287', '2288', '2294', '2298', '2299', '2304', '2316', '2324', '2328', '2332', '2334', '2336', '2338', '2341', '2345', '2348', '2350', '2351', '2360', '2372', '2376', '2377', '2379', '2384', '2385', '2387', '2393', '2398', '2405', '2406', '2409', '2412', '2421', '2429', '2432', '2436', '2440', '2445', '2446', '2448', '2449', '2451', '2453', '2454', '2455', '2458', '2459', '2462', '2464', '2465', '2472', '2473', '2474', '2477', '2478', '2479', '2481', '2482', '2485', '2486', '2491', '2492', '2495', '2496', '2497', '2498', '2499', '2511', '2519', '2520', '2521', '2529', '2530', '2531', '2537', '2538', '2540', '2541', '2542', '2543', '2544', '2547', '2549', '2553', '2554', '2559', '2560', '2561', '2566', '2567', '2568', '2569', '2571', '2572', '2575', '2582', '2583', '2587', '2589', '2590', '2591', '2592', '2599', '2602', '2609', '2611', '2622', '2624', '2625', '2627', '2628', '2631', '2632', '2633', '2636', '2637', '2641', '2644', '2645', '2650', '2652', '2655', '2669', '2670', '2671', '2675', '2679', '2680', '2682', '2684', '2691', '2697', '2701', '2705', '2706', '2708', '2711', '2712', '2719', '2724', '2733', '2736', '2737', '2738', '2740', '2746', '2751', '2752', '2758', '2760', '2765', '2766', '2767', '2768', '2769', '2770', '2772', '2773', '2774', '2775', '2776', '2786', '2789', '2795', '2800', '2801', '2803', '2810', '2818', '2826', '2827', '2830', '2831', '2836', '2840', '2842', '2849', '2854', '2856', '2857', '2858', '2859', '2862', '2871', '2872', '2876', '2882', '2885', '2886', '2888', '2891', '2894', '2895', '2901', '2905', '2911', '2913', '2914', '2921', '2923', '2930', '2932', '2934', '2939', '2943', '2944', '2946', '2947', '2955', '2965', '2969', '2973', '2990', '2996', '2998', '3000']",False,86400,True,2,970901ab8c,0.0,1.0,1.0
./expes/v2_2021-04-05_issda-30_3000-prng-1-w86-p2_3d,30_issda-3000,3000,first-3000,450,15,rng,num-start-1800,1800,25726,classic,8825.52585697174,False,,False,0.9870879033171636,0.9741758066343271,1.0,2,"['7', '9', '24', '35', '38', '41', '44', '51', '60', '69', '71', '74', '75', '84', '86', '89', '92', '97', '105', '112', '115', '117', '119', '122', '126', '133', '142', '145', '154', '156', '161', '163', '164', '166', '169', '179', '188', '195', '230', '241', '258', '259', '263', '268', '285', '289', '290', '291', '297', '300', '308', '314', '316', '334', '335', '341', '347', '355', '367', '371', '376', '378', '385', '395', '406', '410', '411', '414', '419', '422', '428', '442', '443', '446', '449', '457', '467', '468', '469', '470', '472', '474', '483', '496', '513', '515', '530', '535', '545', '551', '554', '555', '580', '600', '604', '613', '632', '643', '649', '652', '654', '657', '664', '671', '683', '686', '689', '691', '696', '698', '703', '709', '710', '726', '736', '741', '751', '757', '762', '766', '770', '771', '778', '796', '816', '818', '819', '821', '823', '842', '843', '851', '852', '857', '860', '869', '873', '882', '888', '892', '897', '902', '904', '909', '915', '917', '924', '930', '932', '938', '941', '946', '951', '955', '962', '964', '982', '989', '995', '999', '1004', '1007', '1010', '1023', '1025', '1034', '1038', '1039', '1045', '1046', '1059', '1062', '1091', '1092', '1093', '1098', '1101', '1103', '1118', '1136', '1151', '1152', '1153', '1164', '1187', '1190', '1192', '1193', '1205', '1207', '1211', '1212', '1213', '1215', '1221', '1224', '1241', '1243', '1255', '1257', '1259', '1264', '1272', '1278', '1284', '1289', '1298', '1300', '1301', '1312', '1314', '1316', '1319', '1333', '1341', '1343', '1344', '1357', '1361', '1363', '1370', '1388', '1389', '1394', '1397', '1407', '1409', '1411', '1416', '1418', '1422', '1448', '1458', '1462', '1472', '1477', '1494', '1495', '1504', '1508', '1518', '1535', '1549', '1550', '1554', '1555', '1558', '1562', '1572', '1584', '1597', '1598', '1600', '1603', '1611', '1612', '1613', '1618', '1628', '1633', '1646', '1648', '1656', '1657', '1666', '1694', '1698', '1705', '1725', '1729', '1746', '1747', '1748', '1759', '1769', '1773', '1774', '1783', '1794', '1798', '1825', '1826', '1835', '1842', '1843', '1847', '1856', '1863', '1868', '1876', '1877', '1881', '1883', '1888', '1921', '1923', '1935', '1941', '1954', '1968', '1971', '1985', '1987', '1999', '2003', '2006', '2017', '2021', '2030', '2031', '2034', '2046', '2048', '2052', '2054', '2058', '2065', '2068', '2070', '2073', '2074', '2080', '2083', '2085', '2086', '2090', '2100', '2105', '2116', '2125', '2134', '2146', '2161', '2162', '2182', '2189', '2205', '2206', '2211', '2213', '2218', '2219', '2224', '2230', '2232', '2244', '2245', '2246', '2248', '2254', '2256', '2258', '2265', '2271', '2280', '2297', '2300', '2308', '2312', '2314', '2319', '2332', '2335', '2336', '2338', '2349', '2353', '2359', '2367', '2369', '2372', '2376', '2394', '2404', '2407', '2413', '2420', '2422', '2423', '2430', '2442', '2444', '2458', '2459', '2464', '2474', '2481', '2489', '2495', '2505', '2508', '2509', '2514', '2519', '2520', '2531', '2552', '2554', '2560', '2578', '2584', '2585', '2603', '2631', '2636', '2651', '2656', '2657', '2661', '2669', '2671', '2690', '2701', '2703', '2711', '2719', '2723', '2725', '2728', '2746', '2747', '2758', '2762', '2763', '2765', '2773', '2778', '2789', '2812', '2815', '2819', '2847', '2851', '2878', '2880', '2882', '2884', '2887', '2914', '2915', '2930', '2945', '2956', '2965', '2972', '2974', '2976', '2987', '2988', '2991']",False,86400,True,2,df829f6c60,0.0,1.0,1.0
