expe,clients,clients_size,clients_subset,agg_size,method,days,days_size,days_total,time,valid,valid_sum,success,nsols,wall_hit,wall_time,pooled,valid_sums
./expes/v2_2020-11-27_di_500-prng-2,daily_issda_500,500,rng-500,451,rng,num-start-251,251,536,14.803488731384277,True,,True,1,False,1000,True,1.0
./expes/v2_2020-11-27_di_500-prng-2,daily_issda_500,500,rng-500,211,rng,num-start-91,91,536,1003.3657281398773,False,,False,0,True,1000,True,0.0
./expes/v2_2020-11-27_di_500-prng-2,daily_issda_500,500,rng-500,261,rng,num-start-171,171,536,1006.478865146637,False,,False,0,True,1000,True,0.0
./expes/v2_2020-11-27_di_500-prng-2,daily_issda_500,500,rng-500,351,rng,num-start-61,61,536,1002.5709512233734,False,,False,0,True,1000,True,0.0
./expes/v2_2020-11-27_di_500-prng-2,daily_issda_500,500,rng-500,421,rng,num-start-131,131,536,73.15155673027039,True,,True,1,False,1000,True,1.0
./expes/v2_2020-11-27_di_500-prng-2,daily_issda_500,500,rng-500,131,rng,num-start-161,161,536,87.91220927238464,True,,True,1,False,1000,True,1.0
./expes/v2_2020-11-27_di_500-prng-2,daily_issda_500,500,rng-500,51,rng,num-start-221,221,536,12.514004230499268,True,,True,1,False,1000,True,1.0
./expes/v2_2020-11-27_di_500-prng-2,daily_issda_500,500,rng-500,41,rng,num-start-101,101,536,8.476752519607544,True,,True,1,False,1000,True,1.0
./expes/v2_2020-11-27_di_500-prng-2,daily_issda_500,500,rng-500,81,rng,num-start-191,191,536,15.28118371963501,True,,True,1,False,1000,True,1.0
./expes/v2_2020-11-27_di_500-prng-2,daily_issda_500,500,rng-500,81,rng,num-start-201,201,536,14.698582649230957,True,,True,1,False,1000,True,1.0
./expes/v2_2020-11-27_di_500-prng-2,daily_issda_500,500,rng-500,311,rng,num-start-211,211,536,85.41371417045593,True,,True,1,False,1000,True,1.0
./expes/v2_2020-11-27_di_500-prng-2,daily_issda_500,500,rng-500,261,rng,num-start-151,151,536,1005.6383774280548,False,,False,0,True,1000,True,0.0
./expes/v2_2020-11-27_di_500-prng-2,daily_issda_500,500,rng-500,111,rng,num-start-131,131,536,1004.9635808467865,False,,False,0,True,1000,True,0.0
./expes/v2_2020-11-27_di_500-prng-2,daily_issda_500,500,rng-500,471,rng,num-start-101,101,536,7.584838390350342,True,,True,1,False,1000,True,1.0
./expes/v2_2020-11-27_di_500-prng-2,daily_issda_500,500,rng-500,141,rng,num-start-141,141,536,1005.1922509670258,False,,False,0,True,1000,True,0.0
./expes/v2_2020-11-27_di_500-prng-2,daily_issda_500,500,rng-500,131,rng,num-start-101,101,536,1003.6150550842285,False,,False,0,True,1000,True,0.0
./expes/v2_2020-11-27_di_500-prng-2,daily_issda_500,500,rng-500,351,rng,num-start-241,241,536,18.253528833389282,True,,True,1,False,1000,True,1.0
./expes/v2_2020-11-27_di_500-prng-2,daily_issda_500,500,rng-500,381,rng,num-start-81,81,536,1003.2229964733124,False,,False,0,True,1000,True,0.0
./expes/v2_2020-11-27_di_500-prng-2,daily_issda_500,500,rng-500,1,rng,num-start-231,231,536,8.904783964157104,True,,True,1,False,1000,True,1.0
./expes/v2_2020-11-27_di_500-prng-2,daily_issda_500,500,rng-500,431,rng,num-start-161,161,536,11.24387526512146,True,,True,1,False,1000,True,1.0
./expes/v2_2020-11-27_di_500-prng-2,daily_issda_500,500,rng-500,71,rng,num-start-271,271,536,15.095545053482056,True,,True,1,False,1000,True,1.0
./expes/v2_2020-11-27_di_500-prng-2,daily_issda_500,500,rng-500,491,rng,num-start-221,221,536,10.486628770828247,True,,True,1,False,1000,True,1.0
./expes/v2_2020-11-27_di_500-prng-2,daily_issda_500,500,rng-500,451,rng,num-start-171,171,536,10.864225149154663,True,,True,1,False,1000,True,1.0
./expes/v2_2020-11-27_di_500-prng-2,daily_issda_500,500,rng-500,431,rng,num-start-91,91,536,1003.3662791252136,False,,False,0,True,1000,True,0.0
./expes/v2_2020-11-27_di_500-prng-2,daily_issda_500,500,rng-500,1,rng,num-start-251,251,536,9.325552701950073,True,,True,1,False,1000,True,1.0
./expes/v2_2020-11-27_di_500-prng-2,daily_issda_500,500,rng-500,461,rng,num-start-281,281,536,16.00647783279419,True,,True,1,False,1000,True,1.0
./expes/v2_2020-11-27_di_500-prng-2,daily_issda_500,500,rng-500,371,rng,num-start-181,181,536,47.877652168273926,True,,True,1,False,1000,True,1.0
./expes/v2_2020-11-27_di_500-prng-2,daily_issda_500,500,rng-500,241,rng,num-start-271,271,536,27.101433515548706,True,,True,1,False,1000,True,1.0
./expes/v2_2020-11-27_di_500-prng-2,daily_issda_500,500,rng-500,141,rng,num-start-291,291,536,19.86908721923828,True,,True,1,False,1000,True,1.0
./expes/v2_2020-11-27_di_500-prng-2,daily_issda_500,500,rng-500,141,rng,num-start-81,81,536,1003.2836449146271,False,,False,0,True,1000,True,0.0
./expes/v2_2020-11-27_di_500-prng-2,daily_issda_500,500,rng-500,101,rng,num-start-251,251,536,16.890608310699463,True,,True,1,False,1000,True,1.0
./expes/v2_2020-11-27_di_500-prng-2,daily_issda_500,500,rng-500,431,rng,num-start-151,151,536,16.679057598114014,True,,True,1,False,1000,True,1.0
./expes/v2_2020-11-27_di_500-prng-2,daily_issda_500,500,rng-500,81,rng,num-start-231,231,536,13.465937376022339,True,,True,1,False,1000,True,1.0
./expes/v2_2020-11-27_di_500-prng-2,daily_issda_500,500,rng-500,181,rng,num-start-271,271,536,23.06322479248047,True,,True,1,False,1000,True,1.0
./expes/v2_2020-11-27_di_500-prng-2,daily_issda_500,500,rng-500,251,rng,num-start-141,141,536,1006.7409749031067,False,,False,0,True,1000,True,0.0
./expes/v2_2020-11-27_di_500-prng-2,daily_issda_500,500,rng-500,61,rng,num-start-221,221,536,13.282686948776245,True,,True,1,False,1000,True,1.0
./expes/v2_2020-11-27_di_500-prng-2,daily_issda_500,500,rng-500,191,rng,num-start-121,121,536,1004.4279658794403,False,,False,0,True,1000,True,0.0
./expes/v2_2020-11-27_di_500-prng-2,daily_issda_500,500,rng-500,21,rng,num-start-101,101,536,5.0489890575408936,True,,True,1,False,1000,True,1.0
./expes/v2_2020-11-27_di_500-prng-2,daily_issda_500,500,rng-500,321,rng,num-start-291,291,536,25.886167764663696,True,,True,1,False,1000,True,1.0
./expes/v2_2020-11-27_di_500-prng-2,daily_issda_500,500,rng-500,231,rng,num-start-231,231,536,46.199217319488525,True,,True,1,False,1000,True,1.0
./expes/v2_2020-11-27_di_500-prng-2,daily_issda_500,500,rng-500,191,rng,num-start-31,31,536,1001.2992799282074,False,,False,0,True,1000,True,0.0
./expes/v2_2020-11-27_di_500-prng-2,daily_issda_500,500,rng-500,151,rng,num-start-111,111,536,1004.2394363880157,False,,False,0,True,1000,True,0.0
./expes/v2_2020-11-27_di_500-prng-2,daily_issda_500,500,rng-500,451,rng,num-start-281,281,536,14.867325782775879,True,,True,1,False,1000,True,1.0
./expes/v2_2020-11-27_di_500-prng-2,daily_issda_500,500,rng-500,131,rng,num-start-201,201,536,38.31273627281189,True,,True,1,False,1000,True,1.0
./expes/v2_2020-11-27_di_500-prng-2,daily_issda_500,500,rng-500,71,rng,num-start-141,141,536,17.327669143676758,True,,True,1,False,1000,True,1.0
./expes/v2_2020-11-27_di_500-prng-2,daily_issda_500,500,rng-500,471,rng,num-start-41,41,536,1001.650139093399,False,,False,0,True,1000,True,0.0
./expes/v2_2020-11-27_di_500-prng-2,daily_issda_500,500,rng-500,461,rng,num-start-81,81,536,11.197878122329712,True,,True,1,False,1000,True,1.0
./expes/v2_2020-11-27_di_500-prng-2,daily_issda_500,500,rng-500,451,rng,num-start-141,141,536,8.174337148666382,True,,True,1,False,1000,True,1.0
./expes/v2_2020-11-27_di_500-prng-2,daily_issda_500,500,rng-500,21,rng,num-start-281,281,536,15.644474267959595,True,,True,1,False,1000,True,1.0
./expes/v2_2020-11-27_di_500-prng-2,daily_issda_500,500,rng-500,71,rng,num-start-91,91,536,1003.4033110141754,False,,False,0,True,1000,True,0.0
./expes/v2_2020-11-27_di_500-prng-2,daily_issda_500,500,rng-500,141,rng,num-start-131,131,536,1004.4989383220673,False,,False,0,True,1000,True,0.0
./expes/v2_2020-11-27_di_500-prng-2,daily_issda_500,500,rng-500,441,rng,num-start-271,271,536,20.823120594024658,True,,True,1,False,1000,True,1.0
./expes/v2_2020-11-27_di_500-prng-2,daily_issda_500,500,rng-500,181,rng,num-start-111,111,536,1004.3212652206421,False,,False,0,True,1000,True,0.0
./expes/v2_2020-11-27_di_500-prng-2,daily_issda_500,500,rng-500,151,rng,num-start-61,61,536,1002.331342458725,False,,False,0,True,1000,True,0.0
./expes/v2_2020-11-27_di_500-prng-2,daily_issda_500,500,rng-500,201,rng,num-start-181,181,536,1006.9901320934296,False,,False,0,True,1000,True,0.0
./expes/v2_2020-11-27_di_500-prng-2,daily_issda_500,500,rng-500,471,rng,num-start-191,191,536,10.599570512771606,True,,True,1,False,1000,True,1.0
./expes/v2_2020-11-27_di_500-prng-2,daily_issda_500,500,rng-500,51,rng,num-start-241,241,536,13.230400085449219,True,,True,1,False,1000,True,1.0
./expes/v2_2020-11-27_di_500-prng-2,daily_issda_500,500,rng-500,51,rng,num-start-241,241,536,12.870826959609985,True,,True,1,False,1000,True,1.0
./expes/v2_2020-11-27_di_500-prng-2,daily_issda_500,500,rng-500,301,rng,num-start-21,21,536,1000.9498443603516,False,,False,0,True,1000,True,0.0
./expes/v2_2020-11-27_di_500-prng-2,daily_issda_500,500,rng-500,471,rng,num-start-141,141,536,7.366638422012329,True,,True,1,False,1000,True,1.0
./expes/v2_2020-11-27_di_500-prng-2,daily_issda_500,500,rng-500,101,rng,num-start-161,161,536,30.33573818206787,True,,True,1,False,1000,True,1.0
./expes/v2_2020-11-27_di_500-prng-2,daily_issda_500,500,rng-500,471,rng,num-start-291,291,536,14.509429216384888,True,,True,1,False,1000,True,1.0
./expes/v2_2020-11-27_di_500-prng-2,daily_issda_500,500,rng-500,251,rng,num-start-211,211,536,54.82868695259094,True,,True,1,False,1000,True,1.0
./expes/v2_2020-11-27_di_500-prng-2,daily_issda_500,500,rng-500,311,rng,num-start-181,181,536,392.8201336860657,True,,True,1,False,1000,True,1.0
./expes/v2_2020-11-27_di_500-prng-2,daily_issda_500,500,rng-500,431,rng,num-start-191,191,536,14.584492921829224,True,,True,1,False,1000,True,1.0
./expes/v2_2020-11-27_di_500-prng-2,daily_issda_500,500,rng-500,131,rng,num-start-21,21,536,1000.9218220710754,False,,False,0,True,1000,True,0.0
./expes/v2_2020-11-27_di_500-prng-2,daily_issda_500,500,rng-500,451,rng,num-start-81,81,536,1003.1313188076019,False,,False,0,True,1000,True,0.0
./expes/v2_2020-11-27_di_500-prng-2,daily_issda_500,500,rng-500,171,rng,num-start-111,111,536,1004.0391669273376,False,,False,0,True,1000,True,0.0
./expes/v2_2020-11-27_di_500-prng-2,daily_issda_500,500,rng-500,1,rng,num-start-41,41,536,1.5329315662384033,True,,True,1,False,1000,True,1.0
./expes/v2_2020-11-27_di_500-prng-2,daily_issda_500,500,rng-500,1,rng,num-start-241,241,536,8.01370120048523,True,,True,1,False,1000,True,1.0
./expes/v2_2020-11-27_di_500-prng-2,daily_issda_500,500,rng-500,331,rng,num-start-261,261,536,20.87299084663391,True,,True,1,False,1000,True,1.0
./expes/v2_2020-11-27_di_500-prng-2,daily_issda_500,500,rng-500,281,rng,num-start-71,71,536,1002.5995187759399,False,,False,0,True,1000,True,0.0
./expes/v2_2020-11-27_di_500-prng-2,daily_issda_500,500,rng-500,491,rng,num-start-101,101,536,4.5549821853637695,True,,True,1,False,1000,True,1.0
./expes/v2_2020-11-27_di_500-prng-2,daily_issda_500,500,rng-500,61,rng,num-start-261,261,536,19.68194842338562,True,,True,1,False,1000,True,1.0
./expes/v2_2020-11-27_di_500-prng-2,daily_issda_500,500,rng-500,441,rng,num-start-181,181,536,14.07670521736145,True,,True,1,False,1000,True,1.0
./expes/v2_2020-11-27_di_500-prng-2,daily_issda_500,500,rng-500,91,rng,num-start-291,291,536,18.44065809249878,True,,True,1,False,1000,True,1.0
./expes/v2_2020-11-27_di_500-prng-2,daily_issda_500,500,rng-500,331,rng,num-start-91,91,536,1003.6460108757019,False,,False,0,True,1000,True,0.0
./expes/v2_2020-11-27_di_500-prng-2,daily_issda_500,500,rng-500,231,rng,num-start-241,241,536,18.763325691223145,True,,True,1,False,1000,True,1.0
./expes/v2_2020-11-27_di_500-prng-2,daily_issda_500,500,rng-500,301,rng,num-start-291,291,536,25.162084579467773,True,,True,1,False,1000,True,1.0
./expes/v2_2020-11-27_di_500-prng-2,daily_issda_500,500,rng-500,411,rng,num-start-251,251,536,16.389602661132812,True,,True,1,False,1000,True,1.0
./expes/v2_2020-11-27_di_500-prng-2,daily_issda_500,500,rng-500,181,rng,num-start-161,161,536,1006.172934293747,False,,False,0,True,1000,True,0.0
./expes/v2_2020-11-27_di_500-prng-2,daily_issda_500,500,rng-500,491,rng,num-start-181,181,536,8.23701024055481,True,,True,1,False,1000,True,1.0
./expes/v2_2020-11-27_di_500-prng-2,daily_issda_500,500,rng-500,181,rng,num-start-71,71,536,1002.635012626648,False,,False,0,True,1000,True,0.0
./expes/v2_2020-11-27_di_500-prng-2,daily_issda_500,500,rng-500,1,rng,num-start-251,251,536,9.074666261672974,True,,True,1,False,1000,True,1.0
./expes/v2_2020-11-27_di_500-prng-2,daily_issda_500,500,rng-500,11,rng,num-start-71,71,536,3.751796245574951,True,,True,1,False,1000,True,1.0
./expes/v2_2020-11-27_di_500-prng-2,daily_issda_500,500,rng-500,171,rng,num-start-231,231,536,31.49625587463379,True,,True,1,False,1000,True,1.0
./expes/v2_2020-11-27_di_500-prng-2,daily_issda_500,500,rng-500,161,rng,num-start-141,141,536,1005.2984037399292,False,,False,0,True,1000,True,0.0
./expes/v2_2020-11-27_di_500-prng-2,daily_issda_500,500,rng-500,11,rng,num-start-271,271,536,13.693349599838257,True,,True,1,False,1000,True,1.0
./expes/v2_2020-11-27_di_500-prng-2,daily_issda_500,500,rng-500,161,rng,num-start-261,261,536,23.60984516143799,True,,True,1,False,1000,True,1.0
./expes/v2_2020-11-27_di_500-prng-2,daily_issda_500,500,rng-500,161,rng,num-start-241,241,536,18.72766089439392,True,,True,1,False,1000,True,1.0
./expes/v2_2020-11-27_di_500-prng-2,daily_issda_500,500,rng-500,211,rng,num-start-101,101,536,1003.8067345619202,False,,False,0,True,1000,True,0.0
./expes/v2_2020-11-27_di_500-prng-2,daily_issda_500,500,rng-500,151,rng,num-start-1,1,536,1.7242228984832764,False,,False,2,False,1000,True,1.0
./expes/v2_2020-11-27_di_500-prng-2,daily_issda_500,500,rng-500,91,rng,num-start-121,121,536,1004.2904591560364,False,,False,0,True,1000,True,0.0
./expes/v2_2020-11-27_di_500-prng-2,daily_issda_500,500,rng-500,301,rng,num-start-131,131,536,1005.113062620163,False,,False,0,True,1000,True,0.0
./expes/v2_2020-11-27_di_500-prng-2,daily_issda_500,500,rng-500,231,rng,num-start-91,91,536,1003.4488685131073,False,,False,0,True,1000,True,0.0
./expes/v2_2020-11-27_di_500-prng-2,daily_issda_500,500,rng-500,291,rng,num-start-141,141,536,1005.777224779129,False,,False,0,True,1000,True,0.0
./expes/v2_2020-11-27_di_500-prng-2,daily_issda_500,500,rng-500,411,rng,num-start-131,131,536,1005.1694447994232,False,,False,0,True,1000,True,0.0
./expes/v2_2020-11-27_di_500-prng-2,daily_issda_500,500,rng-500,361,rng,num-start-31,31,536,1001.3296699523926,False,,False,0,True,1000,True,0.0
./expes/v2_2020-11-27_di_500-prng-2,daily_issda_500,500,rng-500,201,rng,num-start-141,141,536,1005.6051554679871,False,,False,0,True,1000,True,0.0
./expes/v2_2020-11-27_di_500-prng-2,daily_issda_500,500,rng-500,401,rng,num-start-51,51,536,1001.9993271827698,False,,False,0,True,1000,True,0.0
./expes/v2_2020-11-27_di_500-prng-2,daily_issda_500,500,rng-500,301,rng,num-start-261,261,536,22.171539545059204,True,,True,1,False,1000,True,1.0
./expes/v2_2020-11-27_di_500-prng-2,daily_issda_500,500,rng-500,301,rng,num-start-141,141,536,1005.2132318019867,False,,False,0,True,1000,True,0.0
./expes/v2_2020-11-27_di_500-prng-2,daily_issda_500,500,rng-500,41,rng,num-start-251,251,536,16.668980598449707,True,,True,1,False,1000,True,1.0
./expes/v2_2020-11-27_di_500-prng-2,daily_issda_500,500,rng-500,111,rng,num-start-71,71,536,1002.8305580615997,False,,False,0,True,1000,True,0.0
./expes/v2_2020-11-27_di_500-prng-2,daily_issda_500,500,rng-500,251,rng,num-start-241,241,536,45.53461146354675,True,,True,1,False,1000,True,1.0
./expes/v2_2020-11-27_di_500-prng-2,daily_issda_500,500,rng-500,481,rng,num-start-181,181,536,9.588049173355103,True,,True,1,False,1000,True,1.0
./expes/v2_2020-11-27_di_500-prng-2,daily_issda_500,500,rng-500,151,rng,num-start-11,11,536,1000.6093299388885,False,,False,0,True,1000,True,0.0
./expes/v2_2020-11-27_di_500-prng-2,daily_issda_500,500,rng-500,1,rng,num-start-141,141,536,5.287938356399536,True,,True,1,False,1000,True,1.0
./expes/v2_2020-11-27_di_500-prng-2,daily_issda_500,500,rng-500,301,rng,num-start-181,181,536,1006.7068064212799,False,,False,0,True,1000,True,0.0
./expes/v2_2020-11-27_di_500-prng-2,daily_issda_500,500,rng-500,301,rng,num-start-1,1,536,5.431299209594727,False,,False,2,False,1000,True,1.0
./expes/v2_2020-11-27_di_500-prng-2,daily_issda_500,500,rng-500,351,rng,num-start-191,191,536,39.101722240448,True,,True,1,False,1000,True,1.0
./expes/v2_2020-11-27_di_500-prng-2,daily_issda_500,500,rng-500,151,rng,num-start-81,81,536,1002.9596540927887,False,,False,0,True,1000,True,0.0
./expes/v2_2020-11-27_di_500-prng-2,daily_issda_500,500,rng-500,141,rng,num-start-1,1,536,6.002293586730957,False,,False,2,False,1000,True,1.0
./expes/v2_2020-11-27_di_500-prng-2,daily_issda_500,500,rng-500,201,rng,num-start-201,201,536,48.61636710166931,True,,True,1,False,1000,True,1.0
./expes/v2_2020-11-27_di_500-prng-2,daily_issda_500,500,rng-500,31,rng,num-start-81,81,536,13.268845558166504,True,,True,1,False,1000,True,1.0
./expes/v2_2020-11-27_di_500-prng-2,daily_issda_500,500,rng-500,221,rng,num-start-31,31,536,1001.2498638629913,False,,False,0,True,1000,True,0.0
./expes/v2_2020-11-27_di_500-prng-2,daily_issda_500,500,rng-500,241,rng,num-start-161,161,536,1006.1964354515076,False,,False,0,True,1000,True,0.0
./expes/v2_2020-11-27_di_500-prng-2,daily_issda_500,500,rng-500,121,rng,num-start-281,281,536,21.760573387145996,True,,True,1,False,1000,True,1.0
./expes/v2_2020-11-27_di_500-prng-2,daily_issda_500,500,rng-500,1,rng,num-start-211,211,536,7.71218466758728,True,,True,1,False,1000,True,1.0
./expes/v2_2020-11-27_di_500-prng-2,daily_issda_500,500,rng-500,431,rng,num-start-241,241,536,17.466411590576172,True,,True,1,False,1000,True,1.0
./expes/v2_2020-11-27_di_500-prng-2,daily_issda_500,500,rng-500,281,rng,num-start-141,141,536,1005.190770149231,False,,False,0,True,1000,True,0.0
./expes/v2_2020-11-27_di_500-prng-2,daily_issda_500,500,rng-500,361,rng,num-start-21,21,536,1000.9008572101593,False,,False,0,True,1000,True,0.0
./expes/v2_2020-11-27_di_500-prng-2,daily_issda_500,500,rng-500,201,rng,num-start-251,251,536,20.720221042633057,True,,True,1,False,1000,True,1.0
./expes/v2_2020-11-27_di_500-prng-2,daily_issda_500,500,rng-500,21,rng,num-start-71,71,536,4.612066745758057,True,,True,1,False,1000,True,1.0
./expes/v2_2020-11-27_di_500-prng-2,daily_issda_500,500,rng-500,91,rng,num-start-261,261,536,15.915480136871338,True,,True,1,False,1000,True,1.0
./expes/v2_2020-11-27_di_500-prng-2,daily_issda_500,500,rng-500,381,rng,num-start-161,161,536,67.51979422569275,True,,True,1,False,1000,True,1.0
./expes/v2_2020-11-27_di_500-prng-2,daily_issda_500,500,rng-500,251,rng,num-start-101,101,536,1003.8107852935791,False,,False,0,True,1000,True,0.0
./expes/v2_2020-11-27_di_500-prng-2,daily_issda_500,500,rng-500,131,rng,num-start-91,91,536,1003.3559191226959,False,,False,0,True,1000,True,0.0
./expes/v2_2020-11-27_di_500-prng-2,daily_issda_500,500,rng-500,11,rng,num-start-181,181,536,8.282180309295654,True,,True,1,False,1000,True,1.0
./expes/v2_2020-11-27_di_500-prng-2,daily_issda_500,500,rng-500,41,rng,num-start-81,81,536,1002.8984529972076,False,,False,0,True,1000,True,0.0
./expes/v2_2020-11-27_di_500-prng-2,daily_issda_500,500,rng-500,351,rng,num-start-201,201,536,61.280993700027466,True,,True,1,False,1000,True,1.0
./expes/v2_2020-11-27_di_500-prng-2,daily_issda_500,500,rng-500,201,rng,num-start-291,291,536,26.183947801589966,True,,True,1,False,1000,True,1.0
./expes/v2_2020-11-27_di_500-prng-2,daily_issda_500,500,rng-500,41,rng,num-start-181,181,536,10.800976037979126,True,,True,1,False,1000,True,1.0
./expes/v2_2020-11-27_di_500-prng-2,daily_issda_500,500,rng-500,191,rng,num-start-191,191,536,147.77162289619446,True,,True,1,False,1000,True,1.0
./expes/v2_2020-11-27_di_500-prng-2,daily_issda_500,500,rng-500,441,rng,num-start-71,71,536,1003.0392005443573,False,,False,0,True,1000,True,0.0
./expes/v2_2020-11-27_di_500-prng-2,daily_issda_500,500,rng-500,241,rng,num-start-221,221,536,31.799087285995483,True,,True,1,False,1000,True,1.0
./expes/v2_2020-11-27_di_500-prng-2,daily_issda_500,500,rng-500,31,rng,num-start-281,281,536,13.728772163391113,True,,True,1,False,1000,True,1.0
./expes/v2_2020-11-27_di_500-prng-2,daily_issda_500,500,rng-500,341,rng,num-start-271,271,536,17.940290689468384,True,,True,1,False,1000,True,1.0
./expes/v2_2020-11-27_di_500-prng-2,daily_issda_500,500,rng-500,341,rng,num-start-61,61,536,1002.1336526870728,False,,False,0,True,1000,True,0.0
./expes/v2_2020-11-27_di_500-prng-2,daily_issda_500,500,rng-500,141,rng,num-start-151,151,536,1005.4148256778717,False,,False,0,True,1000,True,0.0
./expes/v2_2020-11-27_di_500-prng-2,daily_issda_500,500,rng-500,491,rng,num-start-181,181,536,8.54492712020874,True,,True,1,False,1000,True,1.0
./expes/v2_2020-11-27_di_500-prng-2,daily_issda_500,500,rng-500,181,rng,num-start-161,161,536,1005.6203353404999,False,,False,0,True,1000,True,0.0
./expes/v2_2020-11-27_di_500-prng-2,daily_issda_500,500,rng-500,391,rng,num-start-241,241,536,15.323656797409058,True,,True,1,False,1000,True,1.0
./expes/v2_2020-11-27_di_500-prng-2,daily_issda_500,500,rng-500,241,rng,num-start-221,221,536,33.062116622924805,True,,True,1,False,1000,True,1.0
./expes/v2_2020-11-27_di_500-prng-2,daily_issda_500,500,rng-500,301,rng,num-start-21,21,536,1000.7883720397949,False,,False,0,True,1000,True,0.0
./expes/v2_2020-11-27_di_500-prng-2,daily_issda_500,500,rng-500,261,rng,num-start-51,51,536,1002.0028860569,False,,False,0,True,1000,True,0.0
./expes/v2_2020-11-27_di_500-prng-2,daily_issda_500,500,rng-500,281,rng,num-start-281,281,536,25.858325481414795,True,,True,1,False,1000,True,1.0
./expes/v2_2020-11-27_di_500-prng-2,daily_issda_500,500,rng-500,281,rng,num-start-61,61,536,1002.5619788169861,False,,False,0,True,1000,True,0.0
./expes/v2_2020-11-27_di_500-prng-2,daily_issda_500,500,rng-500,11,rng,num-start-81,81,536,3.84295392036438,True,,True,1,False,1000,True,1.0
./expes/v2_2020-11-27_di_500-prng-2,daily_issda_500,500,rng-500,21,rng,num-start-51,51,536,8.590395212173462,True,,True,1,False,1000,True,1.0
./expes/v2_2020-11-27_di_500-prng-2,daily_issda_500,500,rng-500,11,rng,num-start-11,11,536,1000.7499158382416,False,,False,0,True,1000,True,0.0
./expes/v2_2020-11-27_di_500-prng-2,daily_issda_500,500,rng-500,231,rng,num-start-241,241,536,33.070093870162964,True,,True,1,False,1000,True,1.0
./expes/v2_2020-11-27_di_500-prng-2,daily_issda_500,500,rng-500,131,rng,num-start-241,241,536,17.95877194404602,True,,True,1,False,1000,True,1.0
./expes/v2_2020-11-27_di_500-prng-2,daily_issda_500,500,rng-500,11,rng,num-start-211,211,536,12.886376857757568,True,,True,1,False,1000,True,1.0
./expes/v2_2020-11-27_di_500-prng-2,daily_issda_500,500,rng-500,1,rng,num-start-131,131,536,4.539172887802124,True,,True,1,False,1000,True,1.0
./expes/v2_2020-11-27_di_500-prng-2,daily_issda_500,500,rng-500,241,rng,num-start-201,201,536,76.64871954917908,True,,True,1,False,1000,True,1.0
./expes/v2_2020-11-27_di_500-prng-2,daily_issda_500,500,rng-500,11,rng,num-start-111,111,536,5.824638843536377,True,,True,1,False,1000,True,1.0
./expes/v2_2020-11-27_di_500-prng-2,daily_issda_500,500,rng-500,81,rng,num-start-231,231,536,12.215822458267212,True,,True,1,False,1000,True,1.0
./expes/v2_2020-11-27_di_500-prng-2,daily_issda_500,500,rng-500,311,rng,num-start-231,231,536,27.024741411209106,True,,True,1,False,1000,True,1.0
./expes/v2_2020-11-27_di_500-prng-2,daily_issda_500,500,rng-500,301,rng,num-start-1,1,536,4.752291679382324,False,,False,2,False,1000,True,1.0
./expes/v2_2020-11-27_di_500-prng-2,daily_issda_500,500,rng-500,131,rng,num-start-101,101,536,1003.9527223110199,False,,False,0,True,1000,True,0.0
./expes/v2_2020-11-27_di_500-prng-2,daily_issda_500,500,rng-500,41,rng,num-start-151,151,536,8.931598424911499,True,,True,1,False,1000,True,1.0
./expes/v2_2020-11-27_di_500-prng-2,daily_issda_500,500,rng-500,311,rng,num-start-81,81,536,1003.1191334724426,False,,False,0,True,1000,True,0.0
./expes/v2_2020-11-27_di_500-prng-2,daily_issda_500,500,rng-500,151,rng,num-start-211,211,536,31.47918701171875,True,,True,1,False,1000,True,1.0
./expes/v2_2020-11-27_di_500-prng-2,daily_issda_500,500,rng-500,171,rng,num-start-41,41,536,1001.5785291194916,False,,False,0,True,1000,True,0.0
./expes/v2_2020-11-27_di_500-prng-2,daily_issda_500,500,rng-500,261,rng,num-start-71,71,536,1002.754118680954,False,,False,0,True,1000,True,0.0
./expes/v2_2020-11-27_di_500-prng-2,daily_issda_500,500,rng-500,281,rng,num-start-241,241,536,21.480557203292847,True,,True,1,False,1000,True,1.0
./expes/v2_2020-11-27_di_500-prng-2,daily_issda_500,500,rng-500,371,rng,num-start-191,191,536,51.43173694610596,True,,True,1,False,1000,True,1.0
./expes/v2_2020-11-27_di_500-prng-2,daily_issda_500,500,rng-500,331,rng,num-start-111,111,536,1004.3128297328949,False,,False,0,True,1000,True,0.0
./expes/v2_2020-11-27_di_500-prng-2,daily_issda_500,500,rng-500,291,rng,num-start-21,21,536,1000.9519279003143,False,,False,0,True,1000,True,0.0
./expes/v2_2020-11-27_di_500-prng-2,daily_issda_500,500,rng-500,281,rng,num-start-31,31,536,1001.3636560440063,False,,False,0,True,1000,True,0.0
./expes/v2_2020-11-27_di_500-prng-2,daily_issda_500,500,rng-500,431,rng,num-start-271,271,536,16.844043254852295,True,,True,1,False,1000,True,1.0
./expes/v2_2020-11-27_di_500-prng-2,daily_issda_500,500,rng-500,211,rng,num-start-11,11,536,1000.620361328125,False,,False,0,True,1000,True,0.0
./expes/v2_2020-11-27_di_500-prng-2,daily_issda_500,500,rng-500,91,rng,num-start-231,231,536,17.72434401512146,True,,True,1,False,1000,True,1.0
./expes/v2_2020-11-27_di_500-prng-2,daily_issda_500,500,rng-500,321,rng,num-start-251,251,536,19.87560772895813,True,,True,1,False,1000,True,1.0
./expes/v2_2020-11-27_di_500-prng-2,daily_issda_500,500,rng-500,181,rng,num-start-271,271,536,19.78535008430481,True,,True,1,False,1000,True,1.0
./expes/v2_2020-11-27_di_500-prng-2,daily_issda_500,500,rng-500,161,rng,num-start-1,1,536,3.654010057449341,False,,False,2,False,1000,True,1.0
./expes/v2_2020-11-27_di_500-prng-2,daily_issda_500,500,rng-500,51,rng,num-start-101,101,536,25.9789137840271,True,,True,1,False,1000,True,1.0
./expes/v2_2020-11-27_di_500-prng-2,daily_issda_500,500,rng-500,261,rng,num-start-151,151,536,1005.7528848648071,False,,False,0,True,1000,True,0.0
./expes/v2_2020-11-27_di_500-prng-2,daily_issda_500,500,rng-500,191,rng,num-start-161,161,536,1006.104630947113,False,,False,0,True,1000,True,0.0
./expes/v2_2020-11-27_di_500-prng-2,daily_issda_500,500,rng-500,131,rng,num-start-181,181,536,23.329197883605957,True,,True,1,False,1000,True,1.0
./expes/v2_2020-11-27_di_500-prng-2,daily_issda_500,500,rng-500,291,rng,num-start-271,271,536,19.810655117034912,True,,True,1,False,1000,True,1.0
./expes/v2_2020-11-27_di_500-prng-2,daily_issda_500,500,rng-500,351,rng,num-start-251,251,536,20.316098928451538,True,,True,1,False,1000,True,1.0
./expes/v2_2020-11-27_di_500-prng-2,daily_issda_500,500,rng-500,421,rng,num-start-161,161,536,10.318328380584717,True,,True,1,False,1000,True,1.0
./expes/v2_2020-11-27_di_500-prng-2,daily_issda_500,500,rng-500,281,rng,num-start-191,191,536,1006.3669607639313,False,,False,0,True,1000,True,0.0
./expes/v2_2020-11-27_di_500-prng-2,daily_issda_500,500,rng-500,321,rng,num-start-61,61,536,1002.2069447040558,False,,False,0,True,1000,True,0.0
./expes/v2_2020-11-27_di_500-prng-2,daily_issda_500,500,rng-500,421,rng,num-start-91,91,536,1003.1365616321564,False,,False,0,True,1000,True,0.0
./expes/v2_2020-11-27_di_500-prng-2,daily_issda_500,500,rng-500,81,rng,num-start-261,261,536,20.263696670532227,True,,True,1,False,1000,True,1.0
./expes/v2_2020-11-27_di_500-prng-2,daily_issda_500,500,rng-500,431,rng,num-start-151,151,536,20.91987133026123,True,,True,1,False,1000,True,1.0
./expes/v2_2020-11-27_di_500-prng-2,daily_issda_500,500,rng-500,251,rng,num-start-221,221,536,50.49730587005615,True,,True,1,False,1000,True,1.0
./expes/v2_2020-11-27_di_500-prng-2,daily_issda_500,500,rng-500,401,rng,num-start-11,11,536,1000.7264485359192,False,,False,0,True,1000,True,0.0
./expes/v2_2020-11-27_di_500-prng-2,daily_issda_500,500,rng-500,71,rng,num-start-171,171,536,13.911267518997192,True,,True,1,False,1000,True,1.0
./expes/v2_2020-11-27_di_500-prng-2,daily_issda_500,500,rng-500,141,rng,num-start-61,61,536,1002.2158880233765,False,,False,0,True,1000,True,0.0
./expes/v2_2020-11-27_di_500-prng-2,daily_issda_500,500,rng-500,161,rng,num-start-31,31,536,1001.1538941860199,False,,False,0,True,1000,True,0.0
./expes/v2_2020-11-27_di_500-prng-2,daily_issda_500,500,rng-500,251,rng,num-start-21,21,536,1000.9790620803833,False,,False,0,True,1000,True,0.0
./expes/v2_2020-11-27_di_500-prng-2,daily_issda_500,500,rng-500,71,rng,num-start-21,21,536,1000.9983716011047,False,,False,0,True,1000,True,0.0
./expes/v2_2020-11-27_di_500-prng-2,daily_issda_500,500,rng-500,1,rng,num-start-241,241,536,9.182026386260986,True,,True,1,False,1000,True,1.0
./expes/v2_2020-11-27_di_500-prng-2,daily_issda_500,500,rng-500,201,rng,num-start-61,61,536,1002.3859105110168,False,,False,0,True,1000,True,0.0
./expes/v2_2020-11-27_di_500-prng-2,daily_issda_500,500,rng-500,1,rng,num-start-181,181,536,6.338714122772217,True,,True,1,False,1000,True,1.0
./expes/v2_2020-11-27_di_500-prng-2,daily_issda_500,500,rng-500,51,rng,num-start-141,141,536,7.9809088706970215,True,,True,1,False,1000,True,1.0
./expes/v2_2020-11-27_di_500-prng-2,daily_issda_500,500,rng-500,291,rng,num-start-271,271,536,21.140104055404663,True,,True,1,False,1000,True,1.0
./expes/v2_2020-11-27_di_500-prng-2,daily_issda_500,500,rng-500,461,rng,num-start-191,191,536,11.461754083633423,True,,True,1,False,1000,True,1.0
./expes/v2_2020-11-27_di_500-prng-2,daily_issda_500,500,rng-500,451,rng,num-start-161,161,536,13.283819675445557,True,,True,1,False,1000,True,1.0
./expes/v2_2020-11-27_di_500-prng-2,daily_issda_500,500,rng-500,301,rng,num-start-31,31,536,1001.2556867599487,False,,False,0,True,1000,True,0.0
./expes/v2_2020-11-27_di_500-prng-2,daily_issda_500,500,rng-500,411,rng,num-start-81,81,536,1003.2816758155823,False,,False,0,True,1000,True,0.0
./expes/v2_2020-11-27_di_500-prng-2,daily_issda_500,500,rng-500,331,rng,num-start-171,171,536,1006.367604970932,False,,False,0,True,1000,True,0.0
./expes/v2_2020-11-27_di_500-prng-2,daily_issda_500,500,rng-500,61,rng,num-start-261,261,536,16.242315530776978,True,,True,1,False,1000,True,1.0
./expes/v2_2020-11-27_di_500-prng-2,daily_issda_500,500,rng-500,421,rng,num-start-181,181,536,12.847188234329224,True,,True,1,False,1000,True,1.0
./expes/v2_2020-11-27_di_500-prng-2,daily_issda_500,500,rng-500,411,rng,num-start-191,191,536,25.153168201446533,True,,True,1,False,1000,True,1.0
./expes/v2_2020-11-27_di_500-prng-2,daily_issda_500,500,rng-500,261,rng,num-start-251,251,536,44.93417716026306,True,,True,1,False,1000,True,1.0
./expes/v2_2020-11-27_di_500-prng-2,daily_issda_500,500,rng-500,11,rng,num-start-41,41,536,3.433396577835083,True,,True,1,False,1000,True,1.0
./expes/v2_2020-11-27_di_500-prng-2,daily_issda_500,500,rng-500,41,rng,num-start-271,271,536,13.447498559951782,True,,True,1,False,1000,True,1.0
./expes/v2_2020-11-27_di_500-prng-2,daily_issda_500,500,rng-500,371,rng,num-start-131,131,536,1004.5046815872192,False,,False,0,True,1000,True,0.0
./expes/v2_2020-11-27_di_500-prng-2,daily_issda_500,500,rng-500,131,rng,num-start-141,141,536,1004.8847351074219,False,,False,0,True,1000,True,0.0
./expes/v2_2020-11-27_di_500-prng-2,daily_issda_500,500,rng-500,191,rng,num-start-201,201,536,96.30878710746765,True,,True,1,False,1000,True,1.0
