expe,clients,clients_size,clients_subset,agg_size,method,days,days_size,days_total,time,valid,valid_sum,success,nsols,wall_hit,wall_time,pooled,valid_sums
./expes/v2_2020-11-27_di_500-prng-2,daily_issda_500,500,rng-500,401,rng,num-start-271,271,536,18.134278297424316,True,,True,1,False,1000,True,1.0
./expes/v2_2020-11-27_di_500-prng-2,daily_issda_500,500,rng-500,461,rng,num-start-11,11,536,1000.4257798194885,False,,False,0,True,1000,True,0.0
./expes/v2_2020-11-27_di_500-prng-2,daily_issda_500,500,rng-500,11,rng,num-start-271,271,536,13.761762619018555,True,,True,1,False,1000,True,1.0
./expes/v2_2020-11-27_di_500-prng-2,daily_issda_500,500,rng-500,141,rng,num-start-21,21,536,1001.2054550647736,False,,False,0,True,1000,True,0.0
./expes/v2_2020-11-27_di_500-prng-2,daily_issda_500,500,rng-500,351,rng,num-start-201,201,536,28.981438398361206,True,,True,1,False,1000,True,1.0
./expes/v2_2020-11-27_di_500-prng-2,daily_issda_500,500,rng-500,491,rng,num-start-261,261,536,11.097437381744385,True,,True,1,False,1000,True,1.0
./expes/v2_2020-11-27_di_500-prng-2,daily_issda_500,500,rng-500,201,rng,num-start-201,201,536,123.10297656059265,True,,True,1,False,1000,True,1.0
./expes/v2_2020-11-27_di_500-prng-2,daily_issda_500,500,rng-500,301,rng,num-start-261,261,536,21.255444049835205,True,,True,1,False,1000,True,1.0
./expes/v2_2020-11-27_di_500-prng-2,daily_issda_500,500,rng-500,261,rng,num-start-61,61,536,1002.367125749588,False,,False,0,True,1000,True,0.0
./expes/v2_2020-11-27_di_500-prng-2,daily_issda_500,500,rng-500,391,rng,num-start-1,1,536,1.5545167922973633,False,,False,2,False,1000,True,1.0
./expes/v2_2020-11-27_di_500-prng-2,daily_issda_500,500,rng-500,481,rng,num-start-101,101,536,4.574547529220581,True,,True,1,False,1000,True,1.0
./expes/v2_2020-11-27_di_500-prng-2,daily_issda_500,500,rng-500,321,rng,num-start-241,241,536,20.208450317382812,True,,True,1,False,1000,True,1.0
./expes/v2_2020-11-27_di_500-prng-2,daily_issda_500,500,rng-500,51,rng,num-start-51,51,536,1001.8872587680817,False,,False,0,True,1000,True,0.0
./expes/v2_2020-11-27_di_500-prng-2,daily_issda_500,500,rng-500,291,rng,num-start-131,131,536,1004.6287159919739,False,,False,0,True,1000,True,0.0
./expes/v2_2020-11-27_di_500-prng-2,daily_issda_500,500,rng-500,261,rng,num-start-151,151,536,1005.5006759166718,False,,False,0,True,1000,True,0.0
./expes/v2_2020-11-27_di_500-prng-2,daily_issda_500,500,rng-500,451,rng,num-start-121,121,536,5.919535160064697,True,,True,1,False,1000,True,1.0
./expes/v2_2020-11-27_di_500-prng-2,daily_issda_500,500,rng-500,401,rng,num-start-141,141,536,168.09318709373474,True,,True,1,False,1000,True,1.0
./expes/v2_2020-11-27_di_500-prng-2,daily_issda_500,500,rng-500,71,rng,num-start-211,211,536,12.194743156433105,True,,True,1,False,1000,True,1.0
./expes/v2_2020-11-27_di_500-prng-2,daily_issda_500,500,rng-500,131,rng,num-start-221,221,536,15.383146047592163,True,,True,1,False,1000,True,1.0
./expes/v2_2020-11-27_di_500-prng-2,daily_issda_500,500,rng-500,471,rng,num-start-241,241,536,11.327574253082275,True,,True,1,False,1000,True,1.0
./expes/v2_2020-11-27_di_500-prng-2,daily_issda_500,500,rng-500,41,rng,num-start-231,231,536,15.20159101486206,True,,True,1,False,1000,True,1.0
./expes/v2_2020-11-27_di_500-prng-2,daily_issda_500,500,rng-500,351,rng,num-start-91,91,536,1003.0684723854065,False,,False,0,True,1000,True,0.0
./expes/v2_2020-11-27_di_500-prng-2,daily_issda_500,500,rng-500,421,rng,num-start-281,281,536,15.785041570663452,True,,True,1,False,1000,True,1.0
./expes/v2_2020-11-27_di_500-prng-2,daily_issda_500,500,rng-500,351,rng,num-start-41,41,536,1001.5793652534485,False,,False,0,True,1000,True,0.0
./expes/v2_2020-11-27_di_500-prng-2,daily_issda_500,500,rng-500,11,rng,num-start-151,151,536,7.360095739364624,True,,True,1,False,1000,True,1.0
./expes/v2_2020-11-27_di_500-prng-2,daily_issda_500,500,rng-500,131,rng,num-start-11,11,536,1000.5185308456421,False,,False,0,True,1000,True,0.0
./expes/v2_2020-11-27_di_500-prng-2,daily_issda_500,500,rng-500,351,rng,num-start-251,251,536,18.25173306465149,True,,True,1,False,1000,True,1.0
./expes/v2_2020-11-27_di_500-prng-2,daily_issda_500,500,rng-500,471,rng,num-start-121,121,536,5.927631616592407,True,,True,1,False,1000,True,1.0
./expes/v2_2020-11-27_di_500-prng-2,daily_issda_500,500,rng-500,1,rng,num-start-61,61,536,2.082643747329712,True,,True,1,False,1000,True,1.0
./expes/v2_2020-11-27_di_500-prng-2,daily_issda_500,500,rng-500,431,rng,num-start-51,51,536,1001.7863206863403,False,,False,0,True,1000,True,0.0
./expes/v2_2020-11-27_di_500-prng-2,daily_issda_500,500,rng-500,401,rng,num-start-161,161,536,22.552014589309692,True,,True,1,False,1000,True,1.0
./expes/v2_2020-11-27_di_500-prng-2,daily_issda_500,500,rng-500,161,rng,num-start-71,71,536,1002.6684556007385,False,,False,0,True,1000,True,0.0
./expes/v2_2020-11-27_di_500-prng-2,daily_issda_500,500,rng-500,151,rng,num-start-171,171,536,1006.0960953235626,False,,False,0,True,1000,True,0.0
./expes/v2_2020-11-27_di_500-prng-2,daily_issda_500,500,rng-500,241,rng,num-start-141,141,536,1004.9210820198059,False,,False,0,True,1000,True,0.0
./expes/v2_2020-11-27_di_500-prng-2,daily_issda_500,500,rng-500,481,rng,num-start-171,171,536,8.12093472480774,True,,True,1,False,1000,True,1.0
./expes/v2_2020-11-27_di_500-prng-2,daily_issda_500,500,rng-500,401,rng,num-start-91,91,536,1003.2593851089478,False,,False,0,True,1000,True,0.0
./expes/v2_2020-11-27_di_500-prng-2,daily_issda_500,500,rng-500,1,rng,num-start-161,161,536,5.930998802185059,True,,True,1,False,1000,True,1.0
./expes/v2_2020-11-27_di_500-prng-2,daily_issda_500,500,rng-500,181,rng,num-start-81,81,536,1002.8747737407684,False,,False,0,True,1000,True,0.0
./expes/v2_2020-11-27_di_500-prng-2,daily_issda_500,500,rng-500,231,rng,num-start-151,151,536,1005.1340680122375,False,,False,0,True,1000,True,0.0
./expes/v2_2020-11-27_di_500-prng-2,daily_issda_500,500,rng-500,401,rng,num-start-131,131,536,12.432441473007202,True,,True,1,False,1000,True,1.0
./expes/v2_2020-11-27_di_500-prng-2,daily_issda_500,500,rng-500,311,rng,num-start-191,191,536,226.85951972007751,True,,True,1,False,1000,True,1.0
./expes/v2_2020-11-27_di_500-prng-2,daily_issda_500,500,rng-500,171,rng,num-start-221,221,536,40.045079469680786,True,,True,1,False,1000,True,1.0
./expes/v2_2020-11-27_di_500-prng-2,daily_issda_500,500,rng-500,101,rng,num-start-71,71,536,1002.4062170982361,False,,False,0,True,1000,True,0.0
./expes/v2_2020-11-27_di_500-prng-2,daily_issda_500,500,rng-500,21,rng,num-start-251,251,536,11.450905323028564,True,,True,1,False,1000,True,1.0
./expes/v2_2020-11-27_di_500-prng-2,daily_issda_500,500,rng-500,221,rng,num-start-161,161,536,1005.9146401882172,False,,False,0,True,1000,True,0.0
./expes/v2_2020-11-27_di_500-prng-2,daily_issda_500,500,rng-500,51,rng,num-start-201,201,536,10.844539403915405,True,,True,1,False,1000,True,1.0
./expes/v2_2020-11-27_di_500-prng-2,daily_issda_500,500,rng-500,41,rng,num-start-211,211,536,11.723743200302124,True,,True,1,False,1000,True,1.0
./expes/v2_2020-11-27_di_500-prng-2,daily_issda_500,500,rng-500,271,rng,num-start-161,161,536,1005.8573064804077,False,,False,0,True,1000,True,0.0
./expes/v2_2020-11-27_di_500-prng-2,daily_issda_500,500,rng-500,41,rng,num-start-111,111,536,9.674612998962402,True,,True,1,False,1000,True,1.0
./expes/v2_2020-11-27_di_500-prng-2,daily_issda_500,500,rng-500,431,rng,num-start-91,91,536,1003.2661859989166,False,,False,0,True,1000,True,0.0
./expes/v2_2020-11-27_di_500-prng-2,daily_issda_500,500,rng-500,341,rng,num-start-91,91,536,1003.3202800750732,False,,False,0,True,1000,True,0.0
./expes/v2_2020-11-27_di_500-prng-2,daily_issda_500,500,rng-500,271,rng,num-start-161,161,536,1005.9210114479065,False,,False,0,True,1000,True,0.0
./expes/v2_2020-11-27_di_500-prng-2,daily_issda_500,500,rng-500,431,rng,num-start-81,81,536,1002.8434388637543,False,,False,0,True,1000,True,0.0
./expes/v2_2020-11-27_di_500-prng-2,daily_issda_500,500,rng-500,131,rng,num-start-161,161,536,371.9903953075409,True,,True,1,False,1000,True,1.0
./expes/v2_2020-11-27_di_500-prng-2,daily_issda_500,500,rng-500,391,rng,num-start-71,71,536,1002.5877647399902,False,,False,0,True,1000,True,0.0
./expes/v2_2020-11-27_di_500-prng-2,daily_issda_500,500,rng-500,351,rng,num-start-151,151,536,1005.3675045967102,False,,False,0,True,1000,True,0.0
./expes/v2_2020-11-27_di_500-prng-2,daily_issda_500,500,rng-500,51,rng,num-start-191,191,536,11.019620656967163,True,,True,1,False,1000,True,1.0
./expes/v2_2020-11-27_di_500-prng-2,daily_issda_500,500,rng-500,1,rng,num-start-241,241,536,8.80199670791626,True,,True,1,False,1000,True,1.0
./expes/v2_2020-11-27_di_500-prng-2,daily_issda_500,500,rng-500,21,rng,num-start-251,251,536,14.147735834121704,True,,True,1,False,1000,True,1.0
./expes/v2_2020-11-27_di_500-prng-2,daily_issda_500,500,rng-500,401,rng,num-start-61,61,536,1002.8109436035156,False,,False,0,True,1000,True,0.0
./expes/v2_2020-11-27_di_500-prng-2,daily_issda_500,500,rng-500,401,rng,num-start-161,161,536,54.06286931037903,True,,True,1,False,1000,True,1.0
./expes/v2_2020-11-27_di_500-prng-2,daily_issda_500,500,rng-500,281,rng,num-start-71,71,536,1002.6396300792694,False,,False,0,True,1000,True,0.0
./expes/v2_2020-11-27_di_500-prng-2,daily_issda_500,500,rng-500,41,rng,num-start-241,241,536,14.148099422454834,True,,True,1,False,1000,True,1.0
./expes/v2_2020-11-27_di_500-prng-2,daily_issda_500,500,rng-500,361,rng,num-start-221,221,536,27.49013328552246,True,,True,1,False,1000,True,1.0
./expes/v2_2020-11-27_di_500-prng-2,daily_issda_500,500,rng-500,441,rng,num-start-261,261,536,16.121519804000854,True,,True,1,False,1000,True,1.0
./expes/v2_2020-11-27_di_500-prng-2,daily_issda_500,500,rng-500,211,rng,num-start-251,251,536,38.16481804847717,True,,True,1,False,1000,True,1.0
./expes/v2_2020-11-27_di_500-prng-2,daily_issda_500,500,rng-500,431,rng,num-start-281,281,536,16.955660820007324,True,,True,1,False,1000,True,1.0
./expes/v2_2020-11-27_di_500-prng-2,daily_issda_500,500,rng-500,341,rng,num-start-41,41,536,1001.4015216827393,False,,False,0,True,1000,True,0.0
./expes/v2_2020-11-27_di_500-prng-2,daily_issda_500,500,rng-500,311,rng,num-start-241,241,536,34.640092611312866,True,,True,1,False,1000,True,1.0
./expes/v2_2020-11-27_di_500-prng-2,daily_issda_500,500,rng-500,171,rng,num-start-91,91,536,1003.4161727428436,False,,False,0,True,1000,True,0.0
./expes/v2_2020-11-27_di_500-prng-2,daily_issda_500,500,rng-500,261,rng,num-start-211,211,536,50.66548180580139,True,,True,1,False,1000,True,1.0
./expes/v2_2020-11-27_di_500-prng-2,daily_issda_500,500,rng-500,341,rng,num-start-181,181,536,87.02282762527466,True,,True,1,False,1000,True,1.0
./expes/v2_2020-11-27_di_500-prng-2,daily_issda_500,500,rng-500,41,rng,num-start-131,131,536,10.254603624343872,True,,True,1,False,1000,True,1.0
./expes/v2_2020-11-27_di_500-prng-2,daily_issda_500,500,rng-500,171,rng,num-start-201,201,536,48.0336709022522,True,,True,1,False,1000,True,1.0
./expes/v2_2020-11-27_di_500-prng-2,daily_issda_500,500,rng-500,341,rng,num-start-81,81,536,1002.8916065692902,False,,False,0,True,1000,True,0.0
./expes/v2_2020-11-27_di_500-prng-2,daily_issda_500,500,rng-500,331,rng,num-start-161,161,536,1005.4765961170197,False,,False,0,True,1000,True,0.0
./expes/v2_2020-11-27_di_500-prng-2,daily_issda_500,500,rng-500,61,rng,num-start-241,241,536,11.555360555648804,True,,True,1,False,1000,True,1.0
./expes/v2_2020-11-27_di_500-prng-2,daily_issda_500,500,rng-500,171,rng,num-start-111,111,536,1004.0827338695526,False,,False,0,True,1000,True,0.0
./expes/v2_2020-11-27_di_500-prng-2,daily_issda_500,500,rng-500,111,rng,num-start-201,201,536,43.151679039001465,True,,True,1,False,1000,True,1.0
./expes/v2_2020-11-27_di_500-prng-2,daily_issda_500,500,rng-500,351,rng,num-start-221,221,536,21.74530863761902,True,,True,1,False,1000,True,1.0
./expes/v2_2020-11-27_di_500-prng-2,daily_issda_500,500,rng-500,171,rng,num-start-11,11,536,1000.7053408622742,False,,False,0,True,1000,True,0.0
./expes/v2_2020-11-27_di_500-prng-2,daily_issda_500,500,rng-500,331,rng,num-start-281,281,536,22.05435585975647,True,,True,1,False,1000,True,1.0
./expes/v2_2020-11-27_di_500-prng-2,daily_issda_500,500,rng-500,171,rng,num-start-271,271,536,23.771490335464478,True,,True,1,False,1000,True,1.0
./expes/v2_2020-11-27_di_500-prng-2,daily_issda_500,500,rng-500,411,rng,num-start-191,191,536,12.363218784332275,True,,True,1,False,1000,True,1.0
./expes/v2_2020-11-27_di_500-prng-2,daily_issda_500,500,rng-500,421,rng,num-start-231,231,536,15.683245658874512,True,,True,1,False,1000,True,1.0
./expes/v2_2020-11-27_di_500-prng-2,daily_issda_500,500,rng-500,91,rng,num-start-131,131,536,1004.6635427474976,False,,False,0,True,1000,True,0.0
./expes/v2_2020-11-27_di_500-prng-2,daily_issda_500,500,rng-500,11,rng,num-start-251,251,536,11.195454597473145,True,,True,1,False,1000,True,1.0
./expes/v2_2020-11-27_di_500-prng-2,daily_issda_500,500,rng-500,431,rng,num-start-1,1,536,3.997756004333496,False,,False,2,False,1000,True,1.0
./expes/v2_2020-11-27_di_500-prng-2,daily_issda_500,500,rng-500,311,rng,num-start-131,131,536,1004.4327280521393,False,,False,0,True,1000,True,0.0
./expes/v2_2020-11-27_di_500-prng-2,daily_issda_500,500,rng-500,151,rng,num-start-41,41,536,1001.4761395454407,False,,False,0,True,1000,True,0.0
./expes/v2_2020-11-27_di_500-prng-2,daily_issda_500,500,rng-500,121,rng,num-start-131,131,536,1004.2693917751312,False,,False,0,True,1000,True,0.0
./expes/v2_2020-11-27_di_500-prng-2,daily_issda_500,500,rng-500,71,rng,num-start-211,211,536,13.865381002426147,True,,True,1,False,1000,True,1.0
./expes/v2_2020-11-27_di_500-prng-2,daily_issda_500,500,rng-500,91,rng,num-start-181,181,536,10.337963819503784,True,,True,1,False,1000,True,1.0
./expes/v2_2020-11-27_di_500-prng-2,daily_issda_500,500,rng-500,281,rng,num-start-281,281,536,22.27238368988037,True,,True,1,False,1000,True,1.0
./expes/v2_2020-11-27_di_500-prng-2,daily_issda_500,500,rng-500,291,rng,num-start-101,101,536,1003.7323703765869,False,,False,0,True,1000,True,0.0
./expes/v2_2020-11-27_di_500-prng-2,daily_issda_500,500,rng-500,341,rng,num-start-131,131,536,1004.8122627735138,False,,False,0,True,1000,True,0.0
./expes/v2_2020-11-27_di_500-prng-2,daily_issda_500,500,rng-500,11,rng,num-start-111,111,536,5.440717935562134,True,,True,1,False,1000,True,1.0
./expes/v2_2020-11-27_di_500-prng-2,daily_issda_500,500,rng-500,331,rng,num-start-241,241,536,45.32484459877014,True,,True,1,False,1000,True,1.0
./expes/v2_2020-11-27_di_500-prng-2,daily_issda_500,500,rng-500,111,rng,num-start-271,271,536,15.587286710739136,True,,True,1,False,1000,True,1.0
./expes/v2_2020-11-27_di_500-prng-2,daily_issda_500,500,rng-500,181,rng,num-start-121,121,536,1004.5626149177551,False,,False,0,True,1000,True,0.0
./expes/v2_2020-11-27_di_500-prng-2,daily_issda_500,500,rng-500,251,rng,num-start-1,1,536,5.804158926010132,False,,False,2,False,1000,True,1.0
./expes/v2_2020-11-27_di_500-prng-2,daily_issda_500,500,rng-500,261,rng,num-start-251,251,536,22.8872127532959,True,,True,1,False,1000,True,1.0
./expes/v2_2020-11-27_di_500-prng-2,daily_issda_500,500,rng-500,461,rng,num-start-251,251,536,12.476830005645752,True,,True,1,False,1000,True,1.0
./expes/v2_2020-11-27_di_500-prng-2,daily_issda_500,500,rng-500,1,rng,num-start-131,131,536,4.232179403305054,True,,True,1,False,1000,True,1.0
./expes/v2_2020-11-27_di_500-prng-2,daily_issda_500,500,rng-500,141,rng,num-start-111,111,536,1003.8208346366882,False,,False,0,True,1000,True,0.0
./expes/v2_2020-11-27_di_500-prng-2,daily_issda_500,500,rng-500,341,rng,num-start-161,161,536,1005.7022678852081,False,,False,0,True,1000,True,0.0
./expes/v2_2020-11-27_di_500-prng-2,daily_issda_500,500,rng-500,361,rng,num-start-21,21,536,1000.9739964008331,False,,False,0,True,1000,True,0.0
./expes/v2_2020-11-27_di_500-prng-2,daily_issda_500,500,rng-500,461,rng,num-start-181,181,536,8.146280288696289,True,,True,1,False,1000,True,1.0
./expes/v2_2020-11-27_di_500-prng-2,daily_issda_500,500,rng-500,291,rng,num-start-181,181,536,1006.5206623077393,False,,False,0,True,1000,True,0.0
./expes/v2_2020-11-27_di_500-prng-2,daily_issda_500,500,rng-500,141,rng,num-start-151,151,536,1005.3276438713074,False,,False,0,True,1000,True,0.0
./expes/v2_2020-11-27_di_500-prng-2,daily_issda_500,500,rng-500,471,rng,num-start-61,61,536,1002.2898118495941,False,,False,1,True,1000,True,0.0
./expes/v2_2020-11-27_di_500-prng-2,daily_issda_500,500,rng-500,411,rng,num-start-261,261,536,15.065722465515137,True,,True,1,False,1000,True,1.0
./expes/v2_2020-11-27_di_500-prng-2,daily_issda_500,500,rng-500,331,rng,num-start-291,291,536,31.186765670776367,True,,True,1,False,1000,True,1.0
./expes/v2_2020-11-27_di_500-prng-2,daily_issda_500,500,rng-500,281,rng,num-start-21,21,536,1000.88036942482,False,,False,0,True,1000,True,0.0
./expes/v2_2020-11-27_di_500-prng-2,daily_issda_500,500,rng-500,391,rng,num-start-291,291,536,19.876445531845093,True,,True,1,False,1000,True,1.0
./expes/v2_2020-11-27_di_500-prng-2,daily_issda_500,500,rng-500,21,rng,num-start-51,51,536,11.72023868560791,True,,True,1,False,1000,True,1.0
./expes/v2_2020-11-27_di_500-prng-2,daily_issda_500,500,rng-500,101,rng,num-start-141,141,536,1004.9662752151489,False,,False,0,True,1000,True,0.0
./expes/v2_2020-11-27_di_500-prng-2,daily_issda_500,500,rng-500,181,rng,num-start-11,11,536,1000.4114887714386,False,,False,0,True,1000,True,0.0
./expes/v2_2020-11-27_di_500-prng-2,daily_issda_500,500,rng-500,361,rng,num-start-241,241,536,20.4400053024292,True,,True,1,False,1000,True,1.0
./expes/v2_2020-11-27_di_500-prng-2,daily_issda_500,500,rng-500,421,rng,num-start-211,211,536,12.737945795059204,True,,True,1,False,1000,True,1.0
./expes/v2_2020-11-27_di_500-prng-2,daily_issda_500,500,rng-500,111,rng,num-start-21,21,536,1000.9273498058319,False,,False,0,True,1000,True,0.0
./expes/v2_2020-11-27_di_500-prng-2,daily_issda_500,500,rng-500,231,rng,num-start-101,101,536,1003.4934551715851,False,,False,0,True,1000,True,0.0
./expes/v2_2020-11-27_di_500-prng-2,daily_issda_500,500,rng-500,191,rng,num-start-241,241,536,25.103461742401123,True,,True,1,False,1000,True,1.0
./expes/v2_2020-11-27_di_500-prng-2,daily_issda_500,500,rng-500,381,rng,num-start-91,91,536,1003.2483718395233,False,,False,0,True,1000,True,0.0
./expes/v2_2020-11-27_di_500-prng-2,daily_issda_500,500,rng-500,81,rng,num-start-261,261,536,14.034247875213623,True,,True,1,False,1000,True,1.0
./expes/v2_2020-11-27_di_500-prng-2,daily_issda_500,500,rng-500,61,rng,num-start-141,141,536,11.837137699127197,True,,True,1,False,1000,True,1.0
./expes/v2_2020-11-27_di_500-prng-2,daily_issda_500,500,rng-500,361,rng,num-start-271,271,536,22.80419373512268,True,,True,1,False,1000,True,1.0
./expes/v2_2020-11-27_di_500-prng-2,daily_issda_500,500,rng-500,241,rng,num-start-291,291,536,17.0002224445343,True,,True,1,False,1000,True,1.0
./expes/v2_2020-11-27_di_500-prng-2,daily_issda_500,500,rng-500,251,rng,num-start-251,251,536,60.798245906829834,True,,True,1,False,1000,True,1.0
./expes/v2_2020-11-27_di_500-prng-2,daily_issda_500,500,rng-500,421,rng,num-start-151,151,536,16.768265962600708,True,,True,1,False,1000,True,1.0
./expes/v2_2020-11-27_di_500-prng-2,daily_issda_500,500,rng-500,181,rng,num-start-201,201,536,153.59506726264954,True,,True,1,False,1000,True,1.0
./expes/v2_2020-11-27_di_500-prng-2,daily_issda_500,500,rng-500,361,rng,num-start-101,101,536,1003.4682943820953,False,,False,0,True,1000,True,0.0
./expes/v2_2020-11-27_di_500-prng-2,daily_issda_500,500,rng-500,381,rng,num-start-51,51,536,1001.8604855537415,False,,False,0,True,1000,True,0.0
./expes/v2_2020-11-27_di_500-prng-2,daily_issda_500,500,rng-500,131,rng,num-start-221,221,536,17.931007862091064,True,,True,1,False,1000,True,1.0
./expes/v2_2020-11-27_di_500-prng-2,daily_issda_500,500,rng-500,31,rng,num-start-1,1,536,1.2790520191192627,False,,False,2,False,1000,True,1.0
./expes/v2_2020-11-27_di_500-prng-2,daily_issda_500,500,rng-500,331,rng,num-start-81,81,536,1002.8781170845032,False,,False,0,True,1000,True,0.0
./expes/v2_2020-11-27_di_500-prng-2,daily_issda_500,500,rng-500,131,rng,num-start-101,101,536,1003.6178879737854,False,,False,0,True,1000,True,0.0
./expes/v2_2020-11-27_di_500-prng-2,daily_issda_500,500,rng-500,361,rng,num-start-231,231,536,16.940420866012573,True,,True,1,False,1000,True,1.0
./expes/v2_2020-11-27_di_500-prng-2,daily_issda_500,500,rng-500,461,rng,num-start-91,91,536,11.39055585861206,True,,True,1,False,1000,True,1.0
./expes/v2_2020-11-27_di_500-prng-2,daily_issda_500,500,rng-500,241,rng,num-start-281,281,536,24.178834915161133,True,,True,1,False,1000,True,1.0
./expes/v2_2020-11-27_di_500-prng-2,daily_issda_500,500,rng-500,331,rng,num-start-151,151,536,1004.9465458393097,False,,False,0,True,1000,True,0.0
./expes/v2_2020-11-27_di_500-prng-2,daily_issda_500,500,rng-500,371,rng,num-start-181,181,536,180.3074245452881,True,,True,1,False,1000,True,1.0
./expes/v2_2020-11-27_di_500-prng-2,daily_issda_500,500,rng-500,81,rng,num-start-231,231,536,15.145380973815918,True,,True,1,False,1000,True,1.0
./expes/v2_2020-11-27_di_500-prng-2,daily_issda_500,500,rng-500,251,rng,num-start-221,221,536,36.732008934020996,True,,True,1,False,1000,True,1.0
./expes/v2_2020-11-27_di_500-prng-2,daily_issda_500,500,rng-500,161,rng,num-start-101,101,536,1003.6720948219299,False,,False,0,True,1000,True,0.0
./expes/v2_2020-11-27_di_500-prng-2,daily_issda_500,500,rng-500,411,rng,num-start-161,161,536,26.415286779403687,True,,True,1,False,1000,True,1.0
./expes/v2_2020-11-27_di_500-prng-2,daily_issda_500,500,rng-500,291,rng,num-start-31,31,536,1001.1189448833466,False,,False,0,True,1000,True,0.0
./expes/v2_2020-11-27_di_500-prng-2,daily_issda_500,500,rng-500,11,rng,num-start-41,41,536,3.659456729888916,True,,True,1,False,1000,True,1.0
./expes/v2_2020-11-27_di_500-prng-2,daily_issda_500,500,rng-500,371,rng,num-start-91,91,536,1003.1687233448029,False,,False,0,True,1000,True,0.0
./expes/v2_2020-11-27_di_500-prng-2,daily_issda_500,500,rng-500,451,rng,num-start-101,101,536,1003.502613067627,False,,False,1,True,1000,True,0.0
./expes/v2_2020-11-27_di_500-prng-2,daily_issda_500,500,rng-500,461,rng,num-start-1,1,536,1.8242990970611572,False,,False,2,False,1000,True,1.0
./expes/v2_2020-11-27_di_500-prng-2,daily_issda_500,500,rng-500,31,rng,num-start-11,11,536,1000.5992255210876,False,,False,0,True,1000,True,0.0
./expes/v2_2020-11-27_di_500-prng-2,daily_issda_500,500,rng-500,31,rng,num-start-221,221,536,11.179905891418457,True,,True,1,False,1000,True,1.0
./expes/v2_2020-11-27_di_500-prng-2,daily_issda_500,500,rng-500,11,rng,num-start-111,111,536,5.86698842048645,True,,True,1,False,1000,True,1.0
./expes/v2_2020-11-27_di_500-prng-2,daily_issda_500,500,rng-500,211,rng,num-start-131,131,536,1005.4149415493011,False,,False,0,True,1000,True,0.0
./expes/v2_2020-11-27_di_500-prng-2,daily_issda_500,500,rng-500,461,rng,num-start-191,191,536,8.775240898132324,True,,True,1,False,1000,True,1.0
./expes/v2_2020-11-27_di_500-prng-2,daily_issda_500,500,rng-500,211,rng,num-start-201,201,536,215.74787163734436,True,,True,1,False,1000,True,1.0
./expes/v2_2020-11-27_di_500-prng-2,daily_issda_500,500,rng-500,491,rng,num-start-231,231,536,9.336034536361694,True,,True,1,False,1000,True,1.0
./expes/v2_2020-11-27_di_500-prng-2,daily_issda_500,500,rng-500,161,rng,num-start-201,201,536,45.65419292449951,True,,True,1,False,1000,True,1.0
./expes/v2_2020-11-27_di_500-prng-2,daily_issda_500,500,rng-500,371,rng,num-start-41,41,536,1001.5621998310089,False,,False,0,True,1000,True,0.0
./expes/v2_2020-11-27_di_500-prng-2,daily_issda_500,500,rng-500,61,rng,num-start-251,251,536,13.306803941726685,True,,True,1,False,1000,True,1.0
./expes/v2_2020-11-27_di_500-prng-2,daily_issda_500,500,rng-500,61,rng,num-start-211,211,536,12.196699857711792,True,,True,1,False,1000,True,1.0
./expes/v2_2020-11-27_di_500-prng-2,daily_issda_500,500,rng-500,201,rng,num-start-11,11,536,1000.478767156601,False,,False,0,True,1000,True,0.0
./expes/v2_2020-11-27_di_500-prng-2,daily_issda_500,500,rng-500,311,rng,num-start-51,51,536,1001.9973216056824,False,,False,0,True,1000,True,0.0
./expes/v2_2020-11-27_di_500-prng-2,daily_issda_500,500,rng-500,121,rng,num-start-1,1,536,1.7606585025787354,False,,False,2,False,1000,True,1.0
./expes/v2_2020-11-27_di_500-prng-2,daily_issda_500,500,rng-500,101,rng,num-start-41,41,536,1001.5437223911285,False,,False,0,True,1000,True,0.0
./expes/v2_2020-11-27_di_500-prng-2,daily_issda_500,500,rng-500,191,rng,num-start-211,211,536,36.783212184906006,True,,True,1,False,1000,True,1.0
./expes/v2_2020-11-27_di_500-prng-2,daily_issda_500,500,rng-500,171,rng,num-start-121,121,536,1004.4335248470306,False,,False,0,True,1000,True,0.0
./expes/v2_2020-11-27_di_500-prng-2,daily_issda_500,500,rng-500,131,rng,num-start-91,91,536,1003.2772574424744,False,,False,0,True,1000,True,0.0
./expes/v2_2020-11-27_di_500-prng-2,daily_issda_500,500,rng-500,171,rng,num-start-151,151,536,1005.5632665157318,False,,False,0,True,1000,True,0.0
./expes/v2_2020-11-27_di_500-prng-2,daily_issda_500,500,rng-500,121,rng,num-start-21,21,536,1000.9651846885681,False,,False,0,True,1000,True,0.0
./expes/v2_2020-11-27_di_500-prng-2,daily_issda_500,500,rng-500,391,rng,num-start-291,291,536,21.23783040046692,True,,True,1,False,1000,True,1.0
./expes/v2_2020-11-27_di_500-prng-2,daily_issda_500,500,rng-500,21,rng,num-start-191,191,536,11.838428497314453,True,,True,1,False,1000,True,1.0
./expes/v2_2020-11-27_di_500-prng-2,daily_issda_500,500,rng-500,131,rng,num-start-21,21,536,1000.945817232132,False,,False,0,True,1000,True,0.0
./expes/v2_2020-11-27_di_500-prng-2,daily_issda_500,500,rng-500,431,rng,num-start-151,151,536,14.496111392974854,True,,True,1,False,1000,True,1.0
./expes/v2_2020-11-27_di_500-prng-2,daily_issda_500,500,rng-500,201,rng,num-start-241,241,536,34.71320557594299,True,,True,1,False,1000,True,1.0
./expes/v2_2020-11-27_di_500-prng-2,daily_issda_500,500,rng-500,151,rng,num-start-121,121,536,1004.2288892269135,False,,False,0,True,1000,True,0.0
./expes/v2_2020-11-27_di_500-prng-2,daily_issda_500,500,rng-500,171,rng,num-start-11,11,536,1000.5033106803894,False,,False,0,True,1000,True,0.0
./expes/v2_2020-11-27_di_500-prng-2,daily_issda_500,500,rng-500,21,rng,num-start-151,151,536,9.338645696640015,True,,True,1,False,1000,True,1.0
./expes/v2_2020-11-27_di_500-prng-2,daily_issda_500,500,rng-500,171,rng,num-start-231,231,536,28.95184826850891,True,,True,1,False,1000,True,1.0
./expes/v2_2020-11-27_di_500-prng-2,daily_issda_500,500,rng-500,241,rng,num-start-241,241,536,64.95585751533508,True,,True,1,False,1000,True,1.0
./expes/v2_2020-11-27_di_500-prng-2,daily_issda_500,500,rng-500,381,rng,num-start-21,21,536,1000.7999980449677,False,,False,0,True,1000,True,0.0
./expes/v2_2020-11-27_di_500-prng-2,daily_issda_500,500,rng-500,271,rng,num-start-41,41,536,1001.6175668239594,False,,False,0,True,1000,True,0.0
./expes/v2_2020-11-27_di_500-prng-2,daily_issda_500,500,rng-500,441,rng,num-start-151,151,536,10.22009825706482,True,,True,1,False,1000,True,1.0
./expes/v2_2020-11-27_di_500-prng-2,daily_issda_500,500,rng-500,51,rng,num-start-221,221,536,12.617937803268433,True,,True,1,False,1000,True,1.0
./expes/v2_2020-11-27_di_500-prng-2,daily_issda_500,500,rng-500,161,rng,num-start-91,91,536,1003.4084832668304,False,,False,0,True,1000,True,0.0
./expes/v2_2020-11-27_di_500-prng-2,daily_issda_500,500,rng-500,91,rng,num-start-281,281,536,20.82596707344055,True,,True,1,False,1000,True,1.0
./expes/v2_2020-11-27_di_500-prng-2,daily_issda_500,500,rng-500,61,rng,num-start-241,241,536,18.249119758605957,True,,True,1,False,1000,True,1.0
./expes/v2_2020-11-27_di_500-prng-2,daily_issda_500,500,rng-500,61,rng,num-start-1,1,536,1.4735376834869385,False,,False,2,False,1000,True,1.0
./expes/v2_2020-11-27_di_500-prng-2,daily_issda_500,500,rng-500,341,rng,num-start-281,281,536,22.849791526794434,True,,True,1,False,1000,True,1.0
./expes/v2_2020-11-27_di_500-prng-2,daily_issda_500,500,rng-500,271,rng,num-start-61,61,536,1002.188958644867,False,,False,0,True,1000,True,0.0
./expes/v2_2020-11-27_di_500-prng-2,daily_issda_500,500,rng-500,411,rng,num-start-1,1,536,5.083822965621948,False,,False,2,False,1000,True,1.0
./expes/v2_2020-11-27_di_500-prng-2,daily_issda_500,500,rng-500,111,rng,num-start-141,141,536,1005.341103553772,False,,False,0,True,1000,True,0.0
./expes/v2_2020-11-27_di_500-prng-2,daily_issda_500,500,rng-500,91,rng,num-start-151,151,536,104.05714774131775,True,,True,1,False,1000,True,1.0
./expes/v2_2020-11-27_di_500-prng-2,daily_issda_500,500,rng-500,151,rng,num-start-211,211,536,29.657698154449463,True,,True,1,False,1000,True,1.0
./expes/v2_2020-11-27_di_500-prng-2,daily_issda_500,500,rng-500,331,rng,num-start-191,191,536,28.461634874343872,True,,True,1,False,1000,True,1.0
./expes/v2_2020-11-27_di_500-prng-2,daily_issda_500,500,rng-500,421,rng,num-start-41,41,536,1001.6721787452698,False,,False,0,True,1000,True,0.0
./expes/v2_2020-11-27_di_500-prng-2,daily_issda_500,500,rng-500,191,rng,num-start-131,131,536,1004.8201093673706,False,,False,0,True,1000,True,0.0
./expes/v2_2020-11-27_di_500-prng-2,daily_issda_500,500,rng-500,101,rng,num-start-1,1,536,2.9097821712493896,False,,False,2,False,1000,True,1.0
./expes/v2_2020-11-27_di_500-prng-2,daily_issda_500,500,rng-500,71,rng,num-start-261,261,536,18.05014181137085,True,,True,1,False,1000,True,1.0
./expes/v2_2020-11-27_di_500-prng-2,daily_issda_500,500,rng-500,301,rng,num-start-191,191,536,1007.109959602356,False,,False,0,True,1000,True,0.0
./expes/v2_2020-11-27_di_500-prng-2,daily_issda_500,500,rng-500,431,rng,num-start-141,141,536,14.646156072616577,True,,True,1,False,1000,True,1.0
