,expe,clients,clients_size,clients_subset,agg_size,agg_size_pc,method,days,days_size,days_total,noise_method,time,valid,valid_sum,success,score_avg,score_min,score_max,nsols,oracle,wall_hit,wall_time,pooled,pool_size,optimal,valid_sums,uuid
0,./expes/v3_2021-01-22_di_4500-prng-1-w1-p100,daily_issda-4500,4500,first-4500,1344,29,rng,num-start-181,181,536,classic,1071.835832118988,False,,True,0.0,,,0,"Index(['1', '4', '6', '8', '9', '10', '13', '14', '15', '17',
       ...
       '4471', '4473', '4481', '4484', '4486', '4491', '4492', '4493', '4498',
       '4499'],
      dtype='object', length=1344)",True,1000,True,100,0.0,0.0,8a11444f7d
1,./expes/v3_2021-01-22_di_4500-prng-1-w1-p100,daily_issda-4500,4500,first-4500,2240,49,rng,num-start-191,191,536,classic,1077.0958178043363,False,,True,0.0,,,0,"Index(['1', '2', '3', '4', '7', '8', '9', '10', '11', '13',
       ...
       '4486', '4488', '4489', '4491', '4492', '4493', '4494', '4496', '4499',
       '4500'],
      dtype='object', length=2240)",True,1000,True,100,0.0,0.0,0e7ad54828
2,./expes/v3_2021-01-22_di_4500-prng-1-w1-p100,daily_issda-4500,4500,first-4500,224,4,rng,num-start-111,111,536,classic,1044.9790587425232,False,,True,0.0,,,0,"Index(['18', '25', '34', '41', '47', '119', '128', '246', '250', '261',
       ...
       '4353', '4365', '4372', '4374', '4384', '4391', '4451', '4468', '4469',
       '4482'],
      dtype='object', length=224)",True,1000,True,100,0.0,0.0,eb8f0b4c82
3,./expes/v3_2021-01-22_di_4500-prng-1-w1-p100,daily_issda-4500,4500,first-4500,896,19,rng,num-start-231,231,536,classic,1098.3106172084808,False,,True,0.0,,,0,"Index(['14', '15', '16', '20', '23', '29', '30', '39', '41', '57',
       ...
       '4441', '4450', '4456', '4459', '4460', '4463', '4473', '4482', '4484',
       '4493'],
      dtype='object', length=896)",True,1000,True,100,0.0,0.0,650860ace5
4,./expes/v3_2021-01-22_di_4500-prng-1-w1-p100,daily_issda-4500,4500,first-4500,1792,39,rng,num-start-101,101,536,classic,1040.8407275676727,False,,True,0.0,,,0,"Index(['2', '3', '4', '7', '8', '10', '11', '13', '15', '16',
       ...
       '4484', '4486', '4488', '4489', '4491', '4492', '4493', '4494', '4499',
       '4500'],
      dtype='object', length=1792)",True,1000,True,100,0.0,0.0,a8c7195e65
5,./expes/v3_2021-01-22_di_4500-prng-1-w1-p100,daily_issda-4500,4500,first-4500,2128,47,rng,num-start-1,1,536,classic,21.52723789215088,False,,True,0.2940417918606314,0.2931290127780545,0.2953335612125954,10,"Index(['1', '3', '5', '6', '7', '13', '14', '15', '17', '18',
       ...
       '4474', '4477', '4482', '4484', '4485', '4487', '4492', '4494', '4499',
       '4500'],
      dtype='object', length=2128)",False,1000,True,100,1.0,0.0,5dbfb0edcb
6,./expes/v3_2021-01-22_di_4500-prng-1-w1-p100,daily_issda-4500,4500,first-4500,784,17,rng,num-start-151,151,536,classic,1058.6683933734894,False,,True,0.0,,,0,"Index(['5', '6', '12', '27', '32', '41', '44', '45', '48', '51',
       ...
       '4456', '4457', '4458', '4460', '4469', '4470', '4474', '4477', '4482',
       '4495'],
      dtype='object', length=784)",True,1000,True,100,0.0,0.0,11e6efc32d
7,./expes/v3_2021-01-22_di_4500-prng-1-w1-p100,daily_issda-4500,4500,first-4500,224,4,rng,num-start-111,111,536,classic,1044.8086533546448,False,,True,0.0,,,0,"Index(['13', '18', '47', '70', '76', '101', '120', '137', '141', '147',
       ...
       '4321', '4323', '4412', '4421', '4425', '4436', '4463', '4490', '4492',
       '4496'],
      dtype='object', length=224)",True,1000,True,100,0.0,0.0,a597bfd380
8,./expes/v3_2021-01-22_di_4500-prng-1-w1-p100,daily_issda-4500,4500,first-4500,2128,47,rng,num-start-111,111,536,classic,1042.9540812969208,False,,True,0.0,,,0,"Index(['1', '3', '5', '6', '7', '13', '14', '15', '17', '18',
       ...
       '4474', '4477', '4482', '4484', '4485', '4487', '4492', '4494', '4499',
       '4500'],
      dtype='object', length=2128)",True,1000,True,100,0.0,0.0,526bb784e3
9,./expes/v3_2021-01-22_di_4500-prng-1-w1-p100,daily_issda-4500,4500,first-4500,2240,49,rng,num-start-231,231,536,classic,1096.9116914272308,False,,True,0.0,,,0,"Index(['1', '2', '3', '4', '7', '8', '9', '11', '16', '19',
       ...
       '4479', '4482', '4483', '4486', '4493', '4495', '4497', '4498', '4499',
       '4500'],
      dtype='object', length=2240)",True,1000,True,100,0.0,0.0,26a05f0040
10,./expes/v3_2021-01-22_di_4500-prng-1-w1-p100,daily_issda-4500,4500,first-4500,896,19,rng,num-start-261,261,536,classic,1107.026935338974,False,,True,0.0,,,0,"Index(['1', '2', '3', '10', '13', '16', '20', '27', '28', '31',
       ...
       '4460', '4467', '4474', '4477', '4479', '4483', '4485', '4494', '4495',
       '4499'],
      dtype='object', length=896)",True,1000,True,100,0.0,0.0,7b6cbe133d
11,./expes/v3_2021-01-22_di_4500-prng-1-w1-p100,daily_issda-4500,4500,first-4500,2128,47,rng,num-start-31,31,536,classic,1012.562867641449,False,,True,0.0,,,0,"Index(['1', '2', '3', '4', '12', '14', '15', '16', '17', '19',
       ...
       '4474', '4475', '4477', '4479', '4481', '4483', '4490', '4493', '4495',
       '4500'],
      dtype='object', length=2128)",True,1000,True,100,0.0,0.0,ecff437e59
12,./expes/v3_2021-01-22_di_4500-prng-1-w1-p100,daily_issda-4500,4500,first-4500,1456,32,rng,num-start-271,271,536,classic,1108.5785772800446,False,,True,0.0,,,0,"Index(['1', '2', '3', '4', '6', '9', '10', '13', '14', '16',
       ...
       '4474', '4477', '4479', '4483', '4485', '4492', '4494', '4495', '4497',
       '4499'],
      dtype='object', length=1456)",True,1000,True,100,0.0,0.0,0403ee6e4d
13,./expes/v3_2021-01-22_di_4500-prng-1-w1-p100,daily_issda-4500,4500,first-4500,896,19,rng,num-start-161,161,536,classic,1063.804379940033,False,,True,0.0,,,0,"Index(['4', '5', '12', '32', '38', '41', '56', '77', '78', '79',
       ...
       '4454', '4457', '4458', '4463', '4469', '4474', '4480', '4484', '4492',
       '4495'],
      dtype='object', length=896)",True,1000,True,100,0.0,0.0,f6054cf139
14,./expes/v3_2021-01-22_di_4500-prng-1-w1-p100,daily_issda-4500,4500,first-4500,1680,37,rng,num-start-251,251,536,classic,1106.5545105934143,False,,True,0.0,,,0,"Index(['5', '7', '8', '10', '14', '17', '22', '23', '27', '29',
       ...
       '4470', '4472', '4475', '4478', '4480', '4483', '4487', '4489', '4497',
       '4500'],
      dtype='object', length=1680)",True,1000,True,100,0.0,0.0,01adc4550e
15,./expes/v3_2021-01-22_di_4500-prng-1-w1-p100,daily_issda-4500,4500,first-4500,1680,37,rng,num-start-191,191,536,classic,1078.9941730499268,False,,True,0.0,,,0,"Index(['4', '5', '6', '8', '9', '10', '12', '15', '16', '17',
       ...
       '4469', '4474', '4475', '4478', '4480', '4482', '4486', '4489', '4495',
       '4498'],
      dtype='object', length=1680)",True,1000,True,100,0.0,0.0,ab881df03a
16,./expes/v3_2021-01-22_di_4500-prng-1-w1-p100,daily_issda-4500,4500,first-4500,1232,27,rng,num-start-261,261,536,classic,1109.6820611953735,False,,True,0.0,,,0,"Index(['1', '2', '3', '4', '14', '16', '17', '24', '25', '28',
       ...
       '4471', '4474', '4477', '4479', '4481', '4483', '4490', '4493', '4495',
       '4500'],
      dtype='object', length=1232)",True,1000,True,100,0.0,0.0,6ef0cf4fb9
17,./expes/v3_2021-01-22_di_4500-prng-1-w1-p100,daily_issda-4500,4500,first-4500,1344,29,rng,num-start-81,81,536,classic,1034.8961749076843,False,,True,0.0,,,0,"Index(['5', '7', '10', '21', '24', '25', '29', '30', '34', '36',
       ...
       '4464', '4465', '4467', '4469', '4474', '4477', '4480', '4484', '4498',
       '4499'],
      dtype='object', length=1344)",True,1000,True,100,0.0,0.0,783507c1c3
18,./expes/v3_2021-01-22_di_4500-prng-1-w1-p100,daily_issda-4500,4500,first-4500,448,9,rng,num-start-191,191,536,classic,1080.1475870609283,False,,True,0.0,,,0,"Index(['15', '29', '39', '41', '57', '60', '62', '94', '108', '125',
       ...
       '4390', '4400', '4408', '4432', '4435', '4439', '4456', '4459', '4460',
       '4493'],
      dtype='object', length=448)",True,1000,True,100,0.0,0.0,f7d95bd68e
19,./expes/v3_2021-01-22_di_4500-prng-1-w1-p100,daily_issda-4500,4500,first-4500,1792,39,rng,num-start-251,251,536,classic,1106.216658592224,False,,True,0.0,,,0,"Index(['2', '3', '4', '7', '8', '10', '11', '13', '15', '16',
       ...
       '4484', '4486', '4488', '4489', '4491', '4492', '4493', '4494', '4499',
       '4500'],
      dtype='object', length=1792)",True,1000,True,100,0.0,0.0,0d23844d07
20,./expes/v3_2021-01-22_di_4500-prng-1-w1-p100,daily_issda-4500,4500,first-4500,560,12,rng,num-start-131,131,536,classic,1055.7488820552826,False,,True,0.0,,,0,"Index(['4', '10', '13', '22', '23', '27', '40', '44', '51', '80',
       ...
       '4439', '4440', '4447', '4451', '4456', '4464', '4466', '4471', '4481',
       '4483'],
      dtype='object', length=560)",True,1000,True,100,0.0,0.0,ae509de547
21,./expes/v3_2021-01-22_di_4500-prng-1-w1-p100,daily_issda-4500,4500,first-4500,112,2,rng,num-start-181,181,536,classic,1078.1011900901794,False,,True,0.0,,,0,"Index(['6', '32', '44', '53', '68', '144', '151', '193', '209', '281',
       ...
       '4070', '4075', '4103', '4119', '4137', '4148', '4240', '4277', '4404',
       '4422'],
      dtype='object', length=112)",True,1000,True,100,0.0,0.0,889e9f29f3
22,./expes/v3_2021-01-22_di_4500-prng-1-w1-p100,daily_issda-4500,4500,first-4500,2240,49,rng,num-start-41,41,536,classic,1017.136679649353,False,,True,0.0,,,0,"Index(['1', '2', '4', '5', '7', '8', '10', '11', '12', '13',
       ...
       '4483', '4487', '4491', '4492', '4493', '4494', '4495', '4496', '4497',
       '4498'],
      dtype='object', length=2240)",True,1000,True,100,0.0,0.0,27f93ceff3
23,./expes/v3_2021-01-22_di_4500-prng-1-w1-p100,daily_issda-4500,4500,first-4500,1120,24,rng,num-start-71,71,536,classic,1028.031008720398,False,,True,0.0,,,0,"Index(['5', '7', '13', '18', '25', '29', '32', '33', '35', '40',
       ...
       '4471', '4473', '4481', '4482', '4487', '4490', '4492', '4496', '4499',
       '4500'],
      dtype='object', length=1120)",True,1000,True,100,0.0,0.0,dd401ec10e
24,./expes/v3_2021-01-22_di_4500-prng-1-w1-p100,daily_issda-4500,4500,first-4500,112,2,rng,num-start-221,221,536,classic,1094.26593542099,False,,True,0.0,,,0,"Index(['34', '42', '122', '261', '267', '282', '303', '358', '363', '366',
       ...
       '4096', '4112', '4261', '4266', '4276', '4304', '4371', '4394', '4464',
       '4498'],
      dtype='object', length=112)",True,1000,True,100,0.0,0.0,9755fed24a
25,./expes/v3_2021-01-22_di_4500-prng-1-w1-p100,daily_issda-4500,4500,first-4500,224,4,rng,num-start-81,81,536,classic,1034.0985689163208,False,,True,0.0,,,0,"Index(['15', '28', '44', '75', '95', '108', '149', '177', '188', '227',
       ...
       '4337', '4343', '4357', '4371', '4418', '4455', '4466', '4481', '4491',
       '4498'],
      dtype='object', length=224)",True,1000,True,100,0.0,0.0,32a0f81b73
26,./expes/v3_2021-01-22_di_4500-prng-1-w1-p100,daily_issda-4500,4500,first-4500,2240,49,rng,num-start-171,171,536,classic,1069.88600730896,False,,True,0.0,,,0,"Index(['3', '4', '5', '6', '7', '8', '10', '11', '14', '16',
       ...
       '4478', '4480', '4483', '4487', '4488', '4489', '4492', '4496', '4497',
       '4500'],
      dtype='object', length=2240)",True,1000,True,100,0.0,0.0,2f0cbf53da
27,./expes/v3_2021-01-22_di_4500-prng-1-w1-p100,daily_issda-4500,4500,first-4500,1008,22,rng,num-start-51,51,536,classic,1020.0126438140868,False,,True,0.0,,,0,"Index(['2', '9', '10', '12', '15', '16', '24', '28', '29', '30',
       ...
       '4460', '4462', '4473', '4482', '4488', '4490', '4492', '4495', '4499',
       '4500'],
      dtype='object', length=1008)",True,1000,True,100,0.0,0.0,7ffe34a708
28,./expes/v3_2021-01-22_di_4500-prng-1-w1-p100,daily_issda-4500,4500,first-4500,1568,34,rng,num-start-171,171,536,classic,1066.4545724391935,False,,True,0.0,,,0,"Index(['1', '4', '6', '8', '9', '10', '13', '14', '15', '16',
       ...
       '4476', '4481', '4484', '4486', '4490', '4491', '4492', '4493', '4498',
       '4499'],
      dtype='object', length=1568)",True,1000,True,100,0.0,0.0,2c3d6e1197
29,./expes/v3_2021-01-22_di_4500-prng-1-w1-p100,daily_issda-4500,4500,first-4500,784,17,rng,num-start-131,131,536,classic,1053.786768436432,False,,True,0.0,,,0,"Index(['4', '5', '32', '38', '41', '56', '77', '78', '79', '84',
       ...
       '4448', '4451', '4454', '4457', '4458', '4463', '4469', '4474', '4480',
       '4495'],
      dtype='object', length=784)",True,1000,True,100,0.0,0.0,f54a218f1a
30,./expes/v3_2021-01-22_di_4500-prng-1-w1-p100,daily_issda-4500,4500,first-4500,1456,32,rng,num-start-171,171,536,classic,1071.012895345688,False,,True,0.0,,,0,"Index(['1', '2', '3', '4', '6', '9', '10', '13', '14', '16',
       ...
       '4474', '4477', '4479', '4483', '4485', '4492', '4494', '4495', '4497',
       '4499'],
      dtype='object', length=1456)",True,1000,True,100,0.0,0.0,7b1b0c3f4b
31,./expes/v3_2021-01-22_di_4500-prng-1-w1-p100,daily_issda-4500,4500,first-4500,784,17,rng,num-start-131,131,536,classic,1055.9324061870575,False,,True,0.0,,,0,"Index(['16', '21', '24', '31', '38', '43', '46', '51', '55', '62',
       ...
       '4453', '4454', '4460', '4469', '4475', '4482', '4488', '4494', '4495',
       '4499'],
      dtype='object', length=784)",True,1000,True,100,0.0,0.0,12b20a42ee
32,./expes/v3_2021-01-22_di_4500-prng-1-w1-p100,daily_issda-4500,4500,first-4500,1344,29,rng,num-start-11,11,536,classic,1004.3611233234406,False,,True,0.0,,,0,"Index(['4', '8', '9', '14', '20', '24', '31', '33', '35', '36',
       ...
       '4476', '4477', '4478', '4486', '4490', '4492', '4493', '4496', '4497',
       '4499'],
      dtype='object', length=1344)",True,1000,True,100,0.0,0.0,68b6e94a41
33,./expes/v3_2021-01-22_di_4500-prng-1-w1-p100,daily_issda-4500,4500,first-4500,672,14,rng,num-start-181,181,536,classic,1080.329006910324,False,,True,0.0,,,0,"Index(['5', '6', '8', '10', '16', '17', '18', '25', '27', '31',
       ...
       '4393', '4395', '4397', '4408', '4451', '4466', '4468', '4469', '4480',
       '4482'],
      dtype='object', length=672)",True,1000,True,100,0.0,0.0,9c967a8054
34,./expes/v3_2021-01-22_di_4500-prng-1-w1-p100,daily_issda-4500,4500,first-4500,896,19,rng,num-start-201,201,536,classic,1087.784673690796,False,,True,0.0,,,0,"Index(['1', '4', '6', '8', '9', '13', '14', '15', '20', '24',
       ...
       '4470', '4471', '4473', '4481', '4484', '4491', '4492', '4493', '4498',
       '4499'],
      dtype='object', length=896)",True,1000,True,100,0.0,0.0,4a3ee2a88d
35,./expes/v3_2021-01-22_di_4500-prng-1-w1-p100,daily_issda-4500,4500,first-4500,1568,34,rng,num-start-251,251,536,classic,1109.4314296245575,False,,True,0.0,,,0,"Index(['5', '7', '10', '21', '24', '25', '29', '30', '34', '36',
       ...
       '4469', '4474', '4477', '4480', '4484', '4488', '4494', '4495', '4498',
       '4499'],
      dtype='object', length=1568)",True,1000,True,100,0.0,0.0,bcb403533a
36,./expes/v3_2021-01-22_di_4500-prng-1-w1-p100,daily_issda-4500,4500,first-4500,1680,37,rng,num-start-171,171,536,classic,1071.8428440093994,False,,True,0.0,,,0,"Index(['4', '6', '7', '10', '11', '12', '16', '17', '18', '19',
       ...
       '4479', '4481', '4482', '4487', '4488', '4490', '4494', '4495', '4499',
       '4500'],
      dtype='object', length=1680)",True,1000,True,100,0.0,0.0,a226e73577
37,./expes/v3_2021-01-22_di_4500-prng-1-w1-p100,daily_issda-4500,4500,first-4500,896,19,rng,num-start-71,71,536,classic,1028.5886433124542,False,,True,0.0,,,0,"Index(['2', '4', '10', '11', '13', '22', '23', '25', '26', '27',
       ...
       '4449', '4451', '4456', '4464', '4466', '4467', '4471', '4481', '4483',
       '4494'],
      dtype='object', length=896)",True,1000,True,100,0.0,0.0,0a1f08e588
38,./expes/v3_2021-01-22_di_4500-prng-1-w1-p100,daily_issda-4500,4500,first-4500,2240,49,rng,num-start-1,1,536,classic,28.57121229171753,False,,True,0.2980880400081996,0.2837577996717823,0.3029449430716252,10,"Index(['1', '2', '3', '4', '5', '7', '9', '10', '11', '12',
       ...
       '4483', '4484', '4489', '4490', '4491', '4494', '4496', '4497', '4499',
       '4500'],
      dtype='object', length=2240)",False,1000,True,100,1.0,1.0,fdbdc787a3
39,./expes/v3_2021-01-22_di_4500-prng-1-w1-p100,daily_issda-4500,4500,first-4500,336,7,rng,num-start-11,11,536,classic,1004.951648235321,False,,True,0.0,,,0,"Index(['1', '3', '5', '15', '40', '64', '87', '125', '141', '157',
       ...
       '4377', '4382', '4412', '4435', '4444', '4452', '4463', '4468', '4473',
       '4493'],
      dtype='object', length=336)",True,1000,True,100,0.0,0.0,77585f2b3b
40,./expes/v3_2021-01-22_di_4500-prng-1-w1-p100,daily_issda-4500,4500,first-4500,784,17,rng,num-start-241,241,536,classic,1099.1529777050018,False,,True,0.0,,,0,"Index(['14', '20', '31', '33', '49', '51', '55', '60', '64', '67',
       ...
       '4468', '4475', '4476', '4478', '4490', '4492', '4493', '4496', '4497',
       '4499'],
      dtype='object', length=784)",True,1000,True,100,0.0,0.0,8e98a958d3
41,./expes/v3_2021-01-22_di_4500-prng-1-w1-p100,daily_issda-4500,4500,first-4500,1232,27,rng,num-start-31,31,536,classic,1012.7402899265288,False,,True,0.0,,,0,"Index(['1', '2', '3', '4', '14', '16', '17', '24', '25', '28',
       ...
       '4471', '4474', '4477', '4479', '4481', '4483', '4490', '4493', '4495',
       '4500'],
      dtype='object', length=1232)",True,1000,True,100,0.0,0.0,7c5458ce35
42,./expes/v3_2021-01-22_di_4500-prng-1-w1-p100,daily_issda-4500,4500,first-4500,1456,32,rng,num-start-121,121,536,classic,1050.704821586609,False,,True,0.0,,,0,"Index(['4', '5', '8', '12', '22', '28', '29', '32', '33', '38',
       ...
       '4474', '4475', '4480', '4482', '4484', '4488', '4489', '4491', '4492',
       '4495'],
      dtype='object', length=1456)",True,1000,True,100,0.0,0.0,6cde0ea0ee
43,./expes/v3_2021-01-22_di_4500-prng-1-w1-p100,daily_issda-4500,4500,first-4500,1008,22,rng,num-start-191,191,536,classic,1081.512986421585,False,,True,0.0,,,0,"Index(['1', '7', '19', '26', '39', '40', '42', '43', '47', '58',
       ...
       '4446', '4449', '4455', '4460', '4462', '4467', '4468', '4484', '4487',
       '4499'],
      dtype='object', length=1008)",True,1000,True,100,0.0,0.0,829d6ff5ef
44,./expes/v3_2021-01-22_di_4500-prng-1-w1-p100,daily_issda-4500,4500,first-4500,336,7,rng,num-start-41,41,536,classic,1016.6472351551056,False,,True,0.0,,,0,"Index(['13', '18', '47', '70', '76', '87', '101', '102', '120', '137',
       ...
       '4421', '4425', '4436', '4437', '4448', '4463', '4487', '4490', '4492',
       '4496'],
      dtype='object', length=336)",True,1000,True,100,0.0,0.0,ffca746009
45,./expes/v3_2021-01-22_di_4500-prng-1-w1-p100,daily_issda-4500,4500,first-4500,1792,39,rng,num-start-271,271,536,classic,1117.09805226326,False,,True,0.0,,,0,"Index(['4', '5', '7', '10', '21', '24', '25', '29', '30', '34',
       ...
       '4472', '4474', '4477', '4480', '4484', '4488', '4494', '4495', '4498',
       '4499'],
      dtype='object', length=1792)",True,1000,True,100,0.0,0.0,d0a588caa6
46,./expes/v3_2021-01-22_di_4500-prng-1-w1-p100,daily_issda-4500,4500,first-4500,2240,49,rng,num-start-61,61,536,classic,1024.5933628082275,False,,True,0.0,,,0,"Index(['1', '2', '3', '4', '7', '8', '9', '10', '11', '13',
       ...
       '4486', '4488', '4489', '4491', '4492', '4493', '4494', '4496', '4499',
       '4500'],
      dtype='object', length=2240)",True,1000,True,100,0.0,0.0,01d4976cf1
47,./expes/v3_2021-01-22_di_4500-prng-1-w1-p100,daily_issda-4500,4500,first-4500,224,4,rng,num-start-211,211,536,classic,1086.0957925319672,False,,True,0.0,,,0,"Index(['25', '38', '55', '98', '109', '139', '164', '186', '210', '249',
       ...
       '4290', '4307', '4320', '4325', '4332', '4334', '4357', '4422', '4465',
       '4484'],
      dtype='object', length=224)",True,1000,True,100,0.0,0.0,ad3e25cf3f
48,./expes/v3_2021-01-22_di_4500-prng-1-w1-p100,daily_issda-4500,4500,first-4500,1120,24,rng,num-start-61,61,536,classic,1025.4207198619845,False,,True,0.0,,,0,"Index(['2', '4', '9', '10', '12', '15', '16', '22', '24', '28',
       ...
       '4460', '4462', '4473', '4482', '4488', '4490', '4492', '4495', '4499',
       '4500'],
      dtype='object', length=1120)",True,1000,True,100,0.0,0.0,f323d2f888
49,./expes/v3_2021-01-22_di_4500-prng-1-w1-p100,daily_issda-4500,4500,first-4500,1680,37,rng,num-start-241,241,536,classic,1093.77702999115,False,,True,0.0,,,0,"Index(['1', '2', '3', '4', '12', '14', '16', '17', '19', '23',
       ...
       '4474', '4475', '4477', '4479', '4481', '4483', '4490', '4493', '4495',
       '4500'],
      dtype='object', length=1680)",True,1000,True,100,0.0,0.0,417d9a1b55
50,./expes/v3_2021-01-22_di_4500-prng-1-w1-p100,daily_issda-4500,4500,first-4500,448,9,rng,num-start-151,151,536,classic,1060.362114429474,False,,True,0.0,,,0,"Index(['47', '51', '52', '55', '72', '74', '91', '106', '117', '133',
       ...
       '4416', '4425', '4434', '4444', '4453', '4461', '4464', '4465', '4474',
       '4494'],
      dtype='object', length=448)",True,1000,True,100,0.0,0.0,66eadfabfc
51,./expes/v3_2021-01-22_di_4500-prng-1-w1-p100,daily_issda-4500,4500,first-4500,560,12,rng,num-start-41,41,536,classic,1016.8579692840576,False,,True,0.0,,,0,"Index(['2', '9', '16', '28', '30', '33', '34', '41', '95', '99',
       ...
       '4430', '4437', '4450', '4460', '4473', '4482', '4488', '4492', '4495',
       '4499'],
      dtype='object', length=560)",True,1000,True,100,0.0,0.0,c7cdd91d78
52,./expes/v3_2021-01-22_di_4500-prng-1-w1-p100,daily_issda-4500,4500,first-4500,1344,29,rng,num-start-181,181,536,classic,1071.8611090183258,False,,True,0.0,,,0,"Index(['1', '2', '3', '4', '14', '16', '17', '24', '25', '28',
       ...
       '4474', '4475', '4477', '4479', '4481', '4483', '4490', '4493', '4495',
       '4500'],
      dtype='object', length=1344)",True,1000,True,100,0.0,0.0,c9771c2582
53,./expes/v3_2021-01-22_di_4500-prng-1-w1-p100,daily_issda-4500,4500,first-4500,2016,44,rng,num-start-131,131,536,classic,1052.3546364307404,False,,True,0.0,,,0,"Index(['1', '2', '3', '4', '8', '9', '11', '16', '19', '20',
       ...
       '4477', '4479', '4482', '4483', '4486', '4495', '4497', '4498', '4499',
       '4500'],
      dtype='object', length=2016)",True,1000,True,100,0.0,0.0,e90854f139
54,./expes/v3_2021-01-22_di_4500-prng-1-w1-p100,daily_issda-4500,4500,first-4500,224,4,rng,num-start-191,191,536,classic,1082.148814678192,False,,True,0.0,,,0,"Index(['13', '18', '47', '70', '76', '101', '120', '137', '141', '147',
       ...
       '4321', '4323', '4412', '4421', '4425', '4436', '4463', '4490', '4492',
       '4496'],
      dtype='object', length=224)",True,1000,True,100,0.0,0.0,336d36e52d
55,./expes/v3_2021-01-22_di_4500-prng-1-w1-p100,daily_issda-4500,4500,first-4500,784,17,rng,num-start-181,181,536,classic,1077.4822795391085,False,,True,0.0,,,0,"Index(['1', '4', '6', '8', '9', '13', '14', '15', '24', '25',
       ...
       '4470', '4471', '4473', '4481', '4484', '4491', '4492', '4493', '4498',
       '4499'],
      dtype='object', length=784)",True,1000,True,100,0.0,0.0,b9df7be9c9
56,./expes/v3_2021-01-22_di_4500-prng-1-w1-p100,daily_issda-4500,4500,first-4500,1120,24,rng,num-start-51,51,536,classic,1021.7115471363068,False,,True,0.0,,,0,"Index(['5', '6', '12', '16', '17', '24', '27', '32', '41', '42',
       ...
       '4468', '4469', '4470', '4473', '4474', '4477', '4482', '4493', '4495',
       '4499'],
      dtype='object', length=1120)",True,1000,True,100,0.0,0.0,2f8bd10fb8
57,./expes/v3_2021-01-22_di_4500-prng-1-w1-p100,daily_issda-4500,4500,first-4500,1008,22,rng,num-start-121,121,536,classic,1047.114724636078,False,,True,0.0,,,0,"Index(['5', '8', '14', '17', '22', '27', '30', '39', '40', '43',
       ...
       '4459', '4460', '4465', '4467', '4469', '4470', '4475', '4483', '4487',
       '4500'],
      dtype='object', length=1008)",True,1000,True,100,0.0,0.0,d5597b153b
58,./expes/v3_2021-01-22_di_4500-prng-1-w1-p100,daily_issda-4500,4500,first-4500,1568,34,rng,num-start-31,31,536,classic,1013.209635734558,False,,True,0.0,,,0,"Index(['1', '2', '3', '4', '5', '6', '9', '10', '13', '14',
       ...
       '4477', '4479', '4483', '4485', '4488', '4492', '4494', '4495', '4497',
       '4499'],
      dtype='object', length=1568)",True,1000,True,100,0.0,0.0,63bf22bf7f
59,./expes/v3_2021-01-22_di_4500-prng-1-w1-p100,daily_issda-4500,4500,first-4500,2016,44,rng,num-start-111,111,536,classic,1046.57093834877,False,,True,0.0,,,0,"Index(['2', '3', '4', '7', '8', '9', '10', '11', '13', '15',
       ...
       '4486', '4488', '4489', '4491', '4492', '4493', '4494', '4496', '4499',
       '4500'],
      dtype='object', length=2016)",True,1000,True,100,0.0,0.0,0cca83a021
60,./expes/v3_2021-01-22_di_4500-prng-1-w1-p100,daily_issda-4500,4500,first-4500,1344,29,rng,num-start-61,61,536,classic,1026.323457479477,False,,True,0.0,,,0,"Index(['4', '6', '10', '16', '19', '20', '21', '24', '25', '31',
       ...
       '4477', '4479', '4482', '4487', '4488', '4490', '4494', '4495', '4499',
       '4500'],
      dtype='object', length=1344)",True,1000,True,100,0.0,0.0,b40de6de37
61,./expes/v3_2021-01-22_di_4500-prng-1-w1-p100,daily_issda-4500,4500,first-4500,560,12,rng,num-start-291,291,536,classic,1117.3917429447174,False,,True,0.0,,,0,"Index(['4', '10', '13', '22', '23', '27', '40', '44', '51', '80',
       ...
       '4439', '4440', '4447', '4451', '4456', '4464', '4466', '4471', '4481',
       '4483'],
      dtype='object', length=560)",True,1000,True,100,0.0,0.0,123ab71178
62,./expes/v3_2021-01-22_di_4500-prng-1-w1-p100,daily_issda-4500,4500,first-4500,1792,39,rng,num-start-161,161,536,classic,1065.868170261383,False,,True,0.0,,,0,"Index(['5', '6', '9', '12', '15', '16', '17', '24', '27', '32',
       ...
       '4477', '4478', '4480', '4482', '4487', '4490', '4493', '4495', '4498',
       '4499'],
      dtype='object', length=1792)",True,1000,True,100,0.0,0.0,0d282d91e7
63,./expes/v3_2021-01-22_di_4500-prng-1-w1-p100,daily_issda-4500,4500,first-4500,2128,47,rng,num-start-161,161,536,classic,1064.9237298965454,False,,True,0.0,,,0,"Index(['1', '3', '5', '6', '7', '13', '14', '15', '17', '18',
       ...
       '4474', '4477', '4482', '4484', '4485', '4487', '4492', '4494', '4499',
       '4500'],
      dtype='object', length=2128)",True,1000,True,100,0.0,0.0,e9fd3d8ddc
64,./expes/v3_2021-01-22_di_4500-prng-1-w1-p100,daily_issda-4500,4500,first-4500,1232,27,rng,num-start-201,201,536,classic,1084.3985121250153,False,,True,0.0,,,0,"Index(['1', '2', '3', '4', '8', '9', '19', '25', '28', '30',
       ...
       '4442', '4447', '4449', '4457', '4469', '4472', '4473', '4479', '4486',
       '4498'],
      dtype='object', length=1232)",True,1000,True,100,0.0,0.0,342bad7b37
65,./expes/v3_2021-01-22_di_4500-prng-1-w1-p100,daily_issda-4500,4500,first-4500,1792,39,rng,num-start-161,161,536,classic,1069.8766326904297,False,,True,0.0,,,0,"Index(['4', '5', '6', '8', '9', '10', '12', '14', '15', '16',
       ...
       '4469', '4474', '4475', '4478', '4480', '4482', '4486', '4489', '4495',
       '4498'],
      dtype='object', length=1792)",True,1000,True,100,0.0,0.0,6c1f9cbcaf
66,./expes/v3_2021-01-22_di_4500-prng-1-w1-p100,daily_issda-4500,4500,first-4500,560,12,rng,num-start-21,21,536,classic,1008.9432179927826,False,,True,0.0,,,0,"Index(['47', '49', '51', '52', '55', '72', '74', '91', '106', '117',
       ...
       '4443', '4444', '4453', '4454', '4461', '4464', '4465', '4474', '4494',
       '4500'],
      dtype='object', length=560)",True,1000,True,100,0.0,0.0,c2ddd37c7f
67,./expes/v3_2021-01-22_di_4500-prng-1-w1-p100,daily_issda-4500,4500,first-4500,1568,34,rng,num-start-111,111,536,classic,1044.444918870926,False,,True,0.0,,,0,"Index(['5', '6', '12', '15', '16', '17', '24', '27', '32', '37',
       ...
       '4474', '4477', '4478', '4482', '4487', '4490', '4493', '4495', '4498',
       '4499'],
      dtype='object', length=1568)",True,1000,True,100,0.0,0.0,38c7eb1d1f
68,./expes/v3_2021-01-22_di_4500-prng-1-w1-p100,daily_issda-4500,4500,first-4500,1344,29,rng,num-start-1,1,536,classic,34.739651918411255,False,,True,0.3528152540896431,0.3515110661618709,0.3535708562266567,10,"Index(['5', '7', '13', '18', '25', '29', '30', '32', '33', '35',
       ...
       '4473', '4476', '4481', '4482', '4487', '4490', '4492', '4496', '4499',
       '4500'],
      dtype='object', length=1344)",False,1000,True,100,1.0,1.0,b3add48f83
69,./expes/v3_2021-01-22_di_4500-prng-1-w1-p100,daily_issda-4500,4500,first-4500,1008,22,rng,num-start-291,291,536,classic,1123.960637807846,False,,True,0.0,,,0,"Index(['5', '8', '14', '17', '22', '27', '30', '39', '40', '43',
       ...
       '4459', '4460', '4465', '4467', '4469', '4470', '4475', '4483', '4487',
       '4500'],
      dtype='object', length=1008)",True,1000,True,100,0.0,0.0,359636c611
70,./expes/v3_2021-01-22_di_4500-prng-1-w1-p100,daily_issda-4500,4500,first-4500,2016,44,rng,num-start-231,231,536,classic,1095.1947038173676,False,,True,0.0,,,0,"Index(['1', '4', '6', '8', '9', '10', '11', '13', '14', '15',
       ...
       '4484', '4485', '4486', '4490', '4491', '4492', '4493', '4498', '4499',
       '4500'],
      dtype='object', length=2016)",True,1000,True,100,0.0,0.0,c29a4275f5
71,./expes/v3_2021-01-22_di_4500-prng-1-w1-p100,daily_issda-4500,4500,first-4500,1008,22,rng,num-start-251,251,536,classic,1106.8572545051577,False,,True,0.0,,,0,"Index(['4', '5', '12', '32', '38', '41', '56', '77', '78', '79',
       ...
       '4458', '4463', '4469', '4474', '4475', '4480', '4484', '4489', '4492',
       '4495'],
      dtype='object', length=1008)",True,1000,True,100,0.0,0.0,094aac9a39
72,./expes/v3_2021-01-22_di_4500-prng-1-w1-p100,daily_issda-4500,4500,first-4500,560,12,rng,num-start-191,191,536,classic,1084.373604774475,False,,True,0.0,,,0,"Index(['7', '13', '18', '29', '32', '33', '47', '62', '70', '76',
       ...
       '4459', '4463', '4467', '4468', '4469', '4487', '4490', '4492', '4496',
       '4500'],
      dtype='object', length=560)",True,1000,True,100,0.0,0.0,ed9be7a80f
73,./expes/v3_2021-01-22_di_4500-prng-1-w1-p100,daily_issda-4500,4500,first-4500,1456,32,rng,num-start-251,251,536,classic,1101.2073969841003,False,,True,0.0,,,0,"Index(['5', '11', '12', '13', '14', '15', '16', '22', '25', '30',
       ...
       '4467', '4468', '4475', '4477', '4481', '4482', '4484', '4486', '4488',
       '4494'],
      dtype='object', length=1456)",True,1000,True,100,0.0,0.0,5abbea4fdc
74,./expes/v3_2021-01-22_di_4500-prng-1-w1-p100,daily_issda-4500,4500,first-4500,448,9,rng,num-start-61,61,536,classic,1024.939864873886,False,,True,0.0,,,0,"Index(['15', '29', '39', '41', '57', '60', '62', '94', '108', '125',
       ...
       '4390', '4400', '4408', '4432', '4435', '4439', '4456', '4459', '4460',
       '4493'],
      dtype='object', length=448)",True,1000,True,100,0.0,0.0,e539761ee7
75,./expes/v3_2021-01-22_di_4500-prng-1-w1-p100,daily_issda-4500,4500,first-4500,1680,37,rng,num-start-21,21,536,classic,1008.5866010189056,False,,True,0.0,,,0,"Index(['5', '11', '12', '13', '14', '15', '16', '22', '25', '30',
       ...
       '4475', '4477', '4481', '4482', '4484', '4486', '4488', '4494', '4495',
       '4499'],
      dtype='object', length=1680)",True,1000,True,100,0.0,0.0,7d6da2d8c6
76,./expes/v3_2021-01-22_di_4500-prng-1-w1-p100,daily_issda-4500,4500,first-4500,1792,39,rng,num-start-31,31,536,classic,1012.1768267154694,False,,True,0.0,,,0,"Index(['4', '8', '9', '11', '14', '16', '20', '24', '31', '32',
       ...
       '4478', '4480', '4486', '4490', '4492', '4493', '4496', '4497', '4498',
       '4499'],
      dtype='object', length=1792)",True,1000,True,100,0.0,0.0,503fb925f2
77,./expes/v3_2021-01-22_di_4500-prng-1-w1-p100,daily_issda-4500,4500,first-4500,336,7,rng,num-start-181,181,536,classic,1075.7517001628876,False,,True,0.0,,,0,"Index(['21', '24', '31', '38', '66', '74', '96', '124', '127', '139',
       ...
       '4342', '4343', '4353', '4375', '4386', '4389', '4454', '4460', '4488',
       '4494'],
      dtype='object', length=336)",True,1000,True,100,0.0,0.0,f8f844d9d4
78,./expes/v3_2021-01-22_di_4500-prng-1-w1-p100,daily_issda-4500,4500,first-4500,448,9,rng,num-start-131,131,536,classic,1052.2799084186554,False,,True,0.0,,,0,"Index(['4', '5', '38', '41', '56', '79', '89', '90', '93', '97',
       ...
       '4409', '4410', '4413', '4414', '4422', '4434', '4448', '4457', '4463',
       '4474'],
      dtype='object', length=448)",True,1000,True,100,0.0,0.0,204bcc3817
79,./expes/v3_2021-01-22_di_4500-prng-1-w1-p100,daily_issda-4500,4500,first-4500,448,9,rng,num-start-161,161,536,classic,1072.791944026947,False,,True,0.0,,,0,"Index(['14', '31', '51', '55', '64', '69', '71', '89', '103', '107',
       ...
       '4432', '4434', '4437', '4450', '4459', '4475', '4478', '4490', '4496',
       '4497'],
      dtype='object', length=448)",True,1000,True,100,0.0,0.0,9dc89e5eb2
80,./expes/v3_2021-01-22_di_4500-prng-1-w1-p100,daily_issda-4500,4500,first-4500,448,9,rng,num-start-131,131,536,classic,1051.9153397083282,False,,True,0.0,,,0,"Index(['47', '51', '52', '55', '72', '74', '91', '106', '117', '133',
       ...
       '4416', '4425', '4434', '4444', '4453', '4461', '4464', '4465', '4474',
       '4494'],
      dtype='object', length=448)",True,1000,True,100,0.0,0.0,969de69fa3
81,./expes/v3_2021-01-22_di_4500-prng-1-w1-p100,daily_issda-4500,4500,first-4500,1456,32,rng,num-start-161,161,536,classic,1062.852063894272,False,,True,0.0,,,0,"Index(['4', '5', '6', '8', '9', '10', '15', '16', '17', '18',
       ...
       '4468', '4469', '4474', '4478', '4480', '4482', '4486', '4489', '4495',
       '4498'],
      dtype='object', length=1456)",True,1000,True,100,0.0,0.0,18bb890313
82,./expes/v3_2021-01-22_di_4500-prng-1-w1-p100,daily_issda-4500,4500,first-4500,224,4,rng,num-start-21,21,536,classic,1008.6311733722688,False,,True,0.0,,,0,"Index(['4', '5', '38', '79', '90', '102', '120', '123', '125', '128',
       ...
       '4216', '4250', '4253', '4261', '4276', '4329', '4350', '4413', '4434',
       '4474'],
      dtype='object', length=224)",True,1000,True,100,0.0,0.0,84044f8c36
83,./expes/v3_2021-01-22_di_4500-prng-1-w1-p100,daily_issda-4500,4500,first-4500,1568,34,rng,num-start-21,21,536,classic,1009.062352657318,False,,True,0.0,,,0,"Index(['1', '4', '6', '8', '9', '10', '13', '14', '15', '16',
       ...
       '4476', '4481', '4484', '4486', '4490', '4491', '4492', '4493', '4498',
       '4499'],
      dtype='object', length=1568)",True,1000,True,100,0.0,0.0,870295edb7
84,./expes/v3_2021-01-22_di_4500-prng-1-w1-p100,daily_issda-4500,4500,first-4500,224,4,rng,num-start-231,231,536,classic,1134.9204618930817,False,,True,0.0,,,0,"Index(['43', '62', '68', '80', '87', '100', '126', '147', '158', '170',
       ...
       '4396', '4399', '4411', '4414', '4417', '4424', '4426', '4442', '4449',
       '4455'],
      dtype='object', length=224)",True,1000,True,100,0.0,0.0,454f1f238f
85,./expes/v3_2021-01-22_di_4500-prng-1-w1-p100,daily_issda-4500,4500,first-4500,224,4,rng,num-start-211,211,536,classic,1092.6370377540588,False,,True,0.0,,,0,"Index(['1', '3', '5', '15', '40', '64', '87', '141', '157', '164',
       ...
       '4308', '4319', '4327', '4343', '4382', '4435', '4444', '4463', '4473',
       '4493'],
      dtype='object', length=224)",True,1000,True,100,0.0,0.0,b1dd9fab06
86,./expes/v3_2021-01-22_di_4500-prng-1-w1-p100,daily_issda-4500,4500,first-4500,1792,39,rng,num-start-21,21,536,classic,1008.9306769371032,False,,True,0.0,,,0,"Index(['4', '5', '6', '8', '9', '10', '12', '14', '15', '16',
       ...
       '4469', '4474', '4475', '4478', '4480', '4482', '4486', '4489', '4495',
       '4498'],
      dtype='object', length=1792)",True,1000,True,100,0.0,0.0,23bc3d1ea8
87,./expes/v3_2021-01-22_di_4500-prng-1-w1-p100,daily_issda-4500,4500,first-4500,1568,34,rng,num-start-211,211,536,classic,1094.826690673828,False,,True,0.0,,,0,"Index(['1', '4', '6', '8', '9', '10', '13', '14', '15', '16',
       ...
       '4476', '4481', '4484', '4486', '4490', '4491', '4492', '4493', '4498',
       '4499'],
      dtype='object', length=1568)",True,1000,True,100,0.0,0.0,5f08b509c8
88,./expes/v3_2021-01-22_di_4500-prng-1-w1-p100,daily_issda-4500,4500,first-4500,1120,24,rng,num-start-121,121,536,classic,1047.819566488266,False,,True,0.0,,,0,"Index(['4', '5', '12', '22', '32', '38', '41', '56', '58', '77',
       ...
       '4469', '4474', '4475', '4480', '4484', '4488', '4489', '4491', '4492',
       '4495'],
      dtype='object', length=1120)",True,1000,True,100,0.0,0.0,855adb4e36
89,./expes/v3_2021-01-22_di_4500-prng-1-w1-p100,daily_issda-4500,4500,first-4500,1232,27,rng,num-start-1,1,536,classic,25.248470544815063,False,,True,0.3734447538602836,0.3685292730847471,0.3759648478791738,10,"Index(['8', '14', '20', '24', '31', '33', '35', '36', '46', '49',
       ...
       '4475', '4476', '4478', '4486', '4490', '4492', '4493', '4496', '4497',
       '4499'],
      dtype='object', length=1232)",False,1000,True,100,1.0,1.0,d203bec695
90,./expes/v3_2021-01-22_di_4500-prng-1-w1-p100,daily_issda-4500,4500,first-4500,672,14,rng,num-start-271,271,536,classic,1111.8490896224976,False,,True,0.0,,,0,"Index(['3', '17', '24', '33', '44', '53', '57', '70', '72', '102',
       ...
       '4444', '4460', '4467', '4469', '4471', '4477', '4483', '4493', '4495',
       '4500'],
      dtype='object', length=672)",True,1000,True,100,0.0,0.0,4574dc31ae
91,./expes/v3_2021-01-22_di_4500-prng-1-w1-p100,daily_issda-4500,4500,first-4500,1232,27,rng,num-start-101,101,536,classic,1040.74311709404,False,,True,0.0,,,0,"Index(['5', '7', '13', '18', '25', '29', '32', '33', '35', '40',
       ...
       '4471', '4473', '4481', '4482', '4487', '4490', '4492', '4496', '4499',
       '4500'],
      dtype='object', length=1232)",True,1000,True,100,0.0,0.0,471c2f9ab8
92,./expes/v3_2021-01-22_di_4500-prng-1-w1-p100,daily_issda-4500,4500,first-4500,1680,37,rng,num-start-71,71,536,classic,1028.7663178443909,False,,True,0.0,,,0,"Index(['5', '11', '12', '13', '14', '15', '16', '22', '25', '30',
       ...
       '4475', '4477', '4481', '4482', '4484', '4486', '4488', '4494', '4495',
       '4499'],
      dtype='object', length=1680)",True,1000,True,100,0.0,0.0,13a53c7b16
93,./expes/v3_2021-01-22_di_4500-prng-1-w1-p100,daily_issda-4500,4500,first-4500,448,9,rng,num-start-31,31,536,classic,1012.7391819953918,False,,True,0.0,,,0,"Index(['14', '31', '51', '55', '64', '69', '71', '89', '103', '107',
       ...
       '4432', '4434', '4437', '4450', '4459', '4475', '4478', '4490', '4496',
       '4497'],
      dtype='object', length=448)",True,1000,True,100,0.0,0.0,1434764105
94,./expes/v3_2021-01-22_di_4500-prng-1-w1-p100,daily_issda-4500,4500,first-4500,1456,32,rng,num-start-141,141,536,classic,1057.5257456302645,False,,True,0.0,,,0,"Index(['4', '6', '7', '10', '16', '18', '19', '20', '21', '24',
       ...
       '4477', '4479', '4482', '4487', '4488', '4490', '4494', '4495', '4499',
       '4500'],
      dtype='object', length=1456)",True,1000,True,100,0.0,0.0,06c0f2da4d
95,./expes/v3_2021-01-22_di_4500-prng-1-w1-p100,daily_issda-4500,4500,first-4500,1904,42,rng,num-start-271,271,536,classic,1114.060268163681,False,,True,0.0,,,0,"Index(['1', '2', '5', '7', '12', '13', '14', '15', '16', '17',
       ...
       '4477', '4479', '4481', '4482', '4483', '4484', '4493', '4494', '4495',
       '4500'],
      dtype='object', length=1904)",True,1000,True,100,0.0,0.0,7b069c6ee4
96,./expes/v3_2021-01-22_di_4500-prng-1-w1-p100,daily_issda-4500,4500,first-4500,112,2,rng,num-start-251,251,536,classic,1103.3497140407562,False,,True,0.0,,,0,"Index(['60', '77', '149', '163', '211', '351', '355', '367', '380', '483',
       ...
       '3861', '3880', '3923', '4145', '4165', '4251', '4263', '4380', '4397',
       '4487'],
      dtype='object', length=112)",True,1000,True,100,0.0,0.0,37db10c38d
97,./expes/v3_2021-01-22_di_4500-prng-1-w1-p100,daily_issda-4500,4500,first-4500,896,19,rng,num-start-281,281,536,classic,1110.9984695911407,False,,True,0.0,,,0,"Index(['7', '13', '18', '29', '32', '33', '40', '43', '46', '47',
       ...
       '4468', '4469', '4471', '4481', '4482', '4487', '4490', '4492', '4496',
       '4500'],
      dtype='object', length=896)",True,1000,True,100,0.0,0.0,a89071c384
98,./expes/v3_2021-01-22_di_4500-prng-1-w1-p100,daily_issda-4500,4500,first-4500,448,9,rng,num-start-61,61,536,classic,1026.48530292511,False,,True,0.0,,,0,"Index(['26', '43', '58', '62', '65', '68', '80', '87', '96', '98',
       ...
       '4417', '4424', '4426', '4428', '4442', '4449', '4455', '4462', '4484',
       '4487'],
      dtype='object', length=448)",True,1000,True,100,0.0,0.0,12b2a5728e
99,./expes/v3_2021-01-22_di_4500-prng-1-w1-p100,daily_issda-4500,4500,first-4500,1792,39,rng,num-start-31,31,536,classic,1012.7823295593262,False,,True,0.0,,,0,"Index(['2', '4', '9', '10', '11', '12', '14', '15', '16', '22',
       ...
       '4476', '4482', '4488', '4490', '4492', '4494', '4495', '4496', '4499',
       '4500'],
      dtype='object', length=1792)",True,1000,True,100,0.0,0.0,7bf783f0bf
100,./expes/v3_2021-01-22_di_4500-prng-1-w1-p100,daily_issda-4500,4500,first-4500,784,17,rng,num-start-131,131,536,classic,1053.4151365756989,False,,True,0.0,,,0,"Index(['5', '8', '14', '22', '27', '30', '39', '40', '43', '46',
       ...
       '4458', '4459', '4460', '4465', '4467', '4470', '4475', '4483', '4487',
       '4500'],
      dtype='object', length=784)",True,1000,True,100,0.0,0.0,7b96c11571
101,./expes/v3_2021-01-22_di_4500-prng-1-w1-p100,daily_issda-4500,4500,first-4500,1344,29,rng,num-start-251,251,536,classic,1100.4599215984344,False,,True,0.0,,,0,"Index(['4', '8', '9', '14', '20', '24', '31', '33', '35', '36',
       ...
       '4476', '4477', '4478', '4486', '4490', '4492', '4493', '4496', '4497',
       '4499'],
      dtype='object', length=1344)",True,1000,True,100,0.0,0.0,76d59d59b0
102,./expes/v3_2021-01-22_di_4500-prng-1-w1-p100,daily_issda-4500,4500,first-4500,336,7,rng,num-start-281,281,536,classic,1115.7766196727753,False,,True,0.0,,,0,"Index(['4', '5', '38', '56', '79', '89', '90', '93', '102', '120',
       ...
       '4276', '4329', '4350', '4382', '4386', '4399', '4413', '4422', '4434',
       '4474'],
      dtype='object', length=336)",True,1000,True,100,0.0,0.0,9b5da0a646
103,./expes/v3_2021-01-22_di_4500-prng-1-w1-p100,daily_issda-4500,4500,first-4500,1008,22,rng,num-start-1,1,536,classic,37.745060443878174,False,,True,0.4106606120317185,0.40926618770719,0.4122840047000911,10,"Index(['12', '13', '15', '16', '25', '30', '35', '40', '41', '44',
       ...
       '4458', '4459', '4462', '4467', '4475', '4481', '4482', '4486', '4488',
       '4494'],
      dtype='object', length=1008)",False,1000,True,100,1.0,1.0,261d7af7b3
104,./expes/v3_2021-01-22_di_4500-prng-1-w1-p100,daily_issda-4500,4500,first-4500,560,12,rng,num-start-211,211,536,classic,1090.226152896881,False,,True,0.0,,,0,"Index(['17', '24', '44', '53', '57', '70', '72', '102', '108', '121',
       ...
       '4440', '4444', '4460', '4467', '4469', '4471', '4477', '4483', '4493',
       '4495'],
      dtype='object', length=560)",True,1000,True,100,0.0,0.0,b03d3f5203
105,./expes/v3_2021-01-22_di_4500-prng-1-w1-p100,daily_issda-4500,4500,first-4500,1456,32,rng,num-start-31,31,536,classic,1013.5066239833832,False,,True,0.0,,,0,"Index(['5', '7', '10', '21', '24', '25', '29', '30', '34', '36',
       ...
       '4464', '4465', '4467', '4469', '4474', '4477', '4480', '4484', '4498',
       '4499'],
      dtype='object', length=1456)",True,1000,True,100,0.0,0.0,36fa95e408
106,./expes/v3_2021-01-22_di_4500-prng-1-w1-p100,daily_issda-4500,4500,first-4500,336,7,rng,num-start-21,21,536,classic,1008.9203586578368,False,,True,0.0,,,0,"Index(['16', '35', '40', '44', '69', '96', '129', '148', '157', '160',
       ...
       '4311', '4312', '4345', '4366', '4388', '4431', '4458', '4467', '4486',
       '4494'],
      dtype='object', length=336)",True,1000,True,100,0.0,0.0,5a2febf53f
107,./expes/v3_2021-01-22_di_4500-prng-1-w1-p100,daily_issda-4500,4500,first-4500,1232,27,rng,num-start-81,81,536,classic,1033.24938249588,False,,True,0.0,,,0,"Index(['1', '3', '4', '10', '14', '16', '21', '26', '30', '33',
       ...
       '4465', '4471', '4474', '4490', '4491', '4494', '4496', '4497', '4499',
       '4500'],
      dtype='object', length=1232)",True,1000,True,100,0.0,0.0,30de52e4ed
108,./expes/v3_2021-01-22_di_4500-prng-1-w1-p100,daily_issda-4500,4500,first-4500,896,19,rng,num-start-11,11,536,classic,1004.44504737854,False,,True,0.0,,,0,"Index(['2', '3', '17', '24', '28', '33', '44', '45', '49', '53',
       ...
       '4467', '4469', '4471', '4477', '4479', '4481', '4483', '4493', '4495',
       '4500'],
      dtype='object', length=896)",True,1000,True,100,0.0,0.0,849c2893ba
109,./expes/v3_2021-01-22_di_4500-prng-1-w1-p100,daily_issda-4500,4500,first-4500,112,2,rng,num-start-71,71,536,classic,1027.965279340744,False,,True,0.0,,,0,"Index(['98', '109', '164', '210', '249', '276', '279', '307', '359', '476',
       ...
       '4126', '4149', '4157', '4177', '4234', '4262', '4332', '4357', '4422',
       '4465'],
      dtype='object', length=112)",True,1000,True,100,0.0,0.0,721b5f2443
110,./expes/v3_2021-01-22_di_4500-prng-1-w1-p100,daily_issda-4500,4500,first-4500,784,17,rng,num-start-261,261,536,classic,1113.7167444229126,False,,True,0.0,,,0,"Index(['2', '4', '10', '13', '22', '23', '25', '27', '29', '40',
       ...
       '4447', '4449', '4451', '4456', '4464', '4466', '4467', '4471', '4481',
       '4483'],
      dtype='object', length=784)",True,1000,True,100,0.0,0.0,98389c1251
111,./expes/v3_2021-01-22_di_4500-prng-1-w1-p100,daily_issda-4500,4500,first-4500,1120,24,rng,num-start-21,21,536,classic,1008.2368066310884,False,,True,0.0,,,0,"Index(['1', '2', '4', '8', '9', '19', '25', '28', '30', '34',
       ...
       '4435', '4438', '4442', '4447', '4449', '4457', '4469', '4472', '4479',
       '4498'],
      dtype='object', length=1120)",True,1000,True,100,0.0,0.0,566be1e729
112,./expes/v3_2021-01-22_di_4500-prng-1-w1-p100,daily_issda-4500,4500,first-4500,1120,24,rng,num-start-71,71,536,classic,1028.2908828258514,False,,True,0.0,,,0,"Index(['2', '4', '5', '10', '11', '12', '13', '22', '23', '25',
       ...
       '4466', '4467', '4471', '4475', '4477', '4481', '4483', '4494', '4496',
       '4497'],
      dtype='object', length=1120)",True,1000,True,100,0.0,0.0,90cb271a4a
113,./expes/v3_2021-01-22_di_4500-prng-1-w1-p100,daily_issda-4500,4500,first-4500,1344,29,rng,num-start-291,291,536,classic,1122.764458656311,False,,True,0.0,,,0,"Index(['1', '3', '4', '10', '14', '16', '21', '26', '30', '33',
       ...
       '4465', '4471', '4474', '4490', '4491', '4494', '4496', '4497', '4499',
       '4500'],
      dtype='object', length=1344)",True,1000,True,100,0.0,0.0,c5283e565f
114,./expes/v3_2021-01-22_di_4500-prng-1-w1-p100,daily_issda-4500,4500,first-4500,1680,37,rng,num-start-101,101,536,classic,1039.8262219429016,False,,True,0.0,,,0,"Index(['1', '4', '6', '8', '9', '10', '13', '14', '15', '16',
       ...
       '4476', '4481', '4484', '4486', '4490', '4491', '4492', '4493', '4498',
       '4499'],
      dtype='object', length=1680)",True,1000,True,100,0.0,0.0,58390a5158
115,./expes/v3_2021-01-22_di_4500-prng-1-w1-p100,daily_issda-4500,4500,first-4500,1568,34,rng,num-start-31,31,536,classic,1013.8542454242706,False,,True,0.0,,,0,"Index(['5', '7', '10', '21', '24', '25', '29', '30', '34', '36',
       ...
       '4469', '4474', '4477', '4480', '4484', '4488', '4494', '4495', '4498',
       '4499'],
      dtype='object', length=1568)",True,1000,True,100,0.0,0.0,8ebd381fad
116,./expes/v3_2021-01-22_di_4500-prng-1-w1-p100,daily_issda-4500,4500,first-4500,1344,29,rng,num-start-171,171,536,classic,1074.8452262878418,False,,True,0.0,,,0,"Index(['5', '6', '12', '16', '17', '24', '27', '32', '37', '41',
       ...
       '4469', '4470', '4473', '4474', '4477', '4478', '4482', '4493', '4495',
       '4499'],
      dtype='object', length=1344)",True,1000,True,100,0.0,0.0,4d98511fdd
117,./expes/v3_2021-01-22_di_4500-prng-1-w1-p100,daily_issda-4500,4500,first-4500,336,7,rng,num-start-191,191,536,classic,1083.8770792484283,False,,True,0.0,,,0,"Index(['25', '38', '55', '98', '109', '139', '164', '181', '186', '210',
       ...
       '4325', '4326', '4332', '4334', '4357', '4372', '4379', '4422', '4465',
       '4484'],
      dtype='object', length=336)",True,1000,True,100,0.0,0.0,5adb6dc02c
118,./expes/v3_2021-01-22_di_4500-prng-1-w1-p100,daily_issda-4500,4500,first-4500,2128,47,rng,num-start-151,151,536,classic,1066.9979581832886,False,,True,0.0,,,0,"Index(['4', '6', '7', '10', '11', '12', '16', '17', '18', '19',
       ...
       '4482', '4484', '4485', '4487', '4488', '4490', '4494', '4495', '4499',
       '4500'],
      dtype='object', length=2128)",True,1000,True,100,0.0,0.0,0c4a13fabf
119,./expes/v3_2021-01-22_di_4500-prng-1-w1-p100,daily_issda-4500,4500,first-4500,448,9,rng,num-start-201,201,536,classic,1096.3340709209442,False,,True,0.0,,,0,"Index(['21', '24', '31', '38', '55', '62', '66', '74', '96', '99',
       ...
       '4375', '4386', '4389', '4392', '4454', '4460', '4475', '4488', '4494',
       '4495'],
      dtype='object', length=448)",True,1000,True,100,0.0,0.0,105c339a88
120,./expes/v3_2021-01-22_di_4500-prng-1-w1-p100,daily_issda-4500,4500,first-4500,2016,44,rng,num-start-291,291,536,classic,1121.6870639324188,False,,True,0.0,,,0,"Index(['4', '5', '6', '8', '12', '14', '22', '27', '28', '29',
       ...
       '4480', '4482', '4484', '4486', '4488', '4489', '4491', '4492', '4495',
       '4500'],
      dtype='object', length=2016)",True,1000,True,100,0.0,0.0,ef81cef63b
121,./expes/v3_2021-01-22_di_4500-prng-1-w1-p100,daily_issda-4500,4500,first-4500,1904,42,rng,num-start-251,251,536,classic,1101.5230023860931,False,,True,0.0,,,0,"Index(['1', '3', '5', '6', '7', '13', '14', '18', '19', '25',
       ...
       '4473', '4474', '4477', '4482', '4484', '4487', '4492', '4494', '4499',
       '4500'],
      dtype='object', length=1904)",True,1000,True,100,0.0,0.0,f3f856ad26
122,./expes/v3_2021-01-22_di_4500-prng-1-w1-p100,daily_issda-4500,4500,first-4500,1568,34,rng,num-start-41,41,536,classic,1035.6762557029724,False,,True,0.0,,,0,"Index(['1', '2', '3', '4', '14', '16', '17', '19', '23', '24',
       ...
       '4474', '4475', '4477', '4479', '4481', '4483', '4490', '4493', '4495',
       '4500'],
      dtype='object', length=1568)",True,1000,True,100,0.0,0.0,8dc15289ac
123,./expes/v3_2021-01-22_di_4500-prng-1-w1-p100,daily_issda-4500,4500,first-4500,1904,42,rng,num-start-61,61,536,classic,1024.8822484016418,False,,True,0.0,,,0,"Index(['1', '4', '6', '8', '9', '10', '11', '13', '14', '15',
       ...
       '4484', '4485', '4486', '4490', '4491', '4492', '4493', '4498', '4499',
       '4500'],
      dtype='object', length=1904)",True,1000,True,100,0.0,0.0,f1adce3ae4
124,./expes/v3_2021-01-22_di_4500-prng-1-w1-p100,daily_issda-4500,4500,first-4500,112,2,rng,num-start-261,261,536,classic,1108.9557151794434,False,,True,0.0,,,0,"Index(['34', '42', '122', '261', '267', '282', '303', '358', '363', '366',
       ...
       '4096', '4112', '4261', '4266', '4276', '4304', '4371', '4394', '4464',
       '4498'],
      dtype='object', length=112)",True,1000,True,100,0.0,0.0,4266d46dda
125,./expes/v3_2021-01-22_di_4500-prng-1-w1-p100,daily_issda-4500,4500,first-4500,1456,32,rng,num-start-41,41,536,classic,1017.9390466213226,False,,True,0.0,,,0,"Index(['1', '2', '3', '4', '14', '16', '17', '19', '24', '25',
       ...
       '4474', '4475', '4477', '4479', '4481', '4483', '4490', '4493', '4495',
       '4500'],
      dtype='object', length=1456)",True,1000,True,100,0.0,0.0,f1882a5583
126,./expes/v3_2021-01-22_di_4500-prng-1-w1-p100,daily_issda-4500,4500,first-4500,2128,47,rng,num-start-71,71,536,classic,1028.8154561519625,False,,True,0.0,,,0,"Index(['1', '2', '4', '5', '7', '12', '13', '14', '15', '16',
       ...
       '4477', '4479', '4481', '4482', '4483', '4484', '4493', '4494', '4495',
       '4500'],
      dtype='object', length=2128)",True,1000,True,100,0.0,0.0,db7aa50266
127,./expes/v3_2021-01-22_di_4500-prng-1-w1-p100,daily_issda-4500,4500,first-4500,1680,37,rng,num-start-1,1,536,classic,34.40687656402588,False,,True,0.3156241819519773,0.3138722549647014,0.3161436701437804,10,"Index(['5', '11', '12', '13', '14', '15', '16', '22', '25', '30',
       ...
       '4475', '4477', '4481', '4482', '4484', '4486', '4488', '4494', '4495',
       '4499'],
      dtype='object', length=1680)",False,1000,True,100,1.0,1.0,e1fbd32847
128,./expes/v3_2021-01-22_di_4500-prng-1-w1-p100,daily_issda-4500,4500,first-4500,1120,24,rng,num-start-241,241,536,classic,1100.0191645622251,False,,True,0.0,,,0,"Index(['5', '10', '21', '24', '25', '29', '30', '34', '36', '41',
       ...
       '4452', '4461', '4463', '4464', '4465', '4469', '4474', '4477', '4498',
       '4499'],
      dtype='object', length=1120)",True,1000,True,100,0.0,0.0,bf61b5d78f
129,./expes/v3_2021-01-22_di_4500-prng-1-w1-p100,daily_issda-4500,4500,first-4500,2016,44,rng,num-start-291,291,536,classic,1122.9736461639404,False,,True,0.0,,,0,"Index(['1', '3', '4', '5', '7', '9', '10', '11', '12', '14',
       ...
       '4478', '4479', '4489', '4490', '4491', '4494', '4496', '4497', '4499',
       '4500'],
      dtype='object', length=2016)",True,1000,True,100,0.0,0.0,a641ccea4f
130,./expes/v3_2021-01-22_di_4500-prng-1-w1-p100,daily_issda-4500,4500,first-4500,224,4,rng,num-start-41,41,536,classic,1017.6013538837432,False,,True,0.0,,,0,"Index(['18', '25', '34', '41', '47', '119', '128', '246', '250', '261',
       ...
       '4353', '4365', '4372', '4374', '4384', '4391', '4451', '4468', '4469',
       '4482'],
      dtype='object', length=224)",True,1000,True,100,0.0,0.0,1dbf5c3b94
131,./expes/v3_2021-01-22_di_4500-prng-1-w1-p100,daily_issda-4500,4500,first-4500,112,2,rng,num-start-141,141,536,classic,1059.2301969528198,False,,True,0.0,,,0,"Index(['14', '55', '71', '89', '153', '211', '231', '250', '268', '302',
       ...
       '4156', '4170', '4189', '4207', '4211', '4252', '4335', '4420', '4434',
       '4497'],
      dtype='object', length=112)",True,1000,True,100,0.0,0.0,542d4cf2ab
132,./expes/v3_2021-01-22_di_4500-prng-1-w1-p100,daily_issda-4500,4500,first-4500,2240,49,rng,num-start-41,41,536,classic,1018.1164979934692,False,,True,0.0,,,0,"Index(['4', '5', '6', '8', '12', '14', '18', '21', '22', '27',
       ...
       '4482', '4484', '4486', '4488', '4489', '4491', '4492', '4495', '4496',
       '4500'],
      dtype='object', length=2240)",True,1000,True,100,0.0,0.0,831d3f8226
133,./expes/v3_2021-01-22_di_4500-prng-1-w1-p100,daily_issda-4500,4500,first-4500,1568,34,rng,num-start-161,161,536,classic,1064.2968018054962,False,,True,0.0,,,0,"Index(['5', '11', '12', '13', '14', '15', '16', '22', '25', '30',
       ...
       '4467', '4468', '4475', '4477', '4481', '4482', '4484', '4486', '4488',
       '4494'],
      dtype='object', length=1568)",True,1000,True,100,0.0,0.0,4ee1e38232
134,./expes/v3_2021-01-22_di_4500-prng-1-w1-p100,daily_issda-4500,4500,first-4500,448,9,rng,num-start-21,21,536,classic,1008.5636959075928,False,,True,0.0,,,0,"Index(['4', '13', '22', '27', '40', '44', '51', '80', '81', '88',
       ...
       '4418', '4426', '4436', '4439', '4447', '4451', '4456', '4464', '4471',
       '4483'],
      dtype='object', length=448)",True,1000,True,100,0.0,0.0,336ef9e40a
135,./expes/v3_2021-01-22_di_4500-prng-1-w1-p100,daily_issda-4500,4500,first-4500,1008,22,rng,num-start-281,281,536,classic,1121.0604648590088,False,,True,0.0,,,0,"Index(['2', '9', '10', '12', '15', '16', '24', '28', '29', '30',
       ...
       '4460', '4462', '4473', '4482', '4488', '4490', '4492', '4495', '4499',
       '4500'],
      dtype='object', length=1008)",True,1000,True,100,0.0,0.0,a8b4d4c48d
136,./expes/v3_2021-01-22_di_4500-prng-1-w1-p100,daily_issda-4500,4500,first-4500,1904,42,rng,num-start-221,221,536,classic,1098.2256155014038,False,,True,0.0,,,0,"Index(['2', '4', '9', '10', '11', '12', '14', '15', '16', '22',
       ...
       '4476', '4482', '4488', '4490', '4492', '4494', '4495', '4496', '4499',
       '4500'],
      dtype='object', length=1904)",True,1000,True,100,0.0,0.0,c475825432
137,./expes/v3_2021-01-22_di_4500-prng-1-w1-p100,daily_issda-4500,4500,first-4500,896,19,rng,num-start-61,61,536,classic,1031.3861582279203,False,,True,0.0,,,0,"Index(['2', '9', '10', '12', '15', '16', '24', '28', '30', '31',
       ...
       '4450', '4460', '4462', '4473', '4482', '4488', '4492', '4495', '4499',
       '4500'],
      dtype='object', length=896)",True,1000,True,100,0.0,0.0,de9346c044
138,./expes/v3_2021-01-22_di_4500-prng-1-w1-p100,daily_issda-4500,4500,first-4500,1344,29,rng,num-start-141,141,536,classic,1053.5937159061432,False,,True,0.0,,,0,"Index(['1', '2', '3', '4', '8', '9', '16', '19', '25', '28',
       ...
       '4449', '4457', '4464', '4469', '4472', '4473', '4479', '4486', '4498',
       '4500'],
      dtype='object', length=1344)",True,1000,True,100,0.0,0.0,7bd333384a
139,./expes/v3_2021-01-22_di_4500-prng-1-w1-p100,daily_issda-4500,4500,first-4500,1568,34,rng,num-start-181,181,536,classic,1071.2215147018433,False,,True,0.0,,,0,"Index(['1', '3', '4', '5', '9', '10', '14', '16', '17', '19',
       ...
       '4471', '4474', '4479', '4490', '4491', '4494', '4496', '4497', '4499',
       '4500'],
      dtype='object', length=1568)",True,1000,True,100,0.0,0.0,a6bd149af3
140,./expes/v3_2021-01-22_di_4500-prng-1-w1-p100,daily_issda-4500,4500,first-4500,1904,42,rng,num-start-221,221,536,classic,1089.8554294109344,False,,True,0.0,,,0,"Index(['2', '3', '4', '7', '8', '10', '11', '13', '15', '16',
       ...
       '4484', '4486', '4488', '4489', '4491', '4492', '4493', '4494', '4499',
       '4500'],
      dtype='object', length=1904)",True,1000,True,100,0.0,0.0,8be12ab976
141,./expes/v3_2021-01-22_di_4500-prng-1-w1-p100,daily_issda-4500,4500,first-4500,784,17,rng,num-start-51,51,536,classic,1020.0562670230864,False,,True,0.0,,,0,"Index(['5', '8', '14', '22', '27', '30', '39', '40', '43', '46',
       ...
       '4458', '4459', '4460', '4465', '4467', '4470', '4475', '4483', '4487',
       '4500'],
      dtype='object', length=784)",True,1000,True,100,0.0,0.0,371e5685d5
142,./expes/v3_2021-01-22_di_4500-prng-1-w1-p100,daily_issda-4500,4500,first-4500,2240,49,rng,num-start-131,131,536,classic,1052.8386161327362,False,,True,0.0,,,0,"Index(['1', '2', '3', '4', '5', '7', '9', '10', '11', '12',
       ...
       '4483', '4484', '4489', '4490', '4491', '4494', '4496', '4497', '4499',
       '4500'],
      dtype='object', length=2240)",True,1000,True,100,0.0,0.0,6e67721e21
143,./expes/v3_2021-01-22_di_4500-prng-1-w1-p100,daily_issda-4500,4500,first-4500,1456,32,rng,num-start-181,181,536,classic,1075.5507183074951,False,,True,0.0,,,0,"Index(['2', '4', '9', '10', '11', '12', '15', '16', '22', '23',
       ...
       '4468', '4473', '4482', '4488', '4490', '4492', '4494', '4495', '4499',
       '4500'],
      dtype='object', length=1456)",True,1000,True,100,0.0,0.0,e38dac63f8
144,./expes/v3_2021-01-22_di_4500-prng-1-w1-p100,daily_issda-4500,4500,first-4500,1232,27,rng,num-start-211,211,536,classic,1085.381770849228,False,,True,0.0,,,0,"Index(['1', '7', '18', '19', '26', '32', '39', '40', '42', '43',
       ...
       '4455', '4460', '4461', '4462', '4467', '4468', '4484', '4487', '4494',
       '4499'],
      dtype='object', length=1232)",True,1000,True,100,0.0,0.0,d8d8b8465f
145,./expes/v3_2021-01-22_di_4500-prng-1-w1-p100,daily_issda-4500,4500,first-4500,672,14,rng,num-start-1,1,536,classic,33.60698127746582,False,,True,0.4981706760343212,0.4966217702932531,0.500166731511333,10,"Index(['4', '10', '13', '22', '23', '25', '27', '40', '44', '51',
       ...
       '4443', '4444', '4447', '4451', '4456', '4464', '4466', '4471', '4481',
       '4483'],
      dtype='object', length=672)",False,1000,True,100,1.0,1.0,c7d31a816a
146,./expes/v3_2021-01-22_di_4500-prng-1-w1-p100,daily_issda-4500,4500,first-4500,1456,32,rng,num-start-261,261,536,classic,1106.986227273941,False,,True,0.0,,,0,"Index(['1', '2', '3', '4', '14', '16', '17', '19', '24', '25',
       ...
       '4474', '4475', '4477', '4479', '4481', '4483', '4490', '4493', '4495',
       '4500'],
      dtype='object', length=1456)",True,1000,True,100,0.0,0.0,58640c5174
147,./expes/v3_2021-01-22_di_4500-prng-1-w1-p100,daily_issda-4500,4500,first-4500,224,4,rng,num-start-171,171,536,classic,1070.3286550045011,False,,True,0.0,,,0,"Index(['25', '38', '55', '98', '109', '139', '164', '186', '210', '249',
       ...
       '4290', '4307', '4320', '4325', '4332', '4334', '4357', '4422', '4465',
       '4484'],
      dtype='object', length=224)",True,1000,True,100,0.0,0.0,94a024e334
148,./expes/v3_2021-01-22_di_4500-prng-1-w1-p100,daily_issda-4500,4500,first-4500,896,19,rng,num-start-1,1,536,classic,65.50234174728394,False,,True,0.4366554441760465,0.4354315832234283,0.4397790420990282,10,"Index(['5', '8', '14', '17', '22', '27', '30', '39', '40', '43',
       ...
       '4458', '4459', '4460', '4465', '4467', '4470', '4475', '4483', '4487',
       '4500'],
      dtype='object', length=896)",False,1000,True,100,1.0,1.0,707d26a7e8
149,./expes/v3_2021-01-22_di_4500-prng-1-w1-p100,daily_issda-4500,4500,first-4500,1904,42,rng,num-start-71,71,536,classic,1028.9747743606567,False,,True,0.0,,,0,"Index(['2', '4', '5', '7', '8', '10', '11', '12', '13', '14',
       ...
       '4480', '4481', '4483', '4492', '4493', '4494', '4495', '4496', '4497',
       '4498'],
      dtype='object', length=1904)",True,1000,True,100,0.0,0.0,ebdb9936fa
150,./expes/v3_2021-01-22_di_4500-prng-1-w1-p100,daily_issda-4500,4500,first-4500,1568,34,rng,num-start-41,41,536,classic,1016.7876734733582,False,,True,0.0,,,0,"Index(['4', '5', '8', '12', '22', '28', '29', '32', '33', '38',
       ...
       '4475', '4480', '4482', '4484', '4488', '4489', '4491', '4492', '4495',
       '4500'],
      dtype='object', length=1568)",True,1000,True,100,0.0,0.0,9da03d6483
151,./expes/v3_2021-01-22_di_4500-prng-1-w1-p100,daily_issda-4500,4500,first-4500,1680,37,rng,num-start-11,11,536,classic,1004.3976502418518,False,,True,0.0,,,0,"Index(['1', '2', '5', '7', '12', '13', '14', '15', '16', '17',
       ...
       '4468', '4469', '4473', '4474', '4482', '4484', '4493', '4494', '4495',
       '4500'],
      dtype='object', length=1680)",True,1000,True,100,0.0,0.0,469ee443bb
152,./expes/v3_2021-01-22_di_4500-prng-1-w1-p100,daily_issda-4500,4500,first-4500,1008,22,rng,num-start-191,191,536,classic,1077.170511007309,False,,True,0.0,,,0,"Index(['1', '2', '3', '14', '17', '24', '28', '33', '44', '45',
       ...
       '4469', '4471', '4474', '4477', '4479', '4481', '4483', '4493', '4495',
       '4500'],
      dtype='object', length=1008)",True,1000,True,100,0.0,0.0,b97ac2a571
