,expe,clients,clients_size,clients_subset,agg_size,agg_size_pc,method,days,days_size,days_total,noise_method,time,valid,valid_sum,success,score_avg,score_min,score_max,nsols,oracle,wall_hit,wall_time,pooled,pool_size,optimal,valid_sums,uuid
0,./expes/v3_2021-01-22_di_4500-prng-1-w1-p100,daily_issda-4500,4500,first-4500,1008,22,rng,num-start-241,241,536,classic,1093.9897768497467,False,,True,0.0,,,0,"Index(['5', '6', '12', '16', '17', '24', '27', '32', '41', '42',
       ...
       '4458', '4460', '4468', '4469', '4470', '4474', '4477', '4482', '4493',
       '4495'],
      dtype='object', length=1008)",True,1000,True,100,0.0,0.0,6dfb17cad0
1,./expes/v3_2021-01-22_di_4500-prng-1-w1-p100,daily_issda-4500,4500,first-4500,1344,29,rng,num-start-201,201,536,classic,1080.874028921127,False,,True,0.0,,,0,"Index(['4', '5', '6', '8', '9', '10', '16', '17', '18', '25',
       ...
       '4456', '4463', '4466', '4468', '4469', '4474', '4478', '4480', '4482',
       '4495'],
      dtype='object', length=1344)",True,1000,True,100,0.0,0.0,02f1f48910
2,./expes/v3_2021-01-22_di_4500-prng-1-w1-p100,daily_issda-4500,4500,first-4500,1344,29,rng,num-start-171,171,536,classic,1074.5316696166992,False,,True,0.0,,,0,"Index(['1', '3', '7', '18', '19', '26', '29', '32', '39', '40',
       ...
       '4455', '4460', '4461', '4462', '4467', '4468', '4484', '4487', '4494',
       '4499'],
      dtype='object', length=1344)",True,1000,True,100,0.0,0.0,f02deb736a
3,./expes/v3_2021-01-22_di_4500-prng-1-w1-p100,daily_issda-4500,4500,first-4500,1008,22,rng,num-start-161,161,536,classic,1067.8808062076569,False,,True,0.0,,,0,"Index(['8', '14', '20', '31', '33', '46', '49', '51', '55', '60',
       ...
       '4475', '4476', '4478', '4486', '4490', '4492', '4493', '4496', '4497',
       '4499'],
      dtype='object', length=1008)",True,1000,True,100,0.0,0.0,e98170664c
4,./expes/v3_2021-01-22_di_4500-prng-1-w1-p100,daily_issda-4500,4500,first-4500,784,17,rng,num-start-141,141,536,classic,1062.8376536369324,False,,True,0.0,,,0,"Index(['1', '2', '4', '8', '9', '19', '25', '30', '34', '40',
       ...
       '4401', '4407', '4409', '4417', '4418', '4424', '4438', '4442', '4447',
       '4498'],
      dtype='object', length=784)",True,1000,True,100,0.0,0.0,d411cb6f86
5,./expes/v3_2021-01-22_di_4500-prng-1-w1-p100,daily_issda-4500,4500,first-4500,896,19,rng,num-start-231,231,536,classic,1095.0790786743164,False,,True,0.0,,,0,"Index(['5', '10', '24', '25', '29', '30', '34', '36', '41', '42',
       ...
       '4437', '4439', '4452', '4461', '4464', '4465', '4469', '4474', '4498',
       '4499'],
      dtype='object', length=896)",True,1000,True,100,0.0,0.0,41626d4277
6,./expes/v3_2021-01-22_di_4500-prng-1-w1-p100,daily_issda-4500,4500,first-4500,2240,49,rng,num-start-71,71,536,classic,1027.6123223304749,False,,True,0.0,,,0,"Index(['4', '5', '6', '8', '12', '14', '18', '21', '22', '27',
       ...
       '4482', '4484', '4486', '4488', '4489', '4491', '4492', '4495', '4496',
       '4500'],
      dtype='object', length=2240)",True,1000,True,100,0.0,0.0,06c175a121
7,./expes/v3_2021-01-22_di_4500-prng-1-w1-p100,daily_issda-4500,4500,first-4500,1904,42,rng,num-start-41,41,536,classic,1016.6406092643738,False,,True,0.0,,,0,"Index(['4', '5', '6', '8', '12', '22', '28', '29', '30', '32',
       ...
       '4480', '4482', '4484', '4486', '4488', '4489', '4491', '4492', '4495',
       '4500'],
      dtype='object', length=1904)",True,1000,True,100,0.0,0.0,952610334d
8,./expes/v3_2021-01-22_di_4500-prng-1-w1-p100,daily_issda-4500,4500,first-4500,1232,27,rng,num-start-241,241,536,classic,1099.5406618118286,False,,True,0.0,,,0,"Index(['4', '5', '12', '22', '28', '32', '38', '41', '56', '58',
       ...
       '4469', '4474', '4475', '4480', '4484', '4488', '4489', '4491', '4492',
       '4495'],
      dtype='object', length=1232)",True,1000,True,100,0.0,0.0,94dd8ad509
9,./expes/v3_2021-01-22_di_4500-prng-1-w1-p100,daily_issda-4500,4500,first-4500,1568,34,rng,num-start-71,71,536,classic,1028.6199052333832,False,,True,0.0,,,0,"Index(['5', '6', '12', '15', '16', '17', '24', '27', '32', '37',
       ...
       '4474', '4477', '4478', '4482', '4487', '4490', '4493', '4495', '4498',
       '4499'],
      dtype='object', length=1568)",True,1000,True,100,0.0,0.0,1cfcb13dc3
10,./expes/v3_2021-01-22_di_4500-prng-1-w1-p100,daily_issda-4500,4500,first-4500,896,19,rng,num-start-61,61,536,classic,1024.341811656952,False,,True,0.0,,,0,"Index(['4', '5', '12', '32', '38', '41', '56', '77', '78', '79',
       ...
       '4454', '4457', '4458', '4463', '4469', '4474', '4480', '4484', '4492',
       '4495'],
      dtype='object', length=896)",True,1000,True,100,0.0,0.0,42af8571eb
11,./expes/v3_2021-01-22_di_4500-prng-1-w1-p100,daily_issda-4500,4500,first-4500,1120,24,rng,num-start-181,181,536,classic,1072.314602613449,False,,True,0.0,,,0,"Index(['1', '2', '4', '8', '9', '19', '25', '28', '30', '34',
       ...
       '4435', '4438', '4442', '4447', '4449', '4457', '4469', '4472', '4479',
       '4498'],
      dtype='object', length=1120)",True,1000,True,100,0.0,0.0,605aadf119
12,./expes/v3_2021-01-22_di_4500-prng-1-w1-p100,daily_issda-4500,4500,first-4500,2240,49,rng,num-start-1,1,536,classic,32.39288091659546,False,,True,0.2995741003190025,0.2962804818268609,0.3007163987249344,10,"Index(['4', '5', '6', '8', '12', '14', '18', '21', '22', '27',
       ...
       '4482', '4484', '4486', '4488', '4489', '4491', '4492', '4495', '4496',
       '4500'],
      dtype='object', length=2240)",False,1000,True,100,1.0,1.0,09bcff9d91
13,./expes/v3_2021-01-22_di_4500-prng-1-w1-p100,daily_issda-4500,4500,first-4500,1008,22,rng,num-start-181,181,536,classic,1070.9935166835785,False,,True,0.0,,,0,"Index(['8', '14', '20', '31', '33', '46', '49', '51', '55', '60',
       ...
       '4475', '4476', '4478', '4486', '4490', '4492', '4493', '4496', '4497',
       '4499'],
      dtype='object', length=1008)",True,1000,True,100,0.0,0.0,81cc5d98c9
14,./expes/v3_2021-01-22_di_4500-prng-1-w1-p100,daily_issda-4500,4500,first-4500,1232,27,rng,num-start-171,171,536,classic,1070.455289363861,False,,True,0.0,,,0,"Index(['8', '14', '20', '24', '31', '33', '35', '36', '46', '49',
       ...
       '4475', '4476', '4478', '4486', '4490', '4492', '4493', '4496', '4497',
       '4499'],
      dtype='object', length=1232)",True,1000,True,100,0.0,0.0,9a93204b8c
15,./expes/v3_2021-01-22_di_4500-prng-1-w1-p100,daily_issda-4500,4500,first-4500,560,12,rng,num-start-111,111,536,classic,1045.7847859859469,False,,True,0.0,,,0,"Index(['4', '6', '8', '15', '24', '27', '28', '44', '52', '75',
       ...
       '4466', '4467', '4470', '4481', '4484', '4491', '4492', '4493', '4498',
       '4499'],
      dtype='object', length=560)",True,1000,True,100,0.0,0.0,79a386e6b5
16,./expes/v3_2021-01-22_di_4500-prng-1-w1-p100,daily_issda-4500,4500,first-4500,224,4,rng,num-start-101,101,536,classic,1039.5231668949127,False,,True,0.0,,,0,"Index(['25', '38', '55', '98', '109', '139', '164', '186', '210', '249',
       ...
       '4290', '4307', '4320', '4325', '4332', '4334', '4357', '4422', '4465',
       '4484'],
      dtype='object', length=224)",True,1000,True,100,0.0,0.0,3404c11417
17,./expes/v3_2021-01-22_di_4500-prng-1-w1-p100,daily_issda-4500,4500,first-4500,1568,34,rng,num-start-231,231,536,classic,1098.0629749298096,False,,True,0.0,,,0,"Index(['2', '3', '4', '7', '10', '11', '13', '15', '16', '23',
       ...
       '4480', '4482', '4484', '4486', '4489', '4491', '4492', '4493', '4494',
       '4499'],
      dtype='object', length=1568)",True,1000,True,100,0.0,0.0,9b31bcc115
18,./expes/v3_2021-01-22_di_4500-prng-1-w1-p100,daily_issda-4500,4500,first-4500,1344,29,rng,num-start-261,261,536,classic,1102.346390724182,False,,True,0.0,,,0,"Index(['4', '5', '6', '8', '9', '10', '16', '17', '18', '25',
       ...
       '4456', '4463', '4466', '4468', '4469', '4474', '4478', '4480', '4482',
       '4495'],
      dtype='object', length=1344)",True,1000,True,100,0.0,0.0,dbda60994c
19,./expes/v3_2021-01-22_di_4500-prng-1-w1-p100,daily_issda-4500,4500,first-4500,2128,47,rng,num-start-41,41,536,classic,1015.9021639823914,False,,True,0.0,,,0,"Index(['1', '2', '3', '4', '5', '7', '9', '10', '11', '12',
       ...
       '4483', '4484', '4489', '4490', '4491', '4494', '4496', '4497', '4499',
       '4500'],
      dtype='object', length=2128)",True,1000,True,100,0.0,0.0,70bd91d306
20,./expes/v3_2021-01-22_di_4500-prng-1-w1-p100,daily_issda-4500,4500,first-4500,2016,44,rng,num-start-61,61,536,classic,1024.355982542038,False,,True,0.0,,,0,"Index(['1', '2', '3', '4', '5', '6', '8', '11', '13', '15',
       ...
       '4474', '4477', '4480', '4481', '4486', '4489', '4490', '4493', '4499',
       '4500'],
      dtype='object', length=2016)",True,1000,True,100,0.0,0.0,603809e87f
21,./expes/v3_2021-01-22_di_4500-prng-1-w1-p100,daily_issda-4500,4500,first-4500,448,9,rng,num-start-61,61,536,classic,1026.072581768036,False,,True,0.0,,,0,"Index(['6', '27', '32', '44', '45', '53', '60', '68', '71', '78',
       ...
       '4422', '4423', '4440', '4442', '4450', '4456', '4460', '4469', '4482',
       '4495'],
      dtype='object', length=448)",True,1000,True,100,0.0,0.0,3ad0a9d15c
22,./expes/v3_2021-01-22_di_4500-prng-1-w1-p100,daily_issda-4500,4500,first-4500,1904,42,rng,num-start-211,211,536,classic,1086.971242427826,False,,True,0.0,,,0,"Index(['2', '4', '5', '7', '8', '10', '11', '12', '13', '14',
       ...
       '4480', '4481', '4483', '4492', '4493', '4494', '4495', '4496', '4497',
       '4498'],
      dtype='object', length=1904)",True,1000,True,100,0.0,0.0,87056b3153
23,./expes/v3_2021-01-22_di_4500-prng-1-w1-p100,daily_issda-4500,4500,first-4500,672,14,rng,num-start-241,241,536,classic,1101.5334436893463,False,,True,0.0,,,0,"Index(['1', '2', '4', '8', '9', '25', '30', '34', '48', '51',
       ...
       '4394', '4401', '4407', '4409', '4417', '4418', '4438', '4442', '4447',
       '4498'],
      dtype='object', length=672)",True,1000,True,100,0.0,0.0,2eb6976355
24,./expes/v3_2021-01-22_di_4500-prng-1-w1-p100,daily_issda-4500,4500,first-4500,1792,39,rng,num-start-41,41,536,classic,1016.4251008033752,False,,True,0.0,,,0,"Index(['2', '4', '5', '7', '8', '10', '11', '12', '13', '14',
       ...
       '4480', '4481', '4483', '4492', '4493', '4494', '4495', '4496', '4497',
       '4498'],
      dtype='object', length=1792)",True,1000,True,100,0.0,0.0,e39f326a1d
25,./expes/v3_2021-01-22_di_4500-prng-1-w1-p100,daily_issda-4500,4500,first-4500,672,14,rng,num-start-1,1,536,classic,35.71780610084534,False,,True,0.4986605396969539,0.494418791585521,0.5006116210240423,10,"Index(['4', '10', '25', '38', '45', '55', '87', '91', '98', '103',
       ...
       '4453', '4465', '4468', '4476', '4478', '4482', '4484', '4486', '4489',
       '4491'],
      dtype='object', length=672)",False,1000,True,100,1.0,1.0,6c69012b63
26,./expes/v3_2021-01-22_di_4500-prng-1-w1-p100,daily_issda-4500,4500,first-4500,896,19,rng,num-start-241,241,536,classic,1107.446084022522,False,,True,0.0,,,0,"Index(['16', '21', '24', '25', '31', '35', '38', '43', '46', '51',
       ...
       '4454', '4460', '4462', '4469', '4475', '4482', '4488', '4494', '4495',
       '4499'],
      dtype='object', length=896)",True,1000,True,100,0.0,0.0,c55953375c
27,./expes/v3_2021-01-22_di_4500-prng-1-w1-p100,daily_issda-4500,4500,first-4500,2128,47,rng,num-start-31,31,536,classic,1012.4696922302246,False,,True,0.0,,,0,"Index(['1', '2', '3', '4', '5', '6', '8', '11', '13', '15',
       ...
       '4477', '4480', '4481', '4486', '4489', '4490', '4493', '4496', '4499',
       '4500'],
      dtype='object', length=2128)",True,1000,True,100,0.0,0.0,cb3f54dae9
28,./expes/v3_2021-01-22_di_4500-prng-1-w1-p100,daily_issda-4500,4500,first-4500,224,4,rng,num-start-211,211,536,classic,1088.2463037967682,False,,True,0.0,,,0,"Index(['2', '48', '51', '75', '83', '92', '108', '115', '167', '180',
       ...
       '4209', '4234', '4288', '4305', '4356', '4378', '4388', '4417', '4418',
       '4438'],
      dtype='object', length=224)",True,1000,True,100,0.0,0.0,8cd9062e17
29,./expes/v3_2021-01-22_di_4500-prng-1-w1-p100,daily_issda-4500,4500,first-4500,112,2,rng,num-start-281,281,536,classic,1114.7398278713226,False,,True,0.0,,,0,"Index(['18', '25', '119', '246', '294', '317', '319', '349', '354', '567',
       ...
       '4022', '4067', '4080', '4263', '4277', '4282', '4314', '4353', '4391',
       '4451'],
      dtype='object', length=112)",True,1000,True,100,0.0,0.0,e3e9a40816
30,./expes/v3_2021-01-22_di_4500-prng-1-w1-p100,daily_issda-4500,4500,first-4500,784,17,rng,num-start-171,171,536,classic,1071.5178935527802,False,,True,0.0,,,0,"Index(['14', '15', '20', '23', '29', '30', '39', '41', '57', '60',
       ...
       '4435', '4436', '4439', '4450', '4456', '4459', '4460', '4463', '4484',
       '4493'],
      dtype='object', length=784)",True,1000,True,100,0.0,0.0,8f4967b4cb
31,./expes/v3_2021-01-22_di_4500-prng-1-w1-p100,daily_issda-4500,4500,first-4500,784,17,rng,num-start-91,91,536,classic,1036.629320144653,False,,True,0.0,,,0,"Index(['1', '4', '6', '8', '9', '13', '14', '15', '24', '25',
       ...
       '4470', '4471', '4473', '4481', '4484', '4491', '4492', '4493', '4498',
       '4499'],
      dtype='object', length=784)",True,1000,True,100,0.0,0.0,4ae5efaee9
32,./expes/v3_2021-01-22_di_4500-prng-1-w1-p100,daily_issda-4500,4500,first-4500,2128,47,rng,num-start-141,141,536,classic,1061.2652733325958,False,,True,0.0,,,0,"Index(['1', '3', '5', '6', '7', '13', '14', '15', '17', '18',
       ...
       '4474', '4477', '4482', '4484', '4485', '4487', '4492', '4494', '4499',
       '4500'],
      dtype='object', length=2128)",True,1000,True,100,0.0,0.0,a79b182e1c
33,./expes/v3_2021-01-22_di_4500-prng-1-w1-p100,daily_issda-4500,4500,first-4500,784,17,rng,num-start-251,251,536,classic,1108.6716134548187,False,,True,0.0,,,0,"Index(['1', '2', '3', '10', '13', '16', '20', '27', '28', '31',
       ...
       '4455', '4459', '4460', '4467', '4477', '4483', '4485', '4494', '4495',
       '4499'],
      dtype='object', length=784)",True,1000,True,100,0.0,0.0,51c475279c
34,./expes/v3_2021-01-22_di_4500-prng-1-w1-p100,daily_issda-4500,4500,first-4500,224,4,rng,num-start-221,221,536,classic,1094.9231796264648,False,,True,0.0,,,0,"Index(['43', '62', '68', '80', '87', '100', '126', '147', '158', '170',
       ...
       '4396', '4399', '4411', '4414', '4417', '4424', '4426', '4442', '4449',
       '4455'],
      dtype='object', length=224)",True,1000,True,100,0.0,0.0,9e1e21206f
35,./expes/v3_2021-01-22_di_4500-prng-1-w1-p100,daily_issda-4500,4500,first-4500,112,2,rng,num-start-91,91,536,classic,1039.0926384925842,False,,True,0.0,,,0,"Index(['69', '174', '193', '196', '208', '225', '262', '293', '295', '335',
       ...
       '4180', '4194', '4209', '4223', '4242', '4280', '4304', '4307', '4345',
       '4458'],
      dtype='object', length=112)",True,1000,True,100,0.0,0.0,bd55ebfaeb
36,./expes/v3_2021-01-22_di_4500-prng-1-w1-p100,daily_issda-4500,4500,first-4500,2016,44,rng,num-start-181,181,536,classic,1074.8376636505127,False,,True,0.0,,,0,"Index(['2', '5', '6', '9', '12', '15', '16', '17', '20', '21',
       ...
       '4478', '4480', '4482', '4484', '4487', '4490', '4493', '4495', '4498',
       '4499'],
      dtype='object', length=2016)",True,1000,True,100,0.0,0.0,01034bff02
37,./expes/v3_2021-01-22_di_4500-prng-1-w1-p100,daily_issda-4500,4500,first-4500,1232,27,rng,num-start-81,81,536,classic,1033.425218582153,False,,True,0.0,,,0,"Index(['1', '4', '6', '8', '9', '10', '13', '14', '15', '17',
       ...
       '4471', '4473', '4481', '4484', '4486', '4491', '4492', '4493', '4498',
       '4499'],
      dtype='object', length=1232)",True,1000,True,100,0.0,0.0,38462e0023
38,./expes/v3_2021-01-22_di_4500-prng-1-w1-p100,daily_issda-4500,4500,first-4500,560,12,rng,num-start-291,291,536,classic,1121.7763187885284,False,,True,0.0,,,0,"Index(['14', '31', '51', '55', '64', '67', '69', '71', '85', '89',
       ...
       '4450', '4457', '4459', '4475', '4476', '4478', '4490', '4492', '4496',
       '4497'],
      dtype='object', length=560)",True,1000,True,100,0.0,0.0,a6a4b5acb0
39,./expes/v3_2021-01-22_di_4500-prng-1-w1-p100,daily_issda-4500,4500,first-4500,1680,37,rng,num-start-21,21,536,classic,1008.4606659412384,False,,True,0.0,,,0,"Index(['1', '2', '3', '4', '8', '9', '16', '19', '25', '28',
       ...
       '4469', '4472', '4473', '4475', '4479', '4483', '4486', '4498', '4499',
       '4500'],
      dtype='object', length=1680)",True,1000,True,100,0.0,0.0,b694957eee
40,./expes/v3_2021-01-22_di_4500-prng-1-w1-p100,daily_issda-4500,4500,first-4500,1008,22,rng,num-start-1,1,536,classic,58.143604040145874,False,,True,0.4161173057627055,0.4149373636023598,0.4183666108087555,10,"Index(['14', '15', '16', '20', '23', '29', '30', '39', '41', '44',
       ...
       '4450', '4456', '4459', '4460', '4463', '4473', '4474', '4482', '4484',
       '4493'],
      dtype='object', length=1008)",False,1000,True,100,1.0,1.0,63344d19eb
41,./expes/v3_2021-01-22_di_4500-prng-1-w1-p100,daily_issda-4500,4500,first-4500,1456,32,rng,num-start-271,271,536,classic,1111.9834587574005,False,,True,0.0,,,0,"Index(['4', '5', '8', '12', '22', '28', '29', '32', '33', '38',
       ...
       '4474', '4475', '4480', '4482', '4484', '4488', '4489', '4491', '4492',
       '4495'],
      dtype='object', length=1456)",True,1000,True,100,0.0,0.0,7d872f4a87
42,./expes/v3_2021-01-22_di_4500-prng-1-w1-p100,daily_issda-4500,4500,first-4500,448,9,rng,num-start-231,231,536,classic,1099.1722724437714,False,,True,0.0,,,0,"Index(['1', '2', '10', '13', '20', '28', '65', '73', '80', '102',
       ...
       '4447', '4449', '4459', '4460', '4477', '4483', '4485', '4494', '4495',
       '4499'],
      dtype='object', length=448)",True,1000,True,100,0.0,0.0,628d2f19a5
43,./expes/v3_2021-01-22_di_4500-prng-1-w1-p100,daily_issda-4500,4500,first-4500,1904,42,rng,num-start-261,261,536,classic,1108.1082291603088,False,,True,0.0,,,0,"Index(['4', '6', '7', '10', '11', '12', '16', '17', '18', '19',
       ...
       '4479', '4481', '4482', '4487', '4488', '4490', '4494', '4495', '4499',
       '4500'],
      dtype='object', length=1904)",True,1000,True,100,0.0,0.0,4f674c478c
44,./expes/v3_2021-01-22_di_4500-prng-1-w1-p100,daily_issda-4500,4500,first-4500,2128,47,rng,num-start-41,41,536,classic,1017.4150972366332,False,,True,0.0,,,0,"Index(['2', '3', '4', '7', '8', '9', '10', '11', '13', '15',
       ...
       '4486', '4488', '4489', '4491', '4492', '4493', '4494', '4496', '4499',
       '4500'],
      dtype='object', length=2128)",True,1000,True,100,0.0,0.0,4e0c01064f
45,./expes/v3_2021-01-22_di_4500-prng-1-w1-p100,daily_issda-4500,4500,first-4500,1120,24,rng,num-start-191,191,536,classic,1081.3729248046875,False,,True,0.0,,,0,"Index(['5', '8', '14', '17', '22', '23', '27', '30', '39', '40',
       ...
       '4465', '4467', '4469', '4470', '4472', '4475', '4483', '4487', '4489',
       '4500'],
      dtype='object', length=1120)",True,1000,True,100,0.0,0.0,e05cb3baeb
46,./expes/v3_2021-01-22_di_4500-prng-1-w1-p100,daily_issda-4500,4500,first-4500,2128,47,rng,num-start-41,41,536,classic,1016.8221700191498,False,,True,0.0,,,0,"Index(['1', '2', '3', '4', '12', '14', '15', '16', '17', '19',
       ...
       '4474', '4475', '4477', '4479', '4481', '4483', '4490', '4493', '4495',
       '4500'],
      dtype='object', length=2128)",True,1000,True,100,0.0,0.0,3f36113cb3
47,./expes/v3_2021-01-22_di_4500-prng-1-w1-p100,daily_issda-4500,4500,first-4500,1456,32,rng,num-start-141,141,536,classic,1059.9047746658323,False,,True,0.0,,,0,"Index(['1', '2', '3', '4', '8', '9', '16', '19', '25', '28',
       ...
       '4464', '4467', '4469', '4472', '4473', '4475', '4479', '4486', '4498',
       '4500'],
      dtype='object', length=1456)",True,1000,True,100,0.0,0.0,56726a008f
48,./expes/v3_2021-01-22_di_4500-prng-1-w1-p100,daily_issda-4500,4500,first-4500,448,9,rng,num-start-231,231,536,classic,1096.885083913803,False,,True,0.0,,,0,"Index(['21', '24', '31', '38', '55', '62', '66', '74', '96', '99',
       ...
       '4375', '4386', '4389', '4392', '4454', '4460', '4475', '4488', '4494',
       '4495'],
      dtype='object', length=448)",True,1000,True,100,0.0,0.0,bf6a7cd56b
49,./expes/v3_2021-01-22_di_4500-prng-1-w1-p100,daily_issda-4500,4500,first-4500,1232,27,rng,num-start-261,261,536,classic,1115.901461839676,False,,True,0.0,,,0,"Index(['1', '2', '14', '15', '16', '20', '23', '29', '30', '39',
       ...
       '4456', '4459', '4460', '4463', '4473', '4474', '4482', '4484', '4493',
       '4495'],
      dtype='object', length=1232)",True,1000,True,100,0.0,0.0,eaadab16f3
50,./expes/v3_2021-01-22_di_4500-prng-1-w1-p100,daily_issda-4500,4500,first-4500,2016,44,rng,num-start-241,241,536,classic,1103.8368792533877,False,,True,0.0,,,0,"Index(['4', '8', '9', '10', '11', '14', '16', '20', '24', '31',
       ...
       '4480', '4482', '4486', '4490', '4492', '4493', '4496', '4497', '4498',
       '4499'],
      dtype='object', length=2016)",True,1000,True,100,0.0,0.0,341ff639b9
51,./expes/v3_2021-01-22_di_4500-prng-1-w1-p100,daily_issda-4500,4500,first-4500,336,7,rng,num-start-11,11,536,classic,1004.8021640777588,False,,True,0.0,,,0,"Index(['18', '25', '31', '34', '41', '46', '47', '79', '105', '119',
       ...
       '4372', '4374', '4384', '4391', '4397', '4451', '4468', '4469', '4480',
       '4482'],
      dtype='object', length=336)",True,1000,True,100,0.0,0.0,ed837b46c3
52,./expes/v3_2021-01-22_di_4500-prng-1-w1-p100,daily_issda-4500,4500,first-4500,112,2,rng,num-start-111,111,536,classic,1047.2466983795166,False,,True,0.0,,,0,"Index(['48', '51', '75', '83', '92', '108', '115', '167', '182', '187',
       ...
       '4014', '4027', '4050', '4090', '4188', '4234', '4288', '4305', '4418',
       '4438'],
      dtype='object', length=112)",True,1000,True,100,0.0,0.0,ba63bd4a3d
53,./expes/v3_2021-01-22_di_4500-prng-1-w1-p100,daily_issda-4500,4500,first-4500,336,7,rng,num-start-261,261,536,classic,1106.2256050109863,False,,True,0.0,,,0,"Index(['17', '24', '57', '72', '102', '133', '138', '148', '155', '179',
       ...
       '4408', '4422', '4439', '4440', '4444', '4460', '4467', '4469', '4471',
       '4483'],
      dtype='object', length=336)",True,1000,True,100,0.0,0.0,b066ee7e8f
54,./expes/v3_2021-01-22_di_4500-prng-1-w1-p100,daily_issda-4500,4500,first-4500,2240,49,rng,num-start-71,71,536,classic,1029.7402050495148,False,,True,0.0,,,0,"Index(['1', '3', '5', '6', '7', '13', '14', '15', '17', '18',
       ...
       '4474', '4477', '4482', '4484', '4485', '4487', '4492', '4494', '4499',
       '4500'],
      dtype='object', length=2240)",True,1000,True,100,0.0,0.0,85c0ed1b1e
55,./expes/v3_2021-01-22_di_4500-prng-1-w1-p100,daily_issda-4500,4500,first-4500,1680,37,rng,num-start-21,21,536,classic,1009.4530444145204,False,,True,0.0,,,0,"Index(['2', '4', '9', '10', '11', '12', '14', '15', '16', '22',
       ...
       '4473', '4482', '4488', '4490', '4492', '4494', '4495', '4496', '4499',
       '4500'],
      dtype='object', length=1680)",True,1000,True,100,0.0,0.0,af4f4bab85
56,./expes/v3_2021-01-22_di_4500-prng-1-w1-p100,daily_issda-4500,4500,first-4500,224,4,rng,num-start-1,1,536,classic,18.975066423416138,False,,True,0.6930103569835209,0.6922863207791374,0.6937343931879041,10,"Index(['15', '28', '44', '75', '95', '108', '149', '177', '188', '227',
       ...
       '4337', '4343', '4357', '4371', '4418', '4455', '4466', '4481', '4491',
       '4498'],
      dtype='object', length=224)",False,1000,True,100,1.0,1.0,e5d2f5d9c1
57,./expes/v3_2021-01-22_di_4500-prng-1-w1-p100,daily_issda-4500,4500,first-4500,2240,49,rng,num-start-221,221,536,classic,1094.4318537712095,False,,True,0.0,,,0,"Index(['1', '2', '3', '4', '7', '8', '9', '11', '16', '19',
       ...
       '4479', '4482', '4483', '4486', '4493', '4495', '4497', '4498', '4499',
       '4500'],
      dtype='object', length=2240)",True,1000,True,100,0.0,0.0,e8e924053e
58,./expes/v3_2021-01-22_di_4500-prng-1-w1-p100,daily_issda-4500,4500,first-4500,1792,39,rng,num-start-221,221,536,classic,1095.061844587326,False,,True,0.0,,,0,"Index(['5', '6', '9', '12', '15', '16', '17', '24', '27', '32',
       ...
       '4477', '4478', '4480', '4482', '4487', '4490', '4493', '4495', '4498',
       '4499'],
      dtype='object', length=1792)",True,1000,True,100,0.0,0.0,fc8457e00a
59,./expes/v3_2021-01-22_di_4500-prng-1-w1-p100,daily_issda-4500,4500,first-4500,448,9,rng,num-start-21,21,536,classic,1008.7751367092133,False,,True,0.0,,,0,"Index(['14', '22', '27', '40', '46', '60', '71', '77', '87', '108',
       ...
       '4402', '4412', '4426', '4439', '4452', '4458', '4465', '4475', '4483',
       '4487'],
      dtype='object', length=448)",True,1000,True,100,0.0,0.0,bd560728d8
60,./expes/v3_2021-01-22_di_4500-prng-1-w1-p100,daily_issda-4500,4500,first-4500,560,12,rng,num-start-151,151,536,classic,1060.3691155910492,False,,True,0.0,,,0,"Index(['4', '10', '13', '22', '23', '27', '40', '44', '51', '80',
       ...
       '4439', '4440', '4447', '4451', '4456', '4464', '4466', '4471', '4481',
       '4483'],
      dtype='object', length=560)",True,1000,True,100,0.0,0.0,3cf526c8f8
61,./expes/v3_2021-01-22_di_4500-prng-1-w1-p100,daily_issda-4500,4500,first-4500,112,2,rng,num-start-191,191,536,classic,1083.2559714317322,False,,True,0.0,,,0,"Index(['15', '28', '44', '75', '108', '149', '177', '188', '238', '301',
       ...
       '3943', '3964', '4199', '4202', '4299', '4343', '4418', '4455', '4466',
       '4498'],
      dtype='object', length=112)",True,1000,True,100,0.0,0.0,f062ddc988
62,./expes/v3_2021-01-22_di_4500-prng-1-w1-p100,daily_issda-4500,4500,first-4500,560,12,rng,num-start-281,281,536,classic,1120.154905319214,False,,True,0.0,,,0,"Index(['17', '24', '44', '53', '57', '70', '72', '102', '108', '121',
       ...
       '4440', '4444', '4460', '4467', '4469', '4471', '4477', '4483', '4493',
       '4495'],
      dtype='object', length=560)",True,1000,True,100,0.0,0.0,cfb54a26a5
63,./expes/v3_2021-01-22_di_4500-prng-1-w1-p100,daily_issda-4500,4500,first-4500,2016,44,rng,num-start-71,71,536,classic,1031.0653975009918,False,,True,0.0,,,0,"Index(['3', '4', '5', '7', '8', '10', '11', '14', '16', '17',
       ...
       '4476', '4478', '4480', '4483', '4487', '4488', '4489', '4496', '4497',
       '4500'],
      dtype='object', length=2016)",True,1000,True,100,0.0,0.0,2991778ed9
64,./expes/v3_2021-01-22_di_4500-prng-1-w1-p100,daily_issda-4500,4500,first-4500,1456,32,rng,num-start-71,71,536,classic,1029.348305940628,False,,True,0.0,,,0,"Index(['5', '7', '10', '21', '24', '25', '29', '30', '34', '36',
       ...
       '4464', '4465', '4467', '4469', '4474', '4477', '4480', '4484', '4498',
       '4499'],
      dtype='object', length=1456)",True,1000,True,100,0.0,0.0,ff77059332
65,./expes/v3_2021-01-22_di_4500-prng-1-w1-p100,daily_issda-4500,4500,first-4500,1344,29,rng,num-start-11,11,536,classic,1004.7601509094238,False,,True,0.0,,,0,"Index(['5', '6', '12', '16', '17', '24', '27', '32', '37', '41',
       ...
       '4469', '4470', '4473', '4474', '4477', '4478', '4482', '4493', '4495',
       '4499'],
      dtype='object', length=1344)",True,1000,True,100,0.0,0.0,3b43fb1e33
66,./expes/v3_2021-01-22_di_4500-prng-1-w1-p100,daily_issda-4500,4500,first-4500,1120,24,rng,num-start-41,41,536,classic,1016.6955053806304,False,,True,0.0,,,0,"Index(['1', '4', '6', '8', '9', '13', '14', '15', '20', '24',
       ...
       '4471', '4473', '4481', '4484', '4486', '4491', '4492', '4493', '4498',
       '4499'],
      dtype='object', length=1120)",True,1000,True,100,0.0,0.0,0be5d1e5e5
67,./expes/v3_2021-01-22_di_4500-prng-1-w1-p100,daily_issda-4500,4500,first-4500,224,4,rng,num-start-241,241,536,classic,1098.9977934360504,False,,True,0.0,,,0,"Index(['2', '48', '51', '75', '83', '92', '108', '115', '167', '180',
       ...
       '4209', '4234', '4288', '4305', '4356', '4378', '4388', '4417', '4418',
       '4438'],
      dtype='object', length=224)",True,1000,True,100,0.0,0.0,a845768cf2
68,./expes/v3_2021-01-22_di_4500-prng-1-w1-p100,daily_issda-4500,4500,first-4500,1904,42,rng,num-start-161,161,536,classic,1067.9707453250885,False,,True,0.0,,,0,"Index(['1', '5', '8', '11', '12', '13', '14', '15', '16', '18',
       ...
       '4476', '4477', '4481', '4482', '4484', '4486', '4488', '4494', '4495',
       '4499'],
      dtype='object', length=1904)",True,1000,True,100,0.0,0.0,4888dfe15b
69,./expes/v3_2021-01-22_di_4500-prng-1-w1-p100,daily_issda-4500,4500,first-4500,448,9,rng,num-start-231,231,536,classic,1095.0441811084747,False,,True,0.0,,,0,"Index(['15', '16', '25', '35', '40', '44', '69', '70', '86', '96',
       ...
       '4366', '4368', '4388', '4408', '4412', '4431', '4458', '4467', '4486',
       '4494'],
      dtype='object', length=448)",True,1000,True,100,0.0,0.0,0ba5cfd01f
70,./expes/v3_2021-01-22_di_4500-prng-1-w1-p100,daily_issda-4500,4500,first-4500,1120,24,rng,num-start-271,271,536,classic,1117.0443441867828,False,,True,0.0,,,0,"Index(['8', '14', '20', '31', '33', '36', '46', '49', '51', '55',
       ...
       '4475', '4476', '4478', '4486', '4490', '4492', '4493', '4496', '4497',
       '4499'],
      dtype='object', length=1120)",True,1000,True,100,0.0,0.0,59e5c08531
71,./expes/v3_2021-01-22_di_4500-prng-1-w1-p100,daily_issda-4500,4500,first-4500,448,9,rng,num-start-181,181,536,classic,1071.8185722827911,False,,True,0.0,,,0,"Index(['13', '18', '47', '62', '70', '76', '82', '87', '90', '101',
       ...
       '4437', '4448', '4459', '4463', '4469', '4487', '4490', '4492', '4496',
       '4500'],
      dtype='object', length=448)",True,1000,True,100,0.0,0.0,d8f86e992e
72,./expes/v3_2021-01-22_di_4500-prng-1-w1-p100,daily_issda-4500,4500,first-4500,1456,32,rng,num-start-261,261,536,classic,1107.0835349559784,False,,True,0.0,,,0,"Index(['1', '4', '6', '8', '9', '10', '13', '14', '15', '16',
       ...
       '4476', '4481', '4484', '4486', '4490', '4491', '4492', '4493', '4498',
       '4499'],
      dtype='object', length=1456)",True,1000,True,100,0.0,0.0,3f8a95712b
73,./expes/v3_2021-01-22_di_4500-prng-1-w1-p100,daily_issda-4500,4500,first-4500,2240,49,rng,num-start-81,81,536,classic,1032.6959731578827,False,,True,0.0,,,0,"Index(['1', '2', '3', '4', '7', '8', '9', '11', '16', '19',
       ...
       '4479', '4482', '4483', '4486', '4493', '4495', '4497', '4498', '4499',
       '4500'],
      dtype='object', length=2240)",True,1000,True,100,0.0,0.0,e4a5fc80c5
74,./expes/v3_2021-01-22_di_4500-prng-1-w1-p100,daily_issda-4500,4500,first-4500,1008,22,rng,num-start-61,61,536,classic,1024.3064839839935,False,,True,0.0,,,0,"Index(['1', '2', '3', '14', '17', '24', '28', '33', '44', '45',
       ...
       '4469', '4471', '4474', '4477', '4479', '4481', '4483', '4493', '4495',
       '4500'],
      dtype='object', length=1008)",True,1000,True,100,0.0,0.0,be71308535
75,./expes/v3_2021-01-22_di_4500-prng-1-w1-p100,daily_issda-4500,4500,first-4500,336,7,rng,num-start-61,61,536,classic,1024.4062378406525,False,,True,0.0,,,0,"Index(['18', '25', '31', '34', '41', '46', '47', '79', '105', '119',
       ...
       '4372', '4374', '4384', '4391', '4397', '4451', '4468', '4469', '4480',
       '4482'],
      dtype='object', length=336)",True,1000,True,100,0.0,0.0,738aeda222
76,./expes/v3_2021-01-22_di_4500-prng-1-w1-p100,daily_issda-4500,4500,first-4500,2016,44,rng,num-start-131,131,536,classic,1055.4062476158142,False,,True,0.0,,,0,"Index(['1', '2', '5', '7', '12', '13', '14', '15', '16', '17',
       ...
       '4477', '4479', '4481', '4482', '4483', '4484', '4493', '4494', '4495',
       '4500'],
      dtype='object', length=2016)",True,1000,True,100,0.0,0.0,630bc45f3b
77,./expes/v3_2021-01-22_di_4500-prng-1-w1-p100,daily_issda-4500,4500,first-4500,896,19,rng,num-start-281,281,536,classic,1119.4800951480863,False,,True,0.0,,,0,"Index(['1', '2', '3', '5', '6', '15', '24', '29', '36', '40',
       ...
       '4465', '4468', '4473', '4480', '4481', '4486', '4489', '4493', '4499',
       '4500'],
      dtype='object', length=896)",True,1000,True,100,0.0,0.0,6b2fcd9ce8
78,./expes/v3_2021-01-22_di_4500-prng-1-w1-p100,daily_issda-4500,4500,first-4500,336,7,rng,num-start-121,121,536,classic,1052.7783522605896,False,,True,0.0,,,0,"Index(['1', '10', '13', '20', '28', '65', '73', '102', '109', '116',
       ...
       '4407', '4427', '4429', '4449', '4459', '4460', '4483', '4485', '4494',
       '4495'],
      dtype='object', length=336)",True,1000,True,100,0.0,0.0,2afe676574
79,./expes/v3_2021-01-22_di_4500-prng-1-w1-p100,daily_issda-4500,4500,first-4500,2128,47,rng,num-start-151,151,536,classic,1063.1538529396057,False,,True,0.0,,,0,"Index(['4', '8', '9', '10', '11', '13', '14', '16', '20', '24',
       ...
       '4482', '4486', '4490', '4492', '4493', '4496', '4497', '4498', '4499',
       '4500'],
      dtype='object', length=2128)",True,1000,True,100,0.0,0.0,351360a5cc
80,./expes/v3_2021-01-22_di_4500-prng-1-w1-p100,daily_issda-4500,4500,first-4500,560,12,rng,num-start-91,91,536,classic,1038.491596698761,False,,True,0.0,,,0,"Index(['1', '2', '10', '13', '20', '27', '28', '59', '65', '73',
       ...
       '4447', '4449', '4459', '4460', '4477', '4483', '4485', '4494', '4495',
       '4499'],
      dtype='object', length=560)",True,1000,True,100,0.0,0.0,6e11660f8f
81,./expes/v3_2021-01-22_di_4500-prng-1-w1-p100,daily_issda-4500,4500,first-4500,1680,37,rng,num-start-71,71,536,classic,1030.360268831253,False,,True,0.0,,,0,"Index(['4', '5', '8', '12', '22', '28', '29', '30', '32', '33',
       ...
       '4475', '4480', '4482', '4484', '4488', '4489', '4491', '4492', '4495',
       '4500'],
      dtype='object', length=1680)",True,1000,True,100,0.0,0.0,6c9727778b
82,./expes/v3_2021-01-22_di_4500-prng-1-w1-p100,daily_issda-4500,4500,first-4500,1568,34,rng,num-start-171,171,536,classic,1074.2085719108582,False,,True,0.0,,,0,"Index(['1', '2', '3', '4', '8', '9', '16', '19', '25', '28',
       ...
       '4467', '4469', '4472', '4473', '4475', '4479', '4483', '4486', '4498',
       '4500'],
      dtype='object', length=1568)",True,1000,True,100,0.0,0.0,16cc4fb1b6
83,./expes/v3_2021-01-22_di_4500-prng-1-w1-p100,daily_issda-4500,4500,first-4500,896,19,rng,num-start-61,61,536,classic,1025.9618365764618,False,,True,0.0,,,0,"Index(['1', '26', '39', '40', '42', '43', '47', '58', '59', '60',
       ...
       '4446', '4449', '4455', '4460', '4462', '4467', '4468', '4484', '4487',
       '4499'],
      dtype='object', length=896)",True,1000,True,100,0.0,0.0,38d791efad
84,./expes/v3_2021-01-22_di_4500-prng-1-w1-p100,daily_issda-4500,4500,first-4500,784,17,rng,num-start-41,41,536,classic,1018.5037822723388,False,,True,0.0,,,0,"Index(['2', '9', '10', '12', '15', '16', '24', '28', '30', '33',
       ...
       '4437', '4450', '4460', '4473', '4482', '4488', '4492', '4495', '4499',
       '4500'],
      dtype='object', length=784)",True,1000,True,100,0.0,0.0,2570e5c516
85,./expes/v3_2021-01-22_di_4500-prng-1-w1-p100,daily_issda-4500,4500,first-4500,336,7,rng,num-start-201,201,536,classic,1082.932140827179,False,,True,0.0,,,0,"Index(['18', '25', '31', '34', '41', '46', '47', '79', '105', '119',
       ...
       '4372', '4374', '4384', '4391', '4397', '4451', '4468', '4469', '4480',
       '4482'],
      dtype='object', length=336)",True,1000,True,100,0.0,0.0,c474e589e5
86,./expes/v3_2021-01-22_di_4500-prng-1-w1-p100,daily_issda-4500,4500,first-4500,2016,44,rng,num-start-121,121,536,classic,1053.3632588386536,False,,True,0.0,,,0,"Index(['4', '6', '7', '10', '11', '12', '16', '17', '18', '19',
       ...
       '4481', '4482', '4484', '4487', '4488', '4490', '4494', '4495', '4499',
       '4500'],
      dtype='object', length=2016)",True,1000,True,100,0.0,0.0,9994f66901
87,./expes/v3_2021-01-22_di_4500-prng-1-w1-p100,daily_issda-4500,4500,first-4500,2128,47,rng,num-start-221,221,536,classic,1092.8596155643463,False,,True,0.0,,,0,"Index(['4', '5', '7', '10', '13', '21', '24', '25', '29', '30',
       ...
       '4482', '4484', '4488', '4489', '4490', '4494', '4495', '4497', '4498',
       '4499'],
      dtype='object', length=2128)",True,1000,True,100,0.0,0.0,28a2f54bdd
88,./expes/v3_2021-01-22_di_4500-prng-1-w1-p100,daily_issda-4500,4500,first-4500,1904,42,rng,num-start-61,61,536,classic,1025.8307435512545,False,,True,0.0,,,0,"Index(['4', '5', '7', '10', '13', '21', '24', '25', '29', '30',
       ...
       '4474', '4477', '4480', '4484', '4488', '4489', '4494', '4495', '4498',
       '4499'],
      dtype='object', length=1904)",True,1000,True,100,0.0,0.0,d25c8424f1
89,./expes/v3_2021-01-22_di_4500-prng-1-w1-p100,daily_issda-4500,4500,first-4500,1792,39,rng,num-start-81,81,536,classic,1035.9152162075045,False,,True,0.0,,,0,"Index(['3', '5', '7', '8', '10', '14', '16', '17', '22', '23',
       ...
       '4470', '4472', '4475', '4478', '4480', '4483', '4487', '4489', '4497',
       '4500'],
      dtype='object', length=1792)",True,1000,True,100,0.0,0.0,e80a31d7b2
90,./expes/v3_2021-01-22_di_4500-prng-1-w1-p100,daily_issda-4500,4500,first-4500,1008,22,rng,num-start-261,261,536,classic,1109.3909702301023,False,,True,0.0,,,0,"Index(['1', '3', '10', '14', '16', '21', '26', '33', '47', '49',
       ...
       '4464', '4465', '4471', '4474', '4490', '4494', '4496', '4497', '4499',
       '4500'],
      dtype='object', length=1008)",True,1000,True,100,0.0,0.0,59ac4a0815
91,./expes/v3_2021-01-22_di_4500-prng-1-w1-p100,daily_issda-4500,4500,first-4500,1344,29,rng,num-start-81,81,536,classic,1033.173879623413,False,,True,0.0,,,0,"Index(['5', '7', '13', '18', '25', '29', '30', '32', '33', '35',
       ...
       '4473', '4476', '4481', '4482', '4487', '4490', '4492', '4496', '4499',
       '4500'],
      dtype='object', length=1344)",True,1000,True,100,0.0,0.0,6fb87a9c7b
92,./expes/v3_2021-01-22_di_4500-prng-1-w1-p100,daily_issda-4500,4500,first-4500,1008,22,rng,num-start-91,91,536,classic,1038.0402512550354,False,,True,0.0,,,0,"Index(['8', '14', '20', '31', '33', '46', '49', '51', '55', '60',
       ...
       '4475', '4476', '4478', '4486', '4490', '4492', '4493', '4496', '4497',
       '4499'],
      dtype='object', length=1008)",True,1000,True,100,0.0,0.0,e69fd95290
93,./expes/v3_2021-01-22_di_4500-prng-1-w1-p100,daily_issda-4500,4500,first-4500,672,14,rng,num-start-181,181,536,classic,1074.2652006149292,False,,True,0.0,,,0,"Index(['24', '25', '29', '34', '41', '42', '45', '58', '64', '81',
       ...
       '4427', '4430', '4435', '4437', '4452', '4461', '4464', '4465', '4498',
       '4499'],
      dtype='object', length=672)",True,1000,True,100,0.0,0.0,7ef91eabf9
94,./expes/v3_2021-01-22_di_4500-prng-1-w1-p100,daily_issda-4500,4500,first-4500,1120,24,rng,num-start-21,21,536,classic,1009.9651160240172,False,,True,0.0,,,0,"Index(['2', '4', '5', '10', '11', '12', '13', '22', '23', '25',
       ...
       '4466', '4467', '4471', '4475', '4477', '4481', '4483', '4494', '4496',
       '4497'],
      dtype='object', length=1120)",True,1000,True,100,0.0,0.0,7c5e69f878
95,./expes/v3_2021-01-22_di_4500-prng-1-w1-p100,daily_issda-4500,4500,first-4500,1344,29,rng,num-start-81,81,536,classic,1035.731189250946,False,,True,0.0,,,0,"Index(['1', '3', '7', '18', '19', '26', '29', '32', '39', '40',
       ...
       '4455', '4460', '4461', '4462', '4467', '4468', '4484', '4487', '4494',
       '4499'],
      dtype='object', length=1344)",True,1000,True,100,0.0,0.0,be4789a3b4
96,./expes/v3_2021-01-22_di_4500-prng-1-w1-p100,daily_issda-4500,4500,first-4500,560,12,rng,num-start-81,81,536,classic,1036.1968913078308,False,,True,0.0,,,0,"Index(['15', '16', '25', '35', '40', '44', '69', '70', '73', '86',
       ...
       '4412', '4413', '4431', '4434', '4446', '4458', '4462', '4467', '4486',
       '4494'],
      dtype='object', length=560)",True,1000,True,100,0.0,0.0,3284216b12
97,./expes/v3_2021-01-22_di_4500-prng-1-w1-p100,daily_issda-4500,4500,first-4500,1344,29,rng,num-start-271,271,536,classic,1122.6555211544037,False,,True,0.0,,,0,"Index(['2', '4', '5', '10', '11', '12', '13', '14', '17', '22',
       ...
       '4467', '4471', '4475', '4476', '4477', '4481', '4483', '4494', '4496',
       '4497'],
      dtype='object', length=1344)",True,1000,True,100,0.0,0.0,168b4ccff5
98,./expes/v3_2021-01-22_di_4500-prng-1-w1-p100,daily_issda-4500,4500,first-4500,1232,27,rng,num-start-81,81,536,classic,1034.7171080112455,False,,True,0.0,,,0,"Index(['5', '7', '13', '18', '25', '29', '32', '33', '35', '40',
       ...
       '4471', '4473', '4481', '4482', '4487', '4490', '4492', '4496', '4499',
       '4500'],
      dtype='object', length=1232)",True,1000,True,100,0.0,0.0,58d36ee035
99,./expes/v3_2021-01-22_di_4500-prng-1-w1-p100,daily_issda-4500,4500,first-4500,112,2,rng,num-start-141,141,536,classic,1061.7090716362,False,,True,0.0,,,0,"Index(['3', '87', '157', '171', '207', '228', '230', '285', '288', '351',
       ...
       '4007', '4100', '4151', '4209', '4230', '4273', '4308', '4319', '4343',
       '4382'],
      dtype='object', length=112)",True,1000,True,100,0.0,0.0,4405854f30
100,./expes/v3_2021-01-22_di_4500-prng-1-w1-p100,daily_issda-4500,4500,first-4500,1120,24,rng,num-start-191,191,536,classic,1080.6220705509186,False,,True,0.0,,,0,"Index(['16', '20', '21', '24', '25', '31', '35', '38', '43', '46',
       ...
       '4462', '4469', '4475', '4477', '4482', '4488', '4490', '4494', '4495',
       '4499'],
      dtype='object', length=1120)",True,1000,True,100,0.0,0.0,8f29aca533
101,./expes/v3_2021-01-22_di_4500-prng-1-w1-p100,daily_issda-4500,4500,first-4500,1344,29,rng,num-start-31,31,536,classic,1012.5325968265532,False,,True,0.0,,,0,"Index(['5', '8', '10', '14', '17', '22', '23', '27', '30', '38',
       ...
       '4467', '4469', '4470', '4472', '4475', '4480', '4483', '4487', '4489',
       '4500'],
      dtype='object', length=1344)",True,1000,True,100,0.0,0.0,770c27237a
102,./expes/v3_2021-01-22_di_4500-prng-1-w1-p100,daily_issda-4500,4500,first-4500,336,7,rng,num-start-271,271,536,classic,1117.4329979419708,False,,True,0.0,,,0,"Index(['4', '22', '40', '51', '80', '81', '101', '103', '108', '122',
       ...
       '4387', '4388', '4407', '4410', '4418', '4426', '4447', '4456', '4471',
       '4483'],
      dtype='object', length=336)",True,1000,True,100,0.0,0.0,d5a53c42aa
103,./expes/v3_2021-01-22_di_4500-prng-1-w1-p100,daily_issda-4500,4500,first-4500,224,4,rng,num-start-71,71,536,classic,1028.624221086502,False,,True,0.0,,,0,"Index(['4', '51', '103', '122', '140', '152', '167', '180', '233', '247',
       ...
       '4278', '4300', '4303', '4305', '4321', '4387', '4407', '4410', '4418',
       '4483'],
      dtype='object', length=224)",True,1000,True,100,0.0,0.0,547ac547d7
104,./expes/v3_2021-01-22_di_4500-prng-1-w1-p100,daily_issda-4500,4500,first-4500,336,7,rng,num-start-61,61,536,classic,1025.4318342208862,False,,True,0.0,,,0,"Index(['1', '3', '5', '15', '40', '64', '87', '125', '141', '157',
       ...
       '4377', '4382', '4412', '4435', '4444', '4452', '4463', '4468', '4473',
       '4493'],
      dtype='object', length=336)",True,1000,True,100,0.0,0.0,38397d3af4
105,./expes/v3_2021-01-22_di_4500-prng-1-w1-p100,daily_issda-4500,4500,first-4500,336,7,rng,num-start-31,31,536,classic,1012.5494978427888,False,,True,0.0,,,0,"Index(['14', '27', '40', '46', '60', '77', '87', '108', '149', '163',
       ...
       '4340', '4380', '4397', '4401', '4439', '4452', '4458', '4465', '4475',
       '4487'],
      dtype='object', length=336)",True,1000,True,100,0.0,0.0,809fa78ce2
106,./expes/v3_2021-01-22_di_4500-prng-1-w1-p100,daily_issda-4500,4500,first-4500,336,7,rng,num-start-271,271,536,classic,1104.493069648743,False,,True,0.0,,,0,"Index(['25', '38', '55', '98', '109', '139', '164', '181', '186', '210',
       ...
       '4325', '4326', '4332', '4334', '4357', '4372', '4379', '4422', '4465',
       '4484'],
      dtype='object', length=336)",True,1000,True,100,0.0,0.0,0f0440e2ae
107,./expes/v3_2021-01-22_di_4500-prng-1-w1-p100,daily_issda-4500,4500,first-4500,1232,27,rng,num-start-231,231,536,classic,1093.0510275363922,False,,True,0.0,,,0,"Index(['1', '2', '3', '5', '6', '8', '15', '24', '28', '29',
       ...
       '4465', '4468', '4473', '4480', '4481', '4486', '4489', '4493', '4499',
       '4500'],
      dtype='object', length=1232)",True,1000,True,100,0.0,0.0,4f39bc123d
108,./expes/v3_2021-01-22_di_4500-prng-1-w1-p100,daily_issda-4500,4500,first-4500,1568,34,rng,num-start-221,221,536,classic,1089.8431932926178,False,,True,0.0,,,0,"Index(['4', '6', '7', '10', '16', '17', '18', '19', '20', '21',
       ...
       '4479', '4481', '4482', '4487', '4488', '4490', '4494', '4495', '4499',
       '4500'],
      dtype='object', length=1568)",True,1000,True,100,0.0,0.0,f102a32600
109,./expes/v3_2021-01-22_di_4500-prng-1-w1-p100,daily_issda-4500,4500,first-4500,1120,24,rng,num-start-151,151,536,classic,1062.5257778167725,False,,True,0.0,,,0,"Index(['1', '7', '18', '19', '26', '32', '39', '40', '42', '43',
       ...
       '4446', '4449', '4455', '4460', '4462', '4467', '4468', '4484', '4487',
       '4499'],
      dtype='object', length=1120)",True,1000,True,100,0.0,0.0,9436aace1c
110,./expes/v3_2021-01-22_di_4500-prng-1-w1-p100,daily_issda-4500,4500,first-4500,2016,44,rng,num-start-121,121,536,classic,1050.9252088069916,False,,True,0.0,,,0,"Index(['1', '2', '3', '4', '5', '6', '9', '10', '11', '13',
       ...
       '4483', '4484', '4485', '4488', '4489', '4492', '4494', '4495', '4497',
       '4499'],
      dtype='object', length=2016)",True,1000,True,100,0.0,0.0,4e82883851
111,./expes/v3_2021-01-22_di_4500-prng-1-w1-p100,daily_issda-4500,4500,first-4500,1344,29,rng,num-start-171,171,536,classic,1069.8803758621216,False,,True,0.0,,,0,"Index(['1', '2', '3', '4', '14', '16', '17', '24', '25', '28',
       ...
       '4474', '4475', '4477', '4479', '4481', '4483', '4490', '4493', '4495',
       '4500'],
      dtype='object', length=1344)",True,1000,True,100,0.0,0.0,c16d0ad57d
112,./expes/v3_2021-01-22_di_4500-prng-1-w1-p100,daily_issda-4500,4500,first-4500,896,19,rng,num-start-281,281,536,classic,1113.518210887909,False,,True,0.0,,,0,"Index(['8', '14', '20', '31', '33', '46', '49', '51', '55', '60',
       ...
       '4475', '4476', '4478', '4486', '4490', '4492', '4493', '4496', '4497',
       '4499'],
      dtype='object', length=896)",True,1000,True,100,0.0,0.0,7a3ad6eb82
113,./expes/v3_2021-01-22_di_4500-prng-1-w1-p100,daily_issda-4500,4500,first-4500,336,7,rng,num-start-11,11,536,classic,1004.6300013065338,False,,True,0.0,,,0,"Index(['4', '5', '38', '56', '79', '89', '90', '93', '102', '120',
       ...
       '4276', '4329', '4350', '4382', '4386', '4399', '4413', '4422', '4434',
       '4474'],
      dtype='object', length=336)",True,1000,True,100,0.0,0.0,096a2262dd
114,./expes/v3_2021-01-22_di_4500-prng-1-w1-p100,daily_issda-4500,4500,first-4500,1568,34,rng,num-start-11,11,536,classic,1004.7740776538848,False,,True,0.0,,,0,"Index(['5', '7', '12', '13', '18', '25', '26', '28', '29', '30',
       ...
       '4473', '4476', '4481', '4482', '4487', '4490', '4492', '4496', '4499',
       '4500'],
      dtype='object', length=1568)",True,1000,True,100,0.0,0.0,da8a1f0358
115,./expes/v3_2021-01-22_di_4500-prng-1-w1-p100,daily_issda-4500,4500,first-4500,1008,22,rng,num-start-151,151,536,classic,1062.6324541568756,False,,True,0.0,,,0,"Index(['4', '5', '12', '32', '38', '41', '56', '77', '78', '79',
       ...
       '4458', '4463', '4469', '4474', '4475', '4480', '4484', '4489', '4492',
       '4495'],
      dtype='object', length=1008)",True,1000,True,100,0.0,0.0,0d2003cb29
116,./expes/v3_2021-01-22_di_4500-prng-1-w1-p100,daily_issda-4500,4500,first-4500,1232,27,rng,num-start-281,281,536,classic,1113.8189964294434,False,,True,0.0,,,0,"Index(['8', '14', '20', '24', '31', '33', '35', '36', '46', '49',
       ...
       '4475', '4476', '4478', '4486', '4490', '4492', '4493', '4496', '4497',
       '4499'],
      dtype='object', length=1232)",True,1000,True,100,0.0,0.0,1769dcb408
117,./expes/v3_2021-01-22_di_4500-prng-1-w1-p100,daily_issda-4500,4500,first-4500,1008,22,rng,num-start-11,11,536,classic,1004.6174023151398,False,,True,0.0,,,0,"Index(['1', '2', '4', '8', '9', '19', '25', '28', '30', '34',
       ...
       '4417', '4418', '4424', '4438', '4442', '4447', '4449', '4457', '4472',
       '4498'],
      dtype='object', length=1008)",True,1000,True,100,0.0,0.0,70636decf9
118,./expes/v3_2021-01-22_di_4500-prng-1-w1-p100,daily_issda-4500,4500,first-4500,112,2,rng,num-start-221,221,536,classic,1094.9834742546082,False,,True,0.0,,,0,"Index(['4', '103', '140', '152', '180', '233', '302', '375', '441', '627',
       ...
       '4127', '4217', '4233', '4235', '4278', '4303', '4321', '4407', '4410',
       '4418'],
      dtype='object', length=112)",True,1000,True,100,0.0,0.0,87d1df39f7
119,./expes/v3_2021-01-22_di_4500-prng-1-w1-p100,daily_issda-4500,4500,first-4500,1232,27,rng,num-start-101,101,536,classic,1042.696979045868,False,,True,0.0,,,0,"Index(['5', '8', '10', '14', '17', '22', '23', '27', '30', '38',
       ...
       '4467', '4469', '4470', '4472', '4475', '4480', '4483', '4487', '4489',
       '4500'],
      dtype='object', length=1232)",True,1000,True,100,0.0,0.0,5b4ee0a54c
120,./expes/v3_2021-01-22_di_4500-prng-1-w1-p100,daily_issda-4500,4500,first-4500,896,19,rng,num-start-151,151,536,classic,1062.253544330597,False,,True,0.0,,,0,"Index(['2', '3', '17', '24', '28', '33', '44', '45', '49', '53',
       ...
       '4467', '4469', '4471', '4477', '4479', '4481', '4483', '4493', '4495',
       '4500'],
      dtype='object', length=896)",True,1000,True,100,0.0,0.0,c90f7ad233
121,./expes/v3_2021-01-22_di_4500-prng-1-w1-p100,daily_issda-4500,4500,first-4500,1344,29,rng,num-start-121,121,536,classic,1049.4473905563354,False,,True,0.0,,,0,"Index(['1', '3', '4', '10', '14', '16', '21', '26', '30', '33',
       ...
       '4465', '4471', '4474', '4490', '4491', '4494', '4496', '4497', '4499',
       '4500'],
      dtype='object', length=1344)",True,1000,True,100,0.0,0.0,9abeae15fb
122,./expes/v3_2021-01-22_di_4500-prng-1-w1-p100,daily_issda-4500,4500,first-4500,112,2,rng,num-start-61,61,536,classic,1024.6542847156525,False,,True,0.0,,,0,"Index(['10', '116', '133', '271', '317', '332', '510', '511', '516', '566',
       ...
       '4271', '4275', '4298', '4363', '4427', '4429', '4449', '4483', '4485',
       '4495'],
      dtype='object', length=112)",True,1000,True,100,0.0,0.0,782ead0dd1
123,./expes/v3_2021-01-22_di_4500-prng-1-w1-p100,daily_issda-4500,4500,first-4500,2128,47,rng,num-start-71,71,536,classic,1029.551045179367,False,,True,0.0,,,0,"Index(['1', '4', '6', '8', '9', '10', '11', '13', '14', '15',
       ...
       '4484', '4485', '4486', '4490', '4491', '4492', '4493', '4498', '4499',
       '4500'],
      dtype='object', length=2128)",True,1000,True,100,0.0,0.0,b87bb0af63
124,./expes/v3_2021-01-22_di_4500-prng-1-w1-p100,daily_issda-4500,4500,first-4500,1904,42,rng,num-start-81,81,536,classic,1033.8747160434723,False,,True,0.0,,,0,"Index(['5', '6', '9', '12', '15', '16', '17', '20', '24', '27',
       ...
       '4477', '4478', '4480', '4482', '4487', '4490', '4493', '4495', '4498',
       '4499'],
      dtype='object', length=1904)",True,1000,True,100,0.0,0.0,58fe19a0c0
125,./expes/v3_2021-01-22_di_4500-prng-1-w1-p100,daily_issda-4500,4500,first-4500,896,19,rng,num-start-261,261,536,classic,1112.114282131195,False,,True,0.0,,,0,"Index(['8', '14', '20', '31', '33', '46', '49', '51', '55', '60',
       ...
       '4475', '4476', '4478', '4486', '4490', '4492', '4493', '4496', '4497',
       '4499'],
      dtype='object', length=896)",True,1000,True,100,0.0,0.0,91f00dfca5
126,./expes/v3_2021-01-22_di_4500-prng-1-w1-p100,daily_issda-4500,4500,first-4500,1120,24,rng,num-start-11,11,536,classic,1005.0534040927888,False,,True,0.0,,,0,"Index(['5', '6', '8', '9', '10', '16', '17', '18', '25', '27',
       ...
       '4451', '4456', '4463', '4466', '4468', '4469', '4474', '4478', '4480',
       '4482'],
      dtype='object', length=1120)",True,1000,True,100,0.0,0.0,0112a574bd
127,./expes/v3_2021-01-22_di_4500-prng-1-w1-p100,daily_issda-4500,4500,first-4500,784,17,rng,num-start-201,201,536,classic,1084.3431651592257,False,,True,0.0,,,0,"Index(['2', '4', '10', '13', '22', '23', '25', '27', '29', '40',
       ...
       '4447', '4449', '4451', '4456', '4464', '4466', '4467', '4471', '4481',
       '4483'],
      dtype='object', length=784)",True,1000,True,100,0.0,0.0,e6f5af0363
128,./expes/v3_2021-01-22_di_4500-prng-1-w1-p100,daily_issda-4500,4500,first-4500,1344,29,rng,num-start-291,291,536,classic,1119.8011937141418,False,,True,0.0,,,0,"Index(['4', '5', '6', '8', '9', '10', '16', '17', '18', '25',
       ...
       '4456', '4463', '4466', '4468', '4469', '4474', '4478', '4480', '4482',
       '4495'],
      dtype='object', length=1344)",True,1000,True,100,0.0,0.0,03bf4d9318
129,./expes/v3_2021-01-22_di_4500-prng-1-w1-p100,daily_issda-4500,4500,first-4500,1232,27,rng,num-start-271,271,536,classic,1113.21502327919,False,,True,0.0,,,0,"Index(['2', '3', '4', '10', '11', '16', '23', '25', '36', '38',
       ...
       '4476', '4478', '4480', '4482', '4484', '4486', '4489', '4491', '4492',
       '4494'],
      dtype='object', length=1232)",True,1000,True,100,0.0,0.0,426a8d843e
130,./expes/v3_2021-01-22_di_4500-prng-1-w1-p100,daily_issda-4500,4500,first-4500,1120,24,rng,num-start-21,21,536,classic,1008.797619342804,False,,True,0.0,,,0,"Index(['1', '4', '6', '8', '9', '13', '14', '15', '20', '24',
       ...
       '4471', '4473', '4481', '4484', '4486', '4491', '4492', '4493', '4498',
       '4499'],
      dtype='object', length=1120)",True,1000,True,100,0.0,0.0,67f11c556a
131,./expes/v3_2021-01-22_di_4500-prng-1-w1-p100,daily_issda-4500,4500,first-4500,672,14,rng,num-start-151,151,536,classic,1064.6711330413818,False,,True,0.0,,,0,"Index(['1', '2', '4', '8', '9', '25', '30', '34', '48', '51',
       ...
       '4394', '4401', '4407', '4409', '4417', '4418', '4438', '4442', '4447',
       '4498'],
      dtype='object', length=672)",True,1000,True,100,0.0,0.0,3e1a54130f
132,./expes/v3_2021-01-22_di_4500-prng-1-w1-p100,daily_issda-4500,4500,first-4500,448,9,rng,num-start-141,141,536,classic,1057.784770011902,False,,True,0.0,,,0,"Index(['1', '3', '5', '15', '24', '40', '64', '84', '87', '118',
       ...
       '4426', '4434', '4435', '4437', '4444', '4452', '4463', '4468', '4473',
       '4493'],
      dtype='object', length=448)",True,1000,True,100,0.0,0.0,e3e1b3aa5d
133,./expes/v3_2021-01-22_di_4500-prng-1-w1-p100,daily_issda-4500,4500,first-4500,336,7,rng,num-start-191,191,536,classic,1081.9392449855804,False,,True,0.0,,,0,"Index(['17', '24', '57', '72', '102', '133', '138', '148', '155', '179',
       ...
       '4408', '4422', '4439', '4440', '4444', '4460', '4467', '4469', '4471',
       '4483'],
      dtype='object', length=336)",True,1000,True,100,0.0,0.0,5a770df82f
134,./expes/v3_2021-01-22_di_4500-prng-1-w1-p100,daily_issda-4500,4500,first-4500,1568,34,rng,num-start-71,71,536,classic,1030.1627469062803,False,,True,0.0,,,0,"Index(['1', '2', '3', '4', '14', '16', '17', '19', '23', '24',
       ...
       '4474', '4475', '4477', '4479', '4481', '4483', '4490', '4493', '4495',
       '4500'],
      dtype='object', length=1568)",True,1000,True,100,0.0,0.0,c59ccb7519
135,./expes/v3_2021-01-22_di_4500-prng-1-w1-p100,daily_issda-4500,4500,first-4500,672,14,rng,num-start-161,161,536,classic,1067.5750930309296,False,,True,0.0,,,0,"Index(['15', '20', '23', '29', '30', '39', '41', '57', '60', '62',
       ...
       '4432', '4435', '4436', '4439', '4450', '4456', '4459', '4460', '4463',
       '4493'],
      dtype='object', length=672)",True,1000,True,100,0.0,0.0,2049edf4fa
136,./expes/v3_2021-01-22_di_4500-prng-1-w1-p100,daily_issda-4500,4500,first-4500,672,14,rng,num-start-61,61,536,classic,1024.1338486671448,False,,True,0.0,,,0,"Index(['13', '15', '16', '25', '35', '40', '44', '52', '69', '70',
       ...
       '4442', '4446', '4458', '4459', '4462', '4467', '4475', '4482', '4486',
       '4494'],
      dtype='object', length=672)",True,1000,True,100,0.0,0.0,6c2b638200
137,./expes/v3_2021-01-22_di_4500-prng-1-w1-p100,daily_issda-4500,4500,first-4500,1120,24,rng,num-start-101,101,536,classic,1042.843279838562,False,,True,0.0,,,0,"Index(['1', '7', '18', '19', '26', '32', '39', '40', '42', '43',
       ...
       '4446', '4449', '4455', '4460', '4462', '4467', '4468', '4484', '4487',
       '4499'],
      dtype='object', length=1120)",True,1000,True,100,0.0,0.0,774e455fe9
138,./expes/v3_2021-01-22_di_4500-prng-1-w1-p100,daily_issda-4500,4500,first-4500,784,17,rng,num-start-241,241,536,classic,1100.4287979602814,False,,True,0.0,,,0,"Index(['5', '6', '8', '10', '16', '17', '18', '25', '27', '31',
       ...
       '4397', '4408', '4438', '4451', '4466', '4468', '4469', '4474', '4480',
       '4482'],
      dtype='object', length=784)",True,1000,True,100,0.0,0.0,8b3ce0b860
139,./expes/v3_2021-01-22_di_4500-prng-1-w1-p100,daily_issda-4500,4500,first-4500,2128,47,rng,num-start-11,11,536,classic,1004.5971097946168,False,,True,0.0,,,0,"Index(['4', '8', '9', '10', '11', '13', '14', '16', '20', '24',
       ...
       '4482', '4486', '4490', '4492', '4493', '4496', '4497', '4498', '4499',
       '4500'],
      dtype='object', length=2128)",True,1000,True,100,0.0,0.0,66f22df4e7
140,./expes/v3_2021-01-22_di_4500-prng-1-w1-p100,daily_issda-4500,4500,first-4500,1008,22,rng,num-start-231,231,536,classic,1097.7457525730133,False,,True,0.0,,,0,"Index(['1', '4', '6', '8', '9', '13', '14', '15', '20', '24',
       ...
       '4471', '4473', '4481', '4484', '4486', '4491', '4492', '4493', '4498',
       '4499'],
      dtype='object', length=1008)",True,1000,True,100,0.0,0.0,4e65288db4
141,./expes/v3_2021-01-22_di_4500-prng-1-w1-p100,daily_issda-4500,4500,first-4500,1120,24,rng,num-start-41,41,536,classic,1017.1145133972168,False,,True,0.0,,,0,"Index(['5', '6', '8', '9', '10', '16', '17', '18', '25', '27',
       ...
       '4451', '4456', '4463', '4466', '4468', '4469', '4474', '4478', '4480',
       '4482'],
      dtype='object', length=1120)",True,1000,True,100,0.0,0.0,9d22a9a993
142,./expes/v3_2021-01-22_di_4500-prng-1-w1-p100,daily_issda-4500,4500,first-4500,1120,24,rng,num-start-281,281,536,classic,1116.197547197342,False,,True,0.0,,,0,"Index(['5', '6', '12', '16', '17', '24', '27', '32', '41', '42',
       ...
       '4468', '4469', '4470', '4473', '4474', '4477', '4482', '4493', '4495',
       '4499'],
      dtype='object', length=1120)",True,1000,True,100,0.0,0.0,88853e7fc9
143,./expes/v3_2021-01-22_di_4500-prng-1-w1-p100,daily_issda-4500,4500,first-4500,1120,24,rng,num-start-171,171,536,classic,1075.5948033332825,False,,True,0.0,,,0,"Index(['5', '7', '13', '18', '25', '29', '32', '33', '35', '40',
       ...
       '4471', '4473', '4481', '4482', '4487', '4490', '4492', '4496', '4499',
       '4500'],
      dtype='object', length=1120)",True,1000,True,100,0.0,0.0,86be1b1077
144,./expes/v3_2021-01-22_di_4500-prng-1-w1-p100,daily_issda-4500,4500,first-4500,2240,49,rng,num-start-201,201,536,classic,1082.3308627605438,False,,True,0.0,,,0,"Index(['1', '2', '4', '5', '7', '8', '10', '11', '12', '13',
       ...
       '4483', '4487', '4491', '4492', '4493', '4494', '4495', '4496', '4497',
       '4498'],
      dtype='object', length=2240)",True,1000,True,100,0.0,0.0,9d35f4ae74
145,./expes/v3_2021-01-22_di_4500-prng-1-w1-p100,daily_issda-4500,4500,first-4500,784,17,rng,num-start-41,41,536,classic,1017.015077829361,False,,True,0.0,,,0,"Index(['3', '10', '14', '26', '33', '47', '49', '51', '52', '55',
       ...
       '4453', '4454', '4461', '4464', '4465', '4471', '4474', '4490', '4494',
       '4500'],
      dtype='object', length=784)",True,1000,True,100,0.0,0.0,b643ba3372
146,./expes/v3_2021-01-22_di_4500-prng-1-w1-p100,daily_issda-4500,4500,first-4500,1568,34,rng,num-start-11,11,536,classic,1005.0928735733032,False,,True,0.0,,,0,"Index(['5', '7', '8', '10', '14', '17', '22', '23', '27', '29',
       ...
       '4469', '4470', '4472', '4475', '4478', '4480', '4483', '4487', '4489',
       '4500'],
      dtype='object', length=1568)",True,1000,True,100,0.0,0.0,6397dd17e9
147,./expes/v3_2021-01-22_di_4500-prng-1-w1-p100,daily_issda-4500,4500,first-4500,1456,32,rng,num-start-21,21,536,classic,1009.2240421772004,False,,True,0.0,,,0,"Index(['1', '3', '4', '9', '10', '14', '16', '19', '21', '26',
       ...
       '4467', '4471', '4474', '4490', '4491', '4494', '4496', '4497', '4499',
       '4500'],
      dtype='object', length=1456)",True,1000,True,100,0.0,0.0,40c7703fdb
148,./expes/v3_2021-01-22_di_4500-prng-1-w1-p100,daily_issda-4500,4500,first-4500,1904,42,rng,num-start-21,21,536,classic,1009.1047513484956,False,,True,0.0,,,0,"Index(['1', '3', '4', '5', '7', '9', '10', '11', '12', '14',
       ...
       '4471', '4474', '4479', '4490', '4491', '4494', '4496', '4497', '4499',
       '4500'],
      dtype='object', length=1904)",True,1000,True,100,0.0,0.0,8d09120d7c
149,./expes/v3_2021-01-22_di_4500-prng-1-w1-p100,daily_issda-4500,4500,first-4500,1120,24,rng,num-start-101,101,536,classic,1043.5394656658173,False,,True,0.0,,,0,"Index(['2', '4', '9', '10', '12', '15', '16', '22', '24', '28',
       ...
       '4460', '4462', '4473', '4482', '4488', '4490', '4492', '4495', '4499',
       '4500'],
      dtype='object', length=1120)",True,1000,True,100,0.0,0.0,efdcb3a5fa
