,expe,clients,clients_size,clients_subset,agg_size,agg_size_pc,method,days,days_size,days_total,noise_method,time,valid,valid_sum,success,score_avg,score_min,score_max,nsols,oracle,wall_hit,wall_time,pooled,pool_size,optimal,valid_sums,uuid
0,./expes/v3_2021-01-22_di_4500-prng-1-w1-p100,daily_issda-4500,4500,first-4500,1792,39,rng,num-start-101,101,536,classic,1039.171984910965,False,,True,0.0,,,0,"Index(['1', '4', '6', '8', '9', '10', '11', '13', '14', '15',
       ...
       '4481', '4484', '4485', '4486', '4490', '4491', '4492', '4493', '4498',
       '4499'],
      dtype='object', length=1792)",True,1000,True,100,0.0,0.0,c40fc00f13
1,./expes/v3_2021-01-22_di_4500-prng-1-w1-p100,daily_issda-4500,4500,first-4500,672,14,rng,num-start-211,211,536,classic,1090.4404237270355,False,,True,0.0,,,0,"Index(['4', '10', '13', '22', '23', '25', '27', '40', '44', '51',
       ...
       '4443', '4444', '4447', '4451', '4456', '4464', '4466', '4471', '4481',
       '4483'],
      dtype='object', length=672)",True,1000,True,100,0.0,0.0,e45b317a32
2,./expes/v3_2021-01-22_di_4500-prng-1-w1-p100,daily_issda-4500,4500,first-4500,1680,37,rng,num-start-91,91,536,classic,1040.2033236026764,False,,True,0.0,,,0,"Index(['2', '3', '4', '7', '10', '11', '13', '15', '16', '23',
       ...
       '4480', '4482', '4484', '4486', '4489', '4491', '4492', '4493', '4494',
       '4499'],
      dtype='object', length=1680)",True,1000,True,100,0.0,0.0,3771870435
3,./expes/v3_2021-01-22_di_4500-prng-1-w1-p100,daily_issda-4500,4500,first-4500,1792,39,rng,num-start-1,1,536,classic,40.67219305038452,False,,True,0.313840479751401,0.3125776731626031,0.3158187205745483,10,"Index(['1', '3', '4', '5', '7', '9', '10', '11', '12', '14',
       ...
       '4471', '4474', '4479', '4490', '4491', '4494', '4496', '4497', '4499',
       '4500'],
      dtype='object', length=1792)",False,1000,True,100,1.0,0.0,3fe9f4cce5
4,./expes/v3_2021-01-22_di_4500-prng-1-w1-p100,daily_issda-4500,4500,first-4500,560,12,rng,num-start-211,211,536,classic,1088.117068052292,False,,True,0.0,,,0,"Index(['15', '20', '29', '39', '41', '57', '60', '62', '94', '108',
       ...
       '4432', '4435', '4436', '4439', '4450', '4456', '4459', '4460', '4463',
       '4493'],
      dtype='object', length=560)",True,1000,True,100,0.0,0.0,4fa40c0ab9
5,./expes/v3_2021-01-22_di_4500-prng-1-w1-p100,daily_issda-4500,4500,first-4500,1568,34,rng,num-start-241,241,536,classic,1102.5789706707,False,,True,0.0,,,0,"Index(['2', '4', '5', '10', '11', '12', '13', '14', '17', '22',
       ...
       '4476', '4477', '4481', '4483', '4492', '4493', '4494', '4496', '4497',
       '4498'],
      dtype='object', length=1568)",True,1000,True,100,0.0,0.0,fc58d22a5b
6,./expes/v3_2021-01-22_di_4500-prng-1-w1-p100,daily_issda-4500,4500,first-4500,112,2,rng,num-start-91,91,536,classic,1037.6389653682709,False,,True,0.0,,,0,"Index(['34', '42', '122', '261', '267', '282', '303', '358', '363', '366',
       ...
       '4096', '4112', '4261', '4266', '4276', '4304', '4371', '4394', '4464',
       '4498'],
      dtype='object', length=112)",True,1000,True,100,0.0,0.0,ada898946a
7,./expes/v3_2021-01-22_di_4500-prng-1-w1-p100,daily_issda-4500,4500,first-4500,1680,37,rng,num-start-71,71,536,classic,1031.4043018817902,False,,True,0.0,,,0,"Index(['5', '6', '12', '15', '16', '17', '24', '27', '32', '37',
       ...
       '4477', '4478', '4480', '4482', '4487', '4490', '4493', '4495', '4498',
       '4499'],
      dtype='object', length=1680)",True,1000,True,100,0.0,0.0,f8907a4c09
8,./expes/v3_2021-01-22_di_4500-prng-1-w1-p100,daily_issda-4500,4500,first-4500,1904,42,rng,num-start-271,271,536,classic,1115.4525499343872,False,,True,0.0,,,0,"Index(['2', '3', '4', '7', '8', '10', '11', '13', '15', '16',
       ...
       '4484', '4486', '4488', '4489', '4491', '4492', '4493', '4494', '4499',
       '4500'],
      dtype='object', length=1904)",True,1000,True,100,0.0,0.0,5f339567cc
9,./expes/v3_2021-01-22_di_4500-prng-1-w1-p100,daily_issda-4500,4500,first-4500,1680,37,rng,num-start-151,151,536,classic,1063.526195049286,False,,True,0.0,,,0,"Index(['4', '5', '8', '12', '22', '28', '29', '30', '32', '33',
       ...
       '4475', '4480', '4482', '4484', '4488', '4489', '4491', '4492', '4495',
       '4500'],
      dtype='object', length=1680)",True,1000,True,100,0.0,0.0,a279816bfd
10,./expes/v3_2021-01-22_di_4500-prng-1-w1-p100,daily_issda-4500,4500,first-4500,2016,44,rng,num-start-131,131,536,classic,1054.3109810352323,False,,True,0.0,,,0,"Index(['4', '6', '7', '10', '11', '12', '16', '17', '18', '19',
       ...
       '4481', '4482', '4484', '4487', '4488', '4490', '4494', '4495', '4499',
       '4500'],
      dtype='object', length=2016)",True,1000,True,100,0.0,0.0,2081941fcd
11,./expes/v3_2021-01-22_di_4500-prng-1-w1-p100,daily_issda-4500,4500,first-4500,672,14,rng,num-start-181,181,536,classic,1074.7503514289856,False,,True,0.0,,,0,"Index(['4', '10', '13', '22', '23', '25', '27', '40', '44', '51',
       ...
       '4443', '4444', '4447', '4451', '4456', '4464', '4466', '4471', '4481',
       '4483'],
      dtype='object', length=672)",True,1000,True,100,0.0,0.0,b8f8996066
12,./expes/v3_2021-01-22_di_4500-prng-1-w1-p100,daily_issda-4500,4500,first-4500,1792,39,rng,num-start-91,91,536,classic,1038.1290955543518,False,,True,0.0,,,0,"Index(['4', '5', '7', '10', '21', '24', '25', '29', '30', '34',
       ...
       '4472', '4474', '4477', '4480', '4484', '4488', '4494', '4495', '4498',
       '4499'],
      dtype='object', length=1792)",True,1000,True,100,0.0,0.0,5257e78c36
13,./expes/v3_2021-01-22_di_4500-prng-1-w1-p100,daily_issda-4500,4500,first-4500,2016,44,rng,num-start-201,201,536,classic,1081.8710057735443,False,,True,0.0,,,0,"Index(['1', '2', '3', '4', '5', '6', '9', '10', '11', '13',
       ...
       '4483', '4484', '4485', '4488', '4489', '4492', '4494', '4495', '4497',
       '4499'],
      dtype='object', length=2016)",True,1000,True,100,0.0,0.0,145de58826
14,./expes/v3_2021-01-22_di_4500-prng-1-w1-p100,daily_issda-4500,4500,first-4500,1008,22,rng,num-start-151,151,536,classic,1064.6707229614258,False,,True,0.0,,,0,"Index(['2', '9', '10', '12', '15', '16', '24', '28', '29', '30',
       ...
       '4460', '4462', '4473', '4482', '4488', '4490', '4492', '4495', '4499',
       '4500'],
      dtype='object', length=1008)",True,1000,True,100,0.0,0.0,a9eb3dd10d
15,./expes/v3_2021-01-22_di_4500-prng-1-w1-p100,daily_issda-4500,4500,first-4500,1568,34,rng,num-start-71,71,536,classic,1031.684165477753,False,,True,0.0,,,0,"Index(['5', '11', '12', '13', '14', '15', '16', '22', '25', '30',
       ...
       '4467', '4468', '4475', '4477', '4481', '4482', '4484', '4486', '4488',
       '4494'],
      dtype='object', length=1568)",True,1000,True,100,0.0,0.0,8eff1d6a7f
16,./expes/v3_2021-01-22_di_4500-prng-1-w1-p100,daily_issda-4500,4500,first-4500,2240,49,rng,num-start-291,291,536,classic,1126.5959722995758,False,,True,0.0,,,0,"Index(['1', '2', '3', '4', '5', '7', '12', '13', '14', '15',
       ...
       '4477', '4479', '4481', '4482', '4483', '4484', '4493', '4494', '4495',
       '4500'],
      dtype='object', length=2240)",True,1000,True,100,0.0,0.0,36f7bd7668
17,./expes/v3_2021-01-22_di_4500-prng-1-w1-p100,daily_issda-4500,4500,first-4500,1680,37,rng,num-start-241,241,536,classic,1100.376493215561,False,,True,0.0,,,0,"Index(['5', '7', '8', '10', '14', '17', '22', '23', '27', '29',
       ...
       '4470', '4472', '4475', '4478', '4480', '4483', '4487', '4489', '4497',
       '4500'],
      dtype='object', length=1680)",True,1000,True,100,0.0,0.0,c648b20f3f
18,./expes/v3_2021-01-22_di_4500-prng-1-w1-p100,daily_issda-4500,4500,first-4500,1008,22,rng,num-start-141,141,536,classic,1056.8092348575592,False,,True,0.0,,,0,"Index(['5', '6', '8', '10', '16', '17', '18', '25', '27', '31',
       ...
       '4444', '4451', '4463', '4466', '4468', '4469', '4474', '4478', '4480',
       '4482'],
      dtype='object', length=1008)",True,1000,True,100,0.0,0.0,3374b61516
19,./expes/v3_2021-01-22_di_4500-prng-1-w1-p100,daily_issda-4500,4500,first-4500,2016,44,rng,num-start-1,1,536,classic,24.659055948257446,False,,True,0.2995435029842561,0.2969124707448038,0.3019889814015055,10,"Index(['1', '2', '3', '4', '12', '14', '15', '16', '17', '19',
       ...
       '4474', '4475', '4477', '4479', '4481', '4483', '4490', '4493', '4495',
       '4500'],
      dtype='object', length=2016)",False,1000,True,100,1.0,0.0,a25ee344c1
20,./expes/v3_2021-01-22_di_4500-prng-1-w1-p100,daily_issda-4500,4500,first-4500,112,2,rng,num-start-61,61,536,classic,1025.6354837417605,False,,True,0.0,,,0,"Index(['34', '42', '122', '261', '267', '282', '303', '358', '363', '366',
       ...
       '4096', '4112', '4261', '4266', '4276', '4304', '4371', '4394', '4464',
       '4498'],
      dtype='object', length=112)",True,1000,True,100,0.0,0.0,8a4ed34009
21,./expes/v3_2021-01-22_di_4500-prng-1-w1-p100,daily_issda-4500,4500,first-4500,1232,27,rng,num-start-251,251,536,classic,1113.1413354873655,False,,True,0.0,,,0,"Index(['1', '2', '3', '4', '8', '9', '19', '25', '28', '30',
       ...
       '4442', '4447', '4449', '4457', '4469', '4472', '4473', '4479', '4486',
       '4498'],
      dtype='object', length=1232)",True,1000,True,100,0.0,0.0,8f11eca8fd
22,./expes/v3_2021-01-22_di_4500-prng-1-w1-p100,daily_issda-4500,4500,first-4500,1904,42,rng,num-start-241,241,536,classic,1101.1771306991575,False,,True,0.0,,,0,"Index(['1', '3', '4', '5', '7', '9', '10', '11', '12', '14',
       ...
       '4471', '4474', '4479', '4490', '4491', '4494', '4496', '4497', '4499',
       '4500'],
      dtype='object', length=1904)",True,1000,True,100,0.0,0.0,650fb56348
23,./expes/v3_2021-01-22_di_4500-prng-1-w1-p100,daily_issda-4500,4500,first-4500,1568,34,rng,num-start-21,21,536,classic,1009.2829222679138,False,,True,0.0,,,0,"Index(['4', '8', '9', '11', '14', '20', '24', '31', '33', '35',
       ...
       '4478', '4480', '4486', '4490', '4492', '4493', '4496', '4497', '4498',
       '4499'],
      dtype='object', length=1568)",True,1000,True,100,0.0,0.0,527c008cdc
24,./expes/v3_2021-01-22_di_4500-prng-1-w1-p100,daily_issda-4500,4500,first-4500,224,4,rng,num-start-221,221,536,classic,1091.4002854824066,False,,True,0.0,,,0,"Index(['27', '60', '77', '108', '149', '163', '211', '217', '260', '281',
       ...
       '4251', '4263', '4307', '4313', '4326', '4336', '4380', '4397', '4475',
       '4487'],
      dtype='object', length=224)",True,1000,True,100,0.0,0.0,f4414ac925
25,./expes/v3_2021-01-22_di_4500-prng-1-w1-p100,daily_issda-4500,4500,first-4500,112,2,rng,num-start-251,251,536,classic,1184.6734187602997,False,,True,0.0,,,0,"Index(['60', '108', '125', '165', '235', '255', '258', '294', '296', '348',
       ...
       '4156', '4261', '4270', '4286', '4376', '4388', '4432', '4439', '4459',
       '4493'],
      dtype='object', length=112)",True,1000,True,100,0.0,0.0,4ef7cbca6d
26,./expes/v3_2021-01-22_di_4500-prng-1-w1-p100,daily_issda-4500,4500,first-4500,224,4,rng,num-start-11,11,536,classic,1004.6127421855928,False,,True,0.0,,,0,"Index(['4', '5', '38', '79', '90', '102', '120', '123', '125', '128',
       ...
       '4216', '4250', '4253', '4261', '4276', '4329', '4350', '4413', '4434',
       '4474'],
      dtype='object', length=224)",True,1000,True,100,0.0,0.0,6d30b70d2c
27,./expes/v3_2021-01-22_di_4500-prng-1-w1-p100,daily_issda-4500,4500,first-4500,896,19,rng,num-start-131,131,536,classic,1054.6425082683563,False,,True,0.0,,,0,"Index(['5', '6', '8', '10', '16', '17', '18', '25', '27', '31',
       ...
       '4406', '4408', '4438', '4451', '4466', '4468', '4469', '4474', '4480',
       '4482'],
      dtype='object', length=896)",True,1000,True,100,0.0,0.0,4ddf4069b0
28,./expes/v3_2021-01-22_di_4500-prng-1-w1-p100,daily_issda-4500,4500,first-4500,2240,49,rng,num-start-141,141,536,classic,1058.9615848064425,False,,True,0.0,,,0,"Index(['4', '6', '7', '10', '11', '12', '14', '16', '17', '18',
       ...
       '4484', '4485', '4487', '4488', '4490', '4494', '4495', '4496', '4499',
       '4500'],
      dtype='object', length=2240)",True,1000,True,100,0.0,0.0,e3100174e2
29,./expes/v3_2021-01-22_di_4500-prng-1-w1-p100,daily_issda-4500,4500,first-4500,672,14,rng,num-start-181,181,536,classic,1075.7122242450714,False,,True,0.0,,,0,"Index(['2', '9', '15', '16', '28', '30', '33', '34', '41', '95',
       ...
       '4437', '4450', '4460', '4473', '4482', '4488', '4492', '4495', '4499',
       '4500'],
      dtype='object', length=672)",True,1000,True,100,0.0,0.0,b047537b15
30,./expes/v3_2021-01-22_di_4500-prng-1-w1-p100,daily_issda-4500,4500,first-4500,560,12,rng,num-start-161,161,536,classic,1073.259666442871,False,,True,0.0,,,0,"Index(['4', '25', '38', '45', '55', '87', '91', '98', '109', '115',
       ...
       '4379', '4422', '4432', '4465', '4476', '4478', '4484', '4486', '4489',
       '4491'],
      dtype='object', length=560)",True,1000,True,100,0.0,0.0,2bb82c39e9
31,./expes/v3_2021-01-22_di_4500-prng-1-w1-p100,daily_issda-4500,4500,first-4500,1344,29,rng,num-start-291,291,536,classic,1120.48166847229,False,,True,0.0,,,0,"Index(['5', '8', '10', '14', '17', '22', '23', '27', '30', '38',
       ...
       '4467', '4469', '4470', '4472', '4475', '4480', '4483', '4487', '4489',
       '4500'],
      dtype='object', length=1344)",True,1000,True,100,0.0,0.0,cef3e39467
32,./expes/v3_2021-01-22_di_4500-prng-1-w1-p100,daily_issda-4500,4500,first-4500,112,2,rng,num-start-231,231,536,classic,1095.202589511871,False,,True,0.0,,,0,"Index(['10', '116', '133', '271', '317', '332', '510', '511', '516', '566',
       ...
       '4271', '4275', '4298', '4363', '4427', '4429', '4449', '4483', '4485',
       '4495'],
      dtype='object', length=112)",True,1000,True,100,0.0,0.0,12f298972d
33,./expes/v3_2021-01-22_di_4500-prng-1-w1-p100,daily_issda-4500,4500,first-4500,336,7,rng,num-start-151,151,536,classic,1065.265775680542,False,,True,0.0,,,0,"Index(['15', '29', '39', '41', '60', '62', '94', '108', '125', '147',
       ...
       '4380', '4388', '4390', '4400', '4432', '4435', '4439', '4456', '4459',
       '4493'],
      dtype='object', length=336)",True,1000,True,100,0.0,0.0,a0daa116c4
34,./expes/v3_2021-01-22_di_4500-prng-1-w1-p100,daily_issda-4500,4500,first-4500,336,7,rng,num-start-171,171,536,classic,1075.793594121933,False,,True,0.0,,,0,"Index(['25', '38', '55', '98', '109', '139', '164', '181', '186', '210',
       ...
       '4325', '4326', '4332', '4334', '4357', '4372', '4379', '4422', '4465',
       '4484'],
      dtype='object', length=336)",True,1000,True,100,0.0,0.0,1d88f8be83
35,./expes/v3_2021-01-22_di_4500-prng-1-w1-p100,daily_issda-4500,4500,first-4500,1568,34,rng,num-start-11,11,536,classic,1004.787369966507,False,,True,0.0,,,0,"Index(['4', '8', '9', '11', '14', '20', '24', '31', '33', '35',
       ...
       '4478', '4480', '4486', '4490', '4492', '4493', '4496', '4497', '4498',
       '4499'],
      dtype='object', length=1568)",True,1000,True,100,0.0,0.0,1dc7c81ba5
36,./expes/v3_2021-01-22_di_4500-prng-1-w1-p100,daily_issda-4500,4500,first-4500,1120,24,rng,num-start-61,61,536,classic,1025.7629108428955,False,,True,0.0,,,0,"Index(['5', '10', '21', '24', '25', '29', '30', '34', '36', '41',
       ...
       '4452', '4461', '4463', '4464', '4465', '4469', '4474', '4477', '4498',
       '4499'],
      dtype='object', length=1120)",True,1000,True,100,0.0,0.0,c50f1d5c7c
37,./expes/v3_2021-01-22_di_4500-prng-1-w1-p100,daily_issda-4500,4500,first-4500,336,7,rng,num-start-111,111,536,classic,1047.4171512126925,False,,True,0.0,,,0,"Index(['4', '22', '40', '51', '80', '81', '101', '103', '108', '122',
       ...
       '4387', '4388', '4407', '4410', '4418', '4426', '4447', '4456', '4471',
       '4483'],
      dtype='object', length=336)",True,1000,True,100,0.0,0.0,c30e46801e
38,./expes/v3_2021-01-22_di_4500-prng-1-w1-p100,daily_issda-4500,4500,first-4500,1904,42,rng,num-start-261,261,536,classic,1109.1561603546145,False,,True,0.0,,,0,"Index(['2', '4', '5', '7', '8', '10', '11', '12', '13', '14',
       ...
       '4480', '4481', '4483', '4492', '4493', '4494', '4495', '4496', '4497',
       '4498'],
      dtype='object', length=1904)",True,1000,True,100,0.0,0.0,433944ac4e
39,./expes/v3_2021-01-22_di_4500-prng-1-w1-p100,daily_issda-4500,4500,first-4500,672,14,rng,num-start-131,131,536,classic,1053.6452939510343,False,,True,0.0,,,0,"Index(['8', '14', '22', '27', '30', '40', '46', '48', '60', '66',
       ...
       '4439', '4452', '4455', '4458', '4460', '4465', '4470', '4475', '4483',
       '4487'],
      dtype='object', length=672)",True,1000,True,100,0.0,0.0,b68c10b614
40,./expes/v3_2021-01-22_di_4500-prng-1-w1-p100,daily_issda-4500,4500,first-4500,1792,39,rng,num-start-271,271,536,classic,1112.0863361358645,False,,True,0.0,,,0,"Index(['1', '3', '4', '5', '7', '9', '10', '11', '12', '14',
       ...
       '4471', '4474', '4479', '4490', '4491', '4494', '4496', '4497', '4499',
       '4500'],
      dtype='object', length=1792)",True,1000,True,100,0.0,0.0,5590ecf6e9
41,./expes/v3_2021-01-22_di_4500-prng-1-w1-p100,daily_issda-4500,4500,first-4500,1792,39,rng,num-start-31,31,536,classic,1012.8732829093932,False,,True,0.0,,,0,"Index(['4', '5', '8', '12', '22', '28', '29', '30', '32', '33',
       ...
       '4480', '4482', '4484', '4486', '4488', '4489', '4491', '4492', '4495',
       '4500'],
      dtype='object', length=1792)",True,1000,True,100,0.0,0.0,eca9bdc4af
42,./expes/v3_2021-01-22_di_4500-prng-1-w1-p100,daily_issda-4500,4500,first-4500,784,17,rng,num-start-271,271,536,classic,1110.8022410869598,False,,True,0.0,,,0,"Index(['4', '5', '32', '38', '41', '56', '77', '78', '79', '84',
       ...
       '4448', '4451', '4454', '4457', '4458', '4463', '4469', '4474', '4480',
       '4495'],
      dtype='object', length=784)",True,1000,True,100,0.0,0.0,eb52e66f8d
43,./expes/v3_2021-01-22_di_4500-prng-1-w1-p100,daily_issda-4500,4500,first-4500,1568,34,rng,num-start-261,261,536,classic,1107.8512160778046,False,,True,0.0,,,0,"Index(['1', '4', '6', '8', '9', '10', '13', '14', '15', '16',
       ...
       '4476', '4481', '4484', '4486', '4490', '4491', '4492', '4493', '4498',
       '4499'],
      dtype='object', length=1568)",True,1000,True,100,0.0,0.0,59da7bd7a1
44,./expes/v3_2021-01-22_di_4500-prng-1-w1-p100,daily_issda-4500,4500,first-4500,2128,47,rng,num-start-281,281,536,classic,1119.40842294693,False,,True,0.0,,,0,"Index(['1', '2', '3', '4', '5', '6', '8', '11', '13', '15',
       ...
       '4477', '4480', '4481', '4486', '4489', '4490', '4493', '4496', '4499',
       '4500'],
      dtype='object', length=2128)",True,1000,True,100,0.0,0.0,4679389fd9
45,./expes/v3_2021-01-22_di_4500-prng-1-w1-p100,daily_issda-4500,4500,first-4500,672,14,rng,num-start-121,121,536,classic,1050.9891691207886,False,,True,0.0,,,0,"Index(['5', '6', '27', '32', '44', '45', '48', '53', '54', '56',
       ...
       '4450', '4456', '4457', '4460', '4469', '4470', '4474', '4477', '4482',
       '4495'],
      dtype='object', length=672)",True,1000,True,100,0.0,0.0,070b62c5da
46,./expes/v3_2021-01-22_di_4500-prng-1-w1-p100,daily_issda-4500,4500,first-4500,2128,47,rng,num-start-181,181,536,classic,1075.6140794754028,False,,True,0.0,,,0,"Index(['2', '3', '4', '7', '8', '9', '10', '11', '13', '15',
       ...
       '4486', '4488', '4489', '4491', '4492', '4493', '4494', '4496', '4499',
       '4500'],
      dtype='object', length=2128)",True,1000,True,100,0.0,0.0,ccf89b79c0
47,./expes/v3_2021-01-22_di_4500-prng-1-w1-p100,daily_issda-4500,4500,first-4500,2128,47,rng,num-start-71,71,536,classic,1028.9806697368622,False,,True,0.0,,,0,"Index(['1', '2', '3', '4', '5', '6', '9', '10', '11', '13',
       ...
       '4484', '4485', '4487', '4488', '4489', '4492', '4494', '4495', '4497',
       '4499'],
      dtype='object', length=2128)",True,1000,True,100,0.0,0.0,8191ad5ee2
48,./expes/v3_2021-01-22_di_4500-prng-1-w1-p100,daily_issda-4500,4500,first-4500,336,7,rng,num-start-1,1,536,classic,21.935092210769653,False,,True,0.6256753932909123,0.6246066003645154,0.627578883076241,10,"Index(['1', '3', '5', '15', '40', '64', '87', '125', '141', '157',
       ...
       '4377', '4382', '4412', '4435', '4444', '4452', '4463', '4468', '4473',
       '4493'],
      dtype='object', length=336)",False,1000,True,100,1.0,1.0,991cd76f05
49,./expes/v3_2021-01-22_di_4500-prng-1-w1-p100,daily_issda-4500,4500,first-4500,1456,32,rng,num-start-71,71,536,classic,1029.63223695755,False,,True,0.0,,,0,"Index(['4', '6', '7', '10', '16', '18', '19', '20', '21', '24',
       ...
       '4477', '4479', '4482', '4487', '4488', '4490', '4494', '4495', '4499',
       '4500'],
      dtype='object', length=1456)",True,1000,True,100,0.0,0.0,1656961da1
50,./expes/v3_2021-01-22_di_4500-prng-1-w1-p100,daily_issda-4500,4500,first-4500,2128,47,rng,num-start-161,161,536,classic,1070.3157382011414,False,,True,0.0,,,0,"Index(['1', '2', '4', '5', '7', '12', '13', '14', '15', '16',
       ...
       '4477', '4479', '4481', '4482', '4483', '4484', '4493', '4494', '4495',
       '4500'],
      dtype='object', length=2128)",True,1000,True,100,0.0,0.0,83559409f1
51,./expes/v3_2021-01-22_di_4500-prng-1-w1-p100,daily_issda-4500,4500,first-4500,2128,47,rng,num-start-131,131,536,classic,1055.4736411571505,False,,True,0.0,,,0,"Index(['4', '5', '6', '8', '9', '10', '12', '14', '15', '16',
       ...
       '4475', '4478', '4480', '4482', '4485', '4486', '4489', '4493', '4495',
       '4498'],
      dtype='object', length=2128)",True,1000,True,100,0.0,0.0,5d35d2df6c
52,./expes/v3_2021-01-22_di_4500-prng-1-w1-p100,daily_issda-4500,4500,first-4500,112,2,rng,num-start-1,1,536,classic,16.256917715072632,False,,True,0.7798750165353096,0.7788671089565768,0.7808866297152,10,"Index(['4', '103', '140', '152', '180', '233', '302', '375', '441', '627',
       ...
       '4127', '4217', '4233', '4235', '4278', '4303', '4321', '4407', '4410',
       '4418'],
      dtype='object', length=112)",False,1000,True,100,1.0,1.0,4cbc50d699
53,./expes/v3_2021-01-22_di_4500-prng-1-w1-p100,daily_issda-4500,4500,first-4500,224,4,rng,num-start-111,111,536,classic,1047.1969935894012,False,,True,0.0,,,0,"Index(['47', '52', '55', '72', '91', '106', '117', '141', '144', '149',
       ...
       '4364', '4377', '4407', '4414', '4416', '4425', '4434', '4453', '4464',
       '4494'],
      dtype='object', length=224)",True,1000,True,100,0.0,0.0,eb02da5fc7
54,./expes/v3_2021-01-22_di_4500-prng-1-w1-p100,daily_issda-4500,4500,first-4500,1568,34,rng,num-start-251,251,536,classic,1109.065063714981,False,,True,0.0,,,0,"Index(['2', '3', '4', '7', '10', '11', '13', '15', '16', '23',
       ...
       '4480', '4482', '4484', '4486', '4489', '4491', '4492', '4493', '4494',
       '4499'],
      dtype='object', length=1568)",True,1000,True,100,0.0,0.0,45236b6c11
55,./expes/v3_2021-01-22_di_4500-prng-1-w1-p100,daily_issda-4500,4500,first-4500,2128,47,rng,num-start-21,21,536,classic,1008.7530262470244,False,,True,0.0,,,0,"Index(['2', '4', '5', '7', '8', '10', '11', '12', '13', '14',
       ...
       '4481', '4483', '4487', '4492', '4493', '4494', '4495', '4496', '4497',
       '4498'],
      dtype='object', length=2128)",True,1000,True,100,0.0,0.0,52faa8e08c
56,./expes/v3_2021-01-22_di_4500-prng-1-w1-p100,daily_issda-4500,4500,first-4500,112,2,rng,num-start-261,261,536,classic,1110.0837228298187,False,,True,0.0,,,0,"Index(['98', '109', '164', '210', '249', '276', '279', '307', '359', '476',
       ...
       '4126', '4149', '4157', '4177', '4234', '4262', '4332', '4357', '4422',
       '4465'],
      dtype='object', length=112)",True,1000,True,100,0.0,0.0,403ae4769e
57,./expes/v3_2021-01-22_di_4500-prng-1-w1-p100,daily_issda-4500,4500,first-4500,1120,24,rng,num-start-141,141,536,classic,1061.4711773395538,False,,True,0.0,,,0,"Index(['5', '7', '13', '18', '25', '29', '32', '33', '35', '40',
       ...
       '4471', '4473', '4481', '4482', '4487', '4490', '4492', '4496', '4499',
       '4500'],
      dtype='object', length=1120)",True,1000,True,100,0.0,0.0,1e33fa80ec
58,./expes/v3_2021-01-22_di_4500-prng-1-w1-p100,daily_issda-4500,4500,first-4500,448,9,rng,num-start-221,221,536,classic,1100.6389417648315,False,,True,0.0,,,0,"Index(['1', '2', '10', '13', '20', '28', '65', '73', '80', '102',
       ...
       '4447', '4449', '4459', '4460', '4477', '4483', '4485', '4494', '4495',
       '4499'],
      dtype='object', length=448)",True,1000,True,100,0.0,0.0,ac3eb8b488
59,./expes/v3_2021-01-22_di_4500-prng-1-w1-p100,daily_issda-4500,4500,first-4500,560,12,rng,num-start-211,211,536,classic,1087.185221195221,False,,True,0.0,,,0,"Index(['4', '25', '38', '45', '55', '87', '91', '98', '109', '115',
       ...
       '4379', '4422', '4432', '4465', '4476', '4478', '4484', '4486', '4489',
       '4491'],
      dtype='object', length=560)",True,1000,True,100,0.0,0.0,3eaad75d93
60,./expes/v3_2021-01-22_di_4500-prng-1-w1-p100,daily_issda-4500,4500,first-4500,1008,22,rng,num-start-11,11,536,classic,1005.1450686454772,False,,True,0.0,,,0,"Index(['1', '4', '6', '8', '9', '13', '14', '15', '20', '24',
       ...
       '4471', '4473', '4481', '4484', '4486', '4491', '4492', '4493', '4498',
       '4499'],
      dtype='object', length=1008)",True,1000,True,100,0.0,0.0,a86f8fb95b
61,./expes/v3_2021-01-22_di_4500-prng-1-w1-p100,daily_issda-4500,4500,first-4500,1232,27,rng,num-start-171,171,536,classic,1071.9184401035309,False,,True,0.0,,,0,"Index(['1', '3', '4', '10', '14', '16', '21', '26', '30', '33',
       ...
       '4465', '4471', '4474', '4490', '4491', '4494', '4496', '4497', '4499',
       '4500'],
      dtype='object', length=1232)",True,1000,True,100,0.0,0.0,fed4643036
62,./expes/v3_2021-01-22_di_4500-prng-1-w1-p100,daily_issda-4500,4500,first-4500,1232,27,rng,num-start-31,31,536,classic,1012.6302423477172,False,,True,0.0,,,0,"Index(['1', '2', '3', '5', '6', '8', '15', '24', '28', '29',
       ...
       '4465', '4468', '4473', '4480', '4481', '4486', '4489', '4493', '4499',
       '4500'],
      dtype='object', length=1232)",True,1000,True,100,0.0,0.0,5fd7fc3151
63,./expes/v3_2021-01-22_di_4500-prng-1-w1-p100,daily_issda-4500,4500,first-4500,448,9,rng,num-start-261,261,536,classic,1107.8824214935305,False,,True,0.0,,,0,"Index(['1', '3', '5', '15', '24', '40', '64', '84', '87', '118',
       ...
       '4426', '4434', '4435', '4437', '4444', '4452', '4463', '4468', '4473',
       '4493'],
      dtype='object', length=448)",True,1000,True,100,0.0,0.0,e171a02341
64,./expes/v3_2021-01-22_di_4500-prng-1-w1-p100,daily_issda-4500,4500,first-4500,1120,24,rng,num-start-261,261,536,classic,1106.3718814849854,False,,True,0.0,,,0,"Index(['5', '6', '8', '9', '10', '16', '17', '18', '25', '27',
       ...
       '4451', '4456', '4463', '4466', '4468', '4469', '4474', '4478', '4480',
       '4482'],
      dtype='object', length=1120)",True,1000,True,100,0.0,0.0,3b0a992a4f
65,./expes/v3_2021-01-22_di_4500-prng-1-w1-p100,daily_issda-4500,4500,first-4500,2240,49,rng,num-start-151,151,536,classic,1060.9483585357666,False,,True,0.0,,,0,"Index(['4', '5', '7', '10', '13', '21', '24', '25', '27', '29',
       ...
       '4484', '4488', '4489', '4490', '4494', '4495', '4496', '4497', '4498',
       '4499'],
      dtype='object', length=2240)",True,1000,True,100,0.0,0.0,7ed39a3831
66,./expes/v3_2021-01-22_di_4500-prng-1-w1-p100,daily_issda-4500,4500,first-4500,112,2,rng,num-start-201,201,536,classic,1084.058279752731,False,,True,0.0,,,0,"Index(['3', '87', '157', '171', '207', '228', '230', '285', '288', '351',
       ...
       '4007', '4100', '4151', '4209', '4230', '4273', '4308', '4319', '4343',
       '4382'],
      dtype='object', length=112)",True,1000,True,100,0.0,0.0,a1ab0dffea
67,./expes/v3_2021-01-22_di_4500-prng-1-w1-p100,daily_issda-4500,4500,first-4500,672,14,rng,num-start-201,201,536,classic,1084.3946826457975,False,,True,0.0,,,0,"Index(['5', '6', '8', '10', '16', '17', '18', '25', '27', '31',
       ...
       '4393', '4395', '4397', '4408', '4451', '4466', '4468', '4469', '4480',
       '4482'],
      dtype='object', length=672)",True,1000,True,100,0.0,0.0,acc84ff9b5
68,./expes/v3_2021-01-22_di_4500-prng-1-w1-p100,daily_issda-4500,4500,first-4500,2016,44,rng,num-start-241,241,536,classic,1099.8655190467834,False,,True,0.0,,,0,"Index(['1', '2', '5', '7', '12', '13', '14', '15', '16', '17',
       ...
       '4477', '4479', '4481', '4482', '4483', '4484', '4493', '4494', '4495',
       '4500'],
      dtype='object', length=2016)",True,1000,True,100,0.0,0.0,00d8ec0c8f
69,./expes/v3_2021-01-22_di_4500-prng-1-w1-p100,daily_issda-4500,4500,first-4500,560,12,rng,num-start-71,71,536,classic,1028.165441989899,False,,True,0.0,,,0,"Index(['2', '9', '16', '28', '30', '33', '34', '41', '95', '99',
       ...
       '4430', '4437', '4450', '4460', '4473', '4482', '4488', '4492', '4495',
       '4499'],
      dtype='object', length=560)",True,1000,True,100,0.0,0.0,27884736ab
70,./expes/v3_2021-01-22_di_4500-prng-1-w1-p100,daily_issda-4500,4500,first-4500,1232,27,rng,num-start-261,261,536,classic,1113.9289031028748,False,,True,0.0,,,0,"Index(['2', '4', '9', '10', '11', '12', '15', '16', '22', '24',
       ...
       '4460', '4462', '4473', '4482', '4488', '4490', '4492', '4495', '4499',
       '4500'],
      dtype='object', length=1232)",True,1000,True,100,0.0,0.0,45d00dcbc5
71,./expes/v3_2021-01-22_di_4500-prng-1-w1-p100,daily_issda-4500,4500,first-4500,448,9,rng,num-start-41,41,536,classic,1016.200924873352,False,,True,0.0,,,0,"Index(['15', '16', '25', '35', '40', '44', '69', '70', '86', '96',
       ...
       '4366', '4368', '4388', '4408', '4412', '4431', '4458', '4467', '4486',
       '4494'],
      dtype='object', length=448)",True,1000,True,100,0.0,0.0,4cef04a7bb
72,./expes/v3_2021-01-22_di_4500-prng-1-w1-p100,daily_issda-4500,4500,first-4500,1680,37,rng,num-start-201,201,536,classic,1087.0798506736755,False,,True,0.0,,,0,"Index(['1', '3', '4', '5', '7', '9', '10', '14', '15', '16',
       ...
       '4471', '4474', '4479', '4490', '4491', '4494', '4496', '4497', '4499',
       '4500'],
      dtype='object', length=1680)",True,1000,True,100,0.0,0.0,e30873ef16
73,./expes/v3_2021-01-22_di_4500-prng-1-w1-p100,daily_issda-4500,4500,first-4500,896,19,rng,num-start-231,231,536,classic,1102.640524148941,False,,True,0.0,,,0,"Index(['1', '2', '3', '10', '13', '16', '20', '27', '28', '31',
       ...
       '4460', '4467', '4474', '4477', '4479', '4483', '4485', '4494', '4495',
       '4499'],
      dtype='object', length=896)",True,1000,True,100,0.0,0.0,cfdcf7ba81
74,./expes/v3_2021-01-22_di_4500-prng-1-w1-p100,daily_issda-4500,4500,first-4500,2128,47,rng,num-start-291,291,536,classic,1123.670513868332,False,,True,0.0,,,0,"Index(['2', '4', '5', '7', '8', '10', '11', '12', '13', '14',
       ...
       '4481', '4483', '4487', '4492', '4493', '4494', '4495', '4496', '4497',
       '4498'],
      dtype='object', length=2128)",True,1000,True,100,0.0,0.0,97c02c3910
75,./expes/v3_2021-01-22_di_4500-prng-1-w1-p100,daily_issda-4500,4500,first-4500,672,14,rng,num-start-271,271,536,classic,1117.517403841019,False,,True,0.0,,,0,"Index(['14', '31', '51', '55', '64', '67', '69', '71', '79', '85',
       ...
       '4468', '4475', '4476', '4478', '4490', '4492', '4493', '4496', '4497',
       '4499'],
      dtype='object', length=672)",True,1000,True,100,0.0,0.0,9cd66ca39b
76,./expes/v3_2021-01-22_di_4500-prng-1-w1-p100,daily_issda-4500,4500,first-4500,448,9,rng,num-start-71,71,536,classic,1029.9407846927645,False,,True,0.0,,,0,"Index(['24', '29', '34', '42', '45', '64', '101', '109', '120', '122',
       ...
       '4388', '4394', '4397', '4400', '4413', '4423', '4435', '4464', '4465',
       '4498'],
      dtype='object', length=448)",True,1000,True,100,0.0,0.0,c0ed15591b
77,./expes/v3_2021-01-22_di_4500-prng-1-w1-p100,daily_issda-4500,4500,first-4500,1344,29,rng,num-start-151,151,536,classic,1066.6141021251678,False,,True,0.0,,,0,"Index(['4', '5', '6', '8', '9', '10', '16', '17', '18', '25',
       ...
       '4456', '4463', '4466', '4468', '4469', '4474', '4478', '4480', '4482',
       '4495'],
      dtype='object', length=1344)",True,1000,True,100,0.0,0.0,f8b0af5d2c
78,./expes/v3_2021-01-22_di_4500-prng-1-w1-p100,daily_issda-4500,4500,first-4500,112,2,rng,num-start-41,41,536,classic,1017.3111815452576,False,,True,0.0,,,0,"Index(['3', '87', '157', '171', '207', '228', '230', '285', '288', '351',
       ...
       '4007', '4100', '4151', '4209', '4230', '4273', '4308', '4319', '4343',
       '4382'],
      dtype='object', length=112)",True,1000,True,100,0.0,0.0,9911b2575d
79,./expes/v3_2021-01-22_di_4500-prng-1-w1-p100,daily_issda-4500,4500,first-4500,1008,22,rng,num-start-111,111,536,classic,1046.4709746837616,False,,True,0.0,,,0,"Index(['16', '20', '21', '24', '25', '31', '35', '38', '43', '46',
       ...
       '4462', '4469', '4475', '4477', '4482', '4488', '4490', '4494', '4495',
       '4499'],
      dtype='object', length=1008)",True,1000,True,100,0.0,0.0,81cd47babe
80,./expes/v3_2021-01-22_di_4500-prng-1-w1-p100,daily_issda-4500,4500,first-4500,2128,47,rng,num-start-251,251,536,classic,1104.0770943164823,False,,True,0.0,,,0,"Index(['4', '6', '7', '10', '11', '12', '16', '17', '18', '19',
       ...
       '4482', '4484', '4485', '4487', '4488', '4490', '4494', '4495', '4499',
       '4500'],
      dtype='object', length=2128)",True,1000,True,100,0.0,0.0,43e7899c71
81,./expes/v3_2021-01-22_di_4500-prng-1-w1-p100,daily_issda-4500,4500,first-4500,224,4,rng,num-start-151,151,536,classic,1066.01860165596,False,,True,0.0,,,0,"Index(['16', '35', '40', '69', '129', '148', '157', '160', '163', '174',
       ...
       '4266', '4280', '4286', '4302', '4304', '4307', '4311', '4345', '4388',
       '4458'],
      dtype='object', length=224)",True,1000,True,100,0.0,0.0,ff603f3374
82,./expes/v3_2021-01-22_di_4500-prng-1-w1-p100,daily_issda-4500,4500,first-4500,1568,34,rng,num-start-71,71,536,classic,1029.480852842331,False,,True,0.0,,,0,"Index(['5', '7', '8', '10', '14', '17', '22', '23', '27', '29',
       ...
       '4469', '4470', '4472', '4475', '4478', '4480', '4483', '4487', '4489',
       '4500'],
      dtype='object', length=1568)",True,1000,True,100,0.0,0.0,06eef149ed
83,./expes/v3_2021-01-22_di_4500-prng-1-w1-p100,daily_issda-4500,4500,first-4500,1120,24,rng,num-start-271,271,536,classic,1111.049887895584,False,,True,0.0,,,0,"Index(['5', '8', '14', '17', '22', '23', '27', '30', '39', '40',
       ...
       '4465', '4467', '4469', '4470', '4472', '4475', '4483', '4487', '4489',
       '4500'],
      dtype='object', length=1120)",True,1000,True,100,0.0,0.0,5f112b4a74
84,./expes/v3_2021-01-22_di_4500-prng-1-w1-p100,daily_issda-4500,4500,first-4500,336,7,rng,num-start-81,81,536,classic,1035.9392278194427,False,,True,0.0,,,0,"Index(['47', '52', '55', '72', '91', '106', '117', '141', '144', '149',
       ...
       '4407', '4414', '4415', '4416', '4425', '4434', '4453', '4464', '4465',
       '4494'],
      dtype='object', length=336)",True,1000,True,100,0.0,0.0,fc93529fe9
85,./expes/v3_2021-01-22_di_4500-prng-1-w1-p100,daily_issda-4500,4500,first-4500,2128,47,rng,num-start-231,231,536,classic,1090.6682949066162,False,,True,0.0,,,0,"Index(['2', '4', '8', '9', '10', '11', '12', '14', '15', '16',
       ...
       '4482', '4488', '4490', '4491', '4492', '4494', '4495', '4496', '4499',
       '4500'],
      dtype='object', length=2128)",True,1000,True,100,0.0,0.0,fec18f4456
86,./expes/v3_2021-01-22_di_4500-prng-1-w1-p100,daily_issda-4500,4500,first-4500,1008,22,rng,num-start-211,211,536,classic,1089.1958134174347,False,,True,0.0,,,0,"Index(['1', '7', '19', '26', '39', '40', '42', '43', '47', '58',
       ...
       '4446', '4449', '4455', '4460', '4462', '4467', '4468', '4484', '4487',
       '4499'],
      dtype='object', length=1008)",True,1000,True,100,0.0,0.0,7daf7a5b9d
87,./expes/v3_2021-01-22_di_4500-prng-1-w1-p100,daily_issda-4500,4500,first-4500,448,9,rng,num-start-91,91,536,classic,1036.2489771842957,False,,True,0.0,,,0,"Index(['1', '2', '10', '13', '20', '28', '65', '73', '80', '102',
       ...
       '4447', '4449', '4459', '4460', '4477', '4483', '4485', '4494', '4495',
       '4499'],
      dtype='object', length=448)",True,1000,True,100,0.0,0.0,fe9febcaf6
88,./expes/v3_2021-01-22_di_4500-prng-1-w1-p100,daily_issda-4500,4500,first-4500,1680,37,rng,num-start-41,41,536,classic,1017.5153429508208,False,,True,0.0,,,0,"Index(['1', '3', '4', '5', '7', '9', '10', '14', '15', '16',
       ...
       '4471', '4474', '4479', '4490', '4491', '4494', '4496', '4497', '4499',
       '4500'],
      dtype='object', length=1680)",True,1000,True,100,0.0,0.0,527f4a7d47
89,./expes/v3_2021-01-22_di_4500-prng-1-w1-p100,daily_issda-4500,4500,first-4500,1120,24,rng,num-start-211,211,536,classic,1086.3565573692322,False,,True,0.0,,,0,"Index(['5', '10', '21', '24', '25', '29', '30', '34', '36', '41',
       ...
       '4452', '4461', '4463', '4464', '4465', '4469', '4474', '4477', '4498',
       '4499'],
      dtype='object', length=1120)",True,1000,True,100,0.0,0.0,b92938a1a1
90,./expes/v3_2021-01-22_di_4500-prng-1-w1-p100,daily_issda-4500,4500,first-4500,224,4,rng,num-start-171,171,536,classic,1071.3294050693512,False,,True,0.0,,,0,"Index(['27', '60', '77', '108', '149', '163', '211', '217', '260', '281',
       ...
       '4251', '4263', '4307', '4313', '4326', '4336', '4380', '4397', '4475',
       '4487'],
      dtype='object', length=224)",True,1000,True,100,0.0,0.0,6da48e3c23
91,./expes/v3_2021-01-22_di_4500-prng-1-w1-p100,daily_issda-4500,4500,first-4500,1904,42,rng,num-start-161,161,536,classic,1065.127581357956,False,,True,0.0,,,0,"Index(['5', '7', '12', '13', '18', '25', '26', '28', '29', '30',
       ...
       '4481', '4482', '4487', '4490', '4492', '4494', '4496', '4498', '4499',
       '4500'],
      dtype='object', length=1904)",True,1000,True,100,0.0,0.0,c5ff9bca0a
92,./expes/v3_2021-01-22_di_4500-prng-1-w1-p100,daily_issda-4500,4500,first-4500,224,4,rng,num-start-141,141,536,classic,1056.7407903671265,False,,True,0.0,,,0,"Index(['18', '25', '34', '41', '47', '119', '128', '246', '250', '261',
       ...
       '4353', '4365', '4372', '4374', '4384', '4391', '4451', '4468', '4469',
       '4482'],
      dtype='object', length=224)",True,1000,True,100,0.0,0.0,e31f56b9a2
93,./expes/v3_2021-01-22_di_4500-prng-1-w1-p100,daily_issda-4500,4500,first-4500,2128,47,rng,num-start-221,221,536,classic,1089.5394225120544,False,,True,0.0,,,0,"Index(['1', '2', '4', '5', '7', '12', '13', '14', '15', '16',
       ...
       '4477', '4479', '4481', '4482', '4483', '4484', '4493', '4494', '4495',
       '4500'],
      dtype='object', length=2128)",True,1000,True,100,0.0,0.0,17d7a59b02
94,./expes/v3_2021-01-22_di_4500-prng-1-w1-p100,daily_issda-4500,4500,first-4500,1568,34,rng,num-start-31,31,536,classic,1013.0322198867798,False,,True,0.0,,,0,"Index(['1', '2', '3', '4', '5', '6', '8', '15', '21', '24',
       ...
       '4470', '4473', '4474', '4480', '4481', '4486', '4489', '4493', '4499',
       '4500'],
      dtype='object', length=1568)",True,1000,True,100,0.0,0.0,3ead81edb6
95,./expes/v3_2021-01-22_di_4500-prng-1-w1-p100,daily_issda-4500,4500,first-4500,1456,32,rng,num-start-271,271,536,classic,1111.6827855110168,False,,True,0.0,,,0,"Index(['1', '3', '4', '9', '10', '14', '16', '19', '21', '26',
       ...
       '4467', '4471', '4474', '4490', '4491', '4494', '4496', '4497', '4499',
       '4500'],
      dtype='object', length=1456)",True,1000,True,100,0.0,0.0,8286142fcc
96,./expes/v3_2021-01-22_di_4500-prng-1-w1-p100,daily_issda-4500,4500,first-4500,2128,47,rng,num-start-221,221,536,classic,1097.080174446106,False,,True,0.0,,,0,"Index(['4', '8', '9', '10', '11', '13', '14', '16', '20', '24',
       ...
       '4482', '4486', '4490', '4492', '4493', '4496', '4497', '4498', '4499',
       '4500'],
      dtype='object', length=2128)",True,1000,True,100,0.0,0.0,918759bf87
97,./expes/v3_2021-01-22_di_4500-prng-1-w1-p100,daily_issda-4500,4500,first-4500,1680,37,rng,num-start-111,111,536,classic,1046.7346513271332,False,,True,0.0,,,0,"Index(['1', '2', '3', '4', '5', '6', '9', '10', '13', '14',
       ...
       '4479', '4483', '4484', '4485', '4488', '4492', '4494', '4495', '4497',
       '4499'],
      dtype='object', length=1680)",True,1000,True,100,0.0,0.0,9ca213ef84
98,./expes/v3_2021-01-22_di_4500-prng-1-w1-p100,daily_issda-4500,4500,first-4500,1568,34,rng,num-start-71,71,536,classic,1030.563289642334,False,,True,0.0,,,0,"Index(['4', '5', '8', '12', '22', '28', '29', '32', '33', '38',
       ...
       '4475', '4480', '4482', '4484', '4488', '4489', '4491', '4492', '4495',
       '4500'],
      dtype='object', length=1568)",True,1000,True,100,0.0,0.0,5ee201bb48
99,./expes/v3_2021-01-22_di_4500-prng-1-w1-p100,daily_issda-4500,4500,first-4500,1904,42,rng,num-start-161,161,536,classic,1071.140022277832,False,,True,0.0,,,0,"Index(['4', '5', '7', '10', '13', '21', '24', '25', '29', '30',
       ...
       '4474', '4477', '4480', '4484', '4488', '4489', '4494', '4495', '4498',
       '4499'],
      dtype='object', length=1904)",True,1000,True,100,0.0,0.0,dd2aaaf62a
100,./expes/v3_2021-01-22_di_4500-prng-1-w1-p100,daily_issda-4500,4500,first-4500,1344,29,rng,num-start-101,101,536,classic,1044.2407536506653,False,,True,0.0,,,0,"Index(['1', '4', '6', '8', '9', '10', '13', '14', '15', '17',
       ...
       '4471', '4473', '4481', '4484', '4486', '4491', '4492', '4493', '4498',
       '4499'],
      dtype='object', length=1344)",True,1000,True,100,0.0,0.0,db0d3369a9
101,./expes/v3_2021-01-22_di_4500-prng-1-w1-p100,daily_issda-4500,4500,first-4500,1232,27,rng,num-start-141,141,536,classic,1056.7885246276855,False,,True,0.0,,,0,"Index(['4', '16', '20', '21', '24', '25', '31', '32', '35', '38',
       ...
       '4477', '4479', '4482', '4487', '4488', '4490', '4494', '4495', '4499',
       '4500'],
      dtype='object', length=1232)",True,1000,True,100,0.0,0.0,9b5277b532
102,./expes/v3_2021-01-22_di_4500-prng-1-w1-p100,daily_issda-4500,4500,first-4500,224,4,rng,num-start-191,191,536,classic,1082.8374626636505,False,,True,0.0,,,0,"Index(['43', '62', '68', '80', '87', '100', '126', '147', '158', '170',
       ...
       '4396', '4399', '4411', '4414', '4417', '4424', '4426', '4442', '4449',
       '4455'],
      dtype='object', length=224)",True,1000,True,100,0.0,0.0,b8da24809c
103,./expes/v3_2021-01-22_di_4500-prng-1-w1-p100,daily_issda-4500,4500,first-4500,336,7,rng,num-start-1,1,536,classic,28.646906852722168,False,,True,0.6286572063292399,0.6251991712148206,0.6305750791140456,10,"Index(['16', '35', '40', '44', '69', '96', '129', '148', '157', '160',
       ...
       '4311', '4312', '4345', '4366', '4388', '4431', '4458', '4467', '4486',
       '4494'],
      dtype='object', length=336)",False,1000,True,100,1.0,1.0,0396c8402a
104,./expes/v3_2021-01-22_di_4500-prng-1-w1-p100,daily_issda-4500,4500,first-4500,2240,49,rng,num-start-21,21,536,classic,1008.8756608963012,False,,True,0.0,,,0,"Index(['1', '5', '8', '11', '12', '13', '14', '15', '16', '18',
       ...
       '4481', '4482', '4484', '4485', '4486', '4488', '4489', '4494', '4495',
       '4499'],
      dtype='object', length=2240)",True,1000,True,100,0.0,0.0,ef40716b22
105,./expes/v3_2021-01-22_di_4500-prng-1-w1-p100,daily_issda-4500,4500,first-4500,2240,49,rng,num-start-201,201,536,classic,1086.37974524498,False,,True,0.0,,,0,"Index(['2', '4', '8', '9', '10', '11', '12', '14', '15', '16',
       ...
       '4488', '4490', '4491', '4492', '4494', '4495', '4496', '4497', '4499',
       '4500'],
      dtype='object', length=2240)",True,1000,True,100,0.0,0.0,02615c7e0c
106,./expes/v3_2021-01-22_di_4500-prng-1-w1-p100,daily_issda-4500,4500,first-4500,2240,49,rng,num-start-221,221,536,classic,1097.800211429596,False,,True,0.0,,,0,"Index(['1', '2', '3', '4', '5', '7', '12', '13', '14', '15',
       ...
       '4477', '4479', '4481', '4482', '4483', '4484', '4493', '4494', '4495',
       '4500'],
      dtype='object', length=2240)",True,1000,True,100,0.0,0.0,3d81495f2f
107,./expes/v3_2021-01-22_di_4500-prng-1-w1-p100,daily_issda-4500,4500,first-4500,1344,29,rng,num-start-41,41,536,classic,1016.9686148166656,False,,True,0.0,,,0,"Index(['1', '2', '3', '4', '8', '9', '16', '19', '25', '28',
       ...
       '4449', '4457', '4464', '4469', '4472', '4473', '4479', '4486', '4498',
       '4500'],
      dtype='object', length=1344)",True,1000,True,100,0.0,0.0,6b66e2e7c2
108,./expes/v3_2021-01-22_di_4500-prng-1-w1-p100,daily_issda-4500,4500,first-4500,560,12,rng,num-start-181,181,536,classic,1076.1744964122772,False,,True,0.0,,,0,"Index(['15', '20', '29', '39', '41', '57', '60', '62', '94', '108',
       ...
       '4432', '4435', '4436', '4439', '4450', '4456', '4459', '4460', '4463',
       '4493'],
      dtype='object', length=560)",True,1000,True,100,0.0,0.0,76e8ac9232
109,./expes/v3_2021-01-22_di_4500-prng-1-w1-p100,daily_issda-4500,4500,first-4500,784,17,rng,num-start-141,141,536,classic,1058.1084995269775,False,,True,0.0,,,0,"Index(['2', '3', '17', '24', '28', '33', '44', '53', '57', '70',
       ...
       '4460', '4467', '4469', '4471', '4477', '4479', '4483', '4493', '4495',
       '4500'],
      dtype='object', length=784)",True,1000,True,100,0.0,0.0,ebb373143a
110,./expes/v3_2021-01-22_di_4500-prng-1-w1-p100,daily_issda-4500,4500,first-4500,1568,34,rng,num-start-151,151,536,classic,1064.722393989563,False,,True,0.0,,,0,"Index(['1', '2', '3', '4', '8', '9', '16', '19', '25', '28',
       ...
       '4467', '4469', '4472', '4473', '4475', '4479', '4483', '4486', '4498',
       '4500'],
      dtype='object', length=1568)",True,1000,True,100,0.0,0.0,ab504d9f0f
111,./expes/v3_2021-01-22_di_4500-prng-1-w1-p100,daily_issda-4500,4500,first-4500,1232,27,rng,num-start-101,101,536,classic,1040.767299413681,False,,True,0.0,,,0,"Index(['1', '3', '4', '10', '14', '16', '21', '26', '30', '33',
       ...
       '4465', '4471', '4474', '4490', '4491', '4494', '4496', '4497', '4499',
       '4500'],
      dtype='object', length=1232)",True,1000,True,100,0.0,0.0,03d2022f22
112,./expes/v3_2021-01-22_di_4500-prng-1-w1-p100,daily_issda-4500,4500,first-4500,1344,29,rng,num-start-41,41,536,classic,1016.9248838424684,False,,True,0.0,,,0,"Index(['1', '2', '3', '5', '6', '8', '15', '24', '28', '29',
       ...
       '4465', '4468', '4473', '4480', '4481', '4486', '4489', '4493', '4499',
       '4500'],
      dtype='object', length=1344)",True,1000,True,100,0.0,0.0,e2583b1931
113,./expes/v3_2021-01-22_di_4500-prng-1-w1-p100,daily_issda-4500,4500,first-4500,1008,22,rng,num-start-1,1,536,classic,38.60808539390564,False,,True,0.413193903408034,0.4119059306852416,0.4168400113610238,10,"Index(['8', '14', '20', '31', '33', '46', '49', '51', '55', '60',
       ...
       '4475', '4476', '4478', '4486', '4490', '4492', '4493', '4496', '4497',
       '4499'],
      dtype='object', length=1008)",False,1000,True,100,1.0,1.0,32d0e69f14
114,./expes/v3_2021-01-22_di_4500-prng-1-w1-p100,daily_issda-4500,4500,first-4500,224,4,rng,num-start-121,121,536,classic,1050.9098653793335,False,,True,0.0,,,0,"Index(['2', '34', '99', '185', '190', '209', '222', '229', '238', '308',
       ...
       '4328', '4356', '4363', '4380', '4390', '4396', '4430', '4437', '4450',
       '4488'],
      dtype='object', length=224)",True,1000,True,100,0.0,0.0,a6e29fb33f
115,./expes/v3_2021-01-22_di_4500-prng-1-w1-p100,daily_issda-4500,4500,first-4500,112,2,rng,num-start-221,221,536,classic,1093.5209925174713,False,,True,0.0,,,0,"Index(['60', '77', '149', '163', '211', '351', '355', '367', '380', '483',
       ...
       '3861', '3880', '3923', '4145', '4165', '4251', '4263', '4380', '4397',
       '4487'],
      dtype='object', length=112)",True,1000,True,100,0.0,0.0,057047292d
116,./expes/v3_2021-01-22_di_4500-prng-1-w1-p100,daily_issda-4500,4500,first-4500,1008,22,rng,num-start-111,111,536,classic,1046.555516719818,False,,True,0.0,,,0,"Index(['5', '6', '8', '10', '16', '17', '18', '25', '27', '31',
       ...
       '4444', '4451', '4463', '4466', '4468', '4469', '4474', '4478', '4480',
       '4482'],
      dtype='object', length=1008)",True,1000,True,100,0.0,0.0,265291b740
117,./expes/v3_2021-01-22_di_4500-prng-1-w1-p100,daily_issda-4500,4500,first-4500,2016,44,rng,num-start-111,111,536,classic,1046.024264574051,False,,True,0.0,,,0,"Index(['4', '5', '6', '8', '9', '10', '12', '14', '15', '16',
       ...
       '4475', '4478', '4480', '4482', '4485', '4486', '4489', '4493', '4495',
       '4498'],
      dtype='object', length=2016)",True,1000,True,100,0.0,0.0,ecb0661a13
118,./expes/v3_2021-01-22_di_4500-prng-1-w1-p100,daily_issda-4500,4500,first-4500,560,12,rng,num-start-131,131,536,classic,1053.5482988357544,False,,True,0.0,,,0,"Index(['10', '16', '17', '18', '25', '27', '31', '34', '41', '46',
       ...
       '4384', '4391', '4395', '4397', '4451', '4466', '4468', '4469', '4480',
       '4482'],
      dtype='object', length=560)",True,1000,True,100,0.0,0.0,33c935aedf
119,./expes/v3_2021-01-22_di_4500-prng-1-w1-p100,daily_issda-4500,4500,first-4500,1120,24,rng,num-start-31,31,536,classic,1013.0373618602752,False,,True,0.0,,,0,"Index(['2', '4', '5', '10', '11', '12', '13', '22', '23', '25',
       ...
       '4466', '4467', '4471', '4475', '4477', '4481', '4483', '4494', '4496',
       '4497'],
      dtype='object', length=1120)",True,1000,True,100,0.0,0.0,684a42f733
120,./expes/v3_2021-01-22_di_4500-prng-1-w1-p100,daily_issda-4500,4500,first-4500,2240,49,rng,num-start-131,131,536,classic,1050.882277011871,False,,True,0.0,,,0,"Index(['4', '5', '7', '10', '13', '21', '24', '25', '27', '29',
       ...
       '4484', '4488', '4489', '4490', '4494', '4495', '4496', '4497', '4498',
       '4499'],
      dtype='object', length=2240)",True,1000,True,100,0.0,0.0,896fd06c89
121,./expes/v3_2021-01-22_di_4500-prng-1-w1-p100,daily_issda-4500,4500,first-4500,112,2,rng,num-start-31,31,536,classic,1012.7759127616882,False,,True,0.0,,,0,"Index(['18', '25', '119', '246', '294', '317', '319', '349', '354', '567',
       ...
       '4022', '4067', '4080', '4263', '4277', '4282', '4314', '4353', '4391',
       '4451'],
      dtype='object', length=112)",True,1000,True,100,0.0,0.0,442a57fad5
122,./expes/v3_2021-01-22_di_4500-prng-1-w1-p100,daily_issda-4500,4500,first-4500,1456,32,rng,num-start-71,71,536,classic,1029.8026223182678,False,,True,0.0,,,0,"Index(['1', '2', '13', '14', '15', '16', '17', '20', '23', '29',
       ...
       '4460', '4463', '4469', '4473', '4474', '4482', '4484', '4493', '4495',
       '4500'],
      dtype='object', length=1456)",True,1000,True,100,0.0,0.0,bf4e094e72
123,./expes/v3_2021-01-22_di_4500-prng-1-w1-p100,daily_issda-4500,4500,first-4500,1792,39,rng,num-start-271,271,536,classic,1113.607014656067,False,,True,0.0,,,0,"Index(['3', '5', '7', '8', '10', '14', '16', '17', '22', '23',
       ...
       '4470', '4472', '4475', '4478', '4480', '4483', '4487', '4489', '4497',
       '4500'],
      dtype='object', length=1792)",True,1000,True,100,0.0,0.0,31cd545d11
124,./expes/v3_2021-01-22_di_4500-prng-1-w1-p100,daily_issda-4500,4500,first-4500,1344,29,rng,num-start-21,21,536,classic,1008.777188539505,False,,True,0.0,,,0,"Index(['5', '8', '10', '14', '17', '22', '23', '27', '30', '38',
       ...
       '4467', '4469', '4470', '4472', '4475', '4480', '4483', '4487', '4489',
       '4500'],
      dtype='object', length=1344)",True,1000,True,100,0.0,0.0,77b14a6628
125,./expes/v3_2021-01-22_di_4500-prng-1-w1-p100,daily_issda-4500,4500,first-4500,1008,22,rng,num-start-181,181,536,classic,1072.5841517448423,False,,True,0.0,,,0,"Index(['2', '9', '10', '12', '15', '16', '24', '28', '29', '30',
       ...
       '4460', '4462', '4473', '4482', '4488', '4490', '4492', '4495', '4499',
       '4500'],
      dtype='object', length=1008)",True,1000,True,100,0.0,0.0,1dc9b159b8
126,./expes/v3_2021-01-22_di_4500-prng-1-w1-p100,daily_issda-4500,4500,first-4500,336,7,rng,num-start-211,211,536,classic,1086.8999028205872,False,,True,0.0,,,0,"Index(['4', '5', '38', '56', '79', '89', '90', '93', '102', '120',
       ...
       '4276', '4329', '4350', '4382', '4386', '4399', '4413', '4422', '4434',
       '4474'],
      dtype='object', length=336)",True,1000,True,100,0.0,0.0,b840331fdd
127,./expes/v3_2021-01-22_di_4500-prng-1-w1-p100,daily_issda-4500,4500,first-4500,1568,34,rng,num-start-101,101,536,classic,1042.497269630432,False,,True,0.0,,,0,"Index(['5', '11', '12', '13', '14', '15', '16', '22', '25', '30',
       ...
       '4467', '4468', '4475', '4477', '4481', '4482', '4484', '4486', '4488',
       '4494'],
      dtype='object', length=1568)",True,1000,True,100,0.0,0.0,579292eea7
128,./expes/v3_2021-01-22_di_4500-prng-1-w1-p100,daily_issda-4500,4500,first-4500,1568,34,rng,num-start-261,261,536,classic,1105.329934835434,False,,True,0.0,,,0,"Index(['2', '3', '4', '7', '10', '11', '13', '15', '16', '23',
       ...
       '4480', '4482', '4484', '4486', '4489', '4491', '4492', '4493', '4494',
       '4499'],
      dtype='object', length=1568)",True,1000,True,100,0.0,0.0,8485945a61
129,./expes/v3_2021-01-22_di_4500-prng-1-w1-p100,daily_issda-4500,4500,first-4500,1344,29,rng,num-start-131,131,536,classic,1060.9370017051697,False,,True,0.0,,,0,"Index(['5', '8', '10', '14', '17', '22', '23', '27', '30', '38',
       ...
       '4467', '4469', '4470', '4472', '4475', '4480', '4483', '4487', '4489',
       '4500'],
      dtype='object', length=1344)",True,1000,True,100,0.0,0.0,fae91f7306
130,./expes/v3_2021-01-22_di_4500-prng-1-w1-p100,daily_issda-4500,4500,first-4500,1568,34,rng,num-start-61,61,536,classic,1025.3714451789856,False,,True,0.0,,,0,"Index(['1', '2', '3', '4', '14', '16', '17', '19', '23', '24',
       ...
       '4474', '4475', '4477', '4479', '4481', '4483', '4490', '4493', '4495',
       '4500'],
      dtype='object', length=1568)",True,1000,True,100,0.0,0.0,792d0a094b
131,./expes/v3_2021-01-22_di_4500-prng-1-w1-p100,daily_issda-4500,4500,first-4500,1568,34,rng,num-start-211,211,536,classic,1084.7562308311462,False,,True,0.0,,,0,"Index(['4', '5', '6', '8', '9', '10', '12', '15', '16', '17',
       ...
       '4469', '4474', '4475', '4478', '4480', '4482', '4486', '4489', '4495',
       '4498'],
      dtype='object', length=1568)",True,1000,True,100,0.0,0.0,a7dd45facc
132,./expes/v3_2021-01-22_di_4500-prng-1-w1-p100,daily_issda-4500,4500,first-4500,1344,29,rng,num-start-31,31,536,classic,1013.2511887550354,False,,True,0.0,,,0,"Index(['2', '4', '5', '10', '11', '12', '13', '14', '17', '22',
       ...
       '4467', '4471', '4475', '4476', '4477', '4481', '4483', '4494', '4496',
       '4497'],
      dtype='object', length=1344)",True,1000,True,100,0.0,0.0,08004f66f9
133,./expes/v3_2021-01-22_di_4500-prng-1-w1-p100,daily_issda-4500,4500,first-4500,1792,39,rng,num-start-191,191,536,classic,1076.3737397193909,False,,True,0.0,,,0,"Index(['3', '5', '7', '8', '10', '14', '16', '17', '22', '23',
       ...
       '4470', '4472', '4475', '4478', '4480', '4483', '4487', '4489', '4497',
       '4500'],
      dtype='object', length=1792)",True,1000,True,100,0.0,0.0,603a77c7fb
134,./expes/v3_2021-01-22_di_4500-prng-1-w1-p100,daily_issda-4500,4500,first-4500,2240,49,rng,num-start-51,51,536,classic,1021.4926753044128,False,,True,0.0,,,0,"Index(['4', '5', '6', '8', '12', '14', '18', '21', '22', '27',
       ...
       '4482', '4484', '4486', '4488', '4489', '4491', '4492', '4495', '4496',
       '4500'],
      dtype='object', length=2240)",True,1000,True,100,0.0,0.0,2ccd1bdfed
135,./expes/v3_2021-01-22_di_4500-prng-1-w1-p100,daily_issda-4500,4500,first-4500,896,19,rng,num-start-41,41,536,classic,1016.763135433197,False,,True,0.0,,,0,"Index(['3', '10', '14', '16', '21', '26', '33', '47', '49', '51',
       ...
       '4461', '4464', '4465', '4471', '4474', '4490', '4494', '4496', '4499',
       '4500'],
      dtype='object', length=896)",True,1000,True,100,0.0,0.0,70ad23b7d5
136,./expes/v3_2021-01-22_di_4500-prng-1-w1-p100,daily_issda-4500,4500,first-4500,2240,49,rng,num-start-1,1,536,classic,21.612877368927,False,,True,0.2974822848703952,0.2956490599697523,0.2984949339918991,10,"Index(['1', '2', '3', '4', '5', '6', '8', '11', '13', '15',
       ...
       '4477', '4480', '4481', '4486', '4489', '4490', '4493', '4496', '4499',
       '4500'],
      dtype='object', length=2240)",False,1000,True,100,1.0,0.0,77a05e270d
137,./expes/v3_2021-01-22_di_4500-prng-1-w1-p100,daily_issda-4500,4500,first-4500,1008,22,rng,num-start-21,21,536,classic,1009.1488802433014,False,,True,0.0,,,0,"Index(['5', '6', '8', '10', '16', '17', '18', '25', '27', '31',
       ...
       '4444', '4451', '4463', '4466', '4468', '4469', '4474', '4478', '4480',
       '4482'],
      dtype='object', length=1008)",True,1000,True,100,0.0,0.0,6d90214f95
138,./expes/v3_2021-01-22_di_4500-prng-1-w1-p100,daily_issda-4500,4500,first-4500,2240,49,rng,num-start-21,21,536,classic,1009.5362200737,False,,True,0.0,,,0,"Index(['1', '2', '3', '4', '7', '8', '9', '10', '11', '13',
       ...
       '4486', '4488', '4489', '4491', '4492', '4493', '4494', '4496', '4499',
       '4500'],
      dtype='object', length=2240)",True,1000,True,100,0.0,0.0,538d9b70cc
139,./expes/v3_2021-01-22_di_4500-prng-1-w1-p100,daily_issda-4500,4500,first-4500,336,7,rng,num-start-111,111,536,classic,1042.7688493728638,False,,True,0.0,,,0,"Index(['4', '5', '38', '56', '79', '89', '90', '93', '102', '120',
       ...
       '4276', '4329', '4350', '4382', '4386', '4399', '4413', '4422', '4434',
       '4474'],
      dtype='object', length=336)",True,1000,True,100,0.0,0.0,ae9c7deb1d
140,./expes/v3_2021-01-22_di_4500-prng-1-w1-p100,daily_issda-4500,4500,first-4500,560,12,rng,num-start-131,131,536,classic,1054.8627841472626,False,,True,0.0,,,0,"Index(['26', '43', '47', '58', '60', '62', '64', '65', '66', '68',
       ...
       '4426', '4428', '4434', '4435', '4442', '4449', '4455', '4462', '4484',
       '4487'],
      dtype='object', length=560)",True,1000,True,100,0.0,0.0,b94a695163
141,./expes/v3_2021-01-22_di_4500-prng-1-w1-p100,daily_issda-4500,4500,first-4500,560,12,rng,num-start-221,221,536,classic,1093.044911623001,False,,True,0.0,,,0,"Index(['47', '49', '51', '52', '55', '72', '74', '91', '106', '117',
       ...
       '4443', '4444', '4453', '4454', '4461', '4464', '4465', '4474', '4494',
       '4500'],
      dtype='object', length=560)",True,1000,True,100,0.0,0.0,7560ac23b0
142,./expes/v3_2021-01-22_di_4500-prng-1-w1-p100,daily_issda-4500,4500,first-4500,1904,42,rng,num-start-141,141,536,classic,1056.378223657608,False,,True,0.0,,,0,"Index(['1', '5', '8', '11', '12', '13', '14', '15', '16', '18',
       ...
       '4476', '4477', '4481', '4482', '4484', '4486', '4488', '4494', '4495',
       '4499'],
      dtype='object', length=1904)",True,1000,True,100,0.0,0.0,a8ee715f74
143,./expes/v3_2021-01-22_di_4500-prng-1-w1-p100,daily_issda-4500,4500,first-4500,1904,42,rng,num-start-261,261,536,classic,1105.9099974632263,False,,True,0.0,,,0,"Index(['3', '4', '5', '7', '8', '10', '14', '16', '17', '21',
       ...
       '4476', '4478', '4480', '4483', '4487', '4488', '4489', '4496', '4497',
       '4500'],
      dtype='object', length=1904)",True,1000,True,100,0.0,0.0,4672d8509b
144,./expes/v3_2021-01-22_di_4500-prng-1-w1-p100,daily_issda-4500,4500,first-4500,1568,34,rng,num-start-271,271,536,classic,1112.7638034820557,False,,True,0.0,,,0,"Index(['5', '7', '12', '13', '18', '25', '26', '28', '29', '30',
       ...
       '4473', '4476', '4481', '4482', '4487', '4490', '4492', '4496', '4499',
       '4500'],
      dtype='object', length=1568)",True,1000,True,100,0.0,0.0,ea23378504
145,./expes/v3_2021-01-22_di_4500-prng-1-w1-p100,daily_issda-4500,4500,first-4500,1120,24,rng,num-start-241,241,536,classic,1101.2277739048004,False,,True,0.0,,,0,"Index(['4', '5', '12', '22', '32', '38', '41', '56', '58', '77',
       ...
       '4469', '4474', '4475', '4480', '4484', '4488', '4489', '4491', '4492',
       '4495'],
      dtype='object', length=1120)",True,1000,True,100,0.0,0.0,74e67b92d5
146,./expes/v3_2021-01-22_di_4500-prng-1-w1-p100,daily_issda-4500,4500,first-4500,1120,24,rng,num-start-121,121,536,classic,1047.658838033676,False,,True,0.0,,,0,"Index(['5', '6', '12', '16', '17', '24', '27', '32', '41', '42',
       ...
       '4468', '4469', '4470', '4473', '4474', '4477', '4482', '4493', '4495',
       '4499'],
      dtype='object', length=1120)",True,1000,True,100,0.0,0.0,49d3cb4f30
147,./expes/v3_2021-01-22_di_4500-prng-1-w1-p100,daily_issda-4500,4500,first-4500,1456,32,rng,num-start-91,91,536,classic,1038.740833044052,False,,True,0.0,,,0,"Index(['4', '5', '6', '8', '9', '10', '15', '16', '17', '18',
       ...
       '4468', '4469', '4474', '4478', '4480', '4482', '4486', '4489', '4495',
       '4498'],
      dtype='object', length=1456)",True,1000,True,100,0.0,0.0,28d2e9fa58
148,./expes/v3_2021-01-22_di_4500-prng-1-w1-p100,daily_issda-4500,4500,first-4500,1232,27,rng,num-start-1,1,536,classic,32.78072762489319,False,,True,0.3718482553820529,0.3695861285985293,0.3738313881441848,10,"Index(['1', '4', '6', '8', '9', '10', '13', '14', '15', '17',
       ...
       '4471', '4473', '4481', '4484', '4486', '4491', '4492', '4493', '4498',
       '4499'],
      dtype='object', length=1232)",False,1000,True,100,1.0,1.0,203dcc8eb1
149,./expes/v3_2021-01-22_di_4500-prng-1-w1-p100,daily_issda-4500,4500,first-4500,784,17,rng,num-start-101,101,536,classic,1044.6082179546356,False,,True,0.0,,,0,"Index(['4', '5', '32', '38', '41', '56', '77', '78', '79', '84',
       ...
       '4448', '4451', '4454', '4457', '4458', '4463', '4469', '4474', '4480',
       '4495'],
      dtype='object', length=784)",True,1000,True,100,0.0,0.0,24c20b7de4
150,./expes/v3_2021-01-22_di_4500-prng-1-w1-p100,daily_issda-4500,4500,first-4500,2128,47,rng,num-start-261,261,536,classic,1107.7074229717257,False,,True,0.0,,,0,"Index(['1', '2', '3', '4', '5', '7', '9', '10', '11', '12',
       ...
       '4483', '4484', '4489', '4490', '4491', '4494', '4496', '4497', '4499',
       '4500'],
      dtype='object', length=2128)",True,1000,True,100,0.0,0.0,f82cf41a89
151,./expes/v3_2021-01-22_di_4500-prng-1-w1-p100,daily_issda-4500,4500,first-4500,2128,47,rng,num-start-181,181,536,classic,1073.3151452541351,False,,True,0.0,,,0,"Index(['1', '2', '3', '4', '5', '6', '9', '10', '11', '13',
       ...
       '4484', '4485', '4487', '4488', '4489', '4492', '4494', '4495', '4497',
       '4499'],
      dtype='object', length=2128)",True,1000,True,100,0.0,0.0,c444d4b6e3
152,./expes/v3_2021-01-22_di_4500-prng-1-w1-p100,daily_issda-4500,4500,first-4500,2016,44,rng,num-start-81,81,536,classic,1032.7932000160215,False,,True,0.0,,,0,"Index(['1', '3', '4', '5', '7', '9', '10', '11', '12', '14',
       ...
       '4478', '4479', '4489', '4490', '4491', '4494', '4496', '4497', '4499',
       '4500'],
      dtype='object', length=2016)",True,1000,True,100,0.0,0.0,4867bd6831
