expe,clients,clients_size,clients_subset,agg_size,method,days,days_size,days_total,time,valid,valid_sum,success,nsols,wall_hit,wall_time,pooled,valid_sums
./expes/v2_2020-12-06_dh_2000-prng-1,30_issda_2000,2000,rng-2000,501,rng,num-start-1201,1201,25726,1150.7547693252563,False,,False,1,True,1000,True,0.0
./expes/v2_2020-12-06_dh_2000-prng-1,30_issda_2000,2000,rng-2000,701,rng,num-start-601,601,25726,1075.7632956504822,False,,False,0,True,1000,True,0.0
./expes/v2_2020-12-06_dh_2000-prng-1,30_issda_2000,2000,rng-2000,1601,rng,num-start-901,901,25726,1113.0871860980988,False,,False,1,True,1000,True,0.0
./expes/v2_2020-12-06_dh_2000-prng-1,30_issda_2000,2000,rng-2000,201,rng,num-start-701,701,25726,1084.9722728729248,False,,False,1,True,1000,True,0.0
./expes/v2_2020-12-06_dh_2000-prng-1,30_issda_2000,2000,rng-2000,1101,rng,num-start-1201,1201,25726,1147.940794467926,False,,False,1,True,1000,True,0.0
./expes/v2_2020-12-06_dh_2000-prng-1,30_issda_2000,2000,rng-2000,1401,rng,num-start-701,701,25726,1082.006665945053,False,,False,0,True,1000,True,0.0
./expes/v2_2020-12-06_dh_2000-prng-1,30_issda_2000,2000,rng-2000,601,rng,num-start-1701,1701,25726,1210.8321778774261,False,,False,1,True,1000,True,0.0
./expes/v2_2020-12-06_dh_2000-prng-1,30_issda_2000,2000,rng-2000,1901,rng,num-start-1301,1301,25726,953.2698996067047,True,,True,1,False,1000,True,1.0
./expes/v2_2020-12-06_dh_2000-prng-1,30_issda_2000,2000,rng-2000,1,rng,num-start-101,101,25726,13.643468618392944,True,,True,1,False,1000,True,1.0
./expes/v2_2020-12-06_dh_2000-prng-1,30_issda_2000,2000,rng-2000,1,rng,num-start-1201,1201,25726,160.02492880821228,True,,True,1,False,1000,True,1.0
./expes/v2_2020-12-06_dh_2000-prng-1,30_issda_2000,2000,rng-2000,1501,rng,num-start-401,401,25726,1051.6868097782135,False,,False,0,True,1000,True,0.0
