expe,clients,clients_size,clients_subset,agg_size,method,days,days_size,days_total,time,valid,valid_sum,success,nsols,wall_hit,wall_time,pooled,valid_sums
./expes/v2_2020-12-06_dh_2000-prng-1,30_issda_2000,2000,rng-2000,101,rng,num-start-801,801,25726,386.269593000412,True,,False,2,False,1000,True,1.0
./expes/v2_2020-12-06_dh_2000-prng-1,30_issda_2000,2000,rng-2000,1,rng,num-start-501,501,25726,59.80867052078247,True,,True,1,False,1000,True,1.0
./expes/v2_2020-12-06_dh_2000-prng-1,30_issda_2000,2000,rng-2000,1401,rng,num-start-401,401,25726,1047.7271666526794,False,,False,0,True,1000,True,0.0
./expes/v2_2020-12-06_dh_2000-prng-1,30_issda_2000,2000,rng-2000,901,rng,num-start-1601,1601,25726,1209.738736152649,False,,False,1,True,1000,True,0.0
./expes/v2_2020-12-06_dh_2000-prng-1,30_issda_2000,2000,rng-2000,601,rng,num-start-1,1,25726,0.21944022178649902,False,,False,2,False,1000,True,1.0
./expes/v2_2020-12-06_dh_2000-prng-1,30_issda_2000,2000,rng-2000,201,rng,num-start-501,501,25726,1059.0636637210846,False,,False,1,True,1000,True,0.0
./expes/v2_2020-12-06_dh_2000-prng-1,30_issda_2000,2000,rng-2000,501,rng,num-start-1101,1101,25726,790.8195350170135,True,,True,1,False,1000,True,1.0
./expes/v2_2020-12-06_dh_2000-prng-1,30_issda_2000,2000,rng-2000,1101,rng,num-start-1301,1301,25726,1153.8891773223877,False,,False,1,True,1000,True,0.0
./expes/v2_2020-12-06_dh_2000-prng-1,30_issda_2000,2000,rng-2000,201,rng,num-start-1601,1601,25726,1191.6776535511017,False,,False,1,True,1000,True,0.0
./expes/v2_2020-12-06_dh_2000-prng-1,30_issda_2000,2000,rng-2000,901,rng,num-start-801,801,25726,1095.5337994098663,False,,False,0,True,1000,True,0.0
./expes/v2_2020-12-06_dh_2000-prng-1,30_issda_2000,2000,rng-2000,901,rng,num-start-1001,1001,25726,1117.5002837181091,False,,False,1,True,1000,True,0.0
./expes/v2_2020-12-06_dh_2000-prng-1,30_issda_2000,2000,rng-2000,601,rng,num-start-1601,1601,25726,1186.3382890224457,False,,False,1,True,1000,True,0.0
./expes/v2_2020-12-06_dh_2000-prng-1,30_issda_2000,2000,rng-2000,601,rng,num-start-1,1,25726,0.27421045303344727,False,,False,2,False,1000,True,1.0
