expe,clients,clients_size,clients_subset,agg_size,method,days,days_size,days_total,time,valid,valid_sum,success,nsols,wall_hit,wall_time,pooled,valid_sums
./expes/v2_2020-12-06_dh_2000-prng-1,30_issda_2000,2000,rng-2000,1101,rng,num-start-501,501,25726,1059.3129138946533,False,,False,0,True,1000,True,0.0
./expes/v2_2020-12-06_dh_2000-prng-1,30_issda_2000,2000,rng-2000,1401,rng,num-start-1901,1901,25726,1229.115790605545,False,,False,1,True,1000,True,0.0
./expes/v2_2020-12-06_dh_2000-prng-1,30_issda_2000,2000,rng-2000,301,rng,num-start-801,801,25726,1099.3486919403076,False,,False,1,True,1000,True,0.0
./expes/v2_2020-12-06_dh_2000-prng-1,30_issda_2000,2000,rng-2000,701,rng,num-start-301,301,25726,1037.7821595668793,False,,False,0,True,1000,True,0.0
./expes/v2_2020-12-06_dh_2000-prng-1,30_issda_2000,2000,rng-2000,1801,rng,num-start-1101,1101,25726,1133.6115052700043,False,,False,1,True,1000,True,0.0
./expes/v2_2020-12-06_dh_2000-prng-1,30_issda_2000,2000,rng-2000,801,rng,num-start-301,301,25726,1037.7251312732697,False,,False,0,True,1000,True,0.0
./expes/v2_2020-12-06_dh_2000-prng-1,30_issda_2000,2000,rng-2000,1601,rng,num-start-1201,1201,25726,1144.5104036331177,False,,False,1,True,1000,True,0.0
./expes/v2_2020-12-06_dh_2000-prng-1,30_issda_2000,2000,rng-2000,1601,rng,num-start-1,1,25726,0.2842996120452881,False,,False,2,False,1000,True,1.0
./expes/v2_2020-12-06_dh_2000-prng-1,30_issda_2000,2000,rng-2000,601,rng,num-start-1001,1001,25726,1122.4569075107574,False,,False,1,True,1000,True,0.0
./expes/v2_2020-12-06_dh_2000-prng-1,30_issda_2000,2000,rng-2000,1601,rng,num-start-801,801,25726,1097.8744037151337,False,,False,1,True,1000,True,0.0
./expes/v2_2020-12-06_dh_2000-prng-1,30_issda_2000,2000,rng-2000,801,rng,num-start-1,1,25726,0.19117951393127441,False,,False,2,False,1000,True,1.0
