expe,clients,clients_size,clients_subset,agg_size,agg_size_pc,method,days,days_size,days_total,noise_method,time,valid,valid_sum,success,score_avg,score_min,score_max,nsols,oracle,wall_hit,wall_time,pooled,pool_size,uuid,infeasible,optimal,valid_sums
./expes/v2_2021-03-27_issda-30_2000-prng-1-w4-p2,30_issda-2000,2000,first-2000,300,15,rng,num-start-4000,4000,25726,classic,3434.749267578125,True,,True,1.0,1.0,1.0,1,"['1', '4', '22', '36', '40', '43', '52', '57', '58', '65', '72', '88', '95', '105', '106', '112', '127', '137', '141', '144', '149', '158', '171', '184', '185', '191', '194', '195', '196', '199', '201', '210', '212', '218', '219', '229', '234', '236', '243', '249', '252', '258', '264', '267', '289', '294', '300', '301', '307', '325', '330', '332', '338', '345', '350', '353', '372', '374', '387', '395', '397', '405', '408', '411', '419', '426', '434', '447', '455', '456', '458', '472', '484', '502', '506', '507', '510', '513', '516', '522', '524', '525', '526', '530', '534', '539', '540', '542', '545', '547', '555', '556', '562', '564', '571', '575', '577', '579', '597', '620', '621', '634', '640', '644', '647', '661', '680', '691', '696', '712', '724', '729', '734', '739', '746', '749', '751', '754', '755', '756', '780', '783', '787', '792', '795', '807', '808', '813', '827', '831', '833', '844', '856', '858', '867', '871', '874', '880', '896', '899', '904', '912', '917', '921', '922', '927', '933', '942', '956', '960', '961', '962', '963', '965', '972', '984', '993', '994', '997', '998', '1000', '1002', '1005', '1025', '1026', '1038', '1041', '1053', '1058', '1069', '1077', '1080', '1086', '1096', '1109', '1111', '1116', '1119', '1130', '1134', '1142', '1147', '1150', '1166', '1167', '1171', '1184', '1186', '1195', '1201', '1207', '1219', '1220', '1221', '1237', '1245', '1255', '1261', '1262', '1279', '1287', '1294', '1296', '1298', '1306', '1313', '1315', '1318', '1321', '1322', '1325', '1327', '1335', '1336', '1345', '1346', '1349', '1360', '1363', '1369', '1377', '1393', '1402', '1404', '1406', '1407', '1418', '1439', '1441', '1442', '1444', '1454', '1478', '1486', '1504', '1506', '1517', '1519', '1530', '1547', '1551', '1560', '1585', '1588', '1593', '1608', '1613', '1634', '1635', '1648', '1654', '1655', '1656', '1676', '1680', '1686', '1687', '1691', '1694', '1698', '1720', '1724', '1750', '1762', '1770', '1772', '1773', '1776', '1784', '1788', '1791', '1792', '1815', '1835', '1836', '1837', '1847', '1861', '1862', '1864', '1875', '1879', '1886', '1888', '1902', '1908', '1911', '1912', '1913', '1914', '1918', '1924', '1926', '1930', '1934', '1951', '1959', '1965', '1967', '1995']",False,4000,True,2,79e5d94d54,0.0,1.0,1.0
./expes/v2_2021-03-27_issda-30_2000-prng-1-w4-p2,30_issda-2000,2000,first-2000,500,25,rng,num-start-1400,1400,25726,classic,1310.617547750473,True,,True,1.0,1.0,1.0,1,"['4', '9', '10', '11', '18', '33', '37', '40', '41', '44', '49', '50', '51', '52', '57', '61', '64', '65', '66', '69', '73', '74', '75', '77', '84', '89', '94', '101', '105', '110', '116', '117', '121', '123', '124', '137', '139', '146', '151', '152', '155', '157', '165', '170', '173', '174', '177', '180', '188', '192', '193', '197', '205', '208', '209', '216', '218', '228', '230', '232', '236', '238', '243', '250', '252', '262', '264', '270', '280', '287', '288', '290', '295', '297', '301', '310', '311', '315', '320', '321', '322', '323', '325', '329', '331', '337', '341', '347', '348', '350', '353', '354', '356', '361', '362', '364', '370', '372', '373', '377', '392', '394', '407', '426', '427', '431', '432', '435', '436', '446', '449', '455', '462', '465', '468', '473', '475', '477', '481', '484', '494', '502', '506', '508', '510', '511', '512', '514', '516', '519', '520', '521', '524', '526', '527', '531', '532', '537', '541', '545', '550', '551', '560', '562', '571', '572', '583', '586', '588', '594', '596', '607', '608', '622', '627', '632', '634', '635', '639', '648', '653', '665', '666', '672', '674', '675', '686', '691', '699', '700', '705', '707', '719', '725', '730', '733', '735', '737', '738', '740', '742', '743', '746', '750', '751', '762', '763', '764', '765', '768', '779', '785', '788', '790', '800', '801', '803', '805', '806', '809', '810', '819', '823', '828', '830', '833', '838', '842', '845', '850', '854', '857', '859', '860', '867', '868', '872', '876', '883', '889', '899', '904', '911', '912', '913', '918', '919', '925', '929', '930', '932', '936', '937', '945', '949', '952', '953', '956', '964', '969', '979', '983', '989', '992', '996', '997', '998', '1001', '1002', '1004', '1005', '1008', '1020', '1021', '1026', '1029', '1033', '1040', '1041', '1043', '1045', '1048', '1049', '1053', '1054', '1055', '1056', '1058', '1061', '1062', '1064', '1067', '1070', '1072', '1074', '1076', '1077', '1078', '1087', '1097', '1108', '1115', '1117', '1124', '1130', '1142', '1143', '1147', '1148', '1152', '1163', '1171', '1175', '1177', '1180', '1191', '1198', '1200', '1205', '1206', '1208', '1211', '1212', '1216', '1219', '1222', '1240', '1241', '1242', '1243', '1251', '1257', '1261', '1262', '1263', '1267', '1274', '1277', '1278', '1279', '1286', '1301', '1306', '1308', '1313', '1315', '1328', '1335', '1338', '1342', '1350', '1354', '1356', '1359', '1372', '1374', '1378', '1382', '1391', '1394', '1395', '1396', '1398', '1402', '1403', '1404', '1408', '1414', '1417', '1419', '1425', '1432', '1433', '1441', '1445', '1446', '1447', '1451', '1454', '1456', '1463', '1465', '1466', '1467', '1469', '1473', '1474', '1481', '1482', '1483', '1487', '1491', '1493', '1494', '1497', '1498', '1505', '1508', '1509', '1513', '1516', '1521', '1526', '1532', '1538', '1544', '1545', '1547', '1548', '1556', '1558', '1563', '1566', '1569', '1584', '1588', '1592', '1600', '1604', '1607', '1615', '1618', '1622', '1627', '1631', '1632', '1636', '1637', '1639', '1644', '1646', '1648', '1651', '1652', '1657', '1659', '1664', '1666', '1669', '1670', '1675', '1681', '1690', '1691', '1703', '1711', '1712', '1713', '1718', '1722', '1739', '1741', '1749', '1760', '1762', '1767', '1768', '1774', '1784', '1791', '1792', '1794', '1796', '1804', '1806', '1807', '1809', '1811', '1813', '1818', '1822', '1827', '1831', '1833', '1834', '1840', '1843', '1846', '1848', '1850', '1857', '1859', '1860', '1861', '1867', '1876', '1877', '1882', '1885', '1886', '1888', '1895', '1903', '1909', '1910', '1914', '1916', '1917', '1919', '1922', '1927', '1933', '1941', '1942', '1945', '1946', '1955', '1956', '1958', '1961', '1964', '1965', '1966', '1968', '1970', '1973', '1985', '1988', '1989', '1995']",False,4000,True,2,ee612bf746,0.0,1.0,1.0
./expes/v2_2021-03-27_issda-30_2000-prng-1-w4-p2,30_issda-2000,2000,first-2000,200,10,rng,num-start-1000,1000,25726,classic,472.6566505432129,True,,True,1.0,1.0,1.0,1,"['1', '26', '35', '38', '45', '59', '76', '94', '111', '157', '166', '176', '181', '183', '184', '191', '193', '197', '200', '240', '245', '253', '260', '283', '292', '299', '347', '353', '380', '385', '387', '394', '396', '397', '402', '404', '406', '408', '412', '430', '457', '502', '503', '513', '515', '522', '525', '536', '544', '545', '549', '559', '593', '597', '622', '624', '627', '640', '655', '675', '682', '688', '732', '739', '740', '741', '742', '765', '768', '773', '778', '779', '798', '815', '838', '840', '841', '848', '864', '867', '870', '874', '881', '904', '912', '914', '916', '925', '964', '965', '973', '981', '991', '994', '995', '997', '999', '1001', '1002', '1008', '1025', '1030', '1032', '1055', '1059', '1070', '1076', '1081', '1102', '1103', '1105', '1134', '1143', '1154', '1176', '1180', '1202', '1206', '1207', '1208', '1217', '1224', '1233', '1234', '1236', '1246', '1250', '1254', '1267', '1271', '1298', '1301', '1321', '1328', '1343', '1345', '1358', '1373', '1375', '1390', '1391', '1394', '1397', '1405', '1430', '1433', '1436', '1446', '1473', '1478', '1480', '1493', '1495', '1505', '1529', '1548', '1556', '1562', '1578', '1594', '1606', '1625', '1631', '1632', '1639', '1643', '1646', '1649', '1650', '1651', '1673', '1684', '1696', '1703', '1706', '1709', '1730', '1773', '1783', '1787', '1795', '1801', '1803', '1822', '1828', '1849', '1853', '1863', '1865', '1870', '1877', '1899', '1900', '1911', '1927', '1949', '1977', '1978', '1987', '2000']",False,4000,True,2,0e73726c00,0.0,1.0,1.0
./expes/v2_2021-03-27_issda-30_2000-prng-1-w4-p2,30_issda-2000,2000,first-2000,200,10,rng,num-start-3200,3200,25726,classic,1801.623057603836,True,,True,1.0,1.0,1.0,1,"['3', '29', '34', '68', '80', '83', '128', '129', '142', '152', '165', '169', '184', '187', '188', '192', '195', '203', '207', '224', '237', '240', '256', '267', '286', '287', '292', '301', '307', '350', '377', '383', '388', '390', '392', '417', '419', '441', '448', '452', '455', '483', '489', '496', '498', '500', '514', '531', '533', '534', '556', '564', '565', '578', '590', '595', '597', '618', '622', '636', '648', '650', '656', '665', '667', '677', '682', '683', '687', '725', '732', '734', '762', '789', '802', '817', '830', '859', '862', '890', '907', '912', '918', '923', '967', '976', '977', '996', '997', '1003', '1009', '1011', '1034', '1041', '1048', '1068', '1069', '1075', '1091', '1107', '1108', '1113', '1121', '1122', '1124', '1129', '1132', '1147', '1163', '1179', '1188', '1195', '1203', '1204', '1208', '1222', '1233', '1236', '1252', '1254', '1255', '1267', '1281', '1291', '1312', '1314', '1345', '1353', '1369', '1391', '1392', '1400', '1401', '1433', '1435', '1442', '1445', '1448', '1455', '1474', '1495', '1496', '1499', '1548', '1552', '1553', '1606', '1608', '1625', '1628', '1635', '1638', '1645', '1646', '1649', '1660', '1663', '1669', '1683', '1690', '1691', '1696', '1699', '1700', '1716', '1721', '1726', '1730', '1731', '1740', '1742', '1773', '1777', '1783', '1793', '1796', '1824', '1827', '1834', '1840', '1841', '1848', '1860', '1864', '1870', '1876', '1878', '1879', '1881', '1882', '1889', '1891', '1892', '1911', '1946', '1974', '1978', '1980', '1982', '1983']",False,4000,True,2,31c395156f,0.0,1.0,1.0
./expes/v2_2021-03-27_issda-30_2000-prng-1-w4-p2,30_issda-2000,2000,first-2000,500,25,rng,num-start-2200,2200,25726,classic,1612.3961362838745,True,,True,1.0,1.0,1.0,1,"['4', '9', '10', '11', '18', '33', '37', '40', '41', '44', '49', '50', '51', '52', '57', '61', '64', '65', '66', '69', '73', '74', '75', '77', '84', '89', '94', '101', '105', '110', '116', '117', '121', '123', '124', '137', '139', '146', '151', '152', '155', '157', '165', '170', '173', '174', '177', '180', '188', '192', '193', '197', '205', '208', '209', '216', '218', '228', '230', '232', '236', '238', '243', '250', '252', '262', '264', '270', '280', '287', '288', '290', '295', '297', '301', '310', '311', '315', '320', '321', '322', '323', '325', '329', '331', '337', '341', '347', '348', '350', '353', '354', '356', '361', '362', '364', '370', '372', '373', '377', '392', '394', '407', '426', '427', '431', '432', '435', '436', '446', '449', '455', '462', '465', '468', '473', '475', '477', '481', '484', '494', '502', '506', '508', '510', '511', '512', '514', '516', '519', '520', '521', '524', '526', '527', '531', '532', '537', '541', '545', '550', '551', '560', '562', '571', '572', '583', '586', '588', '594', '596', '607', '608', '622', '627', '632', '634', '635', '639', '648', '653', '665', '666', '672', '674', '675', '686', '691', '699', '700', '705', '707', '719', '725', '730', '733', '735', '737', '738', '740', '742', '743', '746', '750', '751', '762', '763', '764', '765', '768', '779', '785', '788', '790', '800', '801', '803', '805', '806', '809', '810', '819', '823', '828', '830', '833', '838', '842', '845', '850', '854', '857', '859', '860', '867', '868', '872', '876', '883', '889', '899', '904', '911', '912', '913', '918', '919', '925', '929', '930', '932', '936', '937', '945', '949', '952', '953', '956', '964', '969', '979', '983', '989', '992', '996', '997', '998', '1001', '1002', '1004', '1005', '1008', '1020', '1021', '1026', '1029', '1033', '1040', '1041', '1043', '1045', '1048', '1049', '1053', '1054', '1055', '1056', '1058', '1061', '1062', '1064', '1067', '1070', '1072', '1074', '1076', '1077', '1078', '1087', '1097', '1108', '1115', '1117', '1124', '1130', '1142', '1143', '1147', '1148', '1152', '1163', '1171', '1175', '1177', '1180', '1191', '1198', '1200', '1205', '1206', '1208', '1211', '1212', '1216', '1219', '1222', '1240', '1241', '1242', '1243', '1251', '1257', '1261', '1262', '1263', '1267', '1274', '1277', '1278', '1279', '1286', '1301', '1306', '1308', '1313', '1315', '1328', '1335', '1338', '1342', '1350', '1354', '1356', '1359', '1372', '1374', '1378', '1382', '1391', '1394', '1395', '1396', '1398', '1402', '1403', '1404', '1408', '1414', '1417', '1419', '1425', '1432', '1433', '1441', '1445', '1446', '1447', '1451', '1454', '1456', '1463', '1465', '1466', '1467', '1469', '1473', '1474', '1481', '1482', '1483', '1487', '1491', '1493', '1494', '1497', '1498', '1505', '1508', '1509', '1513', '1516', '1521', '1526', '1532', '1538', '1544', '1545', '1547', '1548', '1556', '1558', '1563', '1566', '1569', '1584', '1588', '1592', '1600', '1604', '1607', '1615', '1618', '1622', '1627', '1631', '1632', '1636', '1637', '1639', '1644', '1646', '1648', '1651', '1652', '1657', '1659', '1664', '1666', '1669', '1670', '1675', '1681', '1690', '1691', '1703', '1711', '1712', '1713', '1718', '1722', '1739', '1741', '1749', '1760', '1762', '1767', '1768', '1774', '1784', '1791', '1792', '1794', '1796', '1804', '1806', '1807', '1809', '1811', '1813', '1818', '1822', '1827', '1831', '1833', '1834', '1840', '1843', '1846', '1848', '1850', '1857', '1859', '1860', '1861', '1867', '1876', '1877', '1882', '1885', '1886', '1888', '1895', '1903', '1909', '1910', '1914', '1916', '1917', '1919', '1922', '1927', '1933', '1941', '1942', '1945', '1946', '1955', '1956', '1958', '1961', '1964', '1965', '1966', '1968', '1970', '1973', '1985', '1988', '1989', '1995']",False,4000,True,2,28fd4f735e,0.0,1.0,1.0
./expes/v2_2021-03-27_issda-30_2000-prng-1-w4-p2,30_issda-2000,2000,first-2000,100,5,rng,num-start-200,200,25726,classic,4036.2318830490112,False,,False,0,,,0,"['2', '10', '31', '35', '61', '62', '74', '86', '122', '130', '137', '144', '171', '175', '186', '193', '221', '222', '291', '323', '379', '382', '389', '390', '401', '430', '438', '471', '479', '496', '521', '570', '592', '596', '603', '622', '646', '669', '792', '812', '821', '834', '903', '915', '926', '927', '928', '937', '951', '954', '975', '1024', '1041', '1049', '1051', '1064', '1083', '1104', '1129', '1147', '1154', '1203', '1211', '1220', '1229', '1258', '1261', '1277', '1290', '1300', '1312', '1332', '1340', '1342', '1357', '1403', '1421', '1450', '1514', '1553', '1570', '1594', '1600', '1625', '1647', '1659', '1704', '1721', '1726', '1734', '1736', '1752', '1755', '1774', '1802', '1824', '1893', '1909', '1963', '1976']",True,4000,True,2,1da670ada8,0.0,0.0,0.0
./expes/v2_2021-03-27_issda-30_2000-prng-1-w4-p2,30_issda-2000,2000,first-2000,600,30,rng,num-start-3200,3200,25726,classic,3974.559289932251,True,,True,1.0,1.0,1.0,1,"['6', '8', '10', '16', '17', '19', '24', '31', '32', '35', '36', '39', '49', '59', '60', '63', '64', '70', '75', '80', '85', '87', '89', '91', '98', '99', '112', '113', '115', '116', '121', '122', '124', '127', '128', '132', '134', '135', '138', '141', '145', '150', '151', '152', '161', '162', '168', '174', '183', '187', '190', '198', '202', '204', '205', '206', '222', '223', '231', '237', '239', '240', '247', '248', '249', '252', '256', '264', '267', '270', '282', '285', '288', '292', '295', '296', '298', '301', '302', '306', '311', '312', '315', '319', '321', '322', '324', '325', '328', '330', '331', '335', '337', '341', '344', '347', '348', '349', '351', '353', '355', '361', '367', '368', '376', '379', '383', '401', '402', '421', '423', '428', '436', '438', '440', '441', '444', '449', '450', '451', '453', '454', '456', '458', '462', '463', '467', '469', '470', '474', '475', '476', '479', '481', '482', '490', '491', '493', '497', '500', '507', '511', '514', '515', '516', '521', '523', '524', '526', '533', '535', '536', '537', '540', '553', '556', '558', '560', '562', '575', '587', '588', '589', '595', '606', '607', '620', '623', '626', '628', '636', '638', '639', '642', '645', '646', '649', '652', '653', '659', '660', '661', '663', '666', '674', '676', '677', '678', '679', '680', '681', '683', '685', '686', '688', '689', '691', '693', '694', '697', '702', '704', '705', '706', '712', '713', '723', '724', '725', '728', '729', '732', '736', '738', '740', '753', '755', '756', '760', '763', '771', '775', '778', '781', '789', '793', '796', '797', '799', '800', '804', '807', '810', '815', '818', '823', '825', '829', '830', '831', '835', '836', '849', '855', '857', '860', '862', '864', '867', '874', '878', '883', '886', '889', '890', '894', '900', '901', '903', '905', '906', '910', '912', '913', '920', '922', '923', '924', '926', '931', '933', '939', '942', '945', '947', '951', '955', '956', '957', '958', '959', '960', '963', '964', '970', '972', '974', '976', '981', '983', '986', '987', '988', '992', '995', '1003', '1005', '1008', '1009', '1012', '1014', '1015', '1017', '1020', '1021', '1022', '1024', '1025', '1027', '1029', '1036', '1037', '1039', '1041', '1046', '1048', '1050', '1057', '1061', '1062', '1064', '1065', '1066', '1068', '1071', '1085', '1086', '1089', '1094', '1097', '1098', '1114', '1115', '1119', '1122', '1124', '1127', '1130', '1135', '1137', '1141', '1147', '1157', '1158', '1161', '1167', '1168', '1169', '1170', '1172', '1178', '1180', '1183', '1186', '1191', '1196', '1197', '1199', '1202', '1203', '1209', '1216', '1220', '1222', '1225', '1236', '1239', '1251', '1254', '1257', '1258', '1260', '1263', '1265', '1267', '1271', '1275', '1280', '1283', '1286', '1288', '1293', '1300', '1302', '1303', '1307', '1314', '1322', '1323', '1324', '1325', '1328', '1329', '1330', '1336', '1342', '1343', '1344', '1346', '1349', '1350', '1352', '1357', '1362', '1363', '1370', '1371', '1376', '1379', '1386', '1387', '1388', '1390', '1396', '1398', '1402', '1404', '1410', '1412', '1414', '1415', '1417', '1419', '1422', '1423', '1425', '1427', '1428', '1436', '1438', '1445', '1450', '1451', '1454', '1459', '1472', '1473', '1476', '1477', '1478', '1482', '1483', '1486', '1489', '1493', '1506', '1508', '1511', '1515', '1518', '1520', '1522', '1524', '1526', '1527', '1537', '1538', '1539', '1544', '1547', '1551', '1554', '1557', '1558', '1572', '1574', '1581', '1585', '1586', '1592', '1593', '1595', '1602', '1604', '1606', '1608', '1615', '1616', '1623', '1625', '1627', '1631', '1634', '1636', '1637', '1640', '1645', '1646', '1648', '1649', '1650', '1651', '1659', '1660', '1662', '1667', '1681', '1683', '1686', '1690', '1695', '1701', '1711', '1716', '1717', '1718', '1721', '1722', '1724', '1728', '1729', '1735', '1736', '1737', '1743', '1748', '1749', '1752', '1753', '1756', '1757', '1763', '1768', '1769', '1773', '1776', '1777', '1780', '1781', '1783', '1787', '1792', '1793', '1797', '1800', '1802', '1806', '1809', '1812', '1813', '1816', '1817', '1823', '1827', '1829', '1830', '1831', '1842', '1847', '1848', '1854', '1857', '1858', '1859', '1862', '1863', '1867', '1870', '1874', '1877', '1884', '1886', '1888', '1889', '1890', '1893', '1895', '1896', '1900', '1901', '1906', '1908', '1913', '1914', '1915', '1916', '1918', '1922', '1927', '1935', '1936', '1938', '1940', '1942', '1945', '1947', '1948', '1950', '1953', '1958', '1965', '1967', '1971', '1977', '1981', '1982', '1983', '1987', '1992', '2000']",False,4000,True,2,6b08f5f3cb,0.0,1.0,1.0
./expes/v2_2021-03-27_issda-30_2000-prng-1-w4-p2,30_issda-2000,2000,first-2000,700,35,rng,num-start-1400,1400,25726,classic,1060.433998823166,True,,True,1.0,1.0,1.0,1,"['6', '8', '9', '11', '12', '16', '21', '26', '28', '30', '31', '33', '34', '36', '39', '52', '54', '56', '57', '64', '65', '66', '67', '68', '69', '71', '73', '74', '75', '76', '77', '85', '88', '89', '90', '91', '92', '95', '98', '100', '102', '103', '104', '107', '109', '110', '113', '114', '116', '122', '123', '124', '129', '133', '134', '135', '139', '143', '144', '145', '148', '152', '154', '156', '160', '161', '164', '166', '167', '172', '181', '183', '187', '190', '194', '196', '197', '198', '199', '203', '205', '215', '217', '219', '223', '232', '237', '238', '239', '241', '243', '245', '247', '253', '256', '257', '261', '262', '267', '273', '275', '279', '285', '286', '289', '290', '294', '299', '301', '306', '307', '310', '312', '313', '314', '315', '316', '317', '321', '324', '325', '329', '334', '337', '338', '339', '340', '341', '345', '346', '348', '351', '352', '355', '357', '358', '359', '360', '361', '362', '365', '366', '367', '374', '375', '381', '382', '384', '387', '390', '391', '392', '393', '394', '397', '399', '400', '401', '410', '413', '422', '423', '426', '428', '430', '433', '434', '439', '447', '451', '454', '458', '459', '460', '469', '482', '483', '487', '489', '491', '492', '494', '495', '497', '501', '503', '505', '506', '512', '519', '522', '531', '532', '537', '538', '540', '544', '545', '547', '557', '562', '563', '568', '569', '570', '579', '581', '585', '589', '590', '593', '594', '596', '603', '607', '614', '617', '620', '621', '627', '628', '631', '632', '637', '644', '649', '650', '655', '660', '662', '665', '670', '672', '673', '680', '686', '688', '694', '695', '700', '703', '704', '708', '712', '713', '715', '716', '717', '724', '725', '728', '735', '738', '739', '740', '743', '747', '750', '752', '766', '767', '769', '771', '778', '779', '782', '783', '788', '790', '792', '795', '796', '798', '800', '803', '804', '811', '813', '814', '817', '818', '820', '821', '822', '825', '829', '830', '831', '837', '846', '849', '851', '852', '858', '861', '862', '863', '864', '866', '867', '868', '869', '874', '876', '879', '882', '887', '888', '889', '891', '892', '893', '894', '899', '900', '901', '904', '905', '906', '911', '913', '915', '916', '917', '918', '923', '925', '930', '933', '934', '936', '938', '939', '940', '941', '942', '944', '946', '948', '950', '951', '956', '959', '962', '963', '965', '972', '974', '976', '977', '978', '979', '981', '983', '984', '989', '994', '1002', '1003', '1004', '1007', '1014', '1016', '1018', '1023', '1024', '1027', '1028', '1038', '1040', '1044', '1046', '1047', '1051', '1052', '1058', '1060', '1065', '1066', '1067', '1069', '1070', '1071', '1072', '1075', '1076', '1082', '1088', '1091', '1093', '1097', '1099', '1100', '1104', '1106', '1109', '1116', '1117', '1125', '1128', '1129', '1130', '1138', '1139', '1140', '1144', '1145', '1146', '1153', '1156', '1157', '1158', '1160', '1162', '1167', '1168', '1171', '1172', '1177', '1179', '1180', '1182', '1184', '1185', '1188', '1191', '1194', '1198', '1203', '1206', '1210', '1212', '1216', '1219', '1220', '1224', '1225', '1232', '1234', '1235', '1236', '1238', '1240', '1241', '1242', '1243', '1245', '1246', '1247', '1248', '1249', '1250', '1257', '1259', '1265', '1267', '1268', '1270', '1275', '1279', '1281', '1282', '1285', '1286', '1288', '1299', '1301', '1303', '1305', '1308', '1309', '1310', '1311', '1314', '1315', '1317', '1324', '1329', '1331', '1335', '1336', '1338', '1339', '1345', '1347', '1348', '1351', '1353', '1356', '1361', '1363', '1364', '1366', '1371', '1373', '1380', '1381', '1383', '1387', '1395', '1402', '1405', '1408', '1413', '1416', '1418', '1420', '1421', '1424', '1428', '1430', '1435', '1438', '1440', '1445', '1447', '1453', '1455', '1460', '1461', '1471', '1475', '1476', '1478', '1479', '1480', '1481', '1482', '1488', '1489', '1503', '1508', '1513', '1515', '1517', '1523', '1524', '1526', '1527', '1535', '1539', '1541', '1544', '1556', '1559', '1561', '1564', '1565', '1571', '1572', '1573', '1575', '1579', '1582', '1583', '1584', '1587', '1589', '1590', '1592', '1593', '1604', '1612', '1613', '1616', '1617', '1620', '1626', '1633', '1638', '1641', '1648', '1650', '1653', '1654', '1657', '1659', '1661', '1662', '1664', '1666', '1673', '1674', '1675', '1676', '1681', '1682', '1685', '1687', '1688', '1690', '1691', '1694', '1695', '1698', '1699', '1707', '1708', '1709', '1712', '1713', '1714', '1715', '1718', '1725', '1729', '1736', '1737', '1740', '1742', '1744', '1748', '1751', '1752', '1759', '1761', '1762', '1763', '1766', '1768', '1771', '1772', '1773', '1781', '1783', '1785', '1786', '1790', '1792', '1794', '1800', '1802', '1805', '1808', '1818', '1819', '1821', '1823', '1825', '1826', '1830', '1837', '1839', '1840', '1842', '1846', '1847', '1852', '1853', '1856', '1858', '1860', '1863', '1865', '1866', '1870', '1871', '1872', '1874', '1878', '1882', '1884', '1886', '1887', '1890', '1893', '1907', '1910', '1911', '1912', '1916', '1917', '1918', '1923', '1928', '1932', '1937', '1941', '1946', '1948', '1951', '1952', '1956', '1958', '1959', '1965', '1966', '1967', '1968', '1971', '1973', '1974', '1976', '1984', '1985', '1986', '1987', '1988', '1995', '1997']",False,4000,True,2,3cbf98daec,0.0,1.0,1.0
./expes/v2_2021-03-27_issda-30_2000-prng-1-w4-p2,30_issda-2000,2000,first-2000,500,25,rng,num-start-2200,2200,25726,classic,1475.853788137436,True,,True,1.0,1.0,1.0,1,"['4', '8', '10', '15', '16', '24', '27', '32', '37', '41', '42', '44', '46', '56', '58', '59', '64', '65', '67', '68', '70', '72', '73', '74', '87', '88', '89', '91', '93', '95', '102', '103', '105', '109', '110', '113', '124', '125', '126', '130', '132', '135', '137', '140', '141', '147', '158', '164', '176', '177', '182', '199', '200', '209', '211', '214', '215', '222', '233', '244', '245', '246', '248', '249', '251', '253', '254', '255', '256', '257', '260', '262', '264', '266', '267', '268', '270', '273', '275', '279', '284', '309', '311', '320', '322', '327', '335', '347', '351', '352', '364', '366', '376', '380', '384', '391', '392', '393', '405', '407', '409', '433', '445', '447', '448', '453', '455', '456', '460', '461', '466', '475', '476', '480', '484', '487', '488', '489', '490', '491', '501', '502', '509', '515', '518', '529', '532', '537', '540', '541', '543', '547', '551', '552', '554', '555', '556', '561', '571', '572', '573', '584', '588', '592', '595', '598', '602', '612', '615', '616', '617', '621', '623', '635', '641', '643', '645', '646', '647', '656', '660', '662', '667', '669', '672', '674', '678', '681', '684', '690', '695', '696', '697', '699', '700', '705', '708', '710', '719', '720', '721', '723', '738', '739', '746', '749', '757', '758', '763', '765', '767', '772', '773', '774', '779', '791', '794', '798', '799', '809', '814', '820', '835', '836', '839', '841', '847', '848', '851', '854', '857', '860', '862', '863', '867', '871', '873', '875', '878', '881', '884', '890', '892', '894', '896', '898', '911', '924', '935', '936', '943', '944', '951', '952', '955', '961', '964', '969', '971', '976', '978', '986', '988', '989', '991', '999', '1003', '1004', '1014', '1017', '1025', '1029', '1031', '1036', '1039', '1045', '1050', '1056', '1062', '1063', '1065', '1066', '1068', '1072', '1076', '1080', '1085', '1094', '1095', '1097', '1098', '1100', '1108', '1109', '1110', '1114', '1115', '1124', '1126', '1129', '1138', '1145', '1146', '1161', '1164', '1165', '1166', '1170', '1172', '1175', '1176', '1178', '1182', '1188', '1190', '1197', '1199', '1201', '1202', '1206', '1207', '1208', '1209', '1211', '1214', '1219', '1220', '1229', '1231', '1232', '1237', '1238', '1240', '1241', '1247', '1251', '1254', '1259', '1262', '1266', '1269', '1271', '1276', '1282', '1284', '1285', '1286', '1287', '1288', '1295', '1297', '1298', '1299', '1300', '1301', '1304', '1309', '1315', '1319', '1325', '1331', '1332', '1339', '1343', '1358', '1375', '1376', '1377', '1383', '1385', '1389', '1392', '1395', '1397', '1401', '1413', '1415', '1421', '1422', '1424', '1425', '1430', '1431', '1440', '1448', '1460', '1462', '1463', '1466', '1467', '1469', '1472', '1473', '1476', '1481', '1492', '1506', '1512', '1519', '1520', '1527', '1532', '1543', '1550', '1553', '1557', '1560', '1575', '1582', '1588', '1591', '1592', '1596', '1598', '1603', '1612', '1613', '1615', '1620', '1622', '1626', '1629', '1640', '1641', '1645', '1647', '1651', '1652', '1653', '1654', '1659', '1660', '1662', '1663', '1666', '1673', '1679', '1687', '1696', '1704', '1706', '1707', '1708', '1713', '1714', '1716', '1718', '1729', '1741', '1749', '1750', '1752', '1753', '1754', '1756', '1758', '1763', '1764', '1765', '1767', '1769', '1773', '1776', '1778', '1782', '1783', '1788', '1800', '1802', '1803', '1805', '1810', '1813', '1816', '1818', '1822', '1823', '1837', '1838', '1839', '1843', '1851', '1852', '1853', '1862', '1870', '1876', '1879', '1885', '1886', '1887', '1888', '1889', '1893', '1897', '1900', '1903', '1917', '1918', '1924', '1927', '1932', '1944', '1946', '1947', '1956', '1961', '1962', '1964', '1968', '1973', '1975', '1976', '1978', '1985', '1989', '1990', '1991', '1993', '1997']",False,4000,True,2,4543c278ae,0.0,1.0,1.0
./expes/v2_2021-03-27_issda-30_2000-prng-1-w4-p2,30_issda-2000,2000,first-2000,1000,50,rng,num-start-2400,2400,25726,classic,2074.6662890911102,True,,True,1.0,1.0,1.0,1,"['2', '4', '6', '7', '8', '10', '11', '12', '15', '17', '18', '20', '22', '27', '32', '37', '38', '39', '41', '42', '44', '47', '48', '53', '55', '56', '58', '61', '62', '65', '66', '67', '70', '71', '72', '73', '75', '76', '77', '78', '79', '80', '83', '84', '85', '88', '89', '92', '93', '95', '97', '102', '106', '109', '110', '112', '114', '118', '121', '122', '124', '126', '127', '128', '131', '133', '136', '137', '138', '139', '142', '145', '147', '148', '152', '153', '154', '156', '158', '159', '160', '161', '162', '164', '165', '166', '167', '168', '170', '171', '175', '176', '178', '182', '183', '185', '188', '189', '190', '191', '192', '195', '196', '199', '202', '207', '212', '213', '214', '218', '220', '227', '230', '232', '233', '234', '235', '236', '238', '240', '242', '243', '245', '248', '250', '251', '262', '267', '272', '273', '275', '278', '280', '283', '284', '285', '286', '287', '288', '289', '291', '294', '295', '297', '298', '305', '306', '307', '309', '312', '313', '314', '316', '318', '320', '321', '322', '323', '325', '326', '329', '331', '332', '333', '334', '335', '336', '338', '339', '340', '341', '343', '345', '346', '348', '349', '352', '353', '354', '355', '358', '359', '361', '362', '363', '364', '365', '368', '370', '371', '372', '374', '375', '377', '379', '380', '385', '391', '392', '393', '397', '399', '400', '401', '402', '404', '405', '407', '408', '409', '410', '411', '412', '414', '416', '418', '421', '423', '425', '426', '427', '429', '431', '432', '433', '434', '435', '436', '437', '440', '441', '442', '443', '448', '449', '450', '453', '455', '456', '460', '464', '469', '470', '472', '474', '475', '476', '478', '479', '484', '487', '488', '489', '494', '496', '497', '501', '503', '507', '510', '511', '512', '513', '515', '516', '519', '520', '521', '524', '525', '527', '528', '529', '530', '532', '534', '536', '537', '538', '539', '540', '550', '552', '555', '557', '558', '562', '566', '567', '568', '569', '571', '573', '574', '575', '576', '579', '580', '581', '582', '585', '586', '589', '590', '591', '592', '593', '594', '595', '596', '597', '598', '599', '600', '601', '605', '606', '607', '608', '609', '611', '612', '613', '615', '616', '620', '621', '622', '623', '624', '625', '626', '628', '630', '632', '635', '638', '639', '640', '641', '642', '644', '645', '646', '648', '649', '657', '658', '659', '660', '661', '662', '663', '665', '666', '669', '670', '673', '676', '677', '678', '679', '682', '687', '689', '690', '692', '694', '695', '696', '697', '698', '703', '705', '707', '708', '710', '711', '712', '714', '718', '719', '724', '729', '731', '732', '734', '736', '737', '738', '742', '743', '745', '747', '748', '750', '753', '762', '763', '770', '778', '781', '782', '784', '786', '793', '794', '795', '796', '800', '802', '803', '804', '805', '809', '811', '812', '815', '820', '821', '823', '825', '826', '827', '828', '832', '834', '839', '841', '843', '844', '845', '846', '847', '848', '850', '852', '854', '855', '857', '861', '863', '866', '867', '868', '869', '870', '871', '877', '881', '883', '888', '889', '892', '893', '894', '895', '896', '898', '899', '900', '901', '903', '904', '906', '909', '910', '915', '917', '925', '926', '927', '930', '932', '934', '936', '939', '940', '941', '948', '950', '952', '957', '965', '966', '968', '970', '973', '974', '976', '977', '978', '979', '980', '981', '982', '987', '991', '992', '997', '1002', '1004', '1005', '1008', '1012', '1013', '1015', '1016', '1017', '1019', '1021', '1022', '1023', '1030', '1037', '1038', '1040', '1042', '1043', '1044', '1046', '1047', '1048', '1050', '1052', '1055', '1060', '1061', '1063', '1064', '1065', '1066', '1067', '1072', '1074', '1075', '1076', '1077', '1078', '1079', '1080', '1082', '1084', '1085', '1087', '1091', '1095', '1097', '1099', '1100', '1101', '1102', '1103', '1104', '1107', '1108', '1109', '1110', '1113', '1114', '1115', '1117', '1118', '1119', '1121', '1122', '1125', '1126', '1128', '1129', '1132', '1134', '1144', '1147', '1149', '1150', '1152', '1158', '1162', '1164', '1166', '1167', '1168', '1169', '1171', '1173', '1174', '1176', '1180', '1186', '1188', '1192', '1193', '1194', '1197', '1199', '1203', '1205', '1206', '1211', '1215', '1216', '1218', '1220', '1223', '1224', '1225', '1227', '1228', '1229', '1230', '1231', '1232', '1233', '1236', '1237', '1239', '1240', '1241', '1243', '1246', '1248', '1249', '1250', '1256', '1260', '1261', '1265', '1266', '1269', '1270', '1271', '1272', '1274', '1275', '1277', '1280', '1281', '1283', '1284', '1285', '1286', '1288', '1291', '1292', '1294', '1295', '1296', '1300', '1301', '1305', '1311', '1312', '1313', '1314', '1316', '1317', '1318', '1319', '1322', '1323', '1325', '1326', '1328', '1335', '1336', '1338', '1340', '1341', '1342', '1346', '1349', '1351', '1353', '1354', '1356', '1362', '1367', '1368', '1369', '1370', '1373', '1376', '1379', '1380', '1383', '1384', '1385', '1386', '1387', '1388', '1393', '1395', '1398', '1400', '1402', '1405', '1409', '1413', '1414', '1415', '1416', '1418', '1420', '1421', '1425', '1427', '1429', '1430', '1431', '1436', '1438', '1441', '1443', '1444', '1447', '1448', '1451', '1453', '1456', '1457', '1461', '1462', '1465', '1466', '1467', '1470', '1472', '1473', '1474', '1478', '1483', '1485', '1495', '1498', '1499', '1500', '1502', '1506', '1508', '1510', '1512', '1513', '1516', '1523', '1524', '1526', '1527', '1528', '1529', '1530', '1533', '1537', '1539', '1544', '1545', '1546', '1548', '1549', '1553', '1554', '1555', '1557', '1558', '1561', '1566', '1568', '1571', '1573', '1577', '1578', '1580', '1582', '1585', '1586', '1588', '1591', '1594', '1597', '1601', '1603', '1604', '1606', '1607', '1608', '1611', '1612', '1613', '1616', '1617', '1619', '1620', '1626', '1631', '1634', '1635', '1636', '1638', '1640', '1641', '1642', '1643', '1644', '1645', '1648', '1653', '1654', '1657', '1659', '1665', '1669', '1671', '1675', '1676', '1677', '1680', '1681', '1687', '1690', '1691', '1692', '1694', '1695', '1698', '1700', '1702', '1703', '1704', '1708', '1709', '1710', '1711', '1714', '1716', '1717', '1718', '1719', '1720', '1722', '1725', '1727', '1729', '1730', '1731', '1733', '1735', '1736', '1737', '1738', '1747', '1748', '1749', '1751', '1753', '1754', '1757', '1758', '1759', '1761', '1765', '1766', '1767', '1770', '1771', '1773', '1774', '1777', '1781', '1782', '1784', '1790', '1791', '1792', '1795', '1796', '1798', '1800', '1801', '1803', '1804', '1805', '1807', '1808', '1809', '1814', '1816', '1817', '1819', '1820', '1821', '1822', '1823', '1824', '1825', '1826', '1827', '1828', '1830', '1832', '1833', '1835', '1837', '1838', '1842', '1843', '1845', '1846', '1848', '1850', '1851', '1852', '1853', '1854', '1858', '1859', '1861', '1862', '1865', '1866', '1867', '1868', '1870', '1871', '1873', '1875', '1876', '1878', '1879', '1880', '1881', '1882', '1885', '1887', '1889', '1890', '1891', '1893', '1894', '1896', '1900', '1901', '1902', '1903', '1905', '1906', '1909', '1911', '1914', '1915', '1916', '1918', '1919', '1920', '1921', '1922', '1923', '1924', '1925', '1927', '1928', '1929', '1930', '1932', '1934', '1935', '1942', '1945', '1946', '1947', '1948', '1949', '1951', '1953', '1955', '1956', '1957', '1958', '1959', '1964', '1965', '1966', '1967', '1968', '1970', '1972', '1974', '1975', '1976', '1977', '1979', '1984', '1986', '1988', '1989', '1990', '1991', '1994', '1995', '1997', '1998']",False,4000,True,2,76f1c656cb,0.0,1.0,1.0
./expes/v2_2021-03-27_issda-30_2000-prng-1-w4-p2,30_issda-2000,2000,first-2000,700,35,rng,num-start-2600,2600,25726,classic,1969.5323328971863,True,,True,1.0,1.0,1.0,1,"['4', '8', '10', '11', '15', '16', '24', '27', '32', '37', '41', '42', '44', '46', '48', '49', '53', '56', '57', '58', '59', '61', '64', '65', '67', '68', '70', '72', '73', '74', '75', '76', '87', '88', '89', '91', '93', '94', '95', '102', '103', '105', '109', '110', '113', '124', '125', '126', '130', '132', '135', '137', '140', '141', '142', '147', '149', '157', '158', '159', '160', '164', '171', '176', '177', '182', '187', '189', '190', '197', '199', '200', '204', '205', '209', '211', '212', '214', '215', '219', '222', '223', '231', '233', '236', '242', '244', '245', '246', '248', '249', '251', '253', '254', '255', '256', '257', '260', '262', '264', '266', '267', '268', '270', '273', '275', '279', '280', '282', '284', '294', '295', '301', '306', '309', '311', '320', '322', '327', '329', '333', '335', '347', '348', '351', '352', '353', '364', '366', '367', '369', '370', '376', '380', '382', '384', '389', '391', '392', '393', '405', '407', '408', '409', '411', '422', '431', '433', '445', '446', '447', '448', '453', '455', '456', '460', '461', '466', '471', '475', '476', '480', '481', '482', '484', '487', '488', '489', '490', '491', '496', '501', '502', '509', '512', '514', '515', '518', '521', '523', '529', '530', '532', '537', '540', '541', '542', '543', '547', '548', '550', '551', '552', '554', '555', '556', '561', '563', '571', '572', '573', '583', '584', '588', '592', '595', '598', '602', '606', '612', '614', '615', '616', '617', '621', '623', '630', '635', '641', '642', '643', '645', '646', '647', '653', '656', '660', '662', '665', '667', '669', '672', '674', '678', '679', '681', '684', '686', '690', '695', '696', '697', '699', '700', '705', '708', '710', '718', '719', '720', '721', '723', '731', '738', '739', '746', '749', '753', '755', '757', '758', '763', '765', '767', '769', '770', '771', '772', '773', '774', '778', '779', '784', '791', '794', '797', '798', '799', '801', '807', '809', '813', '814', '820', '822', '835', '836', '839', '841', '846', '847', '848', '851', '854', '857', '860', '862', '863', '867', '871', '873', '875', '878', '881', '884', '886', '890', '892', '894', '896', '898', '908', '911', '924', '927', '931', '935', '936', '943', '944', '951', '952', '955', '958', '959', '961', '964', '969', '970', '971', '976', '978', '982', '983', '986', '987', '988', '989', '991', '996', '999', '1003', '1004', '1014', '1017', '1020', '1025', '1029', '1031', '1036', '1039', '1045', '1048', '1050', '1056', '1060', '1062', '1063', '1065', '1066', '1068', '1072', '1076', '1080', '1081', '1084', '1085', '1086', '1090', '1094', '1095', '1097', '1098', '1100', '1102', '1108', '1109', '1110', '1114', '1115', '1124', '1126', '1127', '1129', '1134', '1136', '1138', '1140', '1141', '1145', '1146', '1155', '1156', '1161', '1164', '1165', '1166', '1168', '1170', '1172', '1175', '1176', '1178', '1182', '1186', '1188', '1189', '1190', '1197', '1198', '1199', '1200', '1201', '1202', '1204', '1206', '1207', '1208', '1209', '1211', '1214', '1219', '1220', '1227', '1228', '1229', '1231', '1232', '1237', '1238', '1240', '1241', '1247', '1251', '1254', '1259', '1262', '1266', '1269', '1271', '1274', '1276', '1282', '1284', '1285', '1286', '1287', '1288', '1295', '1297', '1298', '1299', '1300', '1301', '1304', '1309', '1315', '1317', '1319', '1320', '1323', '1325', '1328', '1331', '1332', '1337', '1339', '1343', '1351', '1357', '1358', '1363', '1368', '1375', '1376', '1377', '1380', '1381', '1383', '1384', '1385', '1389', '1390', '1392', '1395', '1397', '1401', '1405', '1413', '1415', '1416', '1421', '1422', '1424', '1425', '1427', '1429', '1430', '1431', '1434', '1436', '1437', '1440', '1444', '1445', '1448', '1460', '1462', '1463', '1465', '1466', '1467', '1468', '1469', '1470', '1472', '1473', '1476', '1477', '1481', '1492', '1493', '1499', '1503', '1504', '1506', '1512', '1519', '1520', '1521', '1527', '1531', '1532', '1533', '1534', '1541', '1543', '1544', '1549', '1550', '1551', '1553', '1557', '1560', '1572', '1575', '1582', '1586', '1588', '1589', '1591', '1592', '1596', '1597', '1598', '1603', '1604', '1612', '1613', '1615', '1620', '1622', '1623', '1626', '1629', '1636', '1637', '1640', '1641', '1645', '1647', '1651', '1652', '1653', '1654', '1659', '1660', '1662', '1663', '1666', '1673', '1679', '1683', '1687', '1696', '1704', '1706', '1707', '1708', '1710', '1713', '1714', '1716', '1718', '1724', '1728', '1729', '1741', '1744', '1746', '1749', '1750', '1752', '1753', '1754', '1755', '1756', '1758', '1759', '1763', '1764', '1765', '1767', '1769', '1770', '1772', '1773', '1776', '1778', '1781', '1782', '1783', '1788', '1800', '1802', '1803', '1804', '1805', '1807', '1810', '1813', '1816', '1817', '1818', '1822', '1823', '1824', '1825', '1837', '1838', '1839', '1843', '1847', '1851', '1852', '1853', '1862', '1866', '1870', '1872', '1876', '1878', '1879', '1885', '1886', '1887', '1888', '1889', '1893', '1897', '1900', '1903', '1904', '1913', '1914', '1915', '1917', '1918', '1923', '1924', '1927', '1928', '1931', '1932', '1941', '1944', '1946', '1947', '1948', '1951', '1953', '1956', '1957', '1961', '1962', '1964', '1967', '1968', '1973', '1975', '1976', '1978', '1980', '1981', '1985', '1989', '1990', '1991', '1993', '1997']",False,4000,True,2,bc07c528d1,0.0,1.0,1.0
./expes/v2_2021-03-27_issda-30_2000-prng-1-w4-p2,30_issda-2000,2000,first-2000,300,15,rng,num-start-2000,2000,25726,classic,1086.5166828632355,True,,True,1.0,1.0,1.0,1,"['1', '9', '25', '47', '48', '53', '56', '77', '81', '96', '99', '102', '108', '111', '119', '121', '122', '123', '125', '127', '128', '129', '134', '138', '141', '144', '145', '149', '150', '159', '166', '168', '170', '176', '177', '186', '187', '192', '193', '200', '208', '210', '212', '213', '226', '237', '240', '242', '252', '254', '258', '265', '273', '281', '296', '299', '301', '305', '309', '310', '312', '331', '333', '338', '341', '345', '361', '369', '371', '374', '385', '391', '421', '422', '426', '428', '440', '447', '453', '458', '473', '476', '478', '493', '500', '508', '509', '517', '535', '539', '543', '553', '570', '571', '578', '583', '589', '590', '594', '611', '614', '615', '632', '635', '639', '643', '644', '653', '664', '697', '701', '702', '704', '711', '712', '718', '728', '735', '741', '745', '746', '749', '752', '757', '763', '771', '780', '791', '801', '804', '808', '809', '813', '815', '816', '818', '821', '823', '851', '857', '859', '864', '870', '876', '882', '889', '903', '913', '920', '929', '935', '936', '946', '954', '955', '971', '972', '981', '984', '987', '991', '994', '1000', '1002', '1012', '1014', '1017', '1018', '1040', '1049', '1056', '1058', '1062', '1076', '1082', '1089', '1095', '1098', '1099', '1108', '1113', '1122', '1126', '1127', '1129', '1141', '1143', '1146', '1148', '1156', '1159', '1160', '1161', '1170', '1174', '1177', '1182', '1184', '1188', '1192', '1194', '1200', '1207', '1218', '1231', '1234', '1248', '1249', '1252', '1257', '1258', '1265', '1268', '1285', '1292', '1300', '1309', '1317', '1326', '1334', '1342', '1349', '1361', '1369', '1370', '1385', '1394', '1396', '1397', '1399', '1414', '1415', '1418', '1424', '1426', '1428', '1432', '1437', '1447', '1459', '1468', '1494', '1498', '1513', '1516', '1517', '1536', '1551', '1553', '1566', '1574', '1592', '1598', '1617', '1627', '1633', '1635', '1672', '1676', '1678', '1682', '1684', '1694', '1698', '1703', '1721', '1732', '1739', '1759', '1760', '1769', '1770', '1784', '1785', '1791', '1792', '1793', '1810', '1811', '1817', '1843', '1861', '1864', '1873', '1878', '1892', '1912', '1927', '1935', '1941', '1942', '1944', '1947', '1948', '1950', '1952', '1957', '1962', '1971', '2000']",False,4000,True,2,1dc48a4040,0.0,1.0,1.0
./expes/v2_2021-03-27_issda-30_2000-prng-1-w4-p2,30_issda-2000,2000,first-2000,400,20,rng,num-start-3000,3000,25726,classic,1839.2373592853546,True,,True,1.0,1.0,1.0,1,"['6', '8', '10', '19', '24', '31', '32', '35', '36', '39', '49', '59', '63', '64', '70', '75', '85', '89', '98', '113', '115', '116', '121', '122', '124', '127', '132', '135', '138', '141', '145', '151', '152', '161', '162', '168', '174', '190', '202', '204', '205', '206', '222', '223', '237', '239', '240', '249', '256', '264', '267', '288', '292', '295', '301', '302', '311', '319', '321', '322', '324', '325', '328', '331', '337', '341', '347', '349', '351', '353', '355', '368', '383', '401', '402', '421', '423', '428', '436', '438', '451', '458', '462', '463', '469', '470', '474', '475', '476', '479', '482', '490', '491', '500', '507', '511', '515', '516', '523', '524', '533', '537', '540', '558', '560', '562', '575', '587', '589', '606', '620', '626', '636', '638', '639', '642', '645', '646', '652', '653', '660', '663', '666', '677', '678', '679', '681', '683', '686', '688', '689', '691', '693', '694', '697', '704', '706', '712', '713', '725', '728', '729', '732', '738', '753', '755', '756', '763', '771', '778', '789', '793', '796', '799', '800', '804', '807', '810', '818', '823', '829', '830', '831', '836', '857', '860', '862', '867', '883', '886', '889', '900', '905', '906', '910', '912', '913', '920', '922', '923', '924', '926', '931', '933', '939', '942', '945', '947', '951', '955', '956', '957', '958', '959', '960', '970', '972', '976', '981', '983', '986', '992', '1003', '1005', '1008', '1009', '1014', '1021', '1022', '1024', '1025', '1027', '1029', '1036', '1037', '1048', '1050', '1062', '1065', '1066', '1068', '1086', '1094', '1097', '1114', '1115', '1122', '1124', '1127', '1130', '1137', '1141', '1157', '1158', '1161', '1167', '1170', '1172', '1180', '1183', '1186', '1191', '1196', '1197', '1202', '1203', '1216', '1220', '1222', '1239', '1251', '1254', '1257', '1258', '1263', '1265', '1267', '1283', '1288', '1302', '1314', '1323', '1324', '1325', '1329', '1336', '1343', '1349', '1357', '1363', '1370', '1371', '1386', '1387', '1388', '1390', '1396', '1398', '1402', '1404', '1415', '1419', '1422', '1423', '1425', '1427', '1428', '1438', '1445', '1450', '1451', '1454', '1473', '1477', '1478', '1482', '1483', '1486', '1489', '1493', '1508', '1511', '1515', '1518', '1520', '1526', '1537', '1539', '1544', '1547', '1551', '1554', '1557', '1558', '1592', '1593', '1595', '1602', '1604', '1606', '1608', '1615', '1616', '1627', '1631', '1634', '1637', '1640', '1649', '1651', '1659', '1683', '1686', '1690', '1701', '1711', '1716', '1718', '1721', '1722', '1728', '1729', '1735', '1737', '1752', '1753', '1756', '1757', '1763', '1769', '1773', '1781', '1783', '1787', '1792', '1797', '1800', '1802', '1806', '1812', '1816', '1817', '1823', '1827', '1829', '1830', '1831', '1842', '1854', '1858', '1859', '1862', '1867', '1870', '1874', '1877', '1884', '1888', '1890', '1895', '1896', '1900', '1901', '1906', '1915', '1916', '1922', '1935', '1936', '1938', '1940', '1942', '1953', '1965', '1967', '1971', '1977', '1982', '1992', '2000']",False,4000,True,2,9911bd37eb,0.0,1.0,1.0
./expes/v2_2021-03-27_issda-30_2000-prng-1-w4-p2,30_issda-2000,2000,first-2000,700,35,rng,num-start-1200,1200,25726,classic,2342.485063314438,True,,True,1.0,1.0,1.0,1,"['1', '4', '6', '10', '11', '13', '20', '21', '22', '24', '26', '27', '31', '35', '38', '40', '42', '45', '58', '59', '62', '63', '64', '66', '67', '68', '70', '76', '78', '82', '85', '93', '94', '103', '104', '106', '107', '111', '117', '121', '122', '123', '126', '128', '131', '137', '140', '142', '145', '152', '153', '154', '156', '157', '159', '166', '170', '172', '176', '178', '180', '181', '183', '184', '190', '191', '192', '193', '197', '200', '206', '208', '209', '213', '215', '216', '223', '225', '227', '230', '233', '234', '235', '240', '245', '246', '248', '253', '256', '258', '260', '261', '262', '263', '270', '272', '273', '276', '278', '280', '281', '283', '286', '291', '292', '296', '297', '299', '302', '303', '306', '308', '309', '310', '312', '317', '318', '323', '324', '325', '329', '330', '334', '335', '337', '346', '347', '349', '353', '355', '359', '361', '362', '365', '373', '374', '377', '380', '381', '385', '386', '387', '394', '395', '396', '397', '398', '402', '403', '404', '406', '407', '408', '412', '414', '429', '430', '439', '442', '443', '454', '457', '458', '461', '462', '464', '472', '475', '476', '479', '489', '493', '498', '499', '501', '502', '503', '512', '513', '515', '516', '519', '522', '523', '524', '525', '536', '540', '541', '544', '545', '549', '552', '554', '557', '559', '560', '562', '563', '565', '567', '569', '574', '577', '586', '588', '593', '596', '597', '598', '602', '603', '613', '622', '624', '625', '627', '640', '649', '652', '655', '656', '663', '667', '674', '675', '678', '681', '682', '688', '689', '692', '693', '698', '704', '705', '709', '718', '719', '732', '738', '739', '740', '741', '742', '744', '745', '747', '751', '752', '753', '759', '760', '761', '763', '765', '768', '771', '773', '774', '778', '779', '780', '781', '787', '788', '792', '796', '798', '799', '806', '815', '816', '818', '819', '829', '834', '835', '838', '840', '841', '844', '848', '856', '859', '864', '865', '867', '870', '872', '874', '879', '881', '883', '887', '893', '897', '901', '903', '904', '909', '910', '912', '913', '914', '916', '919', '921', '925', '926', '933', '934', '938', '939', '948', '950', '951', '957', '961', '964', '965', '968', '969', '971', '973', '978', '979', '980', '981', '982', '983', '984', '991', '994', '995', '996', '997', '999', '1000', '1001', '1002', '1007', '1008', '1013', '1018', '1019', '1024', '1025', '1029', '1030', '1032', '1035', '1038', '1039', '1052', '1055', '1059', '1060', '1065', '1066', '1070', '1075', '1076', '1077', '1078', '1080', '1081', '1088', '1089', '1097', '1102', '1103', '1105', '1107', '1109', '1110', '1112', '1113', '1114', '1116', '1118', '1121', '1129', '1130', '1134', '1143', '1144', '1147', '1149', '1154', '1155', '1156', '1158', '1165', '1166', '1167', '1172', '1173', '1175', '1176', '1180', '1187', '1198', '1202', '1205', '1206', '1207', '1208', '1210', '1212', '1213', '1214', '1217', '1220', '1224', '1233', '1234', '1236', '1239', '1243', '1246', '1250', '1253', '1254', '1257', '1258', '1262', '1263', '1266', '1267', '1269', '1271', '1275', '1278', '1281', '1282', '1283', '1284', '1287', '1288', '1289', '1292', '1293', '1298', '1300', '1301', '1306', '1308', '1310', '1315', '1320', '1321', '1322', '1323', '1324', '1328', '1331', '1333', '1334', '1340', '1341', '1343', '1345', '1351', '1355', '1356', '1358', '1360', '1362', '1366', '1367', '1369', '1373', '1375', '1380', '1385', '1387', '1390', '1391', '1394', '1395', '1397', '1401', '1405', '1409', '1411', '1414', '1415', '1416', '1418', '1421', '1422', '1423', '1425', '1430', '1433', '1436', '1437', '1438', '1444', '1446', '1451', '1457', '1459', '1460', '1462', '1463', '1465', '1468', '1472', '1473', '1474', '1478', '1480', '1483', '1484', '1488', '1491', '1493', '1494', '1495', '1499', '1504', '1505', '1511', '1514', '1516', '1522', '1524', '1526', '1527', '1529', '1537', '1539', '1542', '1543', '1547', '1548', '1551', '1553', '1555', '1556', '1557', '1561', '1562', '1563', '1564', '1568', '1572', '1574', '1578', '1585', '1588', '1591', '1592', '1594', '1595', '1596', '1598', '1603', '1606', '1611', '1613', '1620', '1621', '1625', '1628', '1629', '1631', '1632', '1634', '1639', '1642', '1643', '1646', '1647', '1649', '1650', '1651', '1652', '1656', '1658', '1663', '1667', '1671', '1672', '1673', '1676', '1677', '1680', '1684', '1696', '1697', '1701', '1703', '1705', '1706', '1709', '1712', '1715', '1717', '1718', '1722', '1724', '1725', '1730', '1731', '1741', '1748', '1751', '1752', '1758', '1760', '1761', '1765', '1770', '1773', '1777', '1781', '1782', '1783', '1785', '1787', '1795', '1801', '1803', '1808', '1809', '1813', '1819', '1821', '1822', '1828', '1829', '1830', '1831', '1842', '1843', '1849', '1853', '1860', '1862', '1863', '1865', '1867', '1868', '1870', '1871', '1877', '1878', '1883', '1884', '1887', '1889', '1891', '1893', '1898', '1899', '1900', '1902', '1903', '1911', '1913', '1914', '1919', '1922', '1925', '1927', '1931', '1933', '1936', '1937', '1941', '1942', '1943', '1946', '1948', '1949', '1950', '1954', '1963', '1971', '1976', '1977', '1978', '1979', '1981', '1982', '1984', '1985', '1986', '1987', '1989', '1990', '1992', '1994', '1995', '1997', '1998', '2000']",False,4000,True,2,2e0e577443,0.0,1.0,1.0
./expes/v2_2021-03-27_issda-30_2000-prng-1-w4-p2,30_issda-2000,2000,first-2000,100,5,rng,num-start-600,600,25726,classic,1218.0999910831451,True,,True,1.0,1.0,1.0,1,"['9', '31', '66', '67', '71', '76', '91', '92', '134', '148', '156', '166', '273', '275', '285', '307', '321', '329', '358', '400', '423', '460', '483', '489', '491', '492', '512', '538', '569', '581', '617', '621', '644', '665', '672', '728', '740', '743', '750', '767', '769', '782', '788', '846', '861', '863', '879', '893', '901', '923', '936', '948', '963', '989', '1004', '1007', '1018', '1028', '1067', '1093', '1099', '1125', '1162', '1171', '1184', '1194', '1198', '1232', '1236', '1243', '1257', '1338', '1339', '1348', '1356', '1366', '1383', '1405', '1527', '1573', '1582', '1661', '1666', '1676', '1687', '1694', '1725', '1729', '1752', '1762', '1840', '1863', '1870', '1893', '1928', '1937', '1951', '1952', '1986', '1987']",False,4000,True,2,d476a85126,0.0,1.0,1.0
./expes/v2_2021-03-27_issda-30_2000-prng-1-w4-p2,30_issda-2000,2000,first-2000,600,30,rng,num-start-2000,2000,25726,classic,1292.2591745853424,True,,True,1.0,1.0,1.0,1,"['1', '2', '10', '11', '14', '20', '23', '24', '26', '30', '31', '32', '33', '34', '35', '37', '40', '41', '44', '46', '51', '57', '59', '61', '62', '65', '69', '72', '74', '75', '77', '80', '84', '85', '86', '87', '91', '92', '96', '97', '98', '108', '122', '123', '124', '130', '132', '135', '137', '138', '141', '142', '144', '148', '149', '150', '151', '152', '153', '154', '155', '160', '161', '165', '170', '171', '172', '174', '175', '177', '179', '180', '185', '186', '189', '191', '193', '203', '206', '207', '213', '221', '222', '224', '232', '235', '237', '239', '242', '250', '253', '259', '261', '266', '267', '269', '270', '276', '278', '279', '280', '284', '288', '289', '290', '291', '294', '300', '305', '316', '323', '325', '327', '337', '342', '347', '348', '355', '360', '361', '364', '366', '367', '375', '379', '382', '384', '386', '389', '390', '391', '401', '403', '404', '406', '407', '409', '411', '412', '415', '418', '420', '427', '428', '430', '432', '435', '436', '437', '438', '439', '448', '450', '454', '459', '464', '468', '471', '472', '479', '487', '489', '495', '496', '497', '498', '505', '511', '514', '521', '523', '524', '525', '526', '527', '529', '537', '546', '552', '553', '558', '560', '564', '567', '570', '574', '576', '578', '592', '595', '596', '601', '603', '607', '617', '622', '623', '624', '633', '635', '636', '637', '638', '639', '646', '649', '654', '657', '669', '670', '674', '677', '678', '682', '687', '690', '696', '700', '701', '702', '703', '709', '714', '719', '721', '726', '733', '742', '754', '756', '762', '769', '772', '773', '777', '781', '784', '786', '788', '791', '792', '795', '796', '800', '803', '806', '808', '809', '812', '814', '821', '828', '829', '830', '834', '840', '841', '842', '843', '848', '853', '855', '859', '860', '862', '864', '879', '883', '889', '900', '902', '903', '905', '906', '913', '915', '917', '923', '926', '927', '928', '929', '932', '937', '938', '940', '948', '950', '951', '953', '954', '963', '964', '966', '968', '970', '973', '974', '975', '982', '985', '988', '989', '991', '996', '998', '999', '1006', '1009', '1010', '1012', '1017', '1019', '1020', '1021', '1024', '1025', '1030', '1031', '1034', '1041', '1043', '1049', '1050', '1051', '1054', '1057', '1058', '1062', '1063', '1064', '1065', '1066', '1069', '1071', '1074', '1079', '1083', '1088', '1092', '1096', '1097', '1098', '1100', '1103', '1104', '1106', '1109', '1115', '1116', '1119', '1127', '1128', '1129', '1135', '1145', '1146', '1147', '1151', '1153', '1154', '1156', '1160', '1165', '1169', '1172', '1174', '1177', '1182', '1186', '1190', '1194', '1195', '1197', '1203', '1209', '1211', '1214', '1220', '1222', '1226', '1229', '1232', '1233', '1237', '1240', '1245', '1247', '1249', '1250', '1251', '1253', '1258', '1259', '1261', '1262', '1275', '1277', '1280', '1282', '1285', '1289', '1290', '1291', '1299', '1300', '1303', '1304', '1309', '1310', '1311', '1312', '1313', '1315', '1319', '1330', '1332', '1334', '1337', '1339', '1340', '1342', '1346', '1352', '1357', '1364', '1375', '1377', '1383', '1389', '1390', '1397', '1402', '1403', '1404', '1407', '1412', '1416', '1421', '1422', '1429', '1431', '1434', '1436', '1442', '1443', '1448', '1450', '1452', '1457', '1463', '1467', '1470', '1472', '1476', '1479', '1480', '1482', '1486', '1492', '1493', '1497', '1499', '1501', '1506', '1510', '1514', '1515', '1516', '1534', '1537', '1544', '1546', '1547', '1549', '1553', '1570', '1574', '1576', '1583', '1594', '1595', '1596', '1598', '1600', '1614', '1620', '1622', '1625', '1632', '1633', '1635', '1639', '1640', '1641', '1646', '1647', '1651', '1654', '1658', '1659', '1675', '1676', '1679', '1684', '1687', '1688', '1698', '1700', '1701', '1702', '1703', '1704', '1705', '1715', '1717', '1719', '1721', '1725', '1726', '1728', '1732', '1734', '1736', '1739', '1743', '1746', '1750', '1752', '1753', '1755', '1756', '1769', '1771', '1774', '1775', '1777', '1782', '1785', '1788', '1801', '1802', '1803', '1807', '1813', '1818', '1824', '1825', '1827', '1829', '1835', '1836', '1844', '1845', '1846', '1854', '1855', '1856', '1858', '1861', '1864', '1865', '1873', '1874', '1876', '1879', '1884', '1886', '1890', '1892', '1893', '1896', '1899', '1904', '1906', '1907', '1909', '1910', '1914', '1918', '1926', '1934', '1937', '1940', '1944', '1946', '1956', '1960', '1961', '1963', '1965', '1972', '1974', '1975', '1976', '1984', '1986', '1989', '1993', '1997']",False,4000,True,2,7d7c4291d8,0.0,1.0,1.0
./expes/v2_2021-03-27_issda-30_2000-prng-1-w4-p2,30_issda-2000,2000,first-2000,900,45,rng,num-start-3200,3200,25726,classic,3137.033124446869,True,,True,1.0,1.0,1.0,1,"['4', '7', '9', '10', '11', '13', '18', '19', '22', '24', '33', '36', '37', '40', '41', '44', '49', '50', '51', '52', '57', '58', '61', '63', '64', '65', '66', '69', '70', '73', '74', '75', '77', '79', '81', '84', '89', '94', '95', '96', '98', '100', '101', '102', '105', '109', '110', '111', '116', '117', '121', '123', '124', '126', '127', '130', '133', '135', '137', '139', '146', '149', '150', '151', '152', '155', '157', '158', '159', '164', '165', '167', '170', '173', '174', '177', '180', '183', '186', '188', '189', '191', '192', '193', '194', '195', '197', '204', '205', '206', '208', '209', '213', '214', '216', '218', '222', '228', '230', '232', '236', '238', '239', '243', '250', '252', '261', '262', '263', '264', '268', '270', '272', '274', '275', '277', '278', '280', '282', '283', '284', '286', '287', '288', '290', '292', '295', '296', '297', '301', '307', '309', '310', '311', '315', '320', '321', '322', '323', '325', '326', '329', '331', '333', '334', '337', '341', '343', '347', '348', '350', '353', '354', '355', '356', '358', '359', '361', '362', '364', '370', '372', '373', '377', '380', '382', '385', '389', '392', '393', '394', '399', '402', '407', '409', '412', '414', '419', '420', '426', '427', '428', '431', '432', '434', '435', '436', '438', '440', '441', '442', '443', '444', '446', '449', '452', '455', '460', '461', '462', '465', '467', '468', '470', '473', '475', '476', '477', '478', '481', '484', '485', '488', '489', '492', '494', '495', '502', '505', '506', '508', '510', '511', '512', '513', '514', '515', '516', '519', '520', '521', '523', '524', '526', '527', '529', '531', '532', '536', '537', '538', '541', '545', '547', '550', '551', '557', '558', '560', '562', '568', '569', '571', '572', '574', '575', '579', '583', '586', '588', '594', '596', '598', '604', '607', '608', '610', '613', '620', '622', '623', '627', '631', '632', '634', '635', '639', '640', '641', '642', '643', '645', '648', '649', '653', '657', '658', '665', '666', '669', '672', '674', '675', '678', '679', '683', '684', '686', '689', '690', '691', '692', '693', '698', '699', '700', '701', '702', '705', '707', '712', '718', '719', '725', '730', '733', '735', '736', '737', '738', '739', '740', '742', '743', '746', '747', '750', '751', '753', '761', '762', '763', '764', '765', '766', '768', '773', '775', '777', '779', '782', '784', '785', '788', '790', '791', '799', '800', '801', '802', '803', '804', '805', '806', '807', '809', '810', '816', '819', '820', '822', '823', '825', '826', '828', '829', '830', '833', '838', '842', '844', '845', '846', '850', '851', '854', '857', '858', '859', '860', '861', '862', '867', '868', '872', '876', '881', '883', '889', '890', '894', '899', '903', '904', '906', '907', '909', '911', '912', '913', '918', '919', '925', '928', '929', '930', '931', '932', '933', '936', '937', '938', '941', '943', '945', '949', '951', '952', '953', '954', '955', '956', '957', '958', '961', '964', '968', '969', '971', '973', '974', '977', '979', '983', '987', '988', '989', '991', '992', '994', '995', '996', '997', '998', '1001', '1002', '1004', '1005', '1008', '1016', '1020', '1021', '1023', '1025', '1026', '1029', '1030', '1033', '1034', '1039', '1040', '1041', '1042', '1043', '1045', '1046', '1047', '1048', '1049', '1052', '1053', '1054', '1055', '1056', '1058', '1061', '1062', '1064', '1067', '1070', '1071', '1072', '1073', '1074', '1075', '1076', '1077', '1078', '1081', '1083', '1087', '1090', '1092', '1097', '1102', '1103', '1104', '1106', '1107', '1108', '1109', '1111', '1112', '1115', '1116', '1117', '1119', '1121', '1122', '1124', '1128', '1130', '1142', '1143', '1145', '1147', '1148', '1150', '1152', '1156', '1160', '1163', '1166', '1171', '1175', '1177', '1180', '1182', '1188', '1189', '1190', '1191', '1198', '1200', '1201', '1205', '1206', '1208', '1211', '1212', '1216', '1218', '1219', '1222', '1224', '1225', '1233', '1240', '1241', '1242', '1243', '1251', '1253', '1254', '1255', '1257', '1261', '1262', '1263', '1267', '1269', '1273', '1274', '1275', '1276', '1277', '1278', '1279', '1281', '1283', '1285', '1286', '1288', '1290', '1295', '1297', '1298', '1301', '1303', '1304', '1305', '1306', '1307', '1308', '1310', '1313', '1315', '1317', '1322', '1324', '1327', '1328', '1330', '1332', '1335', '1338', '1339', '1342', '1349', '1350', '1351', '1354', '1356', '1359', '1362', '1366', '1368', '1370', '1371', '1372', '1374', '1378', '1382', '1383', '1384', '1386', '1390', '1391', '1393', '1394', '1395', '1396', '1397', '1398', '1402', '1403', '1404', '1407', '1408', '1412', '1413', '1414', '1417', '1419', '1422', '1425', '1432', '1433', '1436', '1439', '1440', '1441', '1443', '1445', '1446', '1447', '1449', '1451', '1454', '1456', '1457', '1458', '1460', '1461', '1462', '1463', '1465', '1466', '1467', '1468', '1469', '1470', '1472', '1473', '1474', '1475', '1476', '1479', '1481', '1482', '1483', '1487', '1491', '1492', '1493', '1494', '1497', '1498', '1500', '1504', '1505', '1508', '1509', '1513', '1516', '1521', '1525', '1526', '1528', '1532', '1535', '1537', '1538', '1539', '1540', '1541', '1544', '1545', '1546', '1547', '1548', '1556', '1557', '1558', '1560', '1563', '1566', '1568', '1569', '1570', '1571', '1573', '1574', '1582', '1584', '1588', '1592', '1595', '1600', '1604', '1606', '1607', '1613', '1615', '1618', '1622', '1627', '1629', '1630', '1631', '1632', '1634', '1635', '1636', '1637', '1639', '1642', '1644', '1646', '1647', '1648', '1651', '1652', '1656', '1657', '1659', '1662', '1664', '1666', '1668', '1669', '1670', '1671', '1672', '1675', '1677', '1679', '1680', '1681', '1684', '1686', '1687', '1688', '1689', '1690', '1691', '1703', '1707', '1708', '1711', '1712', '1713', '1715', '1716', '1718', '1722', '1732', '1734', '1738', '1739', '1741', '1743', '1746', '1749', '1755', '1758', '1759', '1760', '1762', '1764', '1766', '1767', '1768', '1770', '1774', '1779', '1781', '1783', '1784', '1785', '1791', '1792', '1794', '1796', '1798', '1799', '1800', '1804', '1805', '1806', '1807', '1809', '1811', '1812', '1813', '1818', '1819', '1822', '1827', '1831', '1833', '1834', '1840', '1841', '1842', '1843', '1845', '1846', '1848', '1849', '1850', '1852', '1855', '1857', '1859', '1860', '1861', '1865', '1867', '1868', '1874', '1875', '1876', '1877', '1878', '1880', '1882', '1885', '1886', '1887', '1888', '1889', '1892', '1895', '1897', '1903', '1904', '1909', '1910', '1914', '1915', '1916', '1917', '1919', '1920', '1922', '1923', '1926', '1927', '1932', '1933', '1934', '1941', '1942', '1943', '1944', '1945', '1946', '1955', '1956', '1958', '1961', '1962', '1964', '1965', '1966', '1968', '1970', '1971', '1973', '1980', '1981', '1983', '1985', '1986', '1988', '1989', '1990', '1992', '1995']",False,4000,True,2,df56b330e2,0.0,1.0,1.0
./expes/v2_2021-03-27_issda-30_2000-prng-1-w4-p2,30_issda-2000,2000,first-2000,700,35,rng,num-start-2200,2200,25726,classic,2088.037839412689,True,,True,1.0,1.0,1.0,1,"['1', '2', '10', '11', '14', '20', '23', '24', '25', '26', '30', '31', '32', '33', '34', '35', '37', '40', '41', '44', '46', '47', '48', '50', '51', '57', '59', '61', '62', '65', '69', '72', '73', '74', '75', '77', '80', '84', '85', '86', '87', '91', '92', '96', '97', '98', '108', '122', '123', '124', '130', '132', '135', '137', '138', '141', '142', '144', '145', '148', '149', '150', '151', '152', '153', '154', '155', '160', '161', '165', '170', '171', '172', '174', '175', '177', '179', '180', '181', '185', '186', '189', '191', '193', '197', '199', '203', '206', '207', '213', '215', '218', '221', '222', '223', '224', '232', '235', '237', '239', '242', '250', '252', '253', '259', '261', '266', '267', '269', '270', '272', '275', '276', '278', '279', '280', '284', '288', '289', '290', '291', '294', '300', '301', '305', '316', '319', '323', '325', '327', '328', '337', '342', '347', '348', '355', '360', '361', '364', '366', '367', '371', '375', '378', '379', '382', '384', '386', '388', '389', '390', '391', '393', '398', '399', '401', '403', '404', '405', '406', '407', '409', '411', '412', '415', '418', '419', '420', '427', '428', '430', '432', '435', '436', '437', '438', '439', '443', '447', '448', '450', '454', '459', '464', '466', '468', '471', '472', '477', '479', '487', '489', '491', '495', '496', '497', '498', '501', '505', '511', '514', '521', '523', '524', '525', '526', '527', '529', '532', '533', '537', '546', '552', '553', '558', '560', '564', '567', '570', '574', '576', '578', '582', '592', '595', '596', '601', '603', '607', '617', '622', '623', '624', '633', '635', '636', '637', '638', '639', '646', '647', '649', '650', '654', '657', '660', '669', '670', '674', '677', '678', '682', '687', '690', '696', '700', '701', '702', '703', '704', '709', '712', '714', '719', '721', '726', '728', '733', '740', '742', '754', '756', '762', '769', '770', '772', '773', '777', '781', '784', '786', '788', '791', '792', '795', '796', '800', '803', '806', '808', '809', '812', '814', '821', '825', '828', '829', '830', '834', '840', '841', '842', '843', '847', '848', '853', '855', '859', '860', '862', '864', '879', '883', '889', '891', '895', '900', '902', '903', '905', '906', '913', '915', '917', '923', '926', '927', '928', '929', '932', '937', '938', '940', '948', '950', '951', '953', '954', '963', '964', '966', '968', '970', '973', '974', '975', '976', '982', '985', '986', '988', '989', '991', '996', '998', '999', '1006', '1009', '1010', '1012', '1017', '1019', '1020', '1021', '1022', '1024', '1025', '1030', '1031', '1034', '1036', '1041', '1043', '1046', '1049', '1050', '1051', '1054', '1055', '1057', '1058', '1062', '1063', '1064', '1065', '1066', '1069', '1071', '1074', '1076', '1079', '1083', '1085', '1087', '1088', '1092', '1094', '1096', '1097', '1098', '1100', '1103', '1104', '1106', '1109', '1112', '1113', '1115', '1116', '1119', '1127', '1128', '1129', '1130', '1135', '1145', '1146', '1147', '1151', '1153', '1154', '1156', '1160', '1165', '1168', '1169', '1172', '1174', '1177', '1182', '1186', '1190', '1193', '1194', '1195', '1197', '1202', '1203', '1209', '1211', '1214', '1220', '1222', '1226', '1229', '1232', '1233', '1236', '1237', '1240', '1245', '1247', '1249', '1250', '1251', '1253', '1257', '1258', '1259', '1261', '1262', '1266', '1270', '1275', '1277', '1280', '1282', '1285', '1286', '1287', '1289', '1290', '1291', '1293', '1297', '1299', '1300', '1303', '1304', '1308', '1309', '1310', '1311', '1312', '1313', '1315', '1319', '1330', '1332', '1334', '1337', '1339', '1340', '1342', '1346', '1352', '1357', '1364', '1375', '1377', '1383', '1389', '1390', '1397', '1398', '1402', '1403', '1404', '1405', '1407', '1408', '1412', '1416', '1421', '1422', '1429', '1431', '1434', '1436', '1437', '1438', '1442', '1443', '1444', '1448', '1450', '1452', '1457', '1463', '1467', '1470', '1472', '1476', '1479', '1480', '1482', '1486', '1489', '1492', '1493', '1497', '1499', '1501', '1506', '1510', '1514', '1515', '1516', '1518', '1534', '1537', '1544', '1546', '1547', '1549', '1553', '1561', '1570', '1574', '1576', '1583', '1594', '1595', '1596', '1598', '1600', '1614', '1618', '1620', '1622', '1625', '1632', '1633', '1635', '1637', '1639', '1640', '1641', '1645', '1646', '1647', '1651', '1654', '1658', '1659', '1660', '1671', '1675', '1676', '1679', '1682', '1684', '1687', '1688', '1690', '1698', '1700', '1701', '1702', '1703', '1704', '1705', '1706', '1715', '1717', '1719', '1721', '1725', '1726', '1728', '1732', '1734', '1736', '1739', '1743', '1744', '1745', '1746', '1750', '1752', '1753', '1755', '1756', '1769', '1770', '1771', '1774', '1775', '1777', '1782', '1785', '1788', '1800', '1801', '1802', '1803', '1807', '1813', '1818', '1821', '1824', '1825', '1827', '1829', '1835', '1836', '1844', '1845', '1846', '1849', '1854', '1855', '1856', '1858', '1861', '1864', '1865', '1867', '1873', '1874', '1876', '1879', '1884', '1885', '1886', '1890', '1892', '1893', '1895', '1896', '1899', '1904', '1906', '1907', '1909', '1910', '1914', '1917', '1918', '1926', '1928', '1934', '1937', '1940', '1944', '1946', '1956', '1960', '1961', '1963', '1965', '1972', '1974', '1975', '1976', '1984', '1986', '1989', '1993', '1997']",False,4000,True,2,eb952f2281,0.0,1.0,1.0
./expes/v2_2021-03-27_issda-30_2000-prng-1-w4-p2,30_issda-2000,2000,first-2000,500,25,rng,num-start-2200,2200,25726,classic,1790.1215596199036,True,,True,1.0,1.0,1.0,1,"['4', '8', '13', '14', '16', '18', '23', '27', '35', '36', '39', '43', '45', '49', '51', '53', '56', '58', '59', '61', '63', '64', '67', '76', '78', '81', '82', '88', '90', '95', '101', '106', '107', '108', '109', '117', '121', '125', '147', '150', '153', '160', '169', '170', '172', '179', '186', '187', '191', '199', '201', '202', '210', '211', '218', '225', '231', '234', '238', '242', '256', '258', '260', '270', '276', '277', '279', '282', '284', '291', '293', '298', '301', '304', '318', '319', '330', '333', '335', '344', '348', '349', '351', '361', '365', '368', '369', '373', '375', '377', '387', '388', '390', '393', '401', '404', '408', '409', '410', '411', '413', '419', '421', '428', '429', '431', '433', '435', '439', '451', '452', '455', '458', '460', '463', '466', '467', '471', '482', '489', '492', '495', '504', '507', '512', '516', '517', '522', '523', '529', '532', '536', '538', '540', '545', '549', '550', '551', '555', '561', '562', '567', '570', '571', '573', '578', '580', '584', '585', '597', '601', '607', '608', '626', '630', '632', '635', '637', '638', '639', '640', '641', '658', '660', '661', '663', '671', '676', '681', '687', '691', '696', '699', '700', '705', '712', '717', '718', '724', '725', '729', '730', '735', '738', '740', '744', '745', '746', '747', '748', '749', '751', '753', '755', '761', '768', '776', '778', '781', '782', '788', '789', '790', '796', '797', '805', '808', '810', '819', '821', '829', '834', '835', '837', '845', '850', '851', '856', '858', '861', '867', '868', '869', '875', '879', '881', '884', '886', '888', '892', '893', '901', '902', '909', '912', '919', '920', '934', '936', '941', '942', '943', '952', '958', '962', '967', '972', '976', '977', '978', '986', '989', '995', '997', '1000', '1004', '1008', '1009', '1013', '1021', '1024', '1025', '1026', '1027', '1029', '1032', '1035', '1039', '1043', '1048', '1052', '1053', '1056', '1058', '1059', '1063', '1067', '1068', '1071', '1080', '1081', '1084', '1095', '1096', '1099', '1102', '1105', '1109', '1110', '1115', '1119', '1120', '1125', '1127', '1135', '1137', '1138', '1141', '1143', '1144', '1147', '1154', '1168', '1169', '1174', '1181', '1189', '1190', '1206', '1217', '1221', '1227', '1232', '1234', '1243', '1244', '1245', '1247', '1248', '1252', '1264', '1266', '1268', '1273', '1275', '1276', '1279', '1280', '1285', '1286', '1296', '1299', '1302', '1305', '1307', '1310', '1312', '1313', '1318', '1335', '1338', '1347', '1349', '1351', '1354', '1355', '1356', '1359', '1360', '1365', '1367', '1369', '1370', '1380', '1384', '1390', '1391', '1395', '1396', '1400', '1402', '1403', '1404', '1407', '1410', '1411', '1412', '1414', '1415', '1422', '1425', '1426', '1428', '1430', '1432', '1435', '1444', '1446', '1455', '1465', '1466', '1467', '1473', '1477', '1487', '1488', '1500', '1504', '1505', '1507', '1514', '1520', '1533', '1534', '1543', '1556', '1558', '1560', '1561', '1567', '1570', '1575', '1579', '1581', '1582', '1585', '1588', '1606', '1607', '1609', '1613', '1616', '1617', '1622', '1623', '1625', '1629', '1631', '1634', '1635', '1640', '1641', '1642', '1646', '1654', '1657', '1660', '1665', '1669', '1671', '1677', '1678', '1679', '1682', '1685', '1704', '1707', '1711', '1712', '1722', '1726', '1727', '1731', '1739', '1747', '1751', '1753', '1760', '1761', '1766', '1771', '1773', '1774', '1779', '1788', '1789', '1802', '1807', '1812', '1814', '1816', '1818', '1829', '1832', '1835', '1838', '1839', '1846', '1849', '1851', '1856', '1865', '1866', '1868', '1874', '1875', '1882', '1885', '1893', '1895', '1899', '1900', '1913', '1915', '1918', '1925', '1928', '1933', '1934', '1939', '1941', '1958', '1964', '1971', '1975', '1982', '1989', '1990', '1992', '2000']",False,4000,True,2,e58626064b,0.0,1.0,1.0
./expes/v2_2021-03-27_issda-30_2000-prng-1-w4-p2,30_issda-2000,2000,first-2000,200,10,rng,num-start-200,200,25726,classic,4036.5257494449615,False,,False,0,,,0,"['1', '26', '35', '38', '45', '59', '76', '94', '111', '157', '166', '176', '181', '183', '184', '191', '193', '197', '200', '240', '245', '253', '260', '283', '292', '299', '347', '353', '380', '385', '387', '394', '396', '397', '402', '404', '406', '408', '412', '430', '457', '502', '503', '513', '515', '522', '525', '536', '544', '545', '549', '559', '593', '597', '622', '624', '627', '640', '655', '675', '682', '688', '732', '739', '740', '741', '742', '765', '768', '773', '778', '779', '798', '815', '838', '840', '841', '848', '864', '867', '870', '874', '881', '904', '912', '914', '916', '925', '964', '965', '973', '981', '991', '994', '995', '997', '999', '1001', '1002', '1008', '1025', '1030', '1032', '1055', '1059', '1070', '1076', '1081', '1102', '1103', '1105', '1134', '1143', '1154', '1176', '1180', '1202', '1206', '1207', '1208', '1217', '1224', '1233', '1234', '1236', '1246', '1250', '1254', '1267', '1271', '1298', '1301', '1321', '1328', '1343', '1345', '1358', '1373', '1375', '1390', '1391', '1394', '1397', '1405', '1430', '1433', '1436', '1446', '1473', '1478', '1480', '1493', '1495', '1505', '1529', '1548', '1556', '1562', '1578', '1594', '1606', '1625', '1631', '1632', '1639', '1643', '1646', '1649', '1650', '1651', '1673', '1684', '1696', '1703', '1706', '1709', '1730', '1773', '1783', '1787', '1795', '1801', '1803', '1822', '1828', '1849', '1853', '1863', '1865', '1870', '1877', '1899', '1900', '1911', '1927', '1949', '1977', '1978', '1987', '2000']",True,4000,True,2,7f733fcb35,0.0,0.0,0.0
