expe,clients,clients_size,clients_subset,agg_size,agg_size_pc,method,days,days_size,days_total,noise_method,time,valid,valid_sum,success,score_avg,score_min,score_max,nsols,oracle,wall_hit,wall_time,pooled,pool_size,uuid,infeasible,optimal,valid_sums
./expes/v2_2021-04-10_issda-30_500-prng-1-w1-p2,30_issda-500,500,first-500,400,80,rng,num-start-400,400,25726,classic,20.058667421340942,True,,True,1.0,1.0,1.0,1,"['1', '2', '3', '4', '5', '6', '7', '8', '9', '10', '11', '12', '13', '14', '15', '16', '17', '18', '19', '20', '21', '22', '23', '24', '25', '29', '31', '32', '33', '34', '36', '37', '38', '39', '40', '42', '43', '44', '45', '46', '47', '48', '49', '50', '51', '52', '53', '54', '55', '56', '57', '58', '59', '60', '61', '62', '65', '67', '69', '70', '71', '73', '75', '76', '77', '79', '81', '82', '83', '84', '86', '87', '88', '89', '91', '92', '93', '94', '95', '96', '97', '98', '100', '102', '103', '105', '106', '107', '108', '109', '110', '111', '112', '113', '114', '115', '116', '117', '118', '119', '120', '121', '123', '124', '125', '126', '127', '128', '129', '130', '131', '133', '137', '138', '140', '141', '142', '144', '145', '146', '149', '150', '151', '152', '153', '154', '156', '157', '158', '159', '160', '161', '162', '163', '164', '165', '167', '168', '170', '171', '172', '173', '174', '175', '176', '177', '178', '181', '182', '183', '184', '185', '187', '188', '189', '190', '192', '194', '195', '196', '197', '198', '200', '201', '202', '203', '204', '205', '206', '207', '208', '209', '212', '213', '214', '216', '217', '219', '220', '221', '222', '223', '225', '229', '230', '231', '232', '233', '234', '235', '236', '241', '242', '243', '245', '246', '247', '249', '250', '251', '253', '254', '255', '256', '257', '258', '259', '260', '261', '262', '263', '264', '265', '266', '267', '269', '271', '273', '274', '276', '277', '278', '279', '280', '281', '282', '283', '284', '285', '287', '288', '289', '290', '292', '293', '294', '295', '296', '297', '300', '301', '302', '303', '304', '306', '308', '309', '310', '311', '312', '313', '314', '315', '317', '319', '320', '323', '324', '326', '328', '329', '330', '331', '332', '333', '334', '335', '337', '338', '339', '340', '341', '342', '344', '345', '346', '347', '348', '349', '350', '352', '353', '354', '355', '356', '357', '360', '361', '364', '365', '366', '367', '369', '370', '371', '372', '373', '374', '375', '376', '378', '380', '381', '383', '385', '386', '387', '389', '390', '391', '392', '393', '394', '395', '398', '399', '400', '401', '402', '403', '404', '405', '406', '407', '408', '409', '411', '412', '413', '414', '415', '416', '417', '419', '420', '421', '423', '424', '425', '427', '428', '429', '431', '433', '434', '435', '436', '437', '439', '440', '441', '442', '444', '445', '446', '447', '449', '450', '452', '453', '454', '455', '457', '458', '459', '460', '461', '462', '463', '465', '466', '467', '468', '469', '470', '471', '472', '473', '474', '475', '477', '478', '480', '481', '482', '484', '487', '488', '489', '490', '491', '492', '493', '494', '495', '496', '497', '498', '499', '500']",False,1000,True,2,8c206c93a4,0.0,1.0,1.0
./expes/v2_2021-04-10_issda-30_500-prng-1-w1-p2,30_issda-500,500,first-500,50,10,rng,num-start-400,400,25726,classic,17.131481885910034,True,,True,1.0,1.0,1.0,1,"['2', '5', '12', '14', '15', '16', '33', '49', '53', '61', '69', '108', '111', '118', '131', '137', '163', '195', '196', '200', '217', '222', '229', '231', '242', '250', '254', '278', '292', '303', '312', '333', '334', '352', '357', '370', '390', '391', '392', '393', '404', '411', '428', '434', '452', '458', '462', '481', '484', '497']",False,1000,True,2,e155d456b2,0.0,1.0,1.0
./expes/v2_2021-04-10_issda-30_500-prng-1-w1-p2,30_issda-500,500,first-500,250,50,rng,num-start-350,350,25726,classic,20.208396673202515,True,,True,1.0,1.0,1.0,1,"['1', '7', '8', '9', '12', '14', '17', '19', '20', '21', '24', '30', '32', '33', '36', '37', '38', '41', '42', '43', '46', '47', '48', '49', '51', '52', '56', '60', '61', '62', '64', '67', '68', '70', '72', '73', '75', '76', '77', '79', '82', '83', '87', '88', '90', '93', '95', '96', '97', '98', '100', '103', '105', '108', '111', '112', '113', '114', '121', '123', '124', '125', '129', '133', '134', '139', '141', '142', '144', '145', '148', '149', '150', '155', '156', '159', '160', '162', '163', '164', '167', '170', '171', '172', '176', '180', '181', '182', '183', '184', '190', '191', '198', '199', '201', '205', '208', '210', '213', '215', '216', '218', '219', '223', '224', '227', '228', '230', '231', '235', '240', '241', '242', '244', '245', '246', '247', '249', '250', '251', '253', '258', '259', '261', '262', '267', '268', '269', '272', '273', '274', '277', '279', '281', '283', '287', '288', '291', '292', '294', '295', '297', '299', '301', '302', '303', '305', '306', '309', '311', '313', '314', '317', '318', '321', '323', '325', '326', '328', '329', '332', '333', '334', '337', '339', '341', '343', '345', '347', '348', '349', '350', '351', '354', '358', '359', '361', '362', '364', '367', '368', '369', '373', '374', '375', '379', '380', '384', '387', '388', '389', '391', '393', '401', '402', '404', '407', '409', '410', '412', '413', '415', '416', '418', '419', '421', '423', '424', '425', '426', '427', '428', '429', '430', '431', '432', '433', '435', '436', '438', '444', '445', '446', '448', '449', '456', '457', '459', '460', '461', '462', '464', '465', '466', '468', '469', '470', '471', '472', '473', '478', '480', '485', '487', '489', '493', '494', '495', '496', '497']",False,1000,True,2,04ec3f33c8,0.0,1.0,1.0
./expes/v2_2021-04-10_issda-30_500-prng-1-w1-p2,30_issda-500,500,first-500,200,40,rng,num-start-250,250,25726,classic,20.218379020690918,True,,True,1.0,1.0,1.0,1,"['1', '3', '5', '11', '13', '15', '16', '17', '19', '21', '23', '24', '26', '29', '30', '31', '35', '39', '43', '44', '47', '55', '58', '59', '66', '70', '78', '81', '82', '83', '85', '86', '87', '89', '91', '94', '95', '98', '107', '108', '109', '114', '117', '119', '121', '126', '127', '128', '129', '131', '137', '138', '140', '143', '147', '156', '158', '159', '160', '164', '167', '173', '175', '177', '180', '182', '185', '186', '187', '188', '191', '192', '195', '198', '202', '205', '209', '213', '217', '221', '228', '229', '230', '233', '234', '237', '239', '246', '250', '251', '256', '257', '258', '259', '260', '261', '262', '263', '264', '266', '268', '269', '270', '272', '279', '283', '286', '287', '288', '291', '295', '298', '302', '303', '304', '310', '311', '316', '320', '322', '327', '334', '335', '336', '338', '339', '343', '345', '346', '349', '350', '351', '355', '359', '362', '367', '368', '371', '372', '374', '375', '377', '379', '381', '382', '383', '387', '389', '391', '393', '396', '402', '405', '407', '408', '410', '412', '415', '417', '418', '421', '423', '426', '428', '435', '438', '440', '441', '442', '446', '449', '451', '452', '453', '457', '458', '460', '461', '462', '463', '465', '466', '467', '469', '471', '472', '474', '478', '479', '480', '481', '482', '484', '486', '487', '489', '490', '491', '493', '498']",False,1000,True,2,40680e9459,0.0,1.0,1.0
./expes/v2_2021-04-10_issda-30_500-prng-1-w1-p2,30_issda-500,500,first-500,500,100,rng,num-start-350,350,25726,classic,11.025954008102417,True,,True,1.0,1.0,1.0,1,"['1', '2', '3', '4', '5', '6', '7', '8', '9', '10', '11', '12', '13', '14', '15', '16', '17', '18', '19', '20', '21', '22', '23', '24', '25', '26', '27', '28', '29', '30', '31', '32', '33', '34', '35', '36', '37', '38', '39', '40', '41', '42', '43', '44', '45', '46', '47', '48', '49', '50', '51', '52', '53', '54', '55', '56', '57', '58', '59', '60', '61', '62', '63', '64', '65', '66', '67', '68', '69', '70', '71', '72', '73', '74', '75', '76', '77', '78', '79', '80', '81', '82', '83', '84', '85', '86', '87', '88', '89', '90', '91', '92', '93', '94', '95', '96', '97', '98', '99', '100', '101', '102', '103', '104', '105', '106', '107', '108', '109', '110', '111', '112', '113', '114', '115', '116', '117', '118', '119', '120', '121', '122', '123', '124', '125', '126', '127', '128', '129', '130', '131', '132', '133', '134', '135', '136', '137', '138', '139', '140', '141', '142', '143', '144', '145', '146', '147', '148', '149', '150', '151', '152', '153', '154', '155', '156', '157', '158', '159', '160', '161', '162', '163', '164', '165', '166', '167', '168', '169', '170', '171', '172', '173', '174', '175', '176', '177', '178', '179', '180', '181', '182', '183', '184', '185', '186', '187', '188', '189', '190', '191', '192', '193', '194', '195', '196', '197', '198', '199', '200', '201', '202', '203', '204', '205', '206', '207', '208', '209', '210', '211', '212', '213', '214', '215', '216', '217', '218', '219', '220', '221', '222', '223', '224', '225', '226', '227', '228', '229', '230', '231', '232', '233', '234', '235', '236', '237', '238', '239', '240', '241', '242', '243', '244', '245', '246', '247', '248', '249', '250', '251', '252', '253', '254', '255', '256', '257', '258', '259', '260', '261', '262', '263', '264', '265', '266', '267', '268', '269', '270', '271', '272', '273', '274', '275', '276', '277', '278', '279', '280', '281', '282', '283', '284', '285', '286', '287', '288', '289', '290', '291', '292', '293', '294', '295', '296', '297', '298', '299', '300', '301', '302', '303', '304', '305', '306', '307', '308', '309', '310', '311', '312', '313', '314', '315', '316', '317', '318', '319', '320', '321', '322', '323', '324', '325', '326', '327', '328', '329', '330', '331', '332', '333', '334', '335', '336', '337', '338', '339', '340', '341', '342', '343', '344', '345', '346', '347', '348', '349', '350', '351', '352', '353', '354', '355', '356', '357', '358', '359', '360', '361', '362', '363', '364', '365', '366', '367', '368', '369', '370', '371', '372', '373', '374', '375', '376', '377', '378', '379', '380', '381', '382', '383', '384', '385', '386', '387', '388', '389', '390', '391', '392', '393', '394', '395', '396', '397', '398', '399', '400', '401', '402', '403', '404', '405', '406', '407', '408', '409', '410', '411', '412', '413', '414', '415', '416', '417', '418', '419', '420', '421', '422', '423', '424', '425', '426', '427', '428', '429', '430', '431', '432', '433', '434', '435', '436', '437', '438', '439', '440', '441', '442', '443', '444', '445', '446', '447', '448', '449', '450', '451', '452', '453', '454', '455', '456', '457', '458', '459', '460', '461', '462', '463', '464', '465', '466', '467', '468', '469', '470', '471', '472', '473', '474', '475', '476', '477', '478', '479', '480', '481', '482', '483', '484', '485', '486', '487', '488', '489', '490', '491', '492', '493', '494', '495', '496', '497', '498', '499', '500']",False,1000,True,2,90d43fb876,0.0,1.0,1.0
./expes/v2_2021-04-10_issda-30_500-prng-1-w1-p2,30_issda-500,500,first-500,450,90,rng,num-start-500,500,25726,classic,26.75357985496521,True,,True,1.0,1.0,1.0,1,"['1', '2', '3', '4', '5', '6', '7', '8', '10', '11', '12', '14', '15', '16', '17', '18', '19', '20', '21', '22', '23', '24', '25', '26', '27', '28', '29', '30', '31', '32', '33', '34', '35', '36', '37', '39', '40', '41', '42', '43', '44', '45', '46', '47', '48', '49', '50', '51', '52', '53', '54', '55', '57', '58', '59', '60', '61', '62', '63', '66', '67', '68', '69', '70', '71', '72', '73', '74', '75', '77', '78', '79', '80', '81', '82', '83', '84', '85', '86', '87', '88', '89', '90', '91', '92', '93', '94', '95', '97', '98', '99', '100', '101', '102', '103', '104', '105', '106', '107', '108', '109', '110', '111', '112', '113', '114', '115', '116', '118', '119', '120', '121', '122', '123', '124', '125', '126', '127', '128', '129', '130', '131', '132', '133', '134', '135', '138', '139', '140', '141', '142', '143', '144', '145', '146', '147', '148', '149', '150', '151', '152', '153', '154', '155', '156', '157', '158', '159', '160', '161', '162', '163', '165', '166', '167', '168', '169', '170', '173', '174', '175', '176', '177', '178', '179', '180', '181', '183', '184', '185', '186', '187', '188', '189', '191', '193', '195', '196', '197', '199', '200', '201', '202', '203', '204', '205', '206', '207', '208', '209', '210', '211', '212', '213', '214', '216', '217', '218', '220', '221', '222', '223', '224', '225', '226', '227', '228', '229', '232', '233', '234', '235', '236', '237', '238', '240', '242', '243', '244', '245', '246', '248', '250', '251', '252', '253', '254', '255', '256', '258', '260', '261', '262', '263', '264', '266', '267', '268', '269', '270', '271', '272', '273', '274', '275', '276', '277', '278', '279', '280', '281', '282', '283', '284', '286', '287', '288', '290', '291', '292', '293', '294', '295', '297', '298', '299', '300', '301', '302', '303', '304', '305', '306', '307', '308', '309', '310', '311', '312', '313', '314', '315', '316', '317', '318', '319', '320', '321', '322', '323', '324', '325', '326', '327', '328', '329', '330', '331', '332', '334', '335', '336', '337', '338', '339', '342', '343', '344', '345', '346', '347', '349', '350', '351', '352', '353', '354', '355', '356', '357', '358', '359', '360', '361', '362', '363', '364', '365', '366', '367', '368', '369', '370', '371', '375', '376', '377', '378', '379', '381', '382', '383', '384', '385', '387', '388', '389', '390', '392', '393', '394', '395', '396', '397', '398', '399', '400', '401', '402', '403', '404', '405', '407', '408', '409', '410', '411', '412', '414', '415', '417', '418', '419', '420', '421', '422', '423', '424', '425', '426', '427', '428', '429', '430', '431', '432', '433', '434', '435', '437', '438', '439', '440', '441', '442', '443', '444', '445', '446', '448', '449', '450', '451', '452', '453', '454', '455', '456', '457', '458', '459', '460', '461', '462', '463', '464', '465', '466', '467', '468', '469', '470', '471', '472', '473', '474', '475', '476', '477', '478', '479', '480', '481', '482', '483', '484', '486', '487', '488', '489', '490', '492', '493', '494', '495', '496', '497', '498', '499', '500']",False,1000,True,2,f0260b3d28,0.0,1.0,1.0
./expes/v2_2021-04-10_issda-30_500-prng-1-w1-p2,30_issda-500,500,first-500,300,60,rng,num-start-150,150,25726,classic,1005.161379814148,False,,False,0,,,0,"['3', '4', '6', '7', '8', '11', '12', '14', '15', '16', '17', '18', '19', '22', '23', '24', '26', '28', '31', '32', '33', '34', '35', '40', '41', '44', '46', '50', '53', '54', '56', '59', '61', '62', '63', '64', '65', '66', '67', '68', '69', '70', '71', '78', '80', '82', '84', '87', '88', '91', '94', '95', '96', '98', '99', '102', '103', '109', '112', '114', '115', '116', '117', '119', '120', '121', '122', '123', '126', '128', '129', '130', '133', '135', '136', '137', '138', '139', '141', '143', '144', '146', '147', '148', '149', '150', '151', '153', '154', '155', '156', '159', '161', '162', '164', '165', '168', '170', '171', '173', '174', '175', '177', '178', '180', '181', '185', '187', '188', '190', '193', '194', '198', '199', '200', '203', '204', '205', '209', '210', '211', '212', '213', '214', '215', '216', '219', '221', '223', '224', '225', '228', '231', '234', '236', '238', '239', '241', '243', '244', '245', '247', '248', '250', '251', '254', '257', '258', '259', '260', '262', '263', '266', '267', '268', '269', '272', '274', '275', '277', '278', '279', '281', '282', '283', '287', '291', '292', '293', '294', '295', '296', '297', '298', '300', '301', '302', '303', '304', '305', '308', '310', '311', '312', '313', '314', '315', '316', '317', '318', '319', '321', '322', '324', '325', '326', '328', '329', '330', '333', '335', '336', '340', '344', '345', '346', '347', '348', '349', '350', '351', '354', '356', '357', '358', '362', '366', '367', '368', '369', '373', '377', '378', '380', '382', '383', '386', '388', '389', '390', '394', '396', '398', '399', '400', '401', '403', '404', '406', '407', '410', '411', '412', '413', '414', '415', '416', '417', '419', '422', '424', '426', '427', '429', '430', '433', '436', '438', '439', '440', '441', '442', '443', '444', '445', '446', '447', '450', '451', '452', '453', '454', '455', '456', '460', '461', '463', '464', '466', '468', '469', '470', '472', '473', '474', '475', '476', '480', '481', '482', '483', '486', '487', '489', '491', '492', '494', '495', '498', '499']",True,1000,True,2,f054128da2,0.0,0.0,0.0
