expe,clients,clients_size,clients_subset,agg_size,agg_size_pc,method,days,days_size,days_total,noise_method,time,valid,valid_sum,success,score_avg,score_min,score_max,nsols,oracle,wall_hit,wall_time,pooled,pool_size,uuid,infeasible,optimal,valid_sums
./expes/v2_2021-04-10_issda-30_500-prng-1-w1-p2,30_issda-500,500,first-500,250,50,rng,num-start-350,350,25726,classic,27.311477661132812,True,,True,1.0,1.0,1.0,1,"['4', '5', '10', '11', '14', '17', '19', '21', '22', '23', '24', '27', '29', '31', '32', '35', '39', '40', '42', '43', '45', '46', '47', '48', '50', '52', '53', '55', '59', '60', '63', '66', '70', '73', '75', '77', '79', '80', '82', '83', '85', '87', '89', '91', '92', '95', '97', '98', '99', '100', '101', '102', '103', '104', '107', '108', '110', '111', '113', '114', '118', '119', '120', '121', '122', '124', '125', '127', '128', '129', '130', '131', '133', '134', '135', '138', '140', '142', '143', '144', '147', '148', '149', '150', '151', '152', '154', '156', '157', '159', '160', '162', '165', '166', '167', '168', '170', '173', '174', '176', '183', '185', '186', '187', '191', '196', '199', '201', '203', '206', '207', '210', '211', '212', '214', '216', '217', '218', '220', '221', '224', '225', '226', '228', '232', '233', '236', '237', '242', '243', '245', '246', '252', '254', '255', '256', '260', '261', '266', '267', '270', '271', '274', '275', '280', '281', '282', '286', '290', '292', '293', '294', '299', '302', '305', '307', '311', '316', '317', '318', '321', '322', '324', '325', '326', '329', '332', '334', '335', '336', '337', '342', '343', '344', '345', '346', '347', '349', '352', '358', '359', '361', '363', '368', '370', '375', '377', '378', '382', '383', '392', '393', '396', '397', '400', '402', '405', '409', '410', '411', '412', '414', '417', '418', '419', '424', '425', '426', '428', '430', '431', '433', '435', '438', '439', '440', '442', '444', '445', '446', '448', '451', '452', '456', '457', '458', '459', '461', '462', '464', '466', '468', '470', '473', '474', '475', '476', '477', '479', '483', '484', '489', '490', '492', '493', '494', '495', '496', '497', '498']",False,1000,True,2,8263542b5a,0.0,1.0,1.0
./expes/v2_2021-04-10_issda-30_500-prng-1-w1-p2,30_issda-500,500,first-500,400,80,rng,num-start-350,350,25726,classic,17.84356665611267,True,,True,1.0,1.0,1.0,1,"['1', '2', '3', '5', '6', '9', '10', '11', '13', '15', '16', '17', '18', '19', '20', '21', '23', '24', '26', '27', '28', '29', '30', '31', '32', '34', '35', '37', '38', '39', '40', '41', '42', '43', '44', '45', '46', '47', '48', '49', '50', '52', '53', '54', '55', '57', '58', '59', '60', '61', '63', '66', '68', '69', '70', '71', '72', '73', '74', '75', '76', '77', '78', '79', '80', '81', '82', '83', '84', '85', '86', '87', '88', '89', '91', '93', '94', '95', '97', '98', '99', '102', '103', '105', '107', '108', '109', '110', '111', '112', '113', '114', '116', '117', '119', '120', '121', '124', '126', '127', '128', '129', '130', '131', '132', '133', '135', '136', '137', '138', '140', '141', '143', '145', '146', '147', '149', '150', '151', '152', '155', '156', '157', '158', '159', '160', '161', '162', '164', '167', '168', '169', '170', '171', '172', '173', '175', '177', '178', '180', '182', '183', '184', '185', '186', '187', '188', '191', '192', '195', '196', '197', '198', '200', '201', '202', '203', '205', '206', '207', '208', '209', '210', '211', '212', '213', '214', '215', '217', '218', '219', '221', '223', '225', '226', '227', '228', '229', '230', '232', '233', '234', '235', '236', '237', '238', '239', '240', '241', '242', '243', '245', '246', '247', '248', '249', '250', '251', '252', '255', '256', '257', '258', '259', '260', '261', '262', '263', '264', '265', '266', '267', '268', '269', '270', '272', '273', '275', '276', '277', '279', '280', '281', '283', '286', '287', '288', '289', '290', '291', '292', '293', '294', '295', '298', '300', '301', '302', '303', '304', '305', '306', '310', '311', '313', '314', '315', '316', '317', '319', '320', '321', '322', '325', '326', '327', '328', '329', '330', '331', '332', '333', '334', '335', '336', '338', '339', '340', '342', '343', '344', '345', '346', '347', '348', '349', '350', '351', '352', '354', '355', '357', '358', '359', '361', '362', '363', '364', '365', '366', '367', '368', '369', '371', '372', '373', '374', '375', '377', '378', '379', '381', '382', '383', '385', '386', '387', '389', '390', '391', '392', '393', '396', '397', '398', '400', '401', '402', '404', '405', '406', '407', '408', '409', '410', '411', '412', '413', '415', '416', '417', '418', '419', '420', '421', '423', '426', '427', '428', '429', '430', '431', '435', '436', '437', '438', '439', '440', '441', '442', '443', '444', '446', '448', '449', '450', '451', '452', '453', '454', '455', '456', '457', '458', '459', '460', '461', '462', '463', '464', '465', '466', '467', '469', '470', '471', '472', '473', '474', '476', '478', '479', '480', '481', '482', '483', '484', '486', '487', '489', '490', '491', '492', '493', '494', '495', '496', '497', '498', '499']",False,1000,True,2,a16a59cfcd,0.0,1.0,1.0
./expes/v2_2021-04-10_issda-30_500-prng-1-w1-p2,30_issda-500,500,first-500,50,10,rng,num-start-50,50,25726,classic,1001.8506066799164,False,,False,0,,,0,"['2', '5', '12', '14', '15', '16', '33', '49', '53', '61', '69', '108', '111', '118', '131', '137', '163', '195', '196', '200', '217', '222', '229', '231', '242', '250', '254', '278', '292', '303', '312', '333', '334', '352', '357', '370', '390', '391', '392', '393', '404', '411', '428', '434', '452', '458', '462', '481', '484', '497']",True,1000,True,2,7238983ca3,0.0,0.0,0.0
