expe,clients,clients_size,clients_subset,agg_size,agg_size_pc,method,days,days_size,days_total,noise_method,time,valid,valid_sum,success,score_avg,score_min,score_max,nsols,oracle,wall_hit,wall_time,pooled,pool_size,uuid,infeasible,optimal,valid_sums
./expes/v2_2021-04-10_issda-30_500-prng-1-w1-p2,30_issda-500,500,first-500,200,40,rng,num-start-450,450,25726,classic,30.527305841445923,True,,True,1.0,1.0,1.0,1,"['1', '2', '3', '5', '7', '12', '14', '15', '16', '17', '18', '23', '29', '33', '37', '43', '45', '47', '49', '52', '53', '56', '61', '62', '67', '69', '84', '87', '88', '89', '91', '93', '96', '98', '103', '106', '108', '111', '113', '114', '117', '118', '119', '120', '125', '131', '137', '138', '146', '149', '152', '156', '158', '163', '170', '171', '177', '178', '181', '183', '187', '188', '190', '192', '195', '196', '197', '200', '202', '207', '208', '212', '213', '214', '217', '219', '222', '225', '229', '231', '235', '236', '241', '242', '246', '247', '249', '250', '251', '254', '256', '257', '258', '259', '260', '261', '263', '264', '266', '267', '271', '276', '277', '278', '281', '282', '283', '284', '285', '288', '292', '296', '297', '300', '301', '302', '303', '304', '308', '312', '314', '315', '320', '323', '326', '329', '332', '333', '334', '338', '340', '341', '344', '345', '346', '347', '352', '357', '360', '361', '365', '370', '371', '372', '374', '376', '378', '380', '381', '390', '391', '392', '393', '395', '398', '399', '402', '403', '404', '409', '411', '412', '415', '417', '419', '421', '425', '428', '429', '431', '434', '435', '436', '437', '439', '441', '446', '452', '454', '458', '459', '462', '466', '467', '470', '472', '473', '475', '477', '480', '481', '482', '484', '487', '488', '489', '491', '496', '497', '499']",False,1000,True,2,67bb73b399,0.0,1.0,1.0
./expes/v2_2021-04-10_issda-30_500-prng-1-w1-p2,30_issda-500,500,first-500,300,60,rng,num-start-500,500,25726,classic,36.802457332611084,True,,True,1.0,1.0,1.0,1,"['2', '4', '5', '6', '7', '10', '11', '14', '17', '18', '19', '21', '22', '23', '24', '27', '28', '29', '31', '32', '35', '39', '40', '41', '42', '43', '44', '45', '46', '47', '48', '49', '50', '52', '53', '55', '58', '59', '60', '63', '66', '70', '72', '73', '75', '77', '79', '80', '81', '82', '83', '85', '86', '87', '89', '91', '92', '95', '97', '98', '99', '100', '101', '102', '103', '104', '106', '107', '108', '109', '110', '111', '112', '113', '114', '118', '119', '120', '121', '122', '124', '125', '127', '128', '129', '130', '131', '132', '133', '134', '135', '138', '140', '142', '143', '144', '147', '148', '149', '150', '151', '152', '153', '154', '156', '157', '159', '160', '162', '165', '166', '167', '168', '170', '173', '174', '176', '178', '183', '185', '186', '187', '188', '191', '196', '199', '200', '201', '203', '205', '206', '207', '210', '211', '212', '213', '214', '216', '217', '218', '220', '221', '223', '224', '225', '226', '228', '232', '233', '236', '237', '238', '242', '243', '245', '246', '250', '251', '252', '254', '255', '256', '260', '261', '263', '266', '267', '268', '270', '271', '274', '275', '279', '280', '281', '282', '286', '288', '290', '292', '293', '294', '299', '302', '305', '307', '311', '312', '313', '316', '317', '318', '321', '322', '324', '325', '326', '329', '332', '334', '335', '336', '337', '342', '343', '344', '345', '346', '347', '349', '352', '353', '357', '358', '359', '361', '363', '365', '368', '370', '375', '377', '378', '382', '383', '389', '392', '393', '394', '395', '396', '397', '398', '400', '401', '402', '404', '405', '409', '410', '411', '412', '414', '415', '417', '418', '419', '420', '424', '425', '426', '428', '429', '430', '431', '433', '435', '438', '439', '440', '442', '443', '444', '445', '446', '448', '449', '450', '451', '452', '454', '456', '457', '458', '459', '461', '462', '464', '466', '468', '469', '470', '473', '474', '475', '476', '477', '479', '483', '484', '487', '489', '490', '492', '493', '494', '495', '496', '497', '498']",False,1000,True,2,a9b44b13f5,0.0,1.0,1.0
./expes/v2_2021-04-10_issda-30_500-prng-1-w1-p2,30_issda-500,500,first-500,350,70,rng,num-start-500,500,25726,classic,35.496379375457764,True,,True,1.0,1.0,1.0,1,"['1', '2', '5', '7', '8', '9', '10', '12', '14', '15', '17', '19', '20', '21', '22', '24', '25', '26', '30', '32', '33', '34', '36', '37', '38', '41', '42', '43', '44', '45', '46', '47', '48', '49', '51', '52', '56', '59', '60', '61', '62', '64', '67', '68', '69', '70', '71', '72', '73', '75', '76', '77', '78', '79', '80', '81', '82', '83', '84', '85', '86', '87', '88', '90', '92', '93', '94', '95', '96', '97', '98', '99', '100', '102', '103', '105', '106', '107', '108', '110', '111', '112', '113', '114', '115', '121', '123', '124', '125', '129', '132', '133', '134', '139', '141', '142', '143', '144', '145', '148', '149', '150', '151', '154', '155', '156', '158', '159', '160', '162', '163', '164', '167', '169', '170', '171', '172', '173', '174', '176', '178', '180', '181', '182', '183', '184', '185', '188', '189', '190', '191', '193', '194', '198', '199', '201', '202', '203', '204', '205', '206', '207', '208', '210', '213', '214', '215', '216', '217', '218', '219', '221', '223', '224', '227', '228', '229', '230', '231', '232', '235', '240', '241', '242', '243', '244', '245', '246', '247', '249', '250', '251', '253', '254', '255', '258', '259', '261', '262', '266', '267', '268', '269', '270', '271', '272', '273', '274', '276', '277', '279', '281', '283', '285', '286', '287', '288', '290', '291', '292', '294', '295', '297', '299', '300', '301', '302', '303', '305', '306', '309', '310', '311', '312', '313', '314', '317', '318', '321', '322', '323', '325', '326', '327', '328', '329', '330', '331', '332', '333', '334', '335', '336', '337', '339', '340', '341', '343', '345', '346', '347', '348', '349', '350', '351', '352', '353', '354', '358', '359', '360', '361', '362', '364', '365', '366', '367', '368', '369', '372', '373', '374', '375', '377', '379', '380', '384', '387', '388', '389', '391', '393', '396', '398', '400', '401', '402', '404', '405', '406', '407', '409', '410', '412', '413', '414', '415', '416', '418', '419', '421', '422', '423', '424', '425', '426', '427', '428', '429', '430', '431', '432', '433', '434', '435', '436', '437', '438', '439', '442', '443', '444', '445', '446', '447', '448', '449', '453', '454', '456', '457', '458', '459', '460', '461', '462', '463', '464', '465', '466', '468', '469', '470', '471', '472', '473', '478', '479', '480', '481', '485', '487', '489', '493', '494', '495', '496', '497', '499', '500']",False,1000,True,2,8fb8a3de4a,0.0,1.0,1.0
./expes/v2_2021-04-10_issda-30_500-prng-1-w1-p2,30_issda-500,500,first-500,450,90,rng,num-start-100,100,25726,classic,11.618730545043945,True,,True,1.0,1.0,1.0,1,"['1', '2', '3', '4', '5', '6', '9', '10', '11', '13', '15', '16', '17', '18', '19', '20', '21', '23', '24', '25', '26', '27', '28', '29', '30', '31', '32', '33', '34', '35', '37', '38', '39', '40', '41', '42', '43', '44', '45', '46', '47', '48', '49', '50', '51', '52', '53', '54', '55', '56', '57', '58', '59', '60', '61', '63', '66', '67', '68', '69', '70', '71', '72', '73', '74', '75', '76', '77', '78', '79', '80', '81', '82', '83', '84', '85', '86', '87', '88', '89', '90', '91', '93', '94', '95', '96', '97', '98', '99', '100', '102', '103', '104', '105', '107', '108', '109', '110', '111', '112', '113', '114', '115', '116', '117', '118', '119', '120', '121', '122', '123', '124', '126', '127', '128', '129', '130', '131', '132', '133', '135', '136', '137', '138', '140', '141', '143', '144', '145', '146', '147', '149', '150', '151', '152', '153', '154', '155', '156', '157', '158', '159', '160', '161', '162', '163', '164', '165', '167', '168', '169', '170', '171', '172', '173', '174', '175', '176', '177', '178', '180', '182', '183', '184', '185', '186', '187', '188', '189', '191', '192', '194', '195', '196', '197', '198', '200', '201', '202', '203', '204', '205', '206', '207', '208', '209', '210', '211', '212', '213', '214', '215', '216', '217', '218', '219', '221', '223', '224', '225', '226', '227', '228', '229', '230', '232', '233', '234', '235', '236', '237', '238', '239', '240', '241', '242', '243', '244', '245', '246', '247', '248', '249', '250', '251', '252', '254', '255', '256', '257', '258', '259', '260', '261', '262', '263', '264', '265', '266', '267', '268', '269', '270', '271', '272', '273', '275', '276', '277', '278', '279', '280', '281', '282', '283', '286', '287', '288', '289', '290', '291', '292', '293', '294', '295', '296', '297', '298', '300', '301', '302', '303', '304', '305', '306', '307', '309', '310', '311', '313', '314', '315', '316', '317', '318', '319', '320', '321', '322', '324', '325', '326', '327', '328', '329', '330', '331', '332', '333', '334', '335', '336', '338', '339', '340', '341', '342', '343', '344', '345', '346', '347', '348', '349', '350', '351', '352', '353', '354', '355', '357', '358', '359', '360', '361', '362', '363', '364', '365', '366', '367', '368', '369', '370', '371', '372', '373', '374', '375', '377', '378', '379', '381', '382', '383', '384', '385', '386', '387', '389', '390', '391', '392', '393', '394', '396', '397', '398', '399', '400', '401', '402', '404', '405', '406', '407', '408', '409', '410', '411', '412', '413', '414', '415', '416', '417', '418', '419', '420', '421', '422', '423', '426', '427', '428', '429', '430', '431', '433', '434', '435', '436', '437', '438', '439', '440', '441', '442', '443', '444', '446', '447', '448', '449', '450', '451', '452', '453', '454', '455', '456', '457', '458', '459', '460', '461', '462', '463', '464', '465', '466', '467', '469', '470', '471', '472', '473', '474', '475', '476', '478', '479', '480', '481', '482', '483', '484', '486', '487', '489', '490', '491', '492', '493', '494', '495', '496', '497', '498', '499']",False,1000,True,2,3e4e570b90,0.0,1.0,1.0
./expes/v2_2021-04-10_issda-30_500-prng-1-w1-p2,30_issda-500,500,first-500,300,60,rng,num-start-300,300,25726,classic,21.072473764419556,True,,True,1.0,1.0,1.0,1,"['3', '4', '6', '7', '8', '11', '12', '14', '15', '16', '17', '18', '19', '22', '23', '24', '26', '28', '31', '32', '33', '34', '35', '40', '41', '44', '46', '50', '53', '54', '56', '59', '61', '62', '63', '64', '65', '66', '67', '68', '69', '70', '71', '78', '80', '82', '84', '87', '88', '91', '94', '95', '96', '98', '99', '102', '103', '109', '112', '114', '115', '116', '117', '119', '120', '121', '122', '123', '126', '128', '129', '130', '133', '135', '136', '137', '138', '139', '141', '143', '144', '146', '147', '148', '149', '150', '151', '153', '154', '155', '156', '159', '161', '162', '164', '165', '168', '170', '171', '173', '174', '175', '177', '178', '180', '181', '185', '187', '188', '190', '193', '194', '198', '199', '200', '203', '204', '205', '209', '210', '211', '212', '213', '214', '215', '216', '219', '221', '223', '224', '225', '228', '231', '234', '236', '238', '239', '241', '243', '244', '245', '247', '248', '250', '251', '254', '257', '258', '259', '260', '262', '263', '266', '267', '268', '269', '272', '274', '275', '277', '278', '279', '281', '282', '283', '287', '291', '292', '293', '294', '295', '296', '297', '298', '300', '301', '302', '303', '304', '305', '308', '310', '311', '312', '313', '314', '315', '316', '317', '318', '319', '321', '322', '324', '325', '326', '328', '329', '330', '333', '335', '336', '340', '344', '345', '346', '347', '348', '349', '350', '351', '354', '356', '357', '358', '362', '366', '367', '368', '369', '373', '377', '378', '380', '382', '383', '386', '388', '389', '390', '394', '396', '398', '399', '400', '401', '403', '404', '406', '407', '410', '411', '412', '413', '414', '415', '416', '417', '419', '422', '424', '426', '427', '429', '430', '433', '436', '438', '439', '440', '441', '442', '443', '444', '445', '446', '447', '450', '451', '452', '453', '454', '455', '456', '460', '461', '463', '464', '466', '468', '469', '470', '472', '473', '474', '475', '476', '480', '481', '482', '483', '486', '487', '489', '491', '492', '494', '495', '498', '499']",False,1000,True,2,ced162aab5,0.0,1.0,1.0
./expes/v2_2021-04-10_issda-30_500-prng-1-w1-p2,30_issda-500,500,first-500,450,90,rng,num-start-250,250,25726,classic,14.719825029373169,True,,True,1.0,1.0,1.0,1,"['1', '2', '3', '4', '5', '6', '9', '10', '11', '13', '15', '16', '17', '18', '19', '20', '21', '23', '24', '25', '26', '27', '28', '29', '30', '31', '32', '33', '34', '35', '37', '38', '39', '40', '41', '42', '43', '44', '45', '46', '47', '48', '49', '50', '51', '52', '53', '54', '55', '56', '57', '58', '59', '60', '61', '63', '66', '67', '68', '69', '70', '71', '72', '73', '74', '75', '76', '77', '78', '79', '80', '81', '82', '83', '84', '85', '86', '87', '88', '89', '90', '91', '93', '94', '95', '96', '97', '98', '99', '100', '102', '103', '104', '105', '107', '108', '109', '110', '111', '112', '113', '114', '115', '116', '117', '118', '119', '120', '121', '122', '123', '124', '126', '127', '128', '129', '130', '131', '132', '133', '135', '136', '137', '138', '140', '141', '143', '144', '145', '146', '147', '149', '150', '151', '152', '153', '154', '155', '156', '157', '158', '159', '160', '161', '162', '163', '164', '165', '167', '168', '169', '170', '171', '172', '173', '174', '175', '176', '177', '178', '180', '182', '183', '184', '185', '186', '187', '188', '189', '191', '192', '194', '195', '196', '197', '198', '200', '201', '202', '203', '204', '205', '206', '207', '208', '209', '210', '211', '212', '213', '214', '215', '216', '217', '218', '219', '221', '223', '224', '225', '226', '227', '228', '229', '230', '232', '233', '234', '235', '236', '237', '238', '239', '240', '241', '242', '243', '244', '245', '246', '247', '248', '249', '250', '251', '252', '254', '255', '256', '257', '258', '259', '260', '261', '262', '263', '264', '265', '266', '267', '268', '269', '270', '271', '272', '273', '275', '276', '277', '278', '279', '280', '281', '282', '283', '286', '287', '288', '289', '290', '291', '292', '293', '294', '295', '296', '297', '298', '300', '301', '302', '303', '304', '305', '306', '307', '309', '310', '311', '313', '314', '315', '316', '317', '318', '319', '320', '321', '322', '324', '325', '326', '327', '328', '329', '330', '331', '332', '333', '334', '335', '336', '338', '339', '340', '341', '342', '343', '344', '345', '346', '347', '348', '349', '350', '351', '352', '353', '354', '355', '357', '358', '359', '360', '361', '362', '363', '364', '365', '366', '367', '368', '369', '370', '371', '372', '373', '374', '375', '377', '378', '379', '381', '382', '383', '384', '385', '386', '387', '389', '390', '391', '392', '393', '394', '396', '397', '398', '399', '400', '401', '402', '404', '405', '406', '407', '408', '409', '410', '411', '412', '413', '414', '415', '416', '417', '418', '419', '420', '421', '422', '423', '426', '427', '428', '429', '430', '431', '433', '434', '435', '436', '437', '438', '439', '440', '441', '442', '443', '444', '446', '447', '448', '449', '450', '451', '452', '453', '454', '455', '456', '457', '458', '459', '460', '461', '462', '463', '464', '465', '466', '467', '469', '470', '471', '472', '473', '474', '475', '476', '478', '479', '480', '481', '482', '483', '484', '486', '487', '489', '490', '491', '492', '493', '494', '495', '496', '497', '498', '499']",False,1000,True,2,bd84e556a8,0.0,1.0,1.0
./expes/v2_2021-04-10_issda-30_500-prng-1-w1-p2,30_issda-500,500,first-500,200,40,rng,num-start-350,350,25726,classic,26.58560061454773,True,,True,1.0,1.0,1.0,1,"['1', '8', '9', '12', '14', '17', '19', '20', '21', '24', '32', '33', '36', '37', '38', '42', '43', '46', '47', '48', '49', '51', '52', '56', '60', '62', '64', '67', '72', '73', '75', '76', '77', '88', '95', '96', '97', '98', '100', '105', '108', '111', '112', '113', '114', '121', '123', '124', '125', '129', '133', '134', '139', '141', '142', '145', '148', '149', '150', '155', '156', '159', '162', '163', '164', '167', '170', '171', '172', '180', '182', '183', '184', '190', '191', '198', '201', '205', '208', '215', '216', '218', '219', '223', '227', '228', '230', '231', '242', '244', '245', '246', '249', '250', '251', '253', '259', '261', '262', '267', '268', '269', '273', '274', '277', '279', '281', '283', '287', '291', '294', '295', '297', '299', '301', '302', '306', '309', '311', '313', '314', '317', '318', '321', '323', '325', '326', '328', '329', '332', '337', '339', '343', '348', '349', '350', '351', '358', '359', '361', '362', '364', '368', '369', '373', '374', '375', '387', '388', '389', '401', '402', '407', '409', '410', '412', '413', '415', '416', '418', '419', '421', '423', '424', '425', '426', '427', '428', '429', '431', '432', '433', '435', '436', '438', '444', '445', '446', '449', '456', '457', '459', '460', '461', '462', '465', '466', '468', '469', '470', '471', '473', '478', '480', '487', '493', '494', '495', '496', '497']",False,1000,True,2,d70666070f,0.0,1.0,1.0
./expes/v2_2021-04-10_issda-30_500-prng-1-w1-p2,30_issda-500,500,first-500,100,20,rng,num-start-500,500,25726,classic,38.07987117767334,True,,True,1.0,1.0,1.0,1,"['4', '11', '14', '23', '24', '31', '35', '42', '45', '46', '47', '53', '55', '75', '80', '83', '85', '89', '92', '100', '110', '114', '120', '121', '127', '128', '133', '134', '135', '140', '142', '144', '148', '149', '150', '154', '156', '157', '159', '160', '173', '176', '185', '191', '199', '203', '206', '212', '217', '221', '232', '237', '242', '243', '246', '260', '261', '266', '267', '274', '275', '281', '282', '294', '307', '311', '321', '322', '329', '332', '344', '345', '359', '361', '370', '375', '392', '400', '409', '410', '414', '417', '419', '424', '425', '431', '433', '435', '438', '444', '445', '451', '452', '466', '470', '475', '479', '483', '484', '492']",False,1000,True,2,4ce70fe83b,0.0,1.0,1.0
./expes/v2_2021-04-10_issda-30_500-prng-1-w1-p2,30_issda-500,500,first-500,500,100,rng,num-start-300,300,25726,classic,14.28832197189331,True,,True,1.0,1.0,1.0,1,"['1', '2', '3', '4', '5', '6', '7', '8', '9', '10', '11', '12', '13', '14', '15', '16', '17', '18', '19', '20', '21', '22', '23', '24', '25', '26', '27', '28', '29', '30', '31', '32', '33', '34', '35', '36', '37', '38', '39', '40', '41', '42', '43', '44', '45', '46', '47', '48', '49', '50', '51', '52', '53', '54', '55', '56', '57', '58', '59', '60', '61', '62', '63', '64', '65', '66', '67', '68', '69', '70', '71', '72', '73', '74', '75', '76', '77', '78', '79', '80', '81', '82', '83', '84', '85', '86', '87', '88', '89', '90', '91', '92', '93', '94', '95', '96', '97', '98', '99', '100', '101', '102', '103', '104', '105', '106', '107', '108', '109', '110', '111', '112', '113', '114', '115', '116', '117', '118', '119', '120', '121', '122', '123', '124', '125', '126', '127', '128', '129', '130', '131', '132', '133', '134', '135', '136', '137', '138', '139', '140', '141', '142', '143', '144', '145', '146', '147', '148', '149', '150', '151', '152', '153', '154', '155', '156', '157', '158', '159', '160', '161', '162', '163', '164', '165', '166', '167', '168', '169', '170', '171', '172', '173', '174', '175', '176', '177', '178', '179', '180', '181', '182', '183', '184', '185', '186', '187', '188', '189', '190', '191', '192', '193', '194', '195', '196', '197', '198', '199', '200', '201', '202', '203', '204', '205', '206', '207', '208', '209', '210', '211', '212', '213', '214', '215', '216', '217', '218', '219', '220', '221', '222', '223', '224', '225', '226', '227', '228', '229', '230', '231', '232', '233', '234', '235', '236', '237', '238', '239', '240', '241', '242', '243', '244', '245', '246', '247', '248', '249', '250', '251', '252', '253', '254', '255', '256', '257', '258', '259', '260', '261', '262', '263', '264', '265', '266', '267', '268', '269', '270', '271', '272', '273', '274', '275', '276', '277', '278', '279', '280', '281', '282', '283', '284', '285', '286', '287', '288', '289', '290', '291', '292', '293', '294', '295', '296', '297', '298', '299', '300', '301', '302', '303', '304', '305', '306', '307', '308', '309', '310', '311', '312', '313', '314', '315', '316', '317', '318', '319', '320', '321', '322', '323', '324', '325', '326', '327', '328', '329', '330', '331', '332', '333', '334', '335', '336', '337', '338', '339', '340', '341', '342', '343', '344', '345', '346', '347', '348', '349', '350', '351', '352', '353', '354', '355', '356', '357', '358', '359', '360', '361', '362', '363', '364', '365', '366', '367', '368', '369', '370', '371', '372', '373', '374', '375', '376', '377', '378', '379', '380', '381', '382', '383', '384', '385', '386', '387', '388', '389', '390', '391', '392', '393', '394', '395', '396', '397', '398', '399', '400', '401', '402', '403', '404', '405', '406', '407', '408', '409', '410', '411', '412', '413', '414', '415', '416', '417', '418', '419', '420', '421', '422', '423', '424', '425', '426', '427', '428', '429', '430', '431', '432', '433', '434', '435', '436', '437', '438', '439', '440', '441', '442', '443', '444', '445', '446', '447', '448', '449', '450', '451', '452', '453', '454', '455', '456', '457', '458', '459', '460', '461', '462', '463', '464', '465', '466', '467', '468', '469', '470', '471', '472', '473', '474', '475', '476', '477', '478', '479', '480', '481', '482', '483', '484', '485', '486', '487', '488', '489', '490', '491', '492', '493', '494', '495', '496', '497', '498', '499', '500']",False,1000,True,2,14352eb4b0,0.0,1.0,1.0
