expe,clients,clients_size,clients_subset,agg_size,agg_size_pc,method,days,days_size,days_total,noise_method,time,valid,valid_sum,success,score_avg,score_min,score_max,nsols,oracle,wall_hit,wall_time,pooled,pool_size,uuid,infeasible,optimal,valid_sums
./expes/v2_2021-04-10_issda-30_500-prng-1-w1-p2,30_issda-500,500,first-500,200,40,rng,num-start-400,400,25726,classic,38.47948336601257,True,,True,1.0,1.0,1.0,1,"['1', '2', '3', '5', '7', '12', '14', '15', '16', '17', '18', '23', '29', '33', '37', '43', '45', '47', '49', '52', '53', '56', '61', '62', '67', '69', '84', '87', '88', '89', '91', '93', '96', '98', '103', '106', '108', '111', '113', '114', '117', '118', '119', '120', '125', '131', '137', '138', '146', '149', '152', '156', '158', '163', '170', '171', '177', '178', '181', '183', '187', '188', '190', '192', '195', '196', '197', '200', '202', '207', '208', '212', '213', '214', '217', '219', '222', '225', '229', '231', '235', '236', '241', '242', '246', '247', '249', '250', '251', '254', '256', '257', '258', '259', '260', '261', '263', '264', '266', '267', '271', '276', '277', '278', '281', '282', '283', '284', '285', '288', '292', '296', '297', '300', '301', '302', '303', '304', '308', '312', '314', '315', '320', '323', '326', '329', '332', '333', '334', '338', '340', '341', '344', '345', '346', '347', '352', '357', '360', '361', '365', '370', '371', '372', '374', '376', '378', '380', '381', '390', '391', '392', '393', '395', '398', '399', '402', '403', '404', '409', '411', '412', '415', '417', '419', '421', '425', '428', '429', '431', '434', '435', '436', '437', '439', '441', '446', '452', '454', '458', '459', '462', '466', '467', '470', '472', '473', '475', '477', '480', '481', '482', '484', '487', '488', '489', '491', '496', '497', '499']",False,1000,True,2,81769f6997,0.0,1.0,1.0
./expes/v2_2021-04-10_issda-30_500-prng-1-w1-p2,30_issda-500,500,first-500,250,50,rng,num-start-100,100,25726,classic,1005.3685095310211,False,,False,0,,,0,"['4', '5', '10', '11', '14', '17', '19', '21', '22', '23', '24', '27', '29', '31', '32', '35', '39', '40', '42', '43', '45', '46', '47', '48', '50', '52', '53', '55', '59', '60', '63', '66', '70', '73', '75', '77', '79', '80', '82', '83', '85', '87', '89', '91', '92', '95', '97', '98', '99', '100', '101', '102', '103', '104', '107', '108', '110', '111', '113', '114', '118', '119', '120', '121', '122', '124', '125', '127', '128', '129', '130', '131', '133', '134', '135', '138', '140', '142', '143', '144', '147', '148', '149', '150', '151', '152', '154', '156', '157', '159', '160', '162', '165', '166', '167', '168', '170', '173', '174', '176', '183', '185', '186', '187', '191', '196', '199', '201', '203', '206', '207', '210', '211', '212', '214', '216', '217', '218', '220', '221', '224', '225', '226', '228', '232', '233', '236', '237', '242', '243', '245', '246', '252', '254', '255', '256', '260', '261', '266', '267', '270', '271', '274', '275', '280', '281', '282', '286', '290', '292', '293', '294', '299', '302', '305', '307', '311', '316', '317', '318', '321', '322', '324', '325', '326', '329', '332', '334', '335', '336', '337', '342', '343', '344', '345', '346', '347', '349', '352', '358', '359', '361', '363', '368', '370', '375', '377', '378', '382', '383', '392', '393', '396', '397', '400', '402', '405', '409', '410', '411', '412', '414', '417', '418', '419', '424', '425', '426', '428', '430', '431', '433', '435', '438', '439', '440', '442', '444', '445', '446', '448', '451', '452', '456', '457', '458', '459', '461', '462', '464', '466', '468', '470', '473', '474', '475', '476', '477', '479', '483', '484', '489', '490', '492', '493', '494', '495', '496', '497', '498']",True,1000,True,2,44c3817b34,0.0,0.0,0.0
