expe,clients,clients_size,clients_subset,agg_size,agg_size_pc,method,days,days_size,days_total,noise_method,time,valid,valid_sum,success,score_avg,score_min,score_max,nsols,oracle,wall_hit,wall_time,pooled,pool_size,uuid,infeasible,optimal,valid_sums
./expes/v4_2021-03-18_issda_1000-prng-1-w1-p100-ukn95_98,30_issda-1000,997,first-1000,150,15,rng,num-start-600,600,25726,ukn-95-98,56.17143249511719,False,,False,0.505289630355775,0.4539297013347664,0.9451178700051548,100,"['9', '25', '29', '37', '58', '78', '87', '94', '140', '163', '166', '169', '171', '174', '178', '181', '182', '187', '196', '213', '218', '228', '237', '242', '256', '258', '275', '286', '311', '316', '317', '320', '327', '333', '350', '360', '363', '369', '370', '371', '373', '376', '381', '390', '403', '410', '417', '425', '434', '442', '456', '457', '466', '468', '473', '477', '492', '499', '501', '502', '511', '513', '515', '517', '520', '522', '523', '525', '527', '528', '531', '538', '539', '544', '558', '571', '574', '576', '582', '596', '603', '608', '621', '622', '631', '632', '639', '654', '668', '671', '675', '678', '686', '691', '698', '701', '717', '724', '733', '741', '742', '744', '749', '753', '754', '757', '773', '782', '792', '804', '809', '816', '819', '823', '829', '835', '841', '852', '856', '870', '875', '880', '881', '884', '892', '898', '904', '905', '906', '914', '916', '922', '923', '925', '929', '930', '931', '934', '943', '948', '955', '957', '959', '964', '971', '973', '978', '979', '981', '985']",False,1000,True,100,51aace5531,0.0,1.0,0.0
./expes/v4_2021-03-18_issda_1000-prng-1-w1-p100-ukn95_98,30_issda-1000,994,first-1000,300,30,rng,num-start-200,200,25726,ukn-95-98,17.326287508010864,False,,False,0.3615235562048227,0.22657430144955237,0.9222677925663528,100,"['1', '7', '13', '16', '18', '19', '21', '23', '30', '31', '32', '35', '38', '39', '47', '56', '59', '64', '66', '71', '78', '79', '83', '86', '88', '91', '92', '96', '97', '99', '100', '103', '108', '115', '120', '123', '127', '130', '131', '141', '142', '146', '148', '149', '150', '159', '162', '165', '167', '174', '177', '187', '190', '193', '194', '197', '198', '199', '201', '202', '203', '204', '206', '215', '229', '238', '250', '251', '252', '257', '258', '261', '263', '268', '272', '273', '275', '276', '280', '281', '283', '284', '287', '293', '297', '298', '299', '311', '312', '314', '320', '326', '328', '332', '338', '341', '344', '366', '369', '370', '371', '373', '376', '380', '383', '384', '386', '387', '389', '390', '399', '408', '419', '420', '421', '424', '432', '433', '434', '435', '437', '441', '451', '452', '456', '457', '458', '461', '463', '474', '479', '481', '482', '483', '485', '487', '489', '490', '491', '496', '497', '498', '499', '500', '501', '504', '509', '510', '512', '513', '515', '516', '528', '530', '535', '538', '541', '551', '552', '553', '565', '567', '572', '574', '577', '584', '588', '590', '594', '601', '603', '604', '609', '612', '617', '618', '622', '623', '625', '627', '629', '632', '633', '634', '635', '636', '639', '641', '644', '645', '647', '649', '650', '651', '653', '661', '662', '664', '670', '672', '673', '676', '679', '685', '687', '688', '695', '696', '697', '698', '699', '703', '711', '712', '715', '717', '718', '719', '723', '730', '732', '736', '737', '739', '740', '742', '747', '748', '753', '765', '774', '778', '781', '789', '793', '797', '798', '802', '803', '811', '813', '816', '820', '822', '823', '825', '826', '834', '837', '838', '842', '848', '852', '853', '855', '859', '865', '874', '879', '887', '892', '894', '898', '901', '902', '911', '914', '915', '922', '925', '927', '930', '931', '932', '933', '934', '935', '936', '939', '942', '946', '947', '950', '956', '957', '960', '961', '963', '964', '967', '971', '975', '986', '988', '989', '990', '994', '995', '999', '1000']",False,1000,True,100,f3d26cae32,0.0,1.0,0.0
./expes/v4_2021-03-18_issda_1000-prng-1-w1-p100-ukn95_98,30_issda-1000,995,first-1000,250,25,rng,num-start-100,100,25726,ukn-95-98,9.418189525604248,False,,False,0.4088503679064916,0.2943174031015131,0.9290762304546698,100,"['2', '3', '6', '10', '13', '15', '18', '23', '25', '27', '29', '30', '31', '32', '34', '36', '45', '58', '65', '72', '73', '86', '89', '94', '97', '103', '105', '111', '113', '117', '121', '124', '133', '138', '164', '168', '172', '173', '175', '178', '182', '186', '190', '191', '195', '205', '211', '215', '222', '225', '228', '233', '235', '236', '237', '238', '239', '249', '256', '262', '273', '276', '280', '288', '291', '297', '298', '302', '304', '311', '316', '320', '326', '330', '340', '341', '352', '353', '354', '355', '362', '366', '374', '376', '380', '384', '389', '391', '393', '396', '400', '403', '404', '414', '415', '424', '425', '427', '433', '437', '444', '449', '450', '457', '461', '464', '466', '470', '471', '481', '484', '486', '492', '493', '497', '500', '502', '508', '509', '512', '513', '515', '517', '518', '520', '521', '525', '527', '532', '534', '541', '552', '553', '554', '555', '562', '564', '565', '567', '568', '570', '575', '583', '584', '592', '593', '599', '602', '604', '606', '608', '615', '623', '624', '628', '630', '639', '640', '645', '651', '658', '663', '664', '666', '668', '673', '676', '680', '681', '687', '690', '691', '694', '703', '713', '720', '721', '729', '739', '742', '744', '747', '751', '756', '759', '761', '762', '773', '774', '780', '781', '783', '786', '790', '795', '797', '798', '803', '806', '808', '817', '818', '822', '824', '829', '833', '837', '841', '850', '856', '858', '861', '862', '867', '868', '869', '872', '874', '878', '881', '882', '889', '891', '903', '904', '908', '915', '918', '924', '932', '933', '939', '943', '945', '949', '954', '959', '961', '962', '964', '967', '968', '973', '975', '976', '978', '981', '991', '993', '997']",False,1000,True,100,e93c5de3ff,0.0,1.0,0.0
./expes/v4_2021-03-18_issda_1000-prng-1-w1-p100-ukn95_98,30_issda-1000,993,first-1000,350,35,rng,num-start-400,400,25726,ukn-95-98,34.51947355270386,False,,False,0.32810278818123784,0.16418380628428875,0.9159973118709691,100,"['4', '8', '10', '11', '14', '19', '21', '27', '28', '33', '36', '37', '38', '42', '43', '44', '45', '46', '48', '53', '55', '57', '61', '62', '64', '69', '77', '80', '81', '82', '84', '85', '88', '89', '92', '93', '96', '100', '104', '106', '109', '116', '117', '119', '120', '126', '131', '140', '143', '146', '149', '154', '157', '159', '161', '163', '166', '169', '170', '172', '173', '174', '177', '182', '183', '189', '193', '196', '197', '199', '200', '201', '204', '206', '207', '208', '211', '213', '214', '216', '217', '220', '221', '224', '225', '228', '235', '238', '239', '242', '244', '248', '249', '254', '255', '256', '257', '260', '261', '264', '266', '267', '268', '269', '275', '276', '279', '283', '284', '285', '287', '288', '293', '296', '297', '298', '299', '300', '301', '304', '305', '308', '311', '313', '318', '320', '323', '329', '330', '331', '332', '333', '335', '339', '340', '345', '346', '347', '352', '356', '365', '366', '369', '372', '373', '374', '382', '391', '397', '398', '400', '402', '405', '406', '412', '413', '414', '420', '421', '423', '424', '428', '431', '432', '434', '435', '439', '441', '442', '447', '450', '451', '452', '455', '463', '465', '466', '471', '474', '476', '483', '484', '485', '490', '491', '501', '503', '504', '507', '509', '511', '519', '521', '532', '533', '536', '539', '540', '541', '542', '548', '550', '557', '560', '561', '563', '564', '572', '575', '576', '579', '583', '584', '586', '587', '597', '603', '609', '610', '614', '621', '622', '623', '625', '631', '633', '635', '636', '642', '643', '648', '650', '651', '657', '658', '663', '664', '668', '669', '670', '671', '673', '684', '685', '688', '690', '692', '694', '697', '703', '705', '713', '715', '718', '722', '726', '735', '739', '750', '753', '755', '763', '765', '784', '786', '787', '789', '791', '793', '794', '799', '802', '803', '804', '807', '810', '817', '818', '819', '820', '821', '824', '827', '830', '833', '835', '838', '839', '847', '848', '849', '851', '855', '858', '860', '861', '866', '869', '876', '877', '880', '883', '886', '887', '889', '891', '892', '895', '898', '899', '900', '901', '902', '904', '911', '913', '914', '916', '918', '921', '922', '923', '927', '931', '936', '938', '939', '940', '945', '947', '950', '951', '953', '958', '965', '966', '967', '968', '974', '978', '980', '983', '984', '985', '986', '988', '990', '992', '994', '995']",False,1000,True,100,33e24e53df,0.0,1.0,0.0
./expes/v4_2021-03-18_issda_1000-prng-1-w1-p100-ukn95_98,30_issda-1000,993,first-1000,350,35,rng,num-start-900,900,25726,ukn-95-98,72.75139784812927,False,,False,0.33744201275246366,0.16418380628428875,0.9047499047498572,100,"['2', '5', '6', '9', '17', '19', '20', '21', '22', '25', '26', '29', '32', '33', '35', '37', '38', '42', '45', '47', '51', '53', '58', '59', '61', '62', '70', '76', '78', '79', '83', '85', '87', '90', '94', '96', '97', '99', '103', '104', '105', '108', '109', '114', '116', '118', '119', '122', '125', '131', '135', '140', '144', '148', '155', '156', '158', '161', '163', '165', '166', '169', '171', '174', '175', '177', '178', '181', '182', '186', '187', '189', '196', '197', '204', '213', '214', '216', '218', '223', '225', '228', '231', '233', '234', '237', '238', '239', '242', '247', '251', '253', '254', '256', '257', '258', '260', '261', '262', '263', '266', '269', '271', '273', '275', '280', '286', '292', '293', '297', '311', '314', '316', '317', '318', '320', '324', '327', '333', '336', '346', '350', '353', '354', '360', '363', '369', '370', '371', '372', '373', '375', '376', '381', '382', '383', '390', '394', '395', '402', '403', '405', '410', '412', '417', '419', '421', '423', '425', '429', '430', '434', '436', '442', '445', '456', '457', '459', '460', '463', '465', '466', '468', '473', '475', '476', '477', '485', '492', '498', '499', '501', '502', '503', '511', '513', '515', '517', '520', '521', '522', '523', '524', '525', '527', '528', '531', '532', '534', '535', '536', '538', '539', '544', '549', '558', '565', '571', '572', '574', '576', '582', '586', '589', '596', '599', '603', '604', '606', '608', '620', '621', '622', '626', '629', '631', '632', '637', '639', '640', '643', '651', '653', '654', '658', '668', '669', '671', '675', '677', '678', '680', '686', '687', '689', '691', '698', '699', '701', '702', '704', '707', '709', '717', '723', '724', '726', '727', '732', '733', '734', '735', '741', '742', '744', '747', '749', '753', '754', '757', '758', '761', '763', '766', '769', '772', '773', '774', '778', '779', '782', '785', '792', '794', '800', '804', '808', '809', '811', '814', '816', '819', '820', '822', '823', '826', '829', '832', '833', '835', '841', '845', '846', '852', '856', '859', '861', '870', '875', '880', '881', '884', '892', '896', '897', '898', '902', '903', '904', '905', '906', '909', '911', '914', '916', '920', '922', '923', '924', '925', '929', '930', '931', '934', '938', '939', '941', '943', '944', '948', '952', '955', '957', '958', '959', '961', '964', '967', '971', '973', '978', '979', '981', '982', '983', '984', '985', '987', '994', '995']",False,1000,True,100,e1ef261c7f,0.0,1.0,0.0
./expes/v4_2021-03-18_issda_1000-prng-1-w1-p100-ukn95_98,30_issda-1000,990,first-1000,500,50,rng,num-start-100,100,25726,ukn-95-98,8.661927223205566,False,,False,0.2969648186715471,-0.0005054334414200667,0.8898479770968952,100,"['1', '3', '5', '6', '7', '10', '11', '13', '14', '16', '18', '19', '21', '23', '29', '30', '31', '32', '33', '34', '35', '38', '39', '41', '47', '52', '53', '54', '56', '59', '61', '62', '63', '64', '66', '70', '71', '76', '77', '78', '79', '80', '83', '86', '88', '90', '91', '92', '95', '96', '97', '99', '100', '103', '108', '112', '115', '117', '118', '120', '123', '127', '129', '130', '131', '132', '136', '137', '138', '139', '140', '141', '142', '143', '146', '148', '149', '150', '153', '154', '155', '156', '159', '162', '165', '167', '168', '169', '173', '174', '177', '178', '181', '183', '187', '189', '190', '191', '193', '194', '197', '198', '199', '201', '202', '203', '204', '206', '207', '215', '220', '221', '227', '229', '231', '232', '236', '238', '240', '245', '247', '249', '250', '251', '252', '256', '257', '258', '260', '261', '262', '263', '268', '271', '272', '273', '275', '276', '277', '279', '280', '281', '283', '284', '285', '287', '289', '293', '294', '297', '298', '299', '301', '307', '311', '312', '314', '320', '325', '326', '328', '332', '334', '338', '339', '341', '344', '345', '346', '349', '352', '353', '359', '366', '369', '370', '371', '372', '373', '376', '377', '380', '381', '382', '383', '384', '386', '387', '389', '390', '391', '394', '396', '398', '399', '403', '408', '410', '417', '419', '420', '421', '424', '428', '430', '432', '433', '434', '435', '436', '437', '440', '441', '442', '444', '447', '449', '451', '452', '455', '456', '457', '458', '460', '461', '463', '470', '474', '475', '476', '479', '481', '482', '483', '484', '485', '486', '487', '489', '490', '491', '492', '496', '497', '498', '499', '500', '501', '504', '507', '509', '510', '512', '513', '515', '516', '520', '526', '528', '530', '533', '535', '538', '539', '540', '541', '544', '549', '551', '552', '553', '554', '555', '556', '557', '559', '561', '565', '567', '572', '574', '575', '577', '578', '579', '583', '584', '587', '588', '590', '594', '599', '601', '603', '604', '605', '607', '609', '610', '612', '617', '618', '620', '622', '623', '625', '627', '629', '631', '632', '633', '634', '635', '636', '639', '641', '642', '644', '645', '647', '649', '650', '651', '653', '654', '655', '660', '661', '662', '664', '667', '670', '672', '673', '676', '678', '679', '683', '685', '687', '688', '690', '693', '694', '695', '696', '697', '698', '699', '701', '703', '705', '707', '708', '709', '711', '712', '713', '715', '717', '718', '719', '723', '726', '729', '730', '731', '732', '733', '734', '736', '737', '739', '740', '742', '747', '748', '750', '753', '757', '758', '761', '763', '764', '765', '769', '770', '774', '776', '777', '778', '779', '781', '782', '784', '786', '789', '793', '796', '797', '798', '799', '802', '803', '806', '807', '810', '811', '813', '815', '816', '820', '822', '823', '825', '826', '828', '829', '832', '834', '836', '837', '838', '842', '848', '849', '851', '852', '853', '855', '859', '861', '863', '865', '866', '871', '874', '876', '879', '880', '883', '885', '887', '891', '892', '893', '894', '898', '901', '902', '907', '910', '911', '914', '915', '916', '921', '922', '925', '927', '930', '931', '932', '933', '934', '935', '936', '939', '942', '944', '945', '946', '947', '950', '951', '956', '957', '960', '961', '963', '964', '967', '968', '971', '972', '973', '974', '975', '982', '986', '988', '989', '990', '993', '994', '995', '996', '998', '999', '1000']",False,1000,True,100,5f70c0c7be,0.0,1.0,0.0
