expe,clients,clients_size,clients_subset,agg_size,agg_size_pc,method,days,days_size,days_total,noise_method,time,valid,valid_sum,success,score_avg,score_min,score_max,nsols,oracle,wall_hit,wall_time,pooled,pool_size,uuid,infeasible,optimal,valid_sums
./expes/v4_2021-03-18_issda_1000-prng-1-w1-p100-ukn95_98,30_issda-1000,993,first-1000,350,35,rng,num-start-300,300,25726,ukn-95-98,24.383618593215942,False,,False,0.32287825280182836,0.16418380628428875,0.9159973118709691,100,"['4', '5', '7', '13', '14', '18', '21', '23', '24', '27', '32', '34', '35', '39', '45', '47', '51', '53', '60', '63', '65', '66', '71', '72', '74', '82', '83', '84', '86', '87', '88', '89', '92', '93', '96', '98', '100', '109', '110', '111', '112', '115', '117', '120', '124', '125', '130', '139', '141', '143', '144', '146', '152', '153', '154', '158', '159', '163', '165', '168', '171', '175', '177', '180', '183', '195', '197', '198', '199', '201', '203', '206', '207', '211', '213', '215', '216', '217', '226', '230', '231', '233', '235', '238', '240', '241', '250', '251', '252', '254', '256', '261', '265', '274', '276', '278', '281', '284', '292', '293', '296', '297', '298', '299', '303', '304', '306', '307', '308', '310', '317', '320', '322', '329', '332', '334', '346', '347', '349', '351', '352', '353', '360', '365', '366', '369', '370', '371', '373', '375', '377', '379', '380', '385', '386', '387', '388', '389', '390', '391', '393', '394', '396', '398', '400', '404', '406', '407', '411', '413', '417', '418', '420', '422', '427', '428', '430', '434', '437', '438', '442', '443', '447', '451', '453', '456', '457', '464', '465', '467', '468', '469', '471', '483', '485', '486', '497', '500', '501', '502', '507', '509', '510', '511', '514', '515', '516', '517', '518', '519', '520', '523', '527', '529', '530', '533', '534', '537', '538', '539', '540', '541', '542', '545', '553', '559', '561', '571', '578', '581', '583', '587', '588', '593', '594', '595', '596', '599', '600', '603', '611', '615', '616', '619', '620', '622', '625', '627', '628', '633', '636', '639', '640', '641', '648', '658', '660', '662', '663', '664', '666', '668', '671', '673', '674', '675', '677', '679', '680', '690', '693', '701', '707', '708', '718', '719', '722', '723', '726', '733', '735', '737', '739', '743', '744', '746', '747', '751', '759', '762', '763', '766', '767', '774', '778', '783', '785', '799', '800', '803', '806', '810', '813', '816', '824', '827', '828', '831', '833', '834', '837', '839', '841', '843', '845', '846', '850', '851', '852', '855', '856', '857', '859', '863', '864', '867', '868', '871', '873', '876', '878', '881', '888', '890', '897', '900', '903', '905', '910', '913', '917', '919', '924', '925', '926', '927', '929', '930', '931', '932', '934', '935', '941', '942', '943', '950', '951', '955', '959', '965', '969', '973', '981', '982', '986', '989', '992', '994', '997', '999']",False,1000,True,100,a49361bb79,0.0,1.0,0.0
./expes/v4_2021-03-18_issda_1000-prng-1-w1-p100-ukn95_98,30_issda-1000,997,first-1000,150,15,rng,num-start-1000,1000,25726,ukn-95-98,117.97887468338013,False,,False,0.5137299594987266,0.4880935702971838,0.9451178700051548,100,"['24', '39', '41', '48', '50', '51', '60', '61', '62', '63', '64', '65', '67', '71', '72', '75', '80', '84', '89', '93', '96', '97', '100', '106', '120', '121', '127', '137', '148', '155', '156', '169', '173', '185', '186', '193', '211', '220', '227', '229', '247', '250', '255', '277', '292', '295', '297', '307', '308', '316', '318', '322', '332', '349', '351', '352', '356', '359', '364', '371', '375', '382', '396', '405', '407', '429', '430', '432', '435', '438', '445', '457', '460', '465', '468', '473', '477', '486', '501', '506', '507', '509', '520', '525', '538', '545', '549', '554', '561', '565', '571', '572', '574', '578', '580', '585', '587', '589', '591', '592', '594', '596', '597', '600', '609', '624', '626', '634', '643', '646', '655', '663', '667', '681', '685', '697', '698', '699', '712', '714', '716', '719', '730', '734', '747', '749', '776', '783', '796', '799', '809', '814', '817', '836', '838', '841', '842', '847', '861', '880', '897', '909', '932', '946', '956', '964', '968', '971', '986', '1000']",False,1000,True,100,91a5d48c67,0.0,1.0,0.0
./expes/v4_2021-03-18_issda_1000-prng-1-w1-p100-ukn95_98,30_issda-1000,999,first-1000,50,5,rng,num-start-300,300,25726,ukn-95-98,55.089627265930176,False,,False,0.7004321724209593,0.6850422301425361,0.9683455531083541,100,"['14', '16', '32', '44', '66', '68', '134', '155', '156', '164', '197', '238', '240', '244', '266', '309', '379', '400', '407', '481', '482', '486', '488', '536', '554', '558', '563', '565', '595', '606', '607', '619', '621', '641', '651', '655', '688', '735', '760', '777', '796', '799', '857', '858', '882', '889', '931', '938', '949', '981']",False,1000,True,100,d372deb3e0,0.0,1.0,0.0
./expes/v4_2021-03-18_issda_1000-prng-1-w1-p100-ukn95_98,30_issda-1000,992,first-1000,400,40,rng,num-start-100,100,25726,ukn-95-98,8.575276374816895,False,,False,0.3087646076372515,0.1060241979720572,0.9101520513035235,100,"['2', '4', '5', '8', '12', '14', '16', '21', '22', '23', '28', '30', '32', '33', '34', '35', '36', '37', '44', '46', '47', '48', '51', '52', '53', '55', '57', '62', '63', '65', '66', '68', '69', '70', '71', '74', '79', '82', '88', '89', '91', '100', '105', '106', '107', '108', '111', '117', '122', '123', '124', '126', '127', '128', '129', '130', '131', '132', '133', '134', '135', '137', '138', '140', '142', '155', '156', '160', '161', '164', '168', '174', '176', '182', '183', '188', '190', '192', '196', '197', '203', '204', '205', '217', '223', '224', '227', '228', '230', '231', '233', '238', '240', '242', '244', '245', '246', '251', '255', '258', '259', '265', '266', '270', '271', '272', '274', '276', '278', '281', '286', '287', '292', '294', '296', '298', '299', '301', '306', '308', '309', '311', '312', '318', '321', '322', '323', '324', '328', '330', '331', '335', '336', '337', '339', '341', '342', '345', '348', '349', '350', '353', '354', '355', '360', '361', '362', '369', '370', '373', '375', '379', '386', '387', '390', '396', '397', '399', '400', '405', '407', '410', '418', '420', '421', '424', '426', '427', '430', '432', '434', '438', '439', '441', '442', '445', '446', '447', '448', '449', '456', '462', '468', '472', '476', '478', '481', '482', '485', '486', '488', '489', '493', '494', '495', '496', '500', '502', '507', '513', '515', '516', '518', '520', '523', '525', '528', '531', '532', '533', '534', '536', '538', '540', '543', '547', '548', '549', '550', '554', '555', '557', '558', '562', '563', '565', '569', '573', '581', '582', '583', '585', '586', '588', '589', '591', '594', '595', '599', '600', '601', '603', '604', '606', '607', '610', '615', '616', '619', '620', '621', '624', '626', '627', '630', '631', '633', '635', '636', '638', '641', '642', '643', '644', '648', '649', '650', '651', '655', '658', '660', '663', '666', '670', '672', '679', '688', '689', '692', '693', '695', '696', '698', '699', '701', '707', '711', '713', '715', '716', '724', '730', '731', '732', '733', '734', '735', '736', '737', '738', '741', '746', '753', '756', '760', '764', '766', '772', '775', '777', '780', '788', '791', '794', '796', '798', '799', '802', '806', '807', '808', '811', '813', '815', '820', '821', '823', '824', '826', '827', '830', '831', '832', '833', '837', '840', '844', '848', '852', '853', '854', '857', '858', '859', '865', '871', '875', '876', '877', '878', '879', '882', '883', '884', '885', '887', '888', '889', '891', '894', '900', '902', '903', '905', '907', '909', '911', '912', '919', '922', '926', '927', '931', '935', '938', '940', '943', '944', '945', '947', '949', '950', '952', '959', '962', '964', '966', '972', '973', '978', '981', '982', '984', '987', '988', '989', '995', '996', '997', '999']",False,1000,True,100,68e5c693b2,0.0,1.0,0.0
./expes/v4_2021-03-18_issda_1000-prng-1-w1-p100-ukn95_98,30_issda-1000,991,first-1000,450,45,rng,num-start-600,600,25726,ukn-95-98,49.087249994277954,False,,False,0.3036643989999234,0.05131670194948623,0.894590744661054,100,"['1', '5', '7', '10', '13', '14', '16', '18', '19', '21', '23', '29', '30', '31', '32', '33', '34', '35', '38', '39', '41', '47', '52', '53', '54', '56', '59', '61', '62', '63', '64', '66', '71', '76', '77', '78', '79', '80', '83', '86', '88', '91', '92', '95', '96', '97', '99', '100', '103', '108', '115', '117', '118', '120', '123', '127', '129', '130', '131', '132', '138', '139', '140', '141', '142', '143', '146', '148', '149', '150', '153', '154', '155', '159', '162', '165', '167', '168', '169', '173', '174', '177', '178', '183', '187', '189', '190', '191', '193', '194', '197', '198', '199', '201', '202', '203', '204', '206', '207', '215', '220', '227', '229', '231', '232', '238', '240', '245', '247', '250', '251', '252', '256', '257', '258', '261', '262', '263', '268', '272', '273', '275', '276', '279', '280', '281', '283', '284', '285', '287', '289', '293', '294', '297', '298', '299', '301', '311', '312', '314', '320', '325', '326', '328', '332', '334', '338', '339', '341', '344', '345', '349', '352', '353', '359', '366', '369', '370', '371', '373', '376', '377', '380', '381', '382', '383', '384', '386', '387', '389', '390', '391', '394', '396', '398', '399', '408', '410', '417', '419', '420', '421', '424', '430', '432', '433', '434', '435', '436', '437', '441', '442', '444', '447', '449', '451', '452', '455', '456', '457', '458', '461', '463', '474', '476', '479', '481', '482', '483', '484', '485', '487', '489', '490', '491', '496', '497', '498', '499', '500', '501', '504', '507', '509', '510', '512', '513', '515', '516', '520', '528', '530', '533', '535', '538', '539', '540', '541', '544', '549', '551', '552', '553', '554', '556', '557', '561', '565', '567', '572', '574', '575', '577', '578', '579', '583', '584', '587', '588', '590', '594', '599', '601', '603', '604', '607', '609', '610', '612', '617', '618', '620', '622', '623', '625', '627', '629', '632', '633', '634', '635', '636', '639', '641', '644', '645', '647', '649', '650', '651', '653', '654', '655', '661', '662', '664', '667', '670', '672', '673', '676', '678', '679', '683', '685', '687', '688', '690', '693', '695', '696', '697', '698', '699', '701', '703', '705', '707', '708', '709', '711', '712', '713', '715', '717', '718', '719', '723', '726', '729', '730', '731', '732', '733', '734', '736', '737', '739', '740', '742', '747', '748', '750', '753', '757', '758', '761', '763', '764', '765', '769', '770', '774', '776', '778', '779', '781', '782', '784', '789', '793', '796', '797', '798', '802', '803', '806', '807', '810', '811', '813', '816', '820', '822', '823', '825', '826', '834', '836', '837', '838', '842', '848', '852', '853', '855', '859', '861', '865', '866', '871', '874', '876', '879', '880', '885', '887', '892', '893', '894', '898', '901', '902', '907', '911', '914', '915', '916', '922', '925', '927', '930', '931', '932', '933', '934', '935', '936', '939', '942', '944', '945', '946', '947', '950', '956', '957', '960', '961', '963', '964', '967', '968', '971', '972', '973', '974', '975', '982', '986', '988', '989', '990', '993', '994', '995', '996', '998', '999', '1000']",False,1000,True,100,5b4a457947,0.0,1.0,0.0
