expe,clients,clients_size,clients_subset,agg_size,method,days,days_size,days_total,time,valid,valid_sum,success,nsols,wall_hit,wall_time,pooled,valid_sums
./expes/v2_2020-12-01_dh_2000-prng-1,30_issda_2000,2000,rng-2000,1001,rng,num-start-2001,2001,25726,1134.0892572402954,False,,False,1,True,1000,True,0.0
./expes/v2_2020-12-01_dh_2000-prng-1,30_issda_2000,2000,rng-2000,501,rng,num-start-9001,9001,25726,1682.4098279476166,False,,False,1,True,1000,True,0.0
./expes/v2_2020-12-01_dh_2000-prng-1,30_issda_2000,2000,rng-2000,1001,rng,num-start-1001,1001,25726,1080.445957660675,False,,False,1,True,1000,True,0.0
./expes/v2_2020-12-01_dh_2000-prng-1,30_issda_2000,2000,rng-2000,1501,rng,num-start-12001,12001,25726,1871.9410183429718,False,,False,1,True,1000,True,0.0
./expes/v2_2020-12-01_dh_2000-prng-1,30_issda_2000,2000,rng-2000,1501,rng,num-start-5001,5001,25726,1364.1526720523834,False,,False,1,True,1000,True,0.0
./expes/v2_2020-12-01_dh_2000-prng-1,30_issda_2000,2000,rng-2000,1,rng,num-start-12001,12001,25726,879.1903746128082,True,,True,1,False,1000,True,1.0
./expes/v2_2020-12-01_dh_2000-prng-1,30_issda_2000,2000,rng-2000,1501,rng,num-start-15001,15001,25726,2098.428409099579,False,,False,1,True,1000,True,0.0
./expes/v2_2020-12-01_dh_2000-prng-1,30_issda_2000,2000,rng-2000,1001,rng,num-start-3001,3001,25726,1220.8120312690735,False,,False,1,True,1000,True,0.0
./expes/v2_2020-12-01_dh_2000-prng-1,30_issda_2000,2000,rng-2000,1501,rng,num-start-11001,11001,25726,1805.7359964847565,False,,False,1,True,1000,True,0.0
./expes/v2_2020-12-01_dh_2000-prng-1,30_issda_2000,2000,rng-2000,501,rng,num-start-16001,16001,25726,2181.7279257774353,False,,False,1,True,1000,True,0.0
./expes/v2_2020-12-01_dh_2000-prng-1,30_issda_2000,2000,rng-2000,1001,rng,num-start-6001,6001,25726,1443.7405352592468,False,,False,1,True,1000,True,0.0
./expes/v2_2020-12-01_dh_2000-prng-1,30_issda_2000,2000,rng-2000,1501,rng,num-start-14001,14001,25726,2032.888699054718,False,,False,1,True,1000,True,0.0
./expes/v2_2020-12-01_dh_2000-prng-1,30_issda_2000,2000,rng-2000,1501,rng,num-start-8001,8001,25726,1585.4737000465393,False,,False,1,True,1000,True,0.0
./expes/v2_2020-12-01_dh_2000-prng-1,30_issda_2000,2000,rng-2000,1,rng,num-start-15001,15001,25726,1107.7476599216461,True,,True,1,False,1000,True,1.0
./expes/v2_2020-12-01_dh_2000-prng-1,30_issda_2000,2000,rng-2000,501,rng,num-start-15001,15001,25726,2091.0653898715973,False,,False,1,True,1000,True,0.0
./expes/v2_2020-12-01_dh_2000-prng-1,30_issda_2000,2000,rng-2000,1501,rng,num-start-14001,14001,25726,2017.4489059448242,False,,False,1,True,1000,True,0.0
./expes/v2_2020-12-01_dh_2000-prng-1,30_issda_2000,2000,rng-2000,1,rng,num-start-5001,5001,25726,371.9963619709015,True,,True,1,False,1000,True,1.0
./expes/v2_2020-12-01_dh_2000-prng-1,30_issda_2000,2000,rng-2000,1501,rng,num-start-16001,16001,25726,2170.9100687503815,False,,False,1,True,1000,True,0.0
./expes/v2_2020-12-01_dh_2000-prng-1,30_issda_2000,2000,rng-2000,501,rng,num-start-13001,13001,25726,1951.5556602478027,False,,False,1,True,1000,True,0.0
./expes/v2_2020-12-01_dh_2000-prng-1,30_issda_2000,2000,rng-2000,501,rng,num-start-9001,9001,25726,1654.5724790096283,False,,False,1,True,1000,True,0.0
./expes/v2_2020-12-01_dh_2000-prng-1,30_issda_2000,2000,rng-2000,1001,rng,num-start-15001,15001,25726,2106.7673218250275,False,,False,1,True,1000,True,0.0
./expes/v2_2020-12-01_dh_2000-prng-1,30_issda_2000,2000,rng-2000,1501,rng,num-start-13001,13001,25726,1951.6837675571442,False,,False,1,True,1000,True,0.0
