expe,clients,clients_size,clients_subset,agg_size,method,days,days_size,days_total,time,valid,valid_sum,success,nsols,wall_hit,wall_time,pooled,valid_sums
./expes/v2_2020-11-23_di_250-prng-1,daily_issda_300,300,rng-300,51,rng,num-start-91,91,536,5.862371921539307,True,,True,1,False,1000,True,1.0
./expes/v2_2020-11-23_di_250-prng-1,daily_issda_300,300,rng-300,41,rng,num-start-61,61,536,1001.7862055301666,False,,False,0,True,1000,True,0.0
./expes/v2_2020-11-23_di_250-prng-1,daily_issda_300,300,rng-300,131,rng,num-start-241,241,536,9.662628412246704,True,,True,1,False,1000,True,1.0
./expes/v2_2020-11-23_di_250-prng-1,daily_issda_300,300,rng-300,161,rng,num-start-91,91,536,1002.4951069355011,False,,False,0,True,1000,True,0.0
./expes/v2_2020-11-23_di_250-prng-1,daily_issda_300,300,rng-300,231,rng,num-start-41,41,536,1001.3523919582367,False,,False,0,True,1000,True,0.0
./expes/v2_2020-11-23_di_250-prng-1,daily_issda_300,300,rng-300,11,rng,num-start-51,51,536,1.7519593238830566,True,,True,1,False,1000,True,1.0
./expes/v2_2020-11-23_di_250-prng-1,daily_issda_300,300,rng-300,191,rng,num-start-41,41,536,1001.1879556179047,False,,False,0,True,1000,True,0.0
./expes/v2_2020-11-23_di_250-prng-1,daily_issda_300,300,rng-300,161,rng,num-start-1,1,536,2.974522590637207,False,,False,2,False,1000,True,1.0
./expes/v2_2020-11-23_di_250-prng-1,daily_issda_300,300,rng-300,21,rng,num-start-91,91,536,2.90633487701416,True,,True,1,False,1000,True,1.0
./expes/v2_2020-11-23_di_250-prng-1,daily_issda_300,300,rng-300,51,rng,num-start-281,281,536,9.921703815460205,True,,True,1,False,1000,True,1.0
./expes/v2_2020-11-23_di_250-prng-1,daily_issda_300,300,rng-300,211,rng,num-start-101,101,536,7.8285393714904785,True,,True,1,False,1000,True,1.0
./expes/v2_2020-11-23_di_250-prng-1,daily_issda_300,300,rng-300,131,rng,num-start-221,221,536,8.209721326828003,True,,True,1,False,1000,True,1.0
./expes/v2_2020-11-23_di_250-prng-1,daily_issda_300,300,rng-300,81,rng,num-start-31,31,536,1000.8990345001221,False,,False,0,True,1000,True,0.0
./expes/v2_2020-11-23_di_250-prng-1,daily_issda_300,300,rng-300,191,rng,num-start-171,171,536,6.589908123016357,True,,True,1,False,1000,True,1.0
./expes/v2_2020-11-23_di_250-prng-1,daily_issda_300,300,rng-300,241,rng,num-start-41,41,536,1001.2740805149078,False,,False,0,True,1000,True,0.0
./expes/v2_2020-11-23_di_250-prng-1,daily_issda_300,300,rng-300,251,rng,num-start-291,291,536,9.57620906829834,True,,True,1,False,1000,True,1.0
./expes/v2_2020-11-23_di_250-prng-1,daily_issda_300,300,rng-300,211,rng,num-start-31,31,536,1000.9534125328064,False,,False,0,True,1000,True,0.0
./expes/v2_2020-11-23_di_250-prng-1,daily_issda_300,300,rng-300,111,rng,num-start-291,291,536,9.794194459915161,True,,True,1,False,1000,True,1.0
./expes/v2_2020-11-23_di_250-prng-1,daily_issda_300,300,rng-300,211,rng,num-start-11,11,536,1000.360246181488,False,,False,0,True,1000,True,0.0
./expes/v2_2020-11-23_di_250-prng-1,daily_issda_300,300,rng-300,81,rng,num-start-261,261,536,8.07727336883545,True,,True,1,False,1000,True,1.0
./expes/v2_2020-11-23_di_250-prng-1,daily_issda_300,300,rng-300,71,rng,num-start-231,231,536,7.9218385219573975,True,,True,1,False,1000,True,1.0
./expes/v2_2020-11-23_di_250-prng-1,daily_issda_300,300,rng-300,281,rng,num-start-41,41,536,4.672413110733032,True,,True,1,False,1000,True,1.0
./expes/v2_2020-11-23_di_250-prng-1,daily_issda_300,300,rng-300,51,rng,num-start-61,61,536,1001.7292320728302,False,,False,0,True,1000,True,0.0
./expes/v2_2020-11-23_di_250-prng-1,daily_issda_300,300,rng-300,241,rng,num-start-61,61,536,1001.8464970588684,False,,False,0,True,1000,True,0.0
./expes/v2_2020-11-23_di_250-prng-1,daily_issda_300,300,rng-300,21,rng,num-start-101,101,536,3.191230535507202,True,,True,1,False,1000,True,1.0
./expes/v2_2020-11-23_di_250-prng-1,daily_issda_300,300,rng-300,151,rng,num-start-81,81,536,1002.2485911846161,False,,False,0,True,1000,True,0.0
./expes/v2_2020-11-23_di_250-prng-1,daily_issda_300,300,rng-300,281,rng,num-start-101,101,536,3.258089065551758,True,,True,1,False,1000,True,1.0
./expes/v2_2020-11-23_di_250-prng-1,daily_issda_300,300,rng-300,211,rng,num-start-251,251,536,8.492098808288574,True,,True,1,False,1000,True,1.0
./expes/v2_2020-11-23_di_250-prng-1,daily_issda_300,300,rng-300,231,rng,num-start-61,61,536,1001.8095564842224,False,,False,0,True,1000,True,0.0
./expes/v2_2020-11-23_di_250-prng-1,daily_issda_300,300,rng-300,131,rng,num-start-211,211,536,7.303950786590576,True,,True,1,False,1000,True,1.0
./expes/v2_2020-11-23_di_250-prng-1,daily_issda_300,300,rng-300,111,rng,num-start-41,41,536,1001.1182441711426,False,,False,0,True,1000,True,0.0
./expes/v2_2020-11-23_di_250-prng-1,daily_issda_300,300,rng-300,231,rng,num-start-181,181,536,6.372941732406616,True,,True,1,False,1000,True,1.0
./expes/v2_2020-11-23_di_250-prng-1,daily_issda_300,300,rng-300,61,rng,num-start-241,241,536,7.621708393096924,True,,True,1,False,1000,True,1.0
./expes/v2_2020-11-23_di_250-prng-1,daily_issda_300,300,rng-300,151,rng,num-start-251,251,536,8.848438024520874,True,,True,1,False,1000,True,1.0
./expes/v2_2020-11-23_di_250-prng-1,daily_issda_300,300,rng-300,281,rng,num-start-251,251,536,7.807856321334839,True,,True,1,False,1000,True,1.0
./expes/v2_2020-11-23_di_250-prng-1,daily_issda_300,300,rng-300,121,rng,num-start-21,21,536,1000.6322693824768,False,,False,0,True,1000,True,0.0
./expes/v2_2020-11-23_di_250-prng-1,daily_issda_300,300,rng-300,91,rng,num-start-131,131,536,9.70106840133667,True,,True,1,False,1000,True,1.0
./expes/v2_2020-11-23_di_250-prng-1,daily_issda_300,300,rng-300,221,rng,num-start-181,181,536,6.8155436515808105,True,,True,1,False,1000,True,1.0
./expes/v2_2020-11-23_di_250-prng-1,daily_issda_300,300,rng-300,131,rng,num-start-201,201,536,7.022623777389526,True,,True,1,False,1000,True,1.0
./expes/v2_2020-11-23_di_250-prng-1,daily_issda_300,300,rng-300,11,rng,num-start-171,171,536,5.393458366394043,True,,True,1,False,1000,True,1.0
./expes/v2_2020-11-23_di_250-prng-1,daily_issda_300,300,rng-300,71,rng,num-start-201,201,536,7.073245286941528,True,,True,1,False,1000,True,1.0
./expes/v2_2020-11-23_di_250-prng-1,daily_issda_300,300,rng-300,51,rng,num-start-131,131,536,4.4059202671051025,True,,True,1,False,1000,True,1.0
./expes/v2_2020-11-23_di_250-prng-1,daily_issda_300,300,rng-300,41,rng,num-start-11,11,536,1000.4994285106659,False,,False,0,True,1000,True,0.0
./expes/v2_2020-11-23_di_250-prng-1,daily_issda_300,300,rng-300,41,rng,num-start-101,101,536,7.069042444229126,True,,True,1,False,1000,True,1.0
./expes/v2_2020-11-23_di_250-prng-1,daily_issda_300,300,rng-300,131,rng,num-start-271,271,536,8.810209035873413,True,,True,1,False,1000,True,1.0
./expes/v2_2020-11-23_di_250-prng-1,daily_issda_300,300,rng-300,11,rng,num-start-121,121,536,3.9606828689575195,True,,True,1,False,1000,True,1.0
./expes/v2_2020-11-23_di_250-prng-1,daily_issda_300,300,rng-300,171,rng,num-start-191,191,536,6.734116077423096,True,,True,1,False,1000,True,1.0
./expes/v2_2020-11-23_di_250-prng-1,daily_issda_300,300,rng-300,241,rng,num-start-41,41,536,1001.2238078117371,False,,False,0,True,1000,True,0.0
./expes/v2_2020-11-23_di_250-prng-1,daily_issda_300,300,rng-300,261,rng,num-start-71,71,536,3.569838523864746,True,,True,1,False,1000,True,1.0
./expes/v2_2020-11-23_di_250-prng-1,daily_issda_300,300,rng-300,211,rng,num-start-41,41,536,1001.387523651123,False,,False,0,True,1000,True,0.0
./expes/v2_2020-11-23_di_250-prng-1,daily_issda_300,300,rng-300,271,rng,num-start-91,91,536,2.923593521118164,True,,True,1,False,1000,True,1.0
./expes/v2_2020-11-23_di_250-prng-1,daily_issda_300,300,rng-300,241,rng,num-start-61,61,536,1001.7034163475037,False,,False,0,True,1000,True,0.0
./expes/v2_2020-11-23_di_250-prng-1,daily_issda_300,300,rng-300,191,rng,num-start-101,101,536,1002.7258398532867,False,,False,0,True,1000,True,0.0
./expes/v2_2020-11-23_di_250-prng-1,daily_issda_300,300,rng-300,141,rng,num-start-291,291,536,10.290751218795776,True,,True,1,False,1000,True,1.0
./expes/v2_2020-11-23_di_250-prng-1,daily_issda_300,300,rng-300,41,rng,num-start-221,221,536,7.9167516231536865,True,,True,1,False,1000,True,1.0
./expes/v2_2020-11-23_di_250-prng-1,daily_issda_300,300,rng-300,151,rng,num-start-211,211,536,7.692429542541504,True,,True,1,False,1000,True,1.0
./expes/v2_2020-11-23_di_250-prng-1,daily_issda_300,300,rng-300,101,rng,num-start-111,111,536,1002.9582493305206,False,,False,0,True,1000,True,0.0
./expes/v2_2020-11-23_di_250-prng-1,daily_issda_300,300,rng-300,121,rng,num-start-121,121,536,18.745803833007812,True,,True,1,False,1000,True,1.0
./expes/v2_2020-11-23_di_250-prng-1,daily_issda_300,300,rng-300,61,rng,num-start-51,51,536,1001.4889597892761,False,,False,0,True,1000,True,0.0
./expes/v2_2020-11-23_di_250-prng-1,daily_issda_300,300,rng-300,161,rng,num-start-261,261,536,10.158288478851318,True,,True,1,False,1000,True,1.0
./expes/v2_2020-11-23_di_250-prng-1,daily_issda_300,300,rng-300,261,rng,num-start-191,191,536,5.962600231170654,True,,True,1,False,1000,True,1.0
./expes/v2_2020-11-23_di_250-prng-1,daily_issda_300,300,rng-300,201,rng,num-start-61,61,536,1001.7535724639893,False,,False,0,True,1000,True,0.0
./expes/v2_2020-11-23_di_250-prng-1,daily_issda_300,300,rng-300,221,rng,num-start-71,71,536,1001.9008934497833,False,,False,0,True,1000,True,0.0
./expes/v2_2020-11-23_di_250-prng-1,daily_issda_300,300,rng-300,41,rng,num-start-231,231,536,7.926738262176514,True,,True,1,False,1000,True,1.0
./expes/v2_2020-11-23_di_250-prng-1,daily_issda_300,300,rng-300,51,rng,num-start-71,71,536,898.6436276435852,True,,True,1,False,1000,True,1.0
./expes/v2_2020-11-23_di_250-prng-1,daily_issda_300,300,rng-300,151,rng,num-start-281,281,536,9.795927047729492,True,,True,1,False,1000,True,1.0
./expes/v2_2020-11-23_di_250-prng-1,daily_issda_300,300,rng-300,251,rng,num-start-161,161,536,5.352548360824585,True,,True,1,False,1000,True,1.0
./expes/v2_2020-11-23_di_250-prng-1,daily_issda_300,300,rng-300,131,rng,num-start-101,101,536,1002.7827308177948,False,,False,0,True,1000,True,0.0
./expes/v2_2020-11-23_di_250-prng-1,daily_issda_300,300,rng-300,81,rng,num-start-241,241,536,8.528642654418945,True,,True,1,False,1000,True,1.0
./expes/v2_2020-11-23_di_250-prng-1,daily_issda_300,300,rng-300,161,rng,num-start-91,91,536,1002.545432806015,False,,False,0,True,1000,True,0.0
./expes/v2_2020-11-23_di_250-prng-1,daily_issda_300,300,rng-300,41,rng,num-start-151,151,536,5.172297716140747,True,,True,1,False,1000,True,1.0
./expes/v2_2020-11-23_di_250-prng-1,daily_issda_300,300,rng-300,11,rng,num-start-281,281,536,9.031603336334229,True,,True,1,False,1000,True,1.0
./expes/v2_2020-11-23_di_250-prng-1,daily_issda_300,300,rng-300,221,rng,num-start-31,31,536,1001.0586469173431,False,,False,0,True,1000,True,0.0
./expes/v2_2020-11-23_di_250-prng-1,daily_issda_300,300,rng-300,41,rng,num-start-201,201,536,6.972024202346802,True,,True,1,False,1000,True,1.0
./expes/v2_2020-11-23_di_250-prng-1,daily_issda_300,300,rng-300,1,rng,num-start-211,211,536,5.640708684921265,True,,True,1,False,1000,True,1.0
./expes/v2_2020-11-23_di_250-prng-1,daily_issda_300,300,rng-300,111,rng,num-start-31,31,536,1001.06023478508,False,,False,0,True,1000,True,0.0
./expes/v2_2020-11-23_di_250-prng-1,daily_issda_300,300,rng-300,71,rng,num-start-171,171,536,6.314733028411865,True,,True,1,False,1000,True,1.0
./expes/v2_2020-11-23_di_250-prng-1,daily_issda_300,300,rng-300,111,rng,num-start-71,71,536,1001.9950001239777,False,,False,0,True,1000,True,0.0
./expes/v2_2020-11-23_di_250-prng-1,daily_issda_300,300,rng-300,31,rng,num-start-181,181,536,6.072633981704712,True,,True,1,False,1000,True,1.0
./expes/v2_2020-11-23_di_250-prng-1,daily_issda_300,300,rng-300,121,rng,num-start-181,181,536,6.34177565574646,True,,True,1,False,1000,True,1.0
./expes/v2_2020-11-23_di_250-prng-1,daily_issda_300,300,rng-300,61,rng,num-start-31,31,536,1001.5510756969452,False,,False,0,True,1000,True,0.0
./expes/v2_2020-11-23_di_250-prng-1,daily_issda_300,300,rng-300,31,rng,num-start-21,21,536,1000.6789860725403,False,,False,0,True,1000,True,0.0
./expes/v2_2020-11-23_di_250-prng-1,daily_issda_300,300,rng-300,291,rng,num-start-151,151,536,4.662889242172241,True,,True,1,False,1000,True,1.0
./expes/v2_2020-11-23_di_250-prng-1,daily_issda_300,300,rng-300,181,rng,num-start-41,41,536,1001.2697155475616,False,,False,0,True,1000,True,0.0
./expes/v2_2020-11-23_di_250-prng-1,daily_issda_300,300,rng-300,261,rng,num-start-1,1,536,0.6577608585357666,False,,False,2,False,1000,True,0.0
./expes/v2_2020-11-23_di_250-prng-1,daily_issda_300,300,rng-300,121,rng,num-start-1,1,536,4.0544352531433105,False,,False,2,False,1000,True,1.0
./expes/v2_2020-11-23_di_250-prng-1,daily_issda_300,300,rng-300,121,rng,num-start-171,171,536,6.434981107711792,True,,True,1,False,1000,True,1.0
./expes/v2_2020-11-23_di_250-prng-1,daily_issda_300,300,rng-300,181,rng,num-start-291,291,536,9.9448823928833,True,,True,1,False,1000,True,1.0
./expes/v2_2020-11-23_di_250-prng-1,daily_issda_300,300,rng-300,241,rng,num-start-241,241,536,7.753394603729248,True,,True,1,False,1000,True,1.0
./expes/v2_2020-11-23_di_250-prng-1,daily_issda_300,300,rng-300,221,rng,num-start-191,191,536,6.704928874969482,True,,True,1,False,1000,True,1.0
./expes/v2_2020-11-23_di_250-prng-1,daily_issda_300,300,rng-300,201,rng,num-start-181,181,536,6.207889556884766,True,,True,1,False,1000,True,1.0
./expes/v2_2020-11-23_di_250-prng-1,daily_issda_300,300,rng-300,251,rng,num-start-1,1,536,3.6400959491729736,False,,False,2,False,1000,True,1.0
./expes/v2_2020-11-23_di_250-prng-1,daily_issda_300,300,rng-300,191,rng,num-start-221,221,536,7.992214918136597,True,,True,1,False,1000,True,1.0
./expes/v2_2020-11-23_di_250-prng-1,daily_issda_300,300,rng-300,81,rng,num-start-141,141,536,5.2042834758758545,True,,True,1,False,1000,True,1.0
./expes/v2_2020-11-23_di_250-prng-1,daily_issda_300,300,rng-300,31,rng,num-start-181,181,536,5.702404499053955,True,,True,1,False,1000,True,1.0
./expes/v2_2020-11-23_di_250-prng-1,daily_issda_300,300,rng-300,91,rng,num-start-231,231,536,8.074911117553711,True,,True,1,False,1000,True,1.0
./expes/v2_2020-11-23_di_250-prng-1,daily_issda_300,300,rng-300,161,rng,num-start-231,231,536,10.011665344238281,True,,True,1,False,1000,True,1.0
./expes/v2_2020-11-23_di_250-prng-1,daily_issda_300,300,rng-300,241,rng,num-start-31,31,536,1001.0060813426971,False,,False,0,True,1000,True,0.0
./expes/v2_2020-11-23_di_250-prng-1,daily_issda_300,300,rng-300,91,rng,num-start-131,131,536,5.666099548339844,True,,True,1,False,1000,True,1.0
./expes/v2_2020-11-23_di_250-prng-1,daily_issda_300,300,rng-300,151,rng,num-start-241,241,536,8.909448385238647,True,,True,1,False,1000,True,1.0
./expes/v2_2020-11-23_di_250-prng-1,daily_issda_300,300,rng-300,71,rng,num-start-71,71,536,1001.9322867393494,False,,False,0,True,1000,True,0.0
./expes/v2_2020-11-23_di_250-prng-1,daily_issda_300,300,rng-300,121,rng,num-start-101,101,536,1002.7372391223907,False,,False,0,True,1000,True,0.0
./expes/v2_2020-11-23_di_250-prng-1,daily_issda_300,300,rng-300,111,rng,num-start-101,101,536,50.507731676101685,True,,True,1,False,1000,True,1.0
./expes/v2_2020-11-23_di_250-prng-1,daily_issda_300,300,rng-300,111,rng,num-start-221,221,536,8.728669881820679,True,,True,1,False,1000,True,1.0
./expes/v2_2020-11-23_di_250-prng-1,daily_issda_300,300,rng-300,231,rng,num-start-201,201,536,7.156791687011719,True,,True,1,False,1000,True,1.0
./expes/v2_2020-11-23_di_250-prng-1,daily_issda_300,300,rng-300,161,rng,num-start-21,21,536,1000.6566383838654,False,,False,0,True,1000,True,0.0
./expes/v2_2020-11-23_di_250-prng-1,daily_issda_300,300,rng-300,121,rng,num-start-81,81,536,1002.1861970424652,False,,False,0,True,1000,True,0.0
./expes/v2_2020-11-23_di_250-prng-1,daily_issda_300,300,rng-300,211,rng,num-start-81,81,536,1002.2176878452301,False,,False,0,True,1000,True,0.0
./expes/v2_2020-11-23_di_250-prng-1,daily_issda_300,300,rng-300,11,rng,num-start-141,141,536,4.980921506881714,True,,True,1,False,1000,True,1.0
./expes/v2_2020-11-23_di_250-prng-1,daily_issda_300,300,rng-300,261,rng,num-start-141,141,536,4.293970346450806,True,,True,1,False,1000,True,1.0
./expes/v2_2020-11-23_di_250-prng-1,daily_issda_300,300,rng-300,231,rng,num-start-211,211,536,7.66464900970459,True,,True,1,False,1000,True,1.0
./expes/v2_2020-11-23_di_250-prng-1,daily_issda_300,300,rng-300,61,rng,num-start-231,231,536,7.914362668991089,True,,True,1,False,1000,True,1.0
./expes/v2_2020-11-23_di_250-prng-1,daily_issda_300,300,rng-300,121,rng,num-start-71,71,536,1002.0232086181641,False,,False,0,True,1000,True,0.0
./expes/v2_2020-11-23_di_250-prng-1,daily_issda_300,300,rng-300,241,rng,num-start-261,261,536,8.66368055343628,True,,True,1,False,1000,True,1.0
./expes/v2_2020-11-23_di_250-prng-1,daily_issda_300,300,rng-300,191,rng,num-start-51,51,536,1001.4067077636719,False,,False,0,True,1000,True,0.0
./expes/v2_2020-11-23_di_250-prng-1,daily_issda_300,300,rng-300,81,rng,num-start-291,291,536,10.32411813735962,True,,True,1,False,1000,True,1.0
./expes/v2_2020-11-23_di_250-prng-1,daily_issda_300,300,rng-300,271,rng,num-start-131,131,536,4.086856365203857,True,,True,1,False,1000,True,1.0
./expes/v2_2020-11-23_di_250-prng-1,daily_issda_300,300,rng-300,31,rng,num-start-231,231,536,7.916500568389893,True,,True,1,False,1000,True,1.0
./expes/v2_2020-11-23_di_250-prng-1,daily_issda_300,300,rng-300,1,rng,num-start-261,261,536,6.9256134033203125,True,,True,1,False,1000,True,1.0
./expes/v2_2020-11-23_di_250-prng-1,daily_issda_300,300,rng-300,171,rng,num-start-21,21,536,1000.6223111152649,False,,False,0,True,1000,True,0.0
./expes/v2_2020-11-23_di_250-prng-1,daily_issda_300,300,rng-300,141,rng,num-start-101,101,536,1002.643602848053,False,,False,0,True,1000,True,0.0
./expes/v2_2020-11-23_di_250-prng-1,daily_issda_300,300,rng-300,251,rng,num-start-291,291,536,9.5421302318573,True,,True,1,False,1000,True,1.0
./expes/v2_2020-11-23_di_250-prng-1,daily_issda_300,300,rng-300,11,rng,num-start-111,111,536,3.8290085792541504,True,,True,1,False,1000,True,1.0
./expes/v2_2020-11-23_di_250-prng-1,daily_issda_300,300,rng-300,21,rng,num-start-161,161,536,5.004846811294556,True,,True,1,False,1000,True,1.0
./expes/v2_2020-11-23_di_250-prng-1,daily_issda_300,300,rng-300,31,rng,num-start-161,161,536,5.34453272819519,True,,True,1,False,1000,True,1.0
./expes/v2_2020-11-23_di_250-prng-1,daily_issda_300,300,rng-300,221,rng,num-start-101,101,536,7.931619167327881,True,,True,1,False,1000,True,1.0
./expes/v2_2020-11-23_di_250-prng-1,daily_issda_300,300,rng-300,31,rng,num-start-181,181,536,5.966836929321289,True,,True,1,False,1000,True,1.0
./expes/v2_2020-11-23_di_250-prng-1,daily_issda_300,300,rng-300,141,rng,num-start-141,141,536,8.640981674194336,True,,True,1,False,1000,True,1.0
./expes/v2_2020-11-23_di_250-prng-1,daily_issda_300,300,rng-300,51,rng,num-start-81,81,536,4.221691846847534,True,,True,1,False,1000,True,1.0
./expes/v2_2020-11-23_di_250-prng-1,daily_issda_300,300,rng-300,111,rng,num-start-101,101,536,93.0080292224884,True,,True,1,False,1000,True,1.0
./expes/v2_2020-11-23_di_250-prng-1,daily_issda_300,300,rng-300,31,rng,num-start-31,31,536,1000.9861099720001,False,,False,0,True,1000,True,0.0
./expes/v2_2020-11-23_di_250-prng-1,daily_issda_300,300,rng-300,71,rng,num-start-51,51,536,1001.4352400302887,False,,False,0,True,1000,True,0.0
./expes/v2_2020-11-23_di_250-prng-1,daily_issda_300,300,rng-300,161,rng,num-start-41,41,536,1001.2637991905212,False,,False,0,True,1000,True,0.0
./expes/v2_2020-11-23_di_250-prng-1,daily_issda_300,300,rng-300,211,rng,num-start-121,121,536,4.286745309829712,True,,True,1,False,1000,True,1.0
./expes/v2_2020-11-23_di_250-prng-1,daily_issda_300,300,rng-300,91,rng,num-start-51,51,536,1001.6703372001648,False,,False,0,True,1000,True,0.0
./expes/v2_2020-11-23_di_250-prng-1,daily_issda_300,300,rng-300,191,rng,num-start-41,41,536,1001.2880029678345,False,,False,0,True,1000,True,0.0
./expes/v2_2020-11-23_di_250-prng-1,daily_issda_300,300,rng-300,241,rng,num-start-111,111,536,5.40236496925354,True,,True,1,False,1000,True,1.0
./expes/v2_2020-11-23_di_250-prng-1,daily_issda_300,300,rng-300,251,rng,num-start-121,121,536,4.329668045043945,True,,True,1,False,1000,True,1.0
./expes/v2_2020-11-23_di_250-prng-1,daily_issda_300,300,rng-300,251,rng,num-start-241,241,536,7.770859003067017,True,,True,1,False,1000,True,1.0
./expes/v2_2020-11-23_di_250-prng-1,daily_issda_300,300,rng-300,161,rng,num-start-101,101,536,1002.6773474216461,False,,False,0,True,1000,True,0.0
./expes/v2_2020-11-23_di_250-prng-1,daily_issda_300,300,rng-300,181,rng,num-start-241,241,536,8.301683187484741,True,,True,1,False,1000,True,1.0
./expes/v2_2020-11-23_di_250-prng-1,daily_issda_300,300,rng-300,181,rng,num-start-261,261,536,8.834027767181396,True,,True,1,False,1000,True,1.0
./expes/v2_2020-11-23_di_250-prng-1,daily_issda_300,300,rng-300,161,rng,num-start-151,151,536,5.6919264793396,True,,True,1,False,1000,True,1.0
./expes/v2_2020-11-23_di_250-prng-1,daily_issda_300,300,rng-300,21,rng,num-start-291,291,536,8.942651987075806,True,,True,1,False,1000,True,1.0
./expes/v2_2020-11-23_di_250-prng-1,daily_issda_300,300,rng-300,181,rng,num-start-71,71,536,1001.9448809623718,False,,False,0,True,1000,True,0.0
./expes/v2_2020-11-23_di_250-prng-1,daily_issda_300,300,rng-300,131,rng,num-start-191,191,536,6.305406332015991,True,,True,1,False,1000,True,1.0
./expes/v2_2020-11-23_di_250-prng-1,daily_issda_300,300,rng-300,131,rng,num-start-141,141,536,5.6251747608184814,True,,True,1,False,1000,True,1.0
./expes/v2_2020-11-23_di_250-prng-1,daily_issda_300,300,rng-300,291,rng,num-start-231,231,536,7.003912925720215,True,,True,1,False,1000,True,1.0
./expes/v2_2020-11-23_di_250-prng-1,daily_issda_300,300,rng-300,211,rng,num-start-261,261,536,8.016038179397583,True,,True,1,False,1000,True,1.0
./expes/v2_2020-11-23_di_250-prng-1,daily_issda_300,300,rng-300,191,rng,num-start-81,81,536,1002.2188656330109,False,,False,0,True,1000,True,0.0
./expes/v2_2020-11-23_di_250-prng-1,daily_issda_300,300,rng-300,201,rng,num-start-121,121,536,7.848578929901123,True,,True,1,False,1000,True,1.0
./expes/v2_2020-11-23_di_250-prng-1,daily_issda_300,300,rng-300,61,rng,num-start-141,141,536,4.987871170043945,True,,True,1,False,1000,True,1.0
./expes/v2_2020-11-23_di_250-prng-1,daily_issda_300,300,rng-300,291,rng,num-start-21,21,536,1.0212693214416504,True,,True,1,False,1000,True,1.0
./expes/v2_2020-11-23_di_250-prng-1,daily_issda_300,300,rng-300,91,rng,num-start-181,181,536,6.884474277496338,True,,True,1,False,1000,True,1.0
./expes/v2_2020-11-23_di_250-prng-1,daily_issda_300,300,rng-300,11,rng,num-start-281,281,536,9.418760538101196,True,,True,1,False,1000,True,1.0
./expes/v2_2020-11-23_di_250-prng-1,daily_issda_300,300,rng-300,181,rng,num-start-91,91,536,1002.4690983295441,False,,False,0,True,1000,True,0.0
./expes/v2_2020-11-23_di_250-prng-1,daily_issda_300,300,rng-300,161,rng,num-start-291,291,536,10.004210472106934,True,,True,1,False,1000,True,1.0
./expes/v2_2020-11-23_di_250-prng-1,daily_issda_300,300,rng-300,221,rng,num-start-291,291,536,10.050751209259033,True,,True,1,False,1000,True,1.0
./expes/v2_2020-11-23_di_250-prng-1,daily_issda_300,300,rng-300,171,rng,num-start-181,181,536,6.702152490615845,True,,True,1,False,1000,True,1.0
./expes/v2_2020-11-23_di_250-prng-1,daily_issda_300,300,rng-300,141,rng,num-start-21,21,536,1000.7307231426239,False,,False,0,True,1000,True,0.0
./expes/v2_2020-11-23_di_250-prng-1,daily_issda_300,300,rng-300,1,rng,num-start-261,261,536,6.997970342636108,True,,True,1,False,1000,True,1.0
./expes/v2_2020-11-23_di_250-prng-1,daily_issda_300,300,rng-300,141,rng,num-start-151,151,536,9.1207914352417,True,,True,1,False,1000,True,1.0
./expes/v2_2020-11-23_di_250-prng-1,daily_issda_300,300,rng-300,231,rng,num-start-141,141,536,5.239039421081543,True,,True,1,False,1000,True,1.0
./expes/v2_2020-11-23_di_250-prng-1,daily_issda_300,300,rng-300,1,rng,num-start-101,101,536,2.673703670501709,True,,True,1,False,1000,True,1.0
./expes/v2_2020-11-23_di_250-prng-1,daily_issda_300,300,rng-300,181,rng,num-start-201,201,536,7.246160984039307,True,,True,1,False,1000,True,1.0
./expes/v2_2020-11-23_di_250-prng-1,daily_issda_300,300,rng-300,251,rng,num-start-231,231,536,7.412699222564697,True,,True,1,False,1000,True,1.0
./expes/v2_2020-11-23_di_250-prng-1,daily_issda_300,300,rng-300,231,rng,num-start-71,71,536,1001.940703868866,False,,False,0,True,1000,True,0.0
./expes/v2_2020-11-23_di_250-prng-1,daily_issda_300,300,rng-300,91,rng,num-start-101,101,536,66.26946711540222,True,,True,1,False,1000,True,1.0
./expes/v2_2020-11-23_di_250-prng-1,daily_issda_300,300,rng-300,101,rng,num-start-141,141,536,5.12995171546936,True,,True,1,False,1000,True,1.0
./expes/v2_2020-11-23_di_250-prng-1,daily_issda_300,300,rng-300,1,rng,num-start-11,11,536,0.29245686531066895,True,,True,1,False,1000,True,1.0
./expes/v2_2020-11-23_di_250-prng-1,daily_issda_300,300,rng-300,221,rng,num-start-211,211,536,7.178401231765747,True,,True,1,False,1000,True,1.0
./expes/v2_2020-11-23_di_250-prng-1,daily_issda_300,300,rng-300,111,rng,num-start-221,221,536,8.141266584396362,True,,True,1,False,1000,True,1.0
./expes/v2_2020-11-23_di_250-prng-1,daily_issda_300,300,rng-300,241,rng,num-start-61,61,536,1001.6921696662903,False,,False,0,True,1000,True,0.0
./expes/v2_2020-11-23_di_250-prng-1,daily_issda_300,300,rng-300,181,rng,num-start-1,1,536,1.244682788848877,False,,False,2,False,1000,True,1.0
./expes/v2_2020-11-23_di_250-prng-1,daily_issda_300,300,rng-300,141,rng,num-start-261,261,536,9.241313934326172,True,,True,1,False,1000,True,1.0
./expes/v2_2020-11-23_di_250-prng-1,daily_issda_300,300,rng-300,231,rng,num-start-141,141,536,4.549112319946289,True,,True,1,False,1000,True,1.0
./expes/v2_2020-11-23_di_250-prng-1,daily_issda_300,300,rng-300,161,rng,num-start-31,31,536,1000.8576219081879,False,,False,0,True,1000,True,0.0
./expes/v2_2020-11-23_di_250-prng-1,daily_issda_300,300,rng-300,241,rng,num-start-91,91,536,8.041027069091797,True,,True,1,False,1000,True,1.0
./expes/v2_2020-11-23_di_250-prng-1,daily_issda_300,300,rng-300,171,rng,num-start-11,11,536,1000.3935000896454,False,,False,0,True,1000,True,0.0
./expes/v2_2020-11-23_di_250-prng-1,daily_issda_300,300,rng-300,1,rng,num-start-41,41,536,1.0941603183746338,True,,True,1,False,1000,True,1.0
./expes/v2_2020-11-23_di_250-prng-1,daily_issda_300,300,rng-300,111,rng,num-start-261,261,536,8.409476518630981,True,,True,1,False,1000,True,1.0
./expes/v2_2020-11-23_di_250-prng-1,daily_issda_300,300,rng-300,191,rng,num-start-111,111,536,81.45968914031982,True,,True,1,False,1000,True,1.0
./expes/v2_2020-11-23_di_250-prng-1,daily_issda_300,300,rng-300,151,rng,num-start-121,121,536,10.497373819351196,True,,True,1,False,1000,True,1.0
./expes/v2_2020-11-23_di_250-prng-1,daily_issda_300,300,rng-300,121,rng,num-start-261,261,536,9.627570152282715,True,,True,1,False,1000,True,1.0
./expes/v2_2020-11-23_di_250-prng-1,daily_issda_300,300,rng-300,1,rng,num-start-161,161,536,4.28333592414856,True,,True,1,False,1000,True,1.0
./expes/v2_2020-11-23_di_250-prng-1,daily_issda_300,300,rng-300,161,rng,num-start-241,241,536,8.739336013793945,True,,True,1,False,1000,True,1.0
./expes/v2_2020-11-23_di_250-prng-1,daily_issda_300,300,rng-300,201,rng,num-start-91,91,536,1002.3963010311127,False,,False,0,True,1000,True,0.0
./expes/v2_2020-11-23_di_250-prng-1,daily_issda_300,300,rng-300,31,rng,num-start-161,161,536,5.306840419769287,True,,True,1,False,1000,True,1.0
./expes/v2_2020-11-23_di_250-prng-1,daily_issda_300,300,rng-300,201,rng,num-start-181,181,536,6.35309362411499,True,,True,1,False,1000,True,1.0
./expes/v2_2020-11-23_di_250-prng-1,daily_issda_300,300,rng-300,111,rng,num-start-121,121,536,7.813340187072754,True,,True,1,False,1000,True,1.0
./expes/v2_2020-11-23_di_250-prng-1,daily_issda_300,300,rng-300,51,rng,num-start-171,171,536,6.23244571685791,True,,True,1,False,1000,True,1.0
./expes/v2_2020-11-23_di_250-prng-1,daily_issda_300,300,rng-300,101,rng,num-start-1,1,536,0.47086286544799805,False,,False,2,False,1000,True,0.0
./expes/v2_2020-11-23_di_250-prng-1,daily_issda_300,300,rng-300,161,rng,num-start-171,171,536,5.648343086242676,True,,True,1,False,1000,True,1.0
./expes/v2_2020-11-23_di_250-prng-1,daily_issda_300,300,rng-300,11,rng,num-start-41,41,536,1.5153312683105469,True,,True,1,False,1000,True,1.0
./expes/v2_2020-11-23_di_250-prng-1,daily_issda_300,300,rng-300,191,rng,num-start-271,271,536,9.998845338821411,True,,True,1,False,1000,True,1.0
./expes/v2_2020-11-23_di_250-prng-1,daily_issda_300,300,rng-300,111,rng,num-start-81,81,536,1002.2893214225769,False,,False,0,True,1000,True,0.0
./expes/v2_2020-11-23_di_250-prng-1,daily_issda_300,300,rng-300,51,rng,num-start-261,261,536,7.949682235717773,True,,True,1,False,1000,True,1.0
./expes/v2_2020-11-23_di_250-prng-1,daily_issda_300,300,rng-300,21,rng,num-start-261,261,536,8.090516328811646,True,,True,1,False,1000,True,1.0
./expes/v2_2020-11-23_di_250-prng-1,daily_issda_300,300,rng-300,121,rng,num-start-231,231,536,9.382025957107544,True,,True,1,False,1000,True,1.0
./expes/v2_2020-11-23_di_250-prng-1,daily_issda_300,300,rng-300,231,rng,num-start-61,61,536,1001.7508573532104,False,,False,0,True,1000,True,0.0
./expes/v2_2020-11-23_di_250-prng-1,daily_issda_300,300,rng-300,221,rng,num-start-91,91,536,1002.4508183002472,False,,False,0,True,1000,True,0.0
./expes/v2_2020-11-23_di_250-prng-1,daily_issda_300,300,rng-300,161,rng,num-start-51,51,536,1001.4397349357605,False,,False,0,True,1000,True,0.0
./expes/v2_2020-11-23_di_250-prng-1,daily_issda_300,300,rng-300,201,rng,num-start-71,71,536,1001.9337000846863,False,,False,0,True,1000,True,0.0
./expes/v2_2020-11-23_di_250-prng-1,daily_issda_300,300,rng-300,101,rng,num-start-11,11,536,1000.6321797370911,False,,False,0,True,1000,True,0.0
./expes/v2_2020-11-23_di_250-prng-1,daily_issda_300,300,rng-300,291,rng,num-start-31,31,536,1.6996276378631592,True,,True,1,False,1000,True,1.0
./expes/v2_2020-11-23_di_250-prng-1,daily_issda_300,300,rng-300,141,rng,num-start-11,11,536,1000.3562602996826,False,,False,0,True,1000,True,0.0
