expe,clients,clients_size,clients_subset,agg_size,method,days,days_size,days_total,time,valid,valid_sum,success,nsols,wall_hit,wall_time,pooled,valid_sums
./expes/v2_2020-11-23_di_250-prng-1,daily_issda_300,300,rng-300,271,rng,num-start-231,231,536,6.9614129066467285,True,,True,1,False,1000,True,1.0
./expes/v2_2020-11-23_di_250-prng-1,daily_issda_300,300,rng-300,211,rng,num-start-131,131,536,4.737702131271362,True,,True,1,False,1000,True,1.0
./expes/v2_2020-11-23_di_250-prng-1,daily_issda_300,300,rng-300,71,rng,num-start-281,281,536,8.401927947998047,True,,True,1,False,1000,True,1.0
./expes/v2_2020-11-23_di_250-prng-1,daily_issda_300,300,rng-300,211,rng,num-start-61,61,536,1001.6763639450073,False,,False,0,True,1000,True,0.0
./expes/v2_2020-11-23_di_250-prng-1,daily_issda_300,300,rng-300,81,rng,num-start-81,81,536,1002.3322641849518,False,,False,0,True,1000,True,0.0
./expes/v2_2020-11-23_di_250-prng-1,daily_issda_300,300,rng-300,91,rng,num-start-71,71,536,1001.9358768463135,False,,False,0,True,1000,True,0.0
./expes/v2_2020-11-23_di_250-prng-1,daily_issda_300,300,rng-300,121,rng,num-start-11,11,536,1000.3848865032196,False,,False,0,True,1000,True,0.0
./expes/v2_2020-11-23_di_250-prng-1,daily_issda_300,300,rng-300,61,rng,num-start-201,201,536,8.276018381118774,True,,True,1,False,1000,True,1.0
./expes/v2_2020-11-23_di_250-prng-1,daily_issda_300,300,rng-300,171,rng,num-start-171,171,536,6.588960886001587,True,,True,1,False,1000,True,1.0
./expes/v2_2020-11-23_di_250-prng-1,daily_issda_300,300,rng-300,161,rng,num-start-231,231,536,8.734431266784668,True,,True,1,False,1000,True,1.0
./expes/v2_2020-11-23_di_250-prng-1,daily_issda_300,300,rng-300,131,rng,num-start-111,111,536,22.272913217544556,True,,True,1,False,1000,True,1.0
./expes/v2_2020-11-23_di_250-prng-1,daily_issda_300,300,rng-300,21,rng,num-start-91,91,536,2.7666497230529785,True,,True,1,False,1000,True,1.0
./expes/v2_2020-11-23_di_250-prng-1,daily_issda_300,300,rng-300,1,rng,num-start-21,21,536,0.5397512912750244,True,,True,1,False,1000,True,1.0
./expes/v2_2020-11-23_di_250-prng-1,daily_issda_300,300,rng-300,41,rng,num-start-251,251,536,8.122393131256104,True,,True,1,False,1000,True,1.0
./expes/v2_2020-11-23_di_250-prng-1,daily_issda_300,300,rng-300,151,rng,num-start-71,71,536,1001.8809106349945,False,,False,0,True,1000,True,0.0
./expes/v2_2020-11-23_di_250-prng-1,daily_issda_300,300,rng-300,281,rng,num-start-151,151,536,4.71125340461731,True,,True,1,False,1000,True,1.0
./expes/v2_2020-11-23_di_250-prng-1,daily_issda_300,300,rng-300,51,rng,num-start-201,201,536,6.982625484466553,True,,True,1,False,1000,True,1.0
./expes/v2_2020-11-23_di_250-prng-1,daily_issda_300,300,rng-300,251,rng,num-start-281,281,536,8.737779378890991,True,,True,1,False,1000,True,1.0
./expes/v2_2020-11-23_di_250-prng-1,daily_issda_300,300,rng-300,251,rng,num-start-171,171,536,5.7829272747039795,True,,True,1,False,1000,True,1.0
./expes/v2_2020-11-23_di_250-prng-1,daily_issda_300,300,rng-300,131,rng,num-start-171,171,536,6.235801935195923,True,,True,1,False,1000,True,1.0
./expes/v2_2020-11-23_di_250-prng-1,daily_issda_300,300,rng-300,191,rng,num-start-291,291,536,8.85854983329773,True,,True,1,False,1000,True,1.0
./expes/v2_2020-11-23_di_250-prng-1,daily_issda_300,300,rng-300,261,rng,num-start-241,241,536,7.6151087284088135,True,,True,1,False,1000,True,1.0
./expes/v2_2020-11-23_di_250-prng-1,daily_issda_300,300,rng-300,131,rng,num-start-151,151,536,5.510309457778931,True,,True,1,False,1000,True,1.0
./expes/v2_2020-11-23_di_250-prng-1,daily_issda_300,300,rng-300,241,rng,num-start-91,91,536,5.5193030834198,True,,True,1,False,1000,True,1.0
./expes/v2_2020-11-23_di_250-prng-1,daily_issda_300,300,rng-300,111,rng,num-start-51,51,536,1001.382176399231,False,,False,0,True,1000,True,0.0
./expes/v2_2020-11-23_di_250-prng-1,daily_issda_300,300,rng-300,71,rng,num-start-91,91,536,885.9957721233368,True,,True,1,False,1000,True,1.0
./expes/v2_2020-11-23_di_250-prng-1,daily_issda_300,300,rng-300,61,rng,num-start-181,181,536,6.826242208480835,True,,True,1,False,1000,True,1.0
./expes/v2_2020-11-23_di_250-prng-1,daily_issda_300,300,rng-300,291,rng,num-start-181,181,536,5.7432167530059814,True,,True,1,False,1000,True,1.0
./expes/v2_2020-11-23_di_250-prng-1,daily_issda_300,300,rng-300,101,rng,num-start-171,171,536,6.723708629608154,True,,True,1,False,1000,True,1.0
./expes/v2_2020-11-23_di_250-prng-1,daily_issda_300,300,rng-300,231,rng,num-start-281,281,536,9.45102834701538,True,,True,1,False,1000,True,1.0
./expes/v2_2020-11-23_di_250-prng-1,daily_issda_300,300,rng-300,211,rng,num-start-151,151,536,5.629817485809326,True,,True,1,False,1000,True,1.0
./expes/v2_2020-11-23_di_250-prng-1,daily_issda_300,300,rng-300,51,rng,num-start-31,31,536,1000.9235746860504,False,,False,0,True,1000,True,0.0
./expes/v2_2020-11-23_di_250-prng-1,daily_issda_300,300,rng-300,91,rng,num-start-141,141,536,5.4790260791778564,True,,True,1,False,1000,True,1.0
./expes/v2_2020-11-23_di_250-prng-1,daily_issda_300,300,rng-300,11,rng,num-start-101,101,536,3.8160252571105957,True,,True,1,False,1000,True,1.0
./expes/v2_2020-11-23_di_250-prng-1,daily_issda_300,300,rng-300,211,rng,num-start-61,61,536,1001.8529589176178,False,,False,0,True,1000,True,0.0
./expes/v2_2020-11-23_di_250-prng-1,daily_issda_300,300,rng-300,171,rng,num-start-1,1,536,1.4524259567260742,False,,False,2,False,1000,True,1.0
./expes/v2_2020-11-23_di_250-prng-1,daily_issda_300,300,rng-300,171,rng,num-start-201,201,536,8.015721082687378,True,,True,1,False,1000,True,1.0
./expes/v2_2020-11-23_di_250-prng-1,daily_issda_300,300,rng-300,181,rng,num-start-211,211,536,7.712135314941406,True,,True,1,False,1000,True,1.0
./expes/v2_2020-11-23_di_250-prng-1,daily_issda_300,300,rng-300,51,rng,num-start-281,281,536,9.672689199447632,True,,True,1,False,1000,True,1.0
./expes/v2_2020-11-23_di_250-prng-1,daily_issda_300,300,rng-300,251,rng,num-start-221,221,536,7.513253927230835,True,,True,1,False,1000,True,1.0
./expes/v2_2020-11-23_di_250-prng-1,daily_issda_300,300,rng-300,231,rng,num-start-51,51,536,1001.5931165218353,False,,False,0,True,1000,True,0.0
./expes/v2_2020-11-23_di_250-prng-1,daily_issda_300,300,rng-300,211,rng,num-start-51,51,536,1001.4709665775299,False,,False,0,True,1000,True,0.0
./expes/v2_2020-11-23_di_250-prng-1,daily_issda_300,300,rng-300,191,rng,num-start-121,121,536,8.716041564941406,True,,True,1,False,1000,True,1.0
./expes/v2_2020-11-23_di_250-prng-1,daily_issda_300,300,rng-300,41,rng,num-start-161,161,536,5.48076319694519,True,,True,1,False,1000,True,1.0
./expes/v2_2020-11-23_di_250-prng-1,daily_issda_300,300,rng-300,131,rng,num-start-141,141,536,8.599195003509521,True,,True,1,False,1000,True,1.0
./expes/v2_2020-11-23_di_250-prng-1,daily_issda_300,300,rng-300,51,rng,num-start-161,161,536,5.220945358276367,True,,True,1,False,1000,True,1.0
./expes/v2_2020-11-23_di_250-prng-1,daily_issda_300,300,rng-300,281,rng,num-start-51,51,536,2.3897039890289307,True,,True,1,False,1000,True,1.0
./expes/v2_2020-11-23_di_250-prng-1,daily_issda_300,300,rng-300,71,rng,num-start-71,71,536,1001.9043529033661,False,,False,0,True,1000,True,0.0
./expes/v2_2020-11-23_di_250-prng-1,daily_issda_300,300,rng-300,131,rng,num-start-211,211,536,8.297079086303711,True,,True,1,False,1000,True,1.0
./expes/v2_2020-11-23_di_250-prng-1,daily_issda_300,300,rng-300,161,rng,num-start-21,21,536,1001.08198595047,False,,False,0,True,1000,True,0.0
./expes/v2_2020-11-23_di_250-prng-1,daily_issda_300,300,rng-300,251,rng,num-start-161,161,536,5.369226932525635,True,,True,1,False,1000,True,1.0
./expes/v2_2020-11-23_di_250-prng-1,daily_issda_300,300,rng-300,31,rng,num-start-91,91,536,3.7555081844329834,True,,True,1,False,1000,True,1.0
./expes/v2_2020-11-23_di_250-prng-1,daily_issda_300,300,rng-300,191,rng,num-start-11,11,536,1000.4193363189697,False,,False,0,True,1000,True,0.0
./expes/v2_2020-11-23_di_250-prng-1,daily_issda_300,300,rng-300,101,rng,num-start-161,161,536,6.018384695053101,True,,True,1,False,1000,True,1.0
./expes/v2_2020-11-23_di_250-prng-1,daily_issda_300,300,rng-300,201,rng,num-start-211,211,536,7.918806552886963,True,,True,1,False,1000,True,1.0
./expes/v2_2020-11-23_di_250-prng-1,daily_issda_300,300,rng-300,271,rng,num-start-271,271,536,7.977624893188477,True,,True,1,False,1000,True,1.0
./expes/v2_2020-11-23_di_250-prng-1,daily_issda_300,300,rng-300,171,rng,num-start-171,171,536,6.557698965072632,True,,True,1,False,1000,True,1.0
./expes/v2_2020-11-23_di_250-prng-1,daily_issda_300,300,rng-300,121,rng,num-start-81,81,536,1002.2493736743927,False,,False,0,True,1000,True,0.0
./expes/v2_2020-11-23_di_250-prng-1,daily_issda_300,300,rng-300,161,rng,num-start-131,131,536,9.095183849334717,True,,True,1,False,1000,True,1.0
./expes/v2_2020-11-23_di_250-prng-1,daily_issda_300,300,rng-300,271,rng,num-start-41,41,536,1001.2820463180542,False,,False,0,True,1000,True,0.0
./expes/v2_2020-11-23_di_250-prng-1,daily_issda_300,300,rng-300,71,rng,num-start-141,141,536,5.230022430419922,True,,True,1,False,1000,True,1.0
./expes/v2_2020-11-23_di_250-prng-1,daily_issda_300,300,rng-300,61,rng,num-start-121,121,536,6.19043493270874,True,,True,1,False,1000,True,1.0
./expes/v2_2020-11-23_di_250-prng-1,daily_issda_300,300,rng-300,11,rng,num-start-201,201,536,6.836800575256348,True,,True,1,False,1000,True,1.0
./expes/v2_2020-11-23_di_250-prng-1,daily_issda_300,300,rng-300,241,rng,num-start-221,221,536,7.746277093887329,True,,True,1,False,1000,True,1.0
./expes/v2_2020-11-23_di_250-prng-1,daily_issda_300,300,rng-300,81,rng,num-start-231,231,536,7.7323527336120605,True,,True,1,False,1000,True,1.0
./expes/v2_2020-11-23_di_250-prng-1,daily_issda_300,300,rng-300,131,rng,num-start-161,161,536,6.0895702838897705,True,,True,1,False,1000,True,1.0
./expes/v2_2020-11-23_di_250-prng-1,daily_issda_300,300,rng-300,1,rng,num-start-261,261,536,7.163926601409912,True,,True,1,False,1000,True,1.0
./expes/v2_2020-11-23_di_250-prng-1,daily_issda_300,300,rng-300,51,rng,num-start-91,91,536,5.374554872512817,True,,True,1,False,1000,True,1.0
./expes/v2_2020-11-23_di_250-prng-1,daily_issda_300,300,rng-300,201,rng,num-start-71,71,536,1001.9625978469849,False,,False,0,True,1000,True,0.0
./expes/v2_2020-11-23_di_250-prng-1,daily_issda_300,300,rng-300,191,rng,num-start-41,41,536,1001.4954109191895,False,,False,0,True,1000,True,0.0
./expes/v2_2020-11-23_di_250-prng-1,daily_issda_300,300,rng-300,131,rng,num-start-101,101,536,88.9382975101471,True,,True,1,False,1000,True,1.0
./expes/v2_2020-11-23_di_250-prng-1,daily_issda_300,300,rng-300,1,rng,num-start-251,251,536,6.548555135726929,True,,True,1,False,1000,True,1.0
./expes/v2_2020-11-23_di_250-prng-1,daily_issda_300,300,rng-300,281,rng,num-start-181,181,536,5.841306209564209,True,,True,1,False,1000,True,1.0
./expes/v2_2020-11-23_di_250-prng-1,daily_issda_300,300,rng-300,41,rng,num-start-71,71,536,3.6775429248809814,True,,True,1,False,1000,True,1.0
./expes/v2_2020-11-23_di_250-prng-1,daily_issda_300,300,rng-300,231,rng,num-start-71,71,536,1001.886656999588,False,,False,0,True,1000,True,0.0
./expes/v2_2020-11-23_di_250-prng-1,daily_issda_300,300,rng-300,201,rng,num-start-121,121,536,7.839510679244995,True,,True,1,False,1000,True,1.0
./expes/v2_2020-11-23_di_250-prng-1,daily_issda_300,300,rng-300,161,rng,num-start-161,161,536,6.627685546875,True,,True,1,False,1000,True,1.0
./expes/v2_2020-11-23_di_250-prng-1,daily_issda_300,300,rng-300,61,rng,num-start-31,31,536,1001.6023509502411,False,,False,0,True,1000,True,0.0
./expes/v2_2020-11-23_di_250-prng-1,daily_issda_300,300,rng-300,41,rng,num-start-121,121,536,4.14730429649353,True,,True,1,False,1000,True,1.0
./expes/v2_2020-11-23_di_250-prng-1,daily_issda_300,300,rng-300,81,rng,num-start-271,271,536,10.543795347213745,True,,True,1,False,1000,True,1.0
./expes/v2_2020-11-23_di_250-prng-1,daily_issda_300,300,rng-300,91,rng,num-start-31,31,536,1000.9600310325623,False,,False,0,True,1000,True,0.0
./expes/v2_2020-11-23_di_250-prng-1,daily_issda_300,300,rng-300,1,rng,num-start-271,271,536,6.980801343917847,True,,True,1,False,1000,True,1.0
./expes/v2_2020-11-23_di_250-prng-1,daily_issda_300,300,rng-300,271,rng,num-start-31,31,536,1001.3918793201447,False,,False,0,True,1000,True,0.0
./expes/v2_2020-11-23_di_250-prng-1,daily_issda_300,300,rng-300,201,rng,num-start-21,21,536,1000.8914813995361,False,,False,0,True,1000,True,0.0
./expes/v2_2020-11-23_di_250-prng-1,daily_issda_300,300,rng-300,171,rng,num-start-41,41,536,1001.1729638576508,False,,False,0,True,1000,True,0.0
./expes/v2_2020-11-23_di_250-prng-1,daily_issda_300,300,rng-300,181,rng,num-start-201,201,536,8.60567569732666,True,,True,1,False,1000,True,1.0
./expes/v2_2020-11-23_di_250-prng-1,daily_issda_300,300,rng-300,231,rng,num-start-141,141,536,5.270667552947998,True,,True,1,False,1000,True,1.0
./expes/v2_2020-11-23_di_250-prng-1,daily_issda_300,300,rng-300,41,rng,num-start-211,211,536,7.192131042480469,True,,True,1,False,1000,True,1.0
./expes/v2_2020-11-23_di_250-prng-1,daily_issda_300,300,rng-300,21,rng,num-start-111,111,536,3.770136594772339,True,,True,1,False,1000,True,1.0
./expes/v2_2020-11-23_di_250-prng-1,daily_issda_300,300,rng-300,141,rng,num-start-291,291,536,11.187778949737549,True,,True,1,False,1000,True,1.0
./expes/v2_2020-11-23_di_250-prng-1,daily_issda_300,300,rng-300,71,rng,num-start-171,171,536,6.136024475097656,True,,True,1,False,1000,True,1.0
./expes/v2_2020-11-23_di_250-prng-1,daily_issda_300,300,rng-300,221,rng,num-start-151,151,536,5.288421154022217,True,,True,1,False,1000,True,1.0
./expes/v2_2020-11-23_di_250-prng-1,daily_issda_300,300,rng-300,121,rng,num-start-231,231,536,9.350451946258545,True,,True,1,False,1000,True,1.0
./expes/v2_2020-11-23_di_250-prng-1,daily_issda_300,300,rng-300,221,rng,num-start-101,101,536,10.5031418800354,True,,True,1,False,1000,True,1.0
./expes/v2_2020-11-23_di_250-prng-1,daily_issda_300,300,rng-300,101,rng,num-start-231,231,536,7.860234975814819,True,,True,1,False,1000,True,1.0
./expes/v2_2020-11-23_di_250-prng-1,daily_issda_300,300,rng-300,31,rng,num-start-281,281,536,11.280705690383911,True,,True,1,False,1000,True,1.0
./expes/v2_2020-11-23_di_250-prng-1,daily_issda_300,300,rng-300,251,rng,num-start-11,11,536,1000.4378461837769,False,,False,0,True,1000,True,0.0
./expes/v2_2020-11-23_di_250-prng-1,daily_issda_300,300,rng-300,201,rng,num-start-161,161,536,5.342117786407471,True,,True,1,False,1000,True,1.0
./expes/v2_2020-11-23_di_250-prng-1,daily_issda_300,300,rng-300,41,rng,num-start-261,261,536,8.175621271133423,True,,True,1,False,1000,True,1.0
./expes/v2_2020-11-23_di_250-prng-1,daily_issda_300,300,rng-300,231,rng,num-start-81,81,536,7.4006712436676025,True,,True,1,False,1000,True,1.0
./expes/v2_2020-11-23_di_250-prng-1,daily_issda_300,300,rng-300,261,rng,num-start-241,241,536,7.697280406951904,True,,True,1,False,1000,True,1.0
./expes/v2_2020-11-23_di_250-prng-1,daily_issda_300,300,rng-300,281,rng,num-start-221,221,536,6.930596351623535,True,,True,1,False,1000,True,1.0
./expes/v2_2020-11-23_di_250-prng-1,daily_issda_300,300,rng-300,141,rng,num-start-201,201,536,6.9315855503082275,True,,True,1,False,1000,True,1.0
./expes/v2_2020-11-23_di_250-prng-1,daily_issda_300,300,rng-300,191,rng,num-start-161,161,536,6.534746885299683,True,,True,1,False,1000,True,1.0
./expes/v2_2020-11-23_di_250-prng-1,daily_issda_300,300,rng-300,61,rng,num-start-201,201,536,6.874220371246338,True,,True,1,False,1000,True,1.0
./expes/v2_2020-11-23_di_250-prng-1,daily_issda_300,300,rng-300,81,rng,num-start-81,81,536,1002.1385312080383,False,,False,0,True,1000,True,0.0
./expes/v2_2020-11-23_di_250-prng-1,daily_issda_300,300,rng-300,211,rng,num-start-251,251,536,9.609344959259033,True,,True,1,False,1000,True,1.0
./expes/v2_2020-11-23_di_250-prng-1,daily_issda_300,300,rng-300,291,rng,num-start-151,151,536,5.217603921890259,True,,True,1,False,1000,True,1.0
./expes/v2_2020-11-23_di_250-prng-1,daily_issda_300,300,rng-300,151,rng,num-start-221,221,536,8.7733793258667,True,,True,1,False,1000,True,1.0
./expes/v2_2020-11-23_di_250-prng-1,daily_issda_300,300,rng-300,191,rng,num-start-211,211,536,8.006472110748291,True,,True,1,False,1000,True,1.0
./expes/v2_2020-11-23_di_250-prng-1,daily_issda_300,300,rng-300,31,rng,num-start-51,51,536,1001.5938727855682,False,,False,0,True,1000,True,0.0
./expes/v2_2020-11-23_di_250-prng-1,daily_issda_300,300,rng-300,11,rng,num-start-91,91,536,2.787661075592041,True,,True,1,False,1000,True,1.0
./expes/v2_2020-11-23_di_250-prng-1,daily_issda_300,300,rng-300,211,rng,num-start-231,231,536,7.885846138000488,True,,True,1,False,1000,True,1.0
./expes/v2_2020-11-23_di_250-prng-1,daily_issda_300,300,rng-300,201,rng,num-start-11,11,536,1000.477370262146,False,,False,0,True,1000,True,0.0
./expes/v2_2020-11-23_di_250-prng-1,daily_issda_300,300,rng-300,291,rng,num-start-71,71,536,2.123244285583496,True,,True,1,False,1000,True,1.0
./expes/v2_2020-11-23_di_250-prng-1,daily_issda_300,300,rng-300,241,rng,num-start-251,251,536,8.483046054840088,True,,True,1,False,1000,True,1.0
./expes/v2_2020-11-23_di_250-prng-1,daily_issda_300,300,rng-300,81,rng,num-start-41,41,536,1001.3853242397308,False,,False,0,True,1000,True,0.0
./expes/v2_2020-11-23_di_250-prng-1,daily_issda_300,300,rng-300,141,rng,num-start-241,241,536,9.043217658996582,True,,True,1,False,1000,True,1.0
./expes/v2_2020-11-23_di_250-prng-1,daily_issda_300,300,rng-300,181,rng,num-start-201,201,536,6.943847417831421,True,,True,1,False,1000,True,1.0
./expes/v2_2020-11-23_di_250-prng-1,daily_issda_300,300,rng-300,81,rng,num-start-71,71,536,1001.8862419128418,False,,False,0,True,1000,True,0.0
./expes/v2_2020-11-23_di_250-prng-1,daily_issda_300,300,rng-300,11,rng,num-start-201,201,536,7.2136921882629395,True,,True,1,False,1000,True,1.0
./expes/v2_2020-11-23_di_250-prng-1,daily_issda_300,300,rng-300,171,rng,num-start-231,231,536,9.266946077346802,True,,True,1,False,1000,True,1.0
./expes/v2_2020-11-23_di_250-prng-1,daily_issda_300,300,rng-300,51,rng,num-start-31,31,536,1001.0409622192383,False,,False,0,True,1000,True,0.0
./expes/v2_2020-11-23_di_250-prng-1,daily_issda_300,300,rng-300,131,rng,num-start-221,221,536,8.129520893096924,True,,True,1,False,1000,True,1.0
./expes/v2_2020-11-23_di_250-prng-1,daily_issda_300,300,rng-300,161,rng,num-start-231,231,536,7.8905839920043945,True,,True,1,False,1000,True,1.0
./expes/v2_2020-11-23_di_250-prng-1,daily_issda_300,300,rng-300,101,rng,num-start-81,81,536,1002.1489944458008,False,,False,0,True,1000,True,0.0
./expes/v2_2020-11-23_di_250-prng-1,daily_issda_300,300,rng-300,211,rng,num-start-221,221,536,7.295361757278442,True,,True,1,False,1000,True,1.0
./expes/v2_2020-11-23_di_250-prng-1,daily_issda_300,300,rng-300,221,rng,num-start-121,121,536,5.7988386154174805,True,,True,1,False,1000,True,1.0
./expes/v2_2020-11-23_di_250-prng-1,daily_issda_300,300,rng-300,91,rng,num-start-61,61,536,1001.7453234195709,False,,False,0,True,1000,True,0.0
./expes/v2_2020-11-23_di_250-prng-1,daily_issda_300,300,rng-300,21,rng,num-start-191,191,536,6.328130006790161,True,,True,1,False,1000,True,1.0
./expes/v2_2020-11-23_di_250-prng-1,daily_issda_300,300,rng-300,61,rng,num-start-81,81,536,1002.1854596138,False,,False,0,True,1000,True,0.0
./expes/v2_2020-11-23_di_250-prng-1,daily_issda_300,300,rng-300,1,rng,num-start-241,241,536,6.70043683052063,True,,True,1,False,1000,True,1.0
./expes/v2_2020-11-23_di_250-prng-1,daily_issda_300,300,rng-300,201,rng,num-start-71,71,536,1002.1581246852875,False,,False,0,True,1000,True,0.0
./expes/v2_2020-11-23_di_250-prng-1,daily_issda_300,300,rng-300,171,rng,num-start-141,141,536,9.676126956939697,True,,True,1,False,1000,True,1.0
./expes/v2_2020-11-23_di_250-prng-1,daily_issda_300,300,rng-300,91,rng,num-start-171,171,536,7.434084892272949,True,,True,1,False,1000,True,1.0
./expes/v2_2020-11-23_di_250-prng-1,daily_issda_300,300,rng-300,211,rng,num-start-111,111,536,9.302337646484375,True,,True,1,False,1000,True,1.0
./expes/v2_2020-11-23_di_250-prng-1,daily_issda_300,300,rng-300,141,rng,num-start-111,111,536,33.16679835319519,True,,True,1,False,1000,True,1.0
./expes/v2_2020-11-23_di_250-prng-1,daily_issda_300,300,rng-300,31,rng,num-start-131,131,536,4.358927249908447,True,,True,1,False,1000,True,1.0
./expes/v2_2020-11-23_di_250-prng-1,daily_issda_300,300,rng-300,251,rng,num-start-231,231,536,7.9208760261535645,True,,True,1,False,1000,True,1.0
./expes/v2_2020-11-23_di_250-prng-1,daily_issda_300,300,rng-300,231,rng,num-start-291,291,536,10.26921033859253,True,,True,1,False,1000,True,1.0
./expes/v2_2020-11-23_di_250-prng-1,daily_issda_300,300,rng-300,281,rng,num-start-231,231,536,7.033982753753662,True,,True,1,False,1000,True,1.0
./expes/v2_2020-11-23_di_250-prng-1,daily_issda_300,300,rng-300,171,rng,num-start-241,241,536,8.924907684326172,True,,True,1,False,1000,True,1.0
./expes/v2_2020-11-23_di_250-prng-1,daily_issda_300,300,rng-300,161,rng,num-start-181,181,536,6.799241781234741,True,,True,1,False,1000,True,1.0
./expes/v2_2020-11-23_di_250-prng-1,daily_issda_300,300,rng-300,101,rng,num-start-101,101,536,9.248950481414795,True,,True,1,False,1000,True,1.0
./expes/v2_2020-11-23_di_250-prng-1,daily_issda_300,300,rng-300,291,rng,num-start-81,81,536,2.6395695209503174,True,,True,1,False,1000,True,1.0
./expes/v2_2020-11-23_di_250-prng-1,daily_issda_300,300,rng-300,231,rng,num-start-261,261,536,8.650710582733154,True,,True,1,False,1000,True,1.0
./expes/v2_2020-11-23_di_250-prng-1,daily_issda_300,300,rng-300,241,rng,num-start-221,221,536,7.4455273151397705,True,,True,1,False,1000,True,1.0
./expes/v2_2020-11-23_di_250-prng-1,daily_issda_300,300,rng-300,111,rng,num-start-31,31,536,1000.9603669643402,False,,False,0,True,1000,True,0.0
./expes/v2_2020-11-23_di_250-prng-1,daily_issda_300,300,rng-300,201,rng,num-start-201,201,536,7.389086961746216,True,,True,1,False,1000,True,1.0
./expes/v2_2020-11-23_di_250-prng-1,daily_issda_300,300,rng-300,241,rng,num-start-121,121,536,4.144131660461426,True,,True,1,False,1000,True,1.0
./expes/v2_2020-11-23_di_250-prng-1,daily_issda_300,300,rng-300,81,rng,num-start-51,51,536,1001.5742046833038,False,,False,0,True,1000,True,0.0
./expes/v2_2020-11-23_di_250-prng-1,daily_issda_300,300,rng-300,121,rng,num-start-31,31,536,1001.1407163143158,False,,False,0,True,1000,True,0.0
./expes/v2_2020-11-23_di_250-prng-1,daily_issda_300,300,rng-300,11,rng,num-start-31,31,536,1.8337767124176025,True,,True,1,False,1000,True,1.0
./expes/v2_2020-11-23_di_250-prng-1,daily_issda_300,300,rng-300,111,rng,num-start-241,241,536,9.169196605682373,True,,True,1,False,1000,True,1.0
./expes/v2_2020-11-23_di_250-prng-1,daily_issda_300,300,rng-300,131,rng,num-start-31,31,536,1001.1054449081421,False,,False,0,True,1000,True,0.0
./expes/v2_2020-11-23_di_250-prng-1,daily_issda_300,300,rng-300,141,rng,num-start-151,151,536,6.86643123626709,True,,True,1,False,1000,True,1.0
./expes/v2_2020-11-23_di_250-prng-1,daily_issda_300,300,rng-300,51,rng,num-start-291,291,536,10.496128559112549,True,,True,1,False,1000,True,1.0
./expes/v2_2020-11-23_di_250-prng-1,daily_issda_300,300,rng-300,281,rng,num-start-31,31,536,1002.3221793174744,False,,False,0,True,1000,True,0.0
./expes/v2_2020-11-23_di_250-prng-1,daily_issda_300,300,rng-300,121,rng,num-start-211,211,536,7.875,True,,True,1,False,1000,True,1.0
./expes/v2_2020-11-23_di_250-prng-1,daily_issda_300,300,rng-300,71,rng,num-start-171,171,536,6.165440797805786,True,,True,1,False,1000,True,1.0
./expes/v2_2020-11-23_di_250-prng-1,daily_issda_300,300,rng-300,201,rng,num-start-61,61,536,1001.730042219162,False,,False,0,True,1000,True,0.0
./expes/v2_2020-11-23_di_250-prng-1,daily_issda_300,300,rng-300,111,rng,num-start-291,291,536,10.885462522506714,True,,True,1,False,1000,True,1.0
./expes/v2_2020-11-23_di_250-prng-1,daily_issda_300,300,rng-300,151,rng,num-start-131,131,536,10.797523260116577,True,,True,1,False,1000,True,1.0
./expes/v2_2020-11-23_di_250-prng-1,daily_issda_300,300,rng-300,231,rng,num-start-141,141,536,4.696868419647217,True,,True,1,False,1000,True,1.0
./expes/v2_2020-11-23_di_250-prng-1,daily_issda_300,300,rng-300,151,rng,num-start-281,281,536,9.982540845870972,True,,True,1,False,1000,True,1.0
./expes/v2_2020-11-23_di_250-prng-1,daily_issda_300,300,rng-300,1,rng,num-start-211,211,536,5.814618110656738,True,,True,1,False,1000,True,1.0
./expes/v2_2020-11-23_di_250-prng-1,daily_issda_300,300,rng-300,11,rng,num-start-231,231,536,7.351180791854858,True,,True,1,False,1000,True,1.0
./expes/v2_2020-11-23_di_250-prng-1,daily_issda_300,300,rng-300,51,rng,num-start-161,161,536,5.472760438919067,True,,True,1,False,1000,True,1.0
./expes/v2_2020-11-23_di_250-prng-1,daily_issda_300,300,rng-300,171,rng,num-start-11,11,536,1000.4660310745239,False,,False,0,True,1000,True,0.0
./expes/v2_2020-11-23_di_250-prng-1,daily_issda_300,300,rng-300,31,rng,num-start-121,121,536,4.194064378738403,True,,True,1,False,1000,True,1.0
./expes/v2_2020-11-23_di_250-prng-1,daily_issda_300,300,rng-300,211,rng,num-start-291,291,536,10.22684383392334,True,,True,1,False,1000,True,1.0
./expes/v2_2020-11-23_di_250-prng-1,daily_issda_300,300,rng-300,121,rng,num-start-141,141,536,8.835721969604492,True,,True,1,False,1000,True,1.0
./expes/v2_2020-11-23_di_250-prng-1,daily_issda_300,300,rng-300,1,rng,num-start-51,51,536,1.4108071327209473,True,,True,1,False,1000,True,1.0
./expes/v2_2020-11-23_di_250-prng-1,daily_issda_300,300,rng-300,231,rng,num-start-171,171,536,6.36218786239624,True,,True,1,False,1000,True,1.0
./expes/v2_2020-11-23_di_250-prng-1,daily_issda_300,300,rng-300,251,rng,num-start-181,181,536,6.38393759727478,True,,True,1,False,1000,True,1.0
./expes/v2_2020-11-23_di_250-prng-1,daily_issda_300,300,rng-300,151,rng,num-start-21,21,536,1000.6988036632538,False,,False,0,True,1000,True,0.0
./expes/v2_2020-11-23_di_250-prng-1,daily_issda_300,300,rng-300,31,rng,num-start-81,81,536,2.588674306869507,True,,True,1,False,1000,True,1.0
./expes/v2_2020-11-23_di_250-prng-1,daily_issda_300,300,rng-300,101,rng,num-start-221,221,536,7.156269073486328,True,,True,1,False,1000,True,1.0
./expes/v2_2020-11-23_di_250-prng-1,daily_issda_300,300,rng-300,141,rng,num-start-171,171,536,6.514988899230957,True,,True,1,False,1000,True,1.0
./expes/v2_2020-11-23_di_250-prng-1,daily_issda_300,300,rng-300,261,rng,num-start-291,291,536,8.588666439056396,True,,True,1,False,1000,True,1.0
./expes/v2_2020-11-23_di_250-prng-1,daily_issda_300,300,rng-300,251,rng,num-start-121,121,536,4.7146220207214355,True,,True,1,False,1000,True,1.0
./expes/v2_2020-11-23_di_250-prng-1,daily_issda_300,300,rng-300,21,rng,num-start-131,131,536,4.208079099655151,True,,True,1,False,1000,True,1.0
./expes/v2_2020-11-23_di_250-prng-1,daily_issda_300,300,rng-300,101,rng,num-start-61,61,536,1002.142117023468,False,,False,0,True,1000,True,0.0
./expes/v2_2020-11-23_di_250-prng-1,daily_issda_300,300,rng-300,261,rng,num-start-251,251,536,8.15812611579895,True,,True,1,False,1000,True,1.0
./expes/v2_2020-11-23_di_250-prng-1,daily_issda_300,300,rng-300,101,rng,num-start-141,141,536,4.874703884124756,True,,True,1,False,1000,True,1.0
./expes/v2_2020-11-23_di_250-prng-1,daily_issda_300,300,rng-300,211,rng,num-start-271,271,536,9.458316087722778,True,,True,1,False,1000,True,1.0
./expes/v2_2020-11-23_di_250-prng-1,daily_issda_300,300,rng-300,21,rng,num-start-131,131,536,4.080240249633789,True,,True,1,False,1000,True,1.0
./expes/v2_2020-11-23_di_250-prng-1,daily_issda_300,300,rng-300,71,rng,num-start-1,1,536,3.775986433029175,False,,False,2,False,1000,True,1.0
./expes/v2_2020-11-23_di_250-prng-1,daily_issda_300,300,rng-300,251,rng,num-start-191,191,536,6.7774658203125,True,,True,1,False,1000,True,1.0
./expes/v2_2020-11-23_di_250-prng-1,daily_issda_300,300,rng-300,111,rng,num-start-161,161,536,6.530184745788574,True,,True,1,False,1000,True,1.0
./expes/v2_2020-11-23_di_250-prng-1,daily_issda_300,300,rng-300,191,rng,num-start-211,211,536,7.448282718658447,True,,True,1,False,1000,True,1.0
./expes/v2_2020-11-23_di_250-prng-1,daily_issda_300,300,rng-300,31,rng,num-start-231,231,536,7.561365842819214,True,,True,1,False,1000,True,1.0
./expes/v2_2020-11-23_di_250-prng-1,daily_issda_300,300,rng-300,181,rng,num-start-81,81,536,1002.1800079345703,False,,False,0,True,1000,True,0.0
./expes/v2_2020-11-23_di_250-prng-1,daily_issda_300,300,rng-300,31,rng,num-start-121,121,536,3.9996962547302246,True,,True,1,False,1000,True,1.0
./expes/v2_2020-11-23_di_250-prng-1,daily_issda_300,300,rng-300,211,rng,num-start-231,231,536,7.600472688674927,True,,True,1,False,1000,True,1.0
./expes/v2_2020-11-23_di_250-prng-1,daily_issda_300,300,rng-300,261,rng,num-start-211,211,536,6.3231589794158936,True,,True,1,False,1000,True,1.0
./expes/v2_2020-11-23_di_250-prng-1,daily_issda_300,300,rng-300,251,rng,num-start-91,91,536,5.430532693862915,True,,True,1,False,1000,True,1.0
./expes/v2_2020-11-23_di_250-prng-1,daily_issda_300,300,rng-300,181,rng,num-start-131,131,536,8.88320016860962,True,,True,1,False,1000,True,1.0
./expes/v2_2020-11-23_di_250-prng-1,daily_issda_300,300,rng-300,261,rng,num-start-101,101,536,3.287338972091675,True,,True,1,False,1000,True,1.0
./expes/v2_2020-11-23_di_250-prng-1,daily_issda_300,300,rng-300,121,rng,num-start-271,271,536,8.351143836975098,True,,True,1,False,1000,True,1.0
./expes/v2_2020-11-23_di_250-prng-1,daily_issda_300,300,rng-300,131,rng,num-start-131,131,536,8.211009502410889,True,,True,1,False,1000,True,1.0
./expes/v2_2020-11-23_di_250-prng-1,daily_issda_300,300,rng-300,161,rng,num-start-201,201,536,7.146486520767212,True,,True,1,False,1000,True,1.0
./expes/v2_2020-11-23_di_250-prng-1,daily_issda_300,300,rng-300,291,rng,num-start-1,1,536,0.5826103687286377,False,,False,2,False,1000,True,1.0
./expes/v2_2020-11-23_di_250-prng-1,daily_issda_300,300,rng-300,231,rng,num-start-231,231,536,7.360774040222168,True,,True,1,False,1000,True,1.0
./expes/v2_2020-11-23_di_250-prng-1,daily_issda_300,300,rng-300,61,rng,num-start-241,241,536,7.248239755630493,True,,True,1,False,1000,True,1.0
./expes/v2_2020-11-23_di_250-prng-1,daily_issda_300,300,rng-300,91,rng,num-start-271,271,536,9.86216115951538,True,,True,1,False,1000,True,1.0
./expes/v2_2020-11-23_di_250-prng-1,daily_issda_300,300,rng-300,281,rng,num-start-181,181,536,5.527318477630615,True,,True,1,False,1000,True,1.0
./expes/v2_2020-11-23_di_250-prng-1,daily_issda_300,300,rng-300,1,rng,num-start-51,51,536,1.365133285522461,True,,True,1,False,1000,True,1.0
./expes/v2_2020-11-23_di_250-prng-1,daily_issda_300,300,rng-300,241,rng,num-start-281,281,536,8.818546295166016,True,,True,1,False,1000,True,1.0
./expes/v2_2020-11-23_di_250-prng-1,daily_issda_300,300,rng-300,31,rng,num-start-61,61,536,16.46967053413391,True,,True,1,False,1000,True,1.0
./expes/v2_2020-11-23_di_250-prng-1,daily_issda_300,300,rng-300,181,rng,num-start-51,51,536,1001.4884226322174,False,,False,0,True,1000,True,0.0
./expes/v2_2020-11-23_di_250-prng-1,daily_issda_300,300,rng-300,131,rng,num-start-281,281,536,9.764059066772461,True,,True,1,False,1000,True,1.0
./expes/v2_2020-11-23_di_250-prng-1,daily_issda_300,300,rng-300,181,rng,num-start-21,21,536,1000.6550357341766,False,,False,0,True,1000,True,0.0
./expes/v2_2020-11-23_di_250-prng-1,daily_issda_300,300,rng-300,31,rng,num-start-21,21,536,1001.8278248310089,False,,False,0,True,1000,True,0.0
./expes/v2_2020-11-23_di_250-prng-1,daily_issda_300,300,rng-300,91,rng,num-start-191,191,536,6.795216798782349,True,,True,1,False,1000,True,1.0
./expes/v2_2020-11-23_di_250-prng-1,daily_issda_300,300,rng-300,271,rng,num-start-261,261,536,7.948196172714233,True,,True,1,False,1000,True,1.0
./expes/v2_2020-11-23_di_250-prng-1,daily_issda_300,300,rng-300,291,rng,num-start-181,181,536,5.295948028564453,True,,True,1,False,1000,True,1.0
./expes/v2_2020-11-23_di_250-prng-1,daily_issda_300,300,rng-300,191,rng,num-start-211,211,536,6.989012241363525,True,,True,1,False,1000,True,1.0
./expes/v2_2020-11-23_di_250-prng-1,daily_issda_300,300,rng-300,231,rng,num-start-241,241,536,7.651960611343384,True,,True,1,False,1000,True,1.0
./expes/v2_2020-11-23_di_250-prng-1,daily_issda_300,300,rng-300,51,rng,num-start-41,41,536,1001.1537957191467,False,,False,0,True,1000,True,0.0
./expes/v2_2020-11-23_di_250-prng-1,daily_issda_300,300,rng-300,181,rng,num-start-141,141,536,8.488746166229248,True,,True,1,False,1000,True,1.0
./expes/v2_2020-11-23_di_250-prng-1,daily_issda_300,300,rng-300,281,rng,num-start-171,171,536,5.4062371253967285,True,,True,1,False,1000,True,1.0
./expes/v2_2020-11-23_di_250-prng-1,daily_issda_300,300,rng-300,131,rng,num-start-111,111,536,62.476468324661255,True,,True,1,False,1000,True,1.0
./expes/v2_2020-11-23_di_250-prng-1,daily_issda_300,300,rng-300,171,rng,num-start-241,241,536,8.116738319396973,True,,True,1,False,1000,True,1.0
./expes/v2_2020-11-23_di_250-prng-1,daily_issda_300,300,rng-300,181,rng,num-start-151,151,536,6.224565505981445,True,,True,1,False,1000,True,1.0
./expes/v2_2020-11-23_di_250-prng-1,daily_issda_300,300,rng-300,111,rng,num-start-261,261,536,9.083510875701904,True,,True,1,False,1000,True,1.0
./expes/v2_2020-11-23_di_250-prng-1,daily_issda_300,300,rng-300,121,rng,num-start-81,81,536,1002.186717748642,False,,False,0,True,1000,True,0.0
./expes/v2_2020-11-23_di_250-prng-1,daily_issda_300,300,rng-300,91,rng,num-start-241,241,536,8.460552453994751,True,,True,1,False,1000,True,1.0
./expes/v2_2020-11-23_di_250-prng-1,daily_issda_300,300,rng-300,221,rng,num-start-231,231,536,7.883589506149292,True,,True,1,False,1000,True,1.0
./expes/v2_2020-11-23_di_250-prng-1,daily_issda_300,300,rng-300,291,rng,num-start-171,171,536,5.0678088665008545,True,,True,1,False,1000,True,1.0
./expes/v2_2020-11-23_di_250-prng-1,daily_issda_300,300,rng-300,1,rng,num-start-241,241,536,6.146151065826416,True,,True,1,False,1000,True,1.0
./expes/v2_2020-11-23_di_250-prng-1,daily_issda_300,300,rng-300,291,rng,num-start-281,281,536,7.816742420196533,True,,True,1,False,1000,True,1.0
./expes/v2_2020-11-23_di_250-prng-1,daily_issda_300,300,rng-300,31,rng,num-start-241,241,536,8.300473690032959,True,,True,1,False,1000,True,1.0
./expes/v2_2020-11-23_di_250-prng-1,daily_issda_300,300,rng-300,101,rng,num-start-31,31,536,1001.0266861915588,False,,False,0,True,1000,True,0.0
./expes/v2_2020-11-23_di_250-prng-1,daily_issda_300,300,rng-300,51,rng,num-start-21,21,536,1000.6793262958527,False,,False,0,True,1000,True,0.0
./expes/v2_2020-11-23_di_250-prng-1,daily_issda_300,300,rng-300,141,rng,num-start-141,141,536,9.655579805374146,True,,True,1,False,1000,True,1.0
./expes/v2_2020-11-23_di_250-prng-1,daily_issda_300,300,rng-300,41,rng,num-start-271,271,536,9.406922817230225,True,,True,1,False,1000,True,1.0
./expes/v2_2020-11-23_di_250-prng-1,daily_issda_300,300,rng-300,21,rng,num-start-101,101,536,3.197328805923462,True,,True,1,False,1000,True,1.0
./expes/v2_2020-11-23_di_250-prng-1,daily_issda_300,300,rng-300,81,rng,num-start-251,251,536,8.558917999267578,True,,True,1,False,1000,True,1.0
./expes/v2_2020-11-23_di_250-prng-1,daily_issda_300,300,rng-300,1,rng,num-start-61,61,536,1.5948219299316406,True,,True,1,False,1000,True,1.0
./expes/v2_2020-11-23_di_250-prng-1,daily_issda_300,300,rng-300,31,rng,num-start-251,251,536,8.228440523147583,True,,True,1,False,1000,True,1.0
./expes/v2_2020-11-23_di_250-prng-1,daily_issda_300,300,rng-300,21,rng,num-start-151,151,536,5.093613386154175,True,,True,1,False,1000,True,1.0
./expes/v2_2020-11-23_di_250-prng-1,daily_issda_300,300,rng-300,281,rng,num-start-11,11,536,1001.8598670959473,False,,False,0,True,1000,True,0.0
./expes/v2_2020-11-23_di_250-prng-1,daily_issda_300,300,rng-300,41,rng,num-start-151,151,536,4.9788737297058105,True,,True,1,False,1000,True,1.0
./expes/v2_2020-11-23_di_250-prng-1,daily_issda_300,300,rng-300,81,rng,num-start-251,251,536,8.304215908050537,True,,True,1,False,1000,True,1.0
./expes/v2_2020-11-23_di_250-prng-1,daily_issda_300,300,rng-300,81,rng,num-start-111,111,536,7.531890153884888,True,,True,1,False,1000,True,1.0
./expes/v2_2020-11-23_di_250-prng-1,daily_issda_300,300,rng-300,281,rng,num-start-281,281,536,8.147032260894775,True,,True,1,False,1000,True,1.0
./expes/v2_2020-11-23_di_250-prng-1,daily_issda_300,300,rng-300,1,rng,num-start-51,51,536,1.3712701797485352,True,,True,1,False,1000,True,1.0
./expes/v2_2020-11-23_di_250-prng-1,daily_issda_300,300,rng-300,181,rng,num-start-191,191,536,6.988428354263306,True,,True,1,False,1000,True,1.0
./expes/v2_2020-11-23_di_250-prng-1,daily_issda_300,300,rng-300,181,rng,num-start-261,261,536,8.413326501846313,True,,True,1,False,1000,True,1.0
./expes/v2_2020-11-23_di_250-prng-1,daily_issda_300,300,rng-300,21,rng,num-start-21,21,536,1001.2633919715881,False,,False,0,True,1000,True,0.0
./expes/v2_2020-11-23_di_250-prng-1,daily_issda_300,300,rng-300,71,rng,num-start-291,291,536,9.956708431243896,True,,True,1,False,1000,True,1.0
./expes/v2_2020-11-23_di_250-prng-1,daily_issda_300,300,rng-300,31,rng,num-start-71,71,536,4.229651212692261,True,,True,1,False,1000,True,1.0
./expes/v2_2020-11-23_di_250-prng-1,daily_issda_300,300,rng-300,251,rng,num-start-171,171,536,5.547960996627808,True,,True,1,False,1000,True,1.0
./expes/v2_2020-11-23_di_250-prng-1,daily_issda_300,300,rng-300,281,rng,num-start-131,131,536,4.190281867980957,True,,True,1,False,1000,True,1.0
./expes/v2_2020-11-23_di_250-prng-1,daily_issda_300,300,rng-300,11,rng,num-start-81,81,536,2.501049041748047,True,,True,1,False,1000,True,1.0
./expes/v2_2020-11-23_di_250-prng-1,daily_issda_300,300,rng-300,41,rng,num-start-131,131,536,4.495024919509888,True,,True,1,False,1000,True,1.0
./expes/v2_2020-11-23_di_250-prng-1,daily_issda_300,300,rng-300,181,rng,num-start-51,51,536,1001.6246421337128,False,,False,0,True,1000,True,0.0
./expes/v2_2020-11-23_di_250-prng-1,daily_issda_300,300,rng-300,221,rng,num-start-111,111,536,6.644856929779053,True,,True,1,False,1000,True,1.0
./expes/v2_2020-11-23_di_250-prng-1,daily_issda_300,300,rng-300,261,rng,num-start-281,281,536,8.90751028060913,True,,True,1,False,1000,True,1.0
./expes/v2_2020-11-23_di_250-prng-1,daily_issda_300,300,rng-300,151,rng,num-start-21,21,536,1000.6386239528656,False,,False,0,True,1000,True,0.0
./expes/v2_2020-11-23_di_250-prng-1,daily_issda_300,300,rng-300,151,rng,num-start-41,41,536,1001.2986044883728,False,,False,0,True,1000,True,0.0
./expes/v2_2020-11-23_di_250-prng-1,daily_issda_300,300,rng-300,231,rng,num-start-41,41,536,1001.2912285327911,False,,False,0,True,1000,True,0.0
./expes/v2_2020-11-23_di_250-prng-1,daily_issda_300,300,rng-300,241,rng,num-start-151,151,536,5.095101833343506,True,,True,1,False,1000,True,1.0
./expes/v2_2020-11-23_di_250-prng-1,daily_issda_300,300,rng-300,271,rng,num-start-231,231,536,7.411226749420166,True,,True,1,False,1000,True,1.0
./expes/v2_2020-11-23_di_250-prng-1,daily_issda_300,300,rng-300,141,rng,num-start-121,121,536,122.68971872329712,True,,True,1,False,1000,True,1.0
./expes/v2_2020-11-23_di_250-prng-1,daily_issda_300,300,rng-300,101,rng,num-start-41,41,536,1001.2701594829559,False,,False,0,True,1000,True,0.0
./expes/v2_2020-11-23_di_250-prng-1,daily_issda_300,300,rng-300,131,rng,num-start-181,181,536,7.268597364425659,True,,True,1,False,1000,True,1.0
./expes/v2_2020-11-23_di_250-prng-1,daily_issda_300,300,rng-300,41,rng,num-start-81,81,536,3.3026978969573975,True,,True,1,False,1000,True,1.0
./expes/v2_2020-11-23_di_250-prng-1,daily_issda_300,300,rng-300,281,rng,num-start-1,1,536,0.4427783489227295,False,,False,2,False,1000,True,1.0
./expes/v2_2020-11-23_di_250-prng-1,daily_issda_300,300,rng-300,91,rng,num-start-261,261,536,9.183293342590332,True,,True,1,False,1000,True,1.0
./expes/v2_2020-11-23_di_250-prng-1,daily_issda_300,300,rng-300,71,rng,num-start-211,211,536,7.783463954925537,True,,True,1,False,1000,True,1.0
./expes/v2_2020-11-23_di_250-prng-1,daily_issda_300,300,rng-300,281,rng,num-start-261,261,536,8.251303911209106,True,,True,1,False,1000,True,1.0
./expes/v2_2020-11-23_di_250-prng-1,daily_issda_300,300,rng-300,131,rng,num-start-41,41,536,1001.7802250385284,False,,False,0,True,1000,True,0.0
./expes/v2_2020-11-23_di_250-prng-1,daily_issda_300,300,rng-300,51,rng,num-start-271,271,536,9.299172639846802,True,,True,1,False,1000,True,1.0
./expes/v2_2020-11-23_di_250-prng-1,daily_issda_300,300,rng-300,281,rng,num-start-141,141,536,4.536533355712891,True,,True,1,False,1000,True,1.0
./expes/v2_2020-11-23_di_250-prng-1,daily_issda_300,300,rng-300,251,rng,num-start-31,31,536,1001.1993379592896,False,,False,0,True,1000,True,0.0
./expes/v2_2020-11-23_di_250-prng-1,daily_issda_300,300,rng-300,1,rng,num-start-281,281,536,7.6033406257629395,True,,True,1,False,1000,True,1.0
./expes/v2_2020-11-23_di_250-prng-1,daily_issda_300,300,rng-300,141,rng,num-start-61,61,536,1001.7440540790558,False,,False,0,True,1000,True,0.0
./expes/v2_2020-11-23_di_250-prng-1,daily_issda_300,300,rng-300,71,rng,num-start-131,131,536,4.865583419799805,True,,True,1,False,1000,True,1.0
./expes/v2_2020-11-23_di_250-prng-1,daily_issda_300,300,rng-300,131,rng,num-start-241,241,536,9.97438645362854,True,,True,1,False,1000,True,1.0
./expes/v2_2020-11-23_di_250-prng-1,daily_issda_300,300,rng-300,101,rng,num-start-1,1,536,3.415029287338257,False,,False,2,False,1000,True,1.0
./expes/v2_2020-11-23_di_250-prng-1,daily_issda_300,300,rng-300,191,rng,num-start-221,221,536,8.854496479034424,True,,True,1,False,1000,True,1.0
./expes/v2_2020-11-23_di_250-prng-1,daily_issda_300,300,rng-300,271,rng,num-start-81,81,536,2.828176498413086,True,,True,1,False,1000,True,1.0
./expes/v2_2020-11-23_di_250-prng-1,daily_issda_300,300,rng-300,231,rng,num-start-171,171,536,5.655502796173096,True,,True,1,False,1000,True,1.0
./expes/v2_2020-11-23_di_250-prng-1,daily_issda_300,300,rng-300,191,rng,num-start-291,291,536,10.073106527328491,True,,True,1,False,1000,True,1.0
./expes/v2_2020-11-23_di_250-prng-1,daily_issda_300,300,rng-300,91,rng,num-start-161,161,536,5.782548666000366,True,,True,1,False,1000,True,1.0
./expes/v2_2020-11-23_di_250-prng-1,daily_issda_300,300,rng-300,41,rng,num-start-21,21,536,1001.3068358898163,False,,False,0,True,1000,True,0.0
