expe,clients,clients_size,clients_subset,agg_size,agg_size_pc,method,days,days_size,days_total,noise_method,time,valid,valid_sum,success,score_avg,score_min,score_max,nsols,oracle,wall_hit,wall_time,pooled,pool_size,uuid,optimal,valid_sums
./expes/v3_2021-02-05_di_300-prng-1-w1-p2,daily_issda-300,300,first-300,98,32,rng,num-start-71,71,536,classic,1002.5704617500305,False,,False,0,,,0,"Index(['1', '2', '3', '5', '7', '10', '12', '15', '19', '24', '27', '30', '34',
       '37', '41', '47', '48', '53', '56', '58', '61', '65', '68', '72', '75',
       '76', '77', '81', '82', '83', '85', '86', '91', '93', '94', '95', '101',
       '102', '105', '107', '108', '111', '126', '127', '128', '129', '131',
       '132', '136', '142', '144', '149', '152', '153', '155', '157', '159',
       '160', '161', '162', '163', '170', '174', '175', '177', '182', '184',
       '185', '186', '188', '189', '191', '193', '195', '197', '200', '207',
       '209', '213', '215', '222', '228', '232', '237', '239', '241', '242',
       '247', '248', '263', '269', '272', '277', '279', '280', '282', '294',
       '297'],
      dtype='object')",True,1000,True,2,576ccea5e8,0.0,0.0
./expes/v3_2021-02-05_di_300-prng-1-w1-p2,daily_issda-300,300,first-300,77,25,rng,num-start-41,41,536,classic,1001.5100417137146,False,,False,0,,,0,"Index(['1', '7', '9', '12', '15', '19', '24', '28', '40', '42', '46', '48',
       '49', '50', '60', '62', '65', '71', '75', '87', '95', '97', '99', '100',
       '101', '102', '103', '108', '115', '126', '129', '134', '136', '138',
       '140', '149', '150', '156', '157', '160', '164', '171', '172', '183',
       '185', '186', '192', '194', '195', '200', '204', '210', '212', '217',
       '218', '221', '226', '228', '229', '241', '248', '249', '250', '251',
       '257', '258', '264', '268', '269', '271', '276', '277', '284', '286',
       '289', '294', '295'],
      dtype='object')",True,1000,True,2,7947cfe556,0.0,0.0
./expes/v3_2021-02-05_di_300-prng-1-w1-p2,daily_issda-300,300,first-300,105,35,rng,num-start-261,261,536,classic,12.040846586227417,True,,True,1.0,1.0,1.0,1,"Index(['1', '4', '7', '9', '10', '12', '15', '19', '24', '28',
       ...
       '269', '271', '276', '277', '284', '286', '287', '289', '294', '295'],
      dtype='object', length=105)",False,1000,True,2,f3cbbd762f,1.0,1.0
./expes/v3_2021-02-05_di_300-prng-1-w1-p2,daily_issda-300,300,first-300,126,42,rng,num-start-21,21,536,classic,1000.7381646633148,False,,False,0,,,0,"Index(['2', '5', '6', '8', '9', '10', '16', '19', '22', '23',
       ...
       '267', '272', '274', '279', '281', '285', '290', '292', '295', '296'],
      dtype='object', length=126)",True,1000,True,2,d5c27c26a2,0.0,0.0
./expes/v3_2021-02-05_di_300-prng-1-w1-p2,daily_issda-300,300,first-300,126,42,rng,num-start-211,211,536,classic,9.743513345718384,True,,True,1.0,1.0,1.0,1,"Index(['2', '5', '6', '8', '9', '10', '16', '19', '22', '23',
       ...
       '267', '272', '274', '279', '281', '285', '290', '292', '295', '296'],
      dtype='object', length=126)",False,1000,True,2,efc030fe77,1.0,1.0
./expes/v3_2021-02-05_di_300-prng-1-w1-p2,daily_issda-300,300,first-300,91,30,rng,num-start-101,101,536,classic,1003.6692306995392,False,,False,0,,,0,"Index(['3', '8', '17', '18', '19', '23', '34', '37', '39', '41', '42', '50',
       '58', '62', '69', '72', '74', '77', '81', '82', '83', '85', '86', '90',
       '91', '92', '98', '100', '106', '115', '121', '123', '125', '126',
       '128', '135', '137', '141', '143', '146', '155', '156', '161', '164',
       '167', '168', '170', '178', '179', '182', '185', '186', '188', '192',
       '193', '196', '197', '200', '208', '212', '213', '216', '220', '222',
       '223', '224', '226', '227', '229', '230', '231', '234', '237', '241',
       '246', '248', '251', '252', '255', '257', '267', '268', '274', '275',
       '279', '282', '291', '293', '296', '299', '300'],
      dtype='object')",True,1000,True,2,f24cd85c00,0.0,0.0
./expes/v3_2021-02-05_di_300-prng-1-w1-p2,daily_issda-300,300,first-300,49,16,rng,num-start-21,21,536,classic,1000.7646825313568,False,,False,0,,,0,"Index(['11', '16', '20', '23', '30', '33', '44', '45', '46', '50', '56', '59',
       '65', '71', '73', '99', '100', '107', '108', '117', '120', '121', '127',
       '133', '137', '174', '190', '193', '194', '195', '198', '200', '206',
       '207', '209', '233', '236', '243', '249', '250', '251', '254', '255',
       '260', '265', '267', '277', '294', '298'],
      dtype='object')",True,1000,True,2,859a57c2f1,0.0,0.0
./expes/v3_2021-02-05_di_300-prng-1-w1-p2,daily_issda-300,300,first-300,98,32,rng,num-start-261,261,536,classic,11.690229177474976,True,,True,1.0,1.0,1.0,1,"Index(['1', '8', '9', '17', '20', '21', '32', '33', '36', '38', '42', '43',
       '46', '47', '48', '49', '51', '52', '56', '60', '64', '67', '72', '73',
       '76', '77', '88', '95', '96', '97', '98', '105', '111', '112', '113',
       '114', '121', '123', '124', '125', '129', '133', '134', '139', '141',
       '142', '145', '148', '149', '150', '155', '156', '159', '162', '163',
       '164', '167', '170', '171', '172', '182', '183', '184', '191', '198',
       '201', '205', '208', '215', '216', '223', '227', '228', '230', '231',
       '242', '244', '245', '249', '250', '251', '253', '259', '261', '262',
       '267', '268', '269', '273', '277', '279', '281', '283', '287', '291',
       '295', '297', '299'],
      dtype='object')",False,1000,True,2,a87e99b36a,1.0,1.0
./expes/v3_2021-02-05_di_300-prng-1-w1-p2,daily_issda-300,300,first-300,35,11,rng,num-start-241,241,536,classic,9.924829244613647,True,,True,1.0,1.0,1.0,1,"Index(['1', '3', '7', '15', '27', '37', '53', '58', '65', '68', '72', '81',
       '82', '85', '86', '94', '108', '111', '127', '128', '131', '144', '149',
       '161', '184', '191', '195', '200', '209', '228', '239', '241', '272',
       '279', '294'],
      dtype='object')",False,1000,True,2,674fb18bd8,1.0,1.0
./expes/v3_2021-02-05_di_300-prng-1-w1-p2,daily_issda-300,300,first-300,98,32,rng,num-start-21,21,536,classic,1000.778804063797,False,,False,0,,,0,"Index(['2', '3', '5', '7', '12', '14', '15', '16', '18', '23', '29', '33',
       '45', '49', '52', '53', '56', '61', '62', '67', '69', '84', '87', '88',
       '89', '96', '98', '103', '106', '108', '111', '113', '114', '117',
       '118', '119', '120', '125', '131', '137', '138', '146', '149', '152',
       '156', '158', '163', '171', '177', '181', '187', '188', '190', '192',
       '195', '196', '197', '200', '202', '207', '208', '212', '213', '214',
       '217', '219', '222', '225', '229', '231', '236', '241', '242', '246',
       '247', '250', '251', '254', '256', '257', '258', '259', '260', '261',
       '263', '264', '266', '267', '271', '277', '278', '281', '284', '285',
       '288', '292', '296', '297'],
      dtype='object')",True,1000,True,2,756cd12052,0.0,0.0
./expes/v3_2021-02-05_di_300-prng-1-w1-p2,daily_issda-300,300,first-300,126,42,rng,num-start-71,71,536,classic,1002.4086222648621,False,,False,0,,,0,"Index(['4', '5', '10', '11', '14', '19', '21', '22', '23', '24',
       ...
       '271', '274', '275', '280', '281', '282', '286', '293', '294', '299'],
      dtype='object', length=126)",True,1000,True,2,ed734173b2,0.0,0.0
./expes/v3_2021-02-05_di_300-prng-1-w1-p2,daily_issda-300,300,first-300,7,2,rng,num-start-91,91,536,classic,3.531693458557129,True,,True,1.0,1.0,1.0,1,"Index(['63', '93', '102', '123', '172', '230', '251'], dtype='object')",False,1000,True,2,baa9952c12,1.0,1.0
./expes/v3_2021-02-05_di_300-prng-1-w1-p2,daily_issda-300,300,first-300,119,39,rng,num-start-91,91,536,classic,1003.2258751392365,False,,False,0,,,0,"Index(['3', '5', '10', '11', '14', '15', '26', '27', '28', '30',
       ...
       '284', '285', '286', '287', '289', '291', '293', '295', '296', '297'],
      dtype='object', length=119)",True,1000,True,2,dd1a0adf67,0.0,0.0
./expes/v3_2021-02-05_di_300-prng-1-w1-p2,daily_issda-300,300,first-300,119,39,rng,num-start-241,241,536,classic,11.659892320632935,True,,True,1.0,1.0,1.0,1,"Index(['1', '3', '5', '6', '8', '9', '11', '16', '19', '20',
       ...
       '271', '276', '283', '284', '287', '289', '290', '295', '296', '299'],
      dtype='object', length=119)",False,1000,True,2,801818b1a0,1.0,1.0
./expes/v3_2021-02-05_di_300-prng-1-w1-p2,daily_issda-300,300,first-300,126,42,rng,num-start-11,11,536,classic,1000.3802125453949,False,,False,0,,,0,"Index(['1', '3', '5', '11', '13', '15', '16', '17', '19', '21',
       ...
       '272', '279', '283', '286', '287', '288', '291', '295', '298', '300'],
      dtype='object', length=126)",True,1000,True,2,e7ce8aacc3,0.0,0.0
./expes/v3_2021-02-05_di_300-prng-1-w1-p2,daily_issda-300,300,first-300,7,2,rng,num-start-211,211,536,classic,8.161081552505493,True,,True,1.0,1.0,1.0,1,"Index(['8', '17', '106', '220', '248', '293', '296'], dtype='object')",False,1000,True,2,f09fed5655,1.0,1.0
./expes/v3_2021-02-05_di_300-prng-1-w1-p2,daily_issda-300,300,first-300,84,28,rng,num-start-171,171,536,classic,7.904352188110352,True,,True,1.0,1.0,1.0,1,"Index(['2', '8', '16', '20', '22', '23', '37', '38', '44', '58', '61', '65',
       '67', '68', '70', '71', '72', '73', '76', '82', '85', '91', '92', '94',
       '96', '99', '100', '104', '109', '110', '116', '119', '120', '121',
       '122', '129', '130', '132', '133', '135', '142', '144', '149', '151',
       '152', '161', '175', '178', '180', '183', '184', '187', '188', '191',
       '192', '200', '203', '212', '218', '220', '221', '224', '226', '228',
       '230', '231', '236', '238', '250', '252', '255', '267', '268', '273',
       '275', '282', '284', '285', '289', '290', '292', '296', '298', '299'],
      dtype='object')",False,1000,True,2,be3cbed967,1.0,1.0
./expes/v3_2021-02-05_di_300-prng-1-w1-p2,daily_issda-300,300,first-300,56,18,rng,num-start-181,181,536,classic,8.085371494293213,True,,True,1.0,1.0,1.0,1,"Index(['20', '24', '25', '26', '30', '31', '32', '33', '36', '38', '45', '47',
       '49', '50', '53', '61', '64', '69', '74', '78', '93', '97', '106',
       '110', '114', '115', '124', '149', '158', '161', '166', '188', '191',
       '203', '204', '215', '218', '219', '223', '239', '255', '260', '273',
       '275', '277', '281', '283', '286', '287', '289', '290', '293', '296',
       '298', '299', '300'],
      dtype='object')",False,1000,True,2,bbc18c9a5a,1.0,1.0
./expes/v3_2021-02-05_di_300-prng-1-w1-p2,daily_issda-300,300,first-300,49,16,rng,num-start-221,221,536,classic,8.634541988372803,True,,True,1.0,1.0,1.0,1,"Index(['11', '16', '20', '23', '30', '33', '44', '45', '46', '50', '56', '59',
       '65', '71', '73', '99', '100', '107', '108', '117', '120', '121', '127',
       '133', '137', '174', '190', '193', '194', '195', '198', '200', '206',
       '207', '209', '233', '236', '243', '249', '250', '251', '254', '255',
       '260', '265', '267', '277', '294', '298'],
      dtype='object')",False,1000,True,2,7cb87d55ab,1.0,1.0
./expes/v3_2021-02-05_di_300-prng-1-w1-p2,daily_issda-300,300,first-300,91,30,rng,num-start-241,241,536,classic,10.683883905410767,True,,True,1.0,1.0,1.0,1,"Index(['12', '20', '21', '24', '25', '26', '30', '31', '32', '33', '34', '36',
       '38', '40', '42', '45', '47', '48', '49', '50', '53', '61', '64', '69',
       '74', '78', '85', '93', '97', '106', '110', '114', '115', '124', '125',
       '128', '139', '146', '148', '149', '154', '158', '159', '161', '166',
       '175', '176', '178', '180', '182', '186', '188', '191', '198', '203',
       '204', '215', '216', '218', '219', '223', '229', '230', '233', '234',
       '237', '239', '243', '251', '254', '255', '260', '263', '269', '273',
       '275', '277', '281', '283', '286', '287', '289', '290', '293', '294',
       '295', '296', '297', '298', '299', '300'],
      dtype='object')",False,1000,True,2,68e2713869,1.0,1.0
./expes/v3_2021-02-05_di_300-prng-1-w1-p2,daily_issda-300,300,first-300,140,46,rng,num-start-221,221,536,classic,11.357564210891724,True,,True,1.0,1.0,1.0,1,"Index(['3', '4', '5', '6', '7', '8', '11', '12', '15', '16',
       ...
       '270', '273', '274', '277', '278', '284', '289', '294', '297', '299'],
      dtype='object', length=140)",False,1000,True,2,9e224948f9,1.0,1.0
./expes/v3_2021-02-05_di_300-prng-1-w1-p2,daily_issda-300,300,first-300,28,9,rng,num-start-291,291,536,classic,11.557373762130737,True,,True,1.0,1.0,1.0,1,"Index(['1', '12', '19', '42', '46', '48', '49', '75', '99', '102', '134',
       '136', '140', '164', '172', '186', '192', '210', '212', '218', '241',
       '249', '251', '276', '277', '284', '289', '294'],
      dtype='object')",False,1000,True,2,57136e9a05,1.0,1.0
./expes/v3_2021-02-05_di_300-prng-1-w1-p2,daily_issda-300,300,first-300,98,32,rng,num-start-241,241,536,classic,10.483463287353516,True,,True,1.0,1.0,1.0,1,"Index(['1', '2', '3', '4', '5', '9', '10', '13', '14', '18', '21', '22', '23',
       '27', '28', '29', '33', '36', '42', '43', '44', '45', '46', '48', '53',
       '57', '58', '63', '68', '69', '71', '72', '75', '77', '81', '83', '87',
       '89', '96', '99', '102', '103', '104', '105', '108', '110', '114',
       '115', '122', '137', '138', '139', '144', '146', '150', '158', '167',
       '169', '170', '172', '174', '175', '178', '188', '192', '194', '195',
       '196', '197', '204', '206', '207', '211', '216', '217', '218', '222',
       '228', '232', '238', '252', '255', '257', '258', '259', '260', '265',
       '268', '276', '277', '284', '285', '287', '290', '294', '295', '297',
       '300'],
      dtype='object')",False,1000,True,2,0ec93d75ec,1.0,1.0
./expes/v3_2021-02-05_di_300-prng-1-w1-p2,daily_issda-300,300,first-300,98,32,rng,num-start-261,261,536,classic,11.311745166778564,True,,True,1.0,1.0,1.0,1,"Index(['3', '4', '5', '6', '7', '8', '11', '12', '15', '16', '17', '20', '23',
       '24', '25', '31', '34', '37', '41', '43', '45', '48', '52', '54', '59',
       '60', '63', '73', '74', '76', '79', '80', '85', '89', '92', '102',
       '113', '114', '115', '117', '119', '121', '122', '123', '125', '126',
       '130', '131', '133', '134', '138', '145', '146', '151', '152', '155',
       '156', '159', '163', '164', '172', '179', '186', '190', '192', '199',
       '202', '205', '208', '209', '210', '214', '216', '217', '228', '229',
       '233', '234', '236', '238', '239', '241', '244', '245', '247', '251',
       '252', '254', '256', '262', '265', '268', '270', '277', '278', '289',
       '297', '299'],
      dtype='object')",False,1000,True,2,96aa783393,1.0,1.0
./expes/v3_2021-02-05_di_300-prng-1-w1-p2,daily_issda-300,300,first-300,133,44,rng,num-start-151,151,536,classic,8.868237972259521,True,,True,1.0,1.0,1.0,1,"Index(['1', '2', '3', '5', '7', '10', '12', '15', '17', '19',
       ...
       '273', '274', '277', '279', '280', '281', '282', '289', '294', '297'],
      dtype='object', length=133)",False,1000,True,2,ec7815dee3,1.0,1.0
./expes/v3_2021-02-05_di_300-prng-1-w1-p2,daily_issda-300,300,first-300,140,46,rng,num-start-201,201,536,classic,8.82141900062561,True,,True,1.0,1.0,1.0,1,"Index(['1', '2', '3', '5', '7', '8', '9', '12', '13', '14',
       ...
       '281', '282', '283', '284', '285', '288', '292', '296', '297', '300'],
      dtype='object', length=140)",False,1000,True,2,1e53f89200,1.0,1.0
./expes/v3_2021-02-05_di_300-prng-1-w1-p2,daily_issda-300,300,first-300,21,7,rng,num-start-291,291,536,classic,11.438482522964478,True,,True,1.0,1.0,1.0,1,"Index(['11', '31', '35', '47', '53', '55', '80', '89', '114', '121', '135',
       '142', '149', '156', '185', '203', '206', '246', '267', '275', '282'],
      dtype='object')",False,1000,True,2,19af9dc070,1.0,1.0
./expes/v3_2021-02-05_di_300-prng-1-w1-p2,daily_issda-300,300,first-300,119,39,rng,num-start-111,111,536,classic,11.255735158920288,True,,True,1.0,1.0,1.0,1,"Index(['1', '2', '3', '4', '5', '7', '9', '10', '13', '14',
       ...
       '276', '277', '284', '285', '287', '290', '294', '295', '297', '300'],
      dtype='object', length=119)",False,1000,True,2,2989459864,1.0,1.0
./expes/v3_2021-02-05_di_300-prng-1-w1-p2,daily_issda-300,300,first-300,77,25,rng,num-start-211,211,536,classic,9.06674575805664,True,,True,1.0,1.0,1.0,1,"Index(['2', '8', '16', '20', '22', '23', '37', '38', '44', '61', '65', '67',
       '68', '70', '71', '72', '73', '76', '82', '91', '92', '96', '100',
       '104', '109', '110', '116', '119', '120', '121', '122', '129', '130',
       '132', '133', '135', '142', '144', '149', '151', '161', '178', '180',
       '183', '184', '187', '188', '191', '192', '200', '203', '212', '218',
       '220', '221', '224', '226', '228', '230', '231', '236', '238', '250',
       '252', '255', '267', '268', '273', '275', '282', '284', '289', '290',
       '292', '296', '298', '299'],
      dtype='object')",False,1000,True,2,76a33a82d3,1.0,1.0
./expes/v3_2021-02-05_di_300-prng-1-w1-p2,daily_issda-300,300,first-300,140,46,rng,num-start-191,191,536,classic,9.551405668258667,True,,True,1.0,1.0,1.0,1,"Index(['1', '2', '3', '4', '5', '7', '8', '9', '10', '13',
       ...
       '277', '284', '285', '287', '288', '290', '294', '295', '297', '300'],
      dtype='object', length=140)",False,1000,True,2,afe0f36c32,1.0,1.0
./expes/v3_2021-02-05_di_300-prng-1-w1-p2,daily_issda-300,300,first-300,119,39,rng,num-start-111,111,536,classic,18.240512371063232,True,,True,1.0,1.0,1.0,1,"Index(['3', '7', '12', '20', '21', '24', '25', '26', '30', '31',
       ...
       '289', '290', '293', '294', '295', '296', '297', '298', '299', '300'],
      dtype='object', length=119)",False,1000,True,2,bec5392104,1.0,1.0
./expes/v3_2021-02-05_di_300-prng-1-w1-p2,daily_issda-300,300,first-300,91,30,rng,num-start-271,271,536,classic,12.547881364822388,True,,True,1.0,1.0,1.0,1,"Index(['4', '7', '8', '11', '15', '16', '17', '19', '22', '23', '24', '33',
       '34', '35', '40', '46', '50', '54', '56', '61', '64', '67', '69', '70',
       '78', '80', '82', '84', '99', '102', '109', '112', '119', '120', '121',
       '122', '133', '135', '137', '138', '143', '144', '146', '150', '151',
       '155', '159', '161', '168', '170', '173', '174', '177', '180', '188',
       '190', '194', '198', '199', '200', '203', '204', '209', '211', '213',
       '216', '219', '224', '228', '241', '243', '244', '247', '248', '254',
       '259', '260', '268', '274', '275', '277', '278', '279', '282', '283',
       '292', '293', '294', '296', '298', '300'],
      dtype='object')",False,1000,True,2,2a38734520,1.0,1.0
./expes/v3_2021-02-05_di_300-prng-1-w1-p2,daily_issda-300,300,first-300,14,4,rng,num-start-181,181,536,classic,7.0233314037323,True,,True,1.0,1.0,1.0,1,"Index(['15', '33', '49', '61', '69', '108', '131', '195', '200', '231', '242',
       '250', '254', '292'],
      dtype='object')",False,1000,True,2,8c14569066,1.0,1.0
./expes/v3_2021-02-05_di_300-prng-1-w1-p2,daily_issda-300,300,first-300,133,44,rng,num-start-1,1,536,classic,2.2106316089630127,False,,False,0.3084401526274682,0.3060220816405117,0.3108582236144247,2,"Index(['4', '6', '7', '8', '11', '12', '14', '15', '16', '17',
       ...
       '282', '283', '287', '292', '293', '294', '296', '297', '298', '300'],
      dtype='object', length=133)",False,1000,True,2,4ee4c15e5a,1.0,1.0
./expes/v3_2021-02-05_di_300-prng-1-w1-p2,daily_issda-300,300,first-300,112,37,rng,num-start-41,41,536,classic,1001.4548134803772,False,,False,0,,,0,"Index(['1', '2', '3', '5', '7', '12', '14', '15', '16', '17',
       ...
       '281', '282', '283', '284', '285', '288', '292', '296', '297', '300'],
      dtype='object', length=112)",True,1000,True,2,22b1e42415,0.0,0.0
./expes/v3_2021-02-05_di_300-prng-1-w1-p2,daily_issda-300,300,first-300,28,9,rng,num-start-101,101,536,classic,4.275839805603027,True,,True,1.0,1.0,1.0,1,"Index(['3', '6', '11', '12', '15', '73', '79', '113', '114', '115', '117',
       '122', '130', '133', '146', '152', '155', '159', '172', '186', '210',
       '214', '216', '229', '234', '238', '241', '247'],
      dtype='object')",False,1000,True,2,831d795102,1.0,1.0
./expes/v3_2021-02-05_di_300-prng-1-w1-p2,daily_issda-300,300,first-300,105,35,rng,num-start-81,81,536,classic,1002.8879790306091,False,,False,0,,,0,"Index(['3', '4', '5', '10', '41', '45', '46', '48', '52', '59',
       ...
       '281', '283', '285', '286', '287', '291', '293', '294', '295', '297'],
      dtype='object', length=105)",True,1000,True,2,891eef68e0,0.0,0.0
./expes/v3_2021-02-05_di_300-prng-1-w1-p2,daily_issda-300,300,first-300,49,16,rng,num-start-171,171,536,classic,7.327774286270142,True,,True,1.0,1.0,1.0,1,"Index(['4', '59', '61', '63', '75', '83', '87', '90', '93', '94', '101', '102',
       '103', '104', '111', '113', '121', '122', '123', '130', '136', '139',
       '140', '145', '152', '154', '156', '167', '172', '176', '178', '188',
       '208', '230', '235', '245', '246', '251', '253', '254', '257', '260',
       '268', '270', '276', '283', '291', '294', '295'],
      dtype='object')",False,1000,True,2,806b6a30b2,1.0,1.0
./expes/v3_2021-02-05_di_300-prng-1-w1-p2,daily_issda-300,300,first-300,140,46,rng,num-start-261,261,536,classic,11.860671043395996,True,,True,1.0,1.0,1.0,1,"Index(['4', '5', '10', '11', '14', '17', '19', '21', '22', '23',
       ...
       '274', '275', '280', '281', '282', '286', '290', '293', '294', '299'],
      dtype='object', length=140)",False,1000,True,2,582be6d6ba,1.0,1.0
./expes/v3_2021-02-05_di_300-prng-1-w1-p2,daily_issda-300,300,first-300,49,16,rng,num-start-131,131,536,classic,5.6766791343688965,True,,True,1.0,1.0,1.0,1,"Index(['4', '59', '61', '63', '75', '83', '87', '90', '93', '94', '101', '102',
       '103', '104', '111', '113', '121', '122', '123', '130', '136', '139',
       '140', '145', '152', '154', '156', '167', '172', '176', '178', '188',
       '208', '230', '235', '245', '246', '251', '253', '254', '257', '260',
       '268', '270', '276', '283', '291', '294', '295'],
      dtype='object')",False,1000,True,2,35ea847516,1.0,1.0
./expes/v3_2021-02-05_di_300-prng-1-w1-p2,daily_issda-300,300,first-300,140,46,rng,num-start-91,91,536,classic,1003.1206231117249,False,,False,0,,,0,"Index(['2', '7', '9', '11', '14', '16', '17', '18', '20', '23',
       ...
       '273', '277', '280', '286', '289', '292', '294', '297', '298', '300'],
      dtype='object', length=140)",True,1000,True,2,c187c68526,0.0,0.0
./expes/v3_2021-02-05_di_300-prng-1-w1-p2,daily_issda-300,300,first-300,126,42,rng,num-start-181,181,536,classic,9.340771436691284,True,,True,1.0,1.0,1.0,1,"Index(['2', '3', '8', '13', '17', '18', '19', '23', '26', '33',
       ...
       '278', '279', '282', '287', '291', '293', '295', '296', '299', '300'],
      dtype='object', length=126)",False,1000,True,2,de4f39a39d,1.0,1.0
./expes/v3_2021-02-05_di_300-prng-1-w1-p2,daily_issda-300,300,first-300,42,14,rng,num-start-141,141,536,classic,6.086557626724243,True,,True,1.0,1.0,1.0,1,"Index(['10', '14', '27', '32', '36', '42', '57', '64', '71', '72', '73', '78',
       '90', '101', '108', '128', '130', '143', '149', '156', '159', '163',
       '170', '173', '182', '188', '191', '197', '206', '210', '213', '215',
       '222', '243', '257', '260', '268', '273', '277', '283', '287', '293'],
      dtype='object')",False,1000,True,2,fa4efe74be,1.0,1.0
./expes/v3_2021-02-05_di_300-prng-1-w1-p2,daily_issda-300,300,first-300,35,11,rng,num-start-21,21,536,classic,1000.7704312801361,False,,False,0,,,0,"Index(['3', '6', '11', '12', '15', '45', '73', '79', '89', '113', '114', '115',
       '117', '122', '130', '133', '146', '152', '155', '159', '172', '179',
       '186', '210', '214', '216', '217', '229', '234', '238', '241', '247',
       '254', '265', '289'],
      dtype='object')",True,1000,True,2,94b0e4a20f,0.0,0.0
./expes/v3_2021-02-05_di_300-prng-1-w1-p2,daily_issda-300,300,first-300,105,35,rng,num-start-111,111,536,classic,21.42644453048706,True,,True,1.0,1.0,1.0,1,"Index(['4', '6', '7', '8', '11', '15', '16', '17', '19', '22',
       ...
       '282', '283', '287', '292', '293', '294', '296', '297', '298', '300'],
      dtype='object', length=105)",False,1000,True,2,5e6e3190ea,1.0,1.0
./expes/v3_2021-02-05_di_300-prng-1-w1-p2,daily_issda-300,300,first-300,133,44,rng,num-start-161,161,536,classic,7.585577964782715,True,,True,1.0,1.0,1.0,1,"Index(['3', '4', '5', '6', '10', '24', '30', '34', '40', '41',
       ...
       '283', '285', '286', '287', '290', '291', '293', '294', '295', '297'],
      dtype='object', length=133)",False,1000,True,2,cf8d688787,1.0,1.0
./expes/v3_2021-02-05_di_300-prng-1-w1-p2,daily_issda-300,300,first-300,21,7,rng,num-start-211,211,536,classic,8.06053638458252,True,,True,1.0,1.0,1.0,1,"Index(['2', '15', '33', '49', '53', '61', '69', '108', '118', '131', '137',
       '163', '195', '200', '222', '229', '231', '242', '250', '254', '292'],
      dtype='object')",False,1000,True,2,531b70eccc,1.0,1.0
./expes/v3_2021-02-05_di_300-prng-1-w1-p2,daily_issda-300,300,first-300,119,39,rng,num-start-251,251,536,classic,11.469635248184204,True,,True,1.0,1.0,1.0,1,"Index(['2', '3', '8', '17', '18', '19', '23', '26', '33', '34',
       ...
       '276', '278', '279', '282', '287', '291', '293', '296', '299', '300'],
      dtype='object', length=119)",False,1000,True,2,fe956d3cc4,1.0,1.0
./expes/v3_2021-02-05_di_300-prng-1-w1-p2,daily_issda-300,300,first-300,7,2,rng,num-start-171,171,536,classic,6.66685676574707,True,,True,1.0,1.0,1.0,1,"Index(['21', '133', '198', '208', '216', '249', '262'], dtype='object')",False,1000,True,2,5f853978e6,1.0,1.0
./expes/v3_2021-02-05_di_300-prng-1-w1-p2,daily_issda-300,300,first-300,140,46,rng,num-start-31,31,536,classic,1001.1318833827972,False,,False,0,,,0,"Index(['1', '3', '5', '10', '11', '13', '15', '16', '17', '18',
       ...
       '272', '279', '283', '286', '287', '288', '291', '295', '298', '300'],
      dtype='object', length=140)",True,1000,True,2,58aeecc4f4,0.0,0.0
./expes/v3_2021-02-05_di_300-prng-1-w1-p2,daily_issda-300,300,first-300,70,23,rng,num-start-191,191,536,classic,8.31907343864441,True,,True,1.0,1.0,1.0,1,"Index(['1', '7', '9', '12', '15', '19', '24', '42', '46', '48', '49', '50',
       '60', '62', '65', '71', '75', '87', '97', '99', '100', '101', '102',
       '103', '108', '115', '126', '129', '134', '136', '138', '140', '149',
       '150', '156', '157', '160', '164', '171', '172', '183', '185', '186',
       '192', '194', '195', '200', '210', '212', '218', '221', '228', '241',
       '248', '249', '250', '251', '257', '258', '264', '268', '269', '271',
       '276', '277', '284', '286', '289', '294', '295'],
      dtype='object')",False,1000,True,2,6a75c9011f,1.0,1.0
./expes/v3_2021-02-05_di_300-prng-1-w1-p2,daily_issda-300,300,first-300,28,9,rng,num-start-111,111,536,classic,4.700984477996826,True,,True,1.0,1.0,1.0,1,"Index(['11', '16', '23', '44', '46', '65', '71', '99', '108', '117', '120',
       '127', '137', '190', '193', '200', '206', '207', '209', '233', '236',
       '243', '249', '250', '254', '260', '267', '294'],
      dtype='object')",False,1000,True,2,4ea2135be5,1.0,1.0
./expes/v3_2021-02-05_di_300-prng-1-w1-p2,daily_issda-300,300,first-300,77,25,rng,num-start-11,11,536,classic,1000.4471869468689,False,,False,0,,,0,"Index(['2', '3', '4', '5', '9', '13', '18', '21', '22', '23', '27', '28', '29',
       '33', '36', '42', '43', '44', '45', '48', '53', '57', '58', '63', '68',
       '69', '71', '72', '75', '77', '81', '83', '87', '89', '96', '99', '102',
       '103', '104', '105', '108', '115', '122', '137', '138', '139', '144',
       '150', '170', '172', '174', '175', '192', '194', '195', '197', '204',
       '207', '211', '216', '217', '218', '232', '238', '252', '255', '257',
       '258', '259', '260', '276', '277', '284', '285', '294', '295', '297'],
      dtype='object')",True,1000,True,2,6ec5f6a826,0.0,0.0
./expes/v3_2021-02-05_di_300-prng-1-w1-p2,daily_issda-300,300,first-300,63,21,rng,num-start-291,291,536,classic,12.738374710083008,True,,True,1.0,1.0,1.0,1,"Index(['2', '8', '16', '23', '37', '38', '44', '61', '65', '67', '68', '70',
       '72', '73', '76', '82', '91', '92', '96', '100', '104', '110', '116',
       '119', '120', '121', '130', '132', '133', '135', '142', '144', '149',
       '151', '161', '178', '183', '187', '188', '191', '200', '203', '218',
       '220', '221', '224', '226', '228', '230', '231', '236', '238', '250',
       '252', '255', '268', '273', '275', '282', '284', '289', '290', '296'],
      dtype='object')",False,1000,True,2,d5b593710a,1.0,1.0
./expes/v3_2021-02-05_di_300-prng-1-w1-p2,daily_issda-300,300,first-300,126,42,rng,num-start-41,41,536,classic,1001.4934322834015,False,,False,0,,,0,"Index(['1', '6', '10', '11', '13', '15', '17', '18', '22', '28',
       ...
       '274', '280', '283', '284', '287', '288', '292', '293', '297', '299'],
      dtype='object', length=126)",True,1000,True,2,fabea26ab8,0.0,0.0
./expes/v3_2021-02-05_di_300-prng-1-w1-p2,daily_issda-300,300,first-300,70,23,rng,num-start-221,221,536,classic,9.610954761505127,True,,True,1.0,1.0,1.0,1,"Index(['7', '8', '11', '15', '16', '19', '22', '33', '34', '35', '46', '50',
       '54', '64', '67', '69', '70', '78', '82', '84', '99', '109', '112',
       '119', '120', '122', '133', '137', '138', '144', '146', '151', '155',
       '168', '173', '177', '180', '188', '190', '198', '199', '200', '203',
       '204', '209', '211', '216', '219', '224', '228', '241', '243', '244',
       '247', '248', '254', '260', '268', '274', '277', '278', '279', '282',
       '283', '292', '293', '294', '296', '298', '300'],
      dtype='object')",False,1000,True,2,e7e2072ff7,1.0,1.0
./expes/v3_2021-02-05_di_300-prng-1-w1-p2,daily_issda-300,300,first-300,63,21,rng,num-start-121,121,536,classic,5.260544776916504,True,,True,1.0,1.0,1.0,1,"Index(['4', '46', '52', '59', '61', '63', '68', '75', '83', '87', '90', '93',
       '94', '98', '101', '102', '103', '104', '106', '111', '113', '121',
       '122', '123', '130', '133', '136', '139', '140', '145', '152', '154',
       '156', '167', '172', '174', '176', '178', '188', '208', '209', '224',
       '230', '235', '241', '245', '246', '251', '252', '253', '254', '257',
       '260', '263', '268', '270', '274', '276', '279', '283', '291', '294',
       '295'],
      dtype='object')",False,1000,True,2,251ff6fe6b,1.0,1.0
./expes/v3_2021-02-05_di_300-prng-1-w1-p2,daily_issda-300,300,first-300,98,32,rng,num-start-41,41,536,classic,1001.4669804573059,False,,False,0,,,0,"Index(['3', '4', '5', '6', '7', '8', '11', '12', '15', '16', '17', '20', '23',
       '24', '25', '31', '34', '37', '41', '43', '45', '48', '52', '54', '59',
       '60', '63', '73', '74', '76', '79', '80', '85', '89', '92', '102',
       '113', '114', '115', '117', '119', '121', '122', '123', '125', '126',
       '130', '131', '133', '134', '138', '145', '146', '151', '152', '155',
       '156', '159', '163', '164', '172', '179', '186', '190', '192', '199',
       '202', '205', '208', '209', '210', '214', '216', '217', '228', '229',
       '233', '234', '236', '238', '239', '241', '244', '245', '247', '251',
       '252', '254', '256', '262', '265', '268', '270', '277', '278', '289',
       '297', '299'],
      dtype='object')",True,1000,True,2,7f08373061,0.0,0.0
./expes/v3_2021-02-05_di_300-prng-1-w1-p2,daily_issda-300,300,first-300,84,28,rng,num-start-131,131,536,classic,7.379133224487305,True,,True,1.0,1.0,1.0,1,"Index(['3', '8', '17', '18', '19', '23', '34', '37', '39', '42', '50', '58',
       '62', '69', '72', '74', '77', '81', '83', '85', '86', '90', '91', '92',
       '98', '100', '106', '115', '121', '123', '126', '128', '135', '137',
       '141', '143', '146', '155', '156', '161', '167', '168', '170', '178',
       '179', '182', '185', '186', '188', '192', '193', '196', '197', '212',
       '213', '216', '220', '222', '223', '224', '226', '227', '229', '231',
       '234', '237', '241', '246', '248', '251', '252', '255', '257', '267',
       '268', '274', '275', '279', '282', '291', '293', '296', '299', '300'],
      dtype='object')",False,1000,True,2,bb3410203d,1.0,1.0
./expes/v3_2021-02-05_di_300-prng-1-w1-p2,daily_issda-300,300,first-300,28,9,rng,num-start-171,171,536,classic,7.494559288024902,True,,True,1.0,1.0,1.0,1,"Index(['7', '8', '16', '22', '33', '34', '67', '78', '82', '99', '119', '120',
       '122', '133', '138', '155', '190', '200', '204', '241', '243', '244',
       '268', '277', '279', '282', '283', '298'],
      dtype='object')",False,1000,True,2,ea134fc226,1.0,1.0
./expes/v3_2021-02-05_di_300-prng-1-w1-p2,daily_issda-300,300,first-300,49,16,rng,num-start-151,151,536,classic,6.9384331703186035,True,,True,1.0,1.0,1.0,1,"Index(['4', '11', '14', '31', '35', '45', '46', '47', '53', '55', '80', '85',
       '89', '92', '100', '110', '114', '121', '127', '128', '134', '135',
       '140', '142', '144', '148', '149', '150', '154', '156', '159', '160',
       '173', '185', '191', '199', '203', '206', '212', '217', '243', '246',
       '260', '261', '267', '275', '281', '282', '294'],
      dtype='object')",False,1000,True,2,62ee689bd6,1.0,1.0
./expes/v3_2021-02-05_di_300-prng-1-w1-p2,daily_issda-300,300,first-300,42,14,rng,num-start-221,221,536,classic,9.261178731918335,True,,True,1.0,1.0,1.0,1,"Index(['3', '4', '6', '11', '12', '15', '23', '43', '45', '73', '79', '89',
       '113', '114', '115', '117', '122', '130', '133', '145', '146', '151',
       '152', '155', '159', '172', '179', '186', '210', '214', '216', '217',
       '229', '234', '238', '241', '247', '254', '265', '268', '289', '297'],
      dtype='object')",False,1000,True,2,747fad391a,1.0,1.0
./expes/v3_2021-02-05_di_300-prng-1-w1-p2,daily_issda-300,300,first-300,112,37,rng,num-start-51,51,536,classic,1001.9762146472931,False,,False,0,,,0,"Index(['1', '8', '9', '12', '14', '17', '19', '20', '21', '24',
       ...
       '277', '279', '281', '283', '287', '291', '294', '295', '297', '299'],
      dtype='object', length=112)",True,1000,True,2,9ebe84ceca,0.0,0.0
./expes/v3_2021-02-05_di_300-prng-1-w1-p2,daily_issda-300,300,first-300,140,46,rng,num-start-151,151,536,classic,6.92145848274231,True,,True,1.0,1.0,1.0,1,"Index(['2', '3', '5', '6', '8', '9', '10', '16', '19', '22',
       ...
       '282', '285', '286', '290', '292', '293', '295', '296', '297', '298'],
      dtype='object', length=140)",False,1000,True,2,dd041160e7,1.0,1.0
./expes/v3_2021-02-05_di_300-prng-1-w1-p2,daily_issda-300,300,first-300,119,39,rng,num-start-191,191,536,classic,8.420260667800903,True,,True,1.0,1.0,1.0,1,"Index(['1', '2', '3', '5', '7', '8', '9', '12', '14', '15',
       ...
       '281', '282', '283', '284', '285', '288', '292', '296', '297', '300'],
      dtype='object', length=119)",False,1000,True,2,5273632c5c,1.0,1.0
./expes/v3_2021-02-05_di_300-prng-1-w1-p2,daily_issda-300,300,first-300,112,37,rng,num-start-101,101,536,classic,1003.4287858009338,False,,False,0,,,0,"Index(['1', '8', '9', '12', '14', '17', '19', '20', '21', '24',
       ...
       '277', '279', '281', '283', '287', '291', '294', '295', '297', '299'],
      dtype='object', length=112)",True,1000,True,2,d22b3ae32b,0.0,0.0
./expes/v3_2021-02-05_di_300-prng-1-w1-p2,daily_issda-300,300,first-300,140,46,rng,num-start-121,121,536,classic,10.972933769226074,True,,True,1.0,1.0,1.0,1,"Index(['1', '4', '7', '8', '9', '10', '11', '12', '15', '16',
       ...
       '277', '283', '284', '286', '287', '289', '292', '294', '295', '297'],
      dtype='object', length=140)",False,1000,True,2,7df626cb62,1.0,1.0
./expes/v3_2021-02-05_di_300-prng-1-w1-p2,daily_issda-300,300,first-300,28,9,rng,num-start-241,241,536,classic,9.413382291793823,True,,True,1.0,1.0,1.0,1,"Index(['4', '21', '27', '33', '42', '53', '57', '68', '71', '81', '87', '96',
       '105', '115', '122', '137', '150', '172', '174', '192', '195', '197',
       '217', '232', '238', '258', '260', '284'],
      dtype='object')",False,1000,True,2,361233e014,1.0,1.0
./expes/v3_2021-02-05_di_300-prng-1-w1-p2,daily_issda-300,300,first-300,133,44,rng,num-start-221,221,536,classic,9.662390947341919,True,,True,1.0,1.0,1.0,1,"Index(['1', '6', '10', '11', '13', '15', '17', '18', '22', '27',
       ...
       '279', '280', '283', '284', '287', '288', '292', '293', '297', '299'],
      dtype='object', length=133)",False,1000,True,2,3632945258,1.0,1.0
./expes/v3_2021-02-05_di_300-prng-1-w1-p2,daily_issda-300,300,first-300,7,2,rng,num-start-241,241,536,classic,9.463419914245605,True,,True,1.0,1.0,1.0,1,"Index(['95', '98', '232', '239', '261', '263', '287'], dtype='object')",False,1000,True,2,d9f48da7ec,1.0,1.0
./expes/v3_2021-02-05_di_300-prng-1-w1-p2,daily_issda-300,300,first-300,119,39,rng,num-start-211,211,536,classic,9.434302568435669,True,,True,1.0,1.0,1.0,1,"Index(['1', '4', '7', '8', '9', '10', '12', '15', '16', '19',
       ...
       '271', '276', '277', '284', '286', '287', '289', '292', '294', '295'],
      dtype='object', length=119)",False,1000,True,2,01777ecb4f,1.0,1.0
./expes/v3_2021-02-05_di_300-prng-1-w1-p2,daily_issda-300,300,first-300,21,7,rng,num-start-131,131,536,classic,5.169549942016602,True,,True,1.0,1.0,1.0,1,"Index(['3', '6', '12', '73', '113', '114', '117', '122', '130', '133', '146',
       '152', '155', '159', '172', '186', '210', '214', '229', '241', '247'],
      dtype='object')",False,1000,True,2,801bf1da35,1.0,1.0
./expes/v3_2021-02-05_di_300-prng-1-w1-p2,daily_issda-300,300,first-300,35,11,rng,num-start-241,241,536,classic,9.506988763809204,True,,True,1.0,1.0,1.0,1,"Index(['3', '8', '16', '19', '22', '31', '33', '44', '47', '49', '73', '81',
       '95', '96', '98', '101', '120', '124', '151', '156', '168', '203',
       '226', '229', '232', '238', '239', '244', '256', '261', '263', '266',
       '271', '276', '287'],
      dtype='object')",False,1000,True,2,2c62668677,1.0,1.0
./expes/v3_2021-02-05_di_300-prng-1-w1-p2,daily_issda-300,300,first-300,133,44,rng,num-start-221,221,536,classic,10.102088212966919,True,,True,1.0,1.0,1.0,1,"Index(['1', '2', '3', '4', '5', '7', '8', '9', '10', '13',
       ...
       '277', '284', '285', '287', '288', '290', '294', '295', '297', '300'],
      dtype='object', length=133)",False,1000,True,2,1b883ee7d0,1.0,1.0
./expes/v3_2021-02-05_di_300-prng-1-w1-p2,daily_issda-300,300,first-300,7,2,rng,num-start-211,211,536,classic,8.092047929763794,True,,True,1.0,1.0,1.0,1,"Index(['34', '67', '122', '190', '243', '279', '298'], dtype='object')",False,1000,True,2,77e6cace5a,1.0,1.0
./expes/v3_2021-02-05_di_300-prng-1-w1-p2,daily_issda-300,300,first-300,119,39,rng,num-start-251,251,536,classic,11.33359146118164,True,,True,1.0,1.0,1.0,1,"Index(['2', '7', '9', '11', '14', '16', '17', '18', '20', '23',
       ...
       '273', '277', '280', '286', '289', '292', '294', '297', '298', '300'],
      dtype='object', length=119)",False,1000,True,2,ec72bea48a,1.0,1.0
./expes/v3_2021-02-05_di_300-prng-1-w1-p2,daily_issda-300,300,first-300,140,46,rng,num-start-121,121,536,classic,14.708881616592407,True,,True,1.0,1.0,1.0,1,"Index(['2', '3', '8', '13', '17', '18', '19', '23', '24', '26',
       ...
       '278', '279', '282', '287', '291', '293', '295', '296', '299', '300'],
      dtype='object', length=140)",False,1000,True,2,8e4067e2a0,1.0,1.0
./expes/v3_2021-02-05_di_300-prng-1-w1-p2,daily_issda-300,300,first-300,14,4,rng,num-start-21,21,536,classic,23.905142068862915,True,,True,1.0,1.0,1.0,1,"Index(['6', '9', '19', '29', '60', '76', '81', '107', '123', '174', '183',
       '189', '239', '267'],
      dtype='object')",False,1000,True,2,7266271741,1.0,1.0
./expes/v3_2021-02-05_di_300-prng-1-w1-p2,daily_issda-300,300,first-300,70,23,rng,num-start-21,21,536,classic,1000.7457759380341,False,,False,0,,,0,"Index(['4', '11', '14', '23', '24', '31', '35', '42', '45', '46', '47', '53',
       '55', '75', '80', '83', '85', '89', '92', '95', '100', '101', '104',
       '110', '114', '120', '121', '127', '128', '133', '134', '135', '140',
       '142', '144', '148', '149', '150', '154', '156', '157', '159', '160',
       '173', '176', '183', '185', '191', '199', '203', '206', '212', '217',
       '221', '224', '226', '232', '237', '242', '243', '246', '260', '261',
       '266', '267', '274', '275', '281', '282', '294'],
      dtype='object')",True,1000,True,2,2df5f3bfdb,0.0,0.0
./expes/v3_2021-02-05_di_300-prng-1-w1-p2,daily_issda-300,300,first-300,7,2,rng,num-start-41,41,536,classic,1.8415086269378662,True,,True,1.0,1.0,1.0,1,"Index(['34', '67', '122', '190', '243', '279', '298'], dtype='object')",False,1000,True,2,b02821a61d,1.0,1.0
./expes/v3_2021-02-05_di_300-prng-1-w1-p2,daily_issda-300,300,first-300,91,30,rng,num-start-201,201,536,classic,9.431304931640625,True,,True,1.0,1.0,1.0,1,"Index(['1', '3', '5', '6', '8', '9', '11', '16', '19', '22', '27', '31', '33',
       '35', '36', '38', '43', '44', '45', '47', '49', '52', '56', '60', '61',
       '68', '69', '73', '75', '81', '91', '95', '96', '97', '98', '101',
       '102', '108', '109', '110', '118', '120', '124', '127', '131', '133',
       '139', '143', '148', '149', '151', '156', '160', '162', '168', '169',
       '171', '173', '193', '197', '198', '202', '203', '204', '206', '209',
       '210', '215', '216', '226', '227', '229', '230', '232', '235', '238',
       '239', '241', '244', '250', '256', '261', '263', '266', '271', '276',
       '283', '287', '289', '290', '296'],
      dtype='object')",False,1000,True,2,d859f8915a,1.0,1.0
./expes/v3_2021-02-05_di_300-prng-1-w1-p2,daily_issda-300,300,first-300,14,4,rng,num-start-231,231,536,classic,8.81836223602295,True,,True,1.0,1.0,1.0,1,"Index(['16', '37', '65', '67', '76', '96', '110', '116', '119', '133', '149',
       '151', '221', '273'],
      dtype='object')",False,1000,True,2,13bbd8ae71,1.0,1.0
./expes/v3_2021-02-05_di_300-prng-1-w1-p2,daily_issda-300,300,first-300,56,18,rng,num-start-31,31,536,classic,1001.2142128944397,False,,False,0,,,0,"Index(['6', '15', '36', '38', '43', '46', '48', '49', '53', '55', '58', '59',
       '61', '63', '77', '83', '85', '93', '100', '105', '112', '115', '127',
       '131', '134', '135', '139', '141', '143', '144', '145', '150', '156',
       '162', '173', '184', '185', '187', '196', '202', '204', '207', '211',
       '225', '231', '232', '239', '249', '250', '257', '264', '265', '270',
       '283', '297', '299'],
      dtype='object')",True,1000,True,2,b060b3a9cd,0.0,0.0
./expes/v3_2021-02-05_di_300-prng-1-w1-p2,daily_issda-300,300,first-300,112,37,rng,num-start-51,51,536,classic,1001.7797744274139,False,,False,0,,,0,"Index(['1', '6', '10', '11', '13', '15', '17', '18', '22', '35',
       ...
       '270', '272', '274', '283', '287', '288', '292', '293', '297', '299'],
      dtype='object', length=112)",True,1000,True,2,81c95e69f9,0.0,0.0
./expes/v3_2021-02-05_di_300-prng-1-w1-p2,daily_issda-300,300,first-300,14,4,rng,num-start-91,91,536,classic,3.7269175052642822,True,,True,1.0,1.0,1.0,1,"Index(['20', '25', '30', '38', '45', '49', '78', '110', '166', '188', '203',
       '260', '275', '299'],
      dtype='object')",False,1000,True,2,8001cd6aee,1.0,1.0
./expes/v3_2021-02-05_di_300-prng-1-w1-p2,daily_issda-300,300,first-300,112,37,rng,num-start-261,261,536,classic,12.091423511505127,True,,True,1.0,1.0,1.0,1,"Index(['2', '3', '8', '16', '17', '19', '20', '22', '23', '36',
       ...
       '282', '284', '285', '287', '289', '290', '292', '296', '298', '299'],
      dtype='object', length=112)",False,1000,True,2,b5a21854c2,1.0,1.0
./expes/v3_2021-02-05_di_300-prng-1-w1-p2,daily_issda-300,300,first-300,42,14,rng,num-start-221,221,536,classic,9.48766016960144,True,,True,1.0,1.0,1.0,1,"Index(['4', '59', '61', '63', '87', '90', '93', '94', '101', '102', '103',
       '104', '111', '113', '121', '122', '123', '130', '136', '139', '140',
       '152', '154', '156', '167', '172', '176', '178', '188', '208', '230',
       '235', '246', '251', '253', '260', '268', '270', '276', '283', '294',
       '295'],
      dtype='object')",False,1000,True,2,72ff64ce0d,1.0,1.0
./expes/v3_2021-02-05_di_300-prng-1-w1-p2,daily_issda-300,300,first-300,112,37,rng,num-start-61,61,536,classic,1002.2256886959076,False,,False,0,,,0,"Index(['3', '4', '5', '10', '30', '41', '45', '46', '48', '52',
       ...
       '281', '283', '285', '286', '287', '291', '293', '294', '295', '297'],
      dtype='object', length=112)",True,1000,True,2,53ef17280e,0.0,0.0
./expes/v3_2021-02-05_di_300-prng-1-w1-p2,daily_issda-300,300,first-300,119,39,rng,num-start-121,121,536,classic,94.44975185394287,True,,True,1.0,1.0,1.0,1,"Index(['1', '3', '5', '6', '8', '9', '11', '16', '19', '20',
       ...
       '271', '276', '283', '284', '287', '289', '290', '295', '296', '299'],
      dtype='object', length=119)",False,1000,True,2,4ee9dc62a8,1.0,1.0
./expes/v3_2021-02-05_di_300-prng-1-w1-p2,daily_issda-300,300,first-300,140,46,rng,num-start-141,141,536,classic,12.770951747894287,True,,True,1.0,1.0,1.0,1,"Index(['1', '2', '4', '5', '6', '10', '13', '14', '15', '16',
       ...
       '278', '280', '282', '285', '286', '287', '292', '294', '296', '298'],
      dtype='object', length=140)",False,1000,True,2,37b2c421a1,1.0,1.0
./expes/v3_2021-02-05_di_300-prng-1-w1-p2,daily_issda-300,300,first-300,77,25,rng,num-start-31,31,536,classic,1001.1848623752594,False,,False,0,,,0,"Index(['2', '5', '12', '14', '15', '16', '18', '23', '33', '45', '49', '52',
       '53', '56', '61', '62', '69', '84', '87', '88', '89', '96', '98', '108',
       '111', '113', '114', '118', '119', '120', '125', '131', '137', '146',
       '149', '152', '156', '158', '163', '171', '177', '188', '190', '192',
       '195', '196', '200', '202', '207', '213', '214', '217', '222', '225',
       '229', '231', '236', '241', '242', '246', '250', '251', '254', '256',
       '257', '258', '259', '260', '261', '267', '271', '278', '281', '284',
       '285', '292', '297'],
      dtype='object')",True,1000,True,2,ffc41f45f6,0.0,0.0
./expes/v3_2021-02-05_di_300-prng-1-w1-p2,daily_issda-300,300,first-300,21,7,rng,num-start-131,131,536,classic,5.661830902099609,True,,True,1.0,1.0,1.0,1,"Index(['7', '15', '27', '53', '58', '81', '94', '111', '127', '128', '131',
       '144', '184', '191', '195', '209', '239', '241', '272', '279', '294'],
      dtype='object')",False,1000,True,2,29f4d18285,1.0,1.0
./expes/v3_2021-02-05_di_300-prng-1-w1-p2,daily_issda-300,300,first-300,70,23,rng,num-start-141,141,536,classic,6.428934574127197,True,,True,1.0,1.0,1.0,1,"Index(['1', '8', '21', '32', '33', '38', '42', '47', '48', '49', '51', '52',
       '56', '64', '72', '73', '76', '95', '97', '98', '105', '112', '114',
       '123', '124', '125', '129', '133', '134', '145', '148', '149', '150',
       '155', '156', '159', '162', '163', '164', '167', '170', '171', '182',
       '184', '198', '205', '208', '216', '223', '227', '228', '230', '242',
       '245', '249', '251', '253', '259', '261', '262', '267', '273', '277',
       '279', '281', '283', '287', '291', '295', '299'],
      dtype='object')",False,1000,True,2,fe5599a7bb,1.0,1.0
./expes/v3_2021-02-05_di_300-prng-1-w1-p2,daily_issda-300,300,first-300,84,28,rng,num-start-141,141,536,classic,6.5990309715271,True,,True,1.0,1.0,1.0,1,"Index(['20', '21', '24', '25', '26', '30', '31', '32', '33', '34', '36', '38',
       '40', '42', '45', '47', '48', '49', '50', '53', '61', '64', '69', '74',
       '78', '85', '93', '97', '106', '110', '114', '115', '124', '125', '128',
       '139', '148', '149', '154', '158', '159', '161', '166', '175', '176',
       '180', '186', '188', '191', '203', '204', '215', '216', '218', '219',
       '223', '230', '233', '234', '239', '243', '251', '254', '255', '260',
       '263', '269', '273', '275', '277', '281', '283', '286', '287', '289',
       '290', '293', '294', '295', '296', '297', '298', '299', '300'],
      dtype='object')",False,1000,True,2,aaeff90fae,1.0,1.0
./expes/v3_2021-02-05_di_300-prng-1-w1-p2,daily_issda-300,300,first-300,35,11,rng,num-start-211,211,536,classic,9.03362774848938,True,,True,1.0,1.0,1.0,1,"Index(['20', '24', '25', '26', '30', '31', '32', '36', '38', '45', '47', '49',
       '64', '69', '78', '110', '114', '115', '124', '149', '166', '188',
       '203', '204', '215', '218', '223', '260', '275', '283', '286', '290',
       '296', '299', '300'],
      dtype='object')",False,1000,True,2,80d54d6230,1.0,1.0
./expes/v3_2021-02-05_di_300-prng-1-w1-p2,daily_issda-300,300,first-300,63,21,rng,num-start-241,241,536,classic,10.057912826538086,True,,True,1.0,1.0,1.0,1,"Index(['2', '5', '12', '14', '15', '16', '18', '33', '49', '52', '53', '61',
       '62', '69', '89', '96', '98', '108', '111', '113', '114', '118', '119',
       '120', '125', '131', '137', '146', '149', '152', '156', '163', '171',
       '177', '188', '192', '195', '196', '200', '202', '207', '213', '214',
       '217', '222', '225', '229', '231', '236', '242', '246', '250', '254',
       '256', '257', '259', '260', '271', '278', '281', '284', '285', '292'],
      dtype='object')",False,1000,True,2,25da9bfa18,1.0,1.0
./expes/v3_2021-02-05_di_300-prng-1-w1-p2,daily_issda-300,300,first-300,49,16,rng,num-start-81,81,536,classic,11.349492311477661,True,,True,1.0,1.0,1.0,1,"Index(['1', '8', '21', '32', '33', '38', '48', '49', '51', '52', '72', '76',
       '98', '105', '112', '114', '123', '125', '129', '133', '134', '145',
       '156', '159', '162', '167', '170', '171', '182', '184', '198', '205',
       '208', '216', '223', '227', '242', '245', '249', '253', '259', '262',
       '267', '273', '281', '283', '287', '291', '299'],
      dtype='object')",False,1000,True,2,cf85abb36d,1.0,1.0
./expes/v3_2021-02-05_di_300-prng-1-w1-p2,daily_issda-300,300,first-300,91,30,rng,num-start-211,211,536,classic,9.289948463439941,True,,True,1.0,1.0,1.0,1,"Index(['4', '10', '41', '45', '46', '48', '52', '59', '61', '63', '65', '67',
       '68', '69', '74', '75', '76', '78', '83', '84', '87', '90', '93', '94',
       '98', '101', '102', '103', '104', '105', '106', '111', '113', '121',
       '122', '123', '128', '130', '133', '136', '139', '140', '145', '152',
       '154', '155', '156', '167', '172', '174', '176', '178', '181', '185',
       '188', '198', '202', '204', '205', '208', '209', '214', '217', '219',
       '223', '224', '230', '235', '241', '245', '246', '251', '252', '253',
       '254', '257', '260', '263', '268', '270', '273', '274', '276', '278',
       '279', '283', '291', '293', '294', '295', '297'],
      dtype='object')",False,1000,True,2,581ead4660,1.0,1.0
./expes/v3_2021-02-05_di_300-prng-1-w1-p2,daily_issda-300,300,first-300,126,42,rng,num-start-71,71,536,classic,1002.5854744911194,False,,False,0,,,0,"Index(['4', '6', '7', '8', '11', '12', '14', '15', '16', '17',
       ...
       '282', '283', '287', '292', '293', '294', '296', '297', '298', '300'],
      dtype='object', length=126)",True,1000,True,2,7b4a2ceff7,0.0,0.0
./expes/v3_2021-02-05_di_300-prng-1-w1-p2,daily_issda-300,300,first-300,77,25,rng,num-start-271,271,536,classic,13.437208890914917,True,,True,1.0,1.0,1.0,1,"Index(['5', '13', '15', '19', '29', '39', '44', '47', '55', '70', '82', '83',
       '85', '86', '87', '89', '91', '94', '98', '107', '109', '114', '119',
       '121', '128', '129', '138', '143', '156', '158', '159', '160', '164',
       '167', '175', '180', '182', '185', '186', '187', '188', '191', '195',
       '202', '205', '209', '213', '217', '221', '228', '229', '233', '234',
       '237', '239', '246', '250', '251', '256', '257', '258', '259', '260',
       '261', '262', '263', '264', '266', '269', '270', '272', '279', '286',
       '287', '288', '291', '298'],
      dtype='object')",False,1000,True,2,8600ceca40,1.0,1.0
./expes/v3_2021-02-05_di_300-prng-1-w1-p2,daily_issda-300,300,first-300,56,18,rng,num-start-81,81,536,classic,1002.856499671936,False,,False,0,,,0,"Index(['1', '2', '3', '7', '12', '15', '27', '34', '37', '53', '58', '65',
       '68', '72', '75', '81', '82', '85', '86', '94', '101', '102', '105',
       '108', '111', '127', '128', '131', '136', '144', '149', '153', '155',
       '157', '159', '161', '162', '170', '174', '182', '184', '185', '191',
       '195', '197', '200', '209', '213', '228', '239', '241', '247', '272',
       '277', '279', '294'],
      dtype='object')",True,1000,True,2,e83dec19ac,0.0,0.0
./expes/v3_2021-02-05_di_300-prng-1-w1-p2,daily_issda-300,300,first-300,126,42,rng,num-start-1,1,536,classic,2.6377899646759033,False,,False,0.3308506612462395,0.3108582236144247,0.3508430988780543,2,"Index(['1', '2', '3', '5', '7', '8', '9', '12', '14', '15',
       ...
       '281', '282', '283', '284', '285', '288', '292', '296', '297', '300'],
      dtype='object', length=126)",False,1000,True,2,875f0adab1,1.0,1.0
./expes/v3_2021-02-05_di_300-prng-1-w1-p2,daily_issda-300,300,first-300,126,42,rng,num-start-211,211,536,classic,9.805802822113037,True,,True,1.0,1.0,1.0,1,"Index(['2', '4', '5', '9', '12', '13', '14', '21', '23', '24',
       ...
       '271', '278', '280', '281', '288', '292', '293', '296', '297', '300'],
      dtype='object', length=126)",False,1000,True,2,fc2a8af922,1.0,1.0
./expes/v3_2021-02-05_di_300-prng-1-w1-p2,daily_issda-300,300,first-300,63,21,rng,num-start-221,221,536,classic,9.996974229812622,True,,True,1.0,1.0,1.0,1,"Index(['7', '8', '15', '16', '19', '22', '33', '34', '50', '54', '64', '67',
       '69', '70', '78', '82', '84', '99', '109', '112', '119', '120', '122',
       '133', '137', '138', '144', '146', '155', '168', '173', '180', '188',
       '190', '198', '199', '200', '203', '204', '209', '216', '219', '224',
       '228', '241', '243', '244', '247', '254', '260', '268', '274', '277',
       '278', '279', '282', '283', '292', '293', '294', '296', '298', '300'],
      dtype='object')",False,1000,True,2,fd0c17ec7b,1.0,1.0
./expes/v3_2021-02-05_di_300-prng-1-w1-p2,daily_issda-300,300,first-300,28,9,rng,num-start-71,71,536,classic,4.780415773391724,True,,True,1.0,1.0,1.0,1,"Index(['8', '16', '37', '44', '65', '67', '72', '76', '96', '110', '116',
       '119', '120', '132', '133', '135', '142', '149', '151', '183', '220',
       '221', '224', '231', '250', '273', '282', '289'],
      dtype='object')",False,1000,True,2,835f96a9f6,1.0,1.0
./expes/v3_2021-02-05_di_300-prng-1-w1-p2,daily_issda-300,300,first-300,119,39,rng,num-start-111,111,536,classic,49.24310088157654,True,,True,1.0,1.0,1.0,1,"Index(['1', '6', '10', '11', '13', '15', '17', '18', '22', '35',
       ...
       '274', '280', '283', '284', '287', '288', '292', '293', '297', '299'],
      dtype='object', length=119)",False,1000,True,2,f16166c87f,1.0,1.0
./expes/v3_2021-02-05_di_300-prng-1-w1-p2,daily_issda-300,300,first-300,140,46,rng,num-start-41,41,536,classic,1001.4700751304626,False,,False,0,,,0,"Index(['1', '3', '5', '6', '8', '9', '10', '11', '16', '18',
       ...
       '283', '284', '287', '289', '290', '293', '295', '296', '299', '300'],
      dtype='object', length=140)",True,1000,True,2,904891e313,0.0,0.0
./expes/v3_2021-02-05_di_300-prng-1-w1-p2,daily_issda-300,300,first-300,133,44,rng,num-start-201,201,536,classic,9.680050134658813,True,,True,1.0,1.0,1.0,1,"Index(['3', '7', '12', '20', '21', '24', '25', '26', '28', '30',
       ...
       '289', '290', '293', '294', '295', '296', '297', '298', '299', '300'],
      dtype='object', length=133)",False,1000,True,2,1e05451978,1.0,1.0
./expes/v3_2021-02-05_di_300-prng-1-w1-p2,daily_issda-300,300,first-300,63,21,rng,num-start-101,101,536,classic,11.185834169387817,True,,True,1.0,1.0,1.0,1,"Index(['1', '6', '10', '16', '27', '31', '32', '39', '43', '45', '47', '58',
       '59', '70', '74', '75', '84', '88', '99', '103', '108', '115', '117',
       '121', '130', '134', '138', '141', '159', '161', '172', '173', '174',
       '180', '183', '186', '187', '189', '191', '192', '196', '197', '198',
       '206', '208', '215', '217', '226', '228', '236', '241', '243', '245',
       '248', '260', '261', '263', '271', '277', '278', '285', '286', '296'],
      dtype='object')",False,1000,True,2,627119e0f4,1.0,1.0
./expes/v3_2021-02-05_di_300-prng-1-w1-p2,daily_issda-300,300,first-300,112,37,rng,num-start-251,251,536,classic,11.287590742111206,True,,True,1.0,1.0,1.0,1,"Index(['1', '2', '3', '4', '5', '9', '10', '13', '14', '16',
       ...
       '276', '277', '284', '285', '287', '290', '294', '295', '297', '300'],
      dtype='object', length=112)",False,1000,True,2,1ca2675008,1.0,1.0
./expes/v3_2021-02-05_di_300-prng-1-w1-p2,daily_issda-300,300,first-300,35,11,rng,num-start-1,1,536,classic,1.7065401077270508,False,,False,0.5483367735651286,0.544634367203922,0.5520391799263352,2,"Index(['21', '32', '38', '49', '51', '52', '72', '76', '105', '112', '129',
       '133', '134', '145', '156', '159', '162', '170', '182', '184', '198',
       '208', '216', '223', '227', '242', '245', '249', '259', '262', '267',
       '273', '283', '287', '299'],
      dtype='object')",False,1000,True,2,955f22ba42,1.0,1.0
./expes/v3_2021-02-05_di_300-prng-1-w1-p2,daily_issda-300,300,first-300,35,11,rng,num-start-181,181,536,classic,7.488126039505005,True,,True,1.0,1.0,1.0,1,"Index(['14', '32', '36', '42', '57', '64', '71', '72', '73', '78', '90', '101',
       '108', '128', '130', '143', '149', '156', '159', '163', '170', '188',
       '197', '206', '210', '213', '215', '243', '257', '260', '268', '273',
       '277', '283', '287'],
      dtype='object')",False,1000,True,2,38a1186a61,1.0,1.0
./expes/v3_2021-02-05_di_300-prng-1-w1-p2,daily_issda-300,300,first-300,91,30,rng,num-start-261,261,536,classic,12.024702787399292,True,,True,1.0,1.0,1.0,1,"Index(['1', '6', '10', '14', '15', '16', '17', '19', '23', '27', '31', '32',
       '39', '40', '43', '45', '47', '53', '58', '59', '70', '74', '75', '84',
       '88', '92', '99', '103', '105', '107', '108', '113', '114', '115',
       '117', '121', '130', '134', '138', '141', '142', '145', '159', '161',
       '172', '173', '174', '177', '180', '183', '186', '187', '189', '191',
       '192', '196', '197', '198', '199', '206', '208', '215', '217', '219',
       '221', '222', '226', '228', '234', '236', '241', '243', '244', '245',
       '248', '256', '257', '260', '261', '262', '263', '264', '266', '271',
       '277', '278', '282', '285', '286', '294', '296'],
      dtype='object')",False,1000,True,2,603b9fe7b6,1.0,1.0
./expes/v3_2021-02-05_di_300-prng-1-w1-p2,daily_issda-300,300,first-300,98,32,rng,num-start-141,141,536,classic,6.22552490234375,True,,True,1.0,1.0,1.0,1,"Index(['5', '6', '8', '9', '10', '19', '22', '23', '25', '29', '31', '32',
       '33', '34', '38', '41', '42', '44', '48', '52', '60', '72', '73', '76',
       '78', '81', '82', '85', '89', '92', '101', '106', '107', '115', '118',
       '119', '121', '123', '131', '134', '135', '140', '144', '147', '148',
       '152', '157', '159', '160', '161', '162', '163', '171', '173', '174',
       '177', '182', '183', '185', '189', '193', '195', '199', '200', '201',
       '203', '206', '208', '215', '216', '223', '225', '227', '230', '231',
       '234', '237', '239', '240', '243', '244', '247', '251', '252', '253',
       '254', '256', '257', '258', '262', '267', '272', '274', '279', '285',
       '290', '292', '296'],
      dtype='object')",False,1000,True,2,43a16c540a,1.0,1.0
./expes/v3_2021-02-05_di_300-prng-1-w1-p2,daily_issda-300,300,first-300,70,23,rng,num-start-91,91,536,classic,12.618661403656006,True,,True,1.0,1.0,1.0,1,"Index(['20', '24', '25', '26', '30', '31', '32', '33', '36', '38', '42', '45',
       '47', '49', '50', '53', '61', '64', '69', '74', '78', '85', '93', '97',
       '106', '110', '114', '115', '124', '125', '128', '148', '149', '154',
       '158', '161', '166', '176', '186', '188', '191', '203', '204', '215',
       '218', '219', '223', '230', '233', '239', '254', '255', '260', '263',
       '269', '273', '275', '277', '281', '283', '286', '287', '289', '290',
       '293', '295', '296', '298', '299', '300'],
      dtype='object')",False,1000,True,2,7f8dafa4c3,1.0,1.0
./expes/v3_2021-02-05_di_300-prng-1-w1-p2,daily_issda-300,300,first-300,84,28,rng,num-start-151,151,536,classic,6.902127265930176,True,,True,1.0,1.0,1.0,1,"Index(['3', '5', '10', '11', '14', '26', '27', '28', '30', '32', '33', '36',
       '39', '42', '49', '57', '60', '64', '67', '71', '72', '73', '78', '88',
       '90', '99', '101', '102', '108', '110', '123', '128', '129', '130',
       '133', '137', '140', '142', '143', '149', '156', '158', '159', '163',
       '164', '170', '171', '172', '173', '179', '182', '185', '188', '191',
       '192', '197', '201', '206', '207', '208', '210', '213', '215', '222',
       '240', '243', '245', '249', '257', '260', '268', '269', '270', '273',
       '277', '283', '284', '285', '286', '287', '289', '293', '295', '297'],
      dtype='object')",False,1000,True,2,e78eff95a6,1.0,1.0
./expes/v3_2021-02-05_di_300-prng-1-w1-p2,daily_issda-300,300,first-300,105,35,rng,num-start-211,211,536,classic,9.01362419128418,True,,True,1.0,1.0,1.0,1,"Index(['1', '2', '3', '5', '7', '12', '14', '15', '16', '18',
       ...
       '276', '277', '278', '281', '284', '285', '288', '292', '296', '297'],
      dtype='object', length=105)",False,1000,True,2,c4cc7da551,1.0,1.0
./expes/v3_2021-02-05_di_300-prng-1-w1-p2,daily_issda-300,300,first-300,42,14,rng,num-start-91,91,536,classic,3.8182311058044434,True,,True,1.0,1.0,1.0,1,"Index(['13', '15', '19', '29', '44', '47', '70', '82', '85', '87', '89', '91',
       '94', '109', '119', '121', '129', '138', '158', '164', '167', '182',
       '185', '187', '191', '195', '202', '213', '217', '221', '228', '229',
       '239', '258', '261', '262', '264', '269', '270', '279', '287', '298'],
      dtype='object')",False,1000,True,2,497f048ef7,1.0,1.0
./expes/v3_2021-02-05_di_300-prng-1-w1-p2,daily_issda-300,300,first-300,84,28,rng,num-start-111,111,536,classic,9.01076602935791,True,,True,1.0,1.0,1.0,1,"Index(['3', '4', '5', '6', '7', '8', '11', '12', '15', '17', '23', '24', '25',
       '34', '37', '41', '43', '45', '48', '52', '59', '63', '73', '74', '79',
       '80', '85', '89', '92', '113', '114', '115', '117', '119', '121', '122',
       '123', '125', '130', '131', '133', '145', '146', '151', '152', '155',
       '156', '159', '163', '164', '172', '179', '186', '190', '192', '202',
       '205', '208', '210', '214', '216', '217', '228', '229', '233', '234',
       '236', '238', '241', '244', '245', '247', '251', '252', '254', '256',
       '262', '265', '268', '277', '278', '289', '297', '299'],
      dtype='object')",False,1000,True,2,df23f6ac86,1.0,1.0
./expes/v3_2021-02-05_di_300-prng-1-w1-p2,daily_issda-300,300,first-300,56,18,rng,num-start-61,61,536,classic,1002.2114584445953,False,,False,0,,,0,"Index(['4', '52', '59', '61', '63', '68', '75', '83', '87', '90', '93', '94',
       '98', '101', '102', '103', '104', '106', '111', '113', '121', '122',
       '123', '130', '136', '139', '140', '145', '152', '154', '156', '167',
       '172', '176', '178', '188', '208', '209', '224', '230', '235', '245',
       '246', '251', '253', '254', '257', '260', '263', '268', '270', '276',
       '283', '291', '294', '295'],
      dtype='object')",True,1000,True,2,86467535af,0.0,0.0
./expes/v3_2021-02-05_di_300-prng-1-w1-p2,daily_issda-300,300,first-300,112,37,rng,num-start-51,51,536,classic,1001.7335267066956,False,,False,0,,,0,"Index(['4', '5', '10', '11', '14', '22', '23', '24', '29', '31',
       ...
       '266', '267', '274', '275', '281', '282', '286', '293', '294', '299'],
      dtype='object', length=112)",True,1000,True,2,3a687bea7a,0.0,0.0
./expes/v3_2021-02-05_di_300-prng-1-w1-p2,daily_issda-300,300,first-300,77,25,rng,num-start-41,41,536,classic,1001.4715402126312,False,,False,0,,,0,"Index(['3', '8', '17', '18', '19', '23', '34', '37', '39', '42', '50', '58',
       '62', '69', '72', '74', '77', '81', '83', '86', '90', '92', '98', '100',
       '106', '115', '121', '123', '126', '128', '135', '137', '141', '143',
       '146', '155', '156', '161', '167', '168', '179', '182', '185', '186',
       '188', '192', '193', '196', '197', '212', '213', '216', '220', '222',
       '224', '226', '227', '229', '231', '234', '237', '241', '248', '251',
       '252', '255', '257', '267', '268', '274', '275', '282', '291', '293',
       '296', '299', '300'],
      dtype='object')",True,1000,True,2,ae3f6c3fef,0.0,0.0
./expes/v3_2021-02-05_di_300-prng-1-w1-p2,daily_issda-300,300,first-300,35,11,rng,num-start-271,271,536,classic,10.797690629959106,True,,True,1.0,1.0,1.0,1,"Index(['1', '6', '10', '31', '32', '39', '45', '47', '74', '75', '84', '103',
       '108', '115', '117', '138', '141', '173', '174', '180', '189', '192',
       '196', '208', '217', '226', '228', '236', '243', '248', '261', '263',
       '271', '286', '296'],
      dtype='object')",False,1000,True,2,54139494dd,1.0,1.0
./expes/v3_2021-02-05_di_300-prng-1-w1-p2,daily_issda-300,300,first-300,84,28,rng,num-start-91,91,536,classic,1003.3057839870453,False,,False,0,,,0,"Index(['3', '5', '10', '11', '14', '26', '27', '28', '30', '32', '33', '36',
       '39', '42', '49', '57', '60', '64', '67', '71', '72', '73', '78', '88',
       '90', '99', '101', '102', '108', '110', '123', '128', '129', '130',
       '133', '137', '140', '142', '143', '149', '156', '158', '159', '163',
       '164', '170', '171', '172', '173', '179', '182', '185', '188', '191',
       '192', '197', '201', '206', '207', '208', '210', '213', '215', '222',
       '240', '243', '245', '249', '257', '260', '268', '269', '270', '273',
       '277', '283', '284', '285', '286', '287', '289', '293', '295', '297'],
      dtype='object')",True,1000,True,2,78c812bdcf,0.0,0.0
./expes/v3_2021-02-05_di_300-prng-1-w1-p2,daily_issda-300,300,first-300,42,14,rng,num-start-101,101,536,classic,7.778156042098999,True,,True,1.0,1.0,1.0,1,"Index(['9', '12', '23', '37', '38', '51', '56', '59', '62', '76', '82', '103',
       '104', '120', '134', '138', '149', '154', '160', '167', '168', '178',
       '199', '202', '203', '209', '211', '213', '217', '226', '234', '258',
       '262', '267', '271', '278', '280', '292', '293', '296', '297', '300'],
      dtype='object')",False,1000,True,2,69e44c553a,1.0,1.0
./expes/v3_2021-02-05_di_300-prng-1-w1-p2,daily_issda-300,300,first-300,49,16,rng,num-start-71,71,536,classic,5.706491470336914,True,,True,1.0,1.0,1.0,1,"Index(['7', '8', '16', '19', '22', '33', '34', '50', '67', '69', '70', '78',
       '82', '99', '112', '119', '120', '122', '133', '138', '155', '180',
       '188', '190', '198', '199', '200', '203', '204', '209', '216', '219',
       '224', '228', '241', '243', '244', '254', '260', '268', '274', '277',
       '279', '282', '283', '294', '296', '298', '300'],
      dtype='object')",False,1000,True,2,70a35e3db1,1.0,1.0
./expes/v3_2021-02-05_di_300-prng-1-w1-p2,daily_issda-300,300,first-300,91,30,rng,num-start-271,271,536,classic,12.071311950683594,True,,True,1.0,1.0,1.0,1,"Index(['3', '5', '10', '11', '14', '26', '27', '28', '30', '32', '33', '36',
       '39', '42', '48', '49', '57', '60', '64', '67', '71', '72', '73', '78',
       '83', '88', '90', '94', '99', '101', '102', '108', '109', '110', '123',
       '128', '129', '130', '133', '137', '140', '142', '143', '149', '156',
       '157', '158', '159', '162', '163', '164', '170', '171', '172', '173',
       '179', '182', '185', '188', '191', '192', '197', '201', '206', '207',
       '208', '210', '213', '215', '222', '240', '243', '245', '249', '257',
       '260', '268', '269', '270', '273', '275', '277', '283', '284', '285',
       '286', '287', '289', '293', '295', '297'],
      dtype='object')",False,1000,True,2,06c575025a,1.0,1.0
./expes/v3_2021-02-05_di_300-prng-1-w1-p2,daily_issda-300,300,first-300,42,14,rng,num-start-191,191,536,classic,8.180020332336426,True,,True,1.0,1.0,1.0,1,"Index(['2', '5', '12', '14', '15', '16', '33', '49', '52', '53', '61', '69',
       '108', '111', '113', '114', '118', '119', '120', '131', '137', '149',
       '163', '177', '195', '196', '200', '214', '217', '222', '225', '229',
       '231', '236', '242', '250', '254', '271', '278', '284', '285', '292'],
      dtype='object')",False,1000,True,2,12c08d86cc,1.0,1.0
./expes/v3_2021-02-05_di_300-prng-1-w1-p2,daily_issda-300,300,first-300,14,4,rng,num-start-231,231,536,classic,8.766367197036743,True,,True,1.0,1.0,1.0,1,"Index(['15', '27', '58', '81', '127', '128', '131', '184', '191', '195', '239',
       '241', '272', '279'],
      dtype='object')",False,1000,True,2,e8e0d3bd9b,1.0,1.0
./expes/v3_2021-02-05_di_300-prng-1-w1-p2,daily_issda-300,300,first-300,91,30,rng,num-start-31,31,536,classic,1001.0675616264343,False,,False,0,,,0,"Index(['1', '6', '10', '14', '15', '16', '17', '19', '23', '27', '31', '32',
       '39', '40', '43', '45', '47', '53', '58', '59', '70', '74', '75', '84',
       '88', '92', '99', '103', '105', '107', '108', '113', '114', '115',
       '117', '121', '130', '134', '138', '141', '142', '145', '159', '161',
       '172', '173', '174', '177', '180', '183', '186', '187', '189', '191',
       '192', '196', '197', '198', '199', '206', '208', '215', '217', '219',
       '221', '222', '226', '228', '234', '236', '241', '243', '244', '245',
       '248', '256', '257', '260', '261', '262', '263', '264', '266', '271',
       '277', '278', '282', '285', '286', '294', '296'],
      dtype='object')",True,1000,True,2,bcfa4645e5,0.0,0.0
./expes/v3_2021-02-05_di_300-prng-1-w1-p2,daily_issda-300,300,first-300,42,14,rng,num-start-231,231,536,classic,9.3017258644104,True,,True,1.0,1.0,1.0,1,"Index(['13', '15', '19', '29', '44', '47', '70', '82', '85', '87', '89', '91',
       '94', '109', '119', '121', '129', '138', '158', '164', '167', '182',
       '185', '187', '191', '195', '202', '213', '217', '221', '228', '229',
       '239', '258', '261', '262', '264', '269', '270', '279', '287', '298'],
      dtype='object')",False,1000,True,2,094cc31b27,1.0,1.0
./expes/v3_2021-02-05_di_300-prng-1-w1-p2,daily_issda-300,300,first-300,63,21,rng,num-start-231,231,536,classic,9.558189392089844,True,,True,1.0,1.0,1.0,1,"Index(['1', '7', '9', '12', '15', '19', '24', '42', '46', '48', '49', '50',
       '60', '62', '71', '75', '87', '97', '99', '100', '101', '102', '103',
       '108', '115', '126', '129', '134', '136', '138', '140', '150', '156',
       '160', '164', '171', '172', '183', '185', '186', '192', '195', '210',
       '212', '218', '221', '228', '241', '248', '249', '250', '251', '257',
       '258', '264', '268', '269', '276', '277', '284', '289', '294', '295'],
      dtype='object')",False,1000,True,2,e0841abad3,1.0,1.0
./expes/v3_2021-02-05_di_300-prng-1-w1-p2,daily_issda-300,300,first-300,42,14,rng,num-start-181,181,536,classic,7.4405927658081055,True,,True,1.0,1.0,1.0,1,"Index(['9', '12', '23', '37', '38', '51', '56', '59', '62', '76', '82', '103',
       '104', '120', '134', '138', '149', '154', '160', '167', '168', '178',
       '199', '202', '203', '209', '211', '213', '217', '226', '234', '258',
       '262', '267', '271', '278', '280', '292', '293', '296', '297', '300'],
      dtype='object')",False,1000,True,2,1f1695ddd2,1.0,1.0
./expes/v3_2021-02-05_di_300-prng-1-w1-p2,daily_issda-300,300,first-300,56,18,rng,num-start-31,31,536,classic,1001.1056802272797,False,,False,0,,,0,"Index(['1', '8', '21', '32', '33', '38', '42', '47', '48', '49', '51', '52',
       '72', '73', '76', '98', '105', '112', '114', '123', '125', '129', '133',
       '134', '145', '156', '159', '162', '164', '167', '170', '171', '182',
       '184', '198', '205', '208', '216', '223', '227', '230', '242', '245',
       '249', '253', '259', '261', '262', '267', '273', '279', '281', '283',
       '287', '291', '299'],
      dtype='object')",True,1000,True,2,17e9bd08e2,0.0,0.0
./expes/v3_2021-02-05_di_300-prng-1-w1-p2,daily_issda-300,300,first-300,7,2,rng,num-start-121,121,536,classic,4.936302661895752,True,,True,1.0,1.0,1.0,1,"Index(['34', '67', '122', '190', '243', '279', '298'], dtype='object')",False,1000,True,2,bc56319e8e,1.0,1.0
./expes/v3_2021-02-05_di_300-prng-1-w1-p2,daily_issda-300,300,first-300,126,42,rng,num-start-91,91,536,classic,1003.0813543796539,False,,False,0,,,0,"Index(['2', '7', '9', '11', '14', '16', '17', '18', '20', '23',
       ...
       '273', '277', '280', '286', '289', '292', '294', '297', '298', '300'],
      dtype='object', length=126)",True,1000,True,2,a70dbf4d98,0.0,0.0
./expes/v3_2021-02-05_di_300-prng-1-w1-p2,daily_issda-300,300,first-300,140,46,rng,num-start-151,151,536,classic,6.968087196350098,True,,True,1.0,1.0,1.0,1,"Index(['1', '3', '5', '10', '11', '13', '15', '16', '17', '18',
       ...
       '272', '279', '283', '286', '287', '288', '291', '295', '298', '300'],
      dtype='object', length=140)",False,1000,True,2,6b3dae0674,1.0,1.0
./expes/v3_2021-02-05_di_300-prng-1-w1-p2,daily_issda-300,300,first-300,112,37,rng,num-start-61,61,536,classic,1002.1523687839508,False,,False,0,,,0,"Index(['4', '5', '10', '11', '14', '22', '23', '24', '29', '31',
       ...
       '266', '267', '274', '275', '281', '282', '286', '293', '294', '299'],
      dtype='object', length=112)",True,1000,True,2,18cfa4a88d,0.0,0.0
