expe,clients,clients_size,clients_subset,agg_size,agg_size_pc,method,days,days_size,days_total,noise_method,time,valid,valid_sum,success,score_avg,score_min,score_max,nsols,oracle,wall_hit,wall_time,pooled,pool_size,uuid,optimal,valid_sums
./expes/v3_2021-02-05_di_300-prng-1-w1-p2,daily_issda-300,300,first-300,56,18,rng,num-start-101,101,536,classic,3.98657488822937,True,,True,1.0,1.0,1.0,1,"Index(['11', '16', '20', '23', '30', '33', '44', '45', '46', '50', '56', '59',
       '65', '71', '73', '76', '99', '100', '107', '108', '117', '120', '121',
       '127', '133', '137', '147', '174', '190', '193', '194', '195', '198',
       '200', '206', '207', '209', '228', '233', '234', '236', '243', '249',
       '250', '251', '254', '255', '260', '265', '267', '277', '286', '294',
       '297', '298', '300'],
      dtype='object')",False,1000,True,2,b6a1ea941e,1.0,1.0
./expes/v3_2021-02-05_di_300-prng-1-w1-p2,daily_issda-300,300,first-300,112,37,rng,num-start-231,231,536,classic,7.494080066680908,True,,True,1.0,1.0,1.0,1,"Index(['3', '4', '5', '6', '7', '8', '11', '12', '15', '16',
       ...
       '258', '262', '265', '268', '270', '277', '278', '289', '297', '299'],
      dtype='object', length=112)",False,1000,True,2,9da4a06360,1.0,1.0
./expes/v3_2021-02-05_di_300-prng-1-w1-p2,daily_issda-300,300,first-300,133,44,rng,num-start-161,161,536,classic,5.7314536571502686,True,,True,1.0,1.0,1.0,1,"Index(['1', '3', '5', '10', '11', '13', '15', '16', '17', '18',
       ...
       '272', '279', '283', '286', '287', '288', '291', '295', '298', '300'],
      dtype='object', length=133)",False,1000,True,2,6c730b9246,1.0,1.0
./expes/v3_2021-02-05_di_300-prng-1-w1-p2,daily_issda-300,300,first-300,28,9,rng,num-start-221,221,536,classic,7.754815101623535,True,,True,1.0,1.0,1.0,1,"Index(['15', '19', '29', '44', '47', '82', '85', '87', '109', '129', '138',
       '158', '164', '185', '187', '191', '195', '202', '217', '221', '228',
       '239', '258', '261', '270', '279', '287', '298'],
      dtype='object')",False,1000,True,2,f2cc4112df,1.0,1.0
./expes/v3_2021-02-05_di_300-prng-1-w1-p2,daily_issda-300,300,first-300,119,39,rng,num-start-151,151,536,classic,5.791903972625732,True,,True,1.0,1.0,1.0,1,"Index(['2', '7', '9', '11', '14', '16', '17', '18', '20', '23',
       ...
       '273', '277', '280', '286', '289', '292', '294', '297', '298', '300'],
      dtype='object', length=119)",False,1000,True,2,012d09b66a,1.0,1.0
./expes/v3_2021-02-05_di_300-prng-1-w1-p2,daily_issda-300,300,first-300,84,28,rng,num-start-21,21,536,classic,1000.6184892654419,False,,False,0,,,0,"Index(['2', '3', '4', '5', '9', '10', '13', '18', '21', '22', '23', '27', '28',
       '29', '33', '36', '42', '43', '44', '45', '48', '53', '57', '58', '63',
       '68', '69', '71', '72', '75', '77', '81', '83', '87', '89', '96', '99',
       '102', '103', '104', '105', '108', '115', '122', '137', '138', '139',
       '144', '150', '170', '172', '174', '175', '178', '188', '192', '194',
       '195', '197', '204', '206', '207', '211', '216', '217', '218', '232',
       '238', '252', '255', '257', '258', '259', '260', '268', '276', '277',
       '284', '285', '290', '294', '295', '297', '300'],
      dtype='object')",True,1000,True,2,450384594c,0.0,0.0
./expes/v3_2021-02-05_di_300-prng-1-w1-p2,daily_issda-300,300,first-300,7,2,rng,num-start-21,21,536,classic,0.8457527160644531,True,,True,1.0,1.0,1.0,1,"Index(['63', '93', '102', '123', '172', '230', '251'], dtype='object')",False,1000,True,2,9431635cab,1.0,1.0
./expes/v3_2021-02-05_di_300-prng-1-w1-p2,daily_issda-300,300,first-300,119,39,rng,num-start-211,211,536,classic,7.115833044052124,True,,True,1.0,1.0,1.0,1,"Index(['2', '3', '8', '16', '17', '19', '20', '22', '23', '36',
       ...
       '282', '284', '285', '287', '289', '290', '292', '296', '298', '299'],
      dtype='object', length=119)",False,1000,True,2,e9cebbcfde,1.0,1.0
./expes/v3_2021-02-05_di_300-prng-1-w1-p2,daily_issda-300,300,first-300,42,14,rng,num-start-121,121,536,classic,4.108264684677124,True,,True,1.0,1.0,1.0,1,"Index(['13', '15', '19', '29', '44', '47', '70', '82', '85', '87', '89', '91',
       '94', '109', '119', '121', '129', '138', '158', '164', '167', '182',
       '185', '187', '191', '195', '202', '213', '217', '221', '228', '229',
       '239', '258', '261', '262', '264', '269', '270', '279', '287', '298'],
      dtype='object')",False,1000,True,2,a2e70f9068,1.0,1.0
./expes/v3_2021-02-05_di_300-prng-1-w1-p2,daily_issda-300,300,first-300,84,28,rng,num-start-41,41,536,classic,1001.1460771560669,False,,False,0,,,0,"Index(['4', '41', '45', '46', '48', '52', '59', '61', '63', '65', '67', '68',
       '69', '74', '75', '76', '78', '83', '87', '90', '93', '94', '98', '101',
       '102', '103', '104', '105', '106', '111', '113', '121', '122', '123',
       '128', '130', '133', '136', '139', '140', '145', '152', '154', '155',
       '156', '167', '172', '174', '176', '178', '181', '185', '188', '198',
       '202', '204', '205', '208', '209', '214', '224', '230', '235', '241',
       '245', '246', '251', '252', '253', '254', '257', '260', '263', '268',
       '270', '273', '274', '276', '279', '283', '291', '294', '295', '297'],
      dtype='object')",True,1000,True,2,88afd82521,0.0,0.0
./expes/v3_2021-02-05_di_300-prng-1-w1-p2,daily_issda-300,300,first-300,77,25,rng,num-start-251,251,536,classic,8.41414213180542,True,,True,1.0,1.0,1.0,1,"Index(['1', '7', '9', '12', '15', '19', '24', '28', '40', '42', '46', '48',
       '49', '50', '60', '62', '65', '71', '75', '87', '95', '97', '99', '100',
       '101', '102', '103', '108', '115', '126', '129', '134', '136', '138',
       '140', '149', '150', '156', '157', '160', '164', '171', '172', '183',
       '185', '186', '192', '194', '195', '200', '204', '210', '212', '217',
       '218', '221', '226', '228', '229', '241', '248', '249', '250', '251',
       '257', '258', '264', '268', '269', '271', '276', '277', '284', '286',
       '289', '294', '295'],
      dtype='object')",False,1000,True,2,72ef4bd30b,1.0,1.0
./expes/v3_2021-02-05_di_300-prng-1-w1-p2,daily_issda-300,300,first-300,56,18,rng,num-start-191,191,536,classic,6.624643325805664,True,,True,1.0,1.0,1.0,1,"Index(['6', '15', '36', '38', '43', '46', '48', '49', '53', '55', '58', '59',
       '61', '63', '77', '83', '85', '93', '100', '105', '112', '115', '127',
       '131', '134', '135', '139', '141', '143', '144', '145', '150', '156',
       '162', '173', '184', '185', '187', '196', '202', '204', '207', '211',
       '225', '231', '232', '239', '249', '250', '257', '264', '265', '270',
       '283', '297', '299'],
      dtype='object')",False,1000,True,2,2068ef09ee,1.0,1.0
./expes/v3_2021-02-05_di_300-prng-1-w1-p2,daily_issda-300,300,first-300,14,4,rng,num-start-281,281,536,classic,8.862801313400269,True,,True,1.0,1.0,1.0,1,"Index(['47', '49', '73', '95', '96', '98', '156', '229', '232', '239', '244',
       '261', '263', '287'],
      dtype='object')",False,1000,True,2,8247e24040,1.0,1.0
./expes/v3_2021-02-05_di_300-prng-1-w1-p2,daily_issda-300,300,first-300,84,28,rng,num-start-11,11,536,classic,1000.3973550796509,False,,False,0,,,0,"Index(['6', '10', '11', '15', '35', '36', '38', '43', '46', '48', '49', '53',
       '55', '58', '59', '61', '63', '74', '77', '83', '85', '87', '93', '100',
       '105', '112', '115', '121', '127', '131', '132', '134', '135', '137',
       '139', '141', '143', '144', '145', '150', '156', '159', '162', '173',
       '178', '183', '184', '185', '187', '189', '196', '198', '202', '204',
       '207', '208', '211', '214', '217', '218', '224', '225', '226', '231',
       '232', '234', '236', '239', '242', '243', '246', '249', '250', '251',
       '257', '264', '265', '270', '274', '283', '292', '293', '297', '299'],
      dtype='object')",True,1000,True,2,c4e701cad3,0.0,0.0
./expes/v3_2021-02-05_di_300-prng-1-w1-p2,daily_issda-300,300,first-300,49,16,rng,num-start-21,21,536,classic,1000.6126372814178,False,,False,0,,,0,"Index(['13', '15', '19', '29', '44', '47', '70', '82', '83', '85', '87', '89',
       '91', '94', '109', '119', '121', '128', '129', '138', '158', '164',
       '167', '182', '185', '186', '187', '191', '195', '202', '205', '213',
       '217', '221', '228', '229', '237', '239', '251', '258', '261', '262',
       '264', '269', '270', '272', '279', '287', '298'],
      dtype='object')",True,1000,True,2,034fb03bf7,0.0,0.0
./expes/v3_2021-02-05_di_300-prng-1-w1-p2,daily_issda-300,300,first-300,56,18,rng,num-start-1,1,536,classic,1.711371898651123,False,,False,0.4485310987448954,0.43336940242013733,0.46369279506965344,2,"Index(['3', '8', '17', '18', '19', '23', '34', '37', '39', '69', '72', '81',
       '83', '90', '100', '106', '115', '121', '123', '128', '135', '143',
       '146', '155', '156', '161', '167', '168', '182', '185', '186', '188',
       '193', '196', '212', '216', '220', '224', '226', '231', '234', '237',
       '241', '248', '251', '252', '255', '257', '267', '274', '275', '282',
       '293', '296', '299', '300'],
      dtype='object')",False,1000,True,2,665eeaa53b,1.0,1.0
./expes/v3_2021-02-05_di_300-prng-1-w1-p2,daily_issda-300,300,first-300,133,44,rng,num-start-161,161,536,classic,5.812132358551025,True,,True,1.0,1.0,1.0,1,"Index(['1', '7', '8', '9', '12', '14', '17', '19', '20', '21',
       ...
       '279', '281', '283', '287', '291', '292', '294', '295', '297', '299'],
      dtype='object', length=133)",False,1000,True,2,3ec8f5bd0f,1.0,1.0
./expes/v3_2021-02-05_di_300-prng-1-w1-p2,daily_issda-300,300,first-300,133,44,rng,num-start-231,231,536,classic,8.256066083908081,True,,True,1.0,1.0,1.0,1,"Index(['1', '2', '3', '5', '7', '10', '12', '15', '17', '19',
       ...
       '273', '274', '277', '279', '280', '281', '282', '289', '294', '297'],
      dtype='object', length=133)",False,1000,True,2,016ca7c7dc,1.0,1.0
./expes/v3_2021-02-05_di_300-prng-1-w1-p2,daily_issda-300,300,first-300,98,32,rng,num-start-1,1,536,classic,1.683753252029419,False,,False,0.35347081169632705,0.34571134391237535,0.36123027948027875,2,"Index(['2', '4', '5', '9', '12', '14', '23', '24', '35', '37', '38', '39',
       '40', '44', '47', '51', '52', '54', '56', '58', '59', '62', '65', '66',
       '69', '71', '76', '79', '82', '88', '90', '94', '99', '103', '104',
       '107', '108', '120', '126', '134', '135', '138', '141', '146', '147',
       '149', '151', '154', '155', '158', '160', '167', '168', '178', '189',
       '193', '199', '200', '202', '203', '207', '209', '211', '213', '216',
       '217', '220', '221', '224', '225', '226', '231', '232', '233', '234',
       '235', '237', '238', '239', '240', '241', '244', '246', '253', '257',
       '258', '259', '262', '267', '271', '278', '280', '281', '292', '293',
       '296', '297', '300'],
      dtype='object')",False,1000,True,2,da76b984b1,1.0,1.0
./expes/v3_2021-02-05_di_300-prng-1-w1-p2,daily_issda-300,300,first-300,98,32,rng,num-start-41,41,536,classic,1001.2156021595001,False,,False,0,,,0,"Index(['2', '4', '5', '9', '12', '14', '23', '24', '35', '37', '38', '39',
       '40', '44', '47', '51', '52', '54', '56', '58', '59', '62', '65', '66',
       '69', '71', '76', '79', '82', '88', '90', '94', '99', '103', '104',
       '107', '108', '120', '126', '134', '135', '138', '141', '146', '147',
       '149', '151', '154', '155', '158', '160', '167', '168', '178', '189',
       '193', '199', '200', '202', '203', '207', '209', '211', '213', '216',
       '217', '220', '221', '224', '225', '226', '231', '232', '233', '234',
       '235', '237', '238', '239', '240', '241', '244', '246', '253', '257',
       '258', '259', '262', '267', '271', '278', '280', '281', '292', '293',
       '296', '297', '300'],
      dtype='object')",True,1000,True,2,80d70cd945,0.0,0.0
./expes/v3_2021-02-05_di_300-prng-1-w1-p2,daily_issda-300,300,first-300,84,28,rng,num-start-151,151,536,classic,5.56861424446106,True,,True,1.0,1.0,1.0,1,"Index(['4', '7', '8', '11', '15', '16', '19', '22', '23', '24', '33', '34',
       '35', '40', '46', '50', '54', '56', '61', '64', '67', '69', '70', '78',
       '82', '84', '99', '109', '112', '119', '120', '121', '122', '133',
       '137', '138', '143', '144', '146', '151', '155', '159', '168', '170',
       '173', '177', '180', '188', '190', '194', '198', '199', '200', '203',
       '204', '209', '211', '213', '216', '219', '224', '228', '241', '243',
       '244', '247', '248', '254', '259', '260', '268', '274', '275', '277',
       '278', '279', '282', '283', '292', '293', '294', '296', '298', '300'],
      dtype='object')",False,1000,True,2,798b02c9a9,1.0,1.0
./expes/v3_2021-02-05_di_300-prng-1-w1-p2,daily_issda-300,300,first-300,56,18,rng,num-start-261,261,536,classic,9.030303001403809,True,,True,1.0,1.0,1.0,1,"Index(['2', '5', '12', '14', '15', '16', '18', '33', '49', '52', '53', '61',
       '62', '69', '96', '98', '108', '111', '113', '114', '118', '119', '120',
       '131', '137', '146', '149', '152', '156', '163', '171', '177', '195',
       '196', '200', '202', '214', '217', '222', '225', '229', '231', '236',
       '242', '246', '250', '254', '256', '257', '259', '260', '271', '278',
       '284', '285', '292'],
      dtype='object')",False,1000,True,2,051ed0adcd,1.0,1.0
./expes/v3_2021-02-05_di_300-prng-1-w1-p2,daily_issda-300,300,first-300,56,18,rng,num-start-31,31,536,classic,1000.9294278621674,False,,False,0,,,0,"Index(['2', '5', '12', '14', '15', '16', '18', '33', '49', '52', '53', '61',
       '62', '69', '96', '98', '108', '111', '113', '114', '118', '119', '120',
       '131', '137', '146', '149', '152', '156', '163', '171', '177', '195',
       '196', '200', '202', '214', '217', '222', '225', '229', '231', '236',
       '242', '246', '250', '254', '256', '257', '259', '260', '271', '278',
       '284', '285', '292'],
      dtype='object')",True,1000,True,2,08c42f80d2,0.0,0.0
./expes/v3_2021-02-05_di_300-prng-1-w1-p2,daily_issda-300,300,first-300,21,7,rng,num-start-61,61,536,classic,3.195509195327759,True,,True,1.0,1.0,1.0,1,"Index(['11', '31', '35', '47', '53', '55', '80', '89', '114', '121', '135',
       '142', '149', '156', '185', '203', '206', '246', '267', '275', '282'],
      dtype='object')",False,1000,True,2,7e2639e85d,1.0,1.0
./expes/v3_2021-02-05_di_300-prng-1-w1-p2,daily_issda-300,300,first-300,140,46,rng,num-start-211,211,536,classic,7.831655740737915,True,,True,1.0,1.0,1.0,1,"Index(['4', '6', '7', '8', '11', '12', '14', '15', '16', '17',
       ...
       '283', '287', '292', '293', '294', '295', '296', '297', '298', '300'],
      dtype='object', length=140)",False,1000,True,2,24bf553567,1.0,1.0
./expes/v3_2021-02-05_di_300-prng-1-w1-p2,daily_issda-300,300,first-300,98,32,rng,num-start-171,171,536,classic,6.224136590957642,True,,True,1.0,1.0,1.0,1,"Index(['3', '8', '17', '18', '19', '23', '33', '34', '37', '39', '41', '42',
       '50', '58', '62', '69', '72', '74', '77', '81', '82', '83', '85', '86',
       '90', '91', '92', '98', '100', '106', '115', '121', '123', '124', '125',
       '126', '128', '135', '137', '140', '141', '143', '146', '155', '156',
       '161', '164', '167', '168', '170', '178', '179', '182', '185', '186',
       '188', '192', '193', '196', '197', '200', '206', '208', '212', '213',
       '216', '220', '222', '223', '224', '226', '227', '229', '230', '231',
       '234', '237', '241', '246', '248', '251', '252', '254', '255', '256',
       '257', '267', '268', '269', '274', '275', '279', '282', '291', '293',
       '296', '299', '300'],
      dtype='object')",False,1000,True,2,63c932fbe2,1.0,1.0
./expes/v3_2021-02-05_di_300-prng-1-w1-p2,daily_issda-300,300,first-300,7,2,rng,num-start-191,191,536,classic,6.547297954559326,True,,True,1.0,1.0,1.0,1,"Index(['95', '98', '232', '239', '261', '263', '287'], dtype='object')",False,1000,True,2,a75facadcc,1.0,1.0
./expes/v3_2021-02-05_di_300-prng-1-w1-p2,daily_issda-300,300,first-300,91,30,rng,num-start-81,81,536,classic,1002.4270057678223,False,,False,0,,,0,"Index(['7', '11', '14', '16', '18', '20', '23', '30', '33', '37', '44', '45',
       '46', '50', '56', '59', '60', '65', '70', '71', '73', '76', '77', '82',
       '83', '86', '88', '90', '99', '100', '102', '104', '107', '108', '113',
       '117', '120', '121', '125', '127', '131', '133', '137', '146', '147',
       '152', '153', '154', '159', '161', '174', '176', '177', '183', '190',
       '193', '194', '195', '198', '200', '203', '206', '207', '209', '214',
       '217', '219', '228', '233', '234', '236', '243', '249', '250', '251',
       '254', '255', '258', '260', '262', '265', '267', '271', '273', '277',
       '280', '286', '294', '297', '298', '300'],
      dtype='object')",True,1000,True,2,479bfa6fea,0.0,0.0
./expes/v3_2021-02-05_di_300-prng-1-w1-p2,daily_issda-300,300,first-300,14,4,rng,num-start-241,241,536,classic,7.901079177856445,True,,True,1.0,1.0,1.0,1,"Index(['38', '55', '61', '127', '131', '135', '139', '150', '156', '202',
       '204', '231', '239', '270'],
      dtype='object')",False,1000,True,2,c28eafb4df,1.0,1.0
./expes/v3_2021-02-05_di_300-prng-1-w1-p2,daily_issda-300,300,first-300,28,9,rng,num-start-91,91,536,classic,4.909848213195801,True,,True,1.0,1.0,1.0,1,"Index(['11', '16', '23', '44', '46', '65', '71', '99', '108', '117', '120',
       '127', '137', '190', '193', '200', '206', '207', '209', '233', '236',
       '243', '249', '250', '254', '260', '267', '294'],
      dtype='object')",False,1000,True,2,cb27f2443b,1.0,1.0
./expes/v3_2021-02-05_di_300-prng-1-w1-p2,daily_issda-300,300,first-300,70,23,rng,num-start-231,231,536,classic,7.5513739585876465,True,,True,1.0,1.0,1.0,1,"Index(['1', '2', '3', '5', '7', '10', '12', '15', '27', '30', '34', '37', '53',
       '58', '65', '68', '72', '75', '81', '82', '85', '86', '91', '94', '95',
       '101', '102', '105', '108', '111', '127', '128', '131', '132', '136',
       '144', '149', '153', '155', '157', '159', '161', '162', '170', '174',
       '182', '184', '185', '188', '191', '193', '195', '197', '200', '207',
       '209', '213', '215', '228', '232', '239', '241', '242', '247', '272',
       '277', '279', '282', '294', '297'],
      dtype='object')",False,1000,True,2,430a0a1205,1.0,1.0
./expes/v3_2021-02-05_di_300-prng-1-w1-p2,daily_issda-300,300,first-300,140,46,rng,num-start-21,21,536,classic,1000.6197490692139,False,,False,0,,,0,"Index(['2', '3', '5', '6', '8', '9', '10', '16', '19', '22',
       ...
       '282', '285', '286', '290', '292', '293', '295', '296', '297', '298'],
      dtype='object', length=140)",True,1000,True,2,72c5ac02fc,0.0,0.0
./expes/v3_2021-02-05_di_300-prng-1-w1-p2,daily_issda-300,300,first-300,35,11,rng,num-start-1,1,536,classic,0.6715114116668701,False,,False,0.530228672276634,0.5231092901262601,0.5373480544270078,2,"Index(['3', '6', '11', '12', '15', '45', '73', '79', '89', '113', '114', '115',
       '117', '122', '130', '133', '146', '152', '155', '159', '172', '179',
       '186', '210', '214', '216', '217', '229', '234', '238', '241', '247',
       '254', '265', '289'],
      dtype='object')",False,1000,True,2,aabcaada6b,1.0,1.0
./expes/v3_2021-02-05_di_300-prng-1-w1-p2,daily_issda-300,300,first-300,35,11,rng,num-start-211,211,536,classic,6.886638164520264,True,,True,1.0,1.0,1.0,1,"Index(['6', '15', '36', '38', '43', '55', '61', '63', '77', '83', '85', '105',
       '115', '127', '131', '134', '135', '139', '141', '150', '156', '162',
       '173', '184', '185', '196', '202', '204', '207', '231', '239', '265',
       '270', '283', '299'],
      dtype='object')",False,1000,True,2,5b03e7f7f9,1.0,1.0
./expes/v3_2021-02-05_di_300-prng-1-w1-p2,daily_issda-300,300,first-300,126,42,rng,num-start-281,281,536,classic,10.328505516052246,True,,True,1.0,1.0,1.0,1,"Index(['1', '4', '7', '8', '9', '10', '12', '15', '16', '19',
       ...
       '276', '277', '283', '284', '286', '287', '289', '292', '294', '295'],
      dtype='object', length=126)",False,1000,True,2,85634a5696,1.0,1.0
./expes/v3_2021-02-05_di_300-prng-1-w1-p2,daily_issda-300,300,first-300,84,28,rng,num-start-141,141,536,classic,5.168563365936279,True,,True,1.0,1.0,1.0,1,"Index(['2', '8', '16', '20', '22', '23', '37', '38', '44', '58', '61', '65',
       '67', '68', '70', '71', '72', '73', '76', '82', '85', '91', '92', '94',
       '96', '99', '100', '104', '109', '110', '116', '119', '120', '121',
       '122', '129', '130', '132', '133', '135', '142', '144', '149', '151',
       '152', '161', '175', '178', '180', '183', '184', '187', '188', '191',
       '192', '200', '203', '212', '218', '220', '221', '224', '226', '228',
       '230', '231', '236', '238', '250', '252', '255', '267', '268', '273',
       '275', '282', '284', '285', '289', '290', '292', '296', '298', '299'],
      dtype='object')",False,1000,True,2,11c148ce44,1.0,1.0
./expes/v3_2021-02-05_di_300-prng-1-w1-p2,daily_issda-300,300,first-300,91,30,rng,num-start-41,41,536,classic,1001.2712044715881,False,,False,0,,,0,"Index(['1', '8', '17', '20', '21', '32', '33', '36', '38', '42', '43', '46',
       '47', '48', '49', '51', '52', '56', '60', '64', '67', '72', '73', '76',
       '77', '95', '96', '97', '98', '105', '111', '112', '114', '121', '123',
       '124', '125', '129', '133', '134', '141', '142', '145', '148', '149',
       '150', '155', '156', '159', '162', '163', '164', '167', '170', '171',
       '182', '183', '184', '198', '201', '205', '208', '215', '216', '223',
       '227', '228', '230', '231', '242', '244', '245', '249', '251', '253',
       '259', '261', '262', '267', '268', '269', '273', '277', '279', '281',
       '283', '287', '291', '295', '297', '299'],
      dtype='object')",True,1000,True,2,c50890ee21,0.0,0.0
./expes/v3_2021-02-05_di_300-prng-1-w1-p2,daily_issda-300,300,first-300,98,32,rng,num-start-141,141,536,classic,5.715254783630371,True,,True,1.0,1.0,1.0,1,"Index(['3', '8', '17', '18', '19', '23', '33', '34', '37', '39', '41', '42',
       '50', '58', '62', '69', '72', '74', '77', '81', '82', '83', '85', '86',
       '90', '91', '92', '98', '100', '106', '115', '121', '123', '124', '125',
       '126', '128', '135', '137', '140', '141', '143', '146', '155', '156',
       '161', '164', '167', '168', '170', '178', '179', '182', '185', '186',
       '188', '192', '193', '196', '197', '200', '206', '208', '212', '213',
       '216', '220', '222', '223', '224', '226', '227', '229', '230', '231',
       '234', '237', '241', '246', '248', '251', '252', '254', '255', '256',
       '257', '267', '268', '269', '274', '275', '279', '282', '291', '293',
       '296', '299', '300'],
      dtype='object')",False,1000,True,2,a4e0199368,1.0,1.0
./expes/v3_2021-02-05_di_300-prng-1-w1-p2,daily_issda-300,300,first-300,7,2,rng,num-start-281,281,536,classic,8.932828426361084,True,,True,1.0,1.0,1.0,1,"Index(['8', '17', '106', '220', '248', '293', '296'], dtype='object')",False,1000,True,2,80e91dbb75,1.0,1.0
./expes/v3_2021-02-05_di_300-prng-1-w1-p2,daily_issda-300,300,first-300,14,4,rng,num-start-181,181,536,classic,6.411262035369873,True,,True,1.0,1.0,1.0,1,"Index(['23', '56', '62', '76', '103', '134', '149', '178', '202', '211', '262',
       '267', '271', '300'],
      dtype='object')",False,1000,True,2,58504328aa,1.0,1.0
./expes/v3_2021-02-05_di_300-prng-1-w1-p2,daily_issda-300,300,first-300,70,23,rng,num-start-211,211,536,classic,7.384999513626099,True,,True,1.0,1.0,1.0,1,"Index(['3', '10', '14', '26', '27', '30', '32', '33', '36', '42', '49', '57',
       '60', '64', '67', '71', '72', '73', '78', '88', '90', '99', '101',
       '108', '110', '123', '128', '129', '130', '137', '142', '143', '149',
       '156', '158', '159', '163', '164', '170', '171', '173', '179', '182',
       '185', '188', '191', '192', '197', '206', '208', '210', '213', '215',
       '222', '243', '245', '257', '260', '268', '270', '273', '277', '283',
       '284', '285', '286', '287', '293', '295', '297'],
      dtype='object')",False,1000,True,2,b4f91620e8,1.0,1.0
./expes/v3_2021-02-05_di_300-prng-1-w1-p2,daily_issda-300,300,first-300,21,7,rng,num-start-221,221,536,classic,7.014915227890015,True,,True,1.0,1.0,1.0,1,"Index(['3', '6', '12', '73', '113', '114', '117', '122', '130', '133', '146',
       '152', '155', '159', '172', '186', '210', '214', '229', '241', '247'],
      dtype='object')",False,1000,True,2,9b69694545,1.0,1.0
./expes/v3_2021-02-05_di_300-prng-1-w1-p2,daily_issda-300,300,first-300,7,2,rng,num-start-111,111,536,classic,3.8221466541290283,True,,True,1.0,1.0,1.0,1,"Index(['6', '74', '138', '180', '196', '243', '271'], dtype='object')",False,1000,True,2,e9fa512f5e,1.0,1.0
./expes/v3_2021-02-05_di_300-prng-1-w1-p2,daily_issda-300,300,first-300,56,18,rng,num-start-171,171,536,classic,5.952727317810059,True,,True,1.0,1.0,1.0,1,"Index(['20', '24', '25', '26', '30', '31', '32', '33', '36', '38', '45', '47',
       '49', '50', '53', '61', '64', '69', '74', '78', '93', '97', '106',
       '110', '114', '115', '124', '149', '158', '161', '166', '188', '191',
       '203', '204', '215', '218', '219', '223', '239', '255', '260', '273',
       '275', '277', '281', '283', '286', '287', '289', '290', '293', '296',
       '298', '299', '300'],
      dtype='object')",False,1000,True,2,43497d1393,1.0,1.0
./expes/v3_2021-02-05_di_300-prng-1-w1-p2,daily_issda-300,300,first-300,77,25,rng,num-start-211,211,536,classic,7.07178807258606,True,,True,1.0,1.0,1.0,1,"Index(['3', '4', '5', '6', '7', '8', '11', '12', '15', '17', '23', '34', '37',
       '41', '43', '45', '48', '52', '63', '73', '74', '79', '80', '85', '89',
       '113', '114', '115', '117', '119', '121', '122', '125', '130', '133',
       '145', '146', '151', '152', '155', '156', '159', '163', '164', '172',
       '179', '186', '190', '192', '202', '205', '208', '210', '214', '216',
       '217', '228', '229', '233', '234', '236', '238', '241', '244', '245',
       '247', '251', '252', '254', '256', '262', '265', '268', '277', '278',
       '289', '297'],
      dtype='object')",False,1000,True,2,95210ca1be,1.0,1.0
./expes/v3_2021-02-05_di_300-prng-1-w1-p2,daily_issda-300,300,first-300,126,42,rng,num-start-221,221,536,classic,7.732270240783691,True,,True,1.0,1.0,1.0,1,"Index(['4', '6', '7', '8', '11', '12', '14', '15', '16', '17',
       ...
       '282', '283', '287', '292', '293', '294', '296', '297', '298', '300'],
      dtype='object', length=126)",False,1000,True,2,c47571ab9b,1.0,1.0
./expes/v3_2021-02-05_di_300-prng-1-w1-p2,daily_issda-300,300,first-300,28,9,rng,num-start-11,11,536,classic,1000.3495473861694,False,,False,0,,,0,"Index(['6', '9', '19', '29', '60', '76', '81', '106', '107', '115', '118',
       '119', '123', '135', '144', '157', '161', '174', '177', '182', '183',
       '189', '201', '216', '239', '262', '267', '296'],
      dtype='object')",True,1000,True,2,f8e189ee8d,0.0,0.0
./expes/v3_2021-02-05_di_300-prng-1-w1-p2,daily_issda-300,300,first-300,42,14,rng,num-start-251,251,536,classic,8.429533958435059,True,,True,1.0,1.0,1.0,1,"Index(['13', '15', '19', '29', '44', '47', '70', '82', '85', '87', '89', '91',
       '94', '109', '119', '121', '129', '138', '158', '164', '167', '182',
       '185', '187', '191', '195', '202', '213', '217', '221', '228', '229',
       '239', '258', '261', '262', '264', '269', '270', '279', '287', '298'],
      dtype='object')",False,1000,True,2,0ffc5aa531,1.0,1.0
./expes/v3_2021-02-05_di_300-prng-1-w1-p2,daily_issda-300,300,first-300,28,9,rng,num-start-121,121,536,classic,4.42575216293335,True,,True,1.0,1.0,1.0,1,"Index(['15', '19', '29', '44', '47', '82', '85', '87', '109', '129', '138',
       '158', '164', '185', '187', '191', '195', '202', '217', '221', '228',
       '239', '258', '261', '270', '279', '287', '298'],
      dtype='object')",False,1000,True,2,b50e3a12df,1.0,1.0
./expes/v3_2021-02-05_di_300-prng-1-w1-p2,daily_issda-300,300,first-300,84,28,rng,num-start-181,181,536,classic,6.6026623249053955,True,,True,1.0,1.0,1.0,1,"Index(['7', '11', '16', '18', '20', '23', '30', '33', '37', '44', '45', '46',
       '50', '56', '59', '65', '70', '71', '73', '76', '77', '82', '90', '99',
       '100', '102', '107', '108', '113', '117', '120', '121', '125', '127',
       '131', '133', '137', '146', '147', '152', '153', '159', '161', '174',
       '176', '177', '183', '190', '193', '194', '195', '198', '200', '203',
       '206', '207', '209', '214', '217', '219', '228', '233', '234', '236',
       '243', '249', '250', '251', '254', '255', '258', '260', '262', '265',
       '267', '271', '273', '277', '280', '286', '294', '297', '298', '300'],
      dtype='object')",False,1000,True,2,01b6eea91e,1.0,1.0
./expes/v3_2021-02-05_di_300-prng-1-w1-p2,daily_issda-300,300,first-300,70,23,rng,num-start-51,51,536,classic,1001.5599508285522,False,,False,0,,,0,"Index(['2', '4', '9', '12', '14', '23', '37', '38', '47', '51', '54', '56',
       '59', '62', '66', '69', '71', '76', '82', '94', '99', '103', '104',
       '107', '120', '126', '134', '135', '138', '146', '149', '154', '160',
       '167', '168', '178', '189', '193', '199', '200', '202', '203', '209',
       '211', '213', '217', '220', '226', '231', '232', '233', '234', '235',
       '239', '244', '246', '253', '257', '258', '262', '267', '271', '278',
       '280', '281', '292', '293', '296', '297', '300'],
      dtype='object')",True,1000,True,2,5873c0ce34,0.0,0.0
./expes/v3_2021-02-05_di_300-prng-1-w1-p2,daily_issda-300,300,first-300,119,39,rng,num-start-291,291,536,classic,9.963924407958984,True,,True,1.0,1.0,1.0,1,"Index(['1', '2', '3', '4', '5', '7', '9', '10', '13', '14',
       ...
       '276', '277', '284', '285', '287', '290', '294', '295', '297', '300'],
      dtype='object', length=119)",False,1000,True,2,199b5f2d76,1.0,1.0
./expes/v3_2021-02-05_di_300-prng-1-w1-p2,daily_issda-300,300,first-300,42,14,rng,num-start-151,151,536,classic,5.238288402557373,True,,True,1.0,1.0,1.0,1,"Index(['11', '16', '23', '30', '33', '44', '45', '46', '50', '56', '59', '65',
       '71', '99', '108', '117', '120', '121', '127', '133', '137', '174',
       '190', '193', '194', '195', '198', '200', '206', '207', '209', '233',
       '236', '243', '249', '250', '254', '255', '260', '265', '267', '294'],
      dtype='object')",False,1000,True,2,94aa4125e7,1.0,1.0
./expes/v3_2021-02-05_di_300-prng-1-w1-p2,daily_issda-300,300,first-300,126,42,rng,num-start-271,271,536,classic,8.949293851852417,True,,True,1.0,1.0,1.0,1,"Index(['1', '4', '7', '8', '9', '10', '12', '15', '16', '19',
       ...
       '276', '277', '283', '284', '286', '287', '289', '292', '294', '295'],
      dtype='object', length=126)",False,1000,True,2,794abd90d6,1.0,1.0
./expes/v3_2021-02-05_di_300-prng-1-w1-p2,daily_issda-300,300,first-300,84,28,rng,num-start-211,211,536,classic,7.209756135940552,True,,True,1.0,1.0,1.0,1,"Index(['4', '41', '45', '46', '48', '52', '59', '61', '63', '65', '67', '68',
       '69', '74', '75', '76', '78', '83', '87', '90', '93', '94', '98', '101',
       '102', '103', '104', '105', '106', '111', '113', '121', '122', '123',
       '128', '130', '133', '136', '139', '140', '145', '152', '154', '155',
       '156', '167', '172', '174', '176', '178', '181', '185', '188', '198',
       '202', '204', '205', '208', '209', '214', '224', '230', '235', '241',
       '245', '246', '251', '252', '253', '254', '257', '260', '263', '268',
       '270', '273', '274', '276', '279', '283', '291', '294', '295', '297'],
      dtype='object')",False,1000,True,2,ff401418ab,1.0,1.0
./expes/v3_2021-02-05_di_300-prng-1-w1-p2,daily_issda-300,300,first-300,140,46,rng,num-start-231,231,536,classic,8.022616386413574,True,,True,1.0,1.0,1.0,1,"Index(['3', '4', '5', '6', '7', '8', '11', '12', '15', '16',
       ...
       '270', '273', '274', '277', '278', '284', '289', '294', '297', '299'],
      dtype='object', length=140)",False,1000,True,2,5e9a638a3a,1.0,1.0
./expes/v3_2021-02-05_di_300-prng-1-w1-p2,daily_issda-300,300,first-300,77,25,rng,num-start-241,241,536,classic,8.271308660507202,True,,True,1.0,1.0,1.0,1,"Index(['20', '21', '24', '25', '26', '30', '31', '32', '33', '36', '38', '40',
       '42', '45', '47', '49', '50', '53', '61', '64', '69', '74', '78', '85',
       '93', '97', '106', '110', '114', '115', '124', '125', '128', '148',
       '149', '154', '158', '161', '166', '175', '176', '180', '186', '188',
       '191', '203', '204', '215', '216', '218', '219', '223', '230', '233',
       '239', '251', '254', '255', '260', '263', '269', '273', '275', '277',
       '281', '283', '286', '287', '289', '290', '293', '294', '295', '296',
       '298', '299', '300'],
      dtype='object')",False,1000,True,2,95916b8619,1.0,1.0
./expes/v3_2021-02-05_di_300-prng-1-w1-p2,daily_issda-300,300,first-300,70,23,rng,num-start-251,251,536,classic,8.209957599639893,True,,True,1.0,1.0,1.0,1,"Index(['1', '8', '21', '32', '33', '38', '42', '47', '48', '49', '51', '52',
       '56', '64', '72', '73', '76', '95', '97', '98', '105', '112', '114',
       '123', '124', '125', '129', '133', '134', '145', '148', '149', '150',
       '155', '156', '159', '162', '163', '164', '167', '170', '171', '182',
       '184', '198', '205', '208', '216', '223', '227', '228', '230', '242',
       '245', '249', '251', '253', '259', '261', '262', '267', '273', '277',
       '279', '281', '283', '287', '291', '295', '299'],
      dtype='object')",False,1000,True,2,d25b677b72,1.0,1.0
./expes/v3_2021-02-05_di_300-prng-1-w1-p2,daily_issda-300,300,first-300,77,25,rng,num-start-171,171,536,classic,6.300547361373901,True,,True,1.0,1.0,1.0,1,"Index(['3', '5', '10', '14', '26', '27', '28', '30', '32', '33', '36', '42',
       '49', '57', '60', '64', '67', '71', '72', '73', '78', '88', '90', '99',
       '101', '102', '108', '110', '123', '128', '129', '130', '133', '137',
       '140', '142', '143', '149', '156', '158', '159', '163', '164', '170',
       '171', '172', '173', '179', '182', '185', '188', '191', '192', '197',
       '206', '208', '210', '213', '215', '222', '240', '243', '245', '257',
       '260', '268', '270', '273', '277', '283', '284', '285', '286', '287',
       '293', '295', '297'],
      dtype='object')",False,1000,True,2,4c73fc6b89,1.0,1.0
./expes/v3_2021-02-05_di_300-prng-1-w1-p2,daily_issda-300,300,first-300,119,39,rng,num-start-1,1,536,classic,1.9241106510162354,False,,False,0.3060388162989975,0.30121940898357025,0.3108582236144247,2,"Index(['2', '5', '6', '8', '9', '10', '16', '19', '22', '23',
       ...
       '266', '267', '272', '274', '279', '281', '285', '290', '292', '296'],
      dtype='object', length=119)",False,1000,True,2,7f77603e80,1.0,1.0
./expes/v3_2021-02-05_di_300-prng-1-w1-p2,daily_issda-300,300,first-300,42,14,rng,num-start-51,51,536,classic,1001.437903881073,False,,False,0,,,0,"Index(['2', '5', '12', '14', '15', '16', '33', '49', '52', '53', '61', '69',
       '108', '111', '113', '114', '118', '119', '120', '131', '137', '149',
       '163', '177', '195', '196', '200', '214', '217', '222', '225', '229',
       '231', '236', '242', '250', '254', '271', '278', '284', '285', '292'],
      dtype='object')",True,1000,True,2,5932754647,0.0,0.0
./expes/v3_2021-02-05_di_300-prng-1-w1-p2,daily_issda-300,300,first-300,42,14,rng,num-start-131,131,536,classic,4.46080756187439,True,,True,1.0,1.0,1.0,1,"Index(['2', '5', '12', '14', '15', '16', '33', '49', '52', '53', '61', '69',
       '108', '111', '113', '114', '118', '119', '120', '131', '137', '149',
       '163', '177', '195', '196', '200', '214', '217', '222', '225', '229',
       '231', '236', '242', '250', '254', '271', '278', '284', '285', '292'],
      dtype='object')",False,1000,True,2,e6e285352f,1.0,1.0
./expes/v3_2021-02-05_di_300-prng-1-w1-p2,daily_issda-300,300,first-300,49,16,rng,num-start-191,191,536,classic,6.3705573081970215,True,,True,1.0,1.0,1.0,1,"Index(['3', '4', '6', '11', '12', '15', '23', '43', '45', '73', '79', '80',
       '89', '113', '114', '115', '117', '121', '122', '130', '133', '145',
       '146', '151', '152', '155', '156', '159', '163', '172', '179', '186',
       '192', '210', '214', '216', '217', '229', '234', '236', '238', '241',
       '247', '251', '254', '265', '268', '289', '297'],
      dtype='object')",False,1000,True,2,0aa378ece5,1.0,1.0
./expes/v3_2021-02-05_di_300-prng-1-w1-p2,daily_issda-300,300,first-300,112,37,rng,num-start-31,31,536,classic,1001.0908315181732,False,,False,0,,,0,"Index(['1', '2', '3', '5', '7', '12', '14', '15', '16', '17',
       ...
       '281', '282', '283', '284', '285', '288', '292', '296', '297', '300'],
      dtype='object', length=112)",True,1000,True,2,d16c3ac550,0.0,0.0
./expes/v3_2021-02-05_di_300-prng-1-w1-p2,daily_issda-300,300,first-300,28,9,rng,num-start-11,11,536,classic,1000.3420743942261,False,,False,0,,,0,"Index(['11', '14', '31', '35', '47', '53', '55', '80', '85', '89', '100',
       '110', '114', '121', '134', '135', '140', '142', '149', '156', '159',
       '185', '203', '206', '246', '267', '275', '282'],
      dtype='object')",True,1000,True,2,f19190b275,0.0,0.0
./expes/v3_2021-02-05_di_300-prng-1-w1-p2,daily_issda-300,300,first-300,77,25,rng,num-start-271,271,536,classic,9.213701725006104,True,,True,1.0,1.0,1.0,1,"Index(['2', '4', '9', '12', '14', '23', '37', '38', '47', '51', '54', '56',
       '59', '62', '66', '69', '71', '76', '82', '88', '94', '99', '103',
       '104', '107', '120', '126', '134', '135', '138', '146', '149', '151',
       '154', '155', '158', '160', '167', '168', '178', '189', '193', '199',
       '200', '202', '203', '207', '209', '211', '213', '217', '220', '225',
       '226', '231', '232', '233', '234', '235', '237', '239', '244', '246',
       '253', '257', '258', '262', '267', '271', '278', '280', '281', '292',
       '293', '296', '297', '300'],
      dtype='object')",False,1000,True,2,6d68446e63,1.0,1.0
./expes/v3_2021-02-05_di_300-prng-1-w1-p2,daily_issda-300,300,first-300,91,30,rng,num-start-81,81,536,classic,1002.3714880943298,False,,False,0,,,0,"Index(['4', '10', '11', '14', '22', '23', '24', '31', '32', '35', '42', '43',
       '45', '46', '47', '52', '53', '55', '63', '75', '79', '80', '83', '85',
       '89', '91', '92', '95', '100', '101', '102', '104', '110', '114', '118',
       '120', '121', '122', '127', '128', '133', '134', '135', '140', '142',
       '143', '144', '147', '148', '149', '150', '154', '156', '157', '159',
       '160', '165', '166', '168', '170', '173', '176', '183', '185', '191',
       '199', '203', '206', '211', '212', '217', '221', '224', '226', '232',
       '236', '237', '242', '243', '246', '260', '261', '266', '267', '274',
       '275', '281', '282', '286', '294', '299'],
      dtype='object')",True,1000,True,2,8be059acaa,0.0,0.0
./expes/v3_2021-02-05_di_300-prng-1-w1-p2,daily_issda-300,300,first-300,21,7,rng,num-start-101,101,536,classic,3.6208579540252686,True,,True,1.0,1.0,1.0,1,"Index(['16', '23', '44', '46', '65', '71', '99', '108', '117', '127', '190',
       '193', '200', '206', '207', '233', '236', '250', '254', '260', '294'],
      dtype='object')",False,1000,True,2,6f9bf6885d,1.0,1.0
./expes/v3_2021-02-05_di_300-prng-1-w1-p2,daily_issda-300,300,first-300,56,18,rng,num-start-41,41,536,classic,1001.2304656505585,False,,False,0,,,0,"Index(['11', '16', '20', '23', '30', '33', '44', '45', '46', '50', '56', '59',
       '65', '71', '73', '76', '99', '100', '107', '108', '117', '120', '121',
       '127', '133', '137', '147', '174', '190', '193', '194', '195', '198',
       '200', '206', '207', '209', '228', '233', '234', '236', '243', '249',
       '250', '251', '254', '255', '260', '265', '267', '277', '286', '294',
       '297', '298', '300'],
      dtype='object')",True,1000,True,2,15b8a75912,0.0,0.0
./expes/v3_2021-02-05_di_300-prng-1-w1-p2,daily_issda-300,300,first-300,28,9,rng,num-start-31,31,536,classic,1000.9177026748657,False,,False,0,,,0,"Index(['1', '6', '31', '39', '45', '74', '75', '84', '103', '108', '117',
       '138', '141', '173', '174', '180', '189', '192', '196', '208', '226',
       '236', '243', '248', '263', '271', '286', '296'],
      dtype='object')",True,1000,True,2,79a341cb1f,0.0,0.0
./expes/v3_2021-02-05_di_300-prng-1-w1-p2,daily_issda-300,300,first-300,98,32,rng,num-start-161,161,536,classic,6.066817760467529,True,,True,1.0,1.0,1.0,1,"Index(['4', '7', '8', '11', '15', '16', '17', '19', '22', '23', '24', '33',
       '34', '35', '40', '46', '50', '53', '54', '56', '61', '64', '67', '69',
       '70', '71', '78', '80', '82', '84', '99', '102', '109', '112', '119',
       '120', '121', '122', '133', '135', '137', '138', '143', '144', '146',
       '150', '151', '155', '159', '161', '168', '170', '173', '174', '177',
       '180', '185', '188', '190', '193', '194', '198', '199', '200', '203',
       '204', '209', '211', '213', '216', '219', '224', '228', '236', '241',
       '243', '244', '247', '248', '254', '259', '260', '267', '268', '274',
       '275', '277', '278', '279', '282', '283', '287', '292', '293', '294',
       '296', '298', '300'],
      dtype='object')",False,1000,True,2,94b0b6cb0a,1.0,1.0
./expes/v3_2021-02-05_di_300-prng-1-w1-p2,daily_issda-300,300,first-300,112,37,rng,num-start-21,21,536,classic,1000.6421146392822,False,,False,0,,,0,"Index(['1', '4', '7', '9', '10', '12', '15', '16', '19', '24',
       ...
       '271', '276', '277', '284', '286', '287', '289', '292', '294', '295'],
      dtype='object', length=112)",True,1000,True,2,dbe3f191c0,0.0,0.0
./expes/v3_2021-02-05_di_300-prng-1-w1-p2,daily_issda-300,300,first-300,77,25,rng,num-start-21,21,536,classic,1000.6993274688721,False,,False,0,,,0,"Index(['6', '10', '15', '35', '36', '38', '43', '46', '48', '49', '53', '55',
       '58', '59', '61', '63', '74', '77', '83', '85', '87', '93', '100',
       '105', '112', '115', '121', '127', '131', '132', '134', '135', '137',
       '139', '141', '143', '144', '145', '150', '156', '159', '162', '173',
       '184', '185', '187', '196', '198', '202', '204', '207', '211', '214',
       '218', '224', '225', '226', '231', '232', '234', '236', '239', '243',
       '246', '249', '250', '251', '257', '264', '265', '270', '274', '283',
       '292', '293', '297', '299'],
      dtype='object')",True,1000,True,2,817227ea98,0.0,0.0
./expes/v3_2021-02-05_di_300-prng-1-w1-p2,daily_issda-300,300,first-300,14,4,rng,num-start-151,151,536,classic,5.175713539123535,True,,True,1.0,1.0,1.0,1,"Index(['11', '31', '35', '47', '53', '80', '114', '121', '149', '156', '203',
       '206', '246', '282'],
      dtype='object')",False,1000,True,2,5cb1c84d2c,1.0,1.0
./expes/v3_2021-02-05_di_300-prng-1-w1-p2,daily_issda-300,300,first-300,112,37,rng,num-start-11,11,536,classic,1000.3615605831146,False,,False,0,,,0,"Index(['2', '3', '8', '16', '17', '19', '20', '22', '23', '36',
       ...
       '282', '284', '285', '287', '289', '290', '292', '296', '298', '299'],
      dtype='object', length=112)",True,1000,True,2,820c12ab7c,0.0,0.0
./expes/v3_2021-02-05_di_300-prng-1-w1-p2,daily_issda-300,300,first-300,7,2,rng,num-start-211,211,536,classic,6.957024812698364,True,,True,1.0,1.0,1.0,1,"Index(['63', '93', '102', '123', '172', '230', '251'], dtype='object')",False,1000,True,2,14e0046908,1.0,1.0
./expes/v3_2021-02-05_di_300-prng-1-w1-p2,daily_issda-300,300,first-300,56,18,rng,num-start-91,91,536,classic,11.045989513397217,True,,True,1.0,1.0,1.0,1,"Index(['4', '9', '12', '23', '37', '38', '51', '54', '56', '59', '62', '69',
       '71', '76', '82', '99', '103', '104', '107', '120', '134', '138', '149',
       '154', '160', '167', '168', '178', '189', '199', '200', '202', '203',
       '209', '211', '213', '217', '226', '233', '234', '235', '246', '253',
       '257', '258', '262', '267', '271', '278', '280', '281', '292', '293',
       '296', '297', '300'],
      dtype='object')",False,1000,True,2,c65e58c5c0,1.0,1.0
./expes/v3_2021-02-05_di_300-prng-1-w1-p2,daily_issda-300,300,first-300,84,28,rng,num-start-191,191,536,classic,7.237594842910767,True,,True,1.0,1.0,1.0,1,"Index(['1', '8', '17', '20', '21', '32', '33', '36', '38', '42', '46', '47',
       '48', '49', '51', '52', '56', '64', '67', '72', '73', '76', '77', '95',
       '96', '97', '98', '105', '111', '112', '114', '121', '123', '124',
       '125', '129', '133', '134', '142', '145', '148', '149', '150', '155',
       '156', '159', '162', '163', '164', '167', '170', '171', '182', '184',
       '198', '201', '205', '208', '216', '223', '227', '228', '230', '242',
       '244', '245', '249', '251', '253', '259', '261', '262', '267', '268',
       '269', '273', '277', '279', '281', '283', '287', '291', '295', '299'],
      dtype='object')",False,1000,True,2,5d9e5bb698,1.0,1.0
./expes/v3_2021-02-05_di_300-prng-1-w1-p2,daily_issda-300,300,first-300,133,44,rng,num-start-191,191,536,classic,7.593000888824463,True,,True,1.0,1.0,1.0,1,"Index(['4', '6', '7', '8', '11', '12', '14', '15', '16', '17',
       ...
       '282', '283', '287', '292', '293', '294', '296', '297', '298', '300'],
      dtype='object', length=133)",False,1000,True,2,748716e07a,1.0,1.0
./expes/v3_2021-02-05_di_300-prng-1-w1-p2,daily_issda-300,300,first-300,49,16,rng,num-start-241,241,536,classic,8.177105188369751,True,,True,1.0,1.0,1.0,1,"Index(['3', '10', '14', '26', '27', '32', '36', '42', '57', '64', '71', '72',
       '73', '78', '90', '101', '108', '123', '128', '130', '143', '149',
       '156', '159', '163', '170', '173', '182', '188', '191', '192', '197',
       '206', '208', '210', '213', '215', '222', '243', '245', '257', '260',
       '268', '273', '277', '283', '287', '293', '297'],
      dtype='object')",False,1000,True,2,81d858853c,1.0,1.0
./expes/v3_2021-02-05_di_300-prng-1-w1-p2,daily_issda-300,300,first-300,112,37,rng,num-start-241,241,536,classic,9.692548751831055,True,,True,1.0,1.0,1.0,1,"Index(['3', '4', '5', '6', '7', '8', '11', '12', '15', '16',
       ...
       '258', '262', '265', '268', '270', '277', '278', '289', '297', '299'],
      dtype='object', length=112)",False,1000,True,2,9a7811ba74,1.0,1.0
./expes/v3_2021-02-05_di_300-prng-1-w1-p2,daily_issda-300,300,first-300,77,25,rng,num-start-11,11,536,classic,1000.3556253910065,False,,False,0,,,0,"Index(['4', '41', '45', '46', '48', '52', '59', '61', '63', '68', '69', '75',
       '76', '78', '83', '87', '90', '93', '94', '98', '101', '102', '103',
       '104', '105', '106', '111', '113', '121', '122', '123', '128', '130',
       '133', '136', '139', '140', '145', '152', '154', '156', '167', '172',
       '174', '176', '178', '181', '188', '198', '202', '205', '208', '209',
       '224', '230', '235', '241', '245', '246', '251', '252', '253', '254',
       '257', '260', '263', '268', '270', '273', '274', '276', '279', '283',
       '291', '294', '295', '297'],
      dtype='object')",True,1000,True,2,2717aadf6b,0.0,0.0
./expes/v3_2021-02-05_di_300-prng-1-w1-p2,daily_issda-300,300,first-300,42,14,rng,num-start-121,121,536,classic,4.337239503860474,True,,True,1.0,1.0,1.0,1,"Index(['8', '16', '37', '44', '61', '65', '67', '70', '72', '76', '91', '92',
       '96', '104', '110', '116', '119', '120', '132', '133', '135', '142',
       '149', '151', '161', '178', '183', '187', '220', '221', '224', '226',
       '228', '230', '231', '250', '268', '273', '275', '282', '284', '289'],
      dtype='object')",False,1000,True,2,332ec5e906,1.0,1.0
./expes/v3_2021-02-05_di_300-prng-1-w1-p2,daily_issda-300,300,first-300,112,37,rng,num-start-31,31,536,classic,1000.8893442153931,False,,False,0,,,0,"Index(['3', '4', '5', '6', '7', '8', '11', '12', '15', '16',
       ...
       '258', '262', '265', '268', '270', '277', '278', '289', '297', '299'],
      dtype='object', length=112)",True,1000,True,2,1d1a20b840,0.0,0.0
./expes/v3_2021-02-05_di_300-prng-1-w1-p2,daily_issda-300,300,first-300,14,4,rng,num-start-291,291,536,classic,9.210314989089966,True,,True,1.0,1.0,1.0,1,"Index(['6', '9', '19', '29', '60', '76', '81', '107', '123', '174', '183',
       '189', '239', '267'],
      dtype='object')",False,1000,True,2,7986db926f,1.0,1.0
./expes/v3_2021-02-05_di_300-prng-1-w1-p2,daily_issda-300,300,first-300,98,32,rng,num-start-281,281,536,classic,10.413482666015625,True,,True,1.0,1.0,1.0,1,"Index(['1', '3', '5', '6', '8', '9', '11', '16', '19', '22', '27', '31', '33',
       '35', '36', '38', '39', '43', '44', '45', '47', '49', '52', '56', '60',
       '61', '68', '69', '73', '75', '81', '91', '95', '96', '97', '98', '101',
       '102', '107', '108', '109', '110', '118', '120', '124', '125', '127',
       '131', '133', '139', '143', '148', '149', '151', '152', '156', '160',
       '162', '168', '169', '171', '173', '189', '191', '193', '197', '198',
       '202', '203', '204', '206', '209', '210', '215', '216', '226', '227',
       '229', '230', '232', '235', '238', '239', '241', '244', '250', '256',
       '261', '263', '266', '271', '276', '283', '287', '289', '290', '296',
       '299'],
      dtype='object')",False,1000,True,2,4c5af7e1a4,1.0,1.0
./expes/v3_2021-02-05_di_300-prng-1-w1-p2,daily_issda-300,300,first-300,49,16,rng,num-start-241,241,536,classic,8.20735216140747,True,,True,1.0,1.0,1.0,1,"Index(['1', '3', '7', '12', '15', '27', '34', '37', '53', '58', '65', '68',
       '72', '75', '81', '82', '85', '86', '94', '101', '102', '105', '108',
       '111', '127', '128', '131', '136', '144', '149', '153', '155', '161',
       '170', '184', '185', '191', '195', '197', '200', '209', '213', '228',
       '239', '241', '272', '277', '279', '294'],
      dtype='object')",False,1000,True,2,35c9414508,1.0,1.0
./expes/v3_2021-02-05_di_300-prng-1-w1-p2,daily_issda-300,300,first-300,49,16,rng,num-start-121,121,536,classic,4.331010103225708,True,,True,1.0,1.0,1.0,1,"Index(['6', '15', '36', '38', '43', '49', '55', '58', '61', '63', '77', '83',
       '85', '93', '100', '105', '112', '115', '127', '131', '134', '135',
       '139', '141', '145', '150', '156', '162', '173', '184', '185', '187',
       '196', '202', '204', '207', '225', '231', '232', '239', '249', '250',
       '257', '264', '265', '270', '283', '297', '299'],
      dtype='object')",False,1000,True,2,fbd31de22b,1.0,1.0
./expes/v3_2021-02-05_di_300-prng-1-w1-p2,daily_issda-300,300,first-300,126,42,rng,num-start-41,41,536,classic,1001.2213587760925,False,,False,0,,,0,"Index(['1', '8', '9', '12', '14', '17', '19', '20', '21', '24',
       ...
       '279', '281', '283', '287', '291', '292', '294', '295', '297', '299'],
      dtype='object', length=126)",True,1000,True,2,67f2fc893c,0.0,0.0
./expes/v3_2021-02-05_di_300-prng-1-w1-p2,daily_issda-300,300,first-300,119,39,rng,num-start-191,191,536,classic,7.438123464584351,True,,True,1.0,1.0,1.0,1,"Index(['2', '3', '8', '16', '17', '19', '20', '22', '23', '36',
       ...
       '282', '284', '285', '287', '289', '290', '292', '296', '298', '299'],
      dtype='object', length=119)",False,1000,True,2,9c10771be2,1.0,1.0
./expes/v3_2021-02-05_di_300-prng-1-w1-p2,daily_issda-300,300,first-300,7,2,rng,num-start-71,71,536,classic,2.4477312564849854,True,,True,1.0,1.0,1.0,1,"Index(['21', '133', '198', '208', '216', '249', '262'], dtype='object')",False,1000,True,2,7eb5a63fee,1.0,1.0
./expes/v3_2021-02-05_di_300-prng-1-w1-p2,daily_issda-300,300,first-300,119,39,rng,num-start-71,71,536,classic,1002.1096904277802,False,,False,0,,,0,"Index(['3', '5', '10', '11', '14', '15', '26', '27', '28', '30',
       ...
       '284', '285', '286', '287', '289', '291', '293', '295', '296', '297'],
      dtype='object', length=119)",True,1000,True,2,f635cdfeca,0.0,0.0
./expes/v3_2021-02-05_di_300-prng-1-w1-p2,daily_issda-300,300,first-300,63,21,rng,num-start-111,111,536,classic,4.297341585159302,True,,True,1.0,1.0,1.0,1,"Index(['13', '15', '19', '29', '44', '47', '70', '82', '83', '85', '86', '87',
       '89', '91', '94', '109', '114', '119', '121', '128', '129', '138',
       '143', '156', '158', '159', '164', '167', '180', '182', '185', '186',
       '187', '191', '195', '202', '205', '213', '217', '221', '228', '229',
       '233', '234', '237', '239', '246', '250', '251', '256', '257', '258',
       '261', '262', '264', '269', '270', '272', '279', '286', '287', '291',
       '298'],
      dtype='object')",False,1000,True,2,765a581ff7,1.0,1.0
./expes/v3_2021-02-05_di_300-prng-1-w1-p2,daily_issda-300,300,first-300,21,7,rng,num-start-101,101,536,classic,3.634880304336548,True,,True,1.0,1.0,1.0,1,"Index(['8', '22', '33', '47', '49', '73', '81', '95', '96', '98', '156', '203',
       '229', '232', '239', '244', '261', '263', '271', '276', '287'],
      dtype='object')",False,1000,True,2,cb46de2395,1.0,1.0
./expes/v3_2021-02-05_di_300-prng-1-w1-p2,daily_issda-300,300,first-300,14,4,rng,num-start-251,251,536,classic,8.102863788604736,True,,True,1.0,1.0,1.0,1,"Index(['8', '17', '18', '83', '106', '143', '220', '237', '248', '251', '252',
       '267', '293', '296'],
      dtype='object')",False,1000,True,2,61931f0238,1.0,1.0
./expes/v3_2021-02-05_di_300-prng-1-w1-p2,daily_issda-300,300,first-300,133,44,rng,num-start-291,291,536,classic,10.347458362579346,True,,True,1.0,1.0,1.0,1,"Index(['3', '7', '12', '20', '21', '24', '25', '26', '28', '30',
       ...
       '289', '290', '293', '294', '295', '296', '297', '298', '299', '300'],
      dtype='object', length=133)",False,1000,True,2,57d4255cef,1.0,1.0
./expes/v3_2021-02-05_di_300-prng-1-w1-p2,daily_issda-300,300,first-300,133,44,rng,num-start-231,231,536,classic,8.173133850097656,True,,True,1.0,1.0,1.0,1,"Index(['1', '2', '3', '5', '7', '8', '9', '12', '13', '14',
       ...
       '281', '282', '283', '284', '285', '288', '292', '296', '297', '300'],
      dtype='object', length=133)",False,1000,True,2,175c14d147,1.0,1.0
./expes/v3_2021-02-05_di_300-prng-1-w1-p2,daily_issda-300,300,first-300,63,21,rng,num-start-41,41,536,classic,1001.481721162796,False,,False,0,,,0,"Index(['1', '6', '10', '16', '27', '31', '32', '39', '43', '45', '47', '58',
       '59', '70', '74', '75', '84', '88', '99', '103', '108', '115', '117',
       '121', '130', '134', '138', '141', '159', '161', '172', '173', '174',
       '180', '183', '186', '187', '189', '191', '192', '196', '197', '198',
       '206', '208', '215', '217', '226', '228', '236', '241', '243', '245',
       '248', '260', '261', '263', '271', '277', '278', '285', '286', '296'],
      dtype='object')",True,1000,True,2,873740b60f,0.0,0.0
./expes/v3_2021-02-05_di_300-prng-1-w1-p2,daily_issda-300,300,first-300,133,44,rng,num-start-101,101,536,classic,1003.014173746109,False,,False,0,,,0,"Index(['1', '3', '5', '6', '8', '9', '11', '16', '19', '20',
       ...
       '276', '283', '284', '287', '289', '290', '293', '295', '296', '299'],
      dtype='object', length=133)",True,1000,True,2,7fa57ce904,0.0,0.0
./expes/v3_2021-02-05_di_300-prng-1-w1-p2,daily_issda-300,300,first-300,112,37,rng,num-start-161,161,536,classic,6.0079264640808105,True,,True,1.0,1.0,1.0,1,"Index(['3', '4', '5', '10', '30', '41', '45', '46', '48', '52',
       ...
       '281', '283', '285', '286', '287', '291', '293', '294', '295', '297'],
      dtype='object', length=112)",False,1000,True,2,20238f5be9,1.0,1.0
./expes/v3_2021-02-05_di_300-prng-1-w1-p2,daily_issda-300,300,first-300,56,18,rng,num-start-241,241,536,classic,8.284088134765625,True,,True,1.0,1.0,1.0,1,"Index(['8', '16', '37', '38', '44', '61', '65', '67', '68', '70', '72', '76',
       '91', '92', '96', '100', '104', '110', '116', '119', '120', '121',
       '130', '132', '133', '135', '142', '144', '149', '151', '161', '178',
       '183', '187', '188', '191', '203', '220', '221', '224', '226', '228',
       '230', '231', '236', '238', '250', '252', '268', '273', '275', '282',
       '284', '289', '290', '296'],
      dtype='object')",False,1000,True,2,bfa350b59b,1.0,1.0
./expes/v3_2021-02-05_di_300-prng-1-w1-p2,daily_issda-300,300,first-300,42,14,rng,num-start-71,71,536,classic,24.084890842437744,True,,True,1.0,1.0,1.0,1,"Index(['1', '6', '10', '27', '31', '32', '39', '45', '47', '58', '70', '74',
       '75', '84', '88', '103', '108', '115', '117', '138', '141', '161',
       '173', '174', '180', '189', '192', '196', '208', '217', '226', '228',
       '236', '243', '248', '261', '263', '271', '277', '285', '286', '296'],
      dtype='object')",False,1000,True,2,16553778dd,1.0,1.0
./expes/v3_2021-02-05_di_300-prng-1-w1-p2,daily_issda-300,300,first-300,98,32,rng,num-start-71,71,536,classic,1002.0267560482025,False,,False,0,,,0,"Index(['5', '11', '13', '15', '17', '19', '21', '26', '29', '30', '31', '35',
       '39', '43', '44', '47', '55', '59', '66', '70', '81', '82', '83', '85',
       '86', '87', '89', '91', '94', '95', '98', '107', '108', '109', '114',
       '117', '119', '121', '126', '128', '129', '131', '137', '138', '140',
       '143', '156', '158', '159', '160', '164', '167', '175', '180', '182',
       '185', '186', '187', '188', '191', '192', '195', '202', '205', '209',
       '213', '217', '221', '228', '229', '233', '234', '237', '239', '246',
       '250', '251', '256', '257', '258', '259', '260', '261', '262', '263',
       '264', '266', '268', '269', '270', '272', '279', '286', '287', '288',
       '291', '295', '298'],
      dtype='object')",True,1000,True,2,1b560d4059,0.0,0.0
./expes/v3_2021-02-05_di_300-prng-1-w1-p2,daily_issda-300,300,first-300,91,30,rng,num-start-291,291,536,classic,9.80422043800354,True,,True,1.0,1.0,1.0,1,"Index(['2', '8', '16', '20', '22', '23', '36', '37', '38', '44', '48', '58',
       '61', '65', '67', '68', '70', '71', '72', '73', '76', '82', '85', '86',
       '91', '92', '94', '96', '99', '100', '104', '109', '110', '116', '119',
       '120', '121', '122', '129', '130', '132', '133', '135', '142', '144',
       '149', '151', '152', '160', '161', '175', '176', '178', '180', '183',
       '184', '187', '188', '191', '192', '200', '203', '212', '218', '220',
       '221', '224', '226', '228', '230', '231', '236', '238', '250', '252',
       '255', '267', '268', '270', '273', '275', '279', '282', '284', '285',
       '289', '290', '292', '296', '298', '299'],
      dtype='object')",False,1000,True,2,550bfcfd8c,1.0,1.0
./expes/v3_2021-02-05_di_300-prng-1-w1-p2,daily_issda-300,300,first-300,140,46,rng,num-start-271,271,536,classic,9.344248533248901,True,,True,1.0,1.0,1.0,1,"Index(['1', '3', '5', '6', '8', '9', '10', '11', '16', '18',
       ...
       '283', '284', '287', '289', '290', '293', '295', '296', '299', '300'],
      dtype='object', length=140)",False,1000,True,2,1a0ffbb76d,1.0,1.0
./expes/v3_2021-02-05_di_300-prng-1-w1-p2,daily_issda-300,300,first-300,112,37,rng,num-start-291,291,536,classic,9.39388632774353,True,,True,1.0,1.0,1.0,1,"Index(['3', '4', '5', '6', '7', '8', '11', '12', '15', '16',
       ...
       '258', '262', '265', '268', '270', '277', '278', '289', '297', '299'],
      dtype='object', length=112)",False,1000,True,2,2cb15d51b8,1.0,1.0
./expes/v3_2021-02-05_di_300-prng-1-w1-p2,daily_issda-300,300,first-300,98,32,rng,num-start-51,51,536,classic,1001.55641913414,False,,False,0,,,0,"Index(['2', '4', '5', '9', '12', '14', '23', '24', '35', '37', '38', '39',
       '40', '44', '47', '51', '52', '54', '56', '58', '59', '62', '65', '66',
       '69', '71', '76', '79', '82', '88', '90', '94', '99', '103', '104',
       '107', '108', '120', '126', '134', '135', '138', '141', '146', '147',
       '149', '151', '154', '155', '158', '160', '167', '168', '178', '189',
       '193', '199', '200', '202', '203', '207', '209', '211', '213', '216',
       '217', '220', '221', '224', '225', '226', '231', '232', '233', '234',
       '235', '237', '238', '239', '240', '241', '244', '246', '253', '257',
       '258', '259', '262', '267', '271', '278', '280', '281', '292', '293',
       '296', '297', '300'],
      dtype='object')",True,1000,True,2,8465d86824,0.0,0.0
./expes/v3_2021-02-05_di_300-prng-1-w1-p2,daily_issda-300,300,first-300,49,16,rng,num-start-11,11,536,classic,1000.3898301124573,False,,False,0,,,0,"Index(['1', '6', '10', '27', '31', '32', '39', '43', '45', '47', '58', '70',
       '74', '75', '84', '88', '103', '108', '115', '117', '138', '141', '161',
       '173', '174', '180', '189', '192', '196', '197', '206', '208', '215',
       '217', '226', '228', '236', '241', '243', '245', '248', '260', '261',
       '263', '271', '277', '285', '286', '296'],
      dtype='object')",True,1000,True,2,ac5f3b9a40,0.0,0.0
./expes/v3_2021-02-05_di_300-prng-1-w1-p2,daily_issda-300,300,first-300,112,37,rng,num-start-271,271,536,classic,8.880724668502808,True,,True,1.0,1.0,1.0,1,"Index(['1', '2', '3', '5', '7', '10', '12', '15', '17', '19',
       ...
       '269', '272', '274', '277', '279', '280', '282', '289', '294', '297'],
      dtype='object', length=112)",False,1000,True,2,dc8a420510,1.0,1.0
./expes/v3_2021-02-05_di_300-prng-1-w1-p2,daily_issda-300,300,first-300,133,44,rng,num-start-91,91,536,classic,1002.5910048484802,False,,False,0,,,0,"Index(['2', '7', '9', '11', '14', '16', '17', '18', '20', '23',
       ...
       '273', '277', '280', '286', '289', '292', '294', '297', '298', '300'],
      dtype='object', length=133)",True,1000,True,2,80e6d5ba78,0.0,0.0
./expes/v3_2021-02-05_di_300-prng-1-w1-p2,daily_issda-300,300,first-300,70,23,rng,num-start-251,251,536,classic,8.360584259033203,True,,True,1.0,1.0,1.0,1,"Index(['3', '8', '17', '18', '19', '23', '34', '37', '39', '42', '50', '58',
       '69', '72', '77', '81', '83', '86', '90', '98', '100', '106', '115',
       '121', '123', '128', '135', '143', '146', '155', '156', '161', '167',
       '168', '179', '182', '185', '186', '188', '192', '193', '196', '197',
       '212', '213', '216', '220', '222', '224', '226', '227', '229', '231',
       '234', '237', '241', '248', '251', '252', '255', '257', '267', '274',
       '275', '282', '291', '293', '296', '299', '300'],
      dtype='object')",False,1000,True,2,ed9a8ff62e,1.0,1.0
./expes/v3_2021-02-05_di_300-prng-1-w1-p2,daily_issda-300,300,first-300,126,42,rng,num-start-101,101,536,classic,25.057856798171997,True,,True,1.0,1.0,1.0,1,"Index(['2', '5', '6', '8', '9', '10', '16', '19', '22', '23',
       ...
       '267', '272', '274', '279', '281', '285', '290', '292', '295', '296'],
      dtype='object', length=126)",False,1000,True,2,39c4f0e1dc,1.0,1.0
./expes/v3_2021-02-05_di_300-prng-1-w1-p2,daily_issda-300,300,first-300,112,37,rng,num-start-201,201,536,classic,7.948178291320801,True,,True,1.0,1.0,1.0,1,"Index(['2', '4', '5', '9', '12', '13', '14', '21', '23', '24',
       ...
       '269', '271', '278', '280', '281', '292', '293', '296', '297', '300'],
      dtype='object', length=112)",False,1000,True,2,84056585f2,1.0,1.0
./expes/v3_2021-02-05_di_300-prng-1-w1-p2,daily_issda-300,300,first-300,140,46,rng,num-start-131,131,536,classic,9.421083450317383,True,,True,1.0,1.0,1.0,1,"Index(['1', '6', '10', '11', '13', '15', '17', '18', '22', '27',
       ...
       '279', '280', '283', '284', '287', '288', '292', '293', '297', '299'],
      dtype='object', length=140)",False,1000,True,2,04bc7acd3c,1.0,1.0
./expes/v3_2021-02-05_di_300-prng-1-w1-p2,daily_issda-300,300,first-300,119,39,rng,num-start-251,251,536,classic,8.714830875396729,True,,True,1.0,1.0,1.0,1,"Index(['2', '5', '6', '8', '9', '10', '16', '19', '22', '23',
       ...
       '266', '267', '272', '274', '279', '281', '285', '290', '292', '296'],
      dtype='object', length=119)",False,1000,True,2,fb457c964f,1.0,1.0
./expes/v3_2021-02-05_di_300-prng-1-w1-p2,daily_issda-300,300,first-300,28,9,rng,num-start-291,291,536,classic,9.56152057647705,True,,True,1.0,1.0,1.0,1,"Index(['11', '14', '31', '35', '47', '53', '55', '80', '85', '89', '100',
       '110', '114', '121', '134', '135', '140', '142', '149', '156', '159',
       '185', '203', '206', '246', '267', '275', '282'],
      dtype='object')",False,1000,True,2,a09563a804,1.0,1.0
./expes/v3_2021-02-05_di_300-prng-1-w1-p2,daily_issda-300,300,first-300,14,4,rng,num-start-81,81,536,classic,2.8095409870147705,True,,True,1.0,1.0,1.0,1,"Index(['1', '12', '19', '42', '75', '102', '134', '140', '164', '192', '241',
       '249', '251', '294'],
      dtype='object')",False,1000,True,2,c75518991a,1.0,1.0
./expes/v3_2021-02-05_di_300-prng-1-w1-p2,daily_issda-300,300,first-300,105,35,rng,num-start-281,281,536,classic,9.748167991638184,True,,True,1.0,1.0,1.0,1,"Index(['1', '8', '9', '14', '17', '20', '21', '24', '32', '33',
       ...
       '277', '279', '281', '283', '287', '291', '294', '295', '297', '299'],
      dtype='object', length=105)",False,1000,True,2,f31d09942d,1.0,1.0
./expes/v3_2021-02-05_di_300-prng-1-w1-p2,daily_issda-300,300,first-300,133,44,rng,num-start-151,151,536,classic,5.443954229354858,True,,True,1.0,1.0,1.0,1,"Index(['2', '3', '8', '16', '17', '19', '20', '22', '23', '24',
       ...
       '282', '284', '285', '287', '289', '290', '292', '296', '298', '299'],
      dtype='object', length=133)",False,1000,True,2,9867e16091,1.0,1.0
./expes/v3_2021-02-05_di_300-prng-1-w1-p2,daily_issda-300,300,first-300,91,30,rng,num-start-71,71,536,classic,1002.0514109134674,False,,False,0,,,0,"Index(['3', '4', '5', '6', '7', '8', '11', '12', '15', '17', '23', '24', '25',
       '34', '37', '41', '43', '45', '48', '52', '54', '59', '60', '63', '73',
       '74', '76', '79', '80', '85', '89', '92', '113', '114', '115', '117',
       '119', '121', '122', '123', '125', '126', '130', '131', '133', '138',
       '145', '146', '151', '152', '155', '156', '159', '163', '164', '172',
       '179', '186', '190', '192', '199', '202', '205', '208', '210', '214',
       '216', '217', '228', '229', '233', '234', '236', '238', '241', '244',
       '245', '247', '251', '252', '254', '256', '262', '265', '268', '270',
       '277', '278', '289', '297', '299'],
      dtype='object')",True,1000,True,2,e2d18e28c2,0.0,0.0
./expes/v3_2021-02-05_di_300-prng-1-w1-p2,daily_issda-300,300,first-300,140,46,rng,num-start-11,11,536,classic,1000.377701997757,False,,False,0,,,0,"Index(['1', '2', '3', '5', '7', '8', '9', '12', '13', '14',
       ...
       '281', '282', '283', '284', '285', '288', '292', '296', '297', '300'],
      dtype='object', length=140)",True,1000,True,2,1692c43e98,0.0,0.0
./expes/v3_2021-02-05_di_300-prng-1-w1-p2,daily_issda-300,300,first-300,56,18,rng,num-start-221,221,536,classic,7.143733263015747,True,,True,1.0,1.0,1.0,1,"Index(['2', '5', '12', '14', '15', '16', '18', '33', '49', '52', '53', '61',
       '62', '69', '96', '98', '108', '111', '113', '114', '118', '119', '120',
       '131', '137', '146', '149', '152', '156', '163', '171', '177', '195',
       '196', '200', '202', '214', '217', '222', '225', '229', '231', '236',
       '242', '246', '250', '254', '256', '257', '259', '260', '271', '278',
       '284', '285', '292'],
      dtype='object')",False,1000,True,2,31b89de86c,1.0,1.0
./expes/v3_2021-02-05_di_300-prng-1-w1-p2,daily_issda-300,300,first-300,7,2,rng,num-start-171,171,536,classic,6.16037130355835,True,,True,1.0,1.0,1.0,1,"Index(['90', '149', '156', '188', '213', '268', '277'], dtype='object')",False,1000,True,2,b3b9fd2543,1.0,1.0
./expes/v3_2021-02-05_di_300-prng-1-w1-p2,daily_issda-300,300,first-300,140,46,rng,num-start-271,271,536,classic,8.864283800125122,True,,True,1.0,1.0,1.0,1,"Index(['1', '2', '3', '4', '5', '7', '8', '9', '10', '13',
       ...
       '277', '284', '285', '287', '288', '290', '294', '295', '297', '300'],
      dtype='object', length=140)",False,1000,True,2,e932745395,1.0,1.0
./expes/v3_2021-02-05_di_300-prng-1-w1-p2,daily_issda-300,300,first-300,35,11,rng,num-start-61,61,536,classic,3.2704250812530518,True,,True,1.0,1.0,1.0,1,"Index(['6', '15', '36', '38', '43', '55', '61', '63', '77', '83', '85', '105',
       '115', '127', '131', '134', '135', '139', '141', '150', '156', '162',
       '173', '184', '185', '196', '202', '204', '207', '231', '239', '265',
       '270', '283', '299'],
      dtype='object')",False,1000,True,2,6f7d636856,1.0,1.0
./expes/v3_2021-02-05_di_300-prng-1-w1-p2,daily_issda-300,300,first-300,98,32,rng,num-start-151,151,536,classic,5.462239742279053,True,,True,1.0,1.0,1.0,1,"Index(['1', '8', '9', '17', '20', '21', '32', '33', '36', '38', '42', '43',
       '46', '47', '48', '49', '51', '52', '56', '60', '64', '67', '72', '73',
       '76', '77', '88', '95', '96', '97', '98', '105', '111', '112', '113',
       '114', '121', '123', '124', '125', '129', '133', '134', '139', '141',
       '142', '145', '148', '149', '150', '155', '156', '159', '162', '163',
       '164', '167', '170', '171', '172', '182', '183', '184', '191', '198',
       '201', '205', '208', '215', '216', '223', '227', '228', '230', '231',
       '242', '244', '245', '249', '250', '251', '253', '259', '261', '262',
       '267', '268', '269', '273', '277', '279', '281', '283', '287', '291',
       '295', '297', '299'],
      dtype='object')",False,1000,True,2,e5e1666cee,1.0,1.0
./expes/v3_2021-02-05_di_300-prng-1-w1-p2,daily_issda-300,300,first-300,133,44,rng,num-start-71,71,536,classic,1002.0541250705719,False,,False,0,,,0,"Index(['1', '6', '10', '11', '13', '15', '17', '18', '22', '27',
       ...
       '279', '280', '283', '284', '287', '288', '292', '293', '297', '299'],
      dtype='object', length=133)",True,1000,True,2,553c702a40,0.0,0.0
./expes/v3_2021-02-05_di_300-prng-1-w1-p2,daily_issda-300,300,first-300,7,2,rng,num-start-171,171,536,classic,5.758388519287109,True,,True,1.0,1.0,1.0,1,"Index(['33', '61', '69', '131', '231', '254', '292'], dtype='object')",False,1000,True,2,9b0e7cab2d,1.0,1.0
./expes/v3_2021-02-05_di_300-prng-1-w1-p2,daily_issda-300,300,first-300,77,25,rng,num-start-191,191,536,classic,6.615933895111084,True,,True,1.0,1.0,1.0,1,"Index(['1', '6', '10', '14', '15', '16', '17', '23', '27', '31', '32', '39',
       '43', '45', '47', '58', '59', '70', '74', '75', '84', '88', '92', '99',
       '103', '105', '108', '114', '115', '117', '121', '130', '134', '138',
       '141', '159', '161', '172', '173', '174', '180', '183', '186', '187',
       '189', '191', '192', '196', '197', '198', '199', '206', '208', '215',
       '217', '219', '221', '226', '228', '236', '241', '243', '245', '248',
       '257', '260', '261', '262', '263', '266', '271', '277', '278', '285',
       '286', '294', '296'],
      dtype='object')",False,1000,True,2,d4ce1f10a7,1.0,1.0
./expes/v3_2021-02-05_di_300-prng-1-w1-p2,daily_issda-300,300,first-300,91,30,rng,num-start-231,231,536,classic,8.005526304244995,True,,True,1.0,1.0,1.0,1,"Index(['7', '11', '14', '16', '18', '20', '23', '30', '33', '37', '44', '45',
       '46', '50', '56', '59', '60', '65', '70', '71', '73', '76', '77', '82',
       '83', '86', '88', '90', '99', '100', '102', '104', '107', '108', '113',
       '117', '120', '121', '125', '127', '131', '133', '137', '146', '147',
       '152', '153', '154', '159', '161', '174', '176', '177', '183', '190',
       '193', '194', '195', '198', '200', '203', '206', '207', '209', '214',
       '217', '219', '228', '233', '234', '236', '243', '249', '250', '251',
       '254', '255', '258', '260', '262', '265', '267', '271', '273', '277',
       '280', '286', '294', '297', '298', '300'],
      dtype='object')",False,1000,True,2,bc88e6cb05,1.0,1.0
./expes/v3_2021-02-05_di_300-prng-1-w1-p2,daily_issda-300,300,first-300,28,9,rng,num-start-111,111,536,classic,4.149873495101929,True,,True,1.0,1.0,1.0,1,"Index(['7', '15', '27', '37', '53', '58', '65', '68', '72', '81', '82', '94',
       '111', '127', '128', '131', '144', '184', '191', '195', '200', '209',
       '228', '239', '241', '272', '279', '294'],
      dtype='object')",False,1000,True,2,df95b0ddfd,1.0,1.0
./expes/v3_2021-02-05_di_300-prng-1-w1-p2,daily_issda-300,300,first-300,28,9,rng,num-start-291,291,536,classic,9.196255207061768,True,,True,1.0,1.0,1.0,1,"Index(['2', '5', '12', '14', '15', '16', '33', '49', '53', '61', '69', '108',
       '111', '118', '131', '137', '163', '195', '196', '200', '222', '229',
       '231', '242', '250', '254', '278', '292'],
      dtype='object')",False,1000,True,2,d3ebcf22ef,1.0,1.0
./expes/v3_2021-02-05_di_300-prng-1-w1-p2,daily_issda-300,300,first-300,21,7,rng,num-start-91,91,536,classic,3.457684278488159,True,,True,1.0,1.0,1.0,1,"Index(['16', '23', '44', '46', '65', '71', '99', '108', '117', '127', '190',
       '193', '200', '206', '207', '233', '236', '250', '254', '260', '294'],
      dtype='object')",False,1000,True,2,b2b1aa1620,1.0,1.0
./expes/v3_2021-02-05_di_300-prng-1-w1-p2,daily_issda-300,300,first-300,35,11,rng,num-start-251,251,536,classic,8.307244300842285,True,,True,1.0,1.0,1.0,1,"Index(['14', '32', '36', '42', '57', '64', '71', '72', '73', '78', '90', '101',
       '108', '128', '130', '143', '149', '156', '159', '163', '170', '188',
       '197', '206', '210', '213', '215', '243', '257', '260', '268', '273',
       '277', '283', '287'],
      dtype='object')",False,1000,True,2,c306df45f8,1.0,1.0
./expes/v3_2021-02-05_di_300-prng-1-w1-p2,daily_issda-300,300,first-300,7,2,rng,num-start-151,151,536,classic,5.2417051792144775,True,,True,1.0,1.0,1.0,1,"Index(['33', '61', '69', '131', '231', '254', '292'], dtype='object')",False,1000,True,2,53cadc7a49,1.0,1.0
./expes/v3_2021-02-05_di_300-prng-1-w1-p2,daily_issda-300,300,first-300,21,7,rng,num-start-11,11,536,classic,1000.4467732906342,False,,False,0,,,0,"Index(['61', '63', '87', '90', '93', '94', '101', '102', '121', '123', '130',
       '136', '152', '167', '172', '230', '235', '246', '251', '253', '268'],
      dtype='object')",True,1000,True,2,6ba8c98c39,0.0,0.0
./expes/v3_2021-02-05_di_300-prng-1-w1-p2,daily_issda-300,300,first-300,126,42,rng,num-start-41,41,536,classic,1001.252769947052,False,,False,0,,,0,"Index(['2', '3', '8', '16', '17', '19', '20', '22', '23', '24',
       ...
       '282', '284', '285', '287', '289', '290', '292', '296', '298', '299'],
      dtype='object', length=126)",True,1000,True,2,d13cc22ae4,0.0,0.0
