expe,clients,clients_size,clients_subset,agg_size,agg_size_pc,method,days,days_size,days_total,noise_method,time,valid,valid_sum,success,score_avg,score_min,score_max,nsols,oracle,wall_hit,wall_time,pooled,pool_size,uuid,optimal,valid_sums
./expes/v3_2021-02-05_di_300-prng-1-w1-p2,daily_issda-300,300,first-300,56,18,rng,num-start-71,71,536,classic,13.935120582580566,True,,True,1.0,1.0,1.0,1,"Index(['4', '52', '59', '61', '63', '68', '75', '83', '87', '90', '93', '94',
       '98', '101', '102', '103', '104', '106', '111', '113', '121', '122',
       '123', '130', '136', '139', '140', '145', '152', '154', '156', '167',
       '172', '176', '178', '188', '208', '209', '224', '230', '235', '245',
       '246', '251', '253', '254', '257', '260', '263', '268', '270', '276',
       '283', '291', '294', '295'],
      dtype='object')",False,1000,True,2,edc2e88b88,1.0,1.0
./expes/v3_2021-02-05_di_300-prng-1-w1-p2,daily_issda-300,300,first-300,133,44,rng,num-start-221,221,536,classic,10.19460940361023,True,,True,1.0,1.0,1.0,1,"Index(['1', '2', '3', '5', '7', '10', '12', '15', '17', '19',
       ...
       '273', '274', '277', '279', '280', '281', '282', '289', '294', '297'],
      dtype='object', length=133)",False,1000,True,2,cc14fed7cb,1.0,1.0
./expes/v3_2021-02-05_di_300-prng-1-w1-p2,daily_issda-300,300,first-300,91,30,rng,num-start-141,141,536,classic,6.102884769439697,True,,True,1.0,1.0,1.0,1,"Index(['1', '7', '9', '10', '12', '15', '19', '24', '28', '40', '42', '44',
       '46', '48', '49', '50', '60', '62', '64', '65', '71', '75', '87', '89',
       '95', '97', '99', '100', '101', '102', '103', '108', '115', '126',
       '129', '131', '132', '134', '136', '137', '138', '140', '149', '150',
       '156', '157', '160', '164', '169', '171', '172', '183', '185', '186',
       '192', '194', '195', '200', '204', '210', '211', '212', '216', '217',
       '218', '219', '221', '226', '228', '229', '232', '241', '242', '248',
       '249', '250', '251', '257', '258', '264', '265', '268', '269', '271',
       '276', '277', '284', '286', '289', '294', '295'],
      dtype='object')",False,1000,True,2,d4eb1eec98,1.0,1.0
./expes/v3_2021-02-05_di_300-prng-1-w1-p2,daily_issda-300,300,first-300,112,37,rng,num-start-151,151,536,classic,7.005870342254639,True,,True,1.0,1.0,1.0,1,"Index(['4', '5', '10', '11', '14', '22', '23', '24', '29', '31',
       ...
       '266', '267', '274', '275', '281', '282', '286', '293', '294', '299'],
      dtype='object', length=112)",False,1000,True,2,57c8b549bc,1.0,1.0
./expes/v3_2021-02-05_di_300-prng-1-w1-p2,daily_issda-300,300,first-300,70,23,rng,num-start-91,91,536,classic,12.180734872817993,True,,True,1.0,1.0,1.0,1,"Index(['3', '4', '6', '7', '8', '11', '12', '15', '17', '23', '34', '41', '43',
       '45', '63', '73', '74', '79', '80', '85', '89', '113', '114', '115',
       '117', '119', '121', '122', '130', '133', '145', '146', '151', '152',
       '155', '156', '159', '163', '164', '172', '179', '186', '190', '192',
       '205', '208', '210', '214', '216', '217', '228', '229', '233', '234',
       '236', '238', '241', '244', '245', '247', '251', '252', '254', '256',
       '262', '265', '268', '277', '289', '297'],
      dtype='object')",False,1000,True,2,e9145c9bbb,1.0,1.0
./expes/v3_2021-02-05_di_300-prng-1-w1-p2,daily_issda-300,300,first-300,119,39,rng,num-start-141,141,536,classic,12.34463906288147,True,,True,1.0,1.0,1.0,1,"Index(['4', '6', '7', '8', '11', '12', '15', '16', '17', '19',
       ...
       '282', '283', '287', '292', '293', '294', '296', '297', '298', '300'],
      dtype='object', length=119)",False,1000,True,2,7b273bc920,1.0,1.0
./expes/v3_2021-02-05_di_300-prng-1-w1-p2,daily_issda-300,300,first-300,7,2,rng,num-start-21,21,536,classic,0.9277260303497314,True,,True,1.0,1.0,1.0,1,"Index(['23', '62', '103', '178', '202', '262', '267'], dtype='object')",False,1000,True,2,a19fe6d9b2,1.0,1.0
./expes/v3_2021-02-05_di_300-prng-1-w1-p2,daily_issda-300,300,first-300,84,28,rng,num-start-191,191,536,classic,8.620779037475586,True,,True,1.0,1.0,1.0,1,"Index(['7', '11', '16', '18', '20', '23', '30', '33', '37', '44', '45', '46',
       '50', '56', '59', '65', '70', '71', '73', '76', '77', '82', '90', '99',
       '100', '102', '107', '108', '113', '117', '120', '121', '125', '127',
       '131', '133', '137', '146', '147', '152', '153', '159', '161', '174',
       '176', '177', '183', '190', '193', '194', '195', '198', '200', '203',
       '206', '207', '209', '214', '217', '219', '228', '233', '234', '236',
       '243', '249', '250', '251', '254', '255', '258', '260', '262', '265',
       '267', '271', '273', '277', '280', '286', '294', '297', '298', '300'],
      dtype='object')",False,1000,True,2,5573927759,1.0,1.0
./expes/v3_2021-02-05_di_300-prng-1-w1-p2,daily_issda-300,300,first-300,7,2,rng,num-start-21,21,536,classic,1.2425217628479004,True,,True,1.0,1.0,1.0,1,"Index(['67', '76', '96', '116', '119', '133', '149'], dtype='object')",False,1000,True,2,9944013afe,1.0,1.0
./expes/v3_2021-02-05_di_300-prng-1-w1-p2,daily_issda-300,300,first-300,35,11,rng,num-start-71,71,536,classic,5.0141870975494385,True,,True,1.0,1.0,1.0,1,"Index(['7', '8', '16', '22', '33', '34', '67', '69', '78', '82', '99', '119',
       '120', '122', '133', '138', '155', '188', '190', '199', '200', '203',
       '204', '219', '228', '241', '243', '244', '268', '277', '279', '282',
       '283', '296', '298'],
      dtype='object')",False,1000,True,2,fb5c2ab3f4,1.0,1.0
./expes/v3_2021-02-05_di_300-prng-1-w1-p2,daily_issda-300,300,first-300,14,4,rng,num-start-241,241,536,classic,8.991141080856323,True,,True,1.0,1.0,1.0,1,"Index(['16', '37', '65', '67', '76', '96', '110', '116', '119', '133', '149',
       '151', '221', '273'],
      dtype='object')",False,1000,True,2,46179bbe44,1.0,1.0
./expes/v3_2021-02-05_di_300-prng-1-w1-p2,daily_issda-300,300,first-300,14,4,rng,num-start-201,201,536,classic,8.390620946884155,True,,True,1.0,1.0,1.0,1,"Index(['16', '23', '44', '65', '71', '99', '108', '117', '127', '190', '193',
       '206', '236', '260'],
      dtype='object')",False,1000,True,2,a1cc8c4a81,1.0,1.0
./expes/v3_2021-02-05_di_300-prng-1-w1-p2,daily_issda-300,300,first-300,49,16,rng,num-start-111,111,536,classic,4.723428010940552,True,,True,1.0,1.0,1.0,1,"Index(['1', '3', '7', '12', '15', '27', '34', '37', '53', '58', '65', '68',
       '72', '75', '81', '82', '85', '86', '94', '101', '102', '105', '108',
       '111', '127', '128', '131', '136', '144', '149', '153', '155', '161',
       '170', '184', '185', '191', '195', '197', '200', '209', '213', '228',
       '239', '241', '272', '277', '279', '294'],
      dtype='object')",False,1000,True,2,ac55f2a49e,1.0,1.0
./expes/v3_2021-02-05_di_300-prng-1-w1-p2,daily_issda-300,300,first-300,56,18,rng,num-start-151,151,536,classic,6.754137992858887,True,,True,1.0,1.0,1.0,1,"Index(['4', '11', '14', '23', '31', '35', '45', '46', '47', '53', '55', '80',
       '83', '85', '89', '92', '100', '110', '114', '120', '121', '127', '128',
       '133', '134', '135', '140', '142', '144', '148', '149', '150', '154',
       '156', '157', '159', '160', '173', '185', '191', '199', '203', '206',
       '212', '217', '221', '232', '243', '246', '260', '261', '267', '275',
       '281', '282', '294'],
      dtype='object')",False,1000,True,2,9ce4c61154,1.0,1.0
./expes/v3_2021-02-05_di_300-prng-1-w1-p2,daily_issda-300,300,first-300,35,11,rng,num-start-141,141,536,classic,5.93222713470459,True,,True,1.0,1.0,1.0,1,"Index(['4', '61', '63', '87', '90', '93', '94', '101', '102', '103', '104',
       '111', '113', '121', '122', '123', '130', '136', '152', '154', '167',
       '172', '176', '178', '188', '208', '230', '235', '246', '251', '253',
       '260', '268', '276', '295'],
      dtype='object')",False,1000,True,2,a5f95504f0,1.0,1.0
./expes/v3_2021-02-05_di_300-prng-1-w1-p2,daily_issda-300,300,first-300,133,44,rng,num-start-121,121,536,classic,16.783984422683716,True,,True,1.0,1.0,1.0,1,"Index(['3', '4', '5', '6', '7', '8', '11', '12', '15', '16',
       ...
       '268', '270', '274', '277', '278', '284', '289', '294', '297', '299'],
      dtype='object', length=133)",False,1000,True,2,729386fd5e,1.0,1.0
./expes/v3_2021-02-05_di_300-prng-1-w1-p2,daily_issda-300,300,first-300,119,39,rng,num-start-161,161,536,classic,7.416181802749634,True,,True,1.0,1.0,1.0,1,"Index(['2', '7', '9', '11', '14', '16', '17', '18', '20', '23',
       ...
       '273', '277', '280', '286', '289', '292', '294', '297', '298', '300'],
      dtype='object', length=119)",False,1000,True,2,dd0edc93ea,1.0,1.0
./expes/v3_2021-02-05_di_300-prng-1-w1-p2,daily_issda-300,300,first-300,21,7,rng,num-start-231,231,536,classic,8.973601818084717,True,,True,1.0,1.0,1.0,1,"Index(['20', '25', '30', '36', '38', '45', '47', '49', '78', '110', '124',
       '166', '188', '203', '215', '218', '223', '260', '275', '283', '299'],
      dtype='object')",False,1000,True,2,7f093dba97,1.0,1.0
./expes/v3_2021-02-05_di_300-prng-1-w1-p2,daily_issda-300,300,first-300,21,7,rng,num-start-1,1,536,classic,2.278618574142456,False,,False,0.6388721277731991,0.6342415220202724,0.6435027335261259,2,"Index(['16', '23', '44', '46', '65', '71', '99', '108', '117', '127', '190',
       '193', '200', '206', '207', '233', '236', '250', '254', '260', '294'],
      dtype='object')",False,1000,True,2,7d3f0c9163,1.0,1.0
./expes/v3_2021-02-05_di_300-prng-1-w1-p2,daily_issda-300,300,first-300,63,21,rng,num-start-81,81,536,classic,58.76976299285889,True,,True,1.0,1.0,1.0,1,"Index(['1', '3', '8', '9', '16', '19', '22', '27', '31', '33', '35', '36',
       '38', '43', '44', '47', '49', '56', '73', '81', '95', '96', '98', '101',
       '102', '108', '110', '118', '120', '124', '131', '143', '148', '149',
       '151', '156', '162', '168', '193', '198', '203', '204', '206', '209',
       '215', '226', '229', '232', '235', '238', '239', '241', '244', '256',
       '261', '263', '266', '271', '276', '283', '287', '289', '290'],
      dtype='object')",False,1000,True,2,fbb8ee7adb,1.0,1.0
./expes/v3_2021-02-05_di_300-prng-1-w1-p2,daily_issda-300,300,first-300,14,4,rng,num-start-231,231,536,classic,8.920258283615112,True,,True,1.0,1.0,1.0,1,"Index(['4', '21', '42', '71', '87', '96', '137', '172', '174', '192', '195',
       '238', '258', '284'],
      dtype='object')",False,1000,True,2,ad2f3d632e,1.0,1.0
./expes/v3_2021-02-05_di_300-prng-1-w1-p2,daily_issda-300,300,first-300,7,2,rng,num-start-221,221,536,classic,8.645341396331787,True,,True,1.0,1.0,1.0,1,"Index(['95', '98', '232', '239', '261', '263', '287'], dtype='object')",False,1000,True,2,880fd4de68,1.0,1.0
./expes/v3_2021-02-05_di_300-prng-1-w1-p2,daily_issda-300,300,first-300,91,30,rng,num-start-21,21,536,classic,1000.7864768505096,False,,False,0,,,0,"Index(['1', '7', '9', '10', '12', '15', '19', '24', '28', '40', '42', '44',
       '46', '48', '49', '50', '60', '62', '64', '65', '71', '75', '87', '89',
       '95', '97', '99', '100', '101', '102', '103', '108', '115', '126',
       '129', '131', '132', '134', '136', '137', '138', '140', '149', '150',
       '156', '157', '160', '164', '169', '171', '172', '183', '185', '186',
       '192', '194', '195', '200', '204', '210', '211', '212', '216', '217',
       '218', '219', '221', '226', '228', '229', '232', '241', '242', '248',
       '249', '250', '251', '257', '258', '264', '265', '268', '269', '271',
       '276', '277', '284', '286', '289', '294', '295'],
      dtype='object')",True,1000,True,2,745208d65f,0.0,0.0
./expes/v3_2021-02-05_di_300-prng-1-w1-p2,daily_issda-300,300,first-300,98,32,rng,num-start-201,201,536,classic,9.42121934890747,True,,True,1.0,1.0,1.0,1,"Index(['4', '7', '8', '11', '15', '16', '17', '19', '22', '23', '24', '33',
       '34', '35', '40', '46', '50', '53', '54', '56', '61', '64', '67', '69',
       '70', '71', '78', '80', '82', '84', '99', '102', '109', '112', '119',
       '120', '121', '122', '133', '135', '137', '138', '143', '144', '146',
       '150', '151', '155', '159', '161', '168', '170', '173', '174', '177',
       '180', '185', '188', '190', '193', '194', '198', '199', '200', '203',
       '204', '209', '211', '213', '216', '219', '224', '228', '236', '241',
       '243', '244', '247', '248', '254', '259', '260', '267', '268', '274',
       '275', '277', '278', '279', '282', '283', '287', '292', '293', '294',
       '296', '298', '300'],
      dtype='object')",False,1000,True,2,1000e912be,1.0,1.0
./expes/v3_2021-02-05_di_300-prng-1-w1-p2,daily_issda-300,300,first-300,35,11,rng,num-start-31,31,536,classic,1001.150771856308,False,,False,0,,,0,"Index(['1', '3', '7', '15', '27', '37', '53', '58', '65', '68', '72', '81',
       '82', '85', '86', '94', '108', '111', '127', '128', '131', '144', '149',
       '161', '184', '191', '195', '200', '209', '228', '239', '241', '272',
       '279', '294'],
      dtype='object')",True,1000,True,2,e30db0ac3c,0.0,0.0
./expes/v3_2021-02-05_di_300-prng-1-w1-p2,daily_issda-300,300,first-300,98,32,rng,num-start-171,171,536,classic,7.5850231647491455,True,,True,1.0,1.0,1.0,1,"Index(['3', '4', '5', '6', '7', '8', '11', '12', '15', '16', '17', '20', '23',
       '24', '25', '31', '34', '37', '41', '43', '45', '48', '52', '54', '59',
       '60', '63', '73', '74', '76', '79', '80', '85', '89', '92', '102',
       '113', '114', '115', '117', '119', '121', '122', '123', '125', '126',
       '130', '131', '133', '134', '138', '145', '146', '151', '152', '155',
       '156', '159', '163', '164', '172', '179', '186', '190', '192', '199',
       '202', '205', '208', '209', '210', '214', '216', '217', '228', '229',
       '233', '234', '236', '238', '239', '241', '244', '245', '247', '251',
       '252', '254', '256', '262', '265', '268', '270', '277', '278', '289',
       '297', '299'],
      dtype='object')",False,1000,True,2,84019103c8,1.0,1.0
./expes/v3_2021-02-05_di_300-prng-1-w1-p2,daily_issda-300,300,first-300,63,21,rng,num-start-61,61,536,classic,1002.1344339847565,False,,False,0,,,0,"Index(['13', '15', '19', '29', '44', '47', '70', '82', '83', '85', '86', '87',
       '89', '91', '94', '109', '114', '119', '121', '128', '129', '138',
       '143', '156', '158', '159', '164', '167', '180', '182', '185', '186',
       '187', '191', '195', '202', '205', '213', '217', '221', '228', '229',
       '233', '234', '237', '239', '246', '250', '251', '256', '257', '258',
       '261', '262', '264', '269', '270', '272', '279', '286', '287', '291',
       '298'],
      dtype='object')",True,1000,True,2,323684c5a4,0.0,0.0
./expes/v3_2021-02-05_di_300-prng-1-w1-p2,daily_issda-300,300,first-300,21,7,rng,num-start-151,151,536,classic,5.926795482635498,True,,True,1.0,1.0,1.0,1,"Index(['6', '9', '19', '29', '60', '76', '81', '106', '107', '118', '123',
       '135', '144', '174', '177', '182', '183', '189', '201', '239', '267'],
      dtype='object')",False,1000,True,2,11f713e2d2,1.0,1.0
./expes/v3_2021-02-05_di_300-prng-1-w1-p2,daily_issda-300,300,first-300,70,23,rng,num-start-181,181,536,classic,7.66877007484436,True,,True,1.0,1.0,1.0,1,"Index(['2', '3', '4', '5', '9', '13', '21', '22', '23', '27', '28', '29', '33',
       '36', '42', '43', '44', '45', '48', '53', '57', '58', '63', '68', '69',
       '71', '72', '75', '81', '87', '89', '96', '99', '102', '103', '104',
       '105', '108', '115', '122', '137', '139', '144', '150', '170', '172',
       '174', '175', '192', '194', '195', '197', '204', '211', '216', '217',
       '218', '232', '238', '252', '255', '257', '258', '260', '276', '277',
       '284', '285', '294', '297'],
      dtype='object')",False,1000,True,2,f358fe26fb,1.0,1.0
./expes/v3_2021-02-05_di_300-prng-1-w1-p2,daily_issda-300,300,first-300,133,44,rng,num-start-121,121,536,classic,27.70597219467163,True,,True,1.0,1.0,1.0,1,"Index(['3', '5', '6', '10', '11', '14', '15', '26', '27', '28',
       ...
       '284', '285', '286', '287', '289', '291', '293', '295', '296', '297'],
      dtype='object', length=133)",False,1000,True,2,2403097539,1.0,1.0
./expes/v3_2021-02-05_di_300-prng-1-w1-p2,daily_issda-300,300,first-300,91,30,rng,num-start-191,191,536,classic,9.018905401229858,True,,True,1.0,1.0,1.0,1,"Index(['3', '8', '17', '18', '19', '23', '34', '37', '39', '41', '42', '50',
       '58', '62', '69', '72', '74', '77', '81', '82', '83', '85', '86', '90',
       '91', '92', '98', '100', '106', '115', '121', '123', '125', '126',
       '128', '135', '137', '141', '143', '146', '155', '156', '161', '164',
       '167', '168', '170', '178', '179', '182', '185', '186', '188', '192',
       '193', '196', '197', '200', '208', '212', '213', '216', '220', '222',
       '223', '224', '226', '227', '229', '230', '231', '234', '237', '241',
       '246', '248', '251', '252', '255', '257', '267', '268', '274', '275',
       '279', '282', '291', '293', '296', '299', '300'],
      dtype='object')",False,1000,True,2,f0d834d5da,1.0,1.0
./expes/v3_2021-02-05_di_300-prng-1-w1-p2,daily_issda-300,300,first-300,112,37,rng,num-start-1,1,536,classic,2.2918453216552734,False,,False,0.2917117530251716,0.2917117530251716,0.2917117530251716,2,"Index(['1', '2', '3', '5', '7', '10', '12', '15', '17', '19',
       ...
       '269', '272', '274', '277', '279', '280', '282', '289', '294', '297'],
      dtype='object', length=112)",False,1000,True,2,e5d32344ba,1.0,1.0
./expes/v3_2021-02-05_di_300-prng-1-w1-p2,daily_issda-300,300,first-300,56,18,rng,num-start-161,161,536,classic,6.9107184410095215,True,,True,1.0,1.0,1.0,1,"Index(['8', '16', '37', '38', '44', '61', '65', '67', '68', '70', '72', '76',
       '91', '92', '96', '100', '104', '110', '116', '119', '120', '121',
       '130', '132', '133', '135', '142', '144', '149', '151', '161', '178',
       '183', '187', '188', '191', '203', '220', '221', '224', '226', '228',
       '230', '231', '236', '238', '250', '252', '268', '273', '275', '282',
       '284', '289', '290', '296'],
      dtype='object')",False,1000,True,2,09b320422c,1.0,1.0
./expes/v3_2021-02-05_di_300-prng-1-w1-p2,daily_issda-300,300,first-300,105,35,rng,num-start-211,211,536,classic,9.428993225097656,True,,True,1.0,1.0,1.0,1,"Index(['3', '4', '5', '6', '7', '8', '11', '12', '15', '16',
       ...
       '258', '262', '265', '268', '270', '277', '278', '289', '297', '299'],
      dtype='object', length=105)",False,1000,True,2,ad098f13eb,1.0,1.0
./expes/v3_2021-02-05_di_300-prng-1-w1-p2,daily_issda-300,300,first-300,140,46,rng,num-start-251,251,536,classic,11.394603967666626,True,,True,1.0,1.0,1.0,1,"Index(['1', '7', '8', '9', '12', '14', '17', '19', '20', '21',
       ...
       '281', '283', '287', '288', '291', '292', '294', '295', '297', '299'],
      dtype='object', length=140)",False,1000,True,2,c069374c4d,1.0,1.0
./expes/v3_2021-02-05_di_300-prng-1-w1-p2,daily_issda-300,300,first-300,91,30,rng,num-start-131,131,536,classic,9.397682189941406,True,,True,1.0,1.0,1.0,1,"Index(['6', '8', '9', '10', '19', '22', '23', '25', '29', '31', '32', '33',
       '34', '38', '41', '48', '52', '60', '72', '73', '76', '78', '81', '82',
       '85', '89', '92', '101', '106', '107', '115', '118', '119', '121',
       '123', '131', '134', '135', '140', '144', '147', '148', '152', '157',
       '159', '160', '161', '162', '163', '173', '174', '177', '182', '183',
       '185', '189', '193', '199', '200', '201', '203', '206', '208', '215',
       '216', '225', '227', '231', '234', '237', '239', '240', '243', '244',
       '247', '251', '252', '253', '254', '256', '257', '258', '262', '267',
       '272', '274', '279', '285', '290', '292', '296'],
      dtype='object')",False,1000,True,2,ba5857ef55,1.0,1.0
./expes/v3_2021-02-05_di_300-prng-1-w1-p2,daily_issda-300,300,first-300,77,25,rng,num-start-91,91,536,classic,27.457284450531006,True,,True,1.0,1.0,1.0,1,"Index(['5', '13', '15', '19', '29', '39', '44', '47', '55', '70', '82', '83',
       '85', '86', '87', '89', '91', '94', '98', '107', '109', '114', '119',
       '121', '128', '129', '138', '143', '156', '158', '159', '160', '164',
       '167', '175', '180', '182', '185', '186', '187', '188', '191', '195',
       '202', '205', '209', '213', '217', '221', '228', '229', '233', '234',
       '237', '239', '246', '250', '251', '256', '257', '258', '259', '260',
       '261', '262', '263', '264', '266', '269', '270', '272', '279', '286',
       '287', '288', '291', '298'],
      dtype='object')",False,1000,True,2,fd736aa6d2,1.0,1.0
./expes/v3_2021-02-05_di_300-prng-1-w1-p2,daily_issda-300,300,first-300,119,39,rng,num-start-201,201,536,classic,9.027076959609985,True,,True,1.0,1.0,1.0,1,"Index(['1', '3', '5', '11', '13', '15', '16', '17', '19', '21',
       ...
       '270', '272', '279', '283', '286', '287', '288', '291', '295', '298'],
      dtype='object', length=119)",False,1000,True,2,7dc07c70b0,1.0,1.0
./expes/v3_2021-02-05_di_300-prng-1-w1-p2,daily_issda-300,300,first-300,63,21,rng,num-start-161,161,536,classic,7.24412727355957,True,,True,1.0,1.0,1.0,1,"Index(['2', '8', '16', '23', '37', '38', '44', '61', '65', '67', '68', '70',
       '72', '73', '76', '82', '91', '92', '96', '100', '104', '110', '116',
       '119', '120', '121', '130', '132', '133', '135', '142', '144', '149',
       '151', '161', '178', '183', '187', '188', '191', '200', '203', '218',
       '220', '221', '224', '226', '228', '230', '231', '236', '238', '250',
       '252', '255', '268', '273', '275', '282', '284', '289', '290', '296'],
      dtype='object')",False,1000,True,2,e2e2611258,1.0,1.0
./expes/v3_2021-02-05_di_300-prng-1-w1-p2,daily_issda-300,300,first-300,21,7,rng,num-start-281,281,536,classic,10.461988687515259,True,,True,1.0,1.0,1.0,1,"Index(['2', '15', '33', '49', '53', '61', '69', '108', '118', '131', '137',
       '163', '195', '200', '222', '229', '231', '242', '250', '254', '292'],
      dtype='object')",False,1000,True,2,83b093467c,1.0,1.0
./expes/v3_2021-02-05_di_300-prng-1-w1-p2,daily_issda-300,300,first-300,84,28,rng,num-start-31,31,536,classic,1001.0740580558777,False,,False,0,,,0,"Index(['4', '11', '14', '23', '24', '31', '32', '35', '42', '45', '46', '47',
       '52', '53', '55', '63', '75', '80', '83', '85', '89', '91', '92', '95',
       '100', '101', '102', '104', '110', '114', '118', '120', '121', '122',
       '127', '128', '133', '134', '135', '140', '142', '143', '144', '148',
       '149', '150', '154', '156', '157', '159', '160', '165', '166', '170',
       '173', '176', '183', '185', '191', '199', '203', '206', '212', '217',
       '221', '224', '226', '232', '236', '237', '242', '243', '246', '260',
       '261', '266', '267', '274', '275', '281', '282', '286', '294', '299'],
      dtype='object')",True,1000,True,2,d5d90ea1ee,0.0,0.0
./expes/v3_2021-02-05_di_300-prng-1-w1-p2,daily_issda-300,300,first-300,77,25,rng,num-start-41,41,536,classic,1001.5464096069336,False,,False,0,,,0,"Index(['7', '11', '16', '20', '23', '30', '33', '37', '44', '45', '46', '50',
       '56', '59', '65', '70', '71', '73', '76', '77', '82', '99', '100',
       '102', '107', '108', '113', '117', '120', '121', '125', '127', '133',
       '137', '146', '147', '152', '159', '161', '174', '176', '177', '183',
       '190', '193', '194', '195', '198', '200', '206', '207', '209', '219',
       '228', '233', '234', '236', '243', '249', '250', '251', '254', '255',
       '258', '260', '262', '265', '267', '271', '273', '277', '280', '286',
       '294', '297', '298', '300'],
      dtype='object')",True,1000,True,2,7f423e4e21,0.0,0.0
./expes/v3_2021-02-05_di_300-prng-1-w1-p2,daily_issda-300,300,first-300,126,42,rng,num-start-251,251,536,classic,11.78367280960083,True,,True,1.0,1.0,1.0,1,"Index(['1', '6', '10', '11', '13', '15', '17', '18', '22', '28',
       ...
       '274', '280', '283', '284', '287', '288', '292', '293', '297', '299'],
      dtype='object', length=126)",False,1000,True,2,865416f6cf,1.0,1.0
./expes/v3_2021-02-05_di_300-prng-1-w1-p2,daily_issda-300,300,first-300,98,32,rng,num-start-121,121,536,classic,12.769440412521362,True,,True,1.0,1.0,1.0,1,"Index(['3', '4', '5', '10', '41', '45', '46', '48', '52', '59', '61', '63',
       '65', '67', '68', '69', '74', '75', '76', '78', '83', '84', '87', '90',
       '93', '94', '98', '101', '102', '103', '104', '105', '106', '111',
       '113', '121', '122', '123', '128', '130', '132', '133', '136', '139',
       '140', '145', '152', '154', '155', '156', '167', '172', '174', '176',
       '178', '181', '185', '188', '198', '202', '204', '205', '208', '209',
       '214', '217', '219', '223', '224', '230', '235', '241', '245', '246',
       '251', '252', '253', '254', '257', '260', '263', '264', '268', '270',
       '273', '274', '276', '278', '279', '281', '283', '285', '287', '291',
       '293', '294', '295', '297'],
      dtype='object')",False,1000,True,2,4455e6d921,1.0,1.0
./expes/v3_2021-02-05_di_300-prng-1-w1-p2,daily_issda-300,300,first-300,98,32,rng,num-start-91,91,536,classic,1003.1586489677429,False,,False,0,,,0,"Index(['3', '4', '5', '6', '7', '8', '11', '12', '15', '16', '17', '20', '23',
       '24', '25', '31', '34', '37', '41', '43', '45', '48', '52', '54', '59',
       '60', '63', '73', '74', '76', '79', '80', '85', '89', '92', '102',
       '113', '114', '115', '117', '119', '121', '122', '123', '125', '126',
       '130', '131', '133', '134', '138', '145', '146', '151', '152', '155',
       '156', '159', '163', '164', '172', '179', '186', '190', '192', '199',
       '202', '205', '208', '209', '210', '214', '216', '217', '228', '229',
       '233', '234', '236', '238', '239', '241', '244', '245', '247', '251',
       '252', '254', '256', '262', '265', '268', '270', '277', '278', '289',
       '297', '299'],
      dtype='object')",True,1000,True,2,f4dd65feef,0.0,0.0
./expes/v3_2021-02-05_di_300-prng-1-w1-p2,daily_issda-300,300,first-300,70,23,rng,num-start-71,71,536,classic,1002.3892517089844,False,,False,0,,,0,"Index(['1', '3', '8', '9', '16', '19', '22', '27', '31', '33', '35', '36',
       '38', '43', '44', '45', '47', '49', '56', '61', '73', '81', '95', '96',
       '98', '101', '102', '108', '110', '118', '120', '124', '131', '139',
       '143', '148', '149', '151', '156', '160', '162', '168', '171', '173',
       '193', '198', '203', '204', '206', '209', '210', '215', '226', '229',
       '232', '235', '238', '239', '241', '244', '256', '261', '263', '266',
       '271', '276', '283', '287', '289', '290'],
      dtype='object')",True,1000,True,2,7b3655f520,0.0,0.0
./expes/v3_2021-02-05_di_300-prng-1-w1-p2,daily_issda-300,300,first-300,112,37,rng,num-start-71,71,536,classic,1002.4129037857056,False,,False,0,,,0,"Index(['4', '5', '10', '11', '14', '22', '23', '24', '29', '31',
       ...
       '266', '267', '274', '275', '281', '282', '286', '293', '294', '299'],
      dtype='object', length=112)",True,1000,True,2,198bfa76aa,0.0,0.0
./expes/v3_2021-02-05_di_300-prng-1-w1-p2,daily_issda-300,300,first-300,49,16,rng,num-start-251,251,536,classic,11.682329416275024,True,,True,1.0,1.0,1.0,1,"Index(['2', '3', '4', '13', '21', '23', '27', '29', '33', '42', '45', '53',
       '57', '58', '63', '68', '71', '72', '81', '87', '96', '102', '103',
       '105', '108', '115', '122', '137', '144', '150', '172', '174', '175',
       '192', '194', '195', '197', '204', '211', '216', '217', '218', '232',
       '238', '252', '258', '260', '284', '297'],
      dtype='object')",False,1000,True,2,9a1ee7c638,1.0,1.0
./expes/v3_2021-02-05_di_300-prng-1-w1-p2,daily_issda-300,300,first-300,126,42,rng,num-start-281,281,536,classic,15.432292222976685,True,,True,1.0,1.0,1.0,1,"Index(['1', '6', '10', '11', '13', '15', '17', '18', '22', '28',
       ...
       '274', '280', '283', '284', '287', '288', '292', '293', '297', '299'],
      dtype='object', length=126)",False,1000,True,2,d618b153b4,1.0,1.0
./expes/v3_2021-02-05_di_300-prng-1-w1-p2,daily_issda-300,300,first-300,42,14,rng,num-start-131,131,536,classic,6.323775291442871,True,,True,1.0,1.0,1.0,1,"Index(['13', '15', '19', '29', '44', '47', '70', '82', '85', '87', '89', '91',
       '94', '109', '119', '121', '129', '138', '158', '164', '167', '182',
       '185', '187', '191', '195', '202', '213', '217', '221', '228', '229',
       '239', '258', '261', '262', '264', '269', '270', '279', '287', '298'],
      dtype='object')",False,1000,True,2,d8d91afb51,1.0,1.0
./expes/v3_2021-02-05_di_300-prng-1-w1-p2,daily_issda-300,300,first-300,7,2,rng,num-start-201,201,536,classic,9.775642395019531,True,,True,1.0,1.0,1.0,1,"Index(['15', '27', '128', '131', '184', '239', '272'], dtype='object')",False,1000,True,2,4062a40e60,1.0,1.0
./expes/v3_2021-02-05_di_300-prng-1-w1-p2,daily_issda-300,300,first-300,91,30,rng,num-start-81,81,536,classic,1003.5676066875458,False,,False,0,,,0,"Index(['3', '5', '10', '11', '14', '26', '27', '28', '30', '32', '33', '36',
       '39', '42', '48', '49', '57', '60', '64', '67', '71', '72', '73', '78',
       '83', '88', '90', '94', '99', '101', '102', '108', '109', '110', '123',
       '128', '129', '130', '133', '137', '140', '142', '143', '149', '156',
       '157', '158', '159', '162', '163', '164', '170', '171', '172', '173',
       '179', '182', '185', '188', '191', '192', '197', '201', '206', '207',
       '208', '210', '213', '215', '222', '240', '243', '245', '249', '257',
       '260', '268', '269', '270', '273', '275', '277', '283', '284', '285',
       '286', '287', '289', '293', '295', '297'],
      dtype='object')",True,1000,True,2,0430a0f0ce,0.0,0.0
./expes/v3_2021-02-05_di_300-prng-1-w1-p2,daily_issda-300,300,first-300,91,30,rng,num-start-101,101,536,classic,1003.4003248214722,False,,False,0,,,0,"Index(['1', '2', '3', '5', '7', '10', '12', '15', '19', '24', '27', '30', '34',
       '37', '47', '53', '56', '58', '61', '65', '68', '72', '75', '76', '81',
       '82', '85', '86', '91', '93', '94', '95', '101', '102', '105', '107',
       '108', '111', '126', '127', '128', '129', '131', '132', '136', '142',
       '144', '149', '152', '153', '155', '157', '159', '161', '162', '170',
       '174', '175', '177', '182', '184', '185', '186', '188', '189', '191',
       '193', '195', '197', '200', '207', '209', '213', '215', '222', '228',
       '232', '237', '239', '241', '242', '247', '263', '269', '272', '277',
       '279', '280', '282', '294', '297'],
      dtype='object')",True,1000,True,2,9323ca77e5,0.0,0.0
./expes/v3_2021-02-05_di_300-prng-1-w1-p2,daily_issda-300,300,first-300,42,14,rng,num-start-111,111,536,classic,4.568280935287476,True,,True,1.0,1.0,1.0,1,"Index(['11', '16', '23', '30', '33', '44', '45', '46', '50', '56', '59', '65',
       '71', '99', '108', '117', '120', '121', '127', '133', '137', '174',
       '190', '193', '194', '195', '198', '200', '206', '207', '209', '233',
       '236', '243', '249', '250', '254', '255', '260', '265', '267', '294'],
      dtype='object')",False,1000,True,2,21d29f01e0,1.0,1.0
./expes/v3_2021-02-05_di_300-prng-1-w1-p2,daily_issda-300,300,first-300,98,32,rng,num-start-51,51,536,classic,1001.7428743839264,False,,False,0,,,0,"Index(['3', '4', '5', '10', '41', '45', '46', '48', '52', '59', '61', '63',
       '65', '67', '68', '69', '74', '75', '76', '78', '83', '84', '87', '90',
       '93', '94', '98', '101', '102', '103', '104', '105', '106', '111',
       '113', '121', '122', '123', '128', '130', '132', '133', '136', '139',
       '140', '145', '152', '154', '155', '156', '167', '172', '174', '176',
       '178', '181', '185', '188', '198', '202', '204', '205', '208', '209',
       '214', '217', '219', '223', '224', '230', '235', '241', '245', '246',
       '251', '252', '253', '254', '257', '260', '263', '264', '268', '270',
       '273', '274', '276', '278', '279', '281', '283', '285', '287', '291',
       '293', '294', '295', '297'],
      dtype='object')",True,1000,True,2,9852911b93,0.0,0.0
./expes/v3_2021-02-05_di_300-prng-1-w1-p2,daily_issda-300,300,first-300,84,28,rng,num-start-211,211,536,classic,9.289830207824707,True,,True,1.0,1.0,1.0,1,"Index(['2', '4', '9', '12', '14', '23', '24', '35', '37', '38', '40', '47',
       '51', '52', '54', '56', '59', '62', '66', '69', '71', '76', '82', '88',
       '94', '99', '103', '104', '107', '108', '120', '126', '134', '135',
       '138', '146', '149', '151', '154', '155', '158', '160', '167', '168',
       '178', '189', '193', '199', '200', '202', '203', '207', '209', '211',
       '213', '216', '217', '220', '225', '226', '231', '232', '233', '234',
       '235', '237', '238', '239', '244', '246', '253', '257', '258', '262',
       '267', '271', '278', '280', '281', '292', '293', '296', '297', '300'],
      dtype='object')",False,1000,True,2,fea6f6bef8,1.0,1.0
./expes/v3_2021-02-05_di_300-prng-1-w1-p2,daily_issda-300,300,first-300,84,28,rng,num-start-221,221,536,classic,10.398468971252441,True,,True,1.0,1.0,1.0,1,"Index(['2', '8', '16', '20', '22', '23', '37', '38', '44', '58', '61', '65',
       '67', '68', '70', '71', '72', '73', '76', '82', '85', '91', '92', '94',
       '96', '99', '100', '104', '109', '110', '116', '119', '120', '121',
       '122', '129', '130', '132', '133', '135', '142', '144', '149', '151',
       '152', '161', '175', '178', '180', '183', '184', '187', '188', '191',
       '192', '200', '203', '212', '218', '220', '221', '224', '226', '228',
       '230', '231', '236', '238', '250', '252', '255', '267', '268', '273',
       '275', '282', '284', '285', '289', '290', '292', '296', '298', '299'],
      dtype='object')",False,1000,True,2,9d08d1b57d,1.0,1.0
./expes/v3_2021-02-05_di_300-prng-1-w1-p2,daily_issda-300,300,first-300,49,16,rng,num-start-251,251,536,classic,10.266580581665039,True,,True,1.0,1.0,1.0,1,"Index(['6', '9', '10', '19', '29', '34', '41', '60', '72', '76', '81', '89',
       '101', '106', '107', '115', '118', '119', '123', '135', '144', '147',
       '157', '161', '162', '174', '177', '182', '183', '185', '189', '201',
       '208', '215', '216', '225', '231', '234', '237', '239', '251', '252',
       '262', '267', '272', '274', '290', '292', '296'],
      dtype='object')",False,1000,True,2,4cb3743b62,1.0,1.0
./expes/v3_2021-02-05_di_300-prng-1-w1-p2,daily_issda-300,300,first-300,91,30,rng,num-start-211,211,536,classic,9.868598937988281,True,,True,1.0,1.0,1.0,1,"Index(['4', '10', '11', '14', '22', '23', '24', '31', '32', '35', '42', '43',
       '45', '46', '47', '52', '53', '55', '63', '75', '79', '80', '83', '85',
       '89', '91', '92', '95', '100', '101', '102', '104', '110', '114', '118',
       '120', '121', '122', '127', '128', '133', '134', '135', '140', '142',
       '143', '144', '147', '148', '149', '150', '154', '156', '157', '159',
       '160', '165', '166', '168', '170', '173', '176', '183', '185', '191',
       '199', '203', '206', '211', '212', '217', '221', '224', '226', '232',
       '236', '237', '242', '243', '246', '260', '261', '266', '267', '274',
       '275', '281', '282', '286', '294', '299'],
      dtype='object')",False,1000,True,2,052eeabda7,1.0,1.0
./expes/v3_2021-02-05_di_300-prng-1-w1-p2,daily_issda-300,300,first-300,63,21,rng,num-start-31,31,536,classic,1001.111406326294,False,,False,0,,,0,"Index(['1', '7', '9', '12', '15', '19', '24', '42', '46', '48', '49', '50',
       '60', '62', '71', '75', '87', '97', '99', '100', '101', '102', '103',
       '108', '115', '126', '129', '134', '136', '138', '140', '150', '156',
       '160', '164', '171', '172', '183', '185', '186', '192', '195', '210',
       '212', '218', '221', '228', '241', '248', '249', '250', '251', '257',
       '258', '264', '268', '269', '276', '277', '284', '289', '294', '295'],
      dtype='object')",True,1000,True,2,fc3a00b74a,0.0,0.0
./expes/v3_2021-02-05_di_300-prng-1-w1-p2,daily_issda-300,300,first-300,14,4,rng,num-start-31,31,536,classic,6.410328149795532,True,,True,1.0,1.0,1.0,1,"Index(['19', '29', '44', '47', '82', '87', '109', '129', '158', '185', '202',
       '221', '261', '298'],
      dtype='object')",False,1000,True,2,bc2e981186,1.0,1.0
./expes/v3_2021-02-05_di_300-prng-1-w1-p2,daily_issda-300,300,first-300,49,16,rng,num-start-21,21,536,classic,1000.8098871707916,False,,False,0,,,0,"Index(['3', '8', '16', '19', '22', '31', '33', '36', '43', '44', '47', '49',
       '56', '73', '81', '95', '96', '98', '101', '118', '120', '124', '131',
       '143', '148', '149', '151', '156', '162', '168', '203', '206', '209',
       '226', '229', '232', '235', '238', '239', '244', '256', '261', '263',
       '266', '271', '276', '283', '287', '289'],
      dtype='object')",True,1000,True,2,289a398b38,0.0,0.0
./expes/v3_2021-02-05_di_300-prng-1-w1-p2,daily_issda-300,300,first-300,126,42,rng,num-start-121,121,536,classic,10.575629234313965,True,,True,1.0,1.0,1.0,1,"Index(['1', '3', '5', '11', '13', '15', '16', '17', '19', '21',
       ...
       '272', '279', '283', '286', '287', '288', '291', '295', '298', '300'],
      dtype='object', length=126)",False,1000,True,2,21ee4437c5,1.0,1.0
./expes/v3_2021-02-05_di_300-prng-1-w1-p2,daily_issda-300,300,first-300,84,28,rng,num-start-171,171,536,classic,8.105004072189331,True,,True,1.0,1.0,1.0,1,"Index(['6', '10', '11', '15', '35', '36', '38', '43', '46', '48', '49', '53',
       '55', '58', '59', '61', '63', '74', '77', '83', '85', '87', '93', '100',
       '105', '112', '115', '121', '127', '131', '132', '134', '135', '137',
       '139', '141', '143', '144', '145', '150', '156', '159', '162', '173',
       '178', '183', '184', '185', '187', '189', '196', '198', '202', '204',
       '207', '208', '211', '214', '217', '218', '224', '225', '226', '231',
       '232', '234', '236', '239', '242', '243', '246', '249', '250', '251',
       '257', '264', '265', '270', '274', '283', '292', '293', '297', '299'],
      dtype='object')",False,1000,True,2,266054ba5e,1.0,1.0
./expes/v3_2021-02-05_di_300-prng-1-w1-p2,daily_issda-300,300,first-300,7,2,rng,num-start-221,221,536,classic,8.024712800979614,True,,True,1.0,1.0,1.0,1,"Index(['63', '93', '102', '123', '172', '230', '251'], dtype='object')",False,1000,True,2,55ac41cefa,1.0,1.0
./expes/v3_2021-02-05_di_300-prng-1-w1-p2,daily_issda-300,300,first-300,14,4,rng,num-start-41,41,536,classic,2.6226489543914795,True,,True,1.0,1.0,1.0,1,"Index(['23', '56', '62', '76', '103', '134', '149', '178', '202', '211', '262',
       '267', '271', '300'],
      dtype='object')",False,1000,True,2,dc43522f92,1.0,1.0
./expes/v3_2021-02-05_di_300-prng-1-w1-p2,daily_issda-300,300,first-300,49,16,rng,num-start-231,231,536,classic,9.474477291107178,True,,True,1.0,1.0,1.0,1,"Index(['3', '8', '16', '19', '22', '31', '33', '36', '43', '44', '47', '49',
       '56', '73', '81', '95', '96', '98', '101', '118', '120', '124', '131',
       '143', '148', '149', '151', '156', '162', '168', '203', '206', '209',
       '226', '229', '232', '235', '238', '239', '244', '256', '261', '263',
       '266', '271', '276', '283', '287', '289'],
      dtype='object')",False,1000,True,2,b69e9529f0,1.0,1.0
./expes/v3_2021-02-05_di_300-prng-1-w1-p2,daily_issda-300,300,first-300,14,4,rng,num-start-91,91,536,classic,3.813769817352295,True,,True,1.0,1.0,1.0,1,"Index(['19', '29', '44', '47', '82', '87', '109', '129', '158', '185', '202',
       '221', '261', '298'],
      dtype='object')",False,1000,True,2,cda40c5fc2,1.0,1.0
./expes/v3_2021-02-05_di_300-prng-1-w1-p2,daily_issda-300,300,first-300,56,18,rng,num-start-211,211,536,classic,8.807358264923096,True,,True,1.0,1.0,1.0,1,"Index(['4', '9', '12', '23', '37', '38', '51', '54', '56', '59', '62', '69',
       '71', '76', '82', '99', '103', '104', '107', '120', '134', '138', '149',
       '154', '160', '167', '168', '178', '189', '199', '200', '202', '203',
       '209', '211', '213', '217', '226', '233', '234', '235', '246', '253',
       '257', '258', '262', '267', '271', '278', '280', '281', '292', '293',
       '296', '297', '300'],
      dtype='object')",False,1000,True,2,deb928e927,1.0,1.0
./expes/v3_2021-02-05_di_300-prng-1-w1-p2,daily_issda-300,300,first-300,112,37,rng,num-start-231,231,536,classic,10.127998113632202,True,,True,1.0,1.0,1.0,1,"Index(['1', '4', '5', '6', '10', '13', '14', '15', '16', '17',
       ...
       '266', '271', '277', '278', '280', '282', '285', '286', '294', '296'],
      dtype='object', length=112)",False,1000,True,2,c6ba2459e8,1.0,1.0
./expes/v3_2021-02-05_di_300-prng-1-w1-p2,daily_issda-300,300,first-300,105,35,rng,num-start-121,121,536,classic,13.398348331451416,True,,True,1.0,1.0,1.0,1,"Index(['12', '20', '21', '24', '25', '26', '30', '31', '32', '33',
       ...
       '289', '290', '293', '294', '295', '296', '297', '298', '299', '300'],
      dtype='object', length=105)",False,1000,True,2,770c372c72,1.0,1.0
./expes/v3_2021-02-05_di_300-prng-1-w1-p2,daily_issda-300,300,first-300,70,23,rng,num-start-21,21,536,classic,1000.7783813476562,False,,False,0,,,0,"Index(['1', '8', '21', '32', '33', '38', '42', '47', '48', '49', '51', '52',
       '56', '64', '72', '73', '76', '95', '97', '98', '105', '112', '114',
       '123', '124', '125', '129', '133', '134', '145', '148', '149', '150',
       '155', '156', '159', '162', '163', '164', '167', '170', '171', '182',
       '184', '198', '205', '208', '216', '223', '227', '228', '230', '242',
       '245', '249', '251', '253', '259', '261', '262', '267', '273', '277',
       '279', '281', '283', '287', '291', '295', '299'],
      dtype='object')",True,1000,True,2,71a90e9002,0.0,0.0
./expes/v3_2021-02-05_di_300-prng-1-w1-p2,daily_issda-300,300,first-300,91,30,rng,num-start-281,281,536,classic,12.643024682998657,True,,True,1.0,1.0,1.0,1,"Index(['4', '10', '11', '14', '22', '23', '24', '31', '32', '35', '42', '43',
       '45', '46', '47', '52', '53', '55', '63', '75', '79', '80', '83', '85',
       '89', '91', '92', '95', '100', '101', '102', '104', '110', '114', '118',
       '120', '121', '122', '127', '128', '133', '134', '135', '140', '142',
       '143', '144', '147', '148', '149', '150', '154', '156', '157', '159',
       '160', '165', '166', '168', '170', '173', '176', '183', '185', '191',
       '199', '203', '206', '211', '212', '217', '221', '224', '226', '232',
       '236', '237', '242', '243', '246', '260', '261', '266', '267', '274',
       '275', '281', '282', '286', '294', '299'],
      dtype='object')",False,1000,True,2,6e8f1b3339,1.0,1.0
./expes/v3_2021-02-05_di_300-prng-1-w1-p2,daily_issda-300,300,first-300,35,11,rng,num-start-251,251,536,classic,9.799044132232666,True,,True,1.0,1.0,1.0,1,"Index(['1', '6', '10', '31', '32', '39', '45', '47', '74', '75', '84', '103',
       '108', '115', '117', '138', '141', '173', '174', '180', '189', '192',
       '196', '208', '217', '226', '228', '236', '243', '248', '261', '263',
       '271', '286', '296'],
      dtype='object')",False,1000,True,2,62e982319e,1.0,1.0
./expes/v3_2021-02-05_di_300-prng-1-w1-p2,daily_issda-300,300,first-300,112,37,rng,num-start-281,281,536,classic,12.279157400131226,True,,True,1.0,1.0,1.0,1,"Index(['1', '6', '10', '11', '13', '15', '17', '18', '22', '35',
       ...
       '270', '272', '274', '283', '287', '288', '292', '293', '297', '299'],
      dtype='object', length=112)",False,1000,True,2,8af03ce0c8,1.0,1.0
./expes/v3_2021-02-05_di_300-prng-1-w1-p2,daily_issda-300,300,first-300,7,2,rng,num-start-191,191,536,classic,7.3785717487335205,True,,True,1.0,1.0,1.0,1,"Index(['15', '27', '128', '131', '184', '239', '272'], dtype='object')",False,1000,True,2,135a389dcc,1.0,1.0
./expes/v3_2021-02-05_di_300-prng-1-w1-p2,daily_issda-300,300,first-300,140,46,rng,num-start-161,161,536,classic,7.753735065460205,True,,True,1.0,1.0,1.0,1,"Index(['2', '4', '5', '9', '12', '13', '14', '17', '21', '23',
       ...
       '278', '280', '281', '284', '288', '292', '293', '296', '297', '300'],
      dtype='object', length=140)",False,1000,True,2,db8a9cee86,1.0,1.0
./expes/v3_2021-02-05_di_300-prng-1-w1-p2,daily_issda-300,300,first-300,28,9,rng,num-start-171,171,536,classic,7.822263240814209,True,,True,1.0,1.0,1.0,1,"Index(['1', '6', '31', '39', '45', '74', '75', '84', '103', '108', '117',
       '138', '141', '173', '174', '180', '189', '192', '196', '208', '226',
       '236', '243', '248', '263', '271', '286', '296'],
      dtype='object')",False,1000,True,2,52584f24a3,1.0,1.0
./expes/v3_2021-02-05_di_300-prng-1-w1-p2,daily_issda-300,300,first-300,35,11,rng,num-start-51,51,536,classic,1001.9398281574249,False,,False,0,,,0,"Index(['4', '61', '63', '87', '90', '93', '94', '101', '102', '103', '104',
       '111', '113', '121', '122', '123', '130', '136', '152', '154', '167',
       '172', '176', '178', '188', '208', '230', '235', '246', '251', '253',
       '260', '268', '276', '295'],
      dtype='object')",True,1000,True,2,3c15f75a1a,0.0,0.0
./expes/v3_2021-02-05_di_300-prng-1-w1-p2,daily_issda-300,300,first-300,140,46,rng,num-start-1,1,536,classic,2.2396576404571533,False,,False,0.275465364476837,0.2639252619014224,0.2870054670522516,2,"Index(['1', '3', '5', '10', '11', '13', '15', '16', '17', '18',
       ...
       '272', '279', '283', '286', '287', '288', '291', '295', '298', '300'],
      dtype='object', length=140)",False,1000,True,2,38ff1f28b8,1.0,1.0
./expes/v3_2021-02-05_di_300-prng-1-w1-p2,daily_issda-300,300,first-300,49,16,rng,num-start-121,121,536,classic,4.997826337814331,True,,True,1.0,1.0,1.0,1,"Index(['11', '16', '20', '23', '30', '33', '44', '45', '46', '50', '56', '59',
       '65', '71', '73', '99', '100', '107', '108', '117', '120', '121', '127',
       '133', '137', '174', '190', '193', '194', '195', '198', '200', '206',
       '207', '209', '233', '236', '243', '249', '250', '251', '254', '255',
       '260', '265', '267', '277', '294', '298'],
      dtype='object')",False,1000,True,2,423e234fea,1.0,1.0
./expes/v3_2021-02-05_di_300-prng-1-w1-p2,daily_issda-300,300,first-300,105,35,rng,num-start-91,91,536,classic,1003.2820384502411,False,,False,0,,,0,"Index(['7', '11', '14', '16', '18', '20', '23', '30', '33', '36',
       ...
       '273', '277', '280', '286', '289', '292', '294', '297', '298', '300'],
      dtype='object', length=105)",True,1000,True,2,ab9b5f1f8e,0.0,0.0
./expes/v3_2021-02-05_di_300-prng-1-w1-p2,daily_issda-300,300,first-300,105,35,rng,num-start-291,291,536,classic,14.08160400390625,True,,True,1.0,1.0,1.0,1,"Index(['4', '6', '7', '8', '11', '15', '16', '17', '19', '22',
       ...
       '282', '283', '287', '292', '293', '294', '296', '297', '298', '300'],
      dtype='object', length=105)",False,1000,True,2,5a2dee0336,1.0,1.0
./expes/v3_2021-02-05_di_300-prng-1-w1-p2,daily_issda-300,300,first-300,119,39,rng,num-start-131,131,536,classic,6.060572385787964,True,,True,1.0,1.0,1.0,1,"Index(['1', '4', '7', '8', '9', '10', '12', '15', '16', '19',
       ...
       '271', '276', '277', '284', '286', '287', '289', '292', '294', '295'],
      dtype='object', length=119)",False,1000,True,2,b6bb8075e3,1.0,1.0
./expes/v3_2021-02-05_di_300-prng-1-w1-p2,daily_issda-300,300,first-300,56,18,rng,num-start-61,61,536,classic,1002.2468090057373,False,,False,0,,,0,"Index(['3', '10', '14', '26', '27', '30', '32', '36', '42', '57', '60', '64',
       '71', '72', '73', '78', '90', '101', '108', '110', '123', '128', '130',
       '137', '143', '149', '156', '159', '163', '170', '173', '182', '185',
       '188', '191', '192', '197', '206', '208', '210', '213', '215', '222',
       '243', '245', '257', '260', '268', '270', '273', '277', '283', '286',
       '287', '293', '297'],
      dtype='object')",True,1000,True,2,e39985304f,0.0,0.0
./expes/v3_2021-02-05_di_300-prng-1-w1-p2,daily_issda-300,300,first-300,49,16,rng,num-start-191,191,536,classic,8.072718381881714,True,,True,1.0,1.0,1.0,1,"Index(['3', '8', '17', '18', '23', '34', '39', '69', '72', '81', '83', '90',
       '100', '106', '121', '123', '128', '135', '143', '146', '156', '161',
       '167', '168', '182', '185', '186', '188', '193', '196', '216', '220',
       '224', '226', '231', '234', '237', '241', '248', '251', '252', '257',
       '267', '275', '282', '293', '296', '299', '300'],
      dtype='object')",False,1000,True,2,289571ac42,1.0,1.0
./expes/v3_2021-02-05_di_300-prng-1-w1-p2,daily_issda-300,300,first-300,91,30,rng,num-start-261,261,536,classic,11.85313081741333,True,,True,1.0,1.0,1.0,1,"Index(['4', '10', '41', '45', '46', '48', '52', '59', '61', '63', '65', '67',
       '68', '69', '74', '75', '76', '78', '83', '84', '87', '90', '93', '94',
       '98', '101', '102', '103', '104', '105', '106', '111', '113', '121',
       '122', '123', '128', '130', '133', '136', '139', '140', '145', '152',
       '154', '155', '156', '167', '172', '174', '176', '178', '181', '185',
       '188', '198', '202', '204', '205', '208', '209', '214', '217', '219',
       '223', '224', '230', '235', '241', '245', '246', '251', '252', '253',
       '254', '257', '260', '263', '268', '270', '273', '274', '276', '278',
       '279', '283', '291', '293', '294', '295', '297'],
      dtype='object')",False,1000,True,2,d5bb22a8c0,1.0,1.0
./expes/v3_2021-02-05_di_300-prng-1-w1-p2,daily_issda-300,300,first-300,56,18,rng,num-start-291,291,536,classic,12.254686832427979,True,,True,1.0,1.0,1.0,1,"Index(['11', '16', '20', '23', '30', '33', '44', '45', '46', '50', '56', '59',
       '65', '71', '73', '76', '99', '100', '107', '108', '117', '120', '121',
       '127', '133', '137', '147', '174', '190', '193', '194', '195', '198',
       '200', '206', '207', '209', '228', '233', '234', '236', '243', '249',
       '250', '251', '254', '255', '260', '265', '267', '277', '286', '294',
       '297', '298', '300'],
      dtype='object')",False,1000,True,2,d0a804434c,1.0,1.0
./expes/v3_2021-02-05_di_300-prng-1-w1-p2,daily_issda-300,300,first-300,91,30,rng,num-start-1,1,536,classic,2.7155230045318604,False,,False,0.3232124761963679,0.3108582236144247,0.33556672877831106,2,"Index(['3', '5', '10', '11', '14', '26', '27', '28', '30', '32', '33', '36',
       '39', '42', '48', '49', '57', '60', '64', '67', '71', '72', '73', '78',
       '83', '88', '90', '94', '99', '101', '102', '108', '109', '110', '123',
       '128', '129', '130', '133', '137', '140', '142', '143', '149', '156',
       '157', '158', '159', '162', '163', '164', '170', '171', '172', '173',
       '179', '182', '185', '188', '191', '192', '197', '201', '206', '207',
       '208', '210', '213', '215', '222', '240', '243', '245', '249', '257',
       '260', '268', '269', '270', '273', '275', '277', '283', '284', '285',
       '286', '287', '289', '293', '295', '297'],
      dtype='object')",False,1000,True,2,1c99e62835,1.0,1.0
./expes/v3_2021-02-05_di_300-prng-1-w1-p2,daily_issda-300,300,first-300,91,30,rng,num-start-141,141,536,classic,6.532297849655151,True,,True,1.0,1.0,1.0,1,"Index(['2', '3', '5', '7', '12', '14', '15', '16', '18', '23', '33', '45',
       '49', '52', '53', '56', '61', '62', '67', '69', '84', '87', '88', '89',
       '96', '98', '103', '108', '111', '113', '114', '117', '118', '119',
       '120', '125', '131', '137', '138', '146', '149', '152', '156', '158',
       '163', '171', '177', '181', '188', '190', '192', '195', '196', '197',
       '200', '202', '207', '208', '213', '214', '217', '222', '225', '229',
       '231', '236', '241', '242', '246', '250', '251', '254', '256', '257',
       '258', '259', '260', '261', '263', '264', '266', '267', '271', '277',
       '278', '281', '284', '285', '292', '296', '297'],
      dtype='object')",False,1000,True,2,71dc001933,1.0,1.0
./expes/v3_2021-02-05_di_300-prng-1-w1-p2,daily_issda-300,300,first-300,28,9,rng,num-start-191,191,536,classic,8.32686710357666,True,,True,1.0,1.0,1.0,1,"Index(['1', '12', '19', '42', '46', '48', '49', '75', '99', '102', '134',
       '136', '140', '164', '172', '186', '192', '210', '212', '218', '241',
       '249', '251', '276', '277', '284', '289', '294'],
      dtype='object')",False,1000,True,2,ebb24d9d13,1.0,1.0
./expes/v3_2021-02-05_di_300-prng-1-w1-p2,daily_issda-300,300,first-300,49,16,rng,num-start-31,31,536,classic,1001.1278400421143,False,,False,0,,,0,"Index(['3', '8', '17', '18', '23', '34', '39', '69', '72', '81', '83', '90',
       '100', '106', '121', '123', '128', '135', '143', '146', '156', '161',
       '167', '168', '182', '185', '186', '188', '193', '196', '216', '220',
       '224', '226', '231', '234', '237', '241', '248', '251', '252', '257',
       '267', '275', '282', '293', '296', '299', '300'],
      dtype='object')",True,1000,True,2,8107e67883,0.0,0.0
./expes/v3_2021-02-05_di_300-prng-1-w1-p2,daily_issda-300,300,first-300,42,14,rng,num-start-251,251,536,classic,10.688249111175537,True,,True,1.0,1.0,1.0,1,"Index(['3', '4', '6', '11', '12', '15', '23', '43', '45', '73', '79', '89',
       '113', '114', '115', '117', '122', '130', '133', '145', '146', '151',
       '152', '155', '159', '172', '179', '186', '210', '214', '216', '217',
       '229', '234', '238', '241', '247', '254', '265', '268', '289', '297'],
      dtype='object')",False,1000,True,2,e4f2961cd1,1.0,1.0
./expes/v3_2021-02-05_di_300-prng-1-w1-p2,daily_issda-300,300,first-300,77,25,rng,num-start-261,261,536,classic,11.612069129943848,True,,True,1.0,1.0,1.0,1,"Index(['4', '41', '45', '46', '48', '52', '59', '61', '63', '68', '69', '75',
       '76', '78', '83', '87', '90', '93', '94', '98', '101', '102', '103',
       '104', '105', '106', '111', '113', '121', '122', '123', '128', '130',
       '133', '136', '139', '140', '145', '152', '154', '156', '167', '172',
       '174', '176', '178', '181', '188', '198', '202', '205', '208', '209',
       '224', '230', '235', '241', '245', '246', '251', '252', '253', '254',
       '257', '260', '263', '268', '270', '273', '274', '276', '279', '283',
       '291', '294', '295', '297'],
      dtype='object')",False,1000,True,2,221525fdf8,1.0,1.0
./expes/v3_2021-02-05_di_300-prng-1-w1-p2,daily_issda-300,300,first-300,56,18,rng,num-start-11,11,536,classic,1000.4420988559723,False,,False,0,,,0,"Index(['4', '11', '14', '23', '31', '35', '45', '46', '47', '53', '55', '80',
       '83', '85', '89', '92', '100', '110', '114', '120', '121', '127', '128',
       '133', '134', '135', '140', '142', '144', '148', '149', '150', '154',
       '156', '157', '159', '160', '173', '185', '191', '199', '203', '206',
       '212', '217', '221', '232', '243', '246', '260', '261', '267', '275',
       '281', '282', '294'],
      dtype='object')",True,1000,True,2,dce59f68d1,0.0,0.0
./expes/v3_2021-02-05_di_300-prng-1-w1-p2,daily_issda-300,300,first-300,126,42,rng,num-start-1,1,536,classic,2.8437681198120117,False,,False,0.2893586100387116,0.2870054670522516,0.2917117530251716,2,"Index(['1', '3', '5', '11', '13', '15', '16', '17', '19', '21',
       ...
       '272', '279', '283', '286', '287', '288', '291', '295', '298', '300'],
      dtype='object', length=126)",False,1000,True,2,6eb7601488,1.0,1.0
./expes/v3_2021-02-05_di_300-prng-1-w1-p2,daily_issda-300,300,first-300,91,30,rng,num-start-81,81,536,classic,1002.8240904808044,False,,False,0,,,0,"Index(['1', '2', '3', '5', '7', '10', '12', '15', '19', '24', '27', '30', '34',
       '37', '47', '53', '56', '58', '61', '65', '68', '72', '75', '76', '81',
       '82', '85', '86', '91', '93', '94', '95', '101', '102', '105', '107',
       '108', '111', '126', '127', '128', '129', '131', '132', '136', '142',
       '144', '149', '152', '153', '155', '157', '159', '161', '162', '170',
       '174', '175', '177', '182', '184', '185', '186', '188', '189', '191',
       '193', '195', '197', '200', '207', '209', '213', '215', '222', '228',
       '232', '237', '239', '241', '242', '247', '263', '269', '272', '277',
       '279', '280', '282', '294', '297'],
      dtype='object')",True,1000,True,2,8b028902d3,0.0,0.0
./expes/v3_2021-02-05_di_300-prng-1-w1-p2,daily_issda-300,300,first-300,84,28,rng,num-start-131,131,536,classic,6.037350416183472,True,,True,1.0,1.0,1.0,1,"Index(['2', '3', '4', '5', '9', '10', '13', '18', '21', '22', '23', '27', '28',
       '29', '33', '36', '42', '43', '44', '45', '48', '53', '57', '58', '63',
       '68', '69', '71', '72', '75', '77', '81', '83', '87', '89', '96', '99',
       '102', '103', '104', '105', '108', '115', '122', '137', '138', '139',
       '144', '150', '170', '172', '174', '175', '178', '188', '192', '194',
       '195', '197', '204', '206', '207', '211', '216', '217', '218', '232',
       '238', '252', '255', '257', '258', '259', '260', '268', '276', '277',
       '284', '285', '290', '294', '295', '297', '300'],
      dtype='object')",False,1000,True,2,f8153e7112,1.0,1.0
./expes/v3_2021-02-05_di_300-prng-1-w1-p2,daily_issda-300,300,first-300,63,21,rng,num-start-221,221,536,classic,9.54566240310669,True,,True,1.0,1.0,1.0,1,"Index(['13', '15', '19', '29', '44', '47', '70', '82', '83', '85', '86', '87',
       '89', '91', '94', '109', '114', '119', '121', '128', '129', '138',
       '143', '156', '158', '159', '164', '167', '180', '182', '185', '186',
       '187', '191', '195', '202', '205', '213', '217', '221', '228', '229',
       '233', '234', '237', '239', '246', '250', '251', '256', '257', '258',
       '261', '262', '264', '269', '270', '272', '279', '286', '287', '291',
       '298'],
      dtype='object')",False,1000,True,2,861f865775,1.0,1.0
./expes/v3_2021-02-05_di_300-prng-1-w1-p2,daily_issda-300,300,first-300,70,23,rng,num-start-21,21,536,classic,1000.7888345718384,False,,False,0,,,0,"Index(['1', '7', '9', '12', '15', '19', '24', '42', '46', '48', '49', '50',
       '60', '62', '65', '71', '75', '87', '97', '99', '100', '101', '102',
       '103', '108', '115', '126', '129', '134', '136', '138', '140', '149',
       '150', '156', '157', '160', '164', '171', '172', '183', '185', '186',
       '192', '194', '195', '200', '210', '212', '218', '221', '228', '241',
       '248', '249', '250', '251', '257', '258', '264', '268', '269', '271',
       '276', '277', '284', '286', '289', '294', '295'],
      dtype='object')",True,1000,True,2,874e23efd8,0.0,0.0
./expes/v3_2021-02-05_di_300-prng-1-w1-p2,daily_issda-300,300,first-300,28,9,rng,num-start-231,231,536,classic,9.319406986236572,True,,True,1.0,1.0,1.0,1,"Index(['14', '32', '57', '64', '71', '72', '78', '90', '101', '108', '128',
       '130', '143', '149', '156', '163', '170', '188', '197', '206', '213',
       '215', '257', '268', '273', '277', '283', '287'],
      dtype='object')",False,1000,True,2,ad695d73ea,1.0,1.0
./expes/v3_2021-02-05_di_300-prng-1-w1-p2,daily_issda-300,300,first-300,84,28,rng,num-start-291,291,536,classic,12.608582496643066,True,,True,1.0,1.0,1.0,1,"Index(['2', '3', '4', '5', '9', '10', '13', '18', '21', '22', '23', '27', '28',
       '29', '33', '36', '42', '43', '44', '45', '48', '53', '57', '58', '63',
       '68', '69', '71', '72', '75', '77', '81', '83', '87', '89', '96', '99',
       '102', '103', '104', '105', '108', '115', '122', '137', '138', '139',
       '144', '150', '170', '172', '174', '175', '178', '188', '192', '194',
       '195', '197', '204', '206', '207', '211', '216', '217', '218', '232',
       '238', '252', '255', '257', '258', '259', '260', '268', '276', '277',
       '284', '285', '290', '294', '295', '297', '300'],
      dtype='object')",False,1000,True,2,2ea8cf9d1e,1.0,1.0
./expes/v3_2021-02-05_di_300-prng-1-w1-p2,daily_issda-300,300,first-300,49,16,rng,num-start-81,81,536,classic,3.7459769248962402,True,,True,1.0,1.0,1.0,1,"Index(['6', '9', '10', '19', '29', '34', '41', '60', '72', '76', '81', '89',
       '101', '106', '107', '115', '118', '119', '123', '135', '144', '147',
       '157', '161', '162', '174', '177', '182', '183', '185', '189', '201',
       '208', '215', '216', '225', '231', '234', '237', '239', '251', '252',
       '262', '267', '272', '274', '290', '292', '296'],
      dtype='object')",False,1000,True,2,e416611bf3,1.0,1.0
./expes/v3_2021-02-05_di_300-prng-1-w1-p2,daily_issda-300,300,first-300,119,39,rng,num-start-191,191,536,classic,8.853621244430542,True,,True,1.0,1.0,1.0,1,"Index(['3', '4', '5', '6', '7', '8', '11', '12', '15', '16',
       ...
       '262', '265', '268', '270', '277', '278', '289', '294', '297', '299'],
      dtype='object', length=119)",False,1000,True,2,b06d6b06df,1.0,1.0
./expes/v3_2021-02-05_di_300-prng-1-w1-p2,daily_issda-300,300,first-300,49,16,rng,num-start-41,41,536,classic,1001.6766803264618,False,,False,0,,,0,"Index(['20', '24', '25', '26', '30', '31', '32', '33', '36', '38', '45', '47',
       '49', '50', '53', '61', '64', '69', '74', '78', '93', '97', '110',
       '114', '115', '124', '149', '158', '166', '188', '191', '203', '204',
       '215', '218', '223', '260', '275', '277', '281', '283', '286', '287',
       '290', '293', '296', '298', '299', '300'],
      dtype='object')",True,1000,True,2,ba71e9981e,0.0,0.0
./expes/v3_2021-02-05_di_300-prng-1-w1-p2,daily_issda-300,300,first-300,63,21,rng,num-start-61,61,536,classic,1002.2468914985657,False,,False,0,,,0,"Index(['2', '5', '12', '14', '15', '16', '18', '33', '49', '52', '53', '61',
       '62', '69', '89', '96', '98', '108', '111', '113', '114', '118', '119',
       '120', '125', '131', '137', '146', '149', '152', '156', '163', '171',
       '177', '188', '192', '195', '196', '200', '202', '207', '213', '214',
       '217', '222', '225', '229', '231', '236', '242', '246', '250', '254',
       '256', '257', '259', '260', '271', '278', '281', '284', '285', '292'],
      dtype='object')",True,1000,True,2,761d6e76e7,0.0,0.0
./expes/v3_2021-02-05_di_300-prng-1-w1-p2,daily_issda-300,300,first-300,84,28,rng,num-start-131,131,536,classic,13.534212589263916,True,,True,1.0,1.0,1.0,1,"Index(['2', '8', '16', '20', '22', '23', '37', '38', '44', '58', '61', '65',
       '67', '68', '70', '71', '72', '73', '76', '82', '85', '91', '92', '94',
       '96', '99', '100', '104', '109', '110', '116', '119', '120', '121',
       '122', '129', '130', '132', '133', '135', '142', '144', '149', '151',
       '152', '161', '175', '178', '180', '183', '184', '187', '188', '191',
       '192', '200', '203', '212', '218', '220', '221', '224', '226', '228',
       '230', '231', '236', '238', '250', '252', '255', '267', '268', '273',
       '275', '282', '284', '285', '289', '290', '292', '296', '298', '299'],
      dtype='object')",False,1000,True,2,41e19d3961,1.0,1.0
./expes/v3_2021-02-05_di_300-prng-1-w1-p2,daily_issda-300,300,first-300,77,25,rng,num-start-221,221,536,classic,10.2545166015625,True,,True,1.0,1.0,1.0,1,"Index(['5', '13', '15', '19', '29', '39', '44', '47', '55', '70', '82', '83',
       '85', '86', '87', '89', '91', '94', '98', '107', '109', '114', '119',
       '121', '128', '129', '138', '143', '156', '158', '159', '160', '164',
       '167', '175', '180', '182', '185', '186', '187', '188', '191', '195',
       '202', '205', '209', '213', '217', '221', '228', '229', '233', '234',
       '237', '239', '246', '250', '251', '256', '257', '258', '259', '260',
       '261', '262', '263', '264', '266', '269', '270', '272', '279', '286',
       '287', '288', '291', '298'],
      dtype='object')",False,1000,True,2,ac80aa70e5,1.0,1.0
./expes/v3_2021-02-05_di_300-prng-1-w1-p2,daily_issda-300,300,first-300,112,37,rng,num-start-151,151,536,classic,7.753805637359619,True,,True,1.0,1.0,1.0,1,"Index(['4', '6', '7', '8', '11', '12', '15', '16', '17', '19',
       ...
       '282', '283', '287', '292', '293', '294', '296', '297', '298', '300'],
      dtype='object', length=112)",False,1000,True,2,26daaa0669,1.0,1.0
./expes/v3_2021-02-05_di_300-prng-1-w1-p2,daily_issda-300,300,first-300,56,18,rng,num-start-111,111,536,classic,4.653488874435425,True,,True,1.0,1.0,1.0,1,"Index(['8', '16', '37', '38', '44', '61', '65', '67', '68', '70', '72', '76',
       '91', '92', '96', '100', '104', '110', '116', '119', '120', '121',
       '130', '132', '133', '135', '142', '144', '149', '151', '161', '178',
       '183', '187', '188', '191', '203', '220', '221', '224', '226', '228',
       '230', '231', '236', '238', '250', '252', '268', '273', '275', '282',
       '284', '289', '290', '296'],
      dtype='object')",False,1000,True,2,c6dd72f64d,1.0,1.0
./expes/v3_2021-02-05_di_300-prng-1-w1-p2,daily_issda-300,300,first-300,133,44,rng,num-start-81,81,536,classic,1002.8040628433228,False,,False,0,,,0,"Index(['3', '4', '5', '6', '10', '24', '30', '34', '40', '41',
       ...
       '283', '285', '286', '287', '290', '291', '293', '294', '295', '297'],
      dtype='object', length=133)",True,1000,True,2,6610247e7f,0.0,0.0
./expes/v3_2021-02-05_di_300-prng-1-w1-p2,daily_issda-300,300,first-300,14,4,rng,num-start-151,151,536,classic,6.1162919998168945,True,,True,1.0,1.0,1.0,1,"Index(['14', '57', '90', '128', '130', '143', '149', '156', '188', '197',
       '213', '215', '268', '277'],
      dtype='object')",False,1000,True,2,2c8c1957fe,1.0,1.0
./expes/v3_2021-02-05_di_300-prng-1-w1-p2,daily_issda-300,300,first-300,49,16,rng,num-start-261,261,536,classic,11.146932125091553,True,,True,1.0,1.0,1.0,1,"Index(['1', '6', '10', '27', '31', '32', '39', '43', '45', '47', '58', '70',
       '74', '75', '84', '88', '103', '108', '115', '117', '138', '141', '161',
       '173', '174', '180', '189', '192', '196', '197', '206', '208', '215',
       '217', '226', '228', '236', '241', '243', '245', '248', '260', '261',
       '263', '271', '277', '285', '286', '296'],
      dtype='object')",False,1000,True,2,f8c1791b96,1.0,1.0
./expes/v3_2021-02-05_di_300-prng-1-w1-p2,daily_issda-300,300,first-300,119,39,rng,num-start-101,101,536,classic,1003.4449098110199,False,,False,0,,,0,"Index(['1', '2', '3', '5', '7', '10', '12', '15', '17', '19',
       ...
       '269', '272', '274', '277', '279', '280', '282', '289', '294', '297'],
      dtype='object', length=119)",True,1000,True,2,11a1d9c184,0.0,0.0
./expes/v3_2021-02-05_di_300-prng-1-w1-p2,daily_issda-300,300,first-300,140,46,rng,num-start-211,211,536,classic,9.527357339859009,True,,True,1.0,1.0,1.0,1,"Index(['2', '3', '5', '6', '8', '9', '10', '16', '19', '22',
       ...
       '282', '285', '286', '290', '292', '293', '295', '296', '297', '298'],
      dtype='object', length=140)",False,1000,True,2,49b7e165af,1.0,1.0
./expes/v3_2021-02-05_di_300-prng-1-w1-p2,daily_issda-300,300,first-300,49,16,rng,num-start-141,141,536,classic,6.101478338241577,True,,True,1.0,1.0,1.0,1,"Index(['1', '12', '15', '19', '24', '42', '46', '48', '49', '50', '62', '75',
       '99', '100', '101', '102', '103', '126', '129', '134', '136', '140',
       '150', '156', '164', '172', '183', '185', '186', '192', '210', '212',
       '218', '221', '228', '241', '249', '250', '251', '257', '258', '264',
       '269', '276', '277', '284', '289', '294', '295'],
      dtype='object')",False,1000,True,2,946b603c7b,1.0,1.0
./expes/v3_2021-02-05_di_300-prng-1-w1-p2,daily_issda-300,300,first-300,35,11,rng,num-start-161,161,536,classic,6.726534843444824,True,,True,1.0,1.0,1.0,1,"Index(['11', '16', '23', '33', '44', '46', '50', '59', '65', '71', '99', '108',
       '117', '120', '127', '133', '137', '190', '193', '194', '195', '198',
       '200', '206', '207', '209', '233', '236', '243', '249', '250', '254',
       '260', '267', '294'],
      dtype='object')",False,1000,True,2,cf0ec8ae82,1.0,1.0
./expes/v3_2021-02-05_di_300-prng-1-w1-p2,daily_issda-300,300,first-300,126,42,rng,num-start-211,211,536,classic,9.131377696990967,True,,True,1.0,1.0,1.0,1,"Index(['4', '5', '10', '11', '14', '19', '21', '22', '23', '24',
       ...
       '271', '274', '275', '280', '281', '282', '286', '293', '294', '299'],
      dtype='object', length=126)",False,1000,True,2,0bb98c27a2,1.0,1.0
./expes/v3_2021-02-05_di_300-prng-1-w1-p2,daily_issda-300,300,first-300,56,18,rng,num-start-111,111,536,classic,4.739742040634155,True,,True,1.0,1.0,1.0,1,"Index(['6', '9', '10', '19', '25', '29', '34', '38', '41', '52', '60', '72',
       '76', '78', '81', '89', '101', '106', '107', '115', '118', '119', '123',
       '135', '144', '147', '157', '161', '162', '174', '177', '182', '183',
       '185', '189', '201', '203', '208', '215', '216', '225', '231', '234',
       '237', '239', '240', '251', '252', '254', '262', '267', '272', '274',
       '290', '292', '296'],
      dtype='object')",False,1000,True,2,b2a7912414,1.0,1.0
./expes/v3_2021-02-05_di_300-prng-1-w1-p2,daily_issda-300,300,first-300,112,37,rng,num-start-211,211,536,classic,10.21826434135437,True,,True,1.0,1.0,1.0,1,"Index(['1', '2', '3', '5', '7', '12', '14', '15', '16', '17',
       ...
       '281', '282', '283', '284', '285', '288', '292', '296', '297', '300'],
      dtype='object', length=112)",False,1000,True,2,f924631444,1.0,1.0
./expes/v3_2021-02-05_di_300-prng-1-w1-p2,daily_issda-300,300,first-300,105,35,rng,num-start-1,1,536,classic,1.8778269290924072,False,,False,0.32063377951324257,0.32063377951324257,0.32063377951324257,2,"Index(['2', '3', '8', '16', '19', '20', '22', '23', '36', '37',
       ...
       '282', '284', '285', '287', '289', '290', '292', '296', '298', '299'],
      dtype='object', length=105)",False,1000,True,2,5d692e742b,1.0,1.0
./expes/v3_2021-02-05_di_300-prng-1-w1-p2,daily_issda-300,300,first-300,63,21,rng,num-start-81,81,536,classic,23.144681930541992,True,,True,1.0,1.0,1.0,1,"Index(['7', '8', '15', '16', '19', '22', '33', '34', '50', '54', '64', '67',
       '69', '70', '78', '82', '84', '99', '109', '112', '119', '120', '122',
       '133', '137', '138', '144', '146', '155', '168', '173', '180', '188',
       '190', '198', '199', '200', '203', '204', '209', '216', '219', '224',
       '228', '241', '243', '244', '247', '254', '260', '268', '274', '277',
       '278', '279', '282', '283', '292', '293', '294', '296', '298', '300'],
      dtype='object')",False,1000,True,2,7a3ee0edeb,1.0,1.0
./expes/v3_2021-02-05_di_300-prng-1-w1-p2,daily_issda-300,300,first-300,91,30,rng,num-start-21,21,536,classic,1000.8369975090027,False,,False,0,,,0,"Index(['1', '2', '3', '4', '5', '9', '10', '13', '18', '21', '22', '23', '27',
       '28', '29', '33', '36', '42', '43', '44', '45', '48', '53', '57', '58',
       '63', '68', '69', '71', '72', '75', '77', '81', '83', '87', '89', '96',
       '99', '102', '103', '104', '105', '108', '110', '114', '115', '122',
       '137', '138', '139', '144', '150', '167', '169', '170', '172', '174',
       '175', '178', '188', '192', '194', '195', '197', '204', '206', '207',
       '211', '216', '217', '218', '222', '228', '232', '238', '252', '255',
       '257', '258', '259', '260', '268', '276', '277', '284', '285', '290',
       '294', '295', '297', '300'],
      dtype='object')",True,1000,True,2,34672ee092,0.0,0.0
./expes/v3_2021-02-05_di_300-prng-1-w1-p2,daily_issda-300,300,first-300,35,11,rng,num-start-71,71,536,classic,18.212961435317993,True,,True,1.0,1.0,1.0,1,"Index(['11', '14', '31', '35', '45', '47', '53', '55', '80', '85', '89', '92',
       '100', '110', '114', '121', '128', '134', '135', '140', '142', '149',
       '156', '159', '173', '185', '191', '199', '203', '206', '246', '260',
       '267', '275', '282'],
      dtype='object')",False,1000,True,2,7486d5b3e5,1.0,1.0
./expes/v3_2021-02-05_di_300-prng-1-w1-p2,daily_issda-300,300,first-300,84,28,rng,num-start-131,131,536,classic,7.473436594009399,True,,True,1.0,1.0,1.0,1,"Index(['7', '11', '16', '18', '20', '23', '30', '33', '37', '44', '45', '46',
       '50', '56', '59', '65', '70', '71', '73', '76', '77', '82', '90', '99',
       '100', '102', '107', '108', '113', '117', '120', '121', '125', '127',
       '131', '133', '137', '146', '147', '152', '153', '159', '161', '174',
       '176', '177', '183', '190', '193', '194', '195', '198', '200', '203',
       '206', '207', '209', '214', '217', '219', '228', '233', '234', '236',
       '243', '249', '250', '251', '254', '255', '258', '260', '262', '265',
       '267', '271', '273', '277', '280', '286', '294', '297', '298', '300'],
      dtype='object')",False,1000,True,2,8e56627eed,1.0,1.0
./expes/v3_2021-02-05_di_300-prng-1-w1-p2,daily_issda-300,300,first-300,105,35,rng,num-start-261,261,536,classic,11.728606224060059,True,,True,1.0,1.0,1.0,1,"Index(['1', '4', '5', '6', '10', '14', '15', '16', '17', '19',
       ...
       '264', '266', '271', '277', '278', '282', '285', '286', '294', '296'],
      dtype='object', length=105)",False,1000,True,2,d5c9f083e6,1.0,1.0
./expes/v3_2021-02-05_di_300-prng-1-w1-p2,daily_issda-300,300,first-300,14,4,rng,num-start-191,191,536,classic,7.443946123123169,True,,True,1.0,1.0,1.0,1,"Index(['4', '21', '42', '71', '87', '96', '137', '172', '174', '192', '195',
       '238', '258', '284'],
      dtype='object')",False,1000,True,2,81e2f5daf1,1.0,1.0
./expes/v3_2021-02-05_di_300-prng-1-w1-p2,daily_issda-300,300,first-300,49,16,rng,num-start-141,141,536,classic,6.254482984542847,True,,True,1.0,1.0,1.0,1,"Index(['7', '8', '16', '19', '22', '33', '34', '50', '67', '69', '70', '78',
       '82', '99', '112', '119', '120', '122', '133', '138', '155', '180',
       '188', '190', '198', '199', '200', '203', '204', '209', '216', '219',
       '224', '228', '241', '243', '244', '254', '260', '268', '274', '277',
       '279', '282', '283', '294', '296', '298', '300'],
      dtype='object')",False,1000,True,2,7facc74bef,1.0,1.0
./expes/v3_2021-02-05_di_300-prng-1-w1-p2,daily_issda-300,300,first-300,56,18,rng,num-start-211,211,536,classic,9.592533588409424,True,,True,1.0,1.0,1.0,1,"Index(['3', '10', '14', '26', '27', '30', '32', '36', '42', '57', '60', '64',
       '71', '72', '73', '78', '90', '101', '108', '110', '123', '128', '130',
       '137', '143', '149', '156', '159', '163', '170', '173', '182', '185',
       '188', '191', '192', '197', '206', '208', '210', '213', '215', '222',
       '243', '245', '257', '260', '268', '270', '273', '277', '283', '286',
       '287', '293', '297'],
      dtype='object')",False,1000,True,2,da422898cf,1.0,1.0
./expes/v3_2021-02-05_di_300-prng-1-w1-p2,daily_issda-300,300,first-300,70,23,rng,num-start-61,61,536,classic,1002.138356924057,False,,False,0,,,0,"Index(['2', '5', '12', '14', '15', '16', '18', '33', '45', '49', '52', '53',
       '56', '61', '62', '69', '84', '89', '96', '98', '108', '111', '113',
       '114', '118', '119', '120', '125', '131', '137', '146', '149', '152',
       '156', '163', '171', '177', '188', '190', '192', '195', '196', '200',
       '202', '207', '213', '214', '217', '222', '225', '229', '231', '236',
       '242', '246', '250', '251', '254', '256', '257', '259', '260', '261',
       '267', '271', '278', '281', '284', '285', '292'],
      dtype='object')",True,1000,True,2,46afa0c188,0.0,0.0
./expes/v3_2021-02-05_di_300-prng-1-w1-p2,daily_issda-300,300,first-300,133,44,rng,num-start-271,271,536,classic,12.171366214752197,True,,True,1.0,1.0,1.0,1,"Index(['2', '3', '8', '13', '17', '18', '19', '23', '24', '26',
       ...
       '278', '279', '282', '287', '291', '293', '295', '296', '299', '300'],
      dtype='object', length=133)",False,1000,True,2,dc538c7b26,1.0,1.0
./expes/v3_2021-02-05_di_300-prng-1-w1-p2,daily_issda-300,300,first-300,112,37,rng,num-start-41,41,536,classic,1001.4177250862122,False,,False,0,,,0,"Index(['1', '3', '5', '6', '8', '9', '11', '16', '19', '22',
       ...
       '271', '276', '283', '284', '287', '289', '290', '295', '296', '299'],
      dtype='object', length=112)",True,1000,True,2,f236bdc882,0.0,0.0
./expes/v3_2021-02-05_di_300-prng-1-w1-p2,daily_issda-300,300,first-300,77,25,rng,num-start-11,11,536,classic,1000.4852805137634,False,,False,0,,,0,"Index(['1', '7', '9', '12', '15', '19', '24', '28', '40', '42', '46', '48',
       '49', '50', '60', '62', '65', '71', '75', '87', '95', '97', '99', '100',
       '101', '102', '103', '108', '115', '126', '129', '134', '136', '138',
       '140', '149', '150', '156', '157', '160', '164', '171', '172', '183',
       '185', '186', '192', '194', '195', '200', '204', '210', '212', '217',
       '218', '221', '226', '228', '229', '241', '248', '249', '250', '251',
       '257', '258', '264', '268', '269', '271', '276', '277', '284', '286',
       '289', '294', '295'],
      dtype='object')",True,1000,True,2,3f182e2edb,0.0,0.0
./expes/v3_2021-02-05_di_300-prng-1-w1-p2,daily_issda-300,300,first-300,42,14,rng,num-start-91,91,536,classic,6.89960789680481,True,,True,1.0,1.0,1.0,1,"Index(['1', '3', '7', '12', '15', '27', '37', '53', '58', '65', '68', '72',
       '81', '82', '85', '86', '94', '101', '102', '105', '108', '111', '127',
       '128', '131', '144', '149', '153', '161', '184', '191', '195', '197',
       '200', '209', '228', '239', '241', '272', '277', '279', '294'],
      dtype='object')",False,1000,True,2,28c956a183,1.0,1.0
./expes/v3_2021-02-05_di_300-prng-1-w1-p2,daily_issda-300,300,first-300,98,32,rng,num-start-231,231,536,classic,10.643886089324951,True,,True,1.0,1.0,1.0,1,"Index(['1', '8', '9', '17', '20', '21', '32', '33', '36', '38', '42', '43',
       '46', '47', '48', '49', '51', '52', '56', '60', '64', '67', '72', '73',
       '76', '77', '88', '95', '96', '97', '98', '105', '111', '112', '113',
       '114', '121', '123', '124', '125', '129', '133', '134', '139', '141',
       '142', '145', '148', '149', '150', '155', '156', '159', '162', '163',
       '164', '167', '170', '171', '172', '182', '183', '184', '191', '198',
       '201', '205', '208', '215', '216', '223', '227', '228', '230', '231',
       '242', '244', '245', '249', '250', '251', '253', '259', '261', '262',
       '267', '268', '269', '273', '277', '279', '281', '283', '287', '291',
       '295', '297', '299'],
      dtype='object')",False,1000,True,2,d076698f59,1.0,1.0
./expes/v3_2021-02-05_di_300-prng-1-w1-p2,daily_issda-300,300,first-300,112,37,rng,num-start-141,141,536,classic,6.836780786514282,True,,True,1.0,1.0,1.0,1,"Index(['2', '5', '6', '8', '9', '10', '16', '19', '22', '23',
       ...
       '266', '267', '272', '274', '279', '281', '285', '290', '292', '296'],
      dtype='object', length=112)",False,1000,True,2,e453267ef6,1.0,1.0
./expes/v3_2021-02-05_di_300-prng-1-w1-p2,daily_issda-300,300,first-300,105,35,rng,num-start-161,161,536,classic,8.777761697769165,True,,True,1.0,1.0,1.0,1,"Index(['1', '4', '5', '6', '10', '14', '15', '16', '17', '19',
       ...
       '264', '266', '271', '277', '278', '282', '285', '286', '294', '296'],
      dtype='object', length=105)",False,1000,True,2,f15cbbeab4,1.0,1.0
./expes/v3_2021-02-05_di_300-prng-1-w1-p2,daily_issda-300,300,first-300,105,35,rng,num-start-141,141,536,classic,7.92807674407959,True,,True,1.0,1.0,1.0,1,"Index(['2', '3', '8', '16', '19', '20', '22', '23', '36', '37',
       ...
       '282', '284', '285', '287', '289', '290', '292', '296', '298', '299'],
      dtype='object', length=105)",False,1000,True,2,241a08b393,1.0,1.0
./expes/v3_2021-02-05_di_300-prng-1-w1-p2,daily_issda-300,300,first-300,21,7,rng,num-start-11,11,536,classic,1000.4699566364288,False,,False,0,,,0,"Index(['6', '9', '19', '29', '60', '76', '81', '106', '107', '118', '123',
       '135', '144', '174', '177', '182', '183', '189', '201', '239', '267'],
      dtype='object')",True,1000,True,2,1b34f726a6,0.0,0.0
./expes/v3_2021-02-05_di_300-prng-1-w1-p2,daily_issda-300,300,first-300,112,37,rng,num-start-91,91,536,classic,1003.212112903595,False,,False,0,,,0,"Index(['2', '3', '8', '17', '18', '19', '23', '26', '33', '34',
       ...
       '276', '278', '279', '282', '287', '291', '293', '296', '299', '300'],
      dtype='object', length=112)",True,1000,True,2,3120a22ab6,0.0,0.0
./expes/v3_2021-02-05_di_300-prng-1-w1-p2,daily_issda-300,300,first-300,77,25,rng,num-start-221,221,536,classic,9.674124479293823,True,,True,1.0,1.0,1.0,1,"Index(['2', '3', '4', '5', '9', '13', '18', '21', '22', '23', '27', '28', '29',
       '33', '36', '42', '43', '44', '45', '48', '53', '57', '58', '63', '68',
       '69', '71', '72', '75', '77', '81', '83', '87', '89', '96', '99', '102',
       '103', '104', '105', '108', '115', '122', '137', '138', '139', '144',
       '150', '170', '172', '174', '175', '192', '194', '195', '197', '204',
       '207', '211', '216', '217', '218', '232', '238', '252', '255', '257',
       '258', '259', '260', '276', '277', '284', '285', '294', '295', '297'],
      dtype='object')",False,1000,True,2,d612cffee6,1.0,1.0
./expes/v3_2021-02-05_di_300-prng-1-w1-p2,daily_issda-300,300,first-300,140,46,rng,num-start-81,81,536,classic,1002.7718579769135,False,,False,0,,,0,"Index(['1', '3', '5', '6', '8', '9', '10', '11', '16', '18',
       ...
       '283', '284', '287', '289', '290', '293', '295', '296', '299', '300'],
      dtype='object', length=140)",True,1000,True,2,73a829e190,0.0,0.0
./expes/v3_2021-02-05_di_300-prng-1-w1-p2,daily_issda-300,300,first-300,49,16,rng,num-start-71,71,536,classic,6.225996732711792,True,,True,1.0,1.0,1.0,1,"Index(['1', '12', '15', '19', '24', '42', '46', '48', '49', '50', '62', '75',
       '99', '100', '101', '102', '103', '126', '129', '134', '136', '140',
       '150', '156', '164', '172', '183', '185', '186', '192', '210', '212',
       '218', '221', '228', '241', '249', '250', '251', '257', '258', '264',
       '269', '276', '277', '284', '289', '294', '295'],
      dtype='object')",False,1000,True,2,6fce1cbc72,1.0,1.0
./expes/v3_2021-02-05_di_300-prng-1-w1-p2,daily_issda-300,300,first-300,21,7,rng,num-start-231,231,536,classic,8.888729810714722,True,,True,1.0,1.0,1.0,1,"Index(['16', '23', '44', '46', '65', '71', '99', '108', '117', '127', '190',
       '193', '200', '206', '207', '233', '236', '250', '254', '260', '294'],
      dtype='object')",False,1000,True,2,9b9bc8a2bc,1.0,1.0
./expes/v3_2021-02-05_di_300-prng-1-w1-p2,daily_issda-300,300,first-300,28,9,rng,num-start-281,281,536,classic,11.979840278625488,True,,True,1.0,1.0,1.0,1,"Index(['21', '38', '49', '51', '52', '72', '76', '112', '129', '133', '145',
       '156', '159', '170', '182', '184', '198', '208', '216', '223', '242',
       '245', '249', '259', '262', '273', '287', '299'],
      dtype='object')",False,1000,True,2,53cf4a2ba7,1.0,1.0
./expes/v3_2021-02-05_di_300-prng-1-w1-p2,daily_issda-300,300,first-300,7,2,rng,num-start-241,241,536,classic,9.280386686325073,True,,True,1.0,1.0,1.0,1,"Index(['117', '146', '186', '214', '229', '241', '247'], dtype='object')",False,1000,True,2,8c986290e1,1.0,1.0
./expes/v3_2021-02-05_di_300-prng-1-w1-p2,daily_issda-300,300,first-300,77,25,rng,num-start-161,161,536,classic,7.46212100982666,True,,True,1.0,1.0,1.0,1,"Index(['1', '8', '17', '21', '32', '33', '36', '38', '42', '46', '47', '48',
       '49', '51', '52', '56', '64', '67', '72', '73', '76', '77', '95', '96',
       '97', '98', '105', '112', '114', '123', '124', '125', '129', '133',
       '134', '145', '148', '149', '150', '155', '156', '159', '162', '163',
       '164', '167', '170', '171', '182', '184', '198', '205', '208', '216',
       '223', '227', '228', '230', '242', '244', '245', '249', '251', '253',
       '259', '261', '262', '267', '273', '277', '279', '281', '283', '287',
       '291', '295', '299'],
      dtype='object')",False,1000,True,2,31eacf8f5b,1.0,1.0
./expes/v3_2021-02-05_di_300-prng-1-w1-p2,daily_issda-300,300,first-300,56,18,rng,num-start-221,221,536,classic,9.552418947219849,True,,True,1.0,1.0,1.0,1,"Index(['7', '8', '15', '16', '19', '22', '33', '34', '50', '67', '69', '70',
       '78', '82', '84', '99', '112', '119', '120', '122', '133', '138', '144',
       '155', '168', '173', '180', '188', '190', '198', '199', '200', '203',
       '204', '209', '216', '219', '224', '228', '241', '243', '244', '254',
       '260', '268', '274', '277', '278', '279', '282', '283', '293', '294',
       '296', '298', '300'],
      dtype='object')",False,1000,True,2,3dd1a2f450,1.0,1.0
./expes/v3_2021-02-05_di_300-prng-1-w1-p2,daily_issda-300,300,first-300,70,23,rng,num-start-251,251,536,classic,10.299725770950317,True,,True,1.0,1.0,1.0,1,"Index(['1', '7', '9', '12', '15', '19', '24', '42', '46', '48', '49', '50',
       '60', '62', '65', '71', '75', '87', '97', '99', '100', '101', '102',
       '103', '108', '115', '126', '129', '134', '136', '138', '140', '149',
       '150', '156', '157', '160', '164', '171', '172', '183', '185', '186',
       '192', '194', '195', '200', '210', '212', '218', '221', '228', '241',
       '248', '249', '250', '251', '257', '258', '264', '268', '269', '271',
       '276', '277', '284', '286', '289', '294', '295'],
      dtype='object')",False,1000,True,2,75e77f8947,1.0,1.0
./expes/v3_2021-02-05_di_300-prng-1-w1-p2,daily_issda-300,300,first-300,98,32,rng,num-start-121,121,536,classic,10.566843032836914,True,,True,1.0,1.0,1.0,1,"Index(['1', '2', '3', '4', '5', '9', '10', '13', '14', '18', '21', '22', '23',
       '27', '28', '29', '33', '36', '42', '43', '44', '45', '46', '48', '53',
       '57', '58', '63', '68', '69', '71', '72', '75', '77', '81', '83', '87',
       '89', '96', '99', '102', '103', '104', '105', '108', '110', '114',
       '115', '122', '137', '138', '139', '144', '146', '150', '158', '167',
       '169', '170', '172', '174', '175', '178', '188', '192', '194', '195',
       '196', '197', '204', '206', '207', '211', '216', '217', '218', '222',
       '228', '232', '238', '252', '255', '257', '258', '259', '260', '265',
       '268', '276', '277', '284', '285', '287', '290', '294', '295', '297',
       '300'],
      dtype='object')",False,1000,True,2,d022d78288,1.0,1.0
./expes/v3_2021-02-05_di_300-prng-1-w1-p2,daily_issda-300,300,first-300,70,23,rng,num-start-41,41,536,classic,1001.4094233512878,False,,False,0,,,0,"Index(['6', '9', '10', '19', '25', '29', '34', '38', '41', '52', '60', '72',
       '76', '78', '81', '85', '89', '92', '101', '106', '107', '115', '118',
       '119', '121', '123', '135', '144', '147', '152', '157', '159', '160',
       '161', '162', '163', '174', '177', '182', '183', '185', '189', '199',
       '201', '203', '206', '208', '215', '216', '225', '231', '234', '237',
       '239', '240', '244', '251', '252', '254', '257', '258', '262', '267',
       '272', '274', '279', '285', '290', '292', '296'],
      dtype='object')",True,1000,True,2,177c9426b4,0.0,0.0
./expes/v3_2021-02-05_di_300-prng-1-w1-p2,daily_issda-300,300,first-300,35,11,rng,num-start-291,291,536,classic,11.702515363693237,True,,True,1.0,1.0,1.0,1,"Index(['20', '24', '25', '26', '30', '31', '32', '36', '38', '45', '47', '49',
       '64', '69', '78', '110', '114', '115', '124', '149', '166', '188',
       '203', '204', '215', '218', '223', '260', '275', '283', '286', '290',
       '296', '299', '300'],
      dtype='object')",False,1000,True,2,ec90f12d79,1.0,1.0
./expes/v3_2021-02-05_di_300-prng-1-w1-p2,daily_issda-300,300,first-300,140,46,rng,num-start-21,21,536,classic,1000.817156791687,False,,False,0,,,0,"Index(['1', '2', '3', '5', '7', '8', '9', '12', '13', '14',
       ...
       '281', '282', '283', '284', '285', '288', '292', '296', '297', '300'],
      dtype='object', length=140)",True,1000,True,2,1d25dc40d8,0.0,0.0
./expes/v3_2021-02-05_di_300-prng-1-w1-p2,daily_issda-300,300,first-300,70,23,rng,num-start-151,151,536,classic,6.94811487197876,True,,True,1.0,1.0,1.0,1,"Index(['6', '15', '36', '38', '43', '46', '48', '49', '53', '55', '58', '59',
       '61', '63', '77', '83', '85', '87', '93', '100', '105', '112', '115',
       '121', '127', '131', '132', '134', '135', '139', '141', '143', '144',
       '145', '150', '156', '159', '162', '173', '184', '185', '187', '196',
       '198', '202', '204', '207', '211', '214', '218', '224', '225', '231',
       '232', '234', '236', '239', '243', '246', '249', '250', '251', '257',
       '264', '265', '270', '274', '283', '297', '299'],
      dtype='object')",False,1000,True,2,f479216c29,1.0,1.0
./expes/v3_2021-02-05_di_300-prng-1-w1-p2,daily_issda-300,300,first-300,70,23,rng,num-start-271,271,536,classic,11.046071529388428,True,,True,1.0,1.0,1.0,1,"Index(['7', '8', '11', '15', '16', '19', '22', '33', '34', '35', '46', '50',
       '54', '64', '67', '69', '70', '78', '82', '84', '99', '109', '112',
       '119', '120', '122', '133', '137', '138', '144', '146', '151', '155',
       '168', '173', '177', '180', '188', '190', '198', '199', '200', '203',
       '204', '209', '211', '216', '219', '224', '228', '241', '243', '244',
       '247', '248', '254', '260', '268', '274', '277', '278', '279', '282',
       '283', '292', '293', '294', '296', '298', '300'],
      dtype='object')",False,1000,True,2,15c455ff20,1.0,1.0
./expes/v3_2021-02-05_di_300-prng-1-w1-p2,daily_issda-300,300,first-300,91,30,rng,num-start-1,1,536,classic,2.6571149826049805,False,,False,0.3560157462611798,0.3560157462611798,0.3560157462611798,2,"Index(['1', '8', '17', '20', '21', '32', '33', '36', '38', '42', '43', '46',
       '47', '48', '49', '51', '52', '56', '60', '64', '67', '72', '73', '76',
       '77', '95', '96', '97', '98', '105', '111', '112', '114', '121', '123',
       '124', '125', '129', '133', '134', '141', '142', '145', '148', '149',
       '150', '155', '156', '159', '162', '163', '164', '167', '170', '171',
       '182', '183', '184', '198', '201', '205', '208', '215', '216', '223',
       '227', '228', '230', '231', '242', '244', '245', '249', '251', '253',
       '259', '261', '262', '267', '268', '269', '273', '277', '279', '281',
       '283', '287', '291', '295', '297', '299'],
      dtype='object')",False,1000,True,2,5d300e7b87,1.0,1.0
./expes/v3_2021-02-05_di_300-prng-1-w1-p2,daily_issda-300,300,first-300,28,9,rng,num-start-181,181,536,classic,7.068094968795776,True,,True,1.0,1.0,1.0,1,"Index(['61', '63', '87', '90', '93', '94', '101', '102', '103', '104', '111',
       '121', '122', '123', '130', '136', '152', '167', '172', '188', '230',
       '235', '246', '251', '253', '260', '268', '295'],
      dtype='object')",False,1000,True,2,f87aab9305,1.0,1.0
./expes/v3_2021-02-05_di_300-prng-1-w1-p2,daily_issda-300,300,first-300,49,16,rng,num-start-121,121,536,classic,5.08478569984436,True,,True,1.0,1.0,1.0,1,"Index(['4', '59', '61', '63', '75', '83', '87', '90', '93', '94', '101', '102',
       '103', '104', '111', '113', '121', '122', '123', '130', '136', '139',
       '140', '145', '152', '154', '156', '167', '172', '176', '178', '188',
       '208', '230', '235', '245', '246', '251', '253', '254', '257', '260',
       '268', '270', '276', '283', '291', '294', '295'],
      dtype='object')",False,1000,True,2,647a9de2b3,1.0,1.0
./expes/v3_2021-02-05_di_300-prng-1-w1-p2,daily_issda-300,300,first-300,21,7,rng,num-start-41,41,536,classic,60.96910762786865,True,,True,1.0,1.0,1.0,1,"Index(['8', '22', '33', '47', '49', '73', '81', '95', '96', '98', '156', '203',
       '229', '232', '239', '244', '261', '263', '271', '276', '287'],
      dtype='object')",False,1000,True,2,1890a0dc6d,1.0,1.0
./expes/v3_2021-02-05_di_300-prng-1-w1-p2,daily_issda-300,300,first-300,77,25,rng,num-start-211,211,536,classic,9.101179361343384,True,,True,1.0,1.0,1.0,1,"Index(['3', '5', '10', '14', '26', '27', '28', '30', '32', '33', '36', '42',
       '49', '57', '60', '64', '67', '71', '72', '73', '78', '88', '90', '99',
       '101', '102', '108', '110', '123', '128', '129', '130', '133', '137',
       '140', '142', '143', '149', '156', '158', '159', '163', '164', '170',
       '171', '172', '173', '179', '182', '185', '188', '191', '192', '197',
       '206', '208', '210', '213', '215', '222', '240', '243', '245', '257',
       '260', '268', '270', '273', '277', '283', '284', '285', '286', '287',
       '293', '295', '297'],
      dtype='object')",False,1000,True,2,97266367d5,1.0,1.0
./expes/v3_2021-02-05_di_300-prng-1-w1-p2,daily_issda-300,300,first-300,77,25,rng,num-start-251,251,536,classic,12.049768924713135,True,,True,1.0,1.0,1.0,1,"Index(['5', '13', '15', '19', '29', '39', '44', '47', '55', '70', '82', '83',
       '85', '86', '87', '89', '91', '94', '98', '107', '109', '114', '119',
       '121', '128', '129', '138', '143', '156', '158', '159', '160', '164',
       '167', '175', '180', '182', '185', '186', '187', '188', '191', '195',
       '202', '205', '209', '213', '217', '221', '228', '229', '233', '234',
       '237', '239', '246', '250', '251', '256', '257', '258', '259', '260',
       '261', '262', '263', '264', '266', '269', '270', '272', '279', '286',
       '287', '288', '291', '298'],
      dtype='object')",False,1000,True,2,24db00f5b4,1.0,1.0
./expes/v3_2021-02-05_di_300-prng-1-w1-p2,daily_issda-300,300,first-300,42,14,rng,num-start-201,201,536,classic,7.985575437545776,True,,True,1.0,1.0,1.0,1,"Index(['1', '12', '15', '19', '24', '42', '46', '48', '49', '50', '75', '99',
       '100', '101', '102', '103', '129', '134', '136', '140', '150', '164',
       '172', '185', '186', '192', '210', '212', '218', '228', '241', '249',
       '250', '251', '258', '264', '276', '277', '284', '289', '294', '295'],
      dtype='object')",False,1000,True,2,cc9337525c,1.0,1.0
./expes/v3_2021-02-05_di_300-prng-1-w1-p2,daily_issda-300,300,first-300,70,23,rng,num-start-21,21,536,classic,1000.7160818576813,False,,False,0,,,0,"Index(['6', '9', '10', '19', '25', '29', '34', '38', '41', '52', '60', '72',
       '76', '78', '81', '85', '89', '92', '101', '106', '107', '115', '118',
       '119', '121', '123', '135', '144', '147', '152', '157', '159', '160',
       '161', '162', '163', '174', '177', '182', '183', '185', '189', '199',
       '201', '203', '206', '208', '215', '216', '225', '231', '234', '237',
       '239', '240', '244', '251', '252', '254', '257', '258', '262', '267',
       '272', '274', '279', '285', '290', '292', '296'],
      dtype='object')",True,1000,True,2,9f6503cc23,0.0,0.0
