expe,clients,clients_size,clients_subset,agg_size,method,days,days_size,days_total,time,valid,valid_sum,success,nsols,wall_hit,wall_time,pooled,valid_sums
./expes/v2_2020-11-23_di_150-prng-1,daily_issda_150,150,rng-150,21,rng,num-start-101,101,536,1.5729362964630127,True,,True,1,False,1000,True,1.0
./expes/v2_2020-11-23_di_150-prng-1,daily_issda_150,150,rng-150,41,rng,num-start-171,171,536,2.2627055644989014,True,,True,1,False,1000,True,1.0
./expes/v2_2020-11-23_di_150-prng-1,daily_issda_150,150,rng-150,31,rng,num-start-201,201,536,2.6788837909698486,True,,True,1,False,1000,True,1.0
./expes/v2_2020-11-23_di_150-prng-1,daily_issda_150,150,rng-150,81,rng,num-start-271,271,536,3.316053867340088,True,,True,1,False,1000,True,1.0
./expes/v2_2020-11-23_di_150-prng-1,daily_issda_150,150,rng-150,91,rng,num-start-281,281,536,3.6964612007141113,True,,True,1,False,1000,True,1.0
./expes/v2_2020-11-23_di_150-prng-1,daily_issda_150,150,rng-150,111,rng,num-start-51,51,536,1.4296295642852783,True,,True,1,False,1000,True,1.0
./expes/v2_2020-11-23_di_150-prng-1,daily_issda_150,150,rng-150,61,rng,num-start-131,131,536,1.862856149673462,True,,True,1,False,1000,True,1.0
./expes/v2_2020-11-23_di_150-prng-1,daily_issda_150,150,rng-150,111,rng,num-start-71,71,536,0.9345736503601074,True,,True,1,False,1000,True,1.0
./expes/v2_2020-11-23_di_150-prng-1,daily_issda_150,150,rng-150,131,rng,num-start-31,31,536,0.7118768692016602,True,,True,1,False,1000,True,1.0
./expes/v2_2020-11-23_di_150-prng-1,daily_issda_150,150,rng-150,61,rng,num-start-151,151,536,2.180372476577759,True,,True,1,False,1000,True,1.0
./expes/v2_2020-11-23_di_150-prng-1,daily_issda_150,150,rng-150,91,rng,num-start-261,261,536,3.1294519901275635,True,,True,1,False,1000,True,1.0
./expes/v2_2020-11-23_di_150-prng-1,daily_issda_150,150,rng-150,81,rng,num-start-231,231,536,2.851259231567383,True,,True,1,False,1000,True,1.0
./expes/v2_2020-11-23_di_150-prng-1,daily_issda_150,150,rng-150,31,rng,num-start-1,1,536,0.8747749328613281,False,,False,2,False,1000,True,0.0
./expes/v2_2020-11-23_di_150-prng-1,daily_issda_150,150,rng-150,111,rng,num-start-271,271,536,3.3618414402008057,True,,True,1,False,1000,True,1.0
./expes/v2_2020-11-23_di_150-prng-1,daily_issda_150,150,rng-150,101,rng,num-start-261,261,536,3.228362798690796,True,,True,1,False,1000,True,1.0
./expes/v2_2020-11-23_di_150-prng-1,daily_issda_150,150,rng-150,11,rng,num-start-21,21,536,0.5777602195739746,True,,True,1,False,1000,True,1.0
./expes/v2_2020-11-23_di_150-prng-1,daily_issda_150,150,rng-150,71,rng,num-start-151,151,536,2.3107266426086426,True,,True,1,False,1000,True,1.0
./expes/v2_2020-11-23_di_150-prng-1,daily_issda_150,150,rng-150,71,rng,num-start-171,171,536,2.622420310974121,True,,True,1,False,1000,True,1.0
./expes/v2_2020-11-23_di_150-prng-1,daily_issda_150,150,rng-150,131,rng,num-start-91,91,536,1.1826972961425781,True,,True,1,False,1000,True,1.0
./expes/v2_2020-11-23_di_150-prng-1,daily_issda_150,150,rng-150,81,rng,num-start-21,21,536,1000.4559609889984,False,,False,0,True,1000,True,0.0
./expes/v2_2020-11-23_di_150-prng-1,daily_issda_150,150,rng-150,91,rng,num-start-91,91,536,1.272350788116455,True,,True,1,False,1000,True,1.0
./expes/v2_2020-11-23_di_150-prng-1,daily_issda_150,150,rng-150,81,rng,num-start-91,91,536,1.4153811931610107,True,,True,1,False,1000,True,1.0
./expes/v2_2020-11-23_di_150-prng-1,daily_issda_150,150,rng-150,21,rng,num-start-21,21,536,1003.4750900268555,False,,False,0,True,1000,True,0.0
./expes/v2_2020-11-23_di_150-prng-1,daily_issda_150,150,rng-150,81,rng,num-start-71,71,536,1.0839183330535889,True,,True,1,False,1000,True,1.0
./expes/v2_2020-11-23_di_150-prng-1,daily_issda_150,150,rng-150,111,rng,num-start-161,161,536,2.4371514320373535,True,,True,1,False,1000,True,1.0
./expes/v2_2020-11-23_di_150-prng-1,daily_issda_150,150,rng-150,131,rng,num-start-261,261,536,3.3366146087646484,True,,True,1,False,1000,True,1.0
./expes/v2_2020-11-23_di_150-prng-1,daily_issda_150,150,rng-150,91,rng,num-start-271,271,536,4.017192125320435,True,,True,1,False,1000,True,1.0
./expes/v2_2020-11-23_di_150-prng-1,daily_issda_150,150,rng-150,101,rng,num-start-91,91,536,1.2399516105651855,True,,True,1,False,1000,True,1.0
./expes/v2_2020-11-23_di_150-prng-1,daily_issda_150,150,rng-150,11,rng,num-start-241,241,536,3.023848533630371,True,,True,1,False,1000,True,1.0
./expes/v2_2020-11-23_di_150-prng-1,daily_issda_150,150,rng-150,41,rng,num-start-121,121,536,1.6277856826782227,True,,True,1,False,1000,True,1.0
./expes/v2_2020-11-23_di_150-prng-1,daily_issda_150,150,rng-150,51,rng,num-start-261,261,536,3.196887254714966,True,,True,1,False,1000,True,1.0
./expes/v2_2020-11-23_di_150-prng-1,daily_issda_150,150,rng-150,11,rng,num-start-191,191,536,2.379673957824707,True,,True,1,False,1000,True,1.0
./expes/v2_2020-11-23_di_150-prng-1,daily_issda_150,150,rng-150,61,rng,num-start-261,261,536,3.409123659133911,True,,True,1,False,1000,True,1.0
./expes/v2_2020-11-23_di_150-prng-1,daily_issda_150,150,rng-150,31,rng,num-start-221,221,536,2.7528529167175293,True,,True,1,False,1000,True,1.0
./expes/v2_2020-11-23_di_150-prng-1,daily_issda_150,150,rng-150,131,rng,num-start-211,211,536,2.83212947845459,True,,True,1,False,1000,True,1.0
./expes/v2_2020-11-23_di_150-prng-1,daily_issda_150,150,rng-150,11,rng,num-start-101,101,536,1.2628931999206543,True,,True,1,False,1000,True,1.0
./expes/v2_2020-11-23_di_150-prng-1,daily_issda_150,150,rng-150,141,rng,num-start-41,41,536,0.5659604072570801,True,,True,1,False,1000,True,1.0
./expes/v2_2020-11-23_di_150-prng-1,daily_issda_150,150,rng-150,101,rng,num-start-1,1,536,0.5772442817687988,False,,False,2,False,1000,True,1.0
./expes/v2_2020-11-23_di_150-prng-1,daily_issda_150,150,rng-150,91,rng,num-start-101,101,536,1.374060869216919,True,,True,1,False,1000,True,1.0
./expes/v2_2020-11-23_di_150-prng-1,daily_issda_150,150,rng-150,51,rng,num-start-151,151,536,2.4698808193206787,True,,True,1,False,1000,True,1.0
./expes/v2_2020-11-23_di_150-prng-1,daily_issda_150,150,rng-150,61,rng,num-start-261,261,536,3.3163273334503174,True,,True,1,False,1000,True,1.0
./expes/v2_2020-11-23_di_150-prng-1,daily_issda_150,150,rng-150,41,rng,num-start-281,281,536,3.2859575748443604,True,,True,1,False,1000,True,1.0
./expes/v2_2020-11-23_di_150-prng-1,daily_issda_150,150,rng-150,111,rng,num-start-131,131,536,1.799659013748169,True,,True,1,False,1000,True,1.0
./expes/v2_2020-11-23_di_150-prng-1,daily_issda_150,150,rng-150,31,rng,num-start-11,11,536,1000.3506045341492,False,,False,0,True,1000,True,0.0
./expes/v2_2020-11-23_di_150-prng-1,daily_issda_150,150,rng-150,131,rng,num-start-91,91,536,1.1850321292877197,True,,True,1,False,1000,True,1.0
./expes/v2_2020-11-23_di_150-prng-1,daily_issda_150,150,rng-150,141,rng,num-start-11,11,536,11.09334421157837,True,,True,1,False,1000,True,1.0
./expes/v2_2020-11-23_di_150-prng-1,daily_issda_150,150,rng-150,11,rng,num-start-151,151,536,1.9797272682189941,True,,True,1,False,1000,True,1.0
./expes/v2_2020-11-23_di_150-prng-1,daily_issda_150,150,rng-150,131,rng,num-start-101,101,536,1.372241735458374,True,,True,1,False,1000,True,1.0
./expes/v2_2020-11-23_di_150-prng-1,daily_issda_150,150,rng-150,61,rng,num-start-11,11,536,1000.2759349346161,False,,False,0,True,1000,True,0.0
./expes/v2_2020-11-23_di_150-prng-1,daily_issda_150,150,rng-150,71,rng,num-start-281,281,536,3.471381664276123,True,,True,1,False,1000,True,1.0
./expes/v2_2020-11-23_di_150-prng-1,daily_issda_150,150,rng-150,81,rng,num-start-41,41,536,1000.5801341533661,False,,False,0,True,1000,True,0.0
./expes/v2_2020-11-23_di_150-prng-1,daily_issda_150,150,rng-150,91,rng,num-start-201,201,536,2.6651358604431152,True,,True,1,False,1000,True,1.0
./expes/v2_2020-11-23_di_150-prng-1,daily_issda_150,150,rng-150,71,rng,num-start-41,41,536,449.6359212398529,True,,True,1,False,1000,True,1.0
./expes/v2_2020-11-23_di_150-prng-1,daily_issda_150,150,rng-150,141,rng,num-start-271,271,536,3.3907227516174316,True,,True,1,False,1000,True,1.0
./expes/v2_2020-11-23_di_150-prng-1,daily_issda_150,150,rng-150,41,rng,num-start-181,181,536,2.4936985969543457,True,,True,1,False,1000,True,1.0
./expes/v2_2020-11-23_di_150-prng-1,daily_issda_150,150,rng-150,111,rng,num-start-261,261,536,2.9431819915771484,True,,True,1,False,1000,True,1.0
./expes/v2_2020-11-23_di_150-prng-1,daily_issda_150,150,rng-150,81,rng,num-start-111,111,536,1.6912744045257568,True,,True,1,False,1000,True,1.0
./expes/v2_2020-11-23_di_150-prng-1,daily_issda_150,150,rng-150,31,rng,num-start-211,211,536,2.672001600265503,True,,True,1,False,1000,True,1.0
./expes/v2_2020-11-23_di_150-prng-1,daily_issda_150,150,rng-150,121,rng,num-start-31,31,536,7.525188684463501,True,,True,1,False,1000,True,1.0
./expes/v2_2020-11-23_di_150-prng-1,daily_issda_150,150,rng-150,91,rng,num-start-271,271,536,3.229093551635742,True,,True,1,False,1000,True,1.0
./expes/v2_2020-11-23_di_150-prng-1,daily_issda_150,150,rng-150,41,rng,num-start-181,181,536,2.1710360050201416,True,,True,1,False,1000,True,1.0
./expes/v2_2020-11-23_di_150-prng-1,daily_issda_150,150,rng-150,1,rng,num-start-61,61,536,0.6200165748596191,True,,True,1,False,1000,True,1.0
./expes/v2_2020-11-23_di_150-prng-1,daily_issda_150,150,rng-150,131,rng,num-start-21,21,536,1008.1961715221405,False,,False,0,True,1000,True,0.0
./expes/v2_2020-11-23_di_150-prng-1,daily_issda_150,150,rng-150,11,rng,num-start-51,51,536,0.7148716449737549,True,,True,1,False,1000,True,1.0
./expes/v2_2020-11-23_di_150-prng-1,daily_issda_150,150,rng-150,131,rng,num-start-111,111,536,1.4040119647979736,True,,True,1,False,1000,True,1.0
./expes/v2_2020-11-23_di_150-prng-1,daily_issda_150,150,rng-150,91,rng,num-start-51,51,536,1.6718010902404785,True,,True,1,False,1000,True,1.0
./expes/v2_2020-11-23_di_150-prng-1,daily_issda_150,150,rng-150,121,rng,num-start-191,191,536,2.3787548542022705,True,,True,1,False,1000,True,1.0
./expes/v2_2020-11-23_di_150-prng-1,daily_issda_150,150,rng-150,11,rng,num-start-1,1,536,1.2621612548828125,False,,False,2,False,1000,True,1.0
./expes/v2_2020-11-23_di_150-prng-1,daily_issda_150,150,rng-150,81,rng,num-start-121,121,536,1.6413159370422363,True,,True,1,False,1000,True,1.0
./expes/v2_2020-11-23_di_150-prng-1,daily_issda_150,150,rng-150,41,rng,num-start-121,121,536,1.8203749656677246,True,,True,1,False,1000,True,1.0
./expes/v2_2020-11-23_di_150-prng-1,daily_issda_150,150,rng-150,81,rng,num-start-171,171,536,2.4131877422332764,True,,True,1,False,1000,True,1.0
./expes/v2_2020-11-23_di_150-prng-1,daily_issda_150,150,rng-150,31,rng,num-start-11,11,536,1001.1337025165558,False,,False,0,True,1000,True,0.0
./expes/v2_2020-11-23_di_150-prng-1,daily_issda_150,150,rng-150,101,rng,num-start-221,221,536,2.979642868041992,True,,True,1,False,1000,True,1.0
./expes/v2_2020-11-23_di_150-prng-1,daily_issda_150,150,rng-150,1,rng,num-start-71,71,536,0.745046854019165,True,,True,1,False,1000,True,1.0
./expes/v2_2020-11-23_di_150-prng-1,daily_issda_150,150,rng-150,91,rng,num-start-71,71,536,1.0575225353240967,True,,True,1,False,1000,True,1.0
./expes/v2_2020-11-23_di_150-prng-1,daily_issda_150,150,rng-150,41,rng,num-start-61,61,536,1.768078088760376,True,,True,1,False,1000,True,1.0
./expes/v2_2020-11-23_di_150-prng-1,daily_issda_150,150,rng-150,111,rng,num-start-51,51,536,1.3256676197052002,True,,True,1,False,1000,True,1.0
./expes/v2_2020-11-23_di_150-prng-1,daily_issda_150,150,rng-150,71,rng,num-start-61,61,536,1.9094080924987793,True,,True,1,False,1000,True,1.0
./expes/v2_2020-11-23_di_150-prng-1,daily_issda_150,150,rng-150,21,rng,num-start-151,151,536,2.014134168624878,True,,True,1,False,1000,True,1.0
./expes/v2_2020-11-23_di_150-prng-1,daily_issda_150,150,rng-150,61,rng,num-start-1,1,536,1.5881187915802002,False,,False,2,False,1000,True,1.0
./expes/v2_2020-11-23_di_150-prng-1,daily_issda_150,150,rng-150,101,rng,num-start-51,51,536,1.6302547454833984,True,,True,1,False,1000,True,1.0
./expes/v2_2020-11-23_di_150-prng-1,daily_issda_150,150,rng-150,51,rng,num-start-11,11,536,1000.5225930213928,False,,False,0,True,1000,True,0.0
./expes/v2_2020-11-23_di_150-prng-1,daily_issda_150,150,rng-150,71,rng,num-start-281,281,536,3.7599174976348877,True,,True,1,False,1000,True,1.0
./expes/v2_2020-11-23_di_150-prng-1,daily_issda_150,150,rng-150,61,rng,num-start-131,131,536,1.8640508651733398,True,,True,1,False,1000,True,1.0
./expes/v2_2020-11-23_di_150-prng-1,daily_issda_150,150,rng-150,111,rng,num-start-261,261,536,3.365006923675537,True,,True,1,False,1000,True,1.0
./expes/v2_2020-11-23_di_150-prng-1,daily_issda_150,150,rng-150,141,rng,num-start-81,81,536,1.0382354259490967,True,,True,1,False,1000,True,1.0
./expes/v2_2020-11-23_di_150-prng-1,daily_issda_150,150,rng-150,121,rng,num-start-181,181,536,2.3857951164245605,True,,True,1,False,1000,True,1.0
./expes/v2_2020-11-23_di_150-prng-1,daily_issda_150,150,rng-150,31,rng,num-start-91,91,536,1.2721638679504395,True,,True,1,False,1000,True,1.0
./expes/v2_2020-11-23_di_150-prng-1,daily_issda_150,150,rng-150,41,rng,num-start-131,131,536,1.9276280403137207,True,,True,1,False,1000,True,1.0
./expes/v2_2020-11-23_di_150-prng-1,daily_issda_150,150,rng-150,51,rng,num-start-161,161,536,2.1943931579589844,True,,True,1,False,1000,True,1.0
./expes/v2_2020-11-23_di_150-prng-1,daily_issda_150,150,rng-150,31,rng,num-start-41,41,536,1.1025257110595703,True,,True,1,False,1000,True,1.0
./expes/v2_2020-11-23_di_150-prng-1,daily_issda_150,150,rng-150,51,rng,num-start-201,201,536,2.8346612453460693,True,,True,1,False,1000,True,1.0
./expes/v2_2020-11-23_di_150-prng-1,daily_issda_150,150,rng-150,101,rng,num-start-41,41,536,22.225654125213623,True,,True,1,False,1000,True,1.0
./expes/v2_2020-11-23_di_150-prng-1,daily_issda_150,150,rng-150,81,rng,num-start-81,81,536,1.2425904273986816,True,,True,1,False,1000,True,1.0
./expes/v2_2020-11-23_di_150-prng-1,daily_issda_150,150,rng-150,101,rng,num-start-131,131,536,1.7645015716552734,True,,True,1,False,1000,True,1.0
./expes/v2_2020-11-23_di_150-prng-1,daily_issda_150,150,rng-150,111,rng,num-start-191,191,536,2.544955015182495,True,,True,1,False,1000,True,1.0
./expes/v2_2020-11-23_di_150-prng-1,daily_issda_150,150,rng-150,111,rng,num-start-181,181,536,2.4058477878570557,True,,True,1,False,1000,True,1.0
./expes/v2_2020-11-23_di_150-prng-1,daily_issda_150,150,rng-150,141,rng,num-start-251,251,536,2.724107265472412,True,,True,1,False,1000,True,1.0
./expes/v2_2020-11-23_di_150-prng-1,daily_issda_150,150,rng-150,91,rng,num-start-131,131,536,1.9327006340026855,True,,True,1,False,1000,True,1.0
./expes/v2_2020-11-23_di_150-prng-1,daily_issda_150,150,rng-150,131,rng,num-start-261,261,536,3.2313387393951416,True,,True,1,False,1000,True,1.0
./expes/v2_2020-11-23_di_150-prng-1,daily_issda_150,150,rng-150,91,rng,num-start-21,21,536,1000.4630856513977,False,,False,0,True,1000,True,0.0
./expes/v2_2020-11-23_di_150-prng-1,daily_issda_150,150,rng-150,51,rng,num-start-171,171,536,2.3809735774993896,True,,True,1,False,1000,True,1.0
./expes/v2_2020-11-23_di_150-prng-1,daily_issda_150,150,rng-150,141,rng,num-start-291,291,536,3.173257827758789,True,,True,1,False,1000,True,1.0
./expes/v2_2020-11-23_di_150-prng-1,daily_issda_150,150,rng-150,91,rng,num-start-101,101,536,1.4494233131408691,True,,True,1,False,1000,True,1.0
./expes/v2_2020-11-23_di_150-prng-1,daily_issda_150,150,rng-150,121,rng,num-start-151,151,536,2.0185508728027344,True,,True,1,False,1000,True,1.0
./expes/v2_2020-11-23_di_150-prng-1,daily_issda_150,150,rng-150,61,rng,num-start-91,91,536,1.467628002166748,True,,True,1,False,1000,True,1.0
./expes/v2_2020-11-23_di_150-prng-1,daily_issda_150,150,rng-150,21,rng,num-start-141,141,536,1.7749202251434326,True,,True,1,False,1000,True,1.0
./expes/v2_2020-11-23_di_150-prng-1,daily_issda_150,150,rng-150,11,rng,num-start-91,91,536,1.2624595165252686,True,,True,1,False,1000,True,1.0
./expes/v2_2020-11-23_di_150-prng-1,daily_issda_150,150,rng-150,131,rng,num-start-81,81,536,1.141718864440918,True,,True,1,False,1000,True,1.0
./expes/v2_2020-11-23_di_150-prng-1,daily_issda_150,150,rng-150,91,rng,num-start-251,251,536,3.4359500408172607,True,,True,1,False,1000,True,1.0
./expes/v2_2020-11-23_di_150-prng-1,daily_issda_150,150,rng-150,81,rng,num-start-141,141,536,2.10329532623291,True,,True,1,False,1000,True,1.0
./expes/v2_2020-11-23_di_150-prng-1,daily_issda_150,150,rng-150,91,rng,num-start-291,291,536,3.8630385398864746,True,,True,1,False,1000,True,1.0
./expes/v2_2020-11-23_di_150-prng-1,daily_issda_150,150,rng-150,131,rng,num-start-41,41,536,0.6380329132080078,True,,True,1,False,1000,True,1.0
./expes/v2_2020-11-23_di_150-prng-1,daily_issda_150,150,rng-150,121,rng,num-start-81,81,536,1.056159257888794,True,,True,1,False,1000,True,1.0
./expes/v2_2020-11-23_di_150-prng-1,daily_issda_150,150,rng-150,1,rng,num-start-31,31,536,0.32326292991638184,True,,True,1,False,1000,True,1.0
./expes/v2_2020-11-23_di_150-prng-1,daily_issda_150,150,rng-150,61,rng,num-start-21,21,536,1001.3438177108765,False,,False,0,True,1000,True,0.0
