expe,clients,clients_size,clients_subset,agg_size,agg_size_pc,method,days,days_size,days_total,noise_method,time,valid,valid_sum,success,score_avg,score_min,score_max,nsols,oracle,wall_hit,wall_time,pooled,pool_size,uuid,infeasible,optimal,valid_sums
./expes/v2_2021-03-23_issda-30_2000-prng-1-w1-p2,30_issda-2000,2000,first-2000,400,20,rng,num-start-400,400,25726,classic,1035.7907059192657,False,,False,0,,,0,"['4', '9', '10', '11', '18', '33', '37', '40', '41', '44', '49', '50', '51', '52', '57', '64', '65', '66', '69', '73', '74', '75', '84', '89', '94', '101', '105', '116', '117', '121', '123', '124', '139', '151', '152', '155', '157', '165', '170', '174', '180', '188', '192', '193', '197', '205', '208', '209', '216', '218', '228', '232', '236', '238', '243', '250', '252', '262', '270', '280', '287', '288', '295', '310', '311', '315', '322', '325', '329', '331', '337', '341', '347', '350', '353', '356', '362', '364', '372', '373', '377', '392', '394', '407', '426', '427', '431', '432', '435', '436', '446', '449', '455', '462', '465', '468', '473', '475', '477', '484', '494', '502', '506', '508', '511', '512', '514', '516', '519', '521', '524', '526', '531', '537', '541', '545', '550', '560', '571', '572', '583', '586', '594', '622', '627', '632', '634', '635', '639', '648', '653', '665', '666', '672', '686', '691', '699', '700', '705', '707', '719', '725', '737', '738', '740', '742', '743', '746', '750', '751', '762', '763', '764', '765', '779', '788', '790', '801', '803', '805', '806', '810', '819', '823', '833', '838', '842', '845', '850', '857', '860', '867', '868', '872', '883', '889', '911', '912', '913', '918', '919', '925', '929', '930', '932', '936', '945', '949', '952', '953', '969', '983', '996', '997', '998', '1001', '1002', '1004', '1005', '1021', '1026', '1029', '1033', '1040', '1041', '1043', '1045', '1048', '1049', '1053', '1055', '1056', '1061', '1062', '1064', '1067', '1070', '1072', '1076', '1077', '1078', '1087', '1097', '1115', '1130', '1142', '1143', '1147', '1148', '1152', '1163', '1171', '1177', '1191', '1198', '1205', '1206', '1208', '1211', '1212', '1216', '1240', '1241', '1242', '1243', '1251', '1257', '1261', '1262', '1263', '1274', '1277', '1278', '1279', '1286', '1301', '1306', '1308', '1313', '1315', '1335', '1338', '1342', '1350', '1354', '1356', '1359', '1372', '1374', '1378', '1382', '1396', '1398', '1402', '1403', '1404', '1408', '1414', '1417', '1433', '1445', '1447', '1451', '1454', '1463', '1465', '1467', '1469', '1481', '1482', '1483', '1487', '1493', '1494', '1497', '1505', '1508', '1513', '1516', '1521', '1526', '1532', '1538', '1544', '1545', '1547', '1548', '1556', '1558', '1563', '1569', '1584', '1588', '1600', '1607', '1615', '1618', '1622', '1627', '1631', '1632', '1637', '1639', '1644', '1646', '1651', '1657', '1664', '1666', '1669', '1670', '1681', '1690', '1691', '1703', '1711', '1712', '1718', '1722', '1739', '1741', '1749', '1760', '1762', '1767', '1768', '1784', '1791', '1792', '1794', '1796', '1804', '1806', '1807', '1809', '1811', '1818', '1822', '1827', '1831', '1840', '1843', '1846', '1848', '1850', '1857', '1859', '1860', '1861', '1867', '1876', '1877', '1882', '1885', '1886', '1888', '1895', '1903', '1909', '1910', '1914', '1916', '1917', '1922', '1927', '1933', '1942', '1945', '1955', '1956', '1958', '1961', '1964', '1965', '1966', '1968', '1970', '1973', '1988', '1989']",True,1000,True,2,69c04d42b5,0.0,0.0,0.0
./expes/v2_2021-03-23_issda-30_2000-prng-1-w1-p2,30_issda-2000,2000,first-2000,900,45,rng,num-start-2000,2000,25726,classic,1192.9692294597626,True,,False,1.0,1.0,1.0,1,"['1', '3', '7', '10', '12', '14', '22', '23', '25', '27', '28', '29', '30', '32', '34', '35', '41', '44', '45', '46', '47', '53', '57', '58', '61', '63', '66', '67', '68', '69', '70', '71', '72', '75', '76', '77', '80', '81', '82', '90', '91', '93', '101', '103', '105', '112', '114', '115', '118', '119', '122', '123', '125', '129', '130', '132', '134', '136', '140', '141', '144', '145', '147', '148', '152', '153', '154', '164', '165', '167', '168', '169', '170', '171', '172', '173', '175', '177', '178', '179', '182', '183', '184', '186', '190', '192', '194', '195', '196', '197', '199', '200', '205', '206', '208', '210', '212', '216', '217', '218', '219', '220', '221', '222', '223', '224', '227', '228', '229', '230', '233', '234', '237', '239', '240', '241', '242', '243', '245', '248', '250', '254', '255', '259', '261', '262', '263', '267', '272', '277', '279', '280', '281', '282', '285', '286', '288', '289', '292', '294', '299', '300', '302', '303', '304', '305', '307', '308', '315', '316', '317', '320', '322', '325', '327', '328', '330', '331', '332', '335', '338', '340', '341', '347', '348', '349', '350', '351', '353', '355', '356', '357', '359', '362', '364', '365', '372', '373', '375', '378', '379', '384', '388', '389', '392', '394', '396', '398', '401', '402', '405', '407', '408', '411', '412', '414', '415', '417', '421', '426', '427', '429', '431', '433', '434', '438', '446', '447', '450', '451', '453', '454', '456', '459', '462', '465', '470', '473', '475', '477', '480', '481', '483', '485', '487', '490', '492', '497', '500', '501', '504', '505', '506', '507', '508', '509', '512', '519', '520', '522', '523', '530', '535', '539', '542', '545', '546', '547', '551', '555', '562', '563', '564', '566', '567', '568', '579', '583', '584', '586', '589', '590', '592', '593', '594', '595', '597', '598', '599', '601', '605', '606', '607', '608', '611', '612', '614', '615', '618', '619', '620', '625', '631', '633', '634', '636', '637', '638', '639', '641', '642', '643', '644', '645', '646', '649', '654', '655', '656', '658', '661', '663', '664', '667', '670', '673', '674', '676', '682', '684', '687', '690', '691', '692', '693', '694', '698', '699', '701', '703', '705', '706', '709', '710', '711', '713', '714', '720', '722', '724', '729', '731', '732', '733', '734', '738', '739', '741', '742', '746', '748', '750', '751', '754', '756', '757', '758', '759', '761', '762', '763', '764', '768', '769', '772', '773', '776', '777', '779', '780', '781', '786', '787', '788', '791', '792', '795', '798', '799', '800', '801', '807', '808', '809', '812', '813', '814', '815', '818', '820', '821', '822', '825', '826', '832', '834', '835', '836', '840', '843', '844', '849', '850', '854', '856', '860', '864', '868', '869', '870', '871', '872', '873', '876', '880', '883', '884', '886', '890', '891', '893', '894', '895', '898', '899', '901', '902', '903', '905', '908', '909', '910', '911', '912', '914', '915', '916', '918', '919', '920', '922', '928', '929', '931', '933', '935', '938', '941', '942', '948', '949', '959', '961', '963', '966', '967', '970', '971', '972', '975', '977', '978', '981', '987', '991', '992', '994', '995', '997', '998', '999', '1000', '1001', '1003', '1004', '1005', '1006', '1013', '1014', '1018', '1019', '1020', '1021', '1022', '1023', '1024', '1025', '1028', '1029', '1030', '1032', '1033', '1034', '1035', '1037', '1038', '1039', '1040', '1041', '1045', '1046', '1047', '1049', '1053', '1054', '1058', '1059', '1063', '1065', '1066', '1067', '1069', '1070', '1072', '1073', '1076', '1077', '1079', '1080', '1082', '1083', '1084', '1090', '1093', '1095', '1106', '1108', '1117', '1119', '1120', '1121', '1122', '1123', '1126', '1131', '1136', '1138', '1139', '1142', '1146', '1149', '1150', '1152', '1153', '1154', '1155', '1156', '1160', '1161', '1163', '1165', '1166', '1171', '1173', '1174', '1175', '1180', '1181', '1185', '1186', '1188', '1190', '1191', '1195', '1197', '1199', '1200', '1206', '1209', '1213', '1217', '1218', '1222', '1224', '1226', '1229', '1230', '1231', '1232', '1235', '1238', '1239', '1240', '1243', '1244', '1249', '1250', '1251', '1253', '1255', '1256', '1257', '1259', '1264', '1265', '1271', '1273', '1278', '1279', '1280', '1281', '1288', '1289', '1291', '1294', '1295', '1296', '1299', '1302', '1303', '1310', '1312', '1315', '1319', '1323', '1324', '1326', '1327', '1331', '1332', '1333', '1335', '1337', '1339', '1340', '1341', '1342', '1344', '1345', '1346', '1347', '1348', '1349', '1354', '1358', '1359', '1362', '1363', '1366', '1367', '1368', '1370', '1371', '1373', '1379', '1385', '1386', '1389', '1390', '1393', '1396', '1401', '1402', '1403', '1407', '1409', '1410', '1414', '1415', '1416', '1418', '1419', '1420', '1422', '1424', '1426', '1428', '1432', '1436', '1437', '1438', '1441', '1443', '1444', '1445', '1446', '1451', '1452', '1453', '1454', '1455', '1463', '1466', '1467', '1469', '1470', '1472', '1473', '1474', '1475', '1477', '1478', '1481', '1484', '1485', '1486', '1487', '1491', '1492', '1493', '1502', '1505', '1508', '1509', '1510', '1511', '1518', '1519', '1522', '1523', '1524', '1525', '1531', '1533', '1534', '1535', '1536', '1543', '1547', '1548', '1549', '1555', '1556', '1561', '1562', '1566', '1569', '1570', '1571', '1573', '1575', '1577', '1581', '1586', '1592', '1595', '1597', '1598', '1600', '1602', '1605', '1608', '1610', '1611', '1612', '1616', '1619', '1620', '1623', '1625', '1628', '1630', '1632', '1636', '1637', '1645', '1648', '1649', '1653', '1654', '1655', '1656', '1661', '1662', '1665', '1666', '1668', '1669', '1670', '1673', '1678', '1682', '1685', '1686', '1690', '1691', '1695', '1696', '1697', '1698', '1699', '1700', '1701', '1703', '1707', '1709', '1712', '1713', '1715', '1716', '1717', '1719', '1721', '1724', '1726', '1728', '1729', '1731', '1733', '1735', '1740', '1742', '1746', '1751', '1752', '1755', '1756', '1758', '1760', '1762', '1772', '1775', '1779', '1780', '1781', '1786', '1793', '1795', '1796', '1797', '1799', '1802', '1805', '1806', '1807', '1809', '1811', '1814', '1818', '1820', '1822', '1824', '1826', '1827', '1829', '1830', '1834', '1837', '1838', '1840', '1844', '1847', '1848', '1850', '1851', '1854', '1855', '1857', '1858', '1860', '1862', '1864', '1867', '1869', '1870', '1872', '1876', '1877', '1882', '1883', '1884', '1885', '1886', '1887', '1888', '1890', '1892', '1894', '1895', '1896', '1900', '1902', '1903', '1908', '1910', '1911', '1918', '1919', '1925', '1929', '1930', '1932', '1935', '1937', '1938', '1939', '1941', '1942', '1946', '1949', '1950', '1954', '1958', '1959', '1961', '1962', '1964', '1965', '1971', '1976', '1977', '1978', '1981', '1983', '1987', '1989', '1990', '1993', '1997', '1999']",True,1000,True,2,69ad580793,0.0,0.0,1.0
./expes/v2_2021-03-23_issda-30_2000-prng-1-w1-p2,30_issda-2000,2000,first-2000,200,10,rng,num-start-3600,3600,25726,classic,1351.2509183883667,True,,False,1.0,1.0,1.0,1,"['18', '44', '49', '52', '57', '66', '74', '84', '101', '116', '117', '121', '124', '139', '155', '170', '174', '188', '218', '236', '262', '280', '325', '331', '337', '341', '347', '353', '356', '362', '364', '373', '392', '426', '432', '435', '455', '465', '473', '484', '502', '511', '512', '516', '524', '545', '550', '560', '572', '622', '632', '634', '639', '653', '665', '666', '700', '719', '725', '737', '738', '740', '742', '743', '746', '751', '762', '765', '779', '806', '819', '833', '850', '867', '868', '883', '912', '913', '932', '936', '945', '953', '983', '997', '1002', '1004', '1021', '1026', '1029', '1033', '1040', '1043', '1045', '1049', '1053', '1056', '1061', '1070', '1076', '1077', '1087', '1115', '1142', '1147', '1148', '1152', '1163', '1177', '1191', '1205', '1212', '1216', '1241', '1243', '1262', '1263', '1277', '1308', '1335', '1338', '1342', '1350', '1356', '1372', '1378', '1382', '1396', '1398', '1402', '1433', '1447', '1465', '1469', '1481', '1483', '1487', '1494', '1497', '1505', '1508', '1513', '1526', '1545', '1556', '1563', '1584', '1607', '1618', '1631', '1632', '1637', '1646', '1657', '1666', '1669', '1670', '1681', '1690', '1703', '1711', '1712', '1739', '1749', '1760', '1762', '1768', '1784', '1794', '1796', '1804', '1807', '1809', '1811', '1827', '1831', '1840', '1843', '1846', '1850', '1857', '1859', '1860', '1861', '1867', '1876', '1882', '1885', '1895', '1909', '1914', '1917', '1927', '1933', '1942', '1945', '1955', '1956', '1958', '1961', '1970']",True,1000,True,2,8d4ff8314d,0.0,0.0,1.0
./expes/v2_2021-03-23_issda-30_2000-prng-1-w1-p2,30_issda-2000,2000,first-2000,600,30,rng,num-start-2000,2000,25726,classic,1190.1150813102722,True,,False,1.0,1.0,1.0,1,"['7', '10', '14', '25', '28', '30', '35', '41', '46', '47', '53', '57', '63', '66', '67', '68', '69', '70', '72', '76', '77', '80', '82', '90', '93', '101', '105', '118', '119', '125', '129', '130', '132', '134', '136', '141', '144', '147', '154', '164', '165', '168', '169', '170', '171', '172', '173', '175', '177', '179', '183', '184', '186', '190', '192', '195', '196', '199', '200', '205', '210', '217', '218', '219', '221', '222', '223', '224', '228', '229', '233', '234', '239', '240', '248', '250', '255', '259', '261', '262', '272', '277', '279', '281', '282', '285', '286', '288', '289', '292', '294', '304', '305', '308', '315', '317', '322', '325', '328', '330', '335', '341', '347', '348', '349', '350', '353', '355', '357', '359', '362', '364', '365', '379', '384', '389', '392', '394', '396', '398', '401', '402', '405', '408', '411', '414', '421', '426', '429', '431', '433', '446', '447', '451', '456', '459', '462', '465', '470', '473', '475', '477', '480', '481', '483', '497', '500', '501', '504', '507', '508', '512', '522', '523', '530', '535', '542', '545', '546', '547', '551', '555', '562', '568', '579', '583', '586', '589', '590', '592', '593', '594', '595', '597', '598', '601', '605', '606', '607', '608', '612', '614', '615', '618', '619', '633', '639', '642', '643', '654', '655', '656', '658', '664', '667', '670', '691', '692', '694', '698', '699', '701', '703', '705', '710', '711', '713', '720', '729', '731', '732', '733', '734', '738', '739', '741', '742', '746', '748', '750', '751', '754', '756', '757', '758', '759', '761', '762', '764', '768', '769', '772', '773', '776', '777', '780', '781', '786', '787', '792', '795', '798', '800', '801', '807', '808', '812', '814', '821', '825', '826', '834', '835', '836', '840', '844', '850', '854', '856', '860', '868', '872', '873', '876', '880', '883', '884', '886', '890', '893', '895', '899', '901', '902', '903', '905', '912', '914', '916', '919', '920', '928', '929', '931', '933', '935', '938', '941', '942', '948', '966', '970', '972', '975', '977', '981', '991', '994', '999', '1000', '1001', '1003', '1004', '1014', '1018', '1019', '1020', '1021', '1022', '1023', '1024', '1025', '1028', '1029', '1030', '1032', '1033', '1034', '1035', '1038', '1039', '1040', '1045', '1049', '1054', '1058', '1059', '1065', '1066', '1067', '1073', '1076', '1077', '1079', '1080', '1082', '1083', '1084', '1090', '1093', '1095', '1106', '1117', '1121', '1139', '1142', '1146', '1150', '1153', '1155', '1156', '1160', '1161', '1165', '1166', '1174', '1175', '1181', '1185', '1186', '1188', '1190', '1191', '1197', '1199', '1200', '1206', '1222', '1229', '1230', '1231', '1232', '1238', '1239', '1240', '1243', '1244', '1249', '1250', '1253', '1256', '1257', '1265', '1271', '1273', '1278', '1280', '1281', '1288', '1289', '1291', '1295', '1296', '1302', '1310', '1315', '1319', '1323', '1324', '1326', '1327', '1331', '1332', '1333', '1335', '1337', '1339', '1340', '1341', '1342', '1344', '1345', '1346', '1347', '1349', '1354', '1358', '1359', '1368', '1371', '1373', '1379', '1385', '1393', '1402', '1403', '1407', '1410', '1414', '1415', '1416', '1418', '1424', '1432', '1436', '1437', '1438', '1444', '1445', '1451', '1454', '1455', '1466', '1469', '1472', '1474', '1477', '1478', '1485', '1486', '1487', '1491', '1492', '1493', '1502', '1505', '1508', '1509', '1510', '1518', '1519', '1522', '1523', '1524', '1525', '1531', '1534', '1535', '1536', '1543', '1548', '1555', '1556', '1561', '1566', '1570', '1571', '1573', '1597', '1598', '1600', '1602', '1605', '1610', '1611', '1616', '1619', '1620', '1625', '1632', '1648', '1653', '1655', '1656', '1661', '1662', '1666', '1668', '1669', '1673', '1678', '1682', '1685', '1690', '1691', '1696', '1697', '1699', '1700', '1701', '1703', '1707', '1709', '1712', '1713', '1716', '1717', '1719', '1724', '1726', '1728', '1729', '1733', '1735', '1742', '1746', '1752', '1755', '1760', '1762', '1772', '1775', '1779', '1780', '1793', '1797', '1799', '1805', '1807', '1809', '1818', '1820', '1824', '1826', '1830', '1834', '1837', '1838', '1840', '1844', '1847', '1848', '1850', '1851', '1854', '1855', '1857', '1858', '1860', '1862', '1864', '1867', '1870', '1877', '1882', '1883', '1884', '1886', '1890', '1895', '1896', '1900', '1902', '1903', '1908', '1910', '1911', '1918', '1919', '1929', '1935', '1937', '1938', '1939', '1942', '1946', '1961', '1964', '1965', '1971', '1976', '1977', '1978', '1981', '1983', '1987', '1989', '1990', '1993', '1997']",True,1000,True,2,6fb4a18feb,0.0,0.0,1.0
./expes/v2_2021-03-23_issda-30_2000-prng-1-w1-p2,30_issda-2000,2000,first-2000,700,35,rng,num-start-3200,3200,25726,classic,1320.6022951602936,True,,False,1.0,1.0,1.0,1,"['4', '8', '10', '11', '15', '16', '24', '27', '32', '37', '41', '42', '44', '46', '48', '49', '53', '56', '57', '58', '59', '61', '64', '65', '67', '68', '70', '72', '73', '74', '75', '76', '87', '88', '89', '91', '93', '94', '95', '102', '103', '105', '109', '110', '113', '124', '125', '126', '130', '132', '135', '137', '140', '141', '142', '147', '149', '157', '158', '159', '160', '164', '171', '176', '177', '182', '187', '189', '190', '197', '199', '200', '204', '205', '209', '211', '212', '214', '215', '219', '222', '223', '231', '233', '236', '242', '244', '245', '246', '248', '249', '251', '253', '254', '255', '256', '257', '260', '262', '264', '266', '267', '268', '270', '273', '275', '279', '280', '282', '284', '294', '295', '301', '306', '309', '311', '320', '322', '327', '329', '333', '335', '347', '348', '351', '352', '353', '364', '366', '367', '369', '370', '376', '380', '382', '384', '389', '391', '392', '393', '405', '407', '408', '409', '411', '422', '431', '433', '445', '446', '447', '448', '453', '455', '456', '460', '461', '466', '471', '475', '476', '480', '481', '482', '484', '487', '488', '489', '490', '491', '496', '501', '502', '509', '512', '514', '515', '518', '521', '523', '529', '530', '532', '537', '540', '541', '542', '543', '547', '548', '550', '551', '552', '554', '555', '556', '561', '563', '571', '572', '573', '583', '584', '588', '592', '595', '598', '602', '606', '612', '614', '615', '616', '617', '621', '623', '630', '635', '641', '642', '643', '645', '646', '647', '653', '656', '660', '662', '665', '667', '669', '672', '674', '678', '679', '681', '684', '686', '690', '695', '696', '697', '699', '700', '705', '708', '710', '718', '719', '720', '721', '723', '731', '738', '739', '746', '749', '753', '755', '757', '758', '763', '765', '767', '769', '770', '771', '772', '773', '774', '778', '779', '784', '791', '794', '797', '798', '799', '801', '807', '809', '813', '814', '820', '822', '835', '836', '839', '841', '846', '847', '848', '851', '854', '857', '860', '862', '863', '867', '871', '873', '875', '878', '881', '884', '886', '890', '892', '894', '896', '898', '908', '911', '924', '927', '931', '935', '936', '943', '944', '951', '952', '955', '958', '959', '961', '964', '969', '970', '971', '976', '978', '982', '983', '986', '987', '988', '989', '991', '996', '999', '1003', '1004', '1014', '1017', '1020', '1025', '1029', '1031', '1036', '1039', '1045', '1048', '1050', '1056', '1060', '1062', '1063', '1065', '1066', '1068', '1072', '1076', '1080', '1081', '1084', '1085', '1086', '1090', '1094', '1095', '1097', '1098', '1100', '1102', '1108', '1109', '1110', '1114', '1115', '1124', '1126', '1127', '1129', '1134', '1136', '1138', '1140', '1141', '1145', '1146', '1155', '1156', '1161', '1164', '1165', '1166', '1168', '1170', '1172', '1175', '1176', '1178', '1182', '1186', '1188', '1189', '1190', '1197', '1198', '1199', '1200', '1201', '1202', '1204', '1206', '1207', '1208', '1209', '1211', '1214', '1219', '1220', '1227', '1228', '1229', '1231', '1232', '1237', '1238', '1240', '1241', '1247', '1251', '1254', '1259', '1262', '1266', '1269', '1271', '1274', '1276', '1282', '1284', '1285', '1286', '1287', '1288', '1295', '1297', '1298', '1299', '1300', '1301', '1304', '1309', '1315', '1317', '1319', '1320', '1323', '1325', '1328', '1331', '1332', '1337', '1339', '1343', '1351', '1357', '1358', '1363', '1368', '1375', '1376', '1377', '1380', '1381', '1383', '1384', '1385', '1389', '1390', '1392', '1395', '1397', '1401', '1405', '1413', '1415', '1416', '1421', '1422', '1424', '1425', '1427', '1429', '1430', '1431', '1434', '1436', '1437', '1440', '1444', '1445', '1448', '1460', '1462', '1463', '1465', '1466', '1467', '1468', '1469', '1470', '1472', '1473', '1476', '1477', '1481', '1492', '1493', '1499', '1503', '1504', '1506', '1512', '1519', '1520', '1521', '1527', '1531', '1532', '1533', '1534', '1541', '1543', '1544', '1549', '1550', '1551', '1553', '1557', '1560', '1572', '1575', '1582', '1586', '1588', '1589', '1591', '1592', '1596', '1597', '1598', '1603', '1604', '1612', '1613', '1615', '1620', '1622', '1623', '1626', '1629', '1636', '1637', '1640', '1641', '1645', '1647', '1651', '1652', '1653', '1654', '1659', '1660', '1662', '1663', '1666', '1673', '1679', '1683', '1687', '1696', '1704', '1706', '1707', '1708', '1710', '1713', '1714', '1716', '1718', '1724', '1728', '1729', '1741', '1744', '1746', '1749', '1750', '1752', '1753', '1754', '1755', '1756', '1758', '1759', '1763', '1764', '1765', '1767', '1769', '1770', '1772', '1773', '1776', '1778', '1781', '1782', '1783', '1788', '1800', '1802', '1803', '1804', '1805', '1807', '1810', '1813', '1816', '1817', '1818', '1822', '1823', '1824', '1825', '1837', '1838', '1839', '1843', '1847', '1851', '1852', '1853', '1862', '1866', '1870', '1872', '1876', '1878', '1879', '1885', '1886', '1887', '1888', '1889', '1893', '1897', '1900', '1903', '1904', '1913', '1914', '1915', '1917', '1918', '1923', '1924', '1927', '1928', '1931', '1932', '1941', '1944', '1946', '1947', '1948', '1951', '1953', '1956', '1957', '1961', '1962', '1964', '1967', '1968', '1973', '1975', '1976', '1978', '1980', '1981', '1985', '1989', '1990', '1991', '1993', '1997']",True,1000,True,2,b249745712,0.0,0.0,1.0
./expes/v2_2021-03-23_issda-30_2000-prng-1-w1-p2,30_issda-2000,2000,first-2000,300,15,rng,num-start-800,800,25726,classic,1078.0169477462769,True,,False,1.0,1.0,1.0,1,"['11', '17', '20', '22', '25', '32', '37', '40', '43', '54', '56', '57', '59', '101', '102', '103', '104', '106', '107', '110', '111', '120', '128', '132', '142', '154', '159', '168', '175', '191', '192', '193', '202', '203', '217', '226', '227', '232', '240', '253', '266', '281', '282', '284', '287', '291', '309', '310', '331', '335', '347', '350', '353', '358', '367', '376', '377', '387', '394', '395', '401', '403', '407', '418', '431', '433', '435', '438', '448', '456', '461', '470', '474', '490', '496', '510', '513', '514', '515', '517', '529', '540', '544', '548', '559', '565', '570', '594', '603', '605', '618', '622', '625', '630', '634', '635', '639', '642', '647', '648', '651', '652', '654', '674', '678', '681', '687', '689', '691', '713', '727', '729', '737', '746', '749', '754', '763', '768', '787', '802', '805', '823', '826', '827', '831', '836', '837', '840', '849', '859', '860', '866', '887', '889', '912', '913', '920', '921', '928', '933', '941', '950', '957', '958', '967', '971', '973', '978', '984', '990', '994', '997', '1028', '1033', '1037', '1039', '1057', '1061', '1063', '1064', '1070', '1072', '1076', '1080', '1091', '1092', '1099', '1100', '1106', '1107', '1111', '1113', '1126', '1129', '1134', '1135', '1138', '1139', '1141', '1145', '1156', '1164', '1171', '1178', '1180', '1184', '1185', '1188', '1201', '1209', '1212', '1226', '1229', '1237', '1254', '1256', '1272', '1284', '1297', '1304', '1309', '1312', '1347', '1349', '1355', '1367', '1386', '1398', '1402', '1405', '1416', '1433', '1442', '1443', '1445', '1446', '1455', '1465', '1466', '1484', '1485', '1493', '1499', '1514', '1525', '1526', '1529', '1531', '1533', '1540', '1541', '1543', '1546', '1567', '1569', '1579', '1586', '1594', '1598', '1603', '1611', '1622', '1642', '1643', '1644', '1649', '1653', '1661', '1664', '1665', '1666', '1670', '1673', '1679', '1680', '1689', '1693', '1698', '1705', '1715', '1719', '1725', '1734', '1753', '1759', '1761', '1778', '1793', '1808', '1819', '1823', '1830', '1837', '1841', '1847', '1856', '1859', '1861', '1862', '1864', '1878', '1880', '1885', '1897', '1905', '1925', '1930', '1936', '1949', '1957', '1961', '1962', '1966', '1968', '1970', '1976', '1982', '1987', '1992', '1994']",True,1000,True,2,c48ee9b510,0.0,0.0,1.0
./expes/v2_2021-03-23_issda-30_2000-prng-1-w1-p2,30_issda-2000,2000,first-2000,700,35,rng,num-start-800,800,25726,classic,1078.7872552871704,False,,False,0,,,0,"['1', '3', '4', '8', '9', '11', '24', '25', '30', '32', '35', '38', '39', '40', '44', '47', '48', '53', '56', '57', '58', '60', '71', '76', '77', '81', '82', '86', '87', '89', '93', '96', '99', '102', '104', '108', '111', '112', '114', '117', '118', '119', '121', '122', '123', '125', '127', '128', '129', '130', '132', '134', '137', '138', '141', '144', '145', '149', '150', '159', '165', '166', '168', '170', '172', '173', '174', '176', '177', '178', '182', '184', '186', '187', '189', '192', '193', '200', '201', '208', '210', '211', '212', '213', '215', '218', '225', '226', '232', '237', '240', '242', '246', '247', '250', '251', '252', '254', '258', '261', '265', '266', '268', '269', '273', '281', '282', '286', '287', '290', '293', '295', '296', '299', '300', '301', '305', '306', '307', '309', '310', '311', '312', '317', '318', '320', '323', '326', '331', '333', '334', '335', '338', '341', '343', '345', '349', '353', '361', '365', '366', '369', '371', '372', '374', '375', '376', '380', '385', '389', '391', '392', '397', '399', '400', '401', '403', '407', '409', '410', '412', '414', '415', '419', '421', '422', '426', '428', '433', '436', '440', '441', '447', '450', '452', '453', '456', '457', '458', '459', '465', '469', '471', '473', '476', '477', '478', '489', '491', '493', '497', '500', '501', '504', '508', '509', '513', '516', '517', '519', '524', '530', '531', '532', '534', '535', '537', '539', '540', '542', '543', '544', '549', '551', '553', '554', '555', '557', '568', '570', '571', '572', '573', '578', '583', '589', '590', '594', '600', '601', '606', '611', '614', '615', '621', '624', '625', '631', '632', '634', '635', '639', '643', '644', '648', '653', '663', '664', '667', '668', '670', '674', '676', '679', '681', '687', '692', '693', '695', '697', '701', '702', '704', '705', '706', '711', '712', '716', '718', '725', '728', '729', '731', '735', '741', '745', '746', '747', '749', '750', '752', '757', '763', '771', '780', '781', '782', '788', '791', '796', '801', '804', '806', '807', '808', '809', '811', '813', '815', '816', '818', '819', '821', '823', '828', '829', '832', '851', '854', '856', '857', '859', '862', '863', '864', '865', '870', '872', '876', '878', '882', '883', '884', '886', '889', '902', '903', '906', '908', '913', '914', '916', '917', '920', '927', '929', '930', '935', '936', '939', '940', '941', '946', '949', '954', '955', '958', '963', '968', '970', '971', '972', '973', '980', '981', '982', '984', '987', '989', '991', '994', '998', '1000', '1002', '1010', '1012', '1013', '1014', '1017', '1018', '1025', '1027', '1028', '1030', '1034', '1036', '1037', '1038', '1040', '1041', '1046', '1049', '1050', '1054', '1055', '1056', '1058', '1059', '1060', '1061', '1062', '1072', '1073', '1076', '1079', '1080', '1082', '1084', '1087', '1088', '1089', '1090', '1091', '1093', '1095', '1098', '1099', '1108', '1110', '1113', '1115', '1119', '1121', '1122', '1123', '1124', '1126', '1127', '1129', '1133', '1135', '1138', '1140', '1141', '1143', '1146', '1148', '1151', '1156', '1159', '1160', '1161', '1169', '1170', '1174', '1177', '1182', '1184', '1188', '1192', '1194', '1195', '1200', '1202', '1207', '1210', '1218', '1221', '1222', '1227', '1231', '1234', '1240', '1242', '1246', '1247', '1248', '1249', '1250', '1252', '1253', '1255', '1256', '1257', '1258', '1265', '1268', '1274', '1278', '1279', '1281', '1285', '1288', '1290', '1292', '1300', '1303', '1304', '1309', '1317', '1318', '1326', '1331', '1332', '1334', '1338', '1342', '1344', '1345', '1347', '1349', '1353', '1357', '1361', '1363', '1368', '1369', '1370', '1372', '1374', '1375', '1377', '1385', '1394', '1396', '1397', '1398', '1399', '1409', '1410', '1414', '1415', '1418', '1419', '1424', '1426', '1428', '1432', '1435', '1437', '1441', '1447', '1448', '1454', '1458', '1459', '1467', '1468', '1479', '1481', '1485', '1486', '1488', '1493', '1494', '1498', '1502', '1513', '1516', '1517', '1518', '1523', '1530', '1535', '1536', '1537', '1538', '1548', '1551', '1553', '1554', '1556', '1557', '1565', '1566', '1574', '1581', '1582', '1590', '1591', '1592', '1596', '1598', '1603', '1606', '1607', '1615', '1617', '1619', '1627', '1633', '1635', '1637', '1638', '1641', '1642', '1646', '1651', '1652', '1654', '1656', '1662', '1670', '1672', '1674', '1676', '1678', '1679', '1682', '1684', '1692', '1693', '1694', '1698', '1703', '1705', '1709', '1710', '1715', '1721', '1722', '1723', '1732', '1739', '1740', '1747', '1748', '1754', '1759', '1760', '1767', '1769', '1770', '1783', '1784', '1785', '1786', '1788', '1790', '1791', '1792', '1793', '1795', '1796', '1799', '1801', '1802', '1807', '1808', '1809', '1810', '1811', '1813', '1817', '1821', '1829', '1831', '1834', '1838', '1839', '1843', '1844', '1852', '1854', '1856', '1861', '1863', '1864', '1867', '1869', '1873', '1875', '1878', '1880', '1882', '1883', '1890', '1892', '1898', '1901', '1910', '1912', '1913', '1915', '1920', '1922', '1925', '1927', '1929', '1930', '1932', '1935', '1938', '1940', '1941', '1942', '1944', '1947', '1948', '1950', '1951', '1952', '1956', '1957', '1959', '1962', '1968', '1970', '1971', '1978', '1982', '1985', '1988', '1989', '1990', '1991', '1992', '1994', '1996', '2000']",True,1000,True,2,615e7f691e,0.0,0.0,0.0
./expes/v2_2021-03-23_issda-30_2000-prng-1-w1-p2,30_issda-2000,2000,first-2000,300,15,rng,num-start-3600,3600,25726,classic,1370.4614124298096,True,,False,1.0,1.0,1.0,1,"['4', '8', '14', '18', '23', '36', '39', '49', '53', '56', '58', '59', '63', '64', '67', '76', '78', '81', '82', '90', '95', '106', '107', '121', '125', '150', '153', '160', '170', '172', '179', '187', '191', '202', '211', '231', '234', '238', '242', '256', '270', '277', '284', '293', '298', '318', '319', '330', '333', '335', '344', '351', '365', '368', '373', '387', '388', '393', '408', '409', '410', '411', '419', '428', '431', '435', '439', '451', '452', '455', '458', '467', '471', '482', '492', '495', '507', '517', '523', '529', '536', '538', '545', '550', '551', '555', '561', '562', '567', '570', '573', '578', '584', '597', '635', '640', '641', '661', '676', '687', '691', '696', '700', '705', '712', '717', '724', '725', '730', '740', '744', '745', '746', '753', '755', '761', '768', '778', '781', '782', '788', '789', '790', '796', '821', '829', '851', '856', '858', '861', '867', '868', '875', '881', '884', '888', '892', '902', '909', '912', '920', '934', '941', '943', '952', '962', '967', '972', '976', '977', '978', '986', '989', '1004', '1008', '1021', '1025', '1027', '1029', '1032', '1039', '1043', '1048', '1052', '1053', '1056', '1063', '1067', '1080', '1084', '1095', '1096', '1105', '1109', '1110', '1120', '1125', '1127', '1137', '1141', '1143', '1144', '1147', '1154', '1168', '1174', '1181', '1189', '1206', '1221', '1227', '1232', '1234', '1243', '1244', '1245', '1248', '1252', '1264', '1268', '1273', '1275', '1279', '1280', '1285', '1305', '1307', '1310', '1312', '1313', '1318', '1347', '1354', '1355', '1356', '1360', '1365', '1369', '1370', '1380', '1384', '1396', '1400', '1402', '1407', '1411', '1412', '1414', '1415', '1422', '1426', '1428', '1435', '1444', '1455', '1473', '1487', '1488', '1504', '1507', '1514', '1533', '1543', '1558', '1567', '1570', '1579', '1581', '1606', '1613', '1617', '1623', '1625', '1629', '1634', '1635', '1642', '1660', '1671', '1677', '1678', '1679', '1685', '1704', '1726', '1753', '1760', '1766', '1771', '1774', '1789', '1807', '1814', '1816', '1832', '1839', '1846', '1851', '1856', '1865', '1868', '1874', '1875', '1882', '1885', '1893', '1899', '1900', '1913', '1918', '1928', '1934', '1939', '1941', '1958', '1964', '1971', '1982', '1990', '2000']",True,1000,True,2,0e0d47b2d6,0.0,0.0,1.0
./expes/v2_2021-03-23_issda-30_2000-prng-1-w1-p2,30_issda-2000,2000,first-2000,200,10,rng,num-start-2400,2400,25726,classic,1241.0219292640686,True,,False,1.0,1.0,1.0,1,"['6', '9', '11', '31', '66', '67', '71', '73', '76', '90', '91', '92', '104', '129', '133', '134', '148', '156', '164', '166', '190', '198', '203', '223', '232', '245', '273', '275', '279', '285', '294', '307', '312', '321', '325', '329', '338', '340', '341', '357', '358', '361', '366', '392', '400', '423', '459', '460', '483', '489', '491', '492', '495', '497', '503', '512', '537', '538', '547', '557', '563', '569', '581', '617', '620', '621', '644', '655', '665', '672', '680', '712', '715', '716', '717', '728', '740', '743', '750', '767', '769', '782', '788', '795', '800', '822', '830', '846', '849', '851', '861', '862', '863', '879', '888', '891', '893', '899', '901', '904', '905', '913', '918', '923', '930', '934', '936', '946', '948', '963', '984', '989', '1003', '1004', '1007', '1016', '1018', '1024', '1028', '1066', '1067', '1069', '1076', '1093', '1097', '1099', '1104', '1109', '1116', '1125', '1145', '1162', '1171', '1184', '1194', '1198', '1232', '1234', '1236', '1243', '1246', '1257', '1265', '1329', '1338', '1339', '1348', '1353', '1356', '1366', '1380', '1381', '1383', '1395', '1405', '1438', '1460', '1508', '1527', '1573', '1582', '1583', '1584', '1589', '1593', '1654', '1661', '1666', '1676', '1682', '1687', '1694', '1698', '1725', '1729', '1752', '1762', '1772', '1781', '1786', '1830', '1837', '1840', '1863', '1865', '1870', '1886', '1893', '1928', '1932', '1937', '1941', '1951', '1952', '1974', '1984', '1986', '1987', '1988', '1995']",True,1000,True,2,dfc339f70b,0.0,0.0,1.0
