expe,clients,clients_size,clients_subset,agg_size,agg_size_pc,method,days,days_size,days_total,noise_method,time,valid,valid_sum,success,score_avg,score_min,score_max,nsols,oracle,wall_hit,wall_time,pooled,pool_size,uuid,infeasible,optimal,valid_sums
./expes/v2_2021-03-23_issda-30_2000-prng-1-w1-p2,30_issda-2000,2000,first-2000,500,25,rng,num-start-2800,2800,25726,classic,1263.7305240631104,True,,False,1.0,1.0,1.0,1,"['5', '7', '8', '9', '11', '12', '20', '27', '30', '32', '45', '46', '56', '60', '62', '63', '66', '69', '71', '74', '79', '80', '84', '88', '89', '90', '94', '97', '101', '105', '107', '108', '110', '112', '114', '116', '126', '141', '142', '145', '146', '151', '159', '166', '174', '178', '184', '187', '190', '191', '193', '194', '205', '206', '211', '214', '220', '225', '230', '237', '241', '249', '257', '258', '259', '260', '263', '265', '267', '268', '269', '273', '274', '277', '281', '286', '291', '294', '300', '301', '302', '304', '306', '307', '309', '315', '318', '321', '322', '328', '329', '337', '342', '343', '362', '366', '367', '368', '374', '381', '384', '390', '391', '396', '398', '399', '400', '415', '416', '418', '425', '434', '438', '439', '441', '448', '452', '457', '461', '462', '463', '464', '465', '473', '480', '483', '487', '488', '489', '500', '501', '507', '509', '515', '519', '520', '526', '527', '528', '530', '531', '535', '536', '537', '538', '539', '541', '549', '551', '556', '565', '566', '574', '581', '589', '593', '595', '596', '601', '604', '605', '606', '608', '611', '614', '617', '618', '622', '628', '630', '631', '632', '637', '643', '648', '650', '655', '661', '680', '682', '684', '686', '697', '700', '703', '707', '709', '712', '719', '722', '729', '730', '736', '740', '746', '751', '755', '756', '760', '761', '762', '764', '768', '770', '771', '794', '796', '799', '806', '811', '813', '815', '831', '836', '839', '847', '853', '869', '870', '871', '872', '875', '877', '878', '879', '880', '881', '882', '884', '890', '891', '895', '901', '902', '903', '905', '909', '912', '919', '921', '922', '924', '941', '944', '945', '949', '950', '956', '963', '966', '972', '976', '981', '985', '988', '992', '997', '1006', '1017', '1018', '1020', '1026', '1027', '1033', '1045', '1048', '1059', '1065', '1066', '1068', '1070', '1071', '1074', '1075', '1078', '1079', '1082', '1087', '1089', '1090', '1092', '1093', '1094', '1096', '1098', '1100', '1113', '1117', '1118', '1120', '1121', '1126', '1127', '1136', '1138', '1140', '1147', '1156', '1158', '1168', '1170', '1171', '1174', '1175', '1183', '1185', '1190', '1195', '1199', '1205', '1207', '1210', '1211', '1213', '1218', '1219', '1222', '1224', '1229', '1236', '1241', '1246', '1247', '1250', '1252', '1257', '1265', '1269', '1271', '1275', '1285', '1289', '1292', '1298', '1308', '1309', '1313', '1315', '1318', '1322', '1330', '1332', '1334', '1336', '1338', '1339', '1342', '1346', '1365', '1366', '1367', '1372', '1374', '1381', '1387', '1395', '1396', '1401', '1402', '1404', '1416', '1424', '1430', '1432', '1435', '1436', '1437', '1438', '1442', '1445', '1460', '1463', '1467', '1468', '1472', '1473', '1477', '1481', '1485', '1488', '1489', '1491', '1493', '1500', '1502', '1504', '1506', '1508', '1513', '1515', '1517', '1526', '1527', '1533', '1538', '1547', '1553', '1557', '1561', '1564', '1570', '1583', '1585', '1592', '1608', '1611', '1613', '1626', '1627', '1635', '1636', '1641', '1643', '1645', '1646', '1651', '1653', '1657', '1659', '1664', '1674', '1679', '1682', '1683', '1687', '1688', '1689', '1691', '1693', '1696', '1703', '1707', '1709', '1710', '1713', '1716', '1717', '1720', '1733', '1739', '1740', '1741', '1745', '1749', '1765', '1766', '1769', '1775', '1777', '1778', '1779', '1781', '1785', '1795', '1797', '1813', '1815', '1816', '1817', '1820', '1822', '1823', '1827', '1829', '1833', '1839', '1840', '1845', '1847', '1848', '1851', '1855', '1857', '1858', '1863', '1865', '1866', '1869', '1873', '1881', '1886', '1887', '1897', '1909', '1911', '1916', '1920', '1922', '1931', '1945', '1949', '1951', '1954', '1963', '1965', '1970', '1982', '1987', '1989', '1990']",True,1000,True,2,dda6b54107,0.0,0.0,1.0
./expes/v2_2021-03-23_issda-30_2000-prng-1-w1-p2,30_issda-2000,2000,first-2000,300,15,rng,num-start-1600,1600,25726,classic,1148.8729453086853,True,,False,1.0,1.0,1.0,1,"['4', '9', '18', '37', '44', '49', '50', '52', '57', '64', '65', '66', '69', '74', '75', '84', '89', '94', '101', '116', '117', '121', '124', '139', '151', '155', '165', '170', '174', '188', '192', '197', '209', '218', '232', '236', '262', '270', '280', '288', '295', '311', '315', '322', '325', '331', '337', '341', '347', '350', '353', '356', '362', '364', '373', '377', '392', '426', '432', '435', '455', '462', '465', '468', '473', '475', '477', '484', '502', '506', '508', '511', '512', '514', '516', '519', '524', '526', '531', '537', '541', '545', '550', '560', '572', '586', '622', '632', '634', '639', '648', '653', '665', '666', '672', '691', '699', '700', '705', '719', '725', '737', '738', '740', '742', '743', '746', '751', '762', '765', '779', '790', '805', '806', '819', '823', '833', '850', '860', '867', '868', '883', '911', '912', '913', '918', '919', '929', '932', '936', '945', '953', '969', '983', '997', '998', '1001', '1002', '1004', '1021', '1026', '1029', '1033', '1040', '1041', '1043', '1045', '1049', '1053', '1055', '1056', '1061', '1062', '1070', '1072', '1076', '1077', '1087', '1115', '1130', '1142', '1143', '1147', '1148', '1152', '1163', '1177', '1191', '1198', '1205', '1208', '1211', '1212', '1216', '1240', '1241', '1242', '1243', '1261', '1262', '1263', '1274', '1277', '1278', '1279', '1286', '1301', '1308', '1335', '1338', '1342', '1350', '1354', '1356', '1372', '1374', '1378', '1382', '1396', '1398', '1402', '1408', '1417', '1433', '1445', '1447', '1451', '1454', '1463', '1465', '1469', '1481', '1483', '1487', '1494', '1497', '1505', '1508', '1513', '1516', '1521', '1526', '1532', '1545', '1548', '1556', '1563', '1569', '1584', '1600', '1607', '1615', '1618', '1622', '1627', '1631', '1632', '1637', '1639', '1646', '1657', '1666', '1669', '1670', '1681', '1690', '1703', '1711', '1712', '1718', '1739', '1749', '1760', '1762', '1767', '1768', '1784', '1791', '1792', '1794', '1796', '1804', '1807', '1809', '1811', '1827', '1831', '1840', '1843', '1846', '1848', '1850', '1857', '1859', '1860', '1861', '1867', '1876', '1877', '1882', '1885', '1895', '1909', '1914', '1917', '1922', '1927', '1933', '1942', '1945', '1955', '1956', '1958', '1961', '1964', '1965', '1966', '1970', '1988', '1989']",True,1000,True,2,afa17f8385,0.0,0.0,1.0
./expes/v2_2021-03-23_issda-30_2000-prng-1-w1-p2,30_issda-2000,2000,first-2000,900,45,rng,num-start-2000,2000,25726,classic,1193.476773262024,True,,False,1.0,1.0,1.0,1,"['1', '3', '4', '6', '7', '10', '11', '13', '20', '21', '22', '24', '25', '26', '27', '29', '31', '35', '38', '40', '42', '45', '49', '54', '56', '58', '59', '61', '62', '63', '64', '66', '67', '68', '70', '71', '73', '76', '78', '82', '85', '93', '94', '103', '104', '105', '106', '107', '111', '112', '116', '117', '118', '120', '121', '122', '123', '125', '126', '128', '130', '131', '133', '137', '140', '142', '143', '145', '147', '152', '153', '154', '156', '157', '159', '160', '161', '166', '170', '172', '176', '178', '180', '181', '183', '184', '185', '186', '190', '191', '192', '193', '194', '197', '200', '203', '206', '208', '209', '213', '214', '215', '216', '220', '223', '225', '227', '229', '230', '232', '233', '234', '235', '236', '240', '244', '245', '246', '248', '252', '253', '256', '258', '260', '261', '262', '263', '270', '272', '273', '276', '277', '278', '280', '281', '283', '286', '291', '292', '296', '297', '299', '302', '303', '306', '308', '309', '310', '312', '315', '316', '317', '318', '323', '324', '325', '329', '330', '333', '334', '335', '337', '346', '347', '349', '352', '353', '355', '359', '360', '361', '362', '364', '365', '368', '369', '373', '374', '376', '377', '379', '380', '381', '385', '386', '387', '391', '394', '395', '396', '397', '398', '402', '403', '404', '406', '407', '408', '412', '414', '418', '429', '430', '436', '439', '442', '443', '446', '449', '450', '453', '454', '457', '458', '461', '462', '463', '464', '472', '475', '476', '477', '479', '489', '493', '498', '499', '500', '501', '502', '503', '512', '513', '515', '516', '517', '519', '522', '523', '524', '525', '527', '536', '539', '540', '541', '542', '544', '545', '549', '552', '554', '557', '559', '560', '562', '563', '565', '567', '569', '570', '574', '577', '580', '586', '588', '593', '594', '596', '597', '598', '602', '603', '604', '613', '616', '620', '622', '623', '624', '625', '627', '634', '636', '640', '646', '649', '652', '655', '656', '657', '662', '663', '667', '671', '672', '674', '675', '678', '681', '682', '688', '689', '692', '693', '698', '704', '705', '709', '711', '717', '718', '719', '720', '721', '732', '736', '738', '739', '740', '741', '742', '743', '744', '745', '746', '747', '751', '752', '753', '759', '760', '761', '763', '765', '767', '768', '771', '772', '773', '774', '778', '779', '780', '781', '787', '788', '792', '796', '798', '799', '802', '806', '813', '815', '816', '817', '818', '819', '827', '829', '832', '834', '835', '838', '840', '841', '843', '844', '848', '849', '856', '859', '860', '864', '865', '867', '870', '872', '873', '874', '878', '879', '881', '882', '883', '887', '889', '893', '894', '897', '899', '900', '901', '903', '904', '909', '910', '912', '913', '914', '916', '919', '921', '925', '926', '928', '930', '933', '934', '938', '939', '944', '948', '950', '951', '954', '957', '960', '961', '964', '965', '968', '969', '971', '973', '974', '975', '978', '979', '980', '981', '982', '983', '984', '986', '989', '991', '994', '995', '996', '997', '999', '1000', '1001', '1002', '1007', '1008', '1013', '1015', '1018', '1019', '1022', '1024', '1025', '1026', '1029', '1030', '1032', '1033', '1035', '1038', '1039', '1040', '1052', '1055', '1056', '1059', '1060', '1065', '1066', '1068', '1069', '1070', '1075', '1076', '1077', '1078', '1080', '1081', '1088', '1089', '1090', '1093', '1097', '1099', '1100', '1102', '1103', '1105', '1107', '1109', '1110', '1112', '1113', '1114', '1116', '1117', '1118', '1121', '1129', '1130', '1134', '1139', '1141', '1143', '1144', '1145', '1147', '1149', '1154', '1155', '1156', '1158', '1165', '1166', '1167', '1169', '1172', '1173', '1174', '1175', '1176', '1180', '1182', '1187', '1196', '1198', '1202', '1204', '1205', '1206', '1207', '1208', '1210', '1212', '1213', '1214', '1215', '1217', '1218', '1219', '1220', '1221', '1224', '1228', '1233', '1234', '1236', '1239', '1243', '1244', '1246', '1247', '1248', '1250', '1253', '1254', '1255', '1257', '1258', '1259', '1262', '1263', '1266', '1267', '1268', '1269', '1271', '1274', '1275', '1278', '1281', '1282', '1283', '1284', '1287', '1288', '1289', '1292', '1293', '1298', '1300', '1301', '1306', '1307', '1308', '1310', '1311', '1312', '1313', '1315', '1317', '1319', '1320', '1321', '1322', '1323', '1324', '1327', '1328', '1331', '1333', '1334', '1335', '1340', '1341', '1343', '1344', '1345', '1351', '1355', '1356', '1357', '1358', '1359', '1360', '1361', '1362', '1366', '1367', '1369', '1371', '1373', '1375', '1380', '1385', '1387', '1390', '1391', '1394', '1395', '1397', '1401', '1405', '1406', '1409', '1411', '1414', '1415', '1416', '1418', '1421', '1422', '1423', '1425', '1430', '1433', '1436', '1437', '1438', '1439', '1442', '1444', '1446', '1449', '1451', '1457', '1459', '1460', '1462', '1463', '1465', '1468', '1470', '1472', '1473', '1474', '1478', '1480', '1483', '1484', '1488', '1489', '1490', '1491', '1492', '1493', '1494', '1495', '1499', '1500', '1503', '1504', '1505', '1506', '1510', '1511', '1514', '1516', '1518', '1522', '1524', '1526', '1527', '1529', '1530', '1534', '1537', '1539', '1542', '1543', '1547', '1548', '1551', '1553', '1555', '1556', '1557', '1561', '1562', '1563', '1564', '1565', '1567', '1568', '1571', '1572', '1574', '1576', '1577', '1578', '1585', '1588', '1591', '1592', '1594', '1595', '1596', '1598', '1603', '1606', '1611', '1613', '1620', '1621', '1625', '1626', '1628', '1629', '1631', '1632', '1634', '1639', '1640', '1642', '1643', '1646', '1647', '1649', '1650', '1651', '1652', '1656', '1658', '1662', '1663', '1667', '1670', '1671', '1672', '1673', '1675', '1676', '1677', '1680', '1684', '1692', '1696', '1697', '1699', '1701', '1703', '1705', '1706', '1709', '1712', '1715', '1717', '1718', '1722', '1724', '1725', '1729', '1730', '1731', '1741', '1747', '1748', '1751', '1752', '1758', '1760', '1761', '1765', '1770', '1773', '1777', '1781', '1782', '1783', '1785', '1787', '1793', '1795', '1800', '1801', '1803', '1807', '1808', '1809', '1810', '1811', '1813', '1819', '1821', '1822', '1823', '1824', '1825', '1828', '1829', '1830', '1831', '1836', '1841', '1842', '1843', '1846', '1849', '1850', '1853', '1854', '1860', '1862', '1863', '1865', '1867', '1868', '1870', '1871', '1877', '1878', '1881', '1883', '1884', '1887', '1889', '1891', '1893', '1894', '1898', '1899', '1900', '1902', '1903', '1911', '1913', '1914', '1919', '1921', '1922', '1925', '1927', '1931', '1933', '1936', '1937', '1941', '1942', '1943', '1946', '1948', '1949', '1950', '1954', '1963', '1969', '1971', '1972', '1975', '1976', '1977', '1978', '1979', '1981', '1982', '1984', '1985', '1986', '1987', '1988', '1989', '1990', '1992', '1994', '1995', '1997', '1998', '2000']",True,1000,True,2,e1bd2f2a98,0.0,0.0,1.0
./expes/v2_2021-03-23_issda-30_2000-prng-1-w1-p2,30_issda-2000,2000,first-2000,500,25,rng,num-start-1200,1200,25726,classic,1116.901050567627,True,,False,1.0,1.0,1.0,1,"['1', '2', '4', '10', '16', '22', '32', '36', '40', '41', '43', '49', '52', '53', '57', '58', '60', '63', '65', '72', '83', '88', '92', '95', '98', '103', '105', '106', '112', '114', '122', '127', '137', '140', '141', '143', '144', '149', '153', '154', '158', '167', '171', '184', '185', '186', '191', '194', '195', '196', '199', '201', '210', '212', '218', '219', '220', '227', '229', '230', '232', '234', '235', '236', '243', '247', '249', '252', '253', '258', '264', '267', '270', '273', '277', '281', '289', '294', '300', '301', '307', '316', '325', '330', '332', '338', '345', '350', '352', '353', '358', '360', '364', '372', '374', '377', '387', '389', '395', '397', '400', '405', '407', '408', '409', '411', '415', '419', '421', '426', '429', '434', '443', '447', '455', '456', '458', '461', '464', '468', '472', '483', '484', '496', '501', '502', '505', '506', '507', '509', '510', '513', '516', '517', '522', '523', '524', '525', '526', '530', '534', '539', '540', '542', '545', '547', '555', '556', '558', '562', '564', '571', '575', '577', '578', '579', '580', '597', '601', '606', '607', '616', '620', '621', '625', '626', '629', '634', '637', '640', '644', '647', '661', '680', '683', '684', '687', '691', '696', '697', '709', '712', '714', '718', '720', '722', '724', '729', '734', '739', '746', '748', '749', '751', '754', '755', '756', '764', '772', '777', '780', '783', '784', '787', '788', '791', '792', '795', '807', '808', '813', '815', '825', '827', '831', '833', '844', '856', '858', '866', '867', '869', '871', '874', '880', '886', '896', '898', '899', '904', '905', '907', '912', '913', '917', '921', '922', '927', '929', '933', '942', '944', '956', '960', '961', '962', '963', '965', '969', '972', '974', '975', '984', '993', '994', '996', '997', '998', '1000', '1002', '1005', '1015', '1020', '1025', '1026', '1038', '1039', '1041', '1049', '1053', '1058', '1065', '1068', '1069', '1073', '1077', '1080', '1082', '1086', '1094', '1095', '1096', '1103', '1109', '1111', '1113', '1116', '1117', '1119', '1124', '1130', '1134', '1138', '1142', '1144', '1147', '1150', '1161', '1166', '1167', '1171', '1182', '1184', '1186', '1195', '1197', '1201', '1206', '1207', '1211', '1216', '1218', '1219', '1220', '1221', '1232', '1234', '1237', '1240', '1245', '1249', '1255', '1261', '1262', '1279', '1281', '1287', '1294', '1296', '1298', '1301', '1304', '1306', '1313', '1315', '1318', '1321', '1322', '1323', '1324', '1325', '1327', '1331', '1335', '1336', '1345', '1346', '1349', '1356', '1360', '1363', '1369', '1374', '1377', '1383', '1386', '1393', '1394', '1395', '1396', '1398', '1402', '1404', '1406', '1407', '1416', '1418', '1439', '1441', '1442', '1444', '1446', '1454', '1466', '1471', '1472', '1478', '1484', '1485', '1486', '1504', '1506', '1514', '1515', '1517', '1519', '1525', '1530', '1540', '1546', '1547', '1551', '1557', '1560', '1564', '1565', '1575', '1577', '1578', '1585', '1587', '1588', '1593', '1602', '1607', '1608', '1613', '1621', '1623', '1626', '1627', '1632', '1634', '1635', '1648', '1652', '1654', '1655', '1656', '1660', '1664', '1668', '1676', '1680', '1682', '1685', '1686', '1687', '1691', '1694', '1696', '1697', '1698', '1711', '1720', '1724', '1739', '1740', '1741', '1748', '1750', '1752', '1756', '1761', '1762', '1765', '1768', '1770', '1771', '1772', '1773', '1776', '1784', '1788', '1791', '1792', '1795', '1810', '1815', '1816', '1835', '1836', '1837', '1840', '1841', '1842', '1845', '1846', '1847', '1848', '1852', '1853', '1861', '1862', '1864', '1875', '1879', '1886', '1888', '1902', '1908', '1910', '1911', '1912', '1913', '1914', '1917', '1918', '1924', '1926', '1930', '1934', '1951', '1959', '1965', '1967', '1983', '1990', '1995', '2000']",True,1000,True,2,6ace1f7388,0.0,0.0,1.0
./expes/v2_2021-03-23_issda-30_2000-prng-1-w1-p2,30_issda-2000,2000,first-2000,700,35,rng,num-start-800,800,25726,classic,1083.090158700943,False,,False,0,,,0,"['4', '7', '9', '10', '11', '18', '22', '24', '33', '36', '37', '40', '41', '44', '49', '50', '51', '52', '57', '61', '64', '65', '66', '69', '70', '73', '74', '75', '77', '84', '89', '94', '101', '105', '110', '111', '116', '117', '121', '123', '124', '126', '135', '137', '139', '146', '149', '150', '151', '152', '155', '157', '158', '159', '164', '165', '167', '170', '173', '174', '177', '180', '183', '188', '191', '192', '193', '194', '197', '204', '205', '206', '208', '209', '216', '218', '228', '230', '232', '236', '238', '243', '250', '252', '262', '264', '270', '274', '275', '277', '278', '280', '283', '287', '288', '290', '295', '297', '301', '307', '310', '311', '315', '320', '321', '322', '323', '325', '326', '329', '331', '333', '337', '341', '347', '348', '350', '353', '354', '356', '361', '362', '364', '370', '372', '373', '377', '380', '385', '389', '392', '393', '394', '407', '409', '419', '420', '426', '427', '431', '432', '435', '436', '438', '442', '443', '444', '446', '449', '455', '461', '462', '465', '468', '473', '475', '476', '477', '478', '481', '484', '488', '494', '502', '506', '508', '510', '511', '512', '514', '516', '519', '520', '521', '523', '524', '526', '527', '529', '531', '532', '537', '541', '545', '547', '550', '551', '560', '562', '569', '571', '572', '575', '579', '583', '586', '588', '594', '596', '598', '604', '607', '608', '620', '622', '623', '627', '631', '632', '634', '635', '639', '640', '641', '642', '648', '653', '657', '665', '666', '669', '672', '674', '675', '678', '684', '686', '691', '699', '700', '701', '705', '707', '712', '718', '719', '725', '730', '733', '735', '737', '738', '740', '742', '743', '746', '747', '750', '751', '762', '763', '764', '765', '766', '768', '775', '777', '779', '782', '784', '785', '788', '790', '791', '799', '800', '801', '802', '803', '805', '806', '809', '810', '819', '820', '823', '825', '826', '828', '829', '830', '833', '838', '842', '845', '850', '854', '857', '859', '860', '867', '868', '872', '876', '883', '889', '890', '899', '904', '906', '907', '911', '912', '913', '918', '919', '925', '929', '930', '932', '936', '937', '938', '941', '943', '945', '949', '952', '953', '955', '956', '957', '958', '961', '964', '968', '969', '979', '983', '988', '989', '991', '992', '994', '995', '996', '997', '998', '1001', '1002', '1004', '1005', '1008', '1020', '1021', '1023', '1026', '1029', '1030', '1033', '1034', '1040', '1041', '1042', '1043', '1045', '1048', '1049', '1052', '1053', '1054', '1055', '1056', '1058', '1061', '1062', '1064', '1067', '1070', '1071', '1072', '1073', '1074', '1076', '1077', '1078', '1087', '1090', '1092', '1097', '1102', '1103', '1108', '1115', '1117', '1122', '1124', '1128', '1130', '1142', '1143', '1147', '1148', '1150', '1152', '1156', '1160', '1163', '1166', '1171', '1175', '1177', '1180', '1189', '1190', '1191', '1198', '1200', '1201', '1205', '1206', '1208', '1211', '1212', '1216', '1219', '1222', '1240', '1241', '1242', '1243', '1251', '1254', '1255', '1257', '1261', '1262', '1263', '1267', '1273', '1274', '1275', '1277', '1278', '1279', '1281', '1286', '1288', '1295', '1297', '1298', '1301', '1305', '1306', '1308', '1310', '1313', '1315', '1317', '1324', '1327', '1328', '1330', '1332', '1335', '1338', '1339', '1342', '1349', '1350', '1354', '1356', '1359', '1366', '1371', '1372', '1374', '1378', '1382', '1383', '1384', '1386', '1390', '1391', '1394', '1395', '1396', '1398', '1402', '1403', '1404', '1408', '1413', '1414', '1417', '1419', '1425', '1432', '1433', '1441', '1443', '1445', '1446', '1447', '1451', '1454', '1456', '1457', '1458', '1460', '1461', '1462', '1463', '1465', '1466', '1467', '1468', '1469', '1472', '1473', '1474', '1475', '1481', '1482', '1483', '1487', '1491', '1493', '1494', '1497', '1498', '1500', '1505', '1508', '1509', '1513', '1516', '1521', '1525', '1526', '1528', '1532', '1535', '1537', '1538', '1539', '1541', '1544', '1545', '1546', '1547', '1548', '1556', '1557', '1558', '1560', '1563', '1566', '1569', '1571', '1584', '1588', '1592', '1600', '1604', '1607', '1613', '1615', '1618', '1622', '1627', '1629', '1630', '1631', '1632', '1635', '1636', '1637', '1639', '1642', '1644', '1646', '1647', '1648', '1651', '1652', '1656', '1657', '1659', '1664', '1666', '1669', '1670', '1671', '1672', '1675', '1677', '1679', '1681', '1687', '1689', '1690', '1691', '1703', '1707', '1711', '1712', '1713', '1715', '1718', '1722', '1734', '1738', '1739', '1741', '1743', '1746', '1749', '1755', '1760', '1762', '1767', '1768', '1770', '1774', '1781', '1783', '1784', '1791', '1792', '1794', '1796', '1798', '1800', '1804', '1805', '1806', '1807', '1809', '1811', '1812', '1813', '1818', '1819', '1822', '1827', '1831', '1833', '1834', '1840', '1843', '1846', '1848', '1850', '1855', '1857', '1859', '1860', '1861', '1867', '1868', '1874', '1876', '1877', '1882', '1885', '1886', '1888', '1889', '1895', '1897', '1903', '1904', '1909', '1910', '1914', '1916', '1917', '1919', '1922', '1923', '1927', '1932', '1933', '1941', '1942', '1943', '1944', '1945', '1946', '1955', '1956', '1958', '1961', '1962', '1964', '1965', '1966', '1968', '1970', '1971', '1973', '1980', '1981', '1985', '1986', '1988', '1989', '1992', '1995']",True,1000,True,2,d7f1c428c3,0.0,0.0,0.0
./expes/v2_2021-03-23_issda-30_2000-prng-1-w1-p2,30_issda-2000,2000,first-2000,700,35,rng,num-start-3200,3200,25726,classic,1328.9635500907898,True,,False,1.0,1.0,1.0,1,"['1', '2', '4', '6', '8', '10', '16', '21', '22', '30', '31', '32', '36', '37', '40', '41', '43', '49', '52', '53', '57', '58', '59', '60', '63', '65', '71', '72', '82', '83', '88', '92', '95', '98', '102', '103', '105', '106', '107', '112', '114', '122', '123', '127', '128', '131', '133', '137', '140', '141', '143', '144', '149', '153', '154', '158', '159', '166', '167', '171', '184', '185', '186', '191', '192', '194', '195', '196', '199', '201', '203', '210', '212', '214', '218', '219', '220', '227', '229', '230', '231', '232', '234', '235', '236', '243', '244', '245', '247', '249', '250', '252', '253', '255', '258', '260', '264', '267', '270', '273', '274', '277', '281', '289', '294', '300', '301', '307', '310', '314', '316', '325', '330', '331', '332', '338', '339', '345', '349', '350', '352', '353', '358', '360', '364', '366', '371', '372', '374', '377', '380', '387', '388', '389', '395', '397', '400', '403', '405', '407', '408', '409', '410', '411', '415', '416', '419', '420', '421', '425', '426', '429', '431', '434', '438', '443', '444', '447', '451', '455', '456', '458', '461', '463', '464', '468', '469', '471', '472', '473', '480', '483', '484', '485', '494', '495', '496', '498', '500', '501', '502', '505', '506', '507', '509', '510', '513', '515', '516', '517', '519', '522', '523', '524', '525', '526', '530', '533', '534', '539', '540', '542', '544', '545', '547', '555', '556', '558', '560', '561', '562', '564', '565', '571', '575', '576', '577', '578', '579', '580', '588', '594', '596', '597', '601', '606', '607', '608', '616', '617', '620', '621', '625', '626', '628', '629', '634', '636', '637', '640', '644', '647', '650', '652', '654', '661', '662', '666', '677', '680', '683', '684', '687', '691', '694', '696', '697', '703', '709', '712', '714', '718', '720', '722', '724', '726', '729', '734', '738', '739', '740', '745', '746', '748', '749', '751', '754', '755', '756', '764', '771', '772', '777', '780', '783', '784', '787', '788', '791', '792', '793', '794', '795', '805', '807', '808', '813', '815', '818', '825', '827', '831', '832', '833', '844', '856', '858', '862', '863', '864', '866', '867', '869', '871', '873', '874', '880', '886', '893', '896', '898', '899', '904', '905', '907', '910', '912', '913', '917', '921', '922', '925', '927', '929', '931', '932', '933', '942', '944', '956', '960', '961', '962', '963', '965', '969', '970', '972', '974', '975', '977', '979', '984', '986', '987', '992', '993', '994', '996', '997', '998', '1000', '1002', '1005', '1012', '1014', '1015', '1020', '1025', '1026', '1029', '1034', '1035', '1038', '1039', '1041', '1044', '1048', '1049', '1053', '1058', '1065', '1066', '1068', '1069', '1073', '1077', '1080', '1082', '1086', '1090', '1092', '1094', '1095', '1096', '1098', '1101', '1103', '1107', '1109', '1110', '1111', '1113', '1116', '1117', '1119', '1124', '1126', '1130', '1134', '1138', '1140', '1142', '1143', '1144', '1146', '1147', '1150', '1161', '1163', '1166', '1167', '1169', '1171', '1182', '1184', '1186', '1192', '1195', '1197', '1201', '1205', '1206', '1207', '1211', '1216', '1218', '1219', '1220', '1221', '1232', '1234', '1237', '1240', '1245', '1249', '1255', '1261', '1262', '1279', '1281', '1283', '1285', '1287', '1294', '1296', '1298', '1301', '1304', '1306', '1310', '1313', '1315', '1318', '1321', '1322', '1323', '1324', '1325', '1327', '1331', '1335', '1336', '1339', '1343', '1344', '1345', '1346', '1348', '1349', '1351', '1356', '1360', '1363', '1365', '1369', '1374', '1377', '1379', '1383', '1386', '1393', '1394', '1395', '1396', '1398', '1402', '1404', '1406', '1407', '1416', '1418', '1427', '1437', '1439', '1440', '1441', '1442', '1444', '1446', '1454', '1456', '1457', '1463', '1464', '1466', '1471', '1472', '1478', '1484', '1485', '1486', '1487', '1496', '1497', '1504', '1506', '1514', '1515', '1516', '1517', '1519', '1525', '1527', '1529', '1530', '1533', '1539', '1540', '1541', '1546', '1547', '1551', '1557', '1559', '1560', '1564', '1565', '1567', '1571', '1575', '1577', '1578', '1584', '1585', '1587', '1588', '1593', '1597', '1602', '1603', '1607', '1608', '1613', '1621', '1623', '1626', '1627', '1632', '1634', '1635', '1641', '1646', '1648', '1651', '1652', '1654', '1655', '1656', '1658', '1660', '1664', '1668', '1670', '1673', '1676', '1678', '1680', '1682', '1685', '1686', '1687', '1688', '1691', '1694', '1696', '1697', '1698', '1701', '1704', '1711', '1714', '1720', '1724', '1735', '1737', '1739', '1740', '1741', '1745', '1748', '1750', '1752', '1756', '1761', '1762', '1765', '1768', '1770', '1771', '1772', '1773', '1776', '1784', '1786', '1788', '1791', '1792', '1795', '1800', '1802', '1807', '1810', '1814', '1815', '1816', '1819', '1820', '1821', '1835', '1836', '1837', '1840', '1841', '1842', '1845', '1846', '1847', '1848', '1852', '1853', '1861', '1862', '1864', '1865', '1875', '1877', '1879', '1886', '1888', '1889', '1896', '1901', '1902', '1908', '1910', '1911', '1912', '1913', '1914', '1917', '1918', '1920', '1921', '1924', '1926', '1930', '1932', '1934', '1937', '1938', '1946', '1948', '1950', '1951', '1955', '1959', '1964', '1965', '1967', '1968', '1974', '1977', '1983', '1990', '1991', '1992', '1993', '1995', '2000']",True,1000,True,2,617a91e299,0.0,0.0,1.0
./expes/v2_2021-03-23_issda-30_2000-prng-1-w1-p2,30_issda-2000,2000,first-2000,500,25,rng,num-start-1200,1200,25726,classic,1119.2000894546509,True,,False,1.0,1.0,1.0,1,"['4', '5', '12', '18', '19', '22', '26', '30', '35', '36', '37', '38', '43', '45', '46', '49', '53', '56', '58', '59', '60', '61', '63', '67', '71', '73', '77', '78', '81', '82', '83', '90', '94', '98', '115', '121', '129', '130', '132', '134', '143', '145', '150', '157', '168', '171', '174', '178', '188', '193', '198', '203', '205', '206', '210', '211', '214', '221', '222', '223', '225', '234', '235', '236', '237', '242', '248', '257', '258', '265', '268', '273', '276', '277', '278', '300', '302', '322', '325', '326', '327', '329', '332', '336', '342', '343', '345', '346', '348', '349', '352', '355', '363', '371', '379', '381', '385', '386', '389', '398', '409', '410', '411', '412', '421', '422', '426', '429', '430', '435', '437', '444', '446', '449', '452', '455', '458', '459', '462', '465', '469', '471', '473', '476', '478', '481', '482', '491', '495', '498', '512', '517', '519', '520', '523', '530', '546', '547', '549', '551', '552', '559', '568', '576', '577', '582', '594', '595', '597', '603', '604', '606', '607', '608', '611', '612', '622', '628', '632', '636', '639', '642', '645', '650', '651', '656', '657', '658', '660', '667', '672', '679', '681', '682', '694', '695', '697', '699', '704', '705', '706', '708', '709', '711', '724', '731', '747', '748', '752', '754', '759', '768', '775', '777', '778', '779', '781', '786', '792', '799', '802', '806', '807', '809', '814', '817', '824', '828', '829', '833', '847', '849', '853', '863', '865', '873', '874', '880', '885', '887', '892', '897', '899', '913', '921', '922', '924', '928', '932', '938', '939', '941', '942', '944', '962', '968', '971', '977', '984', '986', '993', '994', '1000', '1002', '1003', '1009', '1015', '1016', '1017', '1023', '1024', '1026', '1029', '1033', '1034', '1035', '1037', '1040', '1042', '1043', '1045', '1050', '1053', '1058', '1063', '1067', '1073', '1081', '1091', '1095', '1103', '1106', '1107', '1109', '1112', '1116', '1122', '1123', '1124', '1127', '1128', '1129', '1133', '1136', '1140', '1149', '1150', '1154', '1156', '1157', '1160', '1166', '1168', '1169', '1175', '1180', '1184', '1185', '1188', '1197', '1202', '1204', '1207', '1210', '1211', '1212', '1215', '1222', '1229', '1230', '1232', '1237', '1241', '1245', '1248', '1254', '1255', '1257', '1260', '1276', '1277', '1280', '1289', '1292', '1293', '1302', '1316', '1326', '1328', '1329', '1331', '1335', '1336', '1345', '1351', '1352', '1360', '1362', '1364', '1373', '1374', '1379', '1381', '1382', '1383', '1387', '1389', '1395', '1406', '1408', '1424', '1426', '1439', '1440', '1441', '1442', '1444', '1457', '1458', '1465', '1473', '1478', '1483', '1486', '1487', '1488', '1494', '1496', '1501', '1511', '1512', '1517', '1522', '1524', '1545', '1548', '1555', '1559', '1562', '1565', '1572', '1573', '1578', '1579', '1589', '1593', '1595', '1597', '1598', '1602', '1603', '1605', '1609', '1611', '1612', '1615', '1616', '1618', '1631', '1633', '1634', '1636', '1643', '1644', '1646', '1648', '1652', '1658', '1662', '1666', '1673', '1674', '1676', '1679', '1681', '1692', '1696', '1697', '1700', '1705', '1712', '1716', '1721', '1723', '1724', '1731', '1734', '1736', '1738', '1742', '1744', '1748', '1756', '1757', '1759', '1762', '1764', '1774', '1777', '1778', '1782', '1786', '1794', '1800', '1805', '1808', '1813', '1815', '1818', '1825', '1830', '1835', '1837', '1843', '1845', '1847', '1863', '1864', '1865', '1866', '1871', '1873', '1877', '1879', '1885', '1889', '1895', '1896', '1897', '1898', '1907', '1910', '1918', '1921', '1922', '1924', '1927', '1928', '1933', '1934', '1936', '1946', '1950', '1951', '1955', '1956', '1961', '1966', '1971', '1976', '1978', '1981', '1983', '1985', '1987', '1988', '1994', '1995', '1998', '1999']",True,1000,True,2,d0be18e90c,0.0,0.0,1.0
./expes/v2_2021-03-23_issda-30_2000-prng-1-w1-p2,30_issda-2000,2000,first-2000,700,35,rng,num-start-400,400,25726,classic,1040.1307168006897,False,,False,0,,,0,"['1', '7', '10', '12', '14', '23', '25', '28', '29', '30', '35', '41', '45', '46', '47', '53', '57', '58', '63', '66', '67', '68', '69', '70', '71', '72', '75', '76', '77', '80', '82', '90', '91', '93', '101', '103', '105', '114', '118', '119', '125', '129', '130', '132', '134', '136', '141', '144', '147', '153', '154', '164', '165', '168', '169', '170', '171', '172', '173', '175', '177', '179', '182', '183', '184', '186', '190', '192', '195', '196', '197', '199', '200', '205', '210', '217', '218', '219', '221', '222', '223', '224', '228', '229', '230', '233', '234', '237', '239', '240', '248', '250', '255', '259', '261', '262', '263', '272', '277', '279', '281', '282', '285', '286', '288', '289', '292', '294', '299', '300', '302', '303', '304', '305', '308', '315', '317', '320', '322', '325', '328', '330', '331', '335', '341', '347', '348', '349', '350', '353', '355', '356', '357', '359', '362', '364', '365', '379', '384', '388', '389', '392', '394', '396', '398', '401', '402', '405', '408', '411', '414', '415', '417', '421', '426', '427', '429', '431', '433', '434', '438', '446', '447', '451', '456', '459', '462', '465', '470', '473', '475', '477', '480', '481', '483', '490', '497', '500', '501', '504', '507', '508', '512', '519', '520', '522', '523', '530', '535', '539', '542', '545', '546', '547', '551', '555', '562', '567', '568', '579', '583', '584', '586', '589', '590', '592', '593', '594', '595', '597', '598', '601', '605', '606', '607', '608', '612', '614', '615', '618', '619', '620', '631', '633', '634', '637', '638', '639', '642', '643', '644', '645', '646', '649', '654', '655', '656', '658', '664', '667', '670', '674', '691', '692', '694', '698', '699', '701', '703', '705', '709', '710', '711', '713', '720', '729', '731', '732', '733', '734', '738', '739', '741', '742', '746', '748', '750', '751', '754', '756', '757', '758', '759', '761', '762', '764', '768', '769', '772', '773', '776', '777', '780', '781', '786', '787', '792', '795', '798', '800', '801', '807', '808', '812', '813', '814', '821', '825', '826', '832', '834', '835', '836', '840', '844', '849', '850', '854', '856', '860', '864', '868', '871', '872', '873', '876', '880', '883', '884', '886', '890', '891', '893', '894', '895', '899', '901', '902', '903', '905', '908', '912', '914', '916', '919', '920', '928', '929', '931', '933', '935', '938', '941', '942', '948', '963', '966', '970', '972', '975', '977', '981', '987', '991', '994', '999', '1000', '1001', '1003', '1004', '1013', '1014', '1018', '1019', '1020', '1021', '1022', '1023', '1024', '1025', '1028', '1029', '1030', '1032', '1033', '1034', '1035', '1038', '1039', '1040', '1045', '1047', '1049', '1054', '1058', '1059', '1065', '1066', '1067', '1070', '1072', '1073', '1076', '1077', '1079', '1080', '1082', '1083', '1084', '1090', '1093', '1095', '1106', '1117', '1120', '1121', '1123', '1139', '1142', '1146', '1150', '1153', '1155', '1156', '1160', '1161', '1165', '1166', '1174', '1175', '1180', '1181', '1185', '1186', '1188', '1190', '1191', '1197', '1199', '1200', '1206', '1209', '1222', '1224', '1229', '1230', '1231', '1232', '1235', '1238', '1239', '1240', '1243', '1244', '1249', '1250', '1253', '1256', '1257', '1265', '1271', '1273', '1278', '1280', '1281', '1288', '1289', '1291', '1295', '1296', '1302', '1303', '1310', '1312', '1315', '1319', '1323', '1324', '1326', '1327', '1331', '1332', '1333', '1335', '1337', '1339', '1340', '1341', '1342', '1344', '1345', '1346', '1347', '1348', '1349', '1354', '1358', '1359', '1362', '1363', '1366', '1368', '1371', '1373', '1379', '1385', '1393', '1396', '1402', '1403', '1407', '1410', '1414', '1415', '1416', '1418', '1419', '1420', '1422', '1424', '1426', '1432', '1436', '1437', '1438', '1441', '1444', '1445', '1451', '1453', '1454', '1455', '1466', '1469', '1470', '1472', '1474', '1477', '1478', '1485', '1486', '1487', '1491', '1492', '1493', '1502', '1505', '1508', '1509', '1510', '1511', '1518', '1519', '1522', '1523', '1524', '1525', '1531', '1534', '1535', '1536', '1543', '1548', '1549', '1555', '1556', '1561', '1566', '1570', '1571', '1573', '1577', '1581', '1595', '1597', '1598', '1600', '1602', '1605', '1610', '1611', '1612', '1616', '1619', '1620', '1625', '1628', '1632', '1637', '1648', '1653', '1654', '1655', '1656', '1661', '1662', '1665', '1666', '1668', '1669', '1673', '1678', '1682', '1685', '1686', '1690', '1691', '1695', '1696', '1697', '1698', '1699', '1700', '1701', '1703', '1707', '1709', '1712', '1713', '1716', '1717', '1719', '1724', '1726', '1728', '1729', '1733', '1735', '1742', '1746', '1751', '1752', '1755', '1760', '1762', '1772', '1775', '1779', '1780', '1781', '1793', '1797', '1799', '1805', '1806', '1807', '1809', '1818', '1820', '1824', '1826', '1830', '1834', '1837', '1838', '1840', '1844', '1847', '1848', '1850', '1851', '1854', '1855', '1857', '1858', '1860', '1862', '1864', '1867', '1870', '1877', '1882', '1883', '1884', '1886', '1890', '1895', '1896', '1900', '1902', '1903', '1908', '1910', '1911', '1918', '1919', '1929', '1935', '1937', '1938', '1939', '1941', '1942', '1946', '1949', '1959', '1961', '1964', '1965', '1971', '1976', '1977', '1978', '1981', '1983', '1987', '1989', '1990', '1993', '1997']",True,1000,True,2,614ce83dd8,0.0,0.0,0.0
./expes/v2_2021-03-23_issda-30_2000-prng-1-w1-p2,30_issda-2000,2000,first-2000,500,25,rng,num-start-3200,3200,25726,classic,1324.9638333320618,True,,False,1.0,1.0,1.0,1,"['1', '3', '9', '12', '13', '19', '21', '23', '27', '29', '30', '35', '42', '44', '45', '46', '47', '54', '57', '58', '63', '67', '68', '75', '78', '80', '88', '89', '90', '91', '96', '99', '106', '108', '113', '114', '116', '119', '120', '122', '133', '135', '146', '153', '157', '161', '162', '163', '164', '165', '169', '172', '177', '184', '186', '189', '191', '199', '205', '207', '212', '214', '220', '222', '223', '233', '236', '238', '241', '249', '252', '254', '255', '257', '258', '269', '274', '280', '290', '291', '294', '295', '301', '302', '304', '309', '313', '314', '316', '317', '319', '324', '337', '342', '344', '352', '353', '354', '357', '365', '373', '379', '381', '389', '391', '395', '397', '400', '406', '417', '421', '424', '428', '429', '430', '434', '436', '443', '448', '452', '454', '456', '457', '459', '460', '461', '465', '467', '471', '476', '481', '483', '487', '488', '490', '491', '495', '498', '501', '520', '523', '524', '529', '531', '533', '535', '538', '548', '549', '552', '558', '560', '580', '582', '584', '588', '594', '601', '603', '605', '607', '608', '610', '619', '620', '621', '624', '625', '629', '633', '635', '636', '642', '643', '647', '649', '655', '656', '660', '683', '686', '687', '689', '700', '705', '706', '713', '715', '716', '725', '726', '741', '743', '747', '757', '765', '766', '767', '771', '773', '785', '786', '787', '792', '796', '802', '805', '808', '810', '811', '819', '820', '823', '825', '826', '827', '829', '830', '832', '834', '836', '837', '838', '839', '840', '843', '844', '845', '852', '854', '856', '858', '861', '867', '874', '876', '880', '887', '889', '894', '904', '906', '910', '912', '915', '916', '917', '922', '929', '931', '934', '936', '944', '946', '947', '952', '956', '961', '966', '968', '972', '973', '978', '985', '986', '988', '1000', '1004', '1005', '1007', '1013', '1016', '1017', '1022', '1023', '1027', '1030', '1032', '1046', '1047', '1052', '1053', '1058', '1059', '1062', '1072', '1077', '1089', '1095', '1097', '1101', '1105', '1110', '1133', '1134', '1153', '1157', '1162', '1171', '1173', '1176', '1186', '1189', '1193', '1202', '1208', '1209', '1215', '1216', '1219', '1224', '1227', '1234', '1235', '1237', '1242', '1243', '1250', '1252', '1255', '1256', '1258', '1260', '1264', '1277', '1281', '1282', '1284', '1287', '1288', '1293', '1296', '1301', '1307', '1308', '1312', '1313', '1317', '1320', '1332', '1335', '1337', '1339', '1341', '1343', '1347', '1349', '1351', '1353', '1358', '1364', '1365', '1366', '1367', '1369', '1370', '1392', '1395', '1397', '1407', '1411', '1413', '1415', '1417', '1421', '1429', '1432', '1433', '1434', '1441', '1449', '1450', '1457', '1463', '1472', '1474', '1477', '1483', '1485', '1487', '1491', '1496', '1500', '1508', '1510', '1512', '1521', '1522', '1523', '1533', '1536', '1540', '1542', '1547', '1553', '1559', '1564', '1568', '1576', '1583', '1584', '1586', '1598', '1603', '1604', '1605', '1610', '1612', '1614', '1616', '1617', '1619', '1630', '1635', '1636', '1647', '1651', '1652', '1655', '1664', '1667', '1669', '1671', '1674', '1677', '1686', '1692', '1693', '1694', '1700', '1704', '1706', '1711', '1721', '1722', '1725', '1726', '1727', '1732', '1735', '1736', '1738', '1741', '1750', '1763', '1771', '1772', '1773', '1777', '1778', '1788', '1795', '1809', '1810', '1811', '1814', '1820', '1830', '1836', '1837', '1842', '1843', '1849', '1855', '1857', '1875', '1882', '1883', '1884', '1886', '1892', '1895', '1901', '1905', '1908', '1915', '1927', '1932', '1933', '1942', '1943', '1949', '1950', '1952', '1953', '1959', '1961', '1962', '1965', '1971', '1976', '1979', '1981', '1983', '1985', '1988', '1989', '1991', '1995', '1996']",True,1000,True,2,58462716d3,0.0,0.0,1.0
./expes/v2_2021-03-23_issda-30_2000-prng-1-w1-p2,30_issda-2000,2000,first-2000,400,20,rng,num-start-400,400,25726,classic,1039.7562494277954,False,,False,0,,,0,"['2', '8', '11', '14', '17', '18', '25', '27', '31', '36', '38', '49', '53', '54', '59', '60', '61', '62', '70', '71', '74', '84', '85', '89', '97', '100', '104', '106', '108', '109', '111', '113', '124', '125', '130', '132', '133', '135', '136', '137', '141', '142', '153', '155', '166', '167', '170', '171', '172', '173', '174', '178', '180', '182', '192', '197', '204', '205', '209', '212', '213', '218', '223', '226', '227', '228', '229', '230', '242', '246', '247', '249', '263', '266', '272', '273', '282', '283', '284', '285', '289', '292', '298', '304', '305', '306', '322', '332', '333', '337', '345', '347', '351', '354', '355', '361', '372', '382', '388', '394', '405', '406', '408', '409', '411', '416', '420', '428', '430', '431', '438', '453', '455', '456', '460', '473', '474', '484', '485', '488', '498', '499', '509', '531', '538', '539', '547', '548', '550', '553', '562', '567', '569', '576', '584', '595', '597', '603', '607', '616', '630', '633', '659', '666', '674', '677', '684', '685', '693', '700', '709', '712', '715', '727', '749', '750', '757', '761', '763', '764', '765', '776', '777', '782', '785', '786', '791', '796', '797', '813', '816', '822', '824', '825', '833', '840', '843', '861', '864', '866', '870', '871', '878', '888', '893', '910', '920', '923', '925', '926', '929', '936', '940', '949', '950', '958', '964', '971', '973', '980', '985', '988', '1004', '1007', '1008', '1013', '1016', '1018', '1019', '1026', '1030', '1035', '1037', '1045', '1060', '1070', '1073', '1080', '1084', '1097', '1101', '1106', '1111', '1115', '1118', '1121', '1124', '1136', '1137', '1139', '1146', '1148', '1151', '1158', '1160', '1174', '1176', '1177', '1179', '1186', '1188', '1190', '1197', '1199', '1205', '1206', '1209', '1210', '1212', '1215', '1223', '1224', '1235', '1239', '1242', '1243', '1245', '1246', '1247', '1248', '1252', '1253', '1256', '1263', '1275', '1280', '1284', '1290', '1300', '1305', '1309', '1315', '1317', '1322', '1327', '1334', '1359', '1368', '1375', '1381', '1386', '1389', '1391', '1400', '1409', '1410', '1419', '1426', '1433', '1434', '1436', '1441', '1442', '1445', '1452', '1453', '1466', '1474', '1476', '1485', '1487', '1490', '1492', '1495', '1508', '1510', '1511', '1518', '1527', '1528', '1529', '1531', '1542', '1558', '1566', '1567', '1581', '1583', '1586', '1587', '1589', '1593', '1598', '1599', '1604', '1606', '1611', '1618', '1625', '1628', '1631', '1636', '1638', '1645', '1654', '1658', '1659', '1669', '1681', '1686', '1706', '1728', '1732', '1733', '1743', '1745', '1746', '1760', '1762', '1770', '1775', '1777', '1780', '1786', '1791', '1794', '1797', '1800', '1801', '1803', '1806', '1816', '1817', '1818', '1821', '1822', '1828', '1829', '1834', '1835', '1840', '1856', '1857', '1863', '1867', '1880', '1883', '1887', '1891', '1893', '1918', '1922', '1925', '1928', '1938', '1939', '1940', '1948', '1949', '1954', '1957', '1958', '1963', '1970', '1972', '1975', '1980', '1984', '1998', '2000']",True,1000,True,2,05c05960f5,0.0,0.0,0.0
