expe,clients,clients_size,clients_subset,agg_size,agg_size_pc,method,days,days_size,days_total,noise_method,time,valid,valid_sum,success,score_avg,score_min,score_max,nsols,oracle,wall_hit,wall_time,pooled,pool_size,uuid,infeasible,optimal,valid_sums
./expes/v3_2021-02-24_hi_1000-prng-1-w1-fpa10-0.3-p100,30_issda-1000,1000,first-1000,100,10,rng,num-start-500,500,25726,fpa-09-10-0.3-20,51.57835030555725,False,,False,0.583720668389495,0.5708331511123159,0.5850636528668859,100,"['12', '18', '20', '38', '49', '57', '68', '76', '81', '103', '120', '144', '151', '156', '162', '177', '201', '212', '214', '229', '235', '237', '238', '245', '246', '270', '288', '294', '303', '313', '321', '323', '347', '353', '364', '365', '369', '377', '402', '405', '412', '415', '430', '431', '450', '462', '467', '473', '478', '480', '502', '503', '507', '515', '524', '534', '543', '547', '569', '579', '584', '592', '629', '662', '698', '708', '711', '712', '726', '737', '743', '745', '754', '796', '804', '817', '819', '825', '830', '859', '861', '865', '877', '878', '879', '885', '896', '901', '909', '914', '935', '944', '945', '948', '953', '958', '961', '968', '983', '989']",False,1000,True,100,122fb97309,0.0,1.0,0.0
./expes/v3_2021-02-24_hi_1000-prng-1-w1-fpa10-0.3-p100,30_issda-1000,1000,first-1000,450,45,rng,num-start-300,300,25726,fpa-09-10-0.3-20,28.877392292022705,False,,False,0.2860648041039714,0.2841002077717073,0.3082786120998726,100,"['3', '5', '6', '8', '13', '16', '17', '26', '32', '33', '34', '36', '37', '38', '39', '43', '44', '45', '46', '48', '49', '51', '52', '54', '55', '57', '62', '65', '67', '68', '72', '74', '76', '78', '80', '82', '83', '86', '91', '92', '95', '97', '98', '99', '100', '102', '103', '109', '110', '112', '116', '119', '120', '121', '122', '123', '137', '138', '140', '143', '145', '147', '150', '154', '156', '157', '158', '161', '162', '163', '165', '167', '169', '170', '171', '173', '176', '178', '179', '180', '181', '183', '187', '191', '192', '195', '196', '197', '199', '200', '201', '205', '207', '212', '213', '214', '215', '226', '229', '230', '235', '241', '242', '244', '245', '246', '247', '248', '249', '251', '252', '253', '256', '261', '266', '269', '270', '273', '274', '279', '282', '284', '285', '290', '291', '293', '297', '298', '302', '304', '309', '310', '311', '314', '316', '319', '322', '328', '330', '331', '333', '335', '336', '337', '340', '348', '350', '352', '354', '356', '357', '358', '359', '363', '364', '369', '370', '372', '374', '375', '376', '383', '384', '385', '386', '391', '392', '394', '396', '398', '400', '402', '406', '407', '409', '411', '415', '416', '419', '423', '425', '426', '431', '432', '433', '434', '435', '437', '440', '444', '446', '447', '450', '451', '452', '453', '456', '457', '458', '459', '462', '463', '465', '467', '468', '470', '473', '474', '475', '478', '480', '482', '483', '486', '487', '489', '491', '492', '495', '497', '502', '504', '508', '509', '512', '514', '519', '520', '523', '524', '526', '533', '534', '535', '536', '538', '546', '547', '549', '550', '552', '553', '555', '558', '563', '564', '569', '570', '573', '578', '579', '581', '584', '586', '589', '590', '591', '592', '593', '594', '596', '597', '599', '602', '603', '606', '608', '610', '612', '613', '616', '617', '618', '619', '620', '621', '622', '623', '625', '629', '633', '634', '635', '643', '644', '650', '652', '653', '654', '655', '656', '657', '658', '659', '665', '666', '668', '669', '670', '674', '677', '678', '681', '682', '683', '687', '690', '691', '692', '694', '698', '701', '703', '704', '707', '709', '711', '712', '714', '715', '719', '724', '730', '736', '738', '740', '741', '744', '752', '754', '758', '759', '762', '763', '764', '768', '770', '771', '778', '781', '782', '783', '786', '787', '790', '791', '792', '794', '795', '796', '797', '802', '806', '808', '809', '810', '813', '817', '819', '821', '824', '825', '827', '829', '830', '831', '832', '833', '837', '838', '841', '843', '844', '845', '847', '848', '849', '850', '854', '856', '857', '863', '865', '868', '869', '870', '871', '872', '874', '876', '880', '881', '883', '884', '886', '887', '891', '892', '893', '896', '900', '901', '903', '909', '910', '911', '912', '913', '915', '919', '920', '923', '927', '928', '929', '930', '932', '933', '935', '936', '937', '942', '943', '944', '945', '947', '955', '956', '958', '959', '964', '966', '969', '971', '973', '974', '976', '978', '979', '980', '983', '984', '986', '987', '988', '992', '993', '994', '998', '999']",False,1000,True,100,a4f4f45056,0.0,1.0,0.0
./expes/v3_2021-02-24_hi_1000-prng-1-w1-fpa10-0.3-p100,30_issda-1000,1000,first-1000,450,45,rng,num-start-200,200,25726,fpa-09-10-0.3-20,20.995667457580566,False,,False,0.2822330208114403,0.2785289191377658,0.317016496197407,100,"['2', '4', '5', '6', '8', '10', '11', '14', '19', '21', '24', '27', '28', '33', '36', '37', '38', '42', '43', '44', '45', '46', '48', '53', '55', '57', '61', '62', '64', '69', '77', '78', '79', '80', '81', '82', '84', '85', '88', '89', '91', '92', '93', '96', '98', '100', '101', '104', '106', '109', '114', '116', '117', '118', '119', '120', '122', '124', '126', '131', '137', '140', '143', '145', '146', '148', '149', '153', '154', '157', '159', '161', '163', '166', '167', '169', '170', '172', '173', '174', '177', '179', '181', '182', '183', '184', '185', '187', '189', '193', '196', '197', '199', '200', '201', '203', '204', '206', '207', '208', '211', '213', '214', '216', '217', '220', '221', '224', '225', '228', '235', '238', '239', '240', '242', '244', '248', '249', '252', '254', '255', '256', '257', '258', '260', '261', '264', '265', '266', '267', '268', '269', '275', '276', '279', '283', '284', '285', '287', '288', '293', '296', '297', '298', '299', '300', '301', '304', '305', '308', '310', '311', '313', '318', '319', '320', '321', '323', '329', '330', '331', '332', '333', '335', '338', '339', '340', '345', '346', '347', '349', '352', '356', '359', '365', '366', '368', '369', '371', '372', '373', '374', '375', '381', '382', '391', '397', '398', '400', '402', '405', '406', '410', '412', '413', '414', '420', '421', '422', '423', '424', '426', '428', '431', '432', '433', '434', '435', '439', '441', '442', '444', '445', '447', '450', '451', '452', '453', '455', '463', '465', '466', '471', '474', '476', '479', '483', '484', '485', '490', '491', '496', '499', '501', '503', '504', '507', '509', '511', '519', '521', '525', '532', '533', '534', '536', '537', '539', '540', '541', '542', '548', '550', '555', '557', '558', '559', '560', '561', '563', '564', '572', '575', '576', '579', '582', '583', '584', '586', '587', '590', '597', '599', '603', '609', '610', '612', '614', '616', '619', '621', '622', '623', '625', '628', '631', '633', '635', '636', '638', '642', '643', '644', '648', '650', '651', '653', '657', '658', '662', '663', '664', '668', '669', '670', '671', '673', '678', '684', '685', '688', '690', '692', '693', '694', '697', '703', '705', '713', '715', '718', '722', '724', '726', '728', '729', '733', '735', '739', '750', '753', '755', '763', '765', '773', '777', '784', '786', '787', '789', '790', '791', '793', '794', '796', '799', '802', '803', '804', '806', '807', '810', '813', '817', '818', '819', '820', '821', '824', '827', '829', '830', '833', '835', '838', '839', '847', '848', '849', '850', '851', '855', '857', '858', '860', '861', '866', '868', '869', '876', '877', '879', '880', '881', '883', '885', '886', '887', '889', '891', '892', '895', '896', '898', '899', '900', '901', '902', '903', '904', '905', '907', '911', '913', '914', '916', '918', '921', '922', '923', '924', '926', '927', '930', '931', '934', '935', '936', '938', '939', '940', '945', '947', '950', '951', '953', '958', '959', '960', '963', '964', '965', '966', '967', '968', '973', '974', '977', '978', '980', '983', '984', '985', '986', '988', '990', '992', '994', '995', '998']",False,1000,True,100,4c67205927,0.0,1.0,0.0
./expes/v3_2021-02-24_hi_1000-prng-1-w1-fpa10-0.3-p100,30_issda-1000,1000,first-1000,250,25,rng,num-start-600,600,25726,fpa-09-10-0.3-20,68.63347911834717,False,,False,0.3995886350040486,0.3784001396506058,0.4030440917820175,100,"['8', '12', '14', '16', '21', '22', '23', '28', '30', '32', '33', '37', '44', '46', '47', '62', '63', '65', '66', '68', '69', '79', '91', '100', '105', '106', '107', '108', '111', '122', '128', '134', '135', '137', '138', '140', '142', '155', '156', '160', '164', '168', '182', '190', '192', '197', '203', '217', '223', '228', '238', '240', '242', '244', '245', '258', '265', '266', '270', '271', '274', '276', '278', '286', '287', '292', '299', '301', '306', '308', '309', '311', '318', '321', '322', '323', '328', '330', '335', '336', '339', '341', '342', '345', '348', '353', '360', '362', '369', '373', '375', '379', '386', '387', '396', '397', '400', '405', '407', '418', '421', '426', '432', '438', '442', '446', '447', '448', '456', '468', '472', '478', '481', '482', '485', '486', '488', '494', '496', '502', '507', '513', '518', '520', '533', '534', '536', '547', '549', '554', '555', '558', '562', '563', '565', '573', '583', '586', '588', '591', '594', '595', '599', '600', '601', '604', '606', '607', '610', '615', '616', '619', '620', '621', '624', '626', '630', '631', '636', '641', '642', '643', '644', '648', '649', '650', '651', '655', '660', '666', '670', '672', '688', '689', '693', '695', '696', '698', '699', '701', '707', '713', '715', '716', '724', '731', '732', '733', '735', '736', '737', '738', '746', '753', '756', '760', '777', '780', '788', '791', '796', '798', '799', '807', '808', '820', '821', '824', '831', '833', '844', '852', '854', '857', '858', '865', '875', '876', '877', '882', '883', '887', '888', '889', '891', '894', '900', '903', '919', '926', '927', '931', '938', '940', '943', '944', '945', '949', '952', '959', '964', '972', '978', '981', '982', '987', '988', '989', '995', '997']",False,1000,True,100,c21f27fe99,0.0,1.0,0.0
./expes/v3_2021-02-24_hi_1000-prng-1-w1-fpa10-0.3-p100,30_issda-1000,1000,first-1000,350,35,rng,num-start-800,800,25726,fpa-09-10-0.3-20,79.52537298202515,False,,False,0.34093429396583297,0.3184837019817762,0.3439280295345407,100,"['1', '2', '4', '6', '10', '12', '14', '19', '23', '24', '29', '30', '33', '34', '36', '37', '38', '43', '48', '50', '54', '56', '58', '59', '61', '65', '67', '68', '74', '81', '83', '92', '94', '95', '98', '105', '110', '111', '114', '116', '118', '122', '130', '134', '136', '137', '143', '145', '146', '150', '151', '152', '153', '161', '164', '166', '170', '171', '173', '174', '176', '177', '181', '182', '183', '184', '185', '186', '187', '190', '199', '201', '202', '204', '210', '213', '214', '215', '221', '222', '225', '232', '244', '252', '253', '256', '257', '262', '263', '271', '272', '278', '279', '281', '283', '286', '287', '288', '290', '296', '297', '299', '301', '302', '303', '306', '309', '310', '314', '317', '318', '320', '322', '324', '325', '326', '334', '340', '343', '347', '348', '349', '353', '354', '357', '359', '360', '364', '365', '366', '367', '368', '370', '371', '372', '373', '374', '375', '377', '381', '382', '383', '386', '387', '390', '393', '399', '414', '416', '418', '419', '420', '424', '425', '426', '427', '429', '431', '432', '444', '445', '452', '456', '461', '464', '465', '467', '474', '475', '477', '481', '482', '483', '484', '486', '489', '491', '493', '495', '496', '498', '500', '504', '506', '512', '513', '515', '525', '526', '528', '529', '531', '535', '538', '543', '545', '547', '553', '557', '559', '561', '562', '563', '564', '567', '573', '578', '588', '593', '595', '601', '602', '604', '605', '609', '611', '616', '618', '626', '627', '629', '632', '633', '636', '638', '639', '640', '641', '642', '643', '646', '647', '653', '654', '660', '663', '665', '666', '667', '668', '679', '680', '682', '685', '687', '688', '690', '695', '703', '705', '706', '708', '709', '712', '714', '720', '722', '725', '734', '736', '737', '738', '739', '748', '749', '750', '756', '758', '759', '760', '767', '768', '774', '778', '781', '785', '789', '793', '794', '795', '800', '801', '805', '807', '815', '817', '818', '821', '837', '838', '839', '840', '842', '847', '849', '852', '856', '857', '859', '861', '862', '864', '866', '873', '875', '877', '881', '888', '889', '890', '891', '893', '894', '898', '914', '915', '916', '919', '923', '924', '925', '939', '941', '945', '946', '947', '952', '959', '960', '961', '962', '964', '965', '966', '969', '973', '975', '978', '979', '980', '983', '984', '985', '988', '989', '990', '992', '996', '999', '1000']",False,1000,True,100,b9269a0482,0.0,1.0,0.0
./expes/v3_2021-02-24_hi_1000-prng-1-w1-fpa10-0.3-p100,30_issda-1000,1000,first-1000,300,30,rng,num-start-500,500,25726,fpa-09-10-0.3-20,52.226377964019775,False,,False,0.3710910233689246,0.3531472977420451,0.37358768180024393,100,"['6', '9', '10', '11', '13', '16', '19', '20', '22', '27', '28', '29', '30', '31', '51', '52', '53', '54', '55', '56', '60', '62', '64', '66', '71', '77', '80', '84', '88', '96', '97', '101', '102', '109', '113', '114', '116', '120', '126', '127', '133', '141', '142', '144', '146', '155', '166', '168', '174', '175', '177', '179', '184', '188', '189', '193', '194', '197', '198', '201', '202', '204', '209', '216', '217', '218', '219', '224', '228', '231', '235', '237', '245', '248', '255', '257', '258', '259', '265', '269', '270', '272', '274', '276', '280', '283', '285', '297', '302', '303', '309', '311', '313', '315', '317', '318', '320', '321', '324', '326', '327', '337', '339', '341', '344', '345', '346', '356', '357', '364', '365', '366', '369', '373', '375', '377', '382', '384', '394', '401', '403', '410', '412', '413', '414', '416', '418', '419', '420', '425', '427', '430', '433', '439', '444', '445', '456', '457', '460', '461', '464', '467', '471', '475', '479', '484', '486', '487', '489', '492', '495', '497', '499', '514', '517', '519', '520', '529', '531', '532', '535', '536', '538', '540', '546', '550', '552', '553', '554', '556', '557', '563', '565', '567', '568', '569', '570', '571', '573', '578', '582', '586', '589', '590', '592', '593', '594', '596', '601', '605', '606', '613', '615', '619', '627', '628', '636', '642', '649', '652', '655', '656', '665', '674', '675', '678', '684', '693', '699', '701', '703', '708', '717', '721', '722', '723', '728', '733', '742', '743', '747', '750', '757', '763', '765', '766', '767', '770', '771', '772', '773', '778', '784', '785', '790', '793', '797', '799', '802', '806', '811', '814', '821', '822', '825', '827', '831', '832', '833', '835', '837', '840', '841', '845', '847', '849', '853', '858', '860', '863', '867', '871', '877', '880', '881', '889', '897', '904', '910', '912', '915', '919', '921', '924', '928', '930', '931', '932', '939', '940', '943', '947', '949', '953', '963', '965', '968', '975', '979', '981', '983', '984', '985', '988', '991', '994', '996', '997', '998', '999']",False,1000,True,100,0573f39556,0.0,1.0,0.0
./expes/v3_2021-02-24_hi_1000-prng-1-w1-fpa10-0.3-p100,30_issda-1000,1000,first-1000,350,35,rng,num-start-600,600,25726,fpa-09-10-0.3-20,60.00735306739807,False,,False,0.3175038674052556,0.31409149992840113,0.33333333333333337,100,"['2', '5', '6', '9', '17', '19', '20', '21', '22', '25', '26', '29', '32', '33', '35', '37', '38', '42', '45', '47', '51', '53', '58', '59', '61', '62', '70', '76', '78', '79', '83', '85', '87', '90', '94', '96', '97', '99', '103', '104', '105', '108', '109', '114', '116', '118', '119', '122', '125', '131', '135', '140', '144', '148', '155', '156', '158', '161', '163', '165', '166', '169', '171', '174', '175', '177', '178', '181', '182', '186', '187', '189', '196', '197', '204', '213', '214', '216', '218', '223', '225', '228', '231', '233', '234', '237', '238', '239', '242', '247', '251', '253', '254', '256', '257', '258', '260', '261', '262', '263', '266', '269', '271', '273', '275', '280', '286', '292', '293', '297', '311', '314', '316', '317', '318', '320', '324', '327', '333', '336', '346', '350', '353', '354', '360', '363', '369', '370', '371', '372', '373', '375', '376', '381', '382', '383', '390', '394', '395', '402', '403', '405', '410', '412', '417', '419', '421', '423', '425', '429', '430', '434', '436', '442', '445', '456', '457', '459', '460', '463', '465', '466', '468', '473', '475', '476', '477', '485', '492', '498', '499', '501', '502', '503', '511', '513', '515', '517', '520', '521', '522', '523', '524', '525', '527', '528', '531', '532', '534', '535', '536', '538', '539', '544', '549', '558', '565', '571', '572', '574', '576', '582', '586', '589', '596', '599', '603', '604', '606', '608', '620', '621', '622', '626', '629', '631', '632', '637', '639', '640', '643', '651', '653', '654', '658', '668', '669', '671', '675', '677', '678', '680', '686', '687', '689', '691', '698', '699', '701', '702', '704', '707', '709', '717', '723', '724', '726', '727', '732', '733', '734', '735', '741', '742', '744', '747', '749', '753', '754', '757', '758', '761', '763', '766', '769', '772', '773', '774', '778', '779', '782', '785', '792', '794', '800', '804', '808', '809', '811', '814', '816', '819', '820', '822', '823', '826', '829', '832', '833', '835', '841', '845', '846', '852', '856', '859', '861', '870', '875', '880', '881', '884', '892', '896', '897', '898', '902', '903', '904', '905', '906', '909', '911', '914', '916', '920', '922', '923', '924', '925', '929', '930', '931', '934', '938', '939', '941', '943', '944', '948', '952', '955', '957', '958', '959', '961', '964', '967', '971', '973', '978', '979', '981', '982', '983', '984', '985', '987', '994', '995']",False,1000,True,100,aa53310454,0.0,1.0,0.0
./expes/v3_2021-02-24_hi_1000-prng-1-w1-fpa10-0.3-p100,30_issda-1000,1000,first-1000,200,20,rng,num-start-300,300,25726,fpa-09-10-0.3-20,33.024630308151245,False,,False,0.44035559470443564,0.4183314188145123,0.44474482595088916,100,"['6', '7', '9', '19', '81', '90', '91', '95', '104', '118', '121', '126', '130', '133', '135', '137', '147', '149', '150', '152', '155', '156', '165', '167', '174', '177', '179', '186', '188', '195', '201', '203', '206', '207', '209', '212', '222', '226', '231', '241', '244', '246', '256', '260', '264', '266', '271', '272', '277', '278', '279', '289', '303', '307', '309', '311', '333', '343', '344', '347', '348', '351', '355', '361', '370', '375', '395', '403', '407', '410', '414', '415', '416', '417', '426', '427', '433', '434', '437', '445', '448', '460', '470', '481', '484', '489', '490', '492', '502', '504', '506', '508', '513', '520', '526', '527', '535', '540', '546', '548', '551', '555', '557', '558', '562', '566', '570', '572', '573', '582', '586', '587', '588', '590', '593', '603', '608', '615', '622', '626', '631', '644', '645', '647', '663', '664', '668', '674', '678', '692', '694', '697', '698', '701', '703', '706', '709', '716', '719', '722', '725', '726', '734', '745', '748', '753', '757', '761', '775', '777', '781', '787', '788', '789', '791', '792', '803', '804', '807', '810', '812', '813', '814', '826', '827', '830', '831', '832', '837', '838', '844', '846', '848', '853', '856', '857', '860', '865', '867', '868', '875', '885', '887', '890', '895', '898', '906', '909', '913', '914', '921', '927', '933', '935', '946', '955', '967', '975', '991', '1000']",False,1000,True,100,79ed10452e,0.0,1.0,0.0
./expes/v3_2021-02-24_hi_1000-prng-1-w1-fpa10-0.3-p100,30_issda-1000,1000,first-1000,500,50,rng,num-start-200,200,25726,fpa-09-10-0.3-20,20.00211501121521,False,,False,0.2973825826945385,0.2911258909351375,0.301080484970917,100,"['4', '5', '7', '13', '14', '15', '18', '21', '23', '24', '27', '29', '32', '33', '34', '35', '36', '38', '39', '40', '41', '45', '47', '51', '53', '59', '60', '63', '65', '66', '67', '68', '71', '72', '74', '77', '82', '83', '84', '85', '86', '87', '88', '89', '90', '92', '93', '95', '96', '98', '100', '103', '105', '109', '110', '111', '112', '114', '115', '117', '120', '124', '125', '128', '130', '131', '136', '139', '141', '143', '144', '145', '146', '147', '152', '153', '154', '158', '159', '161', '163', '164', '165', '168', '171', '174', '175', '177', '178', '179', '180', '181', '182', '183', '190', '192', '195', '196', '197', '198', '199', '201', '203', '204', '206', '207', '211', '213', '215', '216', '217', '223', '224', '226', '228', '230', '231', '233', '235', '237', '238', '239', '240', '241', '242', '249', '250', '251', '252', '254', '256', '261', '262', '265', '271', '273', '274', '276', '278', '281', '284', '290', '292', '293', '295', '296', '297', '298', '299', '301', '303', '304', '306', '307', '308', '309', '310', '317', '320', '321', '322', '327', '328', '329', '332', '334', '335', '346', '347', '349', '351', '352', '353', '355', '356', '357', '360', '365', '366', '367', '369', '370', '371', '373', '374', '375', '376', '377', '378', '379', '380', '381', '382', '384', '385', '386', '387', '388', '389', '390', '391', '393', '394', '396', '398', '399', '400', '401', '404', '406', '407', '411', '413', '417', '418', '420', '422', '425', '427', '428', '430', '434', '436', '437', '438', '440', '442', '443', '445', '447', '448', '451', '453', '456', '457', '460', '464', '465', '467', '468', '469', '471', '474', '483', '485', '486', '488', '489', '491', '496', '497', '500', '501', '502', '507', '509', '510', '511', '512', '513', '514', '515', '516', '517', '518', '519', '520', '523', '525', '527', '529', '530', '533', '534', '537', '538', '539', '540', '541', '542', '545', '547', '548', '553', '559', '561', '570', '571', '573', '575', '577', '578', '580', '581', '583', '587', '588', '591', '593', '594', '595', '596', '599', '600', '603', '611', '615', '616', '619', '620', '622', '625', '627', '628', '629', '633', '636', '637', '639', '640', '641', '644', '646', '648', '651', '655', '658', '660', '662', '663', '664', '666', '667', '668', '669', '670', '671', '672', '673', '674', '675', '677', '679', '680', '684', '686', '687', '690', '693', '697', '701', '702', '704', '705', '707', '708', '709', '712', '716', '718', '719', '722', '723', '726', '727', '728', '733', '735', '736', '737', '739', '743', '744', '746', '747', '751', '753', '754', '755', '759', '761', '762', '763', '766', '767', '768', '772', '774', '778', '781', '783', '785', '786', '787', '799', '800', '801', '803', '806', '808', '810', '813', '816', '824', '827', '828', '831', '833', '834', '835', '837', '839', '841', '843', '845', '846', '848', '849', '850', '851', '852', '854', '855', '856', '857', '858', '859', '860', '862', '863', '864', '865', '867', '868', '871', '873', '876', '878', '880', '881', '886', '888', '890', '897', '899', '900', '903', '904', '905', '909', '910', '912', '913', '915', '917', '919', '922', '924', '925', '926', '927', '928', '929', '930', '931', '932', '934', '935', '939', '941', '942', '943', '945', '948', '950', '951', '952', '954', '955', '956', '959', '960', '965', '968', '969', '970', '971', '973', '981', '982', '983', '986', '988', '989', '991', '992', '994', '995', '997', '999']",False,1000,True,100,35e2891648,0.0,1.0,0.0
./expes/v3_2021-02-24_hi_1000-prng-1-w1-fpa10-0.3-p100,30_issda-1000,1000,first-1000,150,15,rng,num-start-500,500,25726,fpa-09-10-0.3-20,57.160484313964844,False,,False,0.4875614766702337,0.48399005216346236,0.5078188928430488,100,"['1', '5', '12', '16', '18', '21', '31', '37', '43', '54', '61', '62', '65', '69', '72', '75', '86', '88', '90', '93', '97', '104', '111', '120', '121', '135', '138', '146', '162', '182', '190', '191', '193', '195', '196', '201', '204', '215', '216', '218', '219', '236', '240', '248', '253', '261', '277', '285', '296', '298', '302', '311', '312', '319', '323', '335', '341', '345', '385', '393', '396', '405', '406', '407', '411', '417', '420', '430', '431', '452', '458', '459', '463', '464', '469', '476', '477', '482', '488', '499', '512', '521', '522', '525', '526', '532', '542', '552', '565', '573', '574', '577', '580', '602', '606', '607', '610', '615', '629', '631', '639', '645', '650', '656', '660', '666', '670', '671', '679', '692', '699', '702', '711', '724', '725', '726', '750', '757', '777', '785', '788', '797', '798', '800', '813', '817', '823', '824', '830', '852', '861', '863', '867', '868', '876', '878', '886', '887', '901', '907', '912', '933', '945', '947', '950', '955', '982', '988', '995', '999']",False,1000,True,100,5ac465729f,0.0,1.0,0.0
./expes/v3_2021-02-24_hi_1000-prng-1-w1-fpa10-0.3-p100,30_issda-1000,1000,first-1000,400,40,rng,num-start-100,100,25726,fpa-09-10-0.3-20,10.229306697845459,False,,False,0.29802413074195866,0.2939557389947154,0.3053904100269832,100,"['2', '3', '6', '9', '10', '13', '15', '18', '19', '22', '23', '25', '27', '29', '30', '31', '32', '34', '36', '37', '39', '41', '42', '45', '47', '49', '58', '61', '65', '67', '72', '73', '75', '79', '84', '86', '87', '89', '94', '97', '99', '102', '103', '105', '107', '111', '112', '113', '117', '118', '121', '124', '129', '133', '134', '137', '138', '139', '150', '151', '161', '163', '164', '165', '168', '171', '172', '173', '174', '175', '176', '178', '182', '186', '190', '191', '193', '195', '199', '205', '206', '211', '215', '218', '219', '222', '223', '225', '226', '228', '229', '230', '231', '233', '235', '236', '237', '238', '239', '241', '249', '256', '259', '260', '262', '265', '273', '274', '275', '276', '280', '284', '288', '289', '291', '297', '298', '299', '302', '303', '304', '306', '311', '314', '316', '318', '320', '326', '329', '330', '334', '336', '340', '341', '347', '348', '349', '350', '352', '353', '354', '355', '356', '362', '366', '374', '376', '377', '380', '384', '388', '389', '390', '391', '393', '396', '400', '403', '404', '405', '407', '412', '414', '415', '417', '424', '425', '427', '432', '433', '437', '440', '443', '444', '449', '450', '457', '461', '462', '464', '466', '469', '470', '471', '472', '481', '484', '486', '492', '493', '497', '500', '501', '502', '505', '508', '509', '512', '513', '515', '517', '518', '519', '520', '521', '522', '523', '525', '527', '529', '532', '534', '537', '541', '546', '548', '552', '553', '554', '555', '558', '561', '562', '564', '565', '567', '568', '570', '575', '577', '578', '579', '580', '583', '584', '585', '588', '590', '592', '593', '594', '599', '602', '604', '605', '606', '608', '615', '619', '621', '623', '624', '627', '628', '629', '630', '638', '639', '640', '645', '646', '647', '651', '658', '663', '664', '665', '666', '668', '673', '676', '680', '681', '682', '687', '690', '691', '692', '694', '695', '703', '704', '712', '713', '720', '721', '722', '729', '733', '737', '739', '742', '743', '744', '747', '748', '751', '756', '759', '761', '762', '773', '774', '778', '780', '781', '783', '786', '787', '789', '790', '795', '797', '798', '799', '801', '802', '803', '806', '808', '816', '817', '818', '822', '823', '824', '829', '831', '833', '837', '840', '841', '848', '849', '850', '853', '856', '858', '861', '862', '867', '868', '869', '871', '872', '874', '878', '879', '880', '881', '882', '887', '889', '891', '893', '897', '900', '903', '904', '908', '909', '913', '915', '918', '919', '922', '923', '924', '932', '933', '937', '939', '940', '943', '945', '948', '949', '954', '955', '959', '961', '962', '964', '967', '968', '973', '975', '976', '978', '981', '983', '986', '989', '991', '992', '993', '997', '998', '999', '1000']",False,1000,True,100,74969314e3,0.0,1.0,0.0
./expes/v3_2021-02-24_hi_1000-prng-1-w1-fpa10-0.3-p100,30_issda-1000,1000,first-1000,200,20,rng,num-start-100,100,25726,fpa-09-10-0.3-20,11.506890296936035,False,,False,0.4360358516526815,0.43050520254850055,0.43936258213145074,100,"['3', '5', '6', '16', '33', '34', '36', '37', '38', '45', '46', '52', '65', '67', '74', '78', '82', '83', '95', '99', '102', '112', '116', '123', '137', '138', '140', '143', '147', '154', '156', '161', '163', '165', '169', '170', '171', '179', '181', '183', '196', '200', '212', '230', '242', '245', '246', '248', '249', '252', '256', '266', '269', '274', '279', '282', '285', '291', '309', '310', '311', '322', '328', '333', '336', '340', '352', '356', '358', '359', '364', '370', '372', '375', '384', '385', '391', '394', '398', '400', '411', '415', '423', '425', '426', '431', '432', '440', '444', '446', '447', '450', '451', '452', '453', '457', '458', '459', '462', '465', '467', '468', '470', '473', '474', '482', '492', '495', '497', '502', '504', '508', '509', '512', '514', '533', '534', '535', '538', '547', '549', '550', '552', '555', '558', '563', '573', '581', '586', '592', '597', '599', '616', '617', '618', '622', '623', '629', '633', '665', '669', '670', '674', '677', '678', '683', '690', '691', '692', '698', '703', '719', '730', '744', '754', '764', '787', '791', '792', '794', '795', '797', '808', '819', '827', '831', '833', '838', '841', '844', '847', '849', '854', '863', '865', '876', '881', '883', '886', '891', '893', '915', '919', '920', '932', '933', '935', '943', '945', '947', '964', '966', '969', '971', '976', '987', '992', '993', '994', '998']",False,1000,True,100,096f977c68,0.0,1.0,0.0
./expes/v3_2021-02-24_hi_1000-prng-1-w1-fpa10-0.3-p100,30_issda-1000,1000,first-1000,450,45,rng,num-start-600,600,25726,fpa-09-10-0.3-20,57.87552547454834,False,,False,0.27864945993862344,0.2757593462636023,0.303950803114834,100,"['4', '5', '7', '13', '14', '18', '21', '23', '24', '27', '32', '34', '35', '38', '39', '40', '45', '47', '51', '53', '59', '60', '63', '65', '66', '67', '68', '71', '72', '74', '77', '82', '83', '84', '85', '86', '87', '88', '89', '90', '92', '93', '95', '96', '98', '100', '103', '109', '110', '111', '112', '114', '115', '117', '120', '124', '125', '130', '131', '136', '139', '141', '143', '144', '146', '152', '153', '154', '158', '159', '161', '163', '164', '165', '168', '171', '174', '175', '177', '179', '180', '181', '182', '183', '192', '195', '196', '197', '198', '199', '201', '203', '204', '206', '207', '211', '213', '215', '216', '217', '223', '224', '226', '228', '230', '231', '233', '235', '237', '238', '240', '241', '249', '250', '251', '252', '254', '256', '261', '262', '265', '271', '273', '274', '276', '278', '281', '284', '290', '292', '293', '295', '296', '297', '298', '299', '301', '303', '304', '306', '307', '308', '310', '317', '320', '322', '327', '328', '329', '332', '334', '335', '346', '347', '349', '351', '352', '353', '357', '360', '365', '366', '367', '369', '370', '371', '373', '375', '376', '377', '379', '380', '381', '385', '386', '387', '388', '389', '390', '391', '393', '394', '396', '398', '399', '400', '401', '404', '406', '407', '411', '413', '417', '418', '420', '422', '425', '427', '428', '430', '434', '437', '438', '442', '443', '445', '447', '448', '451', '453', '456', '457', '460', '464', '465', '467', '468', '469', '471', '474', '483', '485', '486', '488', '491', '497', '500', '501', '502', '507', '509', '510', '511', '512', '513', '514', '515', '516', '517', '518', '519', '520', '523', '525', '527', '529', '530', '533', '534', '537', '538', '539', '540', '541', '542', '545', '547', '548', '553', '559', '561', '570', '571', '573', '577', '578', '580', '581', '583', '587', '588', '593', '594', '595', '596', '599', '600', '603', '611', '615', '616', '619', '620', '622', '625', '627', '628', '629', '633', '636', '639', '640', '641', '648', '651', '655', '658', '660', '662', '663', '664', '666', '668', '669', '670', '671', '673', '674', '675', '677', '679', '680', '684', '686', '690', '693', '697', '701', '702', '704', '707', '708', '709', '712', '718', '719', '722', '723', '726', '728', '733', '735', '736', '737', '739', '743', '744', '746', '747', '751', '753', '754', '755', '759', '762', '763', '766', '767', '768', '774', '778', '781', '783', '785', '786', '799', '800', '801', '803', '806', '808', '810', '813', '816', '824', '827', '828', '831', '833', '834', '835', '837', '839', '841', '843', '845', '846', '849', '850', '851', '852', '854', '855', '856', '857', '858', '859', '860', '863', '864', '865', '867', '868', '871', '873', '876', '878', '880', '881', '886', '888', '890', '897', '900', '903', '904', '905', '909', '910', '913', '915', '917', '919', '922', '924', '925', '926', '927', '928', '929', '930', '931', '932', '934', '935', '939', '941', '942', '943', '945', '948', '950', '951', '954', '955', '959', '960', '965', '969', '973', '981', '982', '986', '989', '991', '992', '994', '995', '997', '999']",False,1000,True,100,e6ca4824cf,0.0,1.0,0.0
./expes/v3_2021-02-24_hi_1000-prng-1-w1-fpa10-0.3-p100,30_issda-1000,1000,first-1000,250,25,rng,num-start-700,700,25726,fpa-09-10-0.3-20,76.85234999656677,False,,False,0.39269016384050304,0.38487531477075443,0.404723295975431,100,"['2', '5', '9', '19', '22', '25', '26', '29', '32', '33', '37', '38', '42', '45', '47', '51', '58', '59', '61', '62', '70', '78', '85', '87', '94', '96', '105', '109', '116', '118', '131', '140', '144', '148', '156', '158', '161', '163', '166', '169', '171', '174', '177', '178', '181', '182', '187', '189', '196', '213', '216', '218', '228', '231', '233', '237', '242', '251', '254', '256', '258', '262', '266', '269', '271', '273', '275', '280', '286', '293', '311', '316', '317', '320', '324', '327', '333', '336', '346', '350', '353', '360', '363', '369', '370', '371', '372', '373', '376', '381', '383', '390', '395', '403', '410', '412', '417', '425', '430', '434', '442', '456', '457', '459', '460', '466', '468', '473', '477', '485', '492', '499', '501', '502', '511', '513', '515', '517', '520', '522', '523', '525', '527', '528', '531', '535', '536', '538', '539', '544', '558', '565', '571', '572', '574', '576', '582', '589', '596', '599', '603', '604', '606', '608', '620', '621', '622', '631', '632', '637', '639', '643', '654', '668', '669', '671', '675', '677', '678', '686', '689', '691', '698', '699', '701', '704', '709', '717', '723', '724', '733', '735', '741', '742', '744', '747', '749', '753', '754', '757', '758', '761', '763', '766', '773', '774', '778', '782', '785', '792', '800', '804', '808', '809', '814', '816', '819', '823', '829', '833', '835', '841', '845', '852', '856', '859', '870', '875', '880', '881', '884', '892', '896', '897', '898', '902', '904', '905', '906', '914', '916', '920', '922', '923', '924', '925', '929', '930', '931', '934', '938', '941', '943', '948', '955', '957', '959', '961', '964', '967', '971', '973', '978', '979', '981', '982', '983', '985', '994', '995']",False,1000,True,100,74cd86d01d,0.0,1.0,0.0
./expes/v3_2021-02-24_hi_1000-prng-1-w1-fpa10-0.3-p100,30_issda-1000,1000,first-1000,100,10,rng,num-start-500,500,25726,fpa-09-10-0.3-20,53.77264976501465,False,,False,0.5920348234792019,0.5731719524419907,0.5948282288162658,100,"['8', '21', '27', '45', '48', '61', '69', '84', '89', '92', '93', '106', '109', '159', '166', '169', '177', '183', '199', '200', '220', '228', '239', '242', '254', '255', '266', '267', '269', '279', '284', '287', '288', '296', '297', '299', '308', '311', '313', '318', '320', '346', '369', '382', '398', '406', '412', '424', '434', '442', '463', '474', '483', '485', '491', '519', '521', '532', '533', '548', '550', '561', '563', '587', '614', '621', '642', '643', '657', '664', '688', '718', '722', '739', '750', '784', '799', '817', '820', '827', '833', '838', '847', '849', '861', '866', '869', '876', '887', '889', '902', '904', '931', '940', '950', '958', '965', '966', '968', '984']",False,1000,True,100,7eda609716,0.0,1.0,0.0
./expes/v3_2021-02-24_hi_1000-prng-1-w1-fpa10-0.3-p100,30_issda-1000,1000,first-1000,400,40,rng,num-start-200,200,25726,fpa-09-10-0.3-20,21.857213258743286,False,,False,0.31484008725104673,0.30251416753708427,0.3184837019817762,100,"['2', '3', '6', '9', '10', '13', '15', '18', '19', '22', '23', '25', '27', '29', '30', '31', '32', '34', '36', '37', '39', '41', '42', '45', '47', '49', '58', '61', '65', '67', '72', '73', '75', '79', '84', '86', '87', '89', '94', '97', '99', '102', '103', '105', '107', '111', '112', '113', '117', '118', '121', '124', '129', '133', '134', '137', '138', '139', '150', '151', '161', '163', '164', '165', '168', '171', '172', '173', '174', '175', '176', '178', '182', '186', '190', '191', '193', '195', '199', '205', '206', '211', '215', '218', '219', '222', '223', '225', '226', '228', '229', '230', '231', '233', '235', '236', '237', '238', '239', '241', '249', '256', '259', '260', '262', '265', '273', '274', '275', '276', '280', '284', '288', '289', '291', '297', '298', '299', '302', '303', '304', '306', '311', '314', '316', '318', '320', '326', '329', '330', '334', '336', '340', '341', '347', '348', '349', '350', '352', '353', '354', '355', '356', '362', '366', '374', '376', '377', '380', '384', '388', '389', '390', '391', '393', '396', '400', '403', '404', '405', '407', '412', '414', '415', '417', '424', '425', '427', '432', '433', '437', '440', '443', '444', '449', '450', '457', '461', '462', '464', '466', '469', '470', '471', '472', '481', '484', '486', '492', '493', '497', '500', '501', '502', '505', '508', '509', '512', '513', '515', '517', '518', '519', '520', '521', '522', '523', '525', '527', '529', '532', '534', '537', '541', '546', '548', '552', '553', '554', '555', '558', '561', '562', '564', '565', '567', '568', '570', '575', '577', '578', '579', '580', '583', '584', '585', '588', '590', '592', '593', '594', '599', '602', '604', '605', '606', '608', '615', '619', '621', '623', '624', '627', '628', '629', '630', '638', '639', '640', '645', '646', '647', '651', '658', '663', '664', '665', '666', '668', '673', '676', '680', '681', '682', '687', '690', '691', '692', '694', '695', '703', '704', '712', '713', '720', '721', '722', '729', '733', '737', '739', '742', '743', '744', '747', '748', '751', '756', '759', '761', '762', '773', '774', '778', '780', '781', '783', '786', '787', '789', '790', '795', '797', '798', '799', '801', '802', '803', '806', '808', '816', '817', '818', '822', '823', '824', '829', '831', '833', '837', '840', '841', '848', '849', '850', '853', '856', '858', '861', '862', '867', '868', '869', '871', '872', '874', '878', '879', '880', '881', '882', '887', '889', '891', '893', '897', '900', '903', '904', '908', '909', '913', '915', '918', '919', '922', '923', '924', '932', '933', '937', '939', '940', '943', '945', '948', '949', '954', '955', '959', '961', '962', '964', '967', '968', '973', '975', '976', '978', '981', '983', '986', '989', '991', '992', '993', '997', '998', '999', '1000']",False,1000,True,100,fc5b356402,0.0,1.0,0.0
./expes/v3_2021-02-24_hi_1000-prng-1-w1-fpa10-0.3-p100,30_issda-1000,1000,first-1000,300,30,rng,num-start-200,200,25726,fpa-09-10-0.3-20,20.176520586013794,False,,False,0.3434711552526741,0.34240405077857083,0.34545555656744853,100,"['5', '8', '12', '14', '16', '21', '22', '23', '28', '30', '32', '33', '35', '37', '44', '46', '47', '62', '63', '65', '66', '68', '69', '79', '82', '88', '91', '100', '105', '106', '107', '108', '111', '122', '124', '128', '133', '134', '135', '137', '138', '140', '142', '155', '156', '160', '164', '168', '174', '182', '188', '190', '192', '196', '197', '203', '205', '217', '223', '224', '228', '230', '231', '238', '240', '242', '244', '245', '258', '265', '266', '270', '271', '274', '276', '278', '286', '287', '292', '298', '299', '301', '306', '308', '309', '311', '318', '321', '322', '323', '328', '330', '335', '336', '339', '341', '342', '345', '348', '349', '353', '354', '355', '360', '362', '369', '373', '375', '379', '386', '387', '396', '397', '400', '405', '407', '418', '420', '421', '424', '426', '427', '430', '432', '438', '442', '445', '446', '447', '448', '449', '456', '462', '468', '472', '476', '478', '481', '482', '485', '486', '488', '489', '494', '496', '502', '507', '513', '518', '520', '523', '531', '533', '534', '536', '543', '547', '549', '554', '555', '558', '562', '563', '565', '573', '582', '583', '586', '588', '589', '591', '594', '595', '599', '600', '601', '604', '606', '607', '610', '615', '616', '619', '620', '621', '624', '626', '630', '631', '635', '636', '638', '641', '642', '643', '644', '648', '649', '650', '651', '655', '658', '660', '666', '670', '672', '688', '689', '692', '693', '695', '696', '698', '699', '701', '707', '713', '715', '716', '724', '731', '732', '733', '735', '736', '737', '738', '746', '753', '756', '760', '777', '780', '788', '791', '796', '798', '799', '806', '807', '808', '813', '820', '821', '824', '826', '827', '830', '831', '833', '844', '848', '852', '853', '854', '857', '858', '859', '865', '871', '875', '876', '877', '882', '883', '885', '887', '888', '889', '891', '894', '900', '902', '903', '907', '919', '926', '927', '931', '938', '940', '943', '944', '945', '949', '952', '959', '964', '966', '972', '973', '978', '981', '982', '984', '987', '988', '989', '995', '997']",False,1000,True,100,96ac1ae281,0.0,1.0,0.0
