expe,clients,clients_size,clients_subset,agg_size,agg_size_pc,method,days,days_size,days_total,noise_method,time,valid,valid_sum,success,score_avg,score_min,score_max,nsols,oracle,wall_hit,wall_time,pooled,pool_size,uuid,infeasible,optimal,valid_sums
./expes/v3_2021-02-24_hi_1000-prng-1-w1-fpa10-0.3-p100,30_issda-1000,1000,first-1000,500,50,rng,num-start-100,100,25726,fpa-09-10-0.3-20,7.870769739151001,False,,False,0.28613382032408585,0.2827033288000601,0.2967969749108764,100,"['2', '4', '7', '8', '9', '12', '13', '14', '18', '20', '22', '23', '25', '26', '27', '28', '29', '30', '31', '32', '34', '38', '39', '41', '44', '45', '48', '51', '53', '54', '55', '58', '59', '61', '63', '64', '74', '75', '77', '80', '85', '86', '87', '90', '93', '94', '96', '100', '101', '105', '106', '109', '111', '113', '116', '117', '119', '121', '126', '127', '128', '129', '130', '133', '135', '138', '139', '140', '141', '142', '146', '147', '149', '151', '152', '159', '160', '165', '167', '168', '172', '174', '175', '176', '181', '183', '184', '185', '187', '188', '189', '194', '195', '197', '200', '201', '202', '203', '204', '205', '206', '207', '210', '211', '212', '214', '215', '216', '217', '218', '220', '226', '228', '229', '230', '232', '233', '234', '235', '236', '238', '241', '245', '246', '248', '252', '254', '256', '258', '259', '261', '262', '265', '266', '268', '269', '270', '273', '275', '276', '278', '281', '284', '285', '286', '287', '289', '290', '292', '293', '299', '301', '304', '306', '313', '315', '316', '318', '319', '320', '321', '324', '326', '329', '330', '331', '332', '336', '338', '341', '344', '345', '346', '348', '349', '350', '351', '353', '356', '357', '359', '362', '363', '365', '368', '369', '370', '371', '372', '373', '374', '375', '376', '377', '378', '381', '384', '388', '389', '391', '394', '395', '398', '399', '401', '403', '404', '405', '410', '411', '415', '416', '417', '418', '419', '423', '425', '426', '428', '429', '431', '434', '435', '438', '440', '441', '442', '443', '444', '446', '447', '451', '455', '456', '460', '467', '468', '471', '472', '476', '479', '481', '484', '486', '487', '488', '489', '493', '495', '497', '498', '499', '500', '502', '504', '505', '507', '511', '512', '513', '514', '515', '516', '518', '520', '522', '524', '526', '527', '528', '529', '530', '532', '534', '536', '540', '541', '542', '548', '550', '551', '553', '555', '557', '558', '560', '562', '563', '564', '568', '569', '571', '572', '574', '577', '579', '584', '585', '587', '591', '595', '602', '603', '608', '609', '611', '614', '615', '616', '617', '622', '623', '624', '626', '631', '632', '633', '634', '637', '638', '640', '643', '645', '648', '650', '651', '653', '654', '655', '656', '657', '659', '666', '668', '669', '672', '674', '675', '676', '677', '678', '680', '683', '684', '685', '686', '690', '692', '695', '696', '698', '699', '700', '701', '702', '703', '704', '705', '706', '707', '708', '711', '713', '714', '715', '716', '718', '722', '723', '728', '733', '734', '737', '739', '744', '749', '750', '752', '753', '754', '757', '760', '765', '767', '772', '775', '776', '778', '779', '780', '781', '784', '785', '788', '790', '791', '793', '794', '803', '804', '805', '807', '808', '809', '811', '812', '813', '815', '816', '817', '818', '820', '821', '823', '826', '827', '829', '830', '831', '833', '835', '836', '839', '840', '841', '843', '846', '851', '852', '854', '856', '857', '860', '861', '863', '864', '866', '870', '874', '876', '877', '880', '881', '883', '884', '886', '887', '890', '894', '895', '901', '903', '904', '906', '907', '908', '909', '915', '916', '918', '919', '920', '923', '925', '926', '928', '933', '934', '937', '938', '939', '941', '943', '946', '947', '948', '949', '950', '956', '957', '958', '959', '963', '964', '967', '970', '971', '973', '976', '979', '980', '982', '984', '986', '988', '989', '991', '995', '996', '1000']",False,1000,True,100,8e1b878749,0.0,1.0,0.0
./expes/v3_2021-02-24_hi_1000-prng-1-w1-fpa10-0.3-p100,30_issda-1000,1000,first-1000,200,20,rng,num-start-200,200,25726,fpa-09-10-0.3-20,15.277263164520264,False,,False,0.44258751938998436,0.43226562344497543,0.44474482595088916,100,"['8', '10', '19', '21', '27', '42', '44', '45', '46', '48', '57', '61', '64', '69', '80', '84', '85', '89', '92', '93', '100', '104', '106', '109', '117', '126', '140', '149', '154', '157', '159', '163', '166', '169', '173', '174', '177', '182', '183', '189', '197', '199', '200', '201', '204', '208', '213', '220', '228', '235', '239', '242', '244', '254', '255', '256', '257', '266', '267', '269', '279', '283', '284', '285', '287', '288', '293', '296', '297', '298', '299', '300', '301', '308', '311', '313', '318', '320', '329', '330', '331', '332', '335', '340', '346', '352', '365', '366', '369', '372', '373', '374', '382', '391', '398', '406', '412', '421', '423', '424', '434', '435', '442', '447', '450', '452', '455', '463', '466', '471', '474', '483', '485', '491', '503', '519', '521', '532', '533', '548', '550', '560', '561', '563', '572', '586', '587', '597', '603', '610', '614', '621', '622', '631', '633', '636', '642', '643', '648', '650', '651', '657', '664', '668', '688', '690', '692', '694', '697', '715', '718', '722', '726', '739', '750', '753', '755', '765', '784', '794', '799', '803', '817', '820', '824', '827', '833', '838', '847', '849', '860', '861', '866', '869', '876', '883', '887', '889', '891', '902', '904', '916', '918', '927', '931', '936', '939', '940', '950', '958', '965', '966', '968', '978', '983', '984', '985', '988', '990', '994']",False,1000,True,100,70544c2a34,0.0,1.0,0.0
./expes/v3_2021-02-24_hi_1000-prng-1-w1-fpa10-0.3-p100,30_issda-1000,1000,first-1000,150,15,rng,num-start-100,100,25726,fpa-09-10-0.3-20,7.794194459915161,False,,False,0.499233006595802,0.4686975604401178,0.516022485817539,100,"['9', '25', '29', '37', '58', '78', '87', '94', '140', '163', '166', '169', '171', '174', '178', '181', '182', '187', '196', '213', '218', '228', '237', '242', '256', '258', '275', '286', '311', '316', '317', '320', '327', '333', '350', '360', '363', '369', '370', '371', '373', '376', '381', '390', '403', '410', '417', '425', '434', '442', '456', '457', '466', '468', '473', '477', '492', '499', '501', '502', '511', '513', '515', '517', '520', '522', '523', '525', '527', '528', '531', '538', '539', '544', '558', '571', '574', '576', '582', '596', '603', '608', '621', '622', '631', '632', '639', '654', '668', '671', '675', '678', '686', '691', '698', '701', '717', '724', '733', '741', '742', '744', '749', '753', '754', '757', '773', '782', '792', '804', '809', '816', '819', '823', '829', '835', '841', '852', '856', '870', '875', '880', '881', '884', '892', '898', '904', '905', '906', '914', '916', '922', '923', '925', '929', '930', '931', '934', '943', '948', '955', '957', '959', '964', '971', '973', '978', '979', '981', '985']",False,1000,True,100,3b1d4e7bba,0.0,1.0,0.0
./expes/v3_2021-02-24_hi_1000-prng-1-w1-fpa10-0.3-p100,30_issda-1000,1000,first-1000,200,20,rng,num-start-800,800,25726,fpa-09-10-0.3-20,58.57689332962036,False,,False,0.4345668741649563,0.4148997159953327,0.437579946733479,100,"['5', '13', '24', '39', '41', '48', '50', '51', '60', '61', '62', '63', '64', '65', '67', '71', '72', '75', '80', '83', '84', '85', '89', '93', '96', '97', '100', '106', '120', '121', '127', '129', '133', '137', '141', '148', '150', '155', '156', '169', '171', '173', '181', '185', '186', '187', '193', '211', '220', '224', '227', '229', '237', '238', '239', '247', '250', '254', '255', '270', '277', '285', '286', '289', '292', '295', '297', '307', '308', '316', '318', '322', '327', '332', '349', '351', '352', '356', '359', '364', '368', '371', '375', '379', '382', '390', '396', '401', '405', '407', '408', '412', '426', '429', '430', '432', '435', '438', '441', '445', '457', '460', '465', '468', '473', '477', '486', '497', '501', '506', '507', '509', '520', '525', '538', '545', '548', '549', '554', '561', '563', '564', '565', '571', '572', '574', '578', '580', '585', '587', '589', '591', '592', '594', '596', '597', '600', '604', '609', '624', '625', '626', '634', '643', '646', '655', '663', '667', '675', '681', '685', '697', '698', '699', '700', '708', '712', '714', '716', '719', '724', '730', '734', '747', '749', '757', '776', '783', '787', '796', '799', '809', '814', '817', '836', '838', '839', '841', '842', '847', '852', '861', '880', '885', '893', '897', '905', '906', '909', '932', '939', '946', '956', '964', '968', '971', '976', '981', '986', '1000']",False,1000,True,100,d9f78773e4,0.0,1.0,0.0
./expes/v3_2021-02-24_hi_1000-prng-1-w1-fpa10-0.3-p100,30_issda-1000,1000,first-1000,200,20,rng,num-start-800,800,25726,fpa-09-10-0.3-20,60.4634485244751,False,,False,0.4302979601854938,0.4252562916130962,0.43403152002932144,100,"['1', '4', '6', '7', '9', '18', '19', '25', '27', '36', '42', '43', '45', '53', '56', '57', '65', '68', '71', '83', '86', '87', '89', '90', '91', '96', '99', '105', '106', '113', '114', '115', '125', '136', '137', '142', '143', '149', '153', '161', '166', '173', '174', '177', '191', '197', '203', '204', '205', '208', '210', '215', '216', '219', '228', '230', '237', '243', '244', '255', '274', '275', '277', '288', '292', '299', '315', '333', '337', '339', '343', '347', '350', '355', '356', '375', '382', '383', '388', '389', '391', '393', '407', '408', '411', '412', '413', '422', '431', '432', '433', '435', '436', '439', '444', '455', '463', '475', '504', '509', '510', '513', '515', '518', '519', '523', '530', '535', '551', '553', '568', '569', '574', '579', '580', '587', '589', '590', '593', '594', '599', '605', '612', '620', '621', '623', '624', '626', '628', '632', '645', '655', '664', '691', '693', '700', '705', '717', '718', '721', '723', '726', '727', '737', '743', '744', '746', '754', '755', '756', '764', '765', '779', '783', '784', '792', '793', '794', '797', '800', '803', '809', '813', '819', '827', '829', '835', '866', '867', '872', '873', '885', '888', '889', '890', '893', '901', '903', '908', '909', '911', '914', '917', '918', '920', '928', '929', '934', '940', '942', '944', '947', '959', '963', '969', '970', '974', '975', '982', '988']",False,1000,True,100,5d3ebaffb2,0.0,1.0,0.0
./expes/v3_2021-02-24_hi_1000-prng-1-w1-fpa10-0.3-p100,30_issda-1000,1000,first-1000,150,15,rng,num-start-300,300,25726,fpa-09-10-0.3-20,22.008466243743896,False,,False,0.49553766543143085,0.4686975604401178,0.516022485817539,100,"['9', '25', '29', '37', '58', '78', '87', '94', '140', '163', '166', '169', '171', '174', '178', '181', '182', '187', '196', '213', '218', '228', '237', '242', '256', '258', '275', '286', '311', '316', '317', '320', '327', '333', '350', '360', '363', '369', '370', '371', '373', '376', '381', '390', '403', '410', '417', '425', '434', '442', '456', '457', '466', '468', '473', '477', '492', '499', '501', '502', '511', '513', '515', '517', '520', '522', '523', '525', '527', '528', '531', '538', '539', '544', '558', '571', '574', '576', '582', '596', '603', '608', '621', '622', '631', '632', '639', '654', '668', '671', '675', '678', '686', '691', '698', '701', '717', '724', '733', '741', '742', '744', '749', '753', '754', '757', '773', '782', '792', '804', '809', '816', '819', '823', '829', '835', '841', '852', '856', '870', '875', '880', '881', '884', '892', '898', '904', '905', '906', '914', '916', '922', '923', '925', '929', '930', '931', '934', '943', '948', '955', '957', '959', '964', '971', '973', '978', '979', '981', '985']",False,1000,True,100,1fd2e54774,0.0,1.0,0.0
./expes/v3_2021-02-24_hi_1000-prng-1-w1-fpa10-0.3-p100,30_issda-1000,1000,first-1000,350,35,rng,num-start-400,400,25726,fpa-09-10-0.3-20,28.63210892677307,False,,False,0.3361037489811079,0.33033706355476966,0.3393666399307128,100,"['1', '5', '10', '12', '13', '15', '16', '17', '18', '19', '21', '22', '23', '31', '35', '36', '37', '40', '43', '44', '46', '48', '49', '54', '61', '62', '65', '69', '71', '72', '74', '75', '76', '77', '78', '80', '81', '83', '86', '87', '88', '90', '93', '95', '97', '103', '104', '107', '111', '112', '116', '119', '120', '121', '130', '131', '133', '135', '138', '139', '140', '142', '144', '146', '147', '150', '158', '162', '163', '174', '180', '181', '182', '188', '190', '191', '192', '193', '195', '196', '201', '202', '204', '206', '208', '209', '214', '215', '216', '218', '219', '220', '234', '236', '240', '245', '248', '249', '253', '256', '257', '261', '262', '264', '265', '276', '277', '285', '287', '289', '296', '298', '301', '302', '304', '309', '311', '312', '318', '319', '320', '323', '327', '335', '337', '339', '341', '345', '350', '351', '361', '367', '371', '377', '378', '381', '385', '389', '392', '393', '396', '398', '402', '404', '405', '406', '407', '411', '415', '417', '420', '422', '427', '428', '430', '431', '432', '442', '452', '453', '457', '458', '459', '462', '463', '464', '465', '469', '474', '476', '477', '482', '485', '487', '488', '491', '493', '494', '495', '496', '498', '499', '503', '510', '511', '512', '521', '522', '525', '526', '527', '531', '532', '533', '535', '542', '544', '552', '555', '560', '565', '568', '573', '574', '577', '580', '586', '587', '589', '591', '595', '597', '599', '602', '605', '606', '607', '610', '611', '613', '615', '616', '617', '619', '624', '625', '626', '627', '629', '630', '631', '638', '639', '640', '643', '645', '650', '652', '655', '656', '658', '660', '666', '670', '671', '673', '676', '679', '682', '692', '695', '699', '702', '704', '708', '711', '716', '718', '721', '722', '724', '725', '726', '738', '743', '746', '749', '750', '751', '753', '755', '757', '758', '767', '769', '772', '773', '777', '785', '788', '792', '797', '798', '799', '800', '810', '813', '817', '823', '824', '826', '830', '838', '844', '851', '852', '853', '859', '861', '863', '867', '868', '873', '875', '876', '878', '885', '886', '887', '888', '893', '901', '902', '904', '907', '912', '913', '914', '918', '922', '923', '927', '928', '931', '933', '937', '940', '943', '945', '946', '947', '950', '952', '953', '955', '957', '959', '963', '967', '970', '973', '981', '982', '983', '986', '987', '988', '995', '997', '999']",False,1000,True,100,6fe764ec92,0.0,1.0,0.0
./expes/v3_2021-02-24_hi_1000-prng-1-w1-fpa10-0.3-p100,30_issda-1000,1000,first-1000,150,15,rng,num-start-900,900,25726,fpa-09-10-0.3-20,80.65376710891724,False,,False,0.5040114157175204,0.5017548311842369,0.5098569186041282,100,"['2', '15', '34', '40', '42', '64', '65', '71', '76', '83', '92', '94', '96', '98', '102', '104', '112', '128', '134', '143', '144', '146', '151', '154', '189', '192', '194', '196', '209', '210', '224', '228', '245', '248', '250', '257', '266', '267', '289', '295', '298', '299', '309', '311', '318', '324', '325', '328', '334', '339', '341', '342', '363', '367', '395', '401', '409', '415', '431', '445', '454', '456', '459', '484', '488', '489', '498', '502', '506', '517', '521', '524', '534', '546', '554', '557', '561', '562', '565', '566', '574', '582', '590', '598', '602', '611', '617', '618', '626', '627', '628', '634', '641', '656', '673', '685', '696', '700', '701', '717', '721', '723', '724', '728', '737', '748', '774', '776', '777', '803', '804', '818', '819', '823', '825', '830', '835', '842', '845', '848', '850', '858', '861', '863', '865', '871', '887', '889', '892', '897', '898', '912', '914', '920', '921', '924', '930', '932', '935', '938', '940', '941', '945', '946', '956', '987', '989', '990', '991', '992']",False,1000,True,100,fc3e5e704f,0.0,1.0,0.0
./expes/v3_2021-02-24_hi_1000-prng-1-w1-fpa10-0.3-p100,30_issda-1000,1000,first-1000,50,5,rng,num-start-700,700,25726,fpa-09-10-0.3-20,59.566575050354004,False,,False,0.6841657746022475,0.6836140014158336,0.7032036252106706,100,"['3', '10', '23', '27', '30', '32', '65', '97', '105', '121', '138', '215', '222', '235', '262', '273', '326', '389', '391', '400', '433', '444', '457', '461', '484', '500', '508', '555', '583', '606', '623', '666', '668', '703', '713', '739', '780', '781', '783', '786', '808', '822', '856', '868', '903', '915', '924', '962', '968', '993']",False,1000,True,100,a7229c03dc,0.0,1.0,0.0
./expes/v3_2021-02-24_hi_1000-prng-1-w1-fpa10-0.3-p100,30_issda-1000,1000,first-1000,300,30,rng,num-start-500,500,25726,fpa-09-10-0.3-20,36.087539196014404,False,,False,0.3422376121515364,0.3393666399307128,0.34698665677765317,100,"['3', '4', '5', '6', '15', '31', '33', '35', '37', '40', '44', '45', '47', '49', '51', '54', '56', '63', '71', '73', '76', '80', '87', '89', '92', '95', '103', '115', '121', '125', '129', '130', '132', '133', '134', '135', '139', '141', '143', '146', '150', '151', '152', '154', '159', '161', '164', '169', '171', '172', '181', '184', '187', '191', '192', '195', '198', '200', '208', '209', '213', '217', '219', '220', '221', '224', '229', '231', '237', '240', '242', '244', '245', '251', '255', '258', '260', '263', '265', '266', '269', '270', '271', '276', '283', '287', '295', '297', '298', '301', '302', '303', '304', '309', '311', '314', '316', '319', '322', '325', '328', '331', '341', '343', '350', '352', '354', '355', '356', '360', '365', '368', '370', '373', '376', '378', '381', '384', '386', '398', '400', '403', '406', '408', '418', '424', '435', '436', '439', '440', '441', '442', '445', '446', '448', '451', '452', '453', '455', '456', '460', '461', '462', '471', '472', '475', '482', '486', '491', '493', '499', '503', '509', '510', '514', '530', '533', '535', '536', '540', '541', '545', '546', '548', '549', '557', '559', '563', '564', '568', '569', '570', '574', '578', '579', '584', '588', '592', '595', '598', '600', '603', '606', '607', '609', '610', '612', '615', '618', '621', '624', '626', '633', '636', '645', '646', '649', '654', '655', '657', '659', '661', '667', '668', '670', '671', '673', '683', '686', '687', '694', '698', '701', '702', '708', '712', '715', '716', '719', '721', '723', '732', '734', '736', '737', '741', '746', '747', '751', '752', '754', '757', '758', '763', '767', '774', '777', '779', '782', '792', '793', '806', '807', '813', '814', '818', '822', '823', '826', '827', '830', '840', '842', '844', '845', '846', '847', '848', '855', '858', '859', '867', '870', '871', '873', '875', '883', '885', '889', '890', '891', '893', '898', '899', '908', '909', '910', '911', '912', '915', '917', '920', '923', '924', '929', '932', '933', '935', '943', '944', '955', '956', '958', '961', '973', '975', '977', '991', '994', '995']",False,1000,True,100,c675e44386,0.0,1.0,0.0
./expes/v3_2021-02-24_hi_1000-prng-1-w1-fpa10-0.3-p100,30_issda-1000,1000,first-1000,150,15,rng,num-start-600,600,25726,fpa-09-10-0.3-20,47.37066626548767,False,,False,0.4919919934665709,0.4898429062923262,0.5098569186041282,100,"['2', '4', '6', '10', '14', '19', '23', '24', '30', '38', '48', '54', '59', '67', '68', '74', '105', '111', '116', '122', '130', '136', '143', '150', '161', '164', '170', '171', '181', '186', '187', '190', '202', '204', '210', '215', '221', '222', '252', '253', '256', '257', '262', '263', '271', '287', '297', '303', '306', '309', '314', '318', '322', '324', '340', '347', '353', '364', '367', '368', '370', '375', '377', '381', '386', '390', '393', '399', '414', '418', '425', '429', '444', '456', '464', '474', '477', '481', '484', '493', '525', '538', '543', '553', '557', '563', '588', '593', '601', '604', '611', '618', '633', '638', '639', '641', '665', '668', '695', '708', '714', '722', '725', '749', '758', '760', '767', '768', '774', '781', '785', '793', '795', '800', '807', '815', '817', '838', '839', '840', '861', '862', '866', '881', '889', '890', '893', '894', '898', '915', '916', '923', '939', '945', '952', '959', '962', '964', '965', '966', '973', '978', '979', '984', '985', '989', '990', '992', '996', '999']",False,1000,True,100,ee22e679e4,0.0,1.0,0.0
./expes/v3_2021-02-24_hi_1000-prng-1-w1-fpa10-0.3-p100,30_issda-1000,1000,first-1000,200,20,rng,num-start-300,300,25726,fpa-09-10-0.3-20,22.017531633377075,False,,False,0.439456954432372,0.43403152002932144,0.4593593686261712,100,"['2', '15', '17', '34', '40', '42', '47', '64', '65', '71', '76', '83', '85', '92', '94', '96', '98', '102', '104', '112', '119', '120', '128', '134', '143', '144', '146', '150', '151', '154', '175', '189', '192', '194', '195', '196', '209', '210', '221', '224', '225', '226', '228', '242', '245', '248', '249', '250', '257', '266', '267', '278', '282', '283', '289', '295', '298', '299', '309', '311', '318', '324', '325', '328', '333', '334', '339', '341', '342', '344', '363', '366', '367', '381', '395', '401', '409', '415', '430', '431', '437', '445', '454', '456', '459', '462', '484', '488', '489', '498', '499', '502', '505', '506', '517', '521', '524', '534', '535', '538', '546', '554', '557', '561', '562', '565', '566', '574', '582', '588', '590', '594', '598', '602', '604', '611', '617', '618', '626', '627', '628', '634', '641', '646', '650', '656', '657', '673', '677', '685', '696', '700', '701', '715', '717', '718', '721', '723', '724', '728', '737', '748', '750', '774', '776', '777', '802', '803', '804', '813', '814', '818', '819', '823', '825', '830', '832', '835', '836', '837', '842', '845', '846', '848', '850', '858', '861', '863', '865', '866', '870', '871', '876', '887', '889', '892', '897', '898', '912', '914', '917', '920', '921', '924', '930', '932', '935', '938', '939', '940', '941', '945', '946', '956', '973', '987', '989', '990', '991', '992']",False,1000,True,100,d7d4d42a75,0.0,1.0,0.0
./expes/v3_2021-02-24_hi_1000-prng-1-w1-fpa10-0.3-p100,30_issda-1000,1000,first-1000,50,5,rng,num-start-100,100,25726,fpa-09-10-0.3-20,10.03113603591919,False,,False,0.6965057822217883,0.6900062966831486,0.7032036252106706,100,"['14', '16', '32', '44', '66', '68', '134', '155', '156', '164', '197', '238', '240', '244', '266', '309', '379', '400', '407', '481', '482', '486', '488', '536', '554', '558', '563', '565', '595', '606', '607', '619', '621', '641', '651', '655', '688', '735', '760', '777', '796', '799', '857', '858', '882', '889', '931', '938', '949', '981']",False,1000,True,100,9abf4c490b,0.0,1.0,0.0
./expes/v3_2021-02-24_hi_1000-prng-1-w1-fpa10-0.3-p100,30_issda-1000,1000,first-1000,200,20,rng,num-start-100,100,25726,fpa-09-10-0.3-20,8.024051904678345,False,,False,0.4252780401345502,0.42178348835895874,0.43580294371707473,100,"['2', '7', '9', '12', '20', '25', '27', '29', '32', '34', '38', '41', '45', '53', '54', '61', '63', '77', '80', '85', '86', '90', '94', '106', '116', '117', '119', '121', '139', '147', '149', '159', '167', '168', '172', '176', '183', '184', '187', '194', '197', '205', '210', '214', '216', '226', '228', '229', '234', '236', '241', '246', '248', '254', '259', '268', '269', '275', '276', '281', '284', '287', '289', '318', '321', '331', '344', '346', '348', '350', '353', '359', '363', '365', '370', '372', '373', '377', '378', '381', '384', '391', '394', '395', '398', '411', '415', '429', '434', '438', '441', '444', '451', '455', '456', '460', '467', '471', '472', '476', '481', '486', '488', '489', '493', '495', '502', '511', '513', '514', '515', '516', '520', '522', '524', '526', '527', '532', '540', '542', '553', '555', '560', '563', '564', '569', '572', '587', '591', '611', '616', '617', '622', '623', '624', '634', '637', '640', '643', '653', '655', '657', '659', '674', '677', '678', '680', '683', '685', '690', '692', '698', '701', '704', '707', '708', '713', '714', '744', '757', '767', '772', '784', '785', '790', '791', '803', '807', '815', '818', '821', '830', '836', '839', '840', '843', '852', '863', '877', '880', '886', '887', '904', '907', '916', '928', '934', '937', '938', '941', '947', '950', '964', '970', '971', '979', '982', '991', '995', '1000']",False,1000,True,100,3e50015909,0.0,1.0,0.0
./expes/v3_2021-02-24_hi_1000-prng-1-w1-fpa10-0.3-p100,30_issda-1000,1000,first-1000,200,20,rng,num-start-100,100,25726,fpa-09-10-0.3-20,8.05455756187439,False,,False,0.40595399754135203,0.39969977481233576,0.43580294371707473,100,"['3', '4', '6', '15', '31', '37', '40', '44', '45', '71', '73', '76', '80', '87', '95', '115', '121', '125', '130', '134', '135', '139', '141', '143', '146', '151', '159', '164', '169', '172', '181', '184', '187', '191', '192', '198', '200', '208', '217', '220', '231', '237', '240', '242', '244', '258', '260', '263', '266', '269', '270', '276', '283', '287', '298', '301', '302', '303', '309', '319', '322', '328', '343', '350', '352', '355', '360', '365', '368', '373', '376', '381', '384', '400', '406', '418', '424', '435', '440', '441', '442', '448', '451', '455', '456', '460', '462', '471', '475', '482', '499', '503', '509', '510', '533', '535', '536', '540', '545', '546', '549', '557', '563', '564', '568', '569', '570', '574', '578', '579', '584', '592', '595', '598', '606', '609', '610', '612', '618', '621', '624', '626', '633', '645', '646', '649', '654', '655', '657', '659', '661', '667', '668', '671', '673', '683', '687', '694', '701', '702', '708', '712', '715', '716', '719', '721', '723', '734', '737', '741', '746', '747', '751', '752', '754', '763', '767', '774', '779', '807', '813', '814', '818', '822', '823', '826', '827', '830', '840', '846', '847', '855', '858', '859', '867', '870', '871', '873', '875', '883', '889', '890', '891', '893', '899', '908', '910', '911', '912', '920', '923', '924', '929', '932', '956', '961', '973', '977', '994', '995']",False,1000,True,100,b27187171b,0.0,1.0,0.0
./expes/v3_2021-02-24_hi_1000-prng-1-w1-fpa10-0.3-p100,30_issda-1000,1000,first-1000,150,15,rng,num-start-500,500,25726,fpa-09-10-0.3-20,48.948785066604614,False,,False,0.497539493578998,0.4859335993626268,0.5057892714193224,100,"['6', '7', '10', '11', '14', '15', '21', '23', '24', '29', '34', '45', '46', '48', '50', '68', '73', '81', '86', '89', '96', '104', '117', '125', '126', '146', '148', '157', '158', '159', '169', '177', '226', '228', '230', '233', '234', '238', '241', '244', '249', '260', '265', '266', '290', '292', '301', '304', '310', '312', '317', '318', '325', '328', '344', '357', '371', '379', '383', '403', '404', '410', '416', '420', '427', '431', '434', '456', '458', '465', '466', '468', '472', '476', '481', '487', '489', '493', '494', '502', '504', '507', '512', '524', '530', '536', '553', '555', '577', '593', '614', '617', '618', '619', '621', '628', '641', '642', '647', '651', '659', '666', '671', '672', '674', '676', '683', '684', '685', '698', '704', '716', '717', '721', '725', '729', '746', '756', '762', '784', '802', '807', '809', '810', '815', '828', '834', '835', '837', '850', '853', '861', '863', '864', '868', '871', '875', '886', '915', '919', '922', '941', '942', '964', '972', '975', '976', '980', '992', '998']",False,1000,True,100,2c1457bef7,0.0,1.0,0.0
./expes/v3_2021-02-24_hi_1000-prng-1-w1-fpa10-0.3-p100,30_issda-1000,1000,first-1000,350,35,rng,num-start-600,600,25726,fpa-09-10-0.3-20,44.299947023391724,False,,False,0.3153949019248997,0.31117892419404414,0.3273541403885306,100,"['3', '5', '6', '8', '16', '17', '26', '33', '34', '36', '37', '38', '45', '46', '48', '52', '55', '57', '65', '67', '68', '72', '74', '76', '78', '82', '83', '86', '92', '95', '98', '99', '102', '109', '112', '116', '119', '120', '123', '137', '138', '140', '143', '145', '147', '154', '156', '158', '161', '163', '165', '167', '169', '170', '171', '173', '179', '181', '183', '187', '191', '196', '197', '199', '200', '201', '205', '207', '212', '213', '214', '215', '226', '230', '242', '244', '245', '246', '247', '248', '249', '252', '253', '256', '261', '266', '269', '270', '273', '274', '279', '282', '284', '285', '290', '291', '293', '297', '302', '304', '309', '310', '311', '314', '316', '322', '328', '330', '331', '333', '335', '336', '337', '340', '348', '350', '352', '356', '357', '358', '359', '364', '369', '370', '372', '374', '375', '376', '383', '384', '385', '391', '392', '394', '398', '400', '402', '407', '411', '415', '419', '423', '425', '426', '431', '432', '434', '435', '437', '440', '444', '446', '447', '450', '451', '452', '453', '457', '458', '459', '462', '465', '467', '468', '470', '473', '474', '475', '478', '482', '489', '491', '492', '495', '497', '502', '504', '508', '509', '512', '514', '519', '520', '533', '534', '535', '536', '538', '547', '549', '550', '552', '553', '555', '558', '563', '564', '569', '570', '573', '578', '581', '584', '586', '589', '590', '592', '597', '599', '602', '603', '606', '608', '610', '612', '616', '617', '618', '621', '622', '623', '625', '629', '633', '634', '643', '644', '655', '659', '665', '666', '668', '669', '670', '674', '677', '678', '681', '683', '687', '690', '691', '692', '698', '701', '703', '704', '707', '712', '715', '719', '730', '736', '738', '740', '744', '752', '754', '758', '759', '762', '763', '764', '768', '770', '778', '783', '786', '787', '790', '791', '792', '794', '795', '797', '802', '806', '808', '810', '813', '817', '819', '821', '824', '827', '830', '831', '832', '833', '837', '838', '841', '844', '847', '848', '849', '850', '854', '856', '857', '863', '865', '868', '869', '872', '874', '876', '880', '881', '883', '884', '886', '891', '893', '896', '909', '910', '911', '915', '919', '920', '927', '928', '930', '932', '933', '935', '936', '937', '942', '943', '945', '947', '956', '959', '964', '966', '969', '971', '974', '976', '978', '986', '987', '988', '992', '993', '994', '998', '999']",False,1000,True,100,512afa3cb4,0.0,1.0,0.0
./expes/v3_2021-02-24_hi_1000-prng-1-w1-fpa10-0.3-p100,30_issda-1000,1000,first-1000,100,10,rng,num-start-800,800,25726,fpa-09-10-0.3-20,62.01552081108093,False,,False,0.5834105231839627,0.5755236400219911,0.5899168765138363,100,"['2', '15', '42', '64', '65', '76', '83', '94', '96', '98', '102', '104', '143', '144', '146', '151', '196', '210', '224', '228', '245', '250', '257', '266', '267', '289', '311', '318', '324', '328', '334', '339', '342', '363', '367', '395', '409', '415', '431', '445', '454', '459', '484', '489', '498', '506', '517', '524', '534', '546', '557', '562', '566', '574', '582', '598', '617', '626', '627', '634', '641', '656', '685', '701', '721', '723', '728', '737', '748', '774', '777', '803', '804', '819', '823', '825', '830', '845', '848', '850', '861', '865', '871', '887', '889', '892', '912', '914', '921', '924', '930', '932', '935', '938', '940', '941', '989', '990', '991', '992']",False,1000,True,100,4236dd1934,0.0,1.0,0.0
./expes/v3_2021-02-24_hi_1000-prng-1-w1-fpa10-0.3-p100,30_issda-1000,1000,first-1000,500,50,rng,num-start-400,400,25726,fpa-09-10-0.3-20,29.136531352996826,False,,False,0.2925876230949096,0.2757593462636023,0.31117892419404414,100,"['1', '2', '4', '5', '6', '7', '10', '11', '12', '14', '15', '18', '20', '21', '22', '23', '24', '26', '27', '29', '32', '34', '38', '39', '40', '41', '44', '45', '46', '48', '50', '53', '54', '57', '58', '60', '61', '67', '68', '73', '75', '77', '79', '81', '82', '83', '85', '86', '89', '92', '93', '94', '95', '96', '100', '101', '103', '104', '106', '107', '110', '111', '112', '117', '118', '119', '121', '123', '125', '126', '127', '128', '129', '135', '137', '140', '145', '146', '147', '148', '151', '152', '155', '157', '158', '159', '160', '162', '164', '169', '171', '172', '174', '176', '177', '178', '179', '183', '187', '190', '191', '195', '196', '198', '199', '200', '201', '203', '207', '208', '209', '211', '212', '214', '215', '217', '218', '220', '222', '224', '226', '227', '228', '229', '230', '231', '233', '234', '236', '238', '241', '242', '244', '245', '246', '248', '249', '251', '256', '260', '262', '265', '266', '267', '268', '269', '271', '274', '275', '276', '279', '280', '286', '290', '291', '292', '294', '297', '298', '301', '302', '303', '304', '305', '310', '311', '312', '313', '315', '317', '318', '321', '322', '324', '325', '328', '330', '334', '337', '342', '343', '344', '345', '350', '353', '357', '358', '359', '362', '363', '367', '371', '372', '374', '379', '383', '384', '385', '386', '387', '393', '394', '396', '397', '398', '401', '403', '404', '405', '406', '410', '412', '413', '414', '415', '416', '417', '418', '419', '420', '422', '423', '426', '427', '428', '429', '430', '431', '434', '437', '438', '439', '440', '444', '445', '447', '452', '453', '455', '456', '458', '459', '461', '465', '466', '467', '468', '471', '472', '473', '474', '476', '478', '481', '483', '484', '486', '487', '489', '493', '494', '496', '500', '502', '503', '504', '506', '507', '508', '509', '510', '511', '512', '514', '515', '516', '523', '524', '526', '527', '529', '530', '531', '536', '537', '539', '545', '546', '548', '549', '551', '552', '553', '555', '565', '567', '577', '579', '581', '586', '587', '588', '593', '595', '597', '601', '602', '604', '605', '608', '610', '611', '612', '614', '617', '618', '619', '621', '622', '624', '625', '626', '628', '629', '630', '632', '639', '641', '642', '644', '647', '648', '649', '651', '654', '656', '657', '659', '660', '661', '666', '668', '669', '670', '671', '672', '674', '675', '676', '677', '679', '682', '683', '684', '685', '696', '698', '699', '704', '706', '707', '708', '709', '711', '713', '715', '716', '717', '721', '724', '725', '729', '732', '736', '737', '739', '742', '743', '744', '746', '748', '749', '750', '754', '755', '756', '757', '758', '761', '762', '767', '768', '770', '771', '774', '777', '780', '782', '783', '784', '788', '792', '793', '799', '801', '802', '803', '805', '806', '807', '808', '809', '810', '815', '816', '818', '823', '824', '825', '826', '828', '832', '834', '835', '836', '837', '839', '843', '844', '846', '847', '850', '852', '853', '856', '861', '862', '863', '864', '865', '866', '868', '869', '871', '875', '882', '886', '887', '889', '892', '894', '898', '905', '906', '907', '910', '915', '918', '919', '921', '922', '925', '928', '929', '933', '938', '941', '942', '943', '946', '948', '951', '953', '954', '958', '961', '963', '964', '966', '967', '971', '972', '974', '975', '976', '977', '980', '981', '983', '986', '988', '990', '991', '992', '993', '994', '995', '996', '997', '998']",False,1000,True,100,ecfd358e3f,0.0,1.0,0.0
./expes/v3_2021-02-24_hi_1000-prng-1-w1-fpa10-0.3-p100,30_issda-1000,1000,first-1000,250,25,rng,num-start-100,100,25726,fpa-09-10-0.3-20,8.401087760925293,False,,False,0.39323726978039114,0.37199172426281324,0.396373986342235,100,"['2', '4', '7', '9', '12', '20', '25', '27', '28', '29', '30', '32', '34', '38', '41', '45', '48', '53', '54', '61', '63', '77', '80', '85', '86', '90', '94', '96', '106', '116', '117', '119', '121', '135', '139', '142', '147', '149', '159', '167', '168', '172', '176', '183', '184', '187', '194', '197', '204', '205', '206', '210', '214', '216', '220', '226', '228', '229', '234', '236', '241', '246', '248', '254', '259', '262', '265', '268', '269', '273', '275', '276', '281', '284', '285', '287', '289', '292', '299', '318', '321', '331', '338', '344', '346', '348', '350', '353', '356', '359', '363', '365', '370', '372', '373', '377', '378', '381', '384', '391', '394', '395', '398', '411', '415', '428', '429', '431', '434', '438', '441', '442', '444', '446', '451', '455', '456', '460', '467', '471', '472', '476', '481', '484', '486', '488', '489', '493', '495', '502', '511', '513', '514', '515', '516', '520', '522', '524', '526', '527', '528', '532', '534', '540', '542', '553', '555', '560', '563', '564', '569', '571', '572', '574', '584', '587', '591', '595', '603', '611', '616', '617', '622', '623', '624', '632', '634', '637', '640', '643', '653', '654', '655', '656', '657', '659', '674', '677', '678', '680', '683', '685', '690', '692', '698', '700', '701', '704', '707', '708', '711', '713', '714', '722', '737', '744', '752', '754', '757', '767', '772', '779', '784', '785', '790', '791', '803', '807', '809', '812', '815', '818', '821', '830', '836', '839', '840', '843', '852', '863', '877', '880', '883', '886', '887', '895', '904', '907', '908', '916', '923', '928', '934', '937', '938', '941', '943', '947', '950', '959', '964', '967', '970', '971', '979', '982', '986', '991', '995', '1000']",False,1000,True,100,3043ade0e6,0.0,1.0,0.0
./expes/v3_2021-02-24_hi_1000-prng-1-w1-fpa10-0.3-p100,30_issda-1000,1000,first-1000,50,5,rng,num-start-1000,1000,25726,fpa-09-10-0.3-20,165.5968976020813,False,,False,0.6963529083626747,0.6900062966831486,0.7065956951813998,100,"['16', '31', '37', '43', '61', '65', '93', '97', '146', '162', '190', '191', '195', '248', '311', '406', '458', '463', '464', '477', '488', '521', '525', '542', '552', '574', '602', '610', '615', '629', '631', '639', '645', '650', '666', '670', '711', '757', '800', '813', '824', '830', '852', '876', '878', '887', '901', '912', '947', '988']",False,1000,True,100,d04dc0db8b,0.0,1.0,0.0
./expes/v3_2021-02-24_hi_1000-prng-1-w1-fpa10-0.3-p100,30_issda-1000,1000,first-1000,450,45,rng,num-start-200,200,25726,fpa-09-10-0.3-20,15.169157981872559,False,,False,0.3264906126119084,0.28549981769735666,0.33033706355476966,100,"['1', '2', '5', '8', '11', '16', '18', '20', '21', '22', '25', '26', '27', '29', '30', '32', '33', '36', '42', '44', '46', '48', '49', '52', '53', '56', '57', '61', '64', '67', '69', '70', '71', '72', '75', '77', '79', '83', '84', '86', '92', '93', '96', '97', '98', '100', '101', '105', '106', '109', '110', '114', '115', '116', '117', '118', '122', '124', '125', '126', '127', '129', '132', '134', '135', '137', '139', '141', '145', '147', '150', '151', '154', '158', '163', '165', '166', '169', '173', '175', '176', '177', '179', '180', '182', '186', '187', '189', '194', '195', '198', '199', '200', '203', '204', '205', '206', '208', '210', '211', '213', '215', '217', '222', '224', '228', '229', '231', '232', '234', '236', '237', '242', '248', '251', '253', '254', '255', '257', '258', '259', '261', '262', '263', '265', '267', '270', '271', '273', '274', '278', '279', '281', '282', '286', '288', '289', '290', '299', '301', '303', '304', '308', '310', '311', '313', '315', '317', '319', '320', '322', '324', '325', '331', '340', '342', '344', '346', '348', '349', '355', '356', '357', '359', '360', '361', '362', '365', '367', '370', '373', '374', '375', '376', '377', '378', '382', '386', '389', '390', '392', '394', '396', '398', '404', '407', '408', '413', '414', '416', '417', '422', '428', '429', '433', '434', '435', '436', '437', '440', '443', '448', '449', '450', '452', '453', '454', '456', '457', '459', '461', '464', '465', '467', '471', '472', '478', '480', '481', '482', '483', '485', '486', '487', '488', '489', '492', '497', '498', '499', '500', '501', '503', '508', '510', '513', '519', '520', '521', '524', '525', '527', '529', '533', '534', '535', '537', '539', '540', '541', '543', '546', '547', '548', '552', '555', '556', '557', '558', '559', '560', '562', '565', '567', '569', '570', '571', '572', '574', '575', '581', '583', '584', '586', '591', '592', '593', '596', '598', '599', '601', '603', '604', '606', '608', '609', '610', '611', '616', '617', '619', '620', '623', '625', '628', '631', '640', '641', '642', '644', '647', '648', '649', '651', '652', '653', '657', '658', '659', '661', '662', '663', '664', '666', '668', '673', '675', '678', '680', '682', '685', '687', '689', '692', '693', '697', '698', '699', '701', '702', '703', '704', '708', '709', '720', '721', '722', '723', '727', '733', '736', '739', '742', '743', '752', '753', '757', '758', '759', '760', '763', '764', '765', '770', '773', '774', '776', '779', '780', '782', '783', '788', '789', '793', '794', '797', '801', '804', '807', '811', '812', '813', '814', '816', '817', '818', '824', '826', '827', '828', '830', '832', '834', '838', '840', '841', '843', '844', '846', '847', '848', '849', '851', '856', '860', '862', '870', '871', '874', '875', '876', '878', '881', '883', '884', '885', '886', '887', '888', '892', '893', '894', '896', '898', '905', '908', '918', '919', '920', '921', '923', '924', '926', '927', '931', '932', '938', '940', '943', '944', '951', '954', '955', '956', '957', '959', '962', '963', '965', '967', '973', '975', '976', '980', '983', '984', '992', '995', '998', '1000']",False,1000,True,100,7bf512ddb2,0.0,1.0,0.0
./expes/v3_2021-02-24_hi_1000-prng-1-w1-fpa10-0.3-p100,30_issda-1000,1000,first-1000,450,45,rng,num-start-1000,1000,25726,fpa-09-10-0.3-20,106.93686985969543,False,,False,0.306853575731548,0.301080484970917,0.3126336693782038,100,"['6', '7', '9', '12', '14', '15', '18', '19', '22', '24', '30', '37', '38', '47', '57', '58', '60', '63', '65', '67', '68', '69', '71', '74', '78', '79', '81', '86', '90', '91', '92', '93', '95', '96', '104', '109', '110', '118', '120', '121', '126', '129', '130', '133', '134', '135', '137', '140', '141', '144', '147', '149', '150', '151', '152', '154', '155', '156', '157', '165', '166', '167', '168', '171', '172', '174', '175', '177', '179', '181', '183', '186', '187', '188', '193', '194', '195', '196', '201', '203', '205', '206', '207', '208', '209', '212', '214', '215', '217', '218', '219', '220', '221', '222', '225', '226', '231', '236', '237', '240', '241', '242', '244', '246', '248', '249', '253', '256', '260', '263', '264', '265', '266', '267', '269', '270', '271', '272', '274', '275', '277', '278', '279', '280', '281', '282', '283', '288', '289', '290', '291', '292', '294', '296', '300', '303', '305', '306', '307', '308', '309', '311', '312', '315', '316', '322', '323', '330', '331', '332', '333', '336', '337', '338', '341', '343', '344', '347', '348', '349', '351', '354', '355', '356', '358', '359', '361', '365', '367', '369', '370', '373', '374', '375', '377', '378', '382', '383', '384', '388', '390', '395', '401', '403', '407', '410', '412', '413', '414', '415', '416', '417', '418', '420', '422', '425', '426', '427', '428', '433', '434', '435', '437', '442', '444', '445', '448', '449', '456', '458', '460', '465', '466', '467', '470', '471', '477', '478', '479', '480', '481', '484', '487', '489', '490', '492', '499', '502', '503', '504', '505', '506', '508', '512', '513', '519', '520', '522', '525', '526', '527', '532', '533', '535', '537', '539', '540', '543', '546', '548', '551', '552', '554', '555', '557', '558', '559', '562', '565', '566', '567', '570', '572', '573', '575', '579', '582', '583', '586', '587', '588', '590', '592', '593', '597', '599', '602', '603', '604', '608', '615', '618', '621', '622', '626', '627', '628', '629', '630', '631', '634', '641', '644', '645', '647', '652', '654', '655', '661', '663', '664', '668', '672', '673', '674', '677', '678', '686', '689', '691', '692', '693', '694', '697', '698', '701', '703', '704', '706', '707', '709', '710', '711', '716', '719', '722', '723', '725', '726', '727', '731', '734', '735', '737', '740', '745', '748', '753', '754', '757', '760', '761', '763', '765', '767', '769', '775', '776', '777', '778', '779', '781', '787', '788', '789', '790', '791', '792', '794', '795', '797', '798', '799', '803', '804', '807', '810', '811', '812', '813', '814', '816', '820', '822', '826', '827', '829', '830', '831', '832', '833', '834', '837', '838', '844', '846', '848', '849', '850', '853', '854', '856', '857', '860', '863', '864', '865', '867', '868', '869', '873', '875', '879', '880', '881', '883', '885', '887', '889', '890', '892', '895', '896', '898', '906', '907', '909', '913', '914', '917', '921', '927', '929', '933', '935', '936', '940', '945', '946', '948', '950', '952', '953', '955', '958', '960', '966', '967', '968', '969', '973', '975', '976', '981', '990', '991', '993', '994', '997', '1000']",False,1000,True,100,054fddd418,0.0,1.0,0.0
