expe,clients,clients_size,clients_subset,agg_size,agg_size_pc,method,days,days_size,days_total,noise_method,time,valid,valid_sum,success,score_avg,score_min,score_max,nsols,oracle,wall_hit,wall_time,pooled,pool_size,uuid,infeasible,optimal,valid_sums
./expes/v3_2021-02-24_hi_1000-prng-1-w1-fpa10-0.3-p100,30_issda-1000,1000,first-1000,400,40,rng,num-start-400,400,25726,fpa-09-10-0.3-20,39.7614164352417,False,,False,0.3232762563966422,0.31409149992840113,0.32586762838856753,100,"['3', '5', '6', '8', '16', '17', '26', '32', '33', '34', '36', '37', '38', '43', '45', '46', '48', '49', '52', '54', '55', '57', '62', '65', '67', '68', '72', '74', '76', '78', '82', '83', '86', '91', '92', '95', '98', '99', '100', '102', '109', '112', '116', '119', '120', '121', '123', '137', '138', '140', '143', '145', '147', '150', '154', '156', '157', '158', '161', '162', '163', '165', '167', '169', '170', '171', '173', '176', '179', '180', '181', '183', '187', '191', '192', '195', '196', '197', '199', '200', '201', '205', '207', '212', '213', '214', '215', '226', '230', '242', '244', '245', '246', '247', '248', '249', '252', '253', '256', '261', '266', '269', '270', '273', '274', '279', '282', '284', '285', '290', '291', '293', '297', '302', '304', '309', '310', '311', '314', '316', '319', '322', '328', '330', '331', '333', '335', '336', '337', '340', '348', '350', '352', '354', '356', '357', '358', '359', '363', '364', '369', '370', '372', '374', '375', '376', '383', '384', '385', '386', '391', '392', '394', '398', '400', '402', '407', '411', '415', '419', '423', '425', '426', '431', '432', '434', '435', '437', '440', '444', '446', '447', '450', '451', '452', '453', '456', '457', '458', '459', '462', '463', '465', '467', '468', '470', '473', '474', '475', '478', '482', '483', '489', '491', '492', '495', '497', '502', '504', '508', '509', '512', '514', '519', '520', '524', '526', '533', '534', '535', '536', '538', '547', '549', '550', '552', '553', '555', '558', '563', '564', '569', '570', '573', '578', '579', '581', '584', '586', '589', '590', '592', '593', '597', '599', '602', '603', '606', '608', '610', '612', '616', '617', '618', '619', '620', '621', '622', '623', '625', '629', '633', '634', '643', '644', '650', '654', '655', '656', '657', '659', '665', '666', '668', '669', '670', '674', '677', '678', '681', '683', '687', '690', '691', '692', '698', '701', '703', '704', '707', '709', '712', '715', '719', '724', '730', '736', '738', '740', '741', '744', '752', '754', '758', '759', '762', '763', '764', '768', '770', '778', '783', '786', '787', '790', '791', '792', '794', '795', '797', '802', '806', '808', '809', '810', '813', '817', '819', '821', '824', '825', '827', '830', '831', '832', '833', '837', '838', '841', '843', '844', '845', '847', '848', '849', '850', '854', '856', '857', '863', '865', '868', '869', '872', '874', '876', '880', '881', '883', '884', '886', '887', '891', '892', '893', '896', '903', '909', '910', '911', '915', '919', '920', '923', '927', '928', '930', '932', '933', '935', '936', '937', '942', '943', '944', '945', '947', '955', '956', '958', '959', '964', '966', '969', '971', '973', '974', '976', '978', '979', '980', '984', '986', '987', '988', '992', '993', '994', '998', '999']",False,1000,True,100,d57cf4f38e,0.0,1.0,0.0
./expes/v3_2021-02-24_hi_1000-prng-1-w1-fpa10-0.3-p100,30_issda-1000,1000,first-1000,350,35,rng,num-start-300,300,25726,fpa-09-10-0.3-20,29.854562520980835,False,,False,0.331164318465673,0.3126336693782038,0.33333333333333337,100,"['2', '4', '7', '8', '9', '12', '18', '20', '25', '27', '28', '29', '30', '31', '32', '34', '38', '39', '41', '45', '48', '51', '53', '54', '59', '61', '63', '74', '75', '77', '80', '85', '86', '90', '93', '94', '96', '100', '101', '106', '109', '116', '117', '119', '121', '128', '135', '139', '142', '146', '147', '149', '151', '159', '160', '165', '167', '168', '172', '176', '181', '183', '184', '185', '187', '194', '197', '204', '205', '206', '207', '210', '214', '215', '216', '218', '220', '226', '228', '229', '230', '233', '234', '236', '241', '245', '246', '248', '252', '254', '256', '259', '262', '265', '268', '269', '273', '275', '276', '278', '281', '284', '285', '287', '289', '292', '299', '304', '315', '318', '319', '320', '321', '330', '331', '332', '336', '338', '341', '344', '346', '348', '350', '353', '356', '359', '362', '363', '365', '369', '370', '372', '373', '375', '376', '377', '378', '381', '384', '389', '391', '394', '395', '398', '399', '404', '405', '411', '415', '417', '418', '426', '428', '429', '431', '434', '438', '441', '442', '443', '444', '446', '447', '451', '455', '456', '460', '467', '468', '471', '472', '476', '481', '484', '486', '488', '489', '493', '495', '498', '500', '502', '504', '511', '512', '513', '514', '515', '516', '520', '522', '524', '526', '527', '528', '529', '532', '534', '540', '542', '548', '551', '553', '555', '560', '563', '564', '568', '569', '571', '572', '574', '577', '584', '585', '587', '591', '595', '603', '609', '611', '614', '616', '617', '622', '623', '624', '626', '632', '634', '637', '638', '640', '643', '648', '653', '654', '655', '656', '657', '659', '674', '676', '677', '678', '680', '683', '684', '685', '690', '692', '695', '696', '698', '700', '701', '702', '704', '705', '706', '707', '708', '711', '713', '714', '715', '716', '718', '722', '723', '728', '737', '739', '744', '750', '752', '754', '757', '767', '772', '778', '779', '780', '781', '784', '785', '790', '791', '794', '803', '805', '807', '809', '811', '812', '813', '815', '817', '818', '821', '830', '836', '839', '840', '843', '852', '863', '864', '870', '876', '877', '880', '883', '886', '887', '895', '904', '906', '907', '908', '916', '918', '920', '923', '925', '926', '928', '933', '934', '937', '938', '941', '943', '947', '950', '957', '958', '959', '964', '967', '970', '971', '979', '982', '986', '988', '991', '995', '996', '1000']",False,1000,True,100,f39c5d5bd5,0.0,1.0,0.0
./expes/v3_2021-02-24_hi_1000-prng-1-w1-fpa10-0.3-p100,30_issda-1000,1000,first-1000,250,25,rng,num-start-900,900,25726,fpa-09-10-0.3-20,121.26019144058228,False,,False,0.3860738990714473,0.37358768180024393,0.39471794478411437,100,"['3', '8', '9', '17', '18', '24', '26', '27', '33', '41', '42', '45', '47', '64', '66', '69', '70', '73', '76', '78', '80', '88', '91', '94', '96', '97', '101', '102', '104', '108', '110', '111', '115', '117', '119', '123', '124', '130', '132', '138', '140', '142', '152', '157', '159', '163', '170', '175', '176', '180', '188', '192', '197', '202', '205', '207', '208', '213', '215', '216', '230', '232', '239', '251', '260', '267', '268', '269', '270', '271', '275', '281', '282', '288', '291', '293', '297', '301', '303', '307', '309', '314', '316', '319', '325', '326', '332', '333', '334', '336', '338', '340', '356', '366', '371', '376', '378', '379', '386', '389', '394', '398', '400', '402', '403', '406', '414', '417', '422', '424', '425', '431', '434', '439', '440', '441', '448', '450', '451', '456', '461', '463', '466', '467', '469', '470', '473', '475', '478', '479', '480', '481', '482', '488', '490', '492', '506', '513', '515', '517', '518', '522', '524', '526', '533', '537', '542', '555', '556', '559', '561', '568', '576', '583', '584', '585', '591', '593', '599', '603', '606', '608', '609', '610', '633', '636', '642', '650', '652', '653', '657', '662', '665', '669', '670', '673', '675', '676', '680', '684', '693', '694', '698', '701', '703', '704', '713', '723', '727', '733', '734', '735', '738', '743', '746', '749', '752', '754', '756', '764', '770', '771', '774', '784', '792', '794', '804', '811', '821', '823', '824', '831', '845', '846', '852', '854', '855', '862', '871', '874', '877', '881', '887', '890', '893', '900', '901', '905', '906', '912', '917', '918', '919', '928', '937', '943', '952', '953', '958', '959', '969', '973', '977', '979', '980', '982', '989', '992', '995', '997']",False,1000,True,100,3358f8d898,0.0,1.0,0.0
./expes/v3_2021-02-24_hi_1000-prng-1-w1-fpa10-0.3-p100,30_issda-1000,1000,first-1000,150,15,rng,num-start-700,700,25726,fpa-09-10-0.3-20,74.70256114006042,False,,False,0.5074189244265098,0.4918088368947584,0.5119034539783771,100,"['1', '5', '12', '16', '18', '21', '31', '37', '43', '54', '61', '62', '65', '69', '72', '75', '86', '88', '90', '93', '97', '104', '111', '120', '121', '135', '138', '146', '162', '182', '190', '191', '193', '195', '196', '201', '204', '215', '216', '218', '219', '236', '240', '248', '253', '261', '277', '285', '296', '298', '302', '311', '312', '319', '323', '335', '341', '345', '385', '393', '396', '405', '406', '407', '411', '417', '420', '430', '431', '452', '458', '459', '463', '464', '469', '476', '477', '482', '488', '499', '512', '521', '522', '525', '526', '532', '542', '552', '565', '573', '574', '577', '580', '602', '606', '607', '610', '615', '629', '631', '639', '645', '650', '656', '660', '666', '670', '671', '679', '692', '699', '702', '711', '724', '725', '726', '750', '757', '777', '785', '788', '797', '798', '800', '813', '817', '823', '824', '830', '852', '861', '863', '867', '868', '876', '878', '886', '887', '901', '907', '912', '933', '945', '947', '950', '955', '982', '988', '995', '999']",False,1000,True,100,53eb569368,0.0,1.0,0.0
./expes/v3_2021-02-24_hi_1000-prng-1-w1-fpa10-0.3-p100,30_issda-1000,1000,first-1000,150,15,rng,num-start-900,900,25726,fpa-09-10-0.3-20,116.33219194412231,False,,False,0.5015747855378232,0.49974981234361315,0.5057892714193224,100,"['13', '14', '21', '27', '32', '35', '39', '45', '60', '65', '66', '74', '88', '89', '92', '100', '111', '117', '120', '130', '139', '141', '146', '152', '154', '163', '165', '171', '180', '197', '198', '199', '203', '207', '213', '215', '226', '233', '240', '241', '250', '254', '261', '265', '274', '292', '293', '303', '306', '308', '317', '322', '347', '351', '352', '353', '365', '366', '380', '385', '386', '387', '389', '390', '396', '400', '406', '411', '413', '418', '427', '434', '437', '456', '465', '468', '471', '486', '497', '500', '501', '507', '510', '516', '519', '520', '523', '530', '533', '542', '545', '553', '559', '571', '587', '593', '596', '599', '616', '622', '636', '639', '658', '660', '666', '673', '674', '677', '679', '680', '707', '708', '718', '719', '722', '723', '744', '747', '778', '783', '785', '816', '828', '831', '834', '850', '851', '855', '857', '864', '873', '876', '878', '881', '900', '903', '913', '919', '924', '925', '926', '930', '934', '935', '955', '969', '973', '986', '997', '999']",False,1000,True,100,4607e8a01e,0.0,1.0,0.0
./expes/v3_2021-02-24_hi_1000-prng-1-w1-fpa10-0.3-p100,30_issda-1000,1000,first-1000,450,45,rng,num-start-100,100,25726,fpa-09-10-0.3-20,10.353332996368408,False,,False,0.30634651567661697,0.2897151947954225,0.317016496197407,100,"['2', '4', '5', '6', '8', '10', '11', '14', '19', '21', '24', '27', '28', '33', '36', '37', '38', '42', '43', '44', '45', '46', '48', '53', '55', '57', '61', '62', '64', '69', '77', '78', '79', '80', '81', '82', '84', '85', '88', '89', '91', '92', '93', '96', '98', '100', '101', '104', '106', '109', '114', '116', '117', '118', '119', '120', '122', '124', '126', '131', '137', '140', '143', '145', '146', '148', '149', '153', '154', '157', '159', '161', '163', '166', '167', '169', '170', '172', '173', '174', '177', '179', '181', '182', '183', '184', '185', '187', '189', '193', '196', '197', '199', '200', '201', '203', '204', '206', '207', '208', '211', '213', '214', '216', '217', '220', '221', '224', '225', '228', '235', '238', '239', '240', '242', '244', '248', '249', '252', '254', '255', '256', '257', '258', '260', '261', '264', '265', '266', '267', '268', '269', '275', '276', '279', '283', '284', '285', '287', '288', '293', '296', '297', '298', '299', '300', '301', '304', '305', '308', '310', '311', '313', '318', '319', '320', '321', '323', '329', '330', '331', '332', '333', '335', '338', '339', '340', '345', '346', '347', '349', '352', '356', '359', '365', '366', '368', '369', '371', '372', '373', '374', '375', '381', '382', '391', '397', '398', '400', '402', '405', '406', '410', '412', '413', '414', '420', '421', '422', '423', '424', '426', '428', '431', '432', '433', '434', '435', '439', '441', '442', '444', '445', '447', '450', '451', '452', '453', '455', '463', '465', '466', '471', '474', '476', '479', '483', '484', '485', '490', '491', '496', '499', '501', '503', '504', '507', '509', '511', '519', '521', '525', '532', '533', '534', '536', '537', '539', '540', '541', '542', '548', '550', '555', '557', '558', '559', '560', '561', '563', '564', '572', '575', '576', '579', '582', '583', '584', '586', '587', '590', '597', '599', '603', '609', '610', '612', '614', '616', '619', '621', '622', '623', '625', '628', '631', '633', '635', '636', '638', '642', '643', '644', '648', '650', '651', '653', '657', '658', '662', '663', '664', '668', '669', '670', '671', '673', '678', '684', '685', '688', '690', '692', '693', '694', '697', '703', '705', '713', '715', '718', '722', '724', '726', '728', '729', '733', '735', '739', '750', '753', '755', '763', '765', '773', '777', '784', '786', '787', '789', '790', '791', '793', '794', '796', '799', '802', '803', '804', '806', '807', '810', '813', '817', '818', '819', '820', '821', '824', '827', '829', '830', '833', '835', '838', '839', '847', '848', '849', '850', '851', '855', '857', '858', '860', '861', '866', '868', '869', '876', '877', '879', '880', '881', '883', '885', '886', '887', '889', '891', '892', '895', '896', '898', '899', '900', '901', '902', '903', '904', '905', '907', '911', '913', '914', '916', '918', '921', '922', '923', '924', '926', '927', '930', '931', '934', '935', '936', '938', '939', '940', '945', '947', '950', '951', '953', '958', '959', '960', '963', '964', '965', '966', '967', '968', '973', '974', '977', '978', '980', '983', '984', '985', '986', '988', '990', '992', '994', '995', '998']",False,1000,True,100,9772306e30,0.0,1.0,0.0
./expes/v3_2021-02-24_hi_1000-prng-1-w1-fpa10-0.3-p100,30_issda-1000,1000,first-1000,150,15,rng,num-start-800,800,25726,fpa-09-10-0.3-20,95.06853032112122,False,,False,0.48931850560947715,0.48012475508996366,0.4957636920507863,100,"['11', '20', '22', '29', '44', '69', '72', '75', '86', '92', '96', '97', '98', '105', '110', '115', '117', '122', '125', '126', '147', '154', '165', '166', '169', '173', '186', '194', '199', '210', '224', '229', '242', '253', '261', '262', '263', '267', '270', '274', '278', '281', '282', '286', '288', '289', '299', '310', '311', '317', '324', '346', '356', '365', '367', '370', '373', '377', '392', '396', '404', '407', '414', '416', '422', '428', '434', '436', '448', '450', '452', '461', '464', '467', '471', '478', '481', '483', '486', '492', '497', '499', '501', '513', '527', '529', '539', '540', '543', '548', '565', '574', '583', '584', '586', '593', '598', '601', '604', '610', '623', '631', '640', '644', '647', '648', '649', '653', '657', '668', '675', '680', '682', '689', '701', '702', '703', '704', '720', '721', '722', '727', '752', '753', '759', '765', '774', '797', '817', '818', '824', '828', '838', '846', '847', '875', '886', '887', '892', '894', '896', '908', '918', '924', '931', '957', '962', '963', '967', '998']",False,1000,True,100,60418e5969,0.0,1.0,0.0
./expes/v3_2021-02-24_hi_1000-prng-1-w1-fpa10-0.3-p100,30_issda-1000,1000,first-1000,400,40,rng,num-start-800,800,25726,fpa-09-10-0.3-20,85.46636986732483,False,,False,0.28923968802473987,0.2813091648584096,0.303950803114834,100,"['1', '2', '4', '6', '10', '12', '14', '19', '21', '23', '24', '25', '29', '30', '33', '34', '36', '37', '38', '41', '43', '48', '50', '54', '56', '58', '59', '61', '65', '67', '68', '74', '81', '83', '92', '94', '95', '98', '105', '110', '111', '114', '116', '118', '122', '125', '130', '133', '134', '136', '137', '140', '143', '145', '146', '147', '150', '151', '152', '153', '161', '163', '164', '166', '170', '171', '173', '174', '176', '177', '181', '182', '183', '184', '185', '186', '187', '190', '199', '201', '202', '204', '210', '213', '214', '215', '221', '222', '225', '232', '244', '250', '252', '253', '256', '257', '258', '262', '263', '267', '271', '272', '278', '279', '281', '283', '286', '287', '288', '290', '294', '296', '297', '299', '301', '302', '303', '306', '309', '310', '314', '315', '317', '318', '320', '322', '324', '325', '326', '327', '334', '340', '343', '347', '348', '349', '353', '354', '357', '359', '360', '361', '364', '365', '366', '367', '368', '370', '371', '372', '373', '374', '375', '377', '379', '381', '382', '383', '385', '386', '387', '389', '390', '392', '393', '394', '399', '402', '414', '416', '418', '419', '420', '424', '425', '426', '427', '429', '430', '431', '432', '440', '443', '444', '445', '452', '455', '456', '461', '464', '465', '467', '474', '475', '477', '479', '481', '482', '483', '484', '486', '489', '491', '492', '493', '495', '496', '498', '500', '504', '506', '509', '512', '513', '515', '525', '526', '528', '529', '531', '535', '538', '543', '545', '546', '547', '552', '553', '557', '559', '561', '562', '563', '564', '567', '573', '574', '578', '580', '588', '593', '595', '601', '602', '604', '605', '609', '611', '616', '618', '624', '626', '627', '629', '630', '632', '633', '636', '637', '638', '639', '640', '641', '642', '643', '645', '646', '647', '653', '654', '658', '660', '663', '665', '666', '667', '668', '676', '678', '679', '680', '682', '685', '687', '688', '690', '695', '703', '705', '706', '708', '709', '712', '714', '720', '722', '725', '726', '734', '736', '737', '738', '739', '748', '749', '750', '756', '758', '759', '760', '767', '768', '774', '778', '781', '785', '789', '793', '794', '795', '800', '801', '805', '807', '815', '817', '818', '821', '833', '837', '838', '839', '840', '841', '842', '847', '849', '852', '856', '857', '859', '861', '862', '864', '866', '873', '875', '876', '877', '881', '888', '889', '890', '891', '893', '894', '898', '913', '914', '915', '916', '919', '923', '924', '925', '936', '939', '941', '945', '946', '947', '952', '958', '959', '960', '961', '962', '964', '965', '966', '968', '969', '973', '974', '975', '978', '979', '980', '981', '982', '983', '984', '985', '988', '989', '990', '992', '996', '999', '1000']",False,1000,True,100,c29fbb8d72,0.0,1.0,0.0
./expes/v3_2021-02-24_hi_1000-prng-1-w1-fpa10-0.3-p100,30_issda-1000,1000,first-1000,250,25,rng,num-start-600,600,25726,fpa-09-10-0.3-20,69.41894435882568,False,,False,0.3862352729591098,0.3609316089741189,0.38977678479725764,100,"['6', '7', '10', '11', '12', '14', '15', '21', '23', '24', '29', '32', '34', '40', '45', '46', '48', '50', '54', '60', '61', '68', '73', '79', '81', '82', '83', '86', '89', '96', '103', '104', '106', '107', '110', '111', '117', '119', '125', '126', '127', '129', '135', '137', '145', '146', '148', '151', '157', '158', '159', '169', '176', '177', '179', '183', '190', '203', '214', '215', '222', '226', '228', '230', '231', '233', '234', '238', '241', '244', '245', '246', '248', '249', '251', '260', '262', '265', '266', '267', '275', '290', '291', '292', '301', '303', '304', '310', '312', '313', '317', '318', '321', '325', '328', '343', '344', '357', '371', '372', '374', '379', '383', '394', '398', '401', '403', '404', '406', '410', '413', '414', '415', '416', '417', '418', '420', '426', '427', '431', '434', '437', '438', '444', '445', '453', '456', '458', '465', '466', '467', '468', '472', '474', '476', '478', '481', '484', '487', '489', '493', '494', '500', '502', '503', '504', '507', '508', '509', '511', '512', '514', '515', '524', '526', '530', '536', '539', '545', '548', '553', '555', '567', '577', '587', '593', '597', '604', '614', '617', '618', '619', '621', '628', '641', '642', '647', '648', '651', '654', '657', '659', '660', '666', '671', '672', '674', '675', '676', '677', '683', '684', '685', '698', '704', '711', '716', '717', '721', '725', '729', '742', '746', '748', '755', '756', '762', '770', '774', '782', '784', '802', '806', '807', '809', '810', '815', '826', '828', '832', '834', '835', '837', '846', '850', '853', '861', '863', '864', '868', '871', '875', '882', '886', '898', '905', '915', '919', '922', '941', '942', '948', '964', '972', '975', '976', '980', '991', '992', '998']",False,1000,True,100,ed3197bf81,0.0,1.0,0.0
./expes/v3_2021-02-24_hi_1000-prng-1-w1-fpa10-0.3-p100,30_issda-1000,1000,first-1000,450,45,rng,num-start-800,800,25726,fpa-09-10-0.3-20,80.10540699958801,False,,False,0.2861660737703385,0.2730003242583058,0.3082786120998726,100,"['3', '8', '9', '13', '17', '18', '19', '20', '23', '24', '25', '26', '27', '28', '33', '35', '36', '37', '38', '41', '42', '43', '45', '47', '48', '50', '51', '57', '62', '64', '65', '66', '68', '69', '70', '71', '73', '74', '75', '76', '78', '80', '86', '88', '89', '91', '94', '96', '97', '98', '101', '102', '104', '105', '106', '108', '110', '111', '115', '117', '119', '120', '123', '124', '125', '127', '129', '130', '132', '138', '140', '141', '142', '143', '144', '152', '153', '156', '157', '159', '160', '163', '168', '169', '170', '171', '175', '176', '177', '180', '182', '185', '188', '190', '191', '192', '193', '194', '195', '196', '197', '199', '202', '205', '207', '208', '213', '214', '215', '216', '227', '230', '231', '232', '233', '236', '239', '247', '248', '250', '251', '252', '255', '256', '258', '259', '260', '262', '265', '267', '268', '269', '270', '271', '275', '276', '278', '279', '281', '282', '284', '286', '288', '291', '293', '297', '301', '303', '307', '309', '312', '314', '315', '316', '317', '318', '319', '323', '325', '326', '332', '333', '334', '336', '338', '340', '341', '345', '355', '356', '359', '361', '363', '366', '371', '372', '376', '378', '379', '382', '386', '389', '391', '393', '394', '396', '398', '400', '402', '403', '406', '407', '410', '412', '414', '415', '416', '417', '422', '424', '425', '426', '428', '431', '434', '436', '438', '439', '440', '441', '447', '448', '449', '450', '451', '455', '456', '458', '459', '461', '463', '464', '466', '467', '469', '470', '472', '473', '475', '476', '478', '479', '480', '481', '482', '488', '489', '490', '492', '498', '500', '501', '502', '503', '504', '506', '513', '515', '517', '518', '522', '524', '526', '527', '533', '534', '535', '537', '539', '540', '542', '543', '547', '548', '550', '551', '553', '555', '556', '558', '559', '561', '568', '569', '571', '573', '576', '583', '584', '585', '589', '590', '591', '592', '593', '595', '598', '599', '602', '603', '604', '606', '607', '608', '609', '610', '611', '612', '613', '614', '623', '624', '625', '628', '630', '633', '635', '636', '642', '643', '645', '647', '650', '651', '652', '653', '654', '656', '657', '662', '663', '665', '667', '669', '670', '673', '674', '675', '676', '678', '680', '684', '685', '688', '691', '693', '694', '698', '699', '701', '703', '704', '705', '706', '710', '712', '713', '714', '716', '723', '727', '733', '734', '735', '737', '738', '743', '746', '749', '752', '754', '756', '757', '760', '764', '770', '771', '773', '774', '775', '784', '792', '793', '794', '803', '804', '805', '807', '809', '811', '815', '821', '823', '824', '828', '831', '832', '840', '845', '846', '851', '852', '854', '855', '856', '862', '865', '866', '870', '871', '874', '877', '881', '883', '887', '890', '893', '895', '900', '901', '905', '906', '908', '912', '916', '917', '918', '919', '927', '928', '930', '937', '943', '946', '948', '951', '952', '953', '954', '956', '958', '959', '962', '968', '969', '971', '973', '977', '979', '980', '982', '985', '987', '989', '990', '991', '992', '994', '995', '997']",False,1000,True,100,f09d5b6359,0.0,1.0,0.0
./expes/v3_2021-02-24_hi_1000-prng-1-w1-fpa10-0.3-p100,30_issda-1000,1000,first-1000,300,30,rng,num-start-500,500,25726,fpa-09-10-0.3-20,51.15369009971619,False,,False,0.35945483160521513,0.3273541403885306,0.36249987732832045,100,"['1', '5', '13', '24', '27', '28', '29', '30', '39', '41', '48', '50', '51', '54', '56', '60', '61', '62', '63', '64', '65', '67', '69', '71', '72', '73', '75', '80', '83', '84', '85', '88', '89', '93', '94', '96', '97', '100', '104', '105', '106', '107', '113', '119', '120', '121', '126', '127', '129', '133', '137', '141', '148', '150', '151', '153', '155', '156', '166', '167', '169', '171', '172', '173', '181', '185', '186', '187', '193', '196', '200', '205', '211', '213', '214', '220', '224', '227', '229', '233', '237', '238', '239', '246', '247', '250', '254', '255', '259', '268', '270', '272', '277', '285', '286', '289', '292', '295', '297', '306', '307', '308', '316', '318', '320', '322', '327', '332', '338', '349', '351', '352', '356', '359', '364', '365', '368', '371', '373', '375', '376', '379', '382', '386', '390', '396', '401', '402', '404', '405', '407', '408', '409', '411', '412', '426', '429', '430', '432', '435', '438', '441', '445', '452', '457', '460', '465', '468', '473', '477', '478', '486', '491', '492', '494', '496', '497', '500', '501', '505', '506', '507', '509', '515', '520', '525', '528', '529', '531', '538', '541', '545', '546', '548', '549', '550', '554', '555', '557', '561', '563', '564', '565', '571', '572', '573', '574', '578', '580', '581', '585', '587', '589', '591', '592', '594', '596', '597', '600', '604', '609', '616', '617', '624', '625', '626', '628', '629', '633', '634', '643', '646', '650', '652', '655', '659', '663', '667', '671', '675', '681', '685', '693', '697', '698', '699', '700', '707', '708', '709', '712', '713', '714', '716', '719', '724', '730', '734', '747', '749', '757', '758', '759', '768', '776', '777', '783', '787', '791', '796', '798', '799', '808', '809', '810', '814', '817', '818', '823', '826', '831', '836', '838', '839', '841', '842', '847', '849', '852', '861', '866', '870', '874', '880', '885', '892', '893', '896', '897', '905', '906', '909', '922', '931', '932', '937', '939', '946', '956', '964', '968', '971', '972', '974', '975', '976', '979', '981', '986', '1000']",False,1000,True,100,00c1c54756,0.0,1.0,0.0
./expes/v3_2021-02-24_hi_1000-prng-1-w1-fpa10-0.3-p100,30_issda-1000,1000,first-1000,400,40,rng,num-start-400,400,25726,fpa-09-10-0.3-20,39.950963735580444,False,,False,0.30453190196803737,0.2883072948901987,0.3214276306388091,100,"['6', '8', '9', '10', '11', '13', '16', '19', '20', '22', '27', '28', '29', '30', '31', '35', '51', '52', '53', '54', '55', '56', '60', '62', '64', '66', '68', '71', '73', '75', '76', '77', '79', '80', '83', '84', '86', '88', '89', '96', '97', '101', '102', '107', '109', '113', '114', '116', '120', '121', '126', '127', '128', '131', '132', '133', '141', '142', '144', '146', '147', '153', '154', '155', '156', '158', '166', '168', '169', '173', '174', '175', '177', '179', '184', '188', '189', '193', '194', '196', '197', '198', '201', '202', '204', '206', '209', '216', '217', '218', '219', '224', '228', '231', '235', '237', '242', '245', '248', '249', '250', '255', '256', '257', '258', '259', '262', '265', '269', '270', '272', '273', '274', '276', '280', '283', '285', '289', '291', '292', '296', '297', '301', '302', '303', '304', '309', '311', '313', '315', '316', '317', '318', '320', '321', '324', '325', '326', '327', '330', '334', '337', '339', '341', '343', '344', '345', '346', '348', '356', '357', '364', '365', '366', '369', '373', '375', '377', '382', '384', '388', '393', '394', '398', '401', '403', '410', '412', '413', '414', '416', '417', '418', '419', '420', '425', '427', '430', '431', '433', '438', '439', '441', '444', '445', '447', '449', '454', '456', '457', '460', '461', '464', '467', '471', '474', '475', '479', '484', '486', '487', '489', '492', '495', '497', '499', '505', '506', '507', '508', '514', '515', '517', '519', '520', '527', '528', '529', '531', '532', '535', '536', '538', '539', '540', '541', '546', '548', '550', '552', '553', '554', '556', '557', '561', '563', '565', '567', '568', '569', '570', '571', '573', '578', '582', '586', '589', '590', '592', '593', '594', '596', '601', '605', '606', '613', '615', '619', '627', '628', '632', '636', '642', '648', '649', '651', '652', '655', '656', '665', '674', '675', '678', '680', '684', '693', '698', '699', '701', '702', '703', '708', '717', '721', '722', '723', '728', '729', '733', '742', '743', '747', '749', '750', '757', '762', '763', '765', '766', '767', '768', '769', '770', '771', '772', '773', '776', '777', '778', '779', '782', '784', '785', '790', '793', '797', '799', '800', '802', '804', '806', '807', '811', '814', '819', '821', '822', '823', '825', '827', '831', '832', '833', '835', '837', '840', '841', '842', '845', '847', '849', '851', '853', '858', '860', '863', '867', '871', '877', '880', '881', '885', '886', '889', '895', '897', '903', '904', '910', '912', '915', '919', '921', '922', '924', '928', '929', '930', '931', '932', '935', '939', '940', '943', '944', '946', '947', '949', '953', '954', '956', '959', '962', '963', '965', '968', '975', '979', '980', '981', '983', '984', '985', '988', '991', '994', '996', '997', '998', '999']",False,1000,True,100,31018f24b5,0.0,1.0,0.0
./expes/v3_2021-02-24_hi_1000-prng-1-w1-fpa10-0.3-p100,30_issda-1000,1000,first-1000,250,25,rng,num-start-300,300,25726,fpa-09-10-0.3-20,30.73613166809082,False,,False,0.37557677731089073,0.37358768180024393,0.3930664217821127,100,"['3', '5', '10', '12', '16', '18', '20', '32', '38', '43', '45', '49', '57', '58', '61', '64', '66', '68', '76', '81', '84', '87', '95', '101', '103', '111', '119', '120', '125', '132', '144', '146', '148', '151', '156', '160', '162', '163', '164', '169', '177', '184', '201', '212', '214', '229', '231', '235', '237', '238', '241', '245', '246', '250', '256', '258', '262', '267', '270', '279', '288', '294', '295', '303', '310', '313', '318', '319', '320', '321', '323', '326', '327', '330', '333', '339', '342', '343', '344', '345', '347', '349', '352', '353', '356', '357', '363', '364', '365', '369', '377', '378', '386', '389', '395', '397', '398', '400', '402', '404', '405', '409', '412', '415', '430', '431', '442', '445', '450', '453', '457', '460', '462', '467', '470', '473', '474', '478', '480', '486', '488', '493', '496', '502', '503', '504', '505', '507', '511', '512', '513', '515', '518', '524', '525', '531', '534', '543', '547', '557', '558', '561', '562', '564', '569', '579', '584', '586', '590', '592', '593', '596', '601', '608', '610', '620', '626', '629', '632', '633', '634', '642', '657', '662', '665', '672', '686', '693', '695', '698', '701', '708', '710', '711', '712', '719', '723', '726', '737', '739', '742', '743', '745', '747', '754', '756', '759', '770', '772', '774', '776', '796', '797', '801', '802', '804', '808', '816', '817', '819', '820', '825', '830', '842', '843', '845', '856', '858', '859', '861', '864', '865', '868', '876', '877', '878', '879', '882', '885', '891', '892', '894', '896', '901', '909', '914', '915', '916', '927', '929', '930', '931', '935', '937', '944', '945', '948', '950', '951', '953', '958', '961', '968', '969', '971', '983', '984', '989', '991', '1000']",False,1000,True,100,0a2b4fb6e5,0.0,1.0,0.0
./expes/v3_2021-02-24_hi_1000-prng-1-w1-fpa10-0.3-p100,30_issda-1000,1000,first-1000,150,15,rng,num-start-1000,1000,25726,fpa-09-10-0.3-20,120.77083587646484,False,,False,0.4814971672897484,0.47628798536383155,0.4859335993626268,100,"['8', '19', '21', '27', '44', '45', '48', '61', '64', '69', '84', '85', '89', '92', '93', '104', '106', '109', '126', '149', '159', '166', '169', '177', '182', '183', '189', '199', '200', '201', '204', '208', '220', '228', '235', '239', '242', '244', '254', '255', '266', '267', '269', '279', '283', '284', '285', '287', '288', '293', '296', '297', '298', '299', '308', '311', '313', '318', '320', '329', '332', '335', '340', '346', '352', '365', '366', '369', '382', '398', '406', '412', '423', '424', '434', '442', '447', '452', '463', '471', '474', '483', '485', '491', '519', '521', '532', '533', '548', '550', '561', '563', '572', '587', '597', '603', '614', '621', '631', '642', '643', '648', '650', '651', '657', '664', '688', '690', '692', '715', '718', '722', '726', '739', '750', '753', '765', '784', '799', '817', '820', '827', '833', '838', '847', '849', '860', '861', '866', '869', '876', '883', '887', '889', '902', '904', '918', '927', '931', '936', '940', '950', '958', '965', '966', '968', '978', '983', '984', '988']",False,1000,True,100,331dcc841b,0.0,1.0,0.0
