expe,clients,clients_size,clients_subset,agg_size,agg_size_pc,method,days,days_size,days_total,noise_method,time,valid,valid_sum,success,score_avg,score_min,score_max,nsols,oracle,wall_hit,wall_time,pooled,pool_size,uuid,infeasible,optimal,valid_sums
./expes/v3_2021-02-24_hi_1000-prng-1-w1-fpa10-0.3-p100,30_issda-1000,1000,first-1000,150,15,rng,num-start-900,900,25726,fpa-09-10-0.3-20,75.9763412475586,False,,False,0.49943745302361964,0.4957636920507863,0.5139586064580135,100,"['1', '13', '18', '23', '30', '38', '47', '56', '83', '91', '92', '96', '97', '99', '100', '120', '123', '130', '142', '150', '174', '190', '194', '198', '199', '201', '202', '203', '204', '206', '215', '229', '251', '252', '257', '268', '272', '275', '280', '297', '299', '312', '314', '320', '328', '341', '344', '366', '370', '371', '383', '384', '387', '389', '399', '408', '420', '424', '434', '435', '441', '452', '456', '457', '458', '482', '496', '497', '499', '501', '513', '516', '528', '535', '538', '541', '552', '553', '567', '572', '577', '588', '590', '601', '603', '604', '609', '612', '617', '618', '623', '625', '634', '636', '649', '651', '661', '664', '672', '679', '687', '688', '695', '696', '699', '703', '715', '717', '718', '737', '747', '748', '753', '765', '774', '778', '781', '789', '797', '803', '813', '816', '820', '822', '823', '825', '826', '842', '848', '853', '855', '865', '887', '892', '894', '898', '902', '911', '914', '925', '927', '932', '933', '935', '939', '956', '975', '989', '994', '1000']",False,1000,True,100,536f73e2b8,0.0,1.0,0.0
./expes/v3_2021-02-24_hi_1000-prng-1-w1-fpa10-0.3-p100,30_issda-1000,1000,first-1000,500,50,rng,num-start-100,100,25726,fpa-09-10-0.3-20,6.788867712020874,False,,False,0.2807577899980174,0.2771428062732427,0.29964973728105837,100,"['1', '2', '5', '8', '11', '16', '18', '20', '21', '22', '25', '26', '27', '29', '30', '32', '33', '36', '41', '42', '44', '46', '48', '49', '52', '53', '56', '57', '61', '62', '64', '67', '69', '70', '71', '72', '75', '77', '79', '83', '84', '86', '92', '93', '96', '97', '98', '100', '101', '102', '105', '106', '107', '109', '110', '114', '115', '116', '117', '118', '122', '123', '124', '125', '126', '127', '129', '132', '134', '135', '137', '139', '141', '145', '147', '150', '151', '154', '157', '158', '163', '165', '166', '169', '170', '173', '175', '176', '177', '179', '180', '182', '183', '186', '187', '189', '194', '195', '198', '199', '200', '203', '204', '205', '206', '208', '210', '211', '213', '215', '217', '219', '222', '224', '228', '229', '231', '232', '234', '236', '237', '242', '248', '249', '250', '251', '253', '254', '255', '257', '258', '259', '261', '262', '263', '265', '267', '270', '271', '273', '274', '278', '279', '280', '281', '282', '286', '288', '289', '290', '299', '301', '303', '304', '308', '309', '310', '311', '313', '315', '317', '319', '320', '322', '324', '325', '326', '331', '340', '342', '344', '346', '347', '348', '349', '352', '355', '356', '357', '359', '360', '361', '362', '363', '365', '367', '370', '373', '374', '375', '376', '377', '378', '382', '386', '389', '390', '392', '394', '396', '398', '403', '404', '407', '408', '413', '414', '416', '417', '422', '428', '429', '432', '433', '434', '435', '436', '437', '440', '443', '447', '448', '449', '450', '452', '453', '454', '456', '457', '459', '461', '463', '464', '465', '466', '467', '471', '472', '478', '480', '481', '482', '483', '485', '486', '487', '488', '489', '492', '494', '496', '497', '498', '499', '500', '501', '503', '508', '510', '513', '518', '519', '520', '521', '524', '525', '527', '529', '533', '534', '535', '537', '539', '540', '541', '543', '546', '547', '548', '549', '552', '554', '555', '556', '557', '558', '559', '560', '562', '565', '567', '569', '570', '571', '572', '574', '575', '581', '583', '584', '586', '591', '592', '593', '596', '598', '599', '601', '603', '604', '606', '608', '609', '610', '611', '616', '617', '619', '620', '623', '625', '628', '631', '640', '641', '642', '643', '644', '647', '648', '649', '651', '652', '653', '657', '658', '659', '661', '662', '663', '664', '666', '668', '670', '673', '675', '678', '680', '682', '683', '685', '687', '689', '692', '693', '697', '698', '699', '701', '702', '703', '704', '708', '709', '714', '719', '720', '721', '722', '723', '727', '732', '733', '736', '739', '742', '743', '752', '753', '757', '758', '759', '760', '763', '764', '765', '770', '771', '773', '774', '776', '779', '780', '782', '783', '784', '788', '789', '793', '794', '797', '799', '801', '802', '804', '807', '811', '812', '813', '814', '816', '817', '818', '824', '826', '827', '828', '830', '832', '834', '838', '840', '841', '843', '844', '846', '847', '848', '849', '851', '856', '860', '862', '869', '870', '871', '874', '875', '876', '878', '881', '883', '884', '885', '886', '887', '888', '892', '893', '894', '896', '898', '900', '901', '904', '905', '908', '910', '911', '918', '919', '920', '921', '923', '924', '926', '927', '931', '932', '938', '939', '940', '943', '944', '948', '951', '954', '955', '956', '957', '959', '962', '963', '965', '966', '967', '969', '973', '975', '976', '980', '983', '984', '987', '992', '995', '996', '997', '998', '1000']",False,1000,True,100,0fc085e2cf,0.0,1.0,0.0
./expes/v3_2021-02-24_hi_1000-prng-1-w1-fpa10-0.3-p100,30_issda-1000,1000,first-1000,400,40,rng,num-start-500,500,25726,fpa-09-10-0.3-20,30.33219265937805,False,,False,0.31644872639339533,0.29964973728105837,0.3199540732697074,100,"['1', '4', '6', '7', '8', '9', '13', '14', '16', '18', '19', '23', '25', '27', '30', '31', '35', '36', '37', '40', '42', '43', '45', '49', '50', '52', '53', '54', '55', '56', '57', '60', '61', '62', '63', '65', '66', '67', '68', '69', '71', '77', '78', '83', '84', '85', '86', '87', '89', '90', '91', '96', '97', '99', '102', '103', '105', '106', '107', '109', '112', '113', '114', '115', '121', '123', '124', '125', '132', '133', '136', '137', '141', '142', '143', '145', '146', '149', '152', '153', '161', '166', '167', '169', '173', '174', '176', '177', '178', '181', '186', '191', '192', '194', '197', '203', '204', '205', '206', '208', '210', '214', '215', '216', '219', '226', '227', '228', '230', '237', '242', '243', '244', '249', '250', '254', '255', '258', '260', '263', '266', '269', '270', '274', '275', '277', '281', '282', '284', '285', '288', '292', '298', '299', '302', '304', '308', '310', '315', '317', '323', '326', '330', '333', '337', '339', '342', '343', '347', '350', '355', '356', '358', '362', '364', '375', '379', '381', '382', '383', '388', '389', '391', '393', '396', '398', '399', '407', '408', '411', '412', '413', '417', '420', '422', '427', '428', '431', '432', '433', '435', '436', '439', '444', '447', '450', '455', '460', '462', '463', '465', '468', '470', '475', '479', '482', '486', '487', '490', '493', '494', '502', '504', '507', '508', '509', '510', '513', '515', '518', '519', '523', '530', '531', '532', '535', '537', '540', '542', '549', '551', '553', '556', '558', '559', '561', '562', '568', '569', '570', '573', '574', '576', '577', '579', '580', '587', '588', '589', '590', '593', '594', '595', '599', '600', '603', '605', '606', '608', '612', '618', '619', '620', '621', '622', '623', '624', '626', '627', '628', '632', '638', '640', '642', '645', '650', '653', '655', '658', '659', '661', '664', '667', '680', '684', '688', '691', '693', '695', '696', '698', '700', '705', '710', '713', '717', '718', '721', '723', '726', '727', '733', '737', '738', '743', '744', '745', '746', '748', '754', '755', '756', '759', '764', '765', '766', '771', '779', '782', '783', '784', '791', '792', '793', '794', '795', '797', '799', '800', '802', '803', '806', '809', '813', '814', '816', '818', '819', '820', '823', '827', '829', '830', '835', '841', '843', '853', '858', '864', '866', '867', '872', '873', '880', '881', '885', '888', '889', '890', '893', '896', '897', '898', '899', '900', '901', '902', '903', '908', '909', '911', '914', '915', '917', '918', '920', '921', '924', '928', '929', '932', '934', '940', '942', '943', '944', '946', '947', '954', '959', '961', '963', '964', '967', '969', '970', '974', '975', '977', '979', '982', '984', '985', '986', '988', '990', '991', '992', '999', '1000']",False,1000,True,100,07468b8049,0.0,1.0,0.0
./expes/v3_2021-02-24_hi_1000-prng-1-w1-fpa10-0.3-p100,30_issda-1000,1000,first-1000,100,10,rng,num-start-300,300,25726,fpa-09-10-0.3-20,19.931397676467896,False,,False,0.5812976423309205,0.5708331511123159,0.5850636528668859,100,"['14', '16', '30', '32', '37', '44', '66', '68', '100', '134', '138', '140', '155', '156', '164', '197', '223', '238', '240', '244', '265', '266', '276', '309', '345', '360', '375', '379', '396', '397', '400', '405', '407', '418', '432', '438', '447', '456', '481', '482', '485', '486', '488', '507', '520', '536', '547', '554', '558', '563', '565', '588', '591', '595', '599', '600', '606', '607', '610', '619', '621', '641', '642', '651', '655', '688', '689', '699', '732', '735', '737', '746', '760', '777', '796', '798', '799', '808', '821', '844', '854', '857', '858', '876', '877', '882', '887', '889', '900', '926', '931', '938', '943', '944', '949', '952', '959', '981', '988', '989']",False,1000,True,100,31aea51e9b,0.0,1.0,0.0
./expes/v3_2021-02-24_hi_1000-prng-1-w1-fpa10-0.3-p100,30_issda-1000,1000,first-1000,300,30,rng,num-start-600,600,25726,fpa-09-10-0.3-20,34.63883996009827,False,,False,0.35140178164210695,0.35005967779924396,0.3531472977420451,100,"['1', '7', '13', '16', '18', '19', '21', '23', '30', '31', '32', '35', '38', '39', '47', '56', '59', '64', '66', '71', '78', '79', '83', '86', '88', '91', '92', '96', '97', '99', '100', '103', '108', '115', '120', '123', '127', '130', '131', '141', '142', '146', '148', '149', '150', '159', '162', '165', '167', '174', '177', '187', '190', '193', '194', '197', '198', '199', '201', '202', '203', '204', '206', '215', '229', '238', '250', '251', '252', '257', '258', '261', '263', '268', '272', '273', '275', '276', '280', '281', '283', '284', '287', '293', '297', '298', '299', '311', '312', '314', '320', '326', '328', '332', '338', '341', '344', '366', '369', '370', '371', '373', '376', '380', '383', '384', '386', '387', '389', '390', '399', '408', '419', '420', '421', '424', '432', '433', '434', '435', '437', '441', '451', '452', '456', '457', '458', '461', '463', '474', '479', '481', '482', '483', '485', '487', '489', '490', '491', '496', '497', '498', '499', '500', '501', '504', '509', '510', '512', '513', '515', '516', '528', '530', '535', '538', '541', '551', '552', '553', '565', '567', '572', '574', '577', '584', '588', '590', '594', '601', '603', '604', '609', '612', '617', '618', '622', '623', '625', '627', '629', '632', '633', '634', '635', '636', '639', '641', '644', '645', '647', '649', '650', '651', '653', '661', '662', '664', '670', '672', '673', '676', '679', '685', '687', '688', '695', '696', '697', '698', '699', '703', '711', '712', '715', '717', '718', '719', '723', '730', '732', '736', '737', '739', '740', '742', '747', '748', '753', '765', '774', '778', '781', '789', '793', '797', '798', '802', '803', '811', '813', '816', '820', '822', '823', '825', '826', '834', '837', '838', '842', '848', '852', '853', '855', '859', '865', '874', '879', '887', '892', '894', '898', '901', '902', '911', '914', '915', '922', '925', '927', '930', '931', '932', '933', '934', '935', '936', '939', '942', '946', '947', '950', '956', '957', '960', '961', '963', '964', '967', '971', '975', '986', '988', '989', '990', '994', '995', '999', '1000']",False,1000,True,100,0edfe46046,0.0,1.0,0.0
./expes/v3_2021-02-24_hi_1000-prng-1-w1-fpa10-0.3-p100,30_issda-1000,1000,first-1000,500,50,rng,num-start-300,300,25726,fpa-09-10-0.3-20,16.621191024780273,False,,False,0.3019360690722662,0.27162473234566065,0.3155524355595466,100,"['3', '8', '9', '13', '14', '17', '18', '19', '20', '21', '23', '24', '25', '26', '27', '28', '33', '35', '36', '37', '38', '41', '42', '43', '44', '45', '47', '48', '49', '50', '51', '57', '62', '64', '65', '66', '68', '69', '70', '71', '73', '74', '75', '76', '78', '80', '84', '86', '88', '89', '91', '94', '96', '97', '98', '101', '102', '104', '105', '106', '108', '110', '111', '112', '115', '117', '119', '120', '123', '124', '125', '127', '129', '130', '131', '132', '136', '138', '140', '141', '142', '143', '144', '149', '150', '152', '153', '155', '156', '157', '159', '160', '163', '168', '169', '170', '171', '175', '176', '177', '180', '182', '185', '188', '190', '191', '192', '193', '194', '195', '196', '197', '199', '202', '205', '207', '208', '213', '214', '215', '216', '221', '227', '230', '231', '232', '233', '236', '239', '243', '247', '248', '250', '251', '252', '255', '256', '258', '259', '260', '262', '265', '267', '268', '269', '270', '271', '275', '276', '278', '279', '281', '282', '284', '286', '288', '290', '291', '293', '297', '299', '301', '303', '307', '309', '312', '314', '315', '316', '317', '318', '319', '323', '325', '326', '332', '333', '334', '336', '337', '338', '340', '341', '342', '345', '355', '356', '358', '359', '361', '363', '366', '371', '372', '373', '376', '378', '379', '382', '386', '389', '391', '393', '394', '396', '397', '398', '400', '402', '403', '406', '407', '410', '411', '412', '414', '415', '416', '417', '422', '424', '425', '426', '428', '431', '434', '436', '438', '439', '440', '441', '447', '448', '449', '450', '451', '455', '456', '458', '459', '461', '462', '463', '464', '466', '467', '469', '470', '472', '473', '475', '476', '478', '479', '480', '481', '482', '488', '489', '490', '491', '492', '495', '498', '499', '500', '501', '502', '503', '504', '506', '513', '515', '517', '518', '522', '524', '526', '527', '528', '533', '534', '535', '537', '539', '540', '542', '543', '547', '548', '550', '551', '553', '555', '556', '558', '559', '560', '561', '562', '565', '568', '569', '571', '573', '576', '577', '583', '584', '585', '588', '589', '590', '591', '592', '593', '595', '598', '599', '602', '603', '604', '606', '607', '608', '609', '610', '611', '612', '613', '614', '623', '624', '625', '626', '628', '630', '631', '633', '635', '636', '642', '643', '645', '647', '650', '651', '652', '653', '654', '656', '657', '662', '663', '665', '667', '669', '670', '673', '674', '675', '676', '678', '680', '684', '685', '686', '688', '691', '693', '694', '698', '699', '701', '703', '704', '705', '706', '710', '712', '713', '714', '716', '719', '723', '727', '733', '734', '735', '737', '738', '743', '746', '749', '752', '754', '756', '757', '760', '763', '764', '766', '770', '771', '773', '774', '775', '784', '786', '792', '793', '794', '797', '801', '803', '804', '805', '807', '809', '811', '815', '816', '821', '823', '824', '828', '831', '832', '835', '840', '845', '846', '851', '852', '854', '855', '856', '862', '865', '866', '870', '871', '874', '877', '878', '881', '883', '887', '890', '893', '895', '900', '901', '905', '906', '907', '908', '912', '916', '917', '918', '919', '927', '928', '930', '932', '937', '943', '944', '946', '948', '949', '951', '952', '953', '954', '956', '958', '959', '960', '962', '967', '968', '969', '971', '973', '977', '978', '979', '980', '982', '985', '987', '989', '990', '991', '992', '994', '995', '997']",False,1000,True,100,86ef23fd85,0.0,1.0,0.0
./expes/v3_2021-02-24_hi_1000-prng-1-w1-fpa10-0.3-p100,30_issda-1000,1000,first-1000,150,15,rng,num-start-1000,1000,25726,fpa-09-10-0.3-20,143.68082189559937,False,,False,0.499904139702077,0.4898429062923262,0.5119034539783771,100,"['11', '20', '22', '29', '44', '69', '72', '75', '86', '92', '96', '97', '98', '105', '110', '115', '117', '122', '125', '126', '147', '154', '165', '166', '169', '173', '186', '194', '199', '210', '224', '229', '242', '253', '261', '262', '263', '267', '270', '274', '278', '281', '282', '286', '288', '289', '299', '310', '311', '317', '324', '346', '356', '365', '367', '370', '373', '377', '392', '396', '404', '407', '414', '416', '422', '428', '434', '436', '448', '450', '452', '461', '464', '467', '471', '478', '481', '483', '486', '492', '497', '499', '501', '513', '527', '529', '539', '540', '543', '548', '565', '574', '583', '584', '586', '593', '598', '601', '604', '610', '623', '631', '640', '644', '647', '648', '649', '653', '657', '668', '675', '680', '682', '689', '701', '702', '703', '704', '720', '721', '722', '727', '752', '753', '759', '765', '774', '797', '817', '818', '824', '828', '838', '846', '847', '875', '886', '887', '892', '894', '896', '908', '918', '924', '931', '957', '962', '963', '967', '998']",False,1000,True,100,b0548ec798,0.0,1.0,0.0
./expes/v3_2021-02-24_hi_1000-prng-1-w1-fpa10-0.3-p100,30_issda-1000,1000,first-1000,400,40,rng,num-start-300,300,25726,fpa-09-10-0.3-20,17.459359407424927,False,,False,0.302969273803097,0.2911258909351375,0.3273541403885306,100,"['4', '5', '7', '13', '14', '18', '21', '23', '24', '27', '32', '34', '35', '38', '39', '40', '45', '47', '51', '53', '59', '60', '63', '65', '66', '67', '68', '71', '72', '74', '77', '82', '83', '84', '85', '86', '87', '88', '89', '90', '92', '93', '95', '96', '98', '100', '103', '109', '110', '111', '112', '115', '117', '120', '124', '125', '130', '139', '141', '143', '144', '146', '152', '153', '154', '158', '159', '161', '163', '164', '165', '168', '171', '175', '177', '180', '181', '183', '195', '196', '197', '198', '199', '201', '203', '204', '206', '207', '211', '213', '215', '216', '217', '226', '228', '230', '231', '233', '235', '237', '238', '240', '241', '250', '251', '252', '254', '256', '261', '262', '265', '271', '274', '276', '278', '281', '284', '290', '292', '293', '296', '297', '298', '299', '301', '303', '304', '306', '307', '308', '310', '317', '320', '322', '327', '328', '329', '332', '334', '335', '346', '347', '349', '351', '352', '353', '357', '360', '365', '366', '367', '369', '370', '371', '373', '375', '376', '377', '379', '380', '385', '386', '387', '388', '389', '390', '391', '393', '394', '396', '398', '399', '400', '404', '406', '407', '411', '413', '417', '418', '420', '422', '427', '428', '430', '434', '437', '438', '442', '443', '445', '447', '451', '453', '456', '457', '464', '465', '467', '468', '469', '471', '474', '483', '485', '486', '497', '500', '501', '502', '507', '509', '510', '511', '514', '515', '516', '517', '518', '519', '520', '523', '527', '529', '530', '533', '534', '537', '538', '539', '540', '541', '542', '545', '548', '553', '559', '561', '570', '571', '578', '580', '581', '583', '587', '588', '593', '594', '595', '596', '599', '600', '603', '611', '615', '616', '619', '620', '622', '625', '627', '628', '633', '636', '639', '640', '641', '648', '658', '660', '662', '663', '664', '666', '668', '669', '670', '671', '673', '674', '675', '677', '679', '680', '686', '690', '693', '701', '702', '707', '708', '718', '719', '722', '723', '726', '733', '735', '737', '739', '743', '744', '746', '747', '751', '754', '759', '762', '763', '766', '767', '768', '774', '778', '783', '785', '799', '800', '801', '803', '806', '810', '813', '816', '824', '827', '828', '831', '833', '834', '835', '837', '839', '841', '843', '845', '846', '849', '850', '851', '852', '855', '856', '857', '859', '863', '864', '867', '868', '871', '873', '876', '878', '880', '881', '886', '888', '890', '897', '900', '903', '905', '910', '913', '915', '917', '919', '922', '924', '925', '926', '927', '928', '929', '930', '931', '932', '934', '935', '939', '941', '942', '943', '948', '950', '951', '955', '959', '965', '969', '973', '981', '982', '986', '989', '991', '992', '994', '997', '999']",False,1000,True,100,79c83b492b,0.0,1.0,0.0
./expes/v3_2021-02-24_hi_1000-prng-1-w1-fpa10-0.3-p100,30_issda-1000,1000,first-1000,300,30,rng,num-start-900,900,25726,fpa-09-10-0.3-20,72.08305025100708,False,,False,0.3342215101564569,0.33183351891430046,0.3393666399307128,100,"['3', '8', '9', '17', '18', '24', '26', '27', '33', '35', '38', '41', '42', '45', '47', '48', '62', '64', '66', '69', '70', '73', '74', '76', '78', '80', '88', '91', '94', '96', '97', '101', '102', '104', '106', '108', '110', '111', '115', '117', '119', '123', '124', '125', '127', '129', '130', '132', '138', '140', '141', '142', '144', '152', '157', '159', '163', '170', '175', '176', '180', '188', '192', '195', '196', '197', '202', '205', '207', '208', '213', '215', '216', '227', '230', '231', '232', '239', '247', '251', '252', '256', '260', '265', '267', '268', '269', '270', '271', '275', '281', '282', '284', '288', '291', '293', '297', '301', '303', '307', '309', '312', '314', '316', '319', '325', '326', '332', '333', '334', '336', '338', '340', '355', '356', '363', '366', '371', '376', '378', '379', '386', '389', '394', '396', '398', '400', '402', '403', '406', '414', '416', '417', '422', '424', '425', '431', '434', '439', '440', '441', '447', '448', '449', '450', '451', '455', '456', '459', '461', '463', '466', '467', '469', '470', '472', '473', '475', '478', '479', '480', '481', '482', '488', '490', '492', '506', '513', '515', '517', '518', '522', '524', '526', '527', '533', '537', '542', '555', '556', '559', '561', '568', '569', '573', '576', '583', '584', '585', '591', '593', '598', '599', '602', '603', '604', '606', '608', '609', '610', '611', '628', '630', '633', '636', '642', '650', '652', '653', '657', '662', '665', '669', '670', '673', '675', '676', '680', '684', '693', '694', '698', '699', '701', '703', '704', '712', '713', '723', '727', '733', '734', '735', '738', '743', '746', '749', '752', '754', '756', '757', '764', '770', '771', '774', '784', '792', '794', '804', '805', '811', '815', '821', '823', '824', '831', '845', '846', '852', '854', '855', '856', '862', '865', '870', '871', '874', '877', '881', '887', '890', '893', '895', '900', '901', '905', '906', '912', '917', '918', '919', '928', '937', '943', '948', '952', '953', '958', '959', '969', '973', '977', '979', '980', '982', '989', '992', '994', '995', '997']",False,1000,True,100,cd5d9c7a56,0.0,1.0,0.0
./expes/v3_2021-02-24_hi_1000-prng-1-w1-fpa10-0.3-p100,30_issda-1000,1000,first-1000,500,50,rng,num-start-800,800,25726,fpa-09-10-0.3-20,44.646620750427246,False,,False,0.2514214597820926,0.2472938378314108,0.2967969749108764,100,"['2', '4', '7', '8', '9', '12', '13', '14', '18', '20', '22', '23', '25', '26', '27', '28', '29', '30', '31', '32', '34', '38', '39', '41', '44', '45', '48', '51', '53', '54', '55', '58', '59', '61', '63', '64', '74', '75', '77', '80', '85', '86', '87', '90', '93', '94', '96', '100', '101', '105', '106', '109', '111', '113', '116', '117', '119', '121', '126', '127', '128', '129', '130', '133', '135', '138', '139', '140', '141', '142', '146', '147', '149', '151', '152', '159', '160', '165', '167', '168', '172', '174', '175', '176', '181', '183', '184', '185', '187', '188', '189', '194', '195', '197', '200', '201', '202', '203', '204', '205', '206', '207', '210', '211', '212', '214', '215', '216', '217', '218', '220', '226', '228', '229', '230', '232', '233', '234', '235', '236', '238', '241', '245', '246', '248', '252', '254', '256', '258', '259', '261', '262', '265', '266', '268', '269', '270', '273', '275', '276', '278', '281', '284', '285', '286', '287', '289', '290', '292', '293', '299', '301', '304', '306', '313', '315', '316', '318', '319', '320', '321', '324', '326', '329', '330', '331', '332', '336', '338', '341', '344', '345', '346', '348', '349', '350', '351', '353', '356', '357', '359', '362', '363', '365', '368', '369', '370', '371', '372', '373', '374', '375', '376', '377', '378', '381', '384', '388', '389', '391', '394', '395', '398', '399', '401', '403', '404', '405', '410', '411', '415', '416', '417', '418', '419', '423', '425', '426', '428', '429', '431', '434', '435', '438', '440', '441', '442', '443', '444', '446', '447', '451', '455', '456', '460', '467', '468', '471', '472', '476', '479', '481', '484', '486', '487', '488', '489', '493', '495', '497', '498', '499', '500', '502', '504', '505', '507', '511', '512', '513', '514', '515', '516', '518', '520', '522', '524', '526', '527', '528', '529', '530', '532', '534', '536', '540', '541', '542', '548', '550', '551', '553', '555', '557', '558', '560', '562', '563', '564', '568', '569', '571', '572', '574', '577', '579', '584', '585', '587', '591', '595', '602', '603', '608', '609', '611', '614', '615', '616', '617', '622', '623', '624', '626', '631', '632', '633', '634', '637', '638', '640', '643', '645', '648', '650', '651', '653', '654', '655', '656', '657', '659', '666', '668', '669', '672', '674', '675', '676', '677', '678', '680', '683', '684', '685', '686', '690', '692', '695', '696', '698', '699', '700', '701', '702', '703', '704', '705', '706', '707', '708', '711', '713', '714', '715', '716', '718', '722', '723', '728', '733', '734', '737', '739', '744', '749', '750', '752', '753', '754', '757', '760', '765', '767', '772', '775', '776', '778', '779', '780', '781', '784', '785', '788', '790', '791', '793', '794', '803', '804', '805', '807', '808', '809', '811', '812', '813', '815', '816', '817', '818', '820', '821', '823', '826', '827', '829', '830', '831', '833', '835', '836', '839', '840', '841', '843', '846', '851', '852', '854', '856', '857', '860', '861', '863', '864', '866', '870', '874', '876', '877', '880', '881', '883', '884', '886', '887', '890', '894', '895', '901', '903', '904', '906', '907', '908', '909', '915', '916', '918', '919', '920', '923', '925', '926', '928', '933', '934', '937', '938', '939', '941', '943', '946', '947', '948', '949', '950', '956', '957', '958', '959', '963', '964', '967', '970', '971', '973', '976', '979', '980', '982', '984', '986', '988', '989', '991', '995', '996', '1000']",False,1000,True,100,ad04ccaf6b,0.0,1.0,0.0
./expes/v3_2021-02-24_hi_1000-prng-1-w1-fpa10-0.3-p100,30_issda-1000,1000,first-1000,50,5,rng,num-start-1000,1000,25726,fpa-09-10-0.3-20,111.02577710151672,False,,False,0.6877261054031751,0.6836140014158336,0.6900062966831486,100,"['42', '76', '98', '102', '104', '143', '144', '151', '224', '257', '266', '289', '311', '318', '339', '363', '367', '395', '415', '431', '484', '489', '498', '517', '524', '546', '574', '598', '617', '634', '701', '723', '748', '774', '777', '803', '819', '830', '850', '865', '871', '912', '914', '921', '924', '930', '932', '941', '989', '992']",False,1000,True,100,a1a2dd7392,0.0,1.0,0.0
./expes/v3_2021-02-24_hi_1000-prng-1-w1-fpa10-0.3-p100,30_issda-1000,1000,first-1000,50,5,rng,num-start-500,500,25726,fpa-09-10-0.3-20,34.195899963378906,False,,False,0.6850174329398945,0.6836140014158336,0.6965332108910564,100,"['2', '14', '30', '54', '74', '105', '116', '130', '136', '143', '161', '164', '187', '222', '253', '256', '262', '287', '368', '381', '390', '399', '418', '456', '477', '481', '543', '557', '588', '633', '638', '665', '668', '708', '749', '758', '760', '781', '785', '795', '815', '817', '861', '862', '889', '890', '923', '939', '945', '966']",False,1000,True,100,ef88776c47,0.0,1.0,0.0
./expes/v3_2021-02-24_hi_1000-prng-1-w1-fpa10-0.3-p100,30_issda-1000,1000,first-1000,200,20,rng,num-start-600,600,25726,fpa-09-10-0.3-20,40.6068480014801,False,,False,0.42303374656986675,0.42005488506554667,0.4270005861012348,100,"['4', '13', '14', '18', '21', '27', '32', '34', '35', '39', '45', '60', '63', '65', '66', '72', '74', '83', '88', '89', '92', '98', '100', '110', '111', '117', '120', '124', '130', '139', '141', '143', '144', '146', '152', '153', '154', '158', '163', '165', '171', '175', '180', '195', '197', '198', '199', '203', '207', '213', '215', '216', '226', '233', '238', '240', '241', '250', '254', '261', '265', '274', '292', '293', '296', '303', '306', '307', '308', '317', '322', '334', '347', '349', '351', '352', '353', '360', '365', '366', '369', '375', '380', '385', '386', '387', '389', '390', '396', '400', '406', '411', '413', '417', '418', '420', '427', '428', '434', '437', '447', '456', '457', '465', '468', '471', '486', '497', '500', '501', '507', '510', '511', '516', '518', '519', '520', '523', '530', '533', '534', '540', '542', '545', '553', '559', '571', '578', '583', '587', '588', '593', '596', '599', '603', '616', '619', '622', '633', '636', '639', '658', '660', '662', '666', '673', '674', '675', '677', '679', '680', '707', '708', '718', '719', '722', '723', '726', '735', '744', '747', '762', '778', '783', '785', '816', '828', '831', '834', '850', '851', '855', '856', '857', '864', '873', '876', '878', '881', '897', '900', '903', '905', '913', '919', '924', '925', '926', '927', '930', '934', '935', '955', '959', '969', '973', '986', '989', '997', '999']",False,1000,True,100,818233367e,0.0,1.0,0.0
./expes/v3_2021-02-24_hi_1000-prng-1-w1-fpa10-0.3-p100,30_issda-1000,1000,first-1000,500,50,rng,num-start-800,800,25726,fpa-09-10-0.3-20,48.74544548988342,False,,False,0.28143901994184345,0.2730003242583058,0.2967969749108764,100,"['1', '2', '3', '4', '9', '10', '13', '14', '15', '16', '17', '20', '23', '24', '28', '29', '33', '34', '37', '38', '39', '40', '41', '42', '43', '44', '47', '48', '50', '52', '60', '63', '64', '65', '66', '68', '71', '72', '73', '74', '76', '81', '83', '84', '85', '86', '87', '90', '92', '94', '96', '98', '101', '102', '103', '104', '108', '112', '118', '119', '120', '121', '122', '123', '127', '128', '133', '134', '136', '137', '139', '142', '143', '144', '146', '150', '151', '152', '154', '155', '158', '159', '160', '162', '163', '164', '166', '168', '170', '171', '174', '175', '180', '183', '184', '185', '187', '189', '190', '192', '193', '194', '195', '196', '197', '200', '203', '204', '205', '207', '209', '210', '211', '213', '216', '219', '221', '222', '223', '224', '225', '226', '227', '228', '229', '242', '245', '246', '248', '249', '250', '257', '263', '264', '266', '267', '268', '277', '278', '282', '283', '286', '287', '288', '289', '295', '297', '298', '299', '301', '307', '309', '310', '311', '316', '318', '319', '320', '323', '324', '325', '326', '328', '330', '331', '333', '334', '337', '339', '341', '342', '343', '344', '346', '347', '349', '351', '352', '356', '359', '361', '363', '366', '367', '368', '370', '371', '376', '377', '378', '380', '381', '382', '385', '388', '389', '395', '398', '401', '404', '405', '407', '408', '409', '412', '413', '415', '416', '420', '425', '426', '428', '429', '430', '431', '434', '436', '437', '442', '445', '446', '447', '453', '454', '456', '457', '458', '459', '460', '462', '463', '464', '469', '470', '479', '482', '483', '484', '486', '488', '489', '490', '491', '493', '494', '498', '499', '500', '501', '502', '505', '506', '507', '508', '510', '511', '516', '517', '521', '524', '532', '534', '535', '536', '538', '539', '541', '542', '543', '546', '548', '551', '554', '556', '557', '558', '560', '561', '562', '565', '566', '570', '572', '574', '575', '578', '579', '582', '583', '584', '588', '590', '594', '597', '598', '599', '600', '602', '604', '605', '609', '611', '612', '617', '618', '619', '621', '623', '625', '626', '627', '628', '634', '636', '639', '641', '642', '643', '646', '649', '650', '651', '653', '654', '655', '656', '657', '660', '661', '663', '665', '667', '670', '672', '673', '674', '677', '679', '682', '685', '687', '689', '690', '692', '693', '694', '695', '696', '697', '698', '700', '701', '704', '706', '708', '715', '716', '717', '718', '719', '721', '723', '724', '727', '728', '730', '732', '733', '735', '736', '737', '743', '745', '747', '748', '749', '750', '753', '757', '760', '765', '767', '768', '771', '773', '774', '776', '777', '781', '786', '791', '796', '799', '802', '803', '804', '808', '809', '812', '813', '814', '817', '818', '819', '820', '823', '825', '826', '828', '829', '830', '832', '835', '836', '837', '838', '842', '843', '845', '846', '847', '848', '849', '850', '851', '854', '856', '858', '859', '861', '862', '863', '865', '866', '867', '870', '871', '872', '874', '875', '876', '878', '883', '885', '887', '889', '892', '893', '895', '896', '897', '898', '899', '906', '907', '910', '912', '914', '916', '917', '920', '921', '922', '924', '925', '927', '930', '931', '932', '935', '936', '938', '939', '940', '941', '942', '943', '944', '945', '946', '954', '956', '957', '959', '960', '961', '970', '971', '973', '977', '985', '986', '987', '989', '990', '991', '992', '994', '998', '1000']",False,1000,True,100,8790e92513,0.0,1.0,0.0
./expes/v3_2021-02-24_hi_1000-prng-1-w1-fpa10-0.3-p100,30_issda-1000,1000,first-1000,500,50,rng,num-start-1000,1000,25726,fpa-09-10-0.3-20,79.42430281639099,False,,False,0.3014857355350386,0.2953749248738756,0.3068330067866182,100,"['1', '2', '3', '4', '6', '10', '11', '12', '14', '15', '17', '19', '21', '23', '24', '25', '27', '28', '29', '30', '33', '34', '36', '37', '38', '41', '43', '45', '48', '50', '51', '54', '56', '58', '59', '61', '65', '67', '68', '69', '71', '74', '81', '83', '88', '92', '94', '95', '98', '105', '110', '111', '114', '116', '118', '122', '125', '126', '127', '130', '133', '134', '136', '137', '138', '140', '143', '145', '146', '147', '150', '151', '152', '153', '154', '158', '159', '161', '163', '164', '166', '170', '171', '173', '174', '176', '177', '181', '182', '183', '184', '185', '186', '187', '188', '190', '196', '199', '201', '202', '204', '210', '213', '214', '215', '219', '221', '222', '225', '232', '236', '244', '250', '252', '253', '256', '257', '258', '259', '262', '263', '267', '271', '272', '274', '275', '278', '279', '281', '283', '286', '287', '288', '290', '293', '294', '296', '297', '299', '300', '301', '302', '303', '304', '306', '308', '309', '310', '311', '314', '315', '317', '318', '319', '320', '322', '323', '324', '325', '326', '327', '334', '339', '340', '342', '343', '345', '347', '348', '349', '353', '354', '357', '359', '360', '361', '364', '365', '366', '367', '368', '370', '371', '372', '373', '374', '375', '377', '379', '381', '382', '383', '385', '386', '387', '389', '390', '392', '393', '394', '395', '399', '402', '409', '414', '415', '416', '418', '419', '420', '424', '425', '426', '427', '429', '430', '431', '432', '436', '438', '440', '443', '444', '445', '449', '452', '455', '456', '461', '464', '465', '467', '474', '475', '476', '477', '479', '481', '482', '483', '484', '486', '487', '488', '489', '490', '491', '492', '493', '494', '495', '496', '498', '499', '500', '502', '504', '505', '506', '509', '510', '512', '513', '515', '525', '526', '528', '529', '531', '535', '538', '543', '545', '546', '547', '551', '552', '553', '555', '557', '559', '561', '562', '563', '564', '567', '569', '573', '574', '578', '580', '585', '588', '590', '593', '595', '597', '600', '601', '602', '604', '605', '609', '610', '611', '616', '618', '619', '623', '624', '626', '627', '629', '630', '632', '633', '636', '637', '638', '639', '640', '641', '642', '643', '645', '646', '647', '648', '653', '654', '658', '660', '661', '662', '663', '664', '665', '666', '667', '668', '676', '677', '678', '679', '680', '682', '685', '687', '688', '690', '695', '699', '702', '703', '704', '705', '706', '708', '709', '712', '714', '719', '720', '722', '723', '725', '726', '730', '734', '736', '737', '738', '739', '740', '748', '749', '750', '751', '756', '758', '759', '760', '761', '762', '763', '764', '767', '768', '774', '777', '778', '779', '781', '785', '789', '793', '794', '795', '798', '800', '801', '805', '807', '811', '815', '817', '818', '821', '822', '827', '832', '833', '837', '838', '839', '840', '841', '842', '845', '847', '849', '850', '852', '856', '857', '859', '861', '862', '863', '864', '865', '866', '873', '875', '876', '877', '880', '881', '885', '888', '889', '890', '891', '893', '894', '898', '900', '902', '910', '911', '913', '914', '915', '916', '917', '919', '921', '923', '924', '925', '933', '934', '936', '939', '941', '945', '946', '947', '952', '958', '959', '960', '961', '962', '964', '965', '966', '968', '969', '973', '974', '975', '976', '977', '978', '979', '980', '981', '982', '983', '984', '985', '988', '989', '990', '992', '996', '997', '999', '1000']",False,1000,True,100,8d477e7825,0.0,1.0,0.0
./expes/v3_2021-02-24_hi_1000-prng-1-w1-fpa10-0.3-p100,30_issda-1000,1000,first-1000,350,35,rng,num-start-700,700,25726,fpa-09-10-0.3-20,42.39625692367554,False,,False,0.33485501256369476,0.3199540732697074,0.3378531594589925,100,"['4', '8', '10', '11', '14', '19', '21', '27', '28', '33', '36', '37', '38', '42', '43', '44', '45', '46', '48', '53', '55', '57', '61', '62', '64', '69', '77', '80', '81', '82', '84', '85', '88', '89', '92', '93', '96', '100', '104', '106', '109', '116', '117', '119', '120', '126', '131', '140', '143', '146', '149', '154', '157', '159', '161', '163', '166', '169', '170', '172', '173', '174', '177', '182', '183', '189', '193', '196', '197', '199', '200', '201', '204', '206', '207', '208', '211', '213', '214', '216', '217', '220', '221', '224', '225', '228', '235', '238', '239', '242', '244', '248', '249', '254', '255', '256', '257', '260', '261', '264', '266', '267', '268', '269', '275', '276', '279', '283', '284', '285', '287', '288', '293', '296', '297', '298', '299', '300', '301', '304', '305', '308', '311', '313', '318', '320', '323', '329', '330', '331', '332', '333', '335', '339', '340', '345', '346', '347', '352', '356', '365', '366', '369', '372', '373', '374', '382', '391', '397', '398', '400', '402', '405', '406', '412', '413', '414', '420', '421', '423', '424', '428', '431', '432', '434', '435', '439', '441', '442', '447', '450', '451', '452', '455', '463', '465', '466', '471', '474', '476', '483', '484', '485', '490', '491', '501', '503', '504', '507', '509', '511', '519', '521', '532', '533', '536', '539', '540', '541', '542', '548', '550', '557', '560', '561', '563', '564', '572', '575', '576', '579', '583', '584', '586', '587', '597', '603', '609', '610', '614', '621', '622', '623', '625', '631', '633', '635', '636', '642', '643', '648', '650', '651', '657', '658', '663', '664', '668', '669', '670', '671', '673', '684', '685', '688', '690', '692', '694', '697', '703', '705', '713', '715', '718', '722', '726', '735', '739', '750', '753', '755', '763', '765', '784', '786', '787', '789', '791', '793', '794', '799', '802', '803', '804', '807', '810', '817', '818', '819', '820', '821', '824', '827', '830', '833', '835', '838', '839', '847', '848', '849', '851', '855', '858', '860', '861', '866', '869', '876', '877', '880', '883', '886', '887', '889', '891', '892', '895', '898', '899', '900', '901', '902', '904', '911', '913', '914', '916', '918', '921', '922', '923', '927', '931', '936', '938', '939', '940', '945', '947', '950', '951', '953', '958', '965', '966', '967', '968', '974', '978', '980', '983', '984', '985', '986', '988', '990', '992', '994', '995']",False,1000,True,100,8a5745dabc,0.0,1.0,0.0
./expes/v3_2021-02-24_hi_1000-prng-1-w1-fpa10-0.3-p100,30_issda-1000,1000,first-1000,400,40,rng,num-start-400,400,25726,fpa-09-10-0.3-20,23.50300121307373,False,,False,0.29174180747562417,0.2869021746572855,0.31409149992840113,100,"['2', '5', '6', '9', '17', '19', '20', '21', '22', '25', '26', '29', '32', '33', '35', '37', '38', '39', '42', '45', '47', '51', '53', '58', '59', '61', '62', '69', '70', '73', '76', '78', '79', '83', '85', '87', '89', '90', '94', '96', '97', '99', '103', '104', '105', '108', '109', '114', '116', '118', '119', '122', '125', '126', '131', '132', '135', '140', '144', '145', '148', '151', '155', '156', '158', '161', '163', '165', '166', '169', '171', '174', '175', '177', '178', '181', '182', '186', '187', '189', '196', '197', '204', '213', '214', '216', '218', '223', '225', '228', '231', '233', '234', '237', '238', '239', '242', '247', '251', '253', '254', '256', '257', '258', '260', '261', '262', '263', '266', '269', '271', '273', '275', '276', '280', '286', '292', '293', '297', '298', '304', '311', '314', '316', '317', '318', '320', '324', '327', '333', '336', '343', '346', '350', '353', '354', '360', '363', '365', '367', '369', '370', '371', '372', '373', '375', '376', '381', '382', '383', '384', '390', '394', '395', '400', '401', '402', '403', '405', '410', '412', '417', '419', '421', '423', '425', '427', '429', '430', '434', '436', '438', '442', '445', '456', '457', '459', '460', '463', '465', '466', '468', '469', '473', '475', '476', '477', '482', '485', '490', '492', '496', '498', '499', '501', '502', '503', '504', '510', '511', '513', '515', '517', '520', '521', '522', '523', '524', '525', '527', '528', '531', '532', '534', '535', '536', '538', '539', '544', '549', '558', '559', '562', '565', '571', '572', '574', '576', '582', '586', '589', '590', '596', '599', '600', '603', '604', '606', '608', '611', '620', '621', '622', '626', '629', '631', '632', '634', '637', '639', '640', '643', '651', '653', '654', '657', '658', '664', '668', '669', '671', '675', '677', '678', '680', '686', '687', '689', '691', '696', '697', '698', '699', '701', '702', '704', '707', '709', '710', '713', '716', '717', '723', '724', '726', '727', '732', '733', '734', '735', '737', '741', '742', '744', '746', '747', '749', '753', '754', '757', '758', '761', '763', '766', '769', '772', '773', '774', '778', '779', '782', '785', '792', '794', '796', '800', '804', '808', '809', '811', '814', '816', '818', '819', '820', '822', '823', '824', '826', '829', '830', '832', '833', '835', '838', '841', '845', '846', '852', '856', '857', '859', '861', '870', '871', '875', '880', '881', '884', '887', '892', '896', '897', '898', '902', '903', '904', '905', '906', '909', '911', '914', '916', '917', '920', '922', '923', '924', '925', '929', '930', '931', '934', '938', '939', '941', '943', '944', '948', '952', '955', '957', '958', '959', '961', '964', '967', '971', '973', '978', '979', '981', '982', '983', '984', '985', '987', '994', '995', '998']",False,1000,True,100,cd147bc935,0.0,1.0,0.0
./expes/v3_2021-02-24_hi_1000-prng-1-w1-fpa10-0.3-p100,30_issda-1000,1000,first-1000,500,50,rng,num-start-200,200,25726,fpa-09-10-0.3-20,11.361921787261963,False,,False,0.3032120355804635,0.2799177001769044,0.3068330067866182,100,"['3', '4', '5', '8', '9', '10', '12', '16', '18', '20', '25', '30', '32', '35', '38', '40', '43', '44', '45', '46', '49', '50', '56', '57', '58', '61', '62', '64', '66', '67', '68', '69', '71', '73', '75', '76', '81', '84', '87', '92', '94', '95', '99', '101', '102', '103', '111', '112', '116', '119', '120', '124', '125', '126', '128', '132', '134', '135', '141', '143', '144', '146', '148', '149', '151', '153', '156', '158', '160', '161', '162', '163', '164', '165', '166', '168', '169', '171', '172', '174', '175', '176', '177', '178', '181', '184', '190', '192', '201', '211', '212', '214', '218', '219', '220', '221', '222', '225', '226', '227', '228', '229', '231', '232', '234', '235', '237', '238', '240', '241', '245', '246', '247', '249', '250', '254', '256', '257', '258', '261', '262', '263', '267', '268', '269', '270', '277', '278', '279', '280', '281', '288', '294', '295', '298', '303', '304', '310', '312', '313', '314', '318', '319', '320', '321', '323', '325', '326', '327', '330', '331', '332', '333', '337', '338', '339', '340', '341', '342', '343', '344', '345', '346', '347', '349', '351', '352', '353', '356', '357', '362', '363', '364', '365', '366', '368', '369', '370', '377', '378', '380', '382', '386', '388', '389', '391', '395', '397', '398', '399', '400', '402', '404', '405', '409', '412', '413', '415', '416', '418', '425', '428', '429', '430', '431', '432', '434', '439', '442', '443', '445', '447', '450', '451', '453', '455', '456', '457', '460', '461', '462', '463', '466', '467', '470', '471', '473', '474', '476', '478', '479', '480', '482', '485', '486', '487', '488', '491', '492', '493', '494', '496', '498', '502', '503', '504', '505', '506', '507', '509', '510', '511', '512', '513', '514', '515', '518', '519', '521', '523', '524', '525', '529', '531', '532', '533', '534', '536', '543', '545', '547', '549', '557', '558', '561', '562', '564', '565', '568', '569', '571', '574', '579', '581', '584', '585', '586', '589', '590', '592', '593', '596', '598', '599', '600', '601', '602', '605', '608', '610', '611', '613', '618', '620', '626', '627', '629', '630', '632', '633', '634', '638', '640', '642', '643', '644', '647', '650', '651', '652', '654', '657', '661', '662', '663', '664', '665', '668', '671', '672', '673', '675', '676', '679', '681', '682', '685', '686', '688', '690', '693', '694', '695', '698', '699', '701', '702', '705', '706', '708', '709', '710', '711', '712', '713', '714', '718', '719', '723', '725', '726', '727', '730', '737', '739', '741', '742', '743', '745', '747', '753', '754', '756', '758', '759', '760', '761', '762', '763', '764', '769', '770', '772', '774', '776', '777', '779', '786', '791', '793', '796', '797', '798', '801', '802', '803', '804', '808', '812', '814', '816', '817', '819', '820', '823', '824', '825', '826', '830', '831', '834', '841', '842', '843', '845', '848', '851', '856', '858', '859', '861', '862', '864', '865', '868', '869', '872', '874', '875', '876', '877', '878', '879', '882', '884', '885', '887', '888', '889', '890', '891', '892', '894', '896', '897', '899', '900', '901', '903', '905', '906', '907', '908', '909', '912', '914', '915', '916', '921', '924', '927', '929', '930', '931', '932', '934', '935', '937', '939', '942', '943', '944', '945', '948', '950', '951', '953', '954', '957', '958', '959', '961', '964', '968', '969', '970', '971', '973', '974', '975', '977', '979', '983', '984', '986', '989', '991', '994', '996', '1000']",False,1000,True,100,3e0a579d5c,0.0,1.0,0.0
./expes/v3_2021-02-24_hi_1000-prng-1-w1-fpa10-0.3-p100,30_issda-1000,1000,first-1000,450,45,rng,num-start-500,500,25726,fpa-09-10-0.3-20,28.469982624053955,False,,False,0.2792398775001235,0.2757593462636023,0.2911258909351375,100,"['2', '5', '6', '9', '17', '19', '20', '21', '22', '25', '26', '29', '31', '32', '33', '35', '37', '38', '39', '42', '45', '47', '51', '53', '55', '58', '59', '61', '62', '69', '70', '73', '76', '78', '79', '83', '84', '85', '87', '89', '90', '94', '96', '97', '99', '103', '104', '105', '108', '109', '114', '115', '116', '118', '119', '122', '125', '126', '131', '132', '135', '140', '144', '145', '148', '149', '151', '155', '156', '158', '160', '161', '162', '163', '165', '166', '169', '171', '174', '175', '177', '178', '181', '182', '185', '186', '187', '189', '193', '196', '197', '204', '213', '214', '216', '218', '223', '225', '228', '231', '233', '234', '237', '238', '239', '241', '242', '247', '251', '253', '254', '255', '256', '257', '258', '260', '261', '262', '263', '264', '266', '269', '271', '273', '275', '276', '280', '281', '286', '292', '293', '294', '297', '298', '304', '311', '314', '316', '317', '318', '320', '324', '327', '333', '336', '337', '338', '339', '343', '346', '350', '353', '354', '360', '363', '365', '367', '368', '369', '370', '371', '372', '373', '375', '376', '381', '382', '383', '384', '390', '393', '394', '395', '400', '401', '402', '403', '405', '410', '412', '413', '414', '415', '417', '419', '421', '423', '425', '427', '429', '430', '434', '436', '438', '442', '445', '450', '452', '456', '457', '459', '460', '463', '465', '466', '468', '469', '473', '475', '476', '477', '478', '482', '484', '485', '490', '492', '495', '496', '498', '499', '501', '502', '503', '504', '510', '511', '513', '515', '517', '520', '521', '522', '523', '524', '525', '527', '528', '529', '531', '532', '534', '535', '536', '537', '538', '539', '544', '546', '549', '554', '558', '559', '561', '562', '565', '571', '572', '574', '576', '582', '586', '588', '589', '590', '596', '599', '600', '603', '604', '606', '608', '610', '611', '620', '621', '622', '626', '629', '631', '632', '634', '637', '639', '640', '643', '651', '653', '654', '657', '658', '664', '668', '669', '671', '675', '677', '678', '680', '683', '686', '687', '689', '691', '696', '697', '698', '699', '701', '702', '704', '707', '709', '710', '713', '716', '717', '721', '723', '724', '726', '727', '728', '731', '732', '733', '734', '735', '737', '741', '742', '744', '746', '747', '749', '753', '754', '755', '757', '758', '761', '763', '764', '766', '769', '772', '773', '774', '778', '779', '780', '782', '783', '785', '792', '794', '796', '800', '802', '804', '808', '809', '811', '814', '816', '818', '819', '820', '822', '823', '824', '826', '829', '830', '832', '833', '835', '836', '838', '840', '841', '845', '846', '852', '856', '857', '859', '861', '870', '871', '873', '875', '880', '881', '884', '887', '892', '896', '897', '898', '902', '903', '904', '905', '906', '907', '909', '911', '914', '916', '917', '920', '922', '923', '924', '925', '929', '930', '931', '934', '938', '939', '941', '943', '944', '948', '952', '955', '957', '958', '959', '960', '961', '964', '967', '971', '973', '978', '979', '981', '982', '983', '984', '985', '986', '987', '993', '994', '995', '998']",False,1000,True,100,003c9e4176,0.0,1.0,0.0
./expes/v3_2021-02-24_hi_1000-prng-1-w1-fpa10-0.3-p100,30_issda-1000,1000,first-1000,50,5,rng,num-start-600,600,25726,fpa-09-10-0.3-20,46.530686378479004,False,,False,0.6972066588785131,0.6932523934989971,0.7032036252106706,100,"['16', '34', '36', '46', '78', '137', '143', '165', '179', '212', '246', '256', '269', '285', '291', '311', '336', '364', '370', '372', '385', '391', '431', '432', '440', '451', '468', '474', '495', '502', '504', '534', '586', '592', '597', '618', '629', '670', '678', '692', '703', '764', '787', '831', '833', '844', '847', '881', '976', '993']",False,1000,True,100,ca9f8e56cf,0.0,1.0,0.0
./expes/v3_2021-02-24_hi_1000-prng-1-w1-fpa10-0.3-p100,30_issda-1000,1000,first-1000,300,30,rng,num-start-100,100,25726,fpa-09-10-0.3-20,7.600210905075073,False,,False,0.35154271521984265,0.34240405077857083,0.356249726668474,100,"['2', '4', '6', '10', '12', '14', '19', '23', '24', '30', '33', '34', '36', '38', '48', '50', '54', '58', '59', '61', '65', '67', '68', '74', '81', '83', '92', '94', '95', '105', '110', '111', '116', '122', '130', '134', '136', '143', '145', '146', '150', '151', '152', '153', '161', '164', '166', '170', '171', '173', '174', '177', '181', '182', '183', '184', '185', '186', '187', '190', '202', '204', '210', '213', '214', '215', '221', '222', '244', '252', '253', '256', '257', '262', '263', '271', '272', '279', '281', '283', '287', '288', '296', '297', '299', '301', '302', '303', '306', '309', '314', '317', '318', '320', '322', '324', '325', '326', '334', '340', '343', '347', '349', '353', '354', '357', '359', '364', '365', '366', '367', '368', '370', '371', '372', '373', '374', '375', '377', '381', '382', '386', '387', '390', '393', '399', '414', '416', '418', '419', '424', '425', '429', '431', '432', '444', '445', '456', '461', '464', '465', '467', '474', '475', '477', '481', '482', '484', '486', '491', '493', '496', '498', '500', '504', '506', '512', '513', '515', '525', '526', '528', '531', '535', '538', '543', '545', '547', '553', '557', '559', '561', '562', '563', '573', '578', '588', '593', '595', '601', '602', '604', '609', '611', '616', '618', '626', '633', '636', '638', '639', '641', '642', '643', '646', '654', '660', '663', '665', '666', '667', '668', '680', '685', '688', '690', '695', '703', '705', '706', '708', '712', '714', '720', '722', '725', '734', '738', '739', '748', '749', '750', '756', '758', '759', '760', '767', '768', '774', '778', '781', '785', '789', '793', '794', '795', '800', '801', '805', '807', '815', '817', '818', '821', '837', '838', '839', '840', '842', '847', '849', '856', '857', '859', '861', '862', '864', '866', '873', '875', '881', '888', '889', '890', '891', '893', '894', '898', '915', '916', '919', '923', '924', '939', '941', '945', '946', '947', '952', '959', '960', '961', '962', '964', '965', '966', '969', '973', '978', '979', '980', '983', '984', '985', '989', '990', '992', '996', '999', '1000']",False,1000,True,100,aa1e8003df,0.0,1.0,0.0
./expes/v3_2021-02-24_hi_1000-prng-1-w1-fpa10-0.3-p100,30_issda-1000,1000,first-1000,100,10,rng,num-start-800,800,25726,fpa-09-10-0.3-20,48.45512890815735,False,,False,0.5615715400608654,0.5593252966255107,0.5826582046161992,100,"['2', '4', '6', '14', '23', '30', '54', '67', '68', '74', '105', '116', '130', '136', '143', '150', '161', '164', '170', '171', '187', '202', '204', '210', '215', '221', '222', '253', '256', '262', '271', '287', '297', '306', '309', '314', '318', '322', '340', '347', '364', '368', '370', '381', '390', '393', '399', '418', '425', '456', '477', '481', '493', '543', '553', '557', '588', '601', '611', '618', '633', '638', '641', '665', '668', '695', '708', '714', '725', '749', '758', '760', '781', '785', '793', '795', '815', '817', '838', '839', '861', '862', '889', '890', '893', '894', '898', '916', '923', '939', '945', '959', '964', '966', '984', '985', '989', '990', '992', '996']",False,1000,True,100,59453f4799,0.0,1.0,0.0
