expe,clients,clients_size,clients_subset,agg_size,method,days,days_size,days_total,time,valid,valid_sum,success,nsols,wall_hit,wall_time,pooled,valid_sums
./expes/v2_2020-12-03_dh_150-prng-1,30_issda_150,150,rng-150,81,rng,num-start-191,191,25726,2.075652837753296,True,,True,1,False,1000,True,1.0
./expes/v2_2020-12-03_dh_150-prng-1,30_issda_150,150,rng-150,31,rng,num-start-541,541,25726,4.873800992965698,True,,True,1,False,1000,True,1.0
./expes/v2_2020-12-03_dh_150-prng-1,30_issda_150,150,rng-150,11,rng,num-start-221,221,25726,1.8813831806182861,True,,True,1,False,1000,True,1.0
./expes/v2_2020-12-03_dh_150-prng-1,30_issda_150,150,rng-150,91,rng,num-start-311,311,25726,3.1105659008026123,True,,True,1,False,1000,True,1.0
./expes/v2_2020-12-03_dh_150-prng-1,30_issda_150,150,rng-150,31,rng,num-start-331,331,25726,3.228130340576172,True,,True,1,False,1000,True,1.0
./expes/v2_2020-12-03_dh_150-prng-1,30_issda_150,150,rng-150,131,rng,num-start-71,71,25726,0.8496246337890625,True,,True,1,False,1000,True,1.0
./expes/v2_2020-12-03_dh_150-prng-1,30_issda_150,150,rng-150,11,rng,num-start-41,41,25726,0.6045265197753906,True,,True,1,False,1000,True,1.0
./expes/v2_2020-12-03_dh_150-prng-1,30_issda_150,150,rng-150,71,rng,num-start-311,311,25726,2.9546895027160645,True,,True,1,False,1000,True,1.0
./expes/v2_2020-12-03_dh_150-prng-1,30_issda_150,150,rng-150,81,rng,num-start-951,951,25726,10.742771863937378,True,,True,1,False,1000,True,1.0
./expes/v2_2020-12-03_dh_150-prng-1,30_issda_150,150,rng-150,61,rng,num-start-441,441,25726,5.177997350692749,True,,True,1,False,1000,True,1.0
./expes/v2_2020-12-03_dh_150-prng-1,30_issda_150,150,rng-150,51,rng,num-start-351,351,25726,3.781261444091797,True,,True,1,False,1000,True,1.0
./expes/v2_2020-12-03_dh_150-prng-1,30_issda_150,150,rng-150,101,rng,num-start-281,281,25726,2.562589406967163,True,,True,1,False,1000,True,1.0
./expes/v2_2020-12-03_dh_150-prng-1,30_issda_150,150,rng-150,121,rng,num-start-321,321,25726,3.4995052814483643,True,,True,1,False,1000,True,1.0
./expes/v2_2020-12-03_dh_150-prng-1,30_issda_150,150,rng-150,1,rng,num-start-41,41,25726,0.3629920482635498,True,,True,1,False,1000,True,1.0
./expes/v2_2020-12-03_dh_150-prng-1,30_issda_150,150,rng-150,141,rng,num-start-791,791,25726,6.3241822719573975,True,,True,1,False,1000,True,1.0
./expes/v2_2020-12-03_dh_150-prng-1,30_issda_150,150,rng-150,61,rng,num-start-711,711,25726,7.4367077350616455,True,,True,1,False,1000,True,1.0
./expes/v2_2020-12-03_dh_150-prng-1,30_issda_150,150,rng-150,121,rng,num-start-801,801,25726,8.475982189178467,True,,True,1,False,1000,True,1.0
./expes/v2_2020-12-03_dh_150-prng-1,30_issda_150,150,rng-150,61,rng,num-start-691,691,25726,7.083163738250732,True,,True,1,False,1000,True,1.0
./expes/v2_2020-12-03_dh_150-prng-1,30_issda_150,150,rng-150,21,rng,num-start-631,631,25726,7.452768087387085,True,,True,1,False,1000,True,1.0
./expes/v2_2020-12-03_dh_150-prng-1,30_issda_150,150,rng-150,141,rng,num-start-811,811,25726,6.704623222351074,True,,True,1,False,1000,True,1.0
./expes/v2_2020-12-03_dh_150-prng-1,30_issda_150,150,rng-150,131,rng,num-start-931,931,25726,9.025503873825073,True,,True,1,False,1000,True,1.0
./expes/v2_2020-12-03_dh_150-prng-1,30_issda_150,150,rng-150,1,rng,num-start-401,401,25726,3.2016425132751465,True,,True,1,False,1000,True,1.0
./expes/v2_2020-12-03_dh_150-prng-1,30_issda_150,150,rng-150,131,rng,num-start-51,51,25726,0.6254019737243652,True,,True,1,False,1000,True,1.0
./expes/v2_2020-12-03_dh_150-prng-1,30_issda_150,150,rng-150,11,rng,num-start-1,1,25726,0.04584312438964844,False,,False,2,False,1000,True,1.0
./expes/v2_2020-12-03_dh_150-prng-1,30_issda_150,150,rng-150,101,rng,num-start-461,461,25726,4.291960000991821,True,,True,1,False,1000,True,1.0
./expes/v2_2020-12-03_dh_150-prng-1,30_issda_150,150,rng-150,81,rng,num-start-741,741,25726,6.8851478099823,True,,True,1,False,1000,True,1.0
./expes/v2_2020-12-03_dh_150-prng-1,30_issda_150,150,rng-150,11,rng,num-start-631,631,25726,6.224963426589966,True,,True,1,False,1000,True,1.0
./expes/v2_2020-12-03_dh_150-prng-1,30_issda_150,150,rng-150,141,rng,num-start-851,851,25726,7.2995359897613525,True,,True,1,False,1000,True,1.0
./expes/v2_2020-12-03_dh_150-prng-1,30_issda_150,150,rng-150,111,rng,num-start-11,11,25726,1000.274600982666,False,,False,0,True,1000,True,0.0
./expes/v2_2020-12-03_dh_150-prng-1,30_issda_150,150,rng-150,81,rng,num-start-131,131,25726,1.4177677631378174,True,,True,1,False,1000,True,1.0
./expes/v2_2020-12-03_dh_150-prng-1,30_issda_150,150,rng-150,11,rng,num-start-971,971,25726,8.625282049179077,True,,True,1,False,1000,True,1.0
./expes/v2_2020-12-03_dh_150-prng-1,30_issda_150,150,rng-150,31,rng,num-start-271,271,25726,2.5386109352111816,True,,True,1,False,1000,True,1.0
./expes/v2_2020-12-03_dh_150-prng-1,30_issda_150,150,rng-150,21,rng,num-start-461,461,25726,4.709888458251953,True,,True,1,False,1000,True,1.0
./expes/v2_2020-12-03_dh_150-prng-1,30_issda_150,150,rng-150,51,rng,num-start-541,541,25726,5.396874189376831,True,,True,1,False,1000,True,1.0
./expes/v2_2020-12-03_dh_150-prng-1,30_issda_150,150,rng-150,71,rng,num-start-221,221,25726,2.287836790084839,True,,True,1,False,1000,True,1.0
./expes/v2_2020-12-03_dh_150-prng-1,30_issda_150,150,rng-150,1,rng,num-start-581,581,25726,4.552945852279663,True,,True,1,False,1000,True,1.0
./expes/v2_2020-12-03_dh_150-prng-1,30_issda_150,150,rng-150,51,rng,num-start-351,351,25726,3.3442203998565674,True,,True,1,False,1000,True,1.0
./expes/v2_2020-12-03_dh_150-prng-1,30_issda_150,150,rng-150,71,rng,num-start-61,61,25726,1.3984060287475586,True,,True,1,False,1000,True,1.0
./expes/v2_2020-12-03_dh_150-prng-1,30_issda_150,150,rng-150,141,rng,num-start-561,561,25726,4.683558464050293,True,,True,1,False,1000,True,1.0
./expes/v2_2020-12-03_dh_150-prng-1,30_issda_150,150,rng-150,11,rng,num-start-431,431,25726,4.390968084335327,True,,True,1,False,1000,True,1.0
./expes/v2_2020-12-03_dh_150-prng-1,30_issda_150,150,rng-150,21,rng,num-start-731,731,25726,7.273081541061401,True,,True,1,False,1000,True,1.0
./expes/v2_2020-12-03_dh_150-prng-1,30_issda_150,150,rng-150,61,rng,num-start-251,251,25726,2.39892315864563,True,,True,1,False,1000,True,1.0
./expes/v2_2020-12-03_dh_150-prng-1,30_issda_150,150,rng-150,91,rng,num-start-991,991,25726,9.85508394241333,True,,True,1,False,1000,True,1.0
./expes/v2_2020-12-03_dh_150-prng-1,30_issda_150,150,rng-150,31,rng,num-start-571,571,25726,6.092802047729492,True,,True,1,False,1000,True,1.0
./expes/v2_2020-12-03_dh_150-prng-1,30_issda_150,150,rng-150,51,rng,num-start-931,931,25726,9.110028743743896,True,,True,1,False,1000,True,1.0
./expes/v2_2020-12-03_dh_150-prng-1,30_issda_150,150,rng-150,111,rng,num-start-911,911,25726,8.622095108032227,True,,True,1,False,1000,True,1.0
./expes/v2_2020-12-03_dh_150-prng-1,30_issda_150,150,rng-150,1,rng,num-start-961,961,25726,7.628065586090088,True,,True,1,False,1000,True,1.0
./expes/v2_2020-12-03_dh_150-prng-1,30_issda_150,150,rng-150,81,rng,num-start-391,391,25726,3.955120086669922,True,,True,1,False,1000,True,1.0
./expes/v2_2020-12-03_dh_150-prng-1,30_issda_150,150,rng-150,91,rng,num-start-881,881,25726,8.504594087600708,True,,True,1,False,1000,True,1.0
./expes/v2_2020-12-03_dh_150-prng-1,30_issda_150,150,rng-150,101,rng,num-start-681,681,25726,6.550858497619629,True,,True,1,False,1000,True,1.0
./expes/v2_2020-12-03_dh_150-prng-1,30_issda_150,150,rng-150,41,rng,num-start-51,51,25726,1.356837272644043,True,,True,1,False,1000,True,1.0
./expes/v2_2020-12-03_dh_150-prng-1,30_issda_150,150,rng-150,21,rng,num-start-781,781,25726,7.392030715942383,True,,True,1,False,1000,True,1.0
./expes/v2_2020-12-03_dh_150-prng-1,30_issda_150,150,rng-150,91,rng,num-start-791,791,25726,7.585629940032959,True,,True,1,False,1000,True,1.0
./expes/v2_2020-12-03_dh_150-prng-1,30_issda_150,150,rng-150,91,rng,num-start-461,461,25726,4.442410945892334,True,,True,1,False,1000,True,1.0
./expes/v2_2020-12-03_dh_150-prng-1,30_issda_150,150,rng-150,31,rng,num-start-521,521,25726,4.878085374832153,True,,True,1,False,1000,True,1.0
./expes/v2_2020-12-03_dh_150-prng-1,30_issda_150,150,rng-150,131,rng,num-start-861,861,25726,8.52611780166626,True,,True,1,False,1000,True,1.0
./expes/v2_2020-12-03_dh_150-prng-1,30_issda_150,150,rng-150,141,rng,num-start-1,1,25726,0.054007768630981445,False,,False,2,False,1000,True,1.0
./expes/v2_2020-12-03_dh_150-prng-1,30_issda_150,150,rng-150,31,rng,num-start-571,571,25726,5.727240800857544,True,,True,1,False,1000,True,1.0
./expes/v2_2020-12-03_dh_150-prng-1,30_issda_150,150,rng-150,71,rng,num-start-861,861,25726,8.365200519561768,True,,True,1,False,1000,True,1.0
./expes/v2_2020-12-03_dh_150-prng-1,30_issda_150,150,rng-150,31,rng,num-start-41,41,25726,0.9817206859588623,True,,True,1,False,1000,True,1.0
./expes/v2_2020-12-03_dh_150-prng-1,30_issda_150,150,rng-150,121,rng,num-start-831,831,25726,7.98795485496521,True,,True,1,False,1000,True,1.0
./expes/v2_2020-12-03_dh_150-prng-1,30_issda_150,150,rng-150,81,rng,num-start-761,761,25726,8.240878820419312,True,,True,1,False,1000,True,1.0
./expes/v2_2020-12-03_dh_150-prng-1,30_issda_150,150,rng-150,91,rng,num-start-971,971,25726,13.089260816574097,True,,True,1,False,1000,True,1.0
./expes/v2_2020-12-03_dh_150-prng-1,30_issda_150,150,rng-150,21,rng,num-start-381,381,25726,4.538905382156372,True,,True,1,False,1000,True,1.0
./expes/v2_2020-12-03_dh_150-prng-1,30_issda_150,150,rng-150,121,rng,num-start-771,771,25726,9.923693418502808,True,,True,1,False,1000,True,1.0
./expes/v2_2020-12-03_dh_150-prng-1,30_issda_150,150,rng-150,11,rng,num-start-911,911,25726,10.415011167526245,True,,True,1,False,1000,True,1.0
./expes/v2_2020-12-03_dh_150-prng-1,30_issda_150,150,rng-150,141,rng,num-start-111,111,25726,1.4548535346984863,True,,True,1,False,1000,True,1.0
./expes/v2_2020-12-03_dh_150-prng-1,30_issda_150,150,rng-150,141,rng,num-start-821,821,25726,11.257551908493042,True,,True,1,False,1000,True,1.0
./expes/v2_2020-12-03_dh_150-prng-1,30_issda_150,150,rng-150,101,rng,num-start-561,561,25726,7.798384189605713,True,,True,1,False,1000,True,1.0
./expes/v2_2020-12-03_dh_150-prng-1,30_issda_150,150,rng-150,121,rng,num-start-21,21,25726,1000.6123290061951,False,,False,1,True,1000,True,0.0
./expes/v2_2020-12-03_dh_150-prng-1,30_issda_150,150,rng-150,71,rng,num-start-41,41,25726,1003.3696811199188,False,,False,0,True,1000,True,0.0
./expes/v2_2020-12-03_dh_150-prng-1,30_issda_150,150,rng-150,71,rng,num-start-641,641,25726,5.9131529331207275,True,,True,1,False,1000,True,1.0
./expes/v2_2020-12-03_dh_150-prng-1,30_issda_150,150,rng-150,81,rng,num-start-941,941,25726,8.83691143989563,True,,True,1,False,1000,True,1.0
./expes/v2_2020-12-03_dh_150-prng-1,30_issda_150,150,rng-150,131,rng,num-start-651,651,25726,6.358513355255127,True,,True,1,False,1000,True,1.0
./expes/v2_2020-12-03_dh_150-prng-1,30_issda_150,150,rng-150,51,rng,num-start-981,981,25726,10.445559740066528,True,,True,1,False,1000,True,1.0
./expes/v2_2020-12-03_dh_150-prng-1,30_issda_150,150,rng-150,1,rng,num-start-371,371,25726,2.9851036071777344,True,,True,1,False,1000,True,1.0
./expes/v2_2020-12-03_dh_150-prng-1,30_issda_150,150,rng-150,61,rng,num-start-841,841,25726,8.010701894760132,True,,True,1,False,1000,True,1.0
./expes/v2_2020-12-03_dh_150-prng-1,30_issda_150,150,rng-150,41,rng,num-start-991,991,25726,8.837323427200317,True,,True,1,False,1000,True,1.0
./expes/v2_2020-12-03_dh_150-prng-1,30_issda_150,150,rng-150,81,rng,num-start-911,911,25726,9.038592100143433,True,,True,1,False,1000,True,1.0
./expes/v2_2020-12-03_dh_150-prng-1,30_issda_150,150,rng-150,101,rng,num-start-551,551,25726,5.126132488250732,True,,True,1,False,1000,True,1.0
./expes/v2_2020-12-03_dh_150-prng-1,30_issda_150,150,rng-150,31,rng,num-start-71,71,25726,0.8211996555328369,True,,True,1,False,1000,True,1.0
./expes/v2_2020-12-03_dh_150-prng-1,30_issda_150,150,rng-150,1,rng,num-start-711,711,25726,5.610230922698975,True,,True,1,False,1000,True,1.0
./expes/v2_2020-12-03_dh_150-prng-1,30_issda_150,150,rng-150,51,rng,num-start-971,971,25726,9.509456396102905,True,,True,1,False,1000,True,1.0
./expes/v2_2020-12-03_dh_150-prng-1,30_issda_150,150,rng-150,51,rng,num-start-311,311,25726,3.135152578353882,True,,True,1,False,1000,True,1.0
./expes/v2_2020-12-03_dh_150-prng-1,30_issda_150,150,rng-150,101,rng,num-start-971,971,25726,9.228005170822144,True,,True,1,False,1000,True,1.0
./expes/v2_2020-12-03_dh_150-prng-1,30_issda_150,150,rng-150,71,rng,num-start-331,331,25726,3.384228229522705,True,,True,1,False,1000,True,1.0
./expes/v2_2020-12-03_dh_150-prng-1,30_issda_150,150,rng-150,101,rng,num-start-621,621,25726,5.913201332092285,True,,True,1,False,1000,True,1.0
./expes/v2_2020-12-03_dh_150-prng-1,30_issda_150,150,rng-150,41,rng,num-start-21,21,25726,1001.8984973430634,False,,False,0,True,1000,True,0.0
./expes/v2_2020-12-03_dh_150-prng-1,30_issda_150,150,rng-150,41,rng,num-start-741,741,25726,8.04891061782837,True,,True,1,False,1000,True,1.0
./expes/v2_2020-12-03_dh_150-prng-1,30_issda_150,150,rng-150,1,rng,num-start-51,51,25726,0.40390825271606445,True,,True,1,False,1000,True,1.0
./expes/v2_2020-12-03_dh_150-prng-1,30_issda_150,150,rng-150,91,rng,num-start-381,381,25726,3.5989718437194824,True,,True,1,False,1000,True,1.0
./expes/v2_2020-12-03_dh_150-prng-1,30_issda_150,150,rng-150,1,rng,num-start-851,851,25726,6.587682723999023,True,,True,1,False,1000,True,1.0
./expes/v2_2020-12-03_dh_150-prng-1,30_issda_150,150,rng-150,131,rng,num-start-571,571,25726,5.783364534378052,True,,True,1,False,1000,True,1.0
./expes/v2_2020-12-03_dh_150-prng-1,30_issda_150,150,rng-150,71,rng,num-start-521,521,25726,5.37007999420166,True,,True,1,False,1000,True,1.0
./expes/v2_2020-12-03_dh_150-prng-1,30_issda_150,150,rng-150,1,rng,num-start-581,581,25726,4.43802547454834,True,,True,1,False,1000,True,1.0
./expes/v2_2020-12-03_dh_150-prng-1,30_issda_150,150,rng-150,51,rng,num-start-371,371,25726,3.424450397491455,True,,True,1,False,1000,True,1.0
./expes/v2_2020-12-03_dh_150-prng-1,30_issda_150,150,rng-150,121,rng,num-start-481,481,25726,4.334059476852417,True,,True,1,False,1000,True,1.0
./expes/v2_2020-12-03_dh_150-prng-1,30_issda_150,150,rng-150,21,rng,num-start-621,621,25726,6.3300182819366455,True,,True,1,False,1000,True,1.0
./expes/v2_2020-12-03_dh_150-prng-1,30_issda_150,150,rng-150,81,rng,num-start-491,491,25726,4.454739570617676,True,,True,1,False,1000,True,1.0
./expes/v2_2020-12-03_dh_150-prng-1,30_issda_150,150,rng-150,111,rng,num-start-661,661,25726,5.796267986297607,True,,True,1,False,1000,True,1.0
./expes/v2_2020-12-03_dh_150-prng-1,30_issda_150,150,rng-150,81,rng,num-start-191,191,25726,1.9709317684173584,True,,True,1,False,1000,True,1.0
./expes/v2_2020-12-03_dh_150-prng-1,30_issda_150,150,rng-150,101,rng,num-start-781,781,25726,7.380918025970459,True,,True,1,False,1000,True,1.0
./expes/v2_2020-12-03_dh_150-prng-1,30_issda_150,150,rng-150,121,rng,num-start-401,401,25726,3.770463705062866,True,,True,1,False,1000,True,1.0
./expes/v2_2020-12-03_dh_150-prng-1,30_issda_150,150,rng-150,91,rng,num-start-651,651,25726,5.690619468688965,True,,True,1,False,1000,True,1.0
./expes/v2_2020-12-03_dh_150-prng-1,30_issda_150,150,rng-150,101,rng,num-start-941,941,25726,9.606280088424683,True,,True,1,False,1000,True,1.0
./expes/v2_2020-12-03_dh_150-prng-1,30_issda_150,150,rng-150,131,rng,num-start-871,871,25726,8.349260330200195,True,,True,1,False,1000,True,1.0
./expes/v2_2020-12-03_dh_150-prng-1,30_issda_150,150,rng-150,81,rng,num-start-921,921,25726,9.27018141746521,True,,True,1,False,1000,True,1.0
./expes/v2_2020-12-03_dh_150-prng-1,30_issda_150,150,rng-150,131,rng,num-start-41,41,25726,0.5250859260559082,True,,True,1,False,1000,True,1.0
./expes/v2_2020-12-03_dh_150-prng-1,30_issda_150,150,rng-150,21,rng,num-start-151,151,25726,1.697087049484253,True,,True,1,False,1000,True,1.0
./expes/v2_2020-12-03_dh_150-prng-1,30_issda_150,150,rng-150,81,rng,num-start-11,11,25726,1000.2086873054504,False,,False,0,True,1000,True,0.0
./expes/v2_2020-12-03_dh_150-prng-1,30_issda_150,150,rng-150,141,rng,num-start-311,311,25726,3.0543408393859863,True,,True,1,False,1000,True,1.0
./expes/v2_2020-12-03_dh_150-prng-1,30_issda_150,150,rng-150,121,rng,num-start-421,421,25726,4.066760301589966,True,,True,1,False,1000,True,1.0
./expes/v2_2020-12-03_dh_150-prng-1,30_issda_150,150,rng-150,121,rng,num-start-751,751,25726,7.257065057754517,True,,True,1,False,1000,True,1.0
./expes/v2_2020-12-03_dh_150-prng-1,30_issda_150,150,rng-150,81,rng,num-start-851,851,25726,8.168051719665527,True,,True,1,False,1000,True,1.0
./expes/v2_2020-12-03_dh_150-prng-1,30_issda_150,150,rng-150,51,rng,num-start-941,941,25726,9.085778951644897,True,,True,1,False,1000,True,1.0
./expes/v2_2020-12-03_dh_150-prng-1,30_issda_150,150,rng-150,91,rng,num-start-881,881,25726,7.940889835357666,True,,True,1,False,1000,True,1.0
./expes/v2_2020-12-03_dh_150-prng-1,30_issda_150,150,rng-150,121,rng,num-start-271,271,25726,2.6410648822784424,True,,True,1,False,1000,True,1.0
./expes/v2_2020-12-03_dh_150-prng-1,30_issda_150,150,rng-150,61,rng,num-start-671,671,25726,7.120007038116455,True,,True,1,False,1000,True,1.0
./expes/v2_2020-12-03_dh_150-prng-1,30_issda_150,150,rng-150,141,rng,num-start-621,621,25726,5.357036352157593,True,,True,1,False,1000,True,1.0
./expes/v2_2020-12-03_dh_150-prng-1,30_issda_150,150,rng-150,111,rng,num-start-11,11,25726,1000.3385727405548,False,,False,0,True,1000,True,0.0
./expes/v2_2020-12-03_dh_150-prng-1,30_issda_150,150,rng-150,31,rng,num-start-691,691,25726,6.7727954387664795,True,,True,1,False,1000,True,1.0
./expes/v2_2020-12-03_dh_150-prng-1,30_issda_150,150,rng-150,1,rng,num-start-861,861,25726,6.791406631469727,True,,True,1,False,1000,True,1.0
./expes/v2_2020-12-03_dh_150-prng-1,30_issda_150,150,rng-150,141,rng,num-start-961,961,25726,7.886046648025513,True,,True,1,False,1000,True,1.0
./expes/v2_2020-12-03_dh_150-prng-1,30_issda_150,150,rng-150,1,rng,num-start-741,741,25726,5.808183431625366,True,,True,1,False,1000,True,1.0
./expes/v2_2020-12-03_dh_150-prng-1,30_issda_150,150,rng-150,41,rng,num-start-351,351,25726,3.3536295890808105,True,,True,1,False,1000,True,1.0
./expes/v2_2020-12-03_dh_150-prng-1,30_issda_150,150,rng-150,111,rng,num-start-441,441,25726,4.435086727142334,True,,True,1,False,1000,True,1.0
./expes/v2_2020-12-03_dh_150-prng-1,30_issda_150,150,rng-150,71,rng,num-start-441,441,25726,4.61932110786438,True,,True,1,False,1000,True,1.0
./expes/v2_2020-12-03_dh_150-prng-1,30_issda_150,150,rng-150,71,rng,num-start-361,361,25726,3.6335434913635254,True,,True,1,False,1000,True,1.0
./expes/v2_2020-12-03_dh_150-prng-1,30_issda_150,150,rng-150,101,rng,num-start-561,561,25726,5.0610809326171875,True,,True,1,False,1000,True,1.0
./expes/v2_2020-12-03_dh_150-prng-1,30_issda_150,150,rng-150,131,rng,num-start-391,391,25726,3.6004889011383057,True,,True,1,False,1000,True,1.0
./expes/v2_2020-12-03_dh_150-prng-1,30_issda_150,150,rng-150,61,rng,num-start-721,721,25726,7.425320148468018,True,,True,1,False,1000,True,1.0
./expes/v2_2020-12-03_dh_150-prng-1,30_issda_150,150,rng-150,111,rng,num-start-1,1,25726,0.04658651351928711,False,,False,2,False,1000,True,1.0
./expes/v2_2020-12-03_dh_150-prng-1,30_issda_150,150,rng-150,121,rng,num-start-121,121,25726,1.515542984008789,True,,True,1,False,1000,True,1.0
./expes/v2_2020-12-03_dh_150-prng-1,30_issda_150,150,rng-150,71,rng,num-start-501,501,25726,4.803736686706543,True,,True,1,False,1000,True,1.0
./expes/v2_2020-12-03_dh_150-prng-1,30_issda_150,150,rng-150,91,rng,num-start-641,641,25726,6.164934396743774,True,,True,1,False,1000,True,1.0
./expes/v2_2020-12-03_dh_150-prng-1,30_issda_150,150,rng-150,141,rng,num-start-611,611,25726,4.734398126602173,True,,True,1,False,1000,True,1.0
./expes/v2_2020-12-03_dh_150-prng-1,30_issda_150,150,rng-150,1,rng,num-start-71,71,25726,0.6247937679290771,True,,True,1,False,1000,True,1.0
./expes/v2_2020-12-03_dh_150-prng-1,30_issda_150,150,rng-150,141,rng,num-start-201,201,25726,1.697810173034668,True,,True,1,False,1000,True,1.0
./expes/v2_2020-12-03_dh_150-prng-1,30_issda_150,150,rng-150,41,rng,num-start-91,91,25726,1.2705836296081543,True,,True,1,False,1000,True,1.0
./expes/v2_2020-12-03_dh_150-prng-1,30_issda_150,150,rng-150,131,rng,num-start-531,531,25726,5.312707185745239,True,,True,1,False,1000,True,1.0
./expes/v2_2020-12-03_dh_150-prng-1,30_issda_150,150,rng-150,51,rng,num-start-511,511,25726,4.79189920425415,True,,True,1,False,1000,True,1.0
./expes/v2_2020-12-03_dh_150-prng-1,30_issda_150,150,rng-150,31,rng,num-start-671,671,25726,6.108680248260498,True,,True,1,False,1000,True,1.0
./expes/v2_2020-12-03_dh_150-prng-1,30_issda_150,150,rng-150,81,rng,num-start-571,571,25726,5.460259437561035,True,,True,1,False,1000,True,1.0
./expes/v2_2020-12-03_dh_150-prng-1,30_issda_150,150,rng-150,101,rng,num-start-611,611,25726,5.41765022277832,True,,True,1,False,1000,True,1.0
./expes/v2_2020-12-03_dh_150-prng-1,30_issda_150,150,rng-150,111,rng,num-start-141,141,25726,1.8211088180541992,True,,True,1,False,1000,True,1.0
./expes/v2_2020-12-03_dh_150-prng-1,30_issda_150,150,rng-150,131,rng,num-start-471,471,25726,4.175034284591675,True,,True,1,False,1000,True,1.0
./expes/v2_2020-12-03_dh_150-prng-1,30_issda_150,150,rng-150,131,rng,num-start-691,691,25726,6.722962856292725,True,,True,1,False,1000,True,1.0
./expes/v2_2020-12-03_dh_150-prng-1,30_issda_150,150,rng-150,91,rng,num-start-691,691,25726,6.562727928161621,True,,True,1,False,1000,True,1.0
./expes/v2_2020-12-03_dh_150-prng-1,30_issda_150,150,rng-150,61,rng,num-start-341,341,25726,3.16721510887146,True,,True,1,False,1000,True,1.0
./expes/v2_2020-12-03_dh_150-prng-1,30_issda_150,150,rng-150,131,rng,num-start-821,821,25726,7.219982147216797,True,,True,1,False,1000,True,1.0
./expes/v2_2020-12-03_dh_150-prng-1,30_issda_150,150,rng-150,131,rng,num-start-361,361,25726,3.275038957595825,True,,True,1,False,1000,True,1.0
./expes/v2_2020-12-03_dh_150-prng-1,30_issda_150,150,rng-150,111,rng,num-start-11,11,25726,1001.2226598262787,False,,False,0,True,1000,True,0.0
./expes/v2_2020-12-03_dh_150-prng-1,30_issda_150,150,rng-150,21,rng,num-start-861,861,25726,9.199761867523193,True,,True,1,False,1000,True,1.0
./expes/v2_2020-12-03_dh_150-prng-1,30_issda_150,150,rng-150,21,rng,num-start-261,261,25726,2.627249240875244,True,,True,1,False,1000,True,1.0
./expes/v2_2020-12-03_dh_150-prng-1,30_issda_150,150,rng-150,71,rng,num-start-851,851,25726,8.394951820373535,True,,True,1,False,1000,True,1.0
./expes/v2_2020-12-03_dh_150-prng-1,30_issda_150,150,rng-150,91,rng,num-start-151,151,25726,1.7738566398620605,True,,True,1,False,1000,True,1.0
./expes/v2_2020-12-03_dh_150-prng-1,30_issda_150,150,rng-150,81,rng,num-start-281,281,25726,2.771001100540161,True,,True,1,False,1000,True,1.0
./expes/v2_2020-12-03_dh_150-prng-1,30_issda_150,150,rng-150,31,rng,num-start-701,701,25726,7.2914206981658936,True,,True,1,False,1000,True,1.0
./expes/v2_2020-12-03_dh_150-prng-1,30_issda_150,150,rng-150,51,rng,num-start-251,251,25726,2.434696674346924,True,,True,1,False,1000,True,1.0
./expes/v2_2020-12-03_dh_150-prng-1,30_issda_150,150,rng-150,121,rng,num-start-711,711,25726,7.408997297286987,True,,True,1,False,1000,True,1.0
./expes/v2_2020-12-03_dh_150-prng-1,30_issda_150,150,rng-150,51,rng,num-start-621,621,25726,6.076755046844482,True,,True,1,False,1000,True,1.0
./expes/v2_2020-12-03_dh_150-prng-1,30_issda_150,150,rng-150,51,rng,num-start-51,51,25726,2.3148298263549805,True,,True,1,False,1000,True,1.0
./expes/v2_2020-12-03_dh_150-prng-1,30_issda_150,150,rng-150,131,rng,num-start-61,61,25726,0.7122392654418945,True,,True,1,False,1000,True,1.0
./expes/v2_2020-12-03_dh_150-prng-1,30_issda_150,150,rng-150,121,rng,num-start-961,961,25726,9.20192289352417,True,,True,1,False,1000,True,1.0
./expes/v2_2020-12-03_dh_150-prng-1,30_issda_150,150,rng-150,131,rng,num-start-331,331,25726,2.9320149421691895,True,,True,1,False,1000,True,1.0
./expes/v2_2020-12-03_dh_150-prng-1,30_issda_150,150,rng-150,1,rng,num-start-521,521,25726,4.284543514251709,True,,True,1,False,1000,True,1.0
./expes/v2_2020-12-03_dh_150-prng-1,30_issda_150,150,rng-150,111,rng,num-start-381,381,25726,4.003530263900757,True,,True,1,False,1000,True,1.0
./expes/v2_2020-12-03_dh_150-prng-1,30_issda_150,150,rng-150,21,rng,num-start-661,661,25726,7.823768615722656,True,,True,1,False,1000,True,1.0
./expes/v2_2020-12-03_dh_150-prng-1,30_issda_150,150,rng-150,81,rng,num-start-641,641,25726,6.5353453159332275,True,,True,1,False,1000,True,1.0
./expes/v2_2020-12-03_dh_150-prng-1,30_issda_150,150,rng-150,81,rng,num-start-411,411,25726,3.8123345375061035,True,,True,1,False,1000,True,1.0
./expes/v2_2020-12-03_dh_150-prng-1,30_issda_150,150,rng-150,131,rng,num-start-91,91,25726,1.038686752319336,True,,True,1,False,1000,True,1.0
./expes/v2_2020-12-03_dh_150-prng-1,30_issda_150,150,rng-150,11,rng,num-start-731,731,25726,5.999825716018677,True,,True,1,False,1000,True,1.0
./expes/v2_2020-12-03_dh_150-prng-1,30_issda_150,150,rng-150,21,rng,num-start-81,81,25726,0.9814341068267822,True,,True,1,False,1000,True,1.0
./expes/v2_2020-12-03_dh_150-prng-1,30_issda_150,150,rng-150,71,rng,num-start-491,491,25726,5.173027276992798,True,,True,1,False,1000,True,1.0
./expes/v2_2020-12-03_dh_150-prng-1,30_issda_150,150,rng-150,51,rng,num-start-951,951,25726,10.24553918838501,True,,True,1,False,1000,True,1.0
./expes/v2_2020-12-03_dh_150-prng-1,30_issda_150,150,rng-150,21,rng,num-start-41,41,25726,0.6746175289154053,True,,True,1,False,1000,True,1.0
./expes/v2_2020-12-03_dh_150-prng-1,30_issda_150,150,rng-150,41,rng,num-start-521,521,25726,4.919334411621094,True,,True,1,False,1000,True,1.0
./expes/v2_2020-12-03_dh_150-prng-1,30_issda_150,150,rng-150,71,rng,num-start-751,751,25726,7.799434661865234,True,,True,1,False,1000,True,1.0
./expes/v2_2020-12-03_dh_150-prng-1,30_issda_150,150,rng-150,71,rng,num-start-71,71,25726,1.4125306606292725,True,,True,1,False,1000,True,1.0
./expes/v2_2020-12-03_dh_150-prng-1,30_issda_150,150,rng-150,121,rng,num-start-51,51,25726,0.9195947647094727,True,,True,1,False,1000,True,1.0
./expes/v2_2020-12-03_dh_150-prng-1,30_issda_150,150,rng-150,51,rng,num-start-921,921,25726,8.74006986618042,True,,True,1,False,1000,True,1.0
./expes/v2_2020-12-03_dh_150-prng-1,30_issda_150,150,rng-150,51,rng,num-start-761,761,25726,7.6845762729644775,True,,True,1,False,1000,True,1.0
./expes/v2_2020-12-03_dh_150-prng-1,30_issda_150,150,rng-150,21,rng,num-start-581,581,25726,5.376537799835205,True,,True,1,False,1000,True,1.0
./expes/v2_2020-12-03_dh_150-prng-1,30_issda_150,150,rng-150,31,rng,num-start-731,731,25726,6.78189754486084,True,,True,1,False,1000,True,1.0
./expes/v2_2020-12-03_dh_150-prng-1,30_issda_150,150,rng-150,111,rng,num-start-41,41,25726,6.0577991008758545,True,,True,1,False,1000,True,1.0
./expes/v2_2020-12-03_dh_150-prng-1,30_issda_150,150,rng-150,11,rng,num-start-981,981,25726,7.877595663070679,True,,True,1,False,1000,True,1.0
./expes/v2_2020-12-03_dh_150-prng-1,30_issda_150,150,rng-150,61,rng,num-start-401,401,25726,4.381859302520752,True,,True,1,False,1000,True,1.0
./expes/v2_2020-12-03_dh_150-prng-1,30_issda_150,150,rng-150,121,rng,num-start-41,41,25726,1.2920165061950684,True,,True,1,False,1000,True,1.0
./expes/v2_2020-12-03_dh_150-prng-1,30_issda_150,150,rng-150,11,rng,num-start-141,141,25726,1.3761224746704102,True,,True,1,False,1000,True,1.0
./expes/v2_2020-12-03_dh_150-prng-1,30_issda_150,150,rng-150,11,rng,num-start-561,561,25726,5.277347803115845,True,,True,1,False,1000,True,1.0
./expes/v2_2020-12-03_dh_150-prng-1,30_issda_150,150,rng-150,141,rng,num-start-181,181,25726,2.0937278270721436,True,,True,1,False,1000,True,1.0
./expes/v2_2020-12-03_dh_150-prng-1,30_issda_150,150,rng-150,91,rng,num-start-261,261,25726,2.6774518489837646,True,,True,1,False,1000,True,1.0
./expes/v2_2020-12-03_dh_150-prng-1,30_issda_150,150,rng-150,81,rng,num-start-131,131,25726,1.3245131969451904,True,,True,1,False,1000,True,1.0
./expes/v2_2020-12-03_dh_150-prng-1,30_issda_150,150,rng-150,71,rng,num-start-811,811,25726,8.563554525375366,True,,True,1,False,1000,True,1.0
./expes/v2_2020-12-03_dh_150-prng-1,30_issda_150,150,rng-150,71,rng,num-start-451,451,25726,5.4833314418792725,True,,True,1,False,1000,True,1.0
./expes/v2_2020-12-03_dh_150-prng-1,30_issda_150,150,rng-150,21,rng,num-start-501,501,25726,4.518768310546875,True,,True,1,False,1000,True,1.0
./expes/v2_2020-12-03_dh_150-prng-1,30_issda_150,150,rng-150,131,rng,num-start-361,361,25726,3.204958438873291,True,,True,1,False,1000,True,1.0
./expes/v2_2020-12-03_dh_150-prng-1,30_issda_150,150,rng-150,131,rng,num-start-881,881,25726,8.265717506408691,True,,True,1,False,1000,True,1.0
./expes/v2_2020-12-03_dh_150-prng-1,30_issda_150,150,rng-150,21,rng,num-start-371,371,25726,3.434296131134033,True,,True,1,False,1000,True,1.0
./expes/v2_2020-12-03_dh_150-prng-1,30_issda_150,150,rng-150,121,rng,num-start-651,651,25726,5.717867374420166,True,,True,1,False,1000,True,1.0
./expes/v2_2020-12-03_dh_150-prng-1,30_issda_150,150,rng-150,61,rng,num-start-101,101,25726,1.1306431293487549,True,,True,1,False,1000,True,1.0
./expes/v2_2020-12-03_dh_150-prng-1,30_issda_150,150,rng-150,121,rng,num-start-571,571,25726,5.327898263931274,True,,True,1,False,1000,True,1.0
./expes/v2_2020-12-03_dh_150-prng-1,30_issda_150,150,rng-150,91,rng,num-start-981,981,25726,10.542106866836548,True,,True,1,False,1000,True,1.0
./expes/v2_2020-12-03_dh_150-prng-1,30_issda_150,150,rng-150,111,rng,num-start-731,731,25726,6.653663635253906,True,,True,1,False,1000,True,1.0
./expes/v2_2020-12-03_dh_150-prng-1,30_issda_150,150,rng-150,1,rng,num-start-41,41,25726,0.3297407627105713,True,,True,1,False,1000,True,1.0
./expes/v2_2020-12-03_dh_150-prng-1,30_issda_150,150,rng-150,31,rng,num-start-861,861,25726,8.473145484924316,True,,True,1,False,1000,True,1.0
./expes/v2_2020-12-03_dh_150-prng-1,30_issda_150,150,rng-150,71,rng,num-start-711,711,25726,7.34126091003418,True,,True,1,False,1000,True,1.0
./expes/v2_2020-12-03_dh_150-prng-1,30_issda_150,150,rng-150,101,rng,num-start-121,121,25726,1.2995407581329346,True,,True,1,False,1000,True,1.0
./expes/v2_2020-12-03_dh_150-prng-1,30_issda_150,150,rng-150,91,rng,num-start-111,111,25726,1.2991914749145508,True,,True,1,False,1000,True,1.0
./expes/v2_2020-12-03_dh_150-prng-1,30_issda_150,150,rng-150,21,rng,num-start-711,711,25726,8.455076694488525,True,,True,1,False,1000,True,1.0
./expes/v2_2020-12-03_dh_150-prng-1,30_issda_150,150,rng-150,61,rng,num-start-441,441,25726,4.735887289047241,True,,True,1,False,1000,True,1.0
./expes/v2_2020-12-03_dh_150-prng-1,30_issda_150,150,rng-150,21,rng,num-start-611,611,25726,6.02479887008667,True,,True,1,False,1000,True,1.0
./expes/v2_2020-12-03_dh_150-prng-1,30_issda_150,150,rng-150,101,rng,num-start-981,981,25726,9.14982557296753,True,,True,1,False,1000,True,1.0
./expes/v2_2020-12-03_dh_150-prng-1,30_issda_150,150,rng-150,131,rng,num-start-731,731,25726,7.028653621673584,True,,True,1,False,1000,True,1.0
./expes/v2_2020-12-03_dh_150-prng-1,30_issda_150,150,rng-150,111,rng,num-start-311,311,25726,3.1506128311157227,True,,True,1,False,1000,True,1.0
./expes/v2_2020-12-03_dh_150-prng-1,30_issda_150,150,rng-150,61,rng,num-start-381,381,25726,3.74472713470459,True,,True,1,False,1000,True,1.0
./expes/v2_2020-12-03_dh_150-prng-1,30_issda_150,150,rng-150,131,rng,num-start-191,191,25726,2.2645909786224365,True,,True,1,False,1000,True,1.0
./expes/v2_2020-12-03_dh_150-prng-1,30_issda_150,150,rng-150,21,rng,num-start-221,221,25726,2.276850938796997,True,,True,1,False,1000,True,1.0
./expes/v2_2020-12-03_dh_150-prng-1,30_issda_150,150,rng-150,21,rng,num-start-731,731,25726,6.729689836502075,True,,True,1,False,1000,True,1.0
./expes/v2_2020-12-03_dh_150-prng-1,30_issda_150,150,rng-150,61,rng,num-start-871,871,25726,9.716618061065674,True,,True,1,False,1000,True,1.0
./expes/v2_2020-12-03_dh_150-prng-1,30_issda_150,150,rng-150,61,rng,num-start-101,101,25726,1.0303795337677002,True,,True,1,False,1000,True,1.0
./expes/v2_2020-12-03_dh_150-prng-1,30_issda_150,150,rng-150,71,rng,num-start-911,911,25726,9.423243761062622,True,,True,1,False,1000,True,1.0
./expes/v2_2020-12-03_dh_150-prng-1,30_issda_150,150,rng-150,71,rng,num-start-291,291,25726,2.933720827102661,True,,True,1,False,1000,True,1.0
./expes/v2_2020-12-03_dh_150-prng-1,30_issda_150,150,rng-150,31,rng,num-start-891,891,25726,8.20109510421753,True,,True,1,False,1000,True,1.0
./expes/v2_2020-12-03_dh_150-prng-1,30_issda_150,150,rng-150,141,rng,num-start-811,811,25726,6.453100919723511,True,,True,1,False,1000,True,1.0
./expes/v2_2020-12-03_dh_150-prng-1,30_issda_150,150,rng-150,81,rng,num-start-551,551,25726,5.716501712799072,True,,True,1,False,1000,True,1.0
./expes/v2_2020-12-03_dh_150-prng-1,30_issda_150,150,rng-150,21,rng,num-start-791,791,25726,7.081058979034424,True,,True,1,False,1000,True,1.0
./expes/v2_2020-12-03_dh_150-prng-1,30_issda_150,150,rng-150,71,rng,num-start-371,371,25726,4.213098049163818,True,,True,1,False,1000,True,1.0
./expes/v2_2020-12-03_dh_150-prng-1,30_issda_150,150,rng-150,101,rng,num-start-81,81,25726,1.002986192703247,True,,True,1,False,1000,True,1.0
./expes/v2_2020-12-03_dh_150-prng-1,30_issda_150,150,rng-150,41,rng,num-start-341,341,25726,3.7703659534454346,True,,True,1,False,1000,True,1.0
./expes/v2_2020-12-03_dh_150-prng-1,30_issda_150,150,rng-150,41,rng,num-start-941,941,25726,9.896149635314941,True,,True,1,False,1000,True,1.0
./expes/v2_2020-12-03_dh_150-prng-1,30_issda_150,150,rng-150,1,rng,num-start-171,171,25726,1.475534200668335,True,,True,1,False,1000,True,1.0
./expes/v2_2020-12-03_dh_150-prng-1,30_issda_150,150,rng-150,81,rng,num-start-891,891,25726,8.88485312461853,True,,True,1,False,1000,True,1.0
./expes/v2_2020-12-03_dh_150-prng-1,30_issda_150,150,rng-150,11,rng,num-start-751,751,25726,7.038369655609131,True,,True,1,False,1000,True,1.0
./expes/v2_2020-12-03_dh_150-prng-1,30_issda_150,150,rng-150,81,rng,num-start-291,291,25726,3.3759219646453857,True,,True,1,False,1000,True,1.0
./expes/v2_2020-12-03_dh_150-prng-1,30_issda_150,150,rng-150,31,rng,num-start-241,241,25726,2.6629109382629395,True,,True,1,False,1000,True,1.0
./expes/v2_2020-12-03_dh_150-prng-1,30_issda_150,150,rng-150,11,rng,num-start-11,11,25726,5.811765193939209,True,,True,1,False,1000,True,1.0
./expes/v2_2020-12-03_dh_150-prng-1,30_issda_150,150,rng-150,131,rng,num-start-361,361,25726,3.782212495803833,True,,True,1,False,1000,True,1.0
./expes/v2_2020-12-03_dh_150-prng-1,30_issda_150,150,rng-150,111,rng,num-start-841,841,25726,8.628498792648315,True,,True,1,False,1000,True,1.0
./expes/v2_2020-12-03_dh_150-prng-1,30_issda_150,150,rng-150,61,rng,num-start-741,741,25726,7.687853574752808,True,,True,1,False,1000,True,1.0
./expes/v2_2020-12-03_dh_150-prng-1,30_issda_150,150,rng-150,71,rng,num-start-461,461,25726,4.271411895751953,True,,True,1,False,1000,True,1.0
./expes/v2_2020-12-03_dh_150-prng-1,30_issda_150,150,rng-150,71,rng,num-start-541,541,25726,7.634962797164917,True,,True,1,False,1000,True,1.0
./expes/v2_2020-12-03_dh_150-prng-1,30_issda_150,150,rng-150,91,rng,num-start-831,831,25726,10.566719770431519,True,,True,1,False,1000,True,1.0
./expes/v2_2020-12-03_dh_150-prng-1,30_issda_150,150,rng-150,101,rng,num-start-671,671,25726,8.37261438369751,True,,True,1,False,1000,True,1.0
./expes/v2_2020-12-03_dh_150-prng-1,30_issda_150,150,rng-150,51,rng,num-start-41,41,25726,3.2616958618164062,True,,True,1,False,1000,True,1.0
./expes/v2_2020-12-03_dh_150-prng-1,30_issda_150,150,rng-150,41,rng,num-start-651,651,25726,9.48175835609436,True,,True,1,False,1000,True,1.0
./expes/v2_2020-12-03_dh_150-prng-1,30_issda_150,150,rng-150,31,rng,num-start-991,991,25726,13.109774589538574,True,,True,1,False,1000,True,1.0
./expes/v2_2020-12-03_dh_150-prng-1,30_issda_150,150,rng-150,71,rng,num-start-871,871,25726,10.571761131286621,True,,True,1,False,1000,True,1.0
./expes/v2_2020-12-03_dh_150-prng-1,30_issda_150,150,rng-150,141,rng,num-start-721,721,25726,9.161313772201538,True,,True,1,False,1000,True,1.0
./expes/v2_2020-12-03_dh_150-prng-1,30_issda_150,150,rng-150,111,rng,num-start-581,581,25726,7.210017442703247,True,,True,1,False,1000,True,1.0
./expes/v2_2020-12-03_dh_150-prng-1,30_issda_150,150,rng-150,41,rng,num-start-491,491,25726,6.42032265663147,True,,True,1,False,1000,True,1.0
./expes/v2_2020-12-03_dh_150-prng-1,30_issda_150,150,rng-150,31,rng,num-start-271,271,25726,2.9636175632476807,True,,True,1,False,1000,True,1.0
./expes/v2_2020-12-03_dh_150-prng-1,30_issda_150,150,rng-150,141,rng,num-start-981,981,25726,7.883477687835693,True,,True,1,False,1000,True,1.0
./expes/v2_2020-12-03_dh_150-prng-1,30_issda_150,150,rng-150,91,rng,num-start-211,211,25726,2.2993950843811035,True,,True,1,False,1000,True,1.0
./expes/v2_2020-12-03_dh_150-prng-1,30_issda_150,150,rng-150,51,rng,num-start-901,901,25726,9.109717607498169,True,,True,1,False,1000,True,1.0
./expes/v2_2020-12-03_dh_150-prng-1,30_issda_150,150,rng-150,11,rng,num-start-571,571,25726,4.74586033821106,True,,True,1,False,1000,True,1.0
./expes/v2_2020-12-03_dh_150-prng-1,30_issda_150,150,rng-150,101,rng,num-start-541,541,25726,5.653516530990601,True,,True,1,False,1000,True,1.0
./expes/v2_2020-12-03_dh_150-prng-1,30_issda_150,150,rng-150,81,rng,num-start-441,441,25726,4.281344652175903,True,,True,1,False,1000,True,1.0
./expes/v2_2020-12-03_dh_150-prng-1,30_issda_150,150,rng-150,11,rng,num-start-911,911,25726,7.456004858016968,True,,True,1,False,1000,True,1.0
./expes/v2_2020-12-03_dh_150-prng-1,30_issda_150,150,rng-150,101,rng,num-start-581,581,25726,5.509156703948975,True,,True,1,False,1000,True,1.0
./expes/v2_2020-12-03_dh_150-prng-1,30_issda_150,150,rng-150,71,rng,num-start-81,81,25726,0.986644983291626,True,,True,1,False,1000,True,1.0
./expes/v2_2020-12-03_dh_150-prng-1,30_issda_150,150,rng-150,131,rng,num-start-471,471,25726,4.465908527374268,True,,True,1,False,1000,True,1.0
./expes/v2_2020-12-03_dh_150-prng-1,30_issda_150,150,rng-150,1,rng,num-start-741,741,25726,5.869096994400024,True,,True,1,False,1000,True,1.0
./expes/v2_2020-12-03_dh_150-prng-1,30_issda_150,150,rng-150,71,rng,num-start-101,101,25726,1.130796194076538,True,,True,1,False,1000,True,1.0
./expes/v2_2020-12-03_dh_150-prng-1,30_issda_150,150,rng-150,21,rng,num-start-441,441,25726,4.734033584594727,True,,True,1,False,1000,True,1.0
./expes/v2_2020-12-03_dh_150-prng-1,30_issda_150,150,rng-150,11,rng,num-start-411,411,25726,3.9451324939727783,True,,True,1,False,1000,True,1.0
./expes/v2_2020-12-03_dh_150-prng-1,30_issda_150,150,rng-150,101,rng,num-start-331,331,25726,3.612170696258545,True,,True,1,False,1000,True,1.0
./expes/v2_2020-12-03_dh_150-prng-1,30_issda_150,150,rng-150,31,rng,num-start-131,131,25726,1.3593096733093262,True,,True,1,False,1000,True,1.0
./expes/v2_2020-12-03_dh_150-prng-1,30_issda_150,150,rng-150,81,rng,num-start-561,561,25726,5.648921966552734,True,,True,1,False,1000,True,1.0
./expes/v2_2020-12-03_dh_150-prng-1,30_issda_150,150,rng-150,51,rng,num-start-801,801,25726,7.452473878860474,True,,True,1,False,1000,True,1.0
./expes/v2_2020-12-03_dh_150-prng-1,30_issda_150,150,rng-150,61,rng,num-start-191,191,25726,2.046888589859009,True,,True,1,False,1000,True,1.0
./expes/v2_2020-12-03_dh_150-prng-1,30_issda_150,150,rng-150,141,rng,num-start-331,331,25726,2.760136365890503,True,,True,1,False,1000,True,1.0
./expes/v2_2020-12-03_dh_150-prng-1,30_issda_150,150,rng-150,1,rng,num-start-411,411,25726,3.2668232917785645,True,,True,1,False,1000,True,1.0
./expes/v2_2020-12-03_dh_150-prng-1,30_issda_150,150,rng-150,61,rng,num-start-101,101,25726,1.1884901523590088,True,,True,1,False,1000,True,1.0
./expes/v2_2020-12-03_dh_150-prng-1,30_issda_150,150,rng-150,141,rng,num-start-131,131,25726,1.3104407787322998,True,,True,1,False,1000,True,1.0
./expes/v2_2020-12-03_dh_150-prng-1,30_issda_150,150,rng-150,31,rng,num-start-241,241,25726,2.3886892795562744,True,,True,1,False,1000,True,1.0
./expes/v2_2020-12-03_dh_150-prng-1,30_issda_150,150,rng-150,81,rng,num-start-761,761,25726,7.5275444984436035,True,,True,1,False,1000,True,1.0
./expes/v2_2020-12-03_dh_150-prng-1,30_issda_150,150,rng-150,11,rng,num-start-61,61,25726,0.6924891471862793,True,,True,1,False,1000,True,1.0
./expes/v2_2020-12-03_dh_150-prng-1,30_issda_150,150,rng-150,41,rng,num-start-531,531,25726,5.522081136703491,True,,True,1,False,1000,True,1.0
./expes/v2_2020-12-03_dh_150-prng-1,30_issda_150,150,rng-150,21,rng,num-start-241,241,25726,2.645778179168701,True,,True,1,False,1000,True,1.0
./expes/v2_2020-12-03_dh_150-prng-1,30_issda_150,150,rng-150,61,rng,num-start-271,271,25726,3.0396220684051514,True,,True,1,False,1000,True,1.0
./expes/v2_2020-12-03_dh_150-prng-1,30_issda_150,150,rng-150,21,rng,num-start-701,701,25726,7.412623643875122,True,,True,1,False,1000,True,1.0
./expes/v2_2020-12-03_dh_150-prng-1,30_issda_150,150,rng-150,91,rng,num-start-451,451,25726,4.781470537185669,True,,True,1,False,1000,True,1.0
./expes/v2_2020-12-03_dh_150-prng-1,30_issda_150,150,rng-150,71,rng,num-start-241,241,25726,2.879765510559082,True,,True,1,False,1000,True,1.0
./expes/v2_2020-12-03_dh_150-prng-1,30_issda_150,150,rng-150,91,rng,num-start-501,501,25726,4.775805711746216,True,,True,1,False,1000,True,1.0
./expes/v2_2020-12-03_dh_150-prng-1,30_issda_150,150,rng-150,41,rng,num-start-341,341,25726,3.532703161239624,True,,True,1,False,1000,True,1.0
./expes/v2_2020-12-03_dh_150-prng-1,30_issda_150,150,rng-150,41,rng,num-start-601,601,25726,5.569516181945801,True,,True,1,False,1000,True,1.0
./expes/v2_2020-12-03_dh_150-prng-1,30_issda_150,150,rng-150,61,rng,num-start-551,551,25726,4.8387792110443115,True,,True,1,False,1000,True,1.0
./expes/v2_2020-12-03_dh_150-prng-1,30_issda_150,150,rng-150,71,rng,num-start-351,351,25726,3.9083149433135986,True,,True,1,False,1000,True,1.0
./expes/v2_2020-12-03_dh_150-prng-1,30_issda_150,150,rng-150,71,rng,num-start-731,731,25726,8.673010110855103,True,,True,1,False,1000,True,1.0
./expes/v2_2020-12-03_dh_150-prng-1,30_issda_150,150,rng-150,41,rng,num-start-491,491,25726,4.604141473770142,True,,True,1,False,1000,True,1.0
./expes/v2_2020-12-03_dh_150-prng-1,30_issda_150,150,rng-150,91,rng,num-start-351,351,25726,3.469208240509033,True,,True,1,False,1000,True,1.0
./expes/v2_2020-12-03_dh_150-prng-1,30_issda_150,150,rng-150,111,rng,num-start-721,721,25726,6.427282333374023,True,,True,1,False,1000,True,1.0
./expes/v2_2020-12-03_dh_150-prng-1,30_issda_150,150,rng-150,111,rng,num-start-881,881,25726,9.050504684448242,True,,True,1,False,1000,True,1.0
./expes/v2_2020-12-03_dh_150-prng-1,30_issda_150,150,rng-150,21,rng,num-start-881,881,25726,8.280458450317383,True,,True,1,False,1000,True,1.0
./expes/v2_2020-12-03_dh_150-prng-1,30_issda_150,150,rng-150,131,rng,num-start-371,371,25726,3.3086090087890625,True,,True,1,False,1000,True,1.0
./expes/v2_2020-12-03_dh_150-prng-1,30_issda_150,150,rng-150,31,rng,num-start-891,891,25726,9.80647873878479,True,,True,1,False,1000,True,1.0
./expes/v2_2020-12-03_dh_150-prng-1,30_issda_150,150,rng-150,91,rng,num-start-571,571,25726,5.065709352493286,True,,True,1,False,1000,True,1.0
./expes/v2_2020-12-03_dh_150-prng-1,30_issda_150,150,rng-150,81,rng,num-start-281,281,25726,3.1611452102661133,True,,True,1,False,1000,True,1.0
./expes/v2_2020-12-03_dh_150-prng-1,30_issda_150,150,rng-150,141,rng,num-start-331,331,25726,2.7014048099517822,True,,True,1,False,1000,True,1.0
./expes/v2_2020-12-03_dh_150-prng-1,30_issda_150,150,rng-150,71,rng,num-start-471,471,25726,4.2952892780303955,True,,True,1,False,1000,True,1.0
./expes/v2_2020-12-03_dh_150-prng-1,30_issda_150,150,rng-150,81,rng,num-start-571,571,25726,5.267892122268677,True,,True,1,False,1000,True,1.0
./expes/v2_2020-12-03_dh_150-prng-1,30_issda_150,150,rng-150,81,rng,num-start-731,731,25726,7.2106568813323975,True,,True,1,False,1000,True,1.0
./expes/v2_2020-12-03_dh_150-prng-1,30_issda_150,150,rng-150,51,rng,num-start-51,51,25726,1.0200295448303223,True,,True,1,False,1000,True,1.0
./expes/v2_2020-12-03_dh_150-prng-1,30_issda_150,150,rng-150,21,rng,num-start-871,871,25726,8.480738401412964,True,,True,1,False,1000,True,1.0
./expes/v2_2020-12-03_dh_150-prng-1,30_issda_150,150,rng-150,101,rng,num-start-671,671,25726,6.926650285720825,True,,True,1,False,1000,True,1.0
./expes/v2_2020-12-03_dh_150-prng-1,30_issda_150,150,rng-150,51,rng,num-start-421,421,25726,4.319818735122681,True,,True,1,False,1000,True,1.0
./expes/v2_2020-12-03_dh_150-prng-1,30_issda_150,150,rng-150,21,rng,num-start-341,341,25726,3.863257884979248,True,,True,1,False,1000,True,1.0
./expes/v2_2020-12-03_dh_150-prng-1,30_issda_150,150,rng-150,111,rng,num-start-71,71,25726,0.7736141681671143,True,,True,1,False,1000,True,1.0
./expes/v2_2020-12-03_dh_150-prng-1,30_issda_150,150,rng-150,61,rng,num-start-421,421,25726,4.279923677444458,True,,True,1,False,1000,True,1.0
./expes/v2_2020-12-03_dh_150-prng-1,30_issda_150,150,rng-150,31,rng,num-start-921,921,25726,9.95654296875,True,,True,1,False,1000,True,1.0
./expes/v2_2020-12-03_dh_150-prng-1,30_issda_150,150,rng-150,111,rng,num-start-701,701,25726,6.562196254730225,True,,True,1,False,1000,True,1.0
./expes/v2_2020-12-03_dh_150-prng-1,30_issda_150,150,rng-150,21,rng,num-start-281,281,25726,3.0635547637939453,True,,True,1,False,1000,True,1.0
./expes/v2_2020-12-03_dh_150-prng-1,30_issda_150,150,rng-150,111,rng,num-start-61,61,25726,0.7552249431610107,True,,True,1,False,1000,True,1.0
./expes/v2_2020-12-03_dh_150-prng-1,30_issda_150,150,rng-150,71,rng,num-start-131,131,25726,1.6710386276245117,True,,True,1,False,1000,True,1.0
./expes/v2_2020-12-03_dh_150-prng-1,30_issda_150,150,rng-150,71,rng,num-start-631,631,25726,6.168405532836914,True,,True,1,False,1000,True,1.0
./expes/v2_2020-12-03_dh_150-prng-1,30_issda_150,150,rng-150,91,rng,num-start-131,131,25726,1.555346965789795,True,,True,1,False,1000,True,1.0
./expes/v2_2020-12-03_dh_150-prng-1,30_issda_150,150,rng-150,121,rng,num-start-271,271,25726,3.083414077758789,True,,True,1,False,1000,True,1.0
./expes/v2_2020-12-03_dh_150-prng-1,30_issda_150,150,rng-150,1,rng,num-start-851,851,25726,6.97033429145813,True,,True,1,False,1000,True,1.0
./expes/v2_2020-12-03_dh_150-prng-1,30_issda_150,150,rng-150,1,rng,num-start-321,321,25726,2.495365858078003,True,,True,1,False,1000,True,1.0
./expes/v2_2020-12-03_dh_150-prng-1,30_issda_150,150,rng-150,31,rng,num-start-461,461,25726,4.151235818862915,True,,True,1,False,1000,True,1.0
./expes/v2_2020-12-03_dh_150-prng-1,30_issda_150,150,rng-150,131,rng,num-start-451,451,25726,4.333503723144531,True,,True,1,False,1000,True,1.0
./expes/v2_2020-12-03_dh_150-prng-1,30_issda_150,150,rng-150,71,rng,num-start-731,731,25726,6.985318422317505,True,,True,1,False,1000,True,1.0
./expes/v2_2020-12-03_dh_150-prng-1,30_issda_150,150,rng-150,61,rng,num-start-111,111,25726,1.2745881080627441,True,,True,1,False,1000,True,1.0
./expes/v2_2020-12-03_dh_150-prng-1,30_issda_150,150,rng-150,1,rng,num-start-171,171,25726,1.3444335460662842,True,,True,1,False,1000,True,1.0
./expes/v2_2020-12-03_dh_150-prng-1,30_issda_150,150,rng-150,61,rng,num-start-811,811,25726,8.698383331298828,True,,True,1,False,1000,True,1.0
./expes/v2_2020-12-03_dh_150-prng-1,30_issda_150,150,rng-150,51,rng,num-start-531,531,25726,5.0387279987335205,True,,True,1,False,1000,True,1.0
./expes/v2_2020-12-03_dh_150-prng-1,30_issda_150,150,rng-150,11,rng,num-start-661,661,25726,7.651933193206787,True,,True,1,False,1000,True,1.0
./expes/v2_2020-12-03_dh_150-prng-1,30_issda_150,150,rng-150,121,rng,num-start-71,71,25726,0.9359848499298096,True,,True,1,False,1000,True,1.0
./expes/v2_2020-12-03_dh_150-prng-1,30_issda_150,150,rng-150,51,rng,num-start-271,271,25726,2.56371808052063,True,,True,1,False,1000,True,1.0
./expes/v2_2020-12-03_dh_150-prng-1,30_issda_150,150,rng-150,31,rng,num-start-71,71,25726,0.8363649845123291,True,,True,1,False,1000,True,1.0
./expes/v2_2020-12-03_dh_150-prng-1,30_issda_150,150,rng-150,11,rng,num-start-671,671,25726,5.444648265838623,True,,True,1,False,1000,True,1.0
./expes/v2_2020-12-03_dh_150-prng-1,30_issda_150,150,rng-150,131,rng,num-start-991,991,25726,9.11007046699524,True,,True,1,False,1000,True,1.0
./expes/v2_2020-12-03_dh_150-prng-1,30_issda_150,150,rng-150,21,rng,num-start-741,741,25726,7.3908751010894775,True,,True,1,False,1000,True,1.0
./expes/v2_2020-12-03_dh_150-prng-1,30_issda_150,150,rng-150,61,rng,num-start-941,941,25726,9.316372632980347,True,,True,1,False,1000,True,1.0
./expes/v2_2020-12-03_dh_150-prng-1,30_issda_150,150,rng-150,131,rng,num-start-501,501,25726,5.481840133666992,True,,True,1,False,1000,True,1.0
./expes/v2_2020-12-03_dh_150-prng-1,30_issda_150,150,rng-150,91,rng,num-start-621,621,25726,6.166522979736328,True,,True,1,False,1000,True,1.0
./expes/v2_2020-12-03_dh_150-prng-1,30_issda_150,150,rng-150,91,rng,num-start-341,341,25726,3.425218343734741,True,,True,1,False,1000,True,1.0
./expes/v2_2020-12-03_dh_150-prng-1,30_issda_150,150,rng-150,121,rng,num-start-861,861,25726,7.9017534255981445,True,,True,1,False,1000,True,1.0
./expes/v2_2020-12-03_dh_150-prng-1,30_issda_150,150,rng-150,21,rng,num-start-641,641,25726,6.353416681289673,True,,True,1,False,1000,True,1.0
./expes/v2_2020-12-03_dh_150-prng-1,30_issda_150,150,rng-150,71,rng,num-start-751,751,25726,7.947613477706909,True,,True,1,False,1000,True,1.0
./expes/v2_2020-12-03_dh_150-prng-1,30_issda_150,150,rng-150,111,rng,num-start-961,961,25726,9.179277420043945,True,,True,1,False,1000,True,1.0
./expes/v2_2020-12-03_dh_150-prng-1,30_issda_150,150,rng-150,141,rng,num-start-481,481,25726,4.341273546218872,True,,True,1,False,1000,True,1.0
./expes/v2_2020-12-03_dh_150-prng-1,30_issda_150,150,rng-150,141,rng,num-start-771,771,25726,6.582947492599487,True,,True,1,False,1000,True,1.0
./expes/v2_2020-12-03_dh_150-prng-1,30_issda_150,150,rng-150,31,rng,num-start-521,521,25726,5.481189489364624,True,,True,1,False,1000,True,1.0
./expes/v2_2020-12-03_dh_150-prng-1,30_issda_150,150,rng-150,41,rng,num-start-11,11,25726,1000.6318230628967,False,,False,0,True,1000,True,0.0
./expes/v2_2020-12-03_dh_150-prng-1,30_issda_150,150,rng-150,141,rng,num-start-441,441,25726,4.191938877105713,True,,True,1,False,1000,True,1.0
./expes/v2_2020-12-03_dh_150-prng-1,30_issda_150,150,rng-150,71,rng,num-start-901,901,25726,9.366767883300781,True,,True,1,False,1000,True,1.0
./expes/v2_2020-12-03_dh_150-prng-1,30_issda_150,150,rng-150,101,rng,num-start-711,711,25726,7.518297433853149,True,,True,1,False,1000,True,1.0
./expes/v2_2020-12-03_dh_150-prng-1,30_issda_150,150,rng-150,11,rng,num-start-961,961,25726,7.9939000606536865,True,,True,1,False,1000,True,1.0
./expes/v2_2020-12-03_dh_150-prng-1,30_issda_150,150,rng-150,101,rng,num-start-771,771,25726,7.670810699462891,True,,True,1,False,1000,True,1.0
./expes/v2_2020-12-03_dh_150-prng-1,30_issda_150,150,rng-150,21,rng,num-start-291,291,25726,3.1411795616149902,True,,True,1,False,1000,True,1.0
./expes/v2_2020-12-03_dh_150-prng-1,30_issda_150,150,rng-150,81,rng,num-start-161,161,25726,1.932269811630249,True,,True,1,False,1000,True,1.0
./expes/v2_2020-12-03_dh_150-prng-1,30_issda_150,150,rng-150,131,rng,num-start-461,461,25726,4.3729987144470215,True,,True,1,False,1000,True,1.0
./expes/v2_2020-12-03_dh_150-prng-1,30_issda_150,150,rng-150,101,rng,num-start-81,81,25726,0.979628324508667,True,,True,1,False,1000,True,1.0
./expes/v2_2020-12-03_dh_150-prng-1,30_issda_150,150,rng-150,91,rng,num-start-991,991,25726,10.762922286987305,True,,True,1,False,1000,True,1.0
./expes/v2_2020-12-03_dh_150-prng-1,30_issda_150,150,rng-150,121,rng,num-start-881,881,25726,8.829399108886719,True,,True,1,False,1000,True,1.0
./expes/v2_2020-12-03_dh_150-prng-1,30_issda_150,150,rng-150,1,rng,num-start-191,191,25726,1.7468242645263672,True,,True,1,False,1000,True,1.0
./expes/v2_2020-12-03_dh_150-prng-1,30_issda_150,150,rng-150,51,rng,num-start-681,681,25726,6.173749923706055,True,,True,1,False,1000,True,1.0
./expes/v2_2020-12-03_dh_150-prng-1,30_issda_150,150,rng-150,11,rng,num-start-41,41,25726,0.6164476871490479,True,,True,1,False,1000,True,1.0
./expes/v2_2020-12-03_dh_150-prng-1,30_issda_150,150,rng-150,71,rng,num-start-421,421,25726,4.188297271728516,True,,True,1,False,1000,True,1.0
./expes/v2_2020-12-03_dh_150-prng-1,30_issda_150,150,rng-150,111,rng,num-start-11,11,25726,1001.2557718753815,False,,False,0,True,1000,True,0.0
./expes/v2_2020-12-03_dh_150-prng-1,30_issda_150,150,rng-150,21,rng,num-start-951,951,25726,9.533604383468628,True,,True,1,False,1000,True,1.0
./expes/v2_2020-12-03_dh_150-prng-1,30_issda_150,150,rng-150,71,rng,num-start-341,341,25726,3.1704118251800537,True,,True,1,False,1000,True,1.0
./expes/v2_2020-12-03_dh_150-prng-1,30_issda_150,150,rng-150,31,rng,num-start-741,741,25726,7.385798931121826,True,,True,1,False,1000,True,1.0
./expes/v2_2020-12-03_dh_150-prng-1,30_issda_150,150,rng-150,131,rng,num-start-541,541,25726,5.18276834487915,True,,True,1,False,1000,True,1.0
./expes/v2_2020-12-03_dh_150-prng-1,30_issda_150,150,rng-150,121,rng,num-start-601,601,25726,5.82917857170105,True,,True,1,False,1000,True,1.0
./expes/v2_2020-12-03_dh_150-prng-1,30_issda_150,150,rng-150,71,rng,num-start-941,941,25726,9.676680088043213,True,,True,1,False,1000,True,1.0
./expes/v2_2020-12-03_dh_150-prng-1,30_issda_150,150,rng-150,111,rng,num-start-731,731,25726,7.06123423576355,True,,True,1,False,1000,True,1.0
./expes/v2_2020-12-03_dh_150-prng-1,30_issda_150,150,rng-150,121,rng,num-start-481,481,25726,4.181054353713989,True,,True,1,False,1000,True,1.0
./expes/v2_2020-12-03_dh_150-prng-1,30_issda_150,150,rng-150,21,rng,num-start-51,51,25726,1.1258025169372559,True,,True,1,False,1000,True,1.0
./expes/v2_2020-12-03_dh_150-prng-1,30_issda_150,150,rng-150,101,rng,num-start-21,21,25726,1010.4847679138184,False,,False,0,True,1000,True,0.0
./expes/v2_2020-12-03_dh_150-prng-1,30_issda_150,150,rng-150,101,rng,num-start-561,561,25726,5.366383075714111,True,,True,1,False,1000,True,1.0
./expes/v2_2020-12-03_dh_150-prng-1,30_issda_150,150,rng-150,101,rng,num-start-271,271,25726,6.133034706115723,True,,True,1,False,1000,True,1.0
./expes/v2_2020-12-03_dh_150-prng-1,30_issda_150,150,rng-150,11,rng,num-start-571,571,25726,4.762228965759277,True,,True,1,False,1000,True,1.0
./expes/v2_2020-12-03_dh_150-prng-1,30_issda_150,150,rng-150,111,rng,num-start-371,371,25726,3.1995952129364014,True,,True,1,False,1000,True,1.0
./expes/v2_2020-12-03_dh_150-prng-1,30_issda_150,150,rng-150,131,rng,num-start-541,541,25726,5.513331651687622,True,,True,1,False,1000,True,1.0
./expes/v2_2020-12-03_dh_150-prng-1,30_issda_150,150,rng-150,121,rng,num-start-741,741,25726,6.932133197784424,True,,True,1,False,1000,True,1.0
./expes/v2_2020-12-03_dh_150-prng-1,30_issda_150,150,rng-150,31,rng,num-start-211,211,25726,2.337554454803467,True,,True,1,False,1000,True,1.0
./expes/v2_2020-12-03_dh_150-prng-1,30_issda_150,150,rng-150,111,rng,num-start-911,911,25726,8.558005332946777,True,,True,1,False,1000,True,1.0
./expes/v2_2020-12-03_dh_150-prng-1,30_issda_150,150,rng-150,101,rng,num-start-781,781,25726,7.523242235183716,True,,True,1,False,1000,True,1.0
./expes/v2_2020-12-03_dh_150-prng-1,30_issda_150,150,rng-150,121,rng,num-start-991,991,25726,9.430693626403809,True,,True,1,False,1000,True,1.0
./expes/v2_2020-12-03_dh_150-prng-1,30_issda_150,150,rng-150,81,rng,num-start-701,701,25726,7.2763543128967285,True,,True,1,False,1000,True,1.0
./expes/v2_2020-12-03_dh_150-prng-1,30_issda_150,150,rng-150,31,rng,num-start-411,411,25726,3.8308613300323486,True,,True,1,False,1000,True,1.0
./expes/v2_2020-12-03_dh_150-prng-1,30_issda_150,150,rng-150,121,rng,num-start-681,681,25726,7.031163930892944,True,,True,1,False,1000,True,1.0
./expes/v2_2020-12-03_dh_150-prng-1,30_issda_150,150,rng-150,91,rng,num-start-41,41,25726,4.320900917053223,True,,True,1,False,1000,True,1.0
./expes/v2_2020-12-03_dh_150-prng-1,30_issda_150,150,rng-150,61,rng,num-start-971,971,25726,9.128529071807861,True,,True,1,False,1000,True,1.0
./expes/v2_2020-12-03_dh_150-prng-1,30_issda_150,150,rng-150,61,rng,num-start-971,971,25726,8.384907245635986,True,,True,1,False,1000,True,1.0
./expes/v2_2020-12-03_dh_150-prng-1,30_issda_150,150,rng-150,71,rng,num-start-501,501,25726,4.953673362731934,True,,True,1,False,1000,True,1.0
./expes/v2_2020-12-03_dh_150-prng-1,30_issda_150,150,rng-150,31,rng,num-start-61,61,25726,0.7253029346466064,True,,True,1,False,1000,True,1.0
./expes/v2_2020-12-03_dh_150-prng-1,30_issda_150,150,rng-150,141,rng,num-start-771,771,25726,6.095630407333374,True,,True,1,False,1000,True,1.0
./expes/v2_2020-12-03_dh_150-prng-1,30_issda_150,150,rng-150,51,rng,num-start-161,161,25726,1.9238691329956055,True,,True,1,False,1000,True,1.0
./expes/v2_2020-12-03_dh_150-prng-1,30_issda_150,150,rng-150,131,rng,num-start-441,441,25726,4.488600969314575,True,,True,1,False,1000,True,1.0
./expes/v2_2020-12-03_dh_150-prng-1,30_issda_150,150,rng-150,11,rng,num-start-151,151,25726,1.893733024597168,True,,True,1,False,1000,True,1.0
./expes/v2_2020-12-03_dh_150-prng-1,30_issda_150,150,rng-150,71,rng,num-start-881,881,25726,8.126425504684448,True,,True,1,False,1000,True,1.0
./expes/v2_2020-12-03_dh_150-prng-1,30_issda_150,150,rng-150,71,rng,num-start-711,711,25726,7.129715204238892,True,,True,1,False,1000,True,1.0
./expes/v2_2020-12-03_dh_150-prng-1,30_issda_150,150,rng-150,131,rng,num-start-731,731,25726,6.597792387008667,True,,True,1,False,1000,True,1.0
./expes/v2_2020-12-03_dh_150-prng-1,30_issda_150,150,rng-150,1,rng,num-start-921,921,25726,7.488800764083862,True,,True,1,False,1000,True,1.0
./expes/v2_2020-12-03_dh_150-prng-1,30_issda_150,150,rng-150,51,rng,num-start-61,61,25726,1.327890396118164,True,,True,1,False,1000,True,1.0
./expes/v2_2020-12-03_dh_150-prng-1,30_issda_150,150,rng-150,31,rng,num-start-151,151,25726,1.8840093612670898,True,,True,1,False,1000,True,1.0
./expes/v2_2020-12-03_dh_150-prng-1,30_issda_150,150,rng-150,61,rng,num-start-581,581,25726,6.114447832107544,True,,True,1,False,1000,True,1.0
./expes/v2_2020-12-03_dh_150-prng-1,30_issda_150,150,rng-150,121,rng,num-start-601,601,25726,5.845831632614136,True,,True,1,False,1000,True,1.0
./expes/v2_2020-12-03_dh_150-prng-1,30_issda_150,150,rng-150,11,rng,num-start-591,591,25726,5.063079833984375,True,,True,1,False,1000,True,1.0
./expes/v2_2020-12-03_dh_150-prng-1,30_issda_150,150,rng-150,141,rng,num-start-501,501,25726,4.9874608516693115,True,,True,1,False,1000,True,1.0
./expes/v2_2020-12-03_dh_150-prng-1,30_issda_150,150,rng-150,1,rng,num-start-521,521,25726,4.329977750778198,True,,True,1,False,1000,True,1.0
./expes/v2_2020-12-03_dh_150-prng-1,30_issda_150,150,rng-150,61,rng,num-start-211,211,25726,2.254351854324341,True,,True,1,False,1000,True,1.0
./expes/v2_2020-12-03_dh_150-prng-1,30_issda_150,150,rng-150,51,rng,num-start-231,231,25726,2.5947630405426025,True,,True,1,False,1000,True,1.0
./expes/v2_2020-12-03_dh_150-prng-1,30_issda_150,150,rng-150,1,rng,num-start-391,391,25726,3.1100807189941406,True,,True,1,False,1000,True,1.0
./expes/v2_2020-12-03_dh_150-prng-1,30_issda_150,150,rng-150,61,rng,num-start-91,91,25726,1.114257574081421,True,,True,1,False,1000,True,1.0
./expes/v2_2020-12-03_dh_150-prng-1,30_issda_150,150,rng-150,91,rng,num-start-151,151,25726,1.7523069381713867,True,,True,1,False,1000,True,1.0
./expes/v2_2020-12-03_dh_150-prng-1,30_issda_150,150,rng-150,31,rng,num-start-21,21,25726,1039.2569906711578,False,,False,0,True,1000,True,0.0
./expes/v2_2020-12-03_dh_150-prng-1,30_issda_150,150,rng-150,131,rng,num-start-1,1,25726,0.020799875259399414,False,,False,2,False,1000,True,1.0
./expes/v2_2020-12-03_dh_150-prng-1,30_issda_150,150,rng-150,31,rng,num-start-711,711,25726,6.900066614151001,True,,True,1,False,1000,True,1.0
./expes/v2_2020-12-03_dh_150-prng-1,30_issda_150,150,rng-150,81,rng,num-start-331,331,25726,3.32784104347229,True,,True,1,False,1000,True,1.0
./expes/v2_2020-12-03_dh_150-prng-1,30_issda_150,150,rng-150,21,rng,num-start-61,61,25726,0.6885292530059814,True,,True,1,False,1000,True,1.0
./expes/v2_2020-12-03_dh_150-prng-1,30_issda_150,150,rng-150,31,rng,num-start-431,431,25726,4.2944536209106445,True,,True,1,False,1000,True,1.0
./expes/v2_2020-12-03_dh_150-prng-1,30_issda_150,150,rng-150,91,rng,num-start-601,601,25726,5.817493200302124,True,,True,1,False,1000,True,1.0
./expes/v2_2020-12-03_dh_150-prng-1,30_issda_150,150,rng-150,61,rng,num-start-641,641,25726,6.285799026489258,True,,True,1,False,1000,True,1.0
./expes/v2_2020-12-03_dh_150-prng-1,30_issda_150,150,rng-150,141,rng,num-start-251,251,25726,2.0965960025787354,True,,True,1,False,1000,True,1.0
./expes/v2_2020-12-03_dh_150-prng-1,30_issda_150,150,rng-150,131,rng,num-start-961,961,25726,8.801772356033325,True,,True,1,False,1000,True,1.0
./expes/v2_2020-12-03_dh_150-prng-1,30_issda_150,150,rng-150,81,rng,num-start-621,621,25726,5.896661996841431,True,,True,1,False,1000,True,1.0
./expes/v2_2020-12-03_dh_150-prng-1,30_issda_150,150,rng-150,141,rng,num-start-381,381,25726,3.267425775527954,True,,True,1,False,1000,True,1.0
./expes/v2_2020-12-03_dh_150-prng-1,30_issda_150,150,rng-150,21,rng,num-start-931,931,25726,8.237800359725952,True,,True,1,False,1000,True,1.0
./expes/v2_2020-12-03_dh_150-prng-1,30_issda_150,150,rng-150,101,rng,num-start-271,271,25726,2.634150266647339,True,,True,1,False,1000,True,1.0
./expes/v2_2020-12-03_dh_150-prng-1,30_issda_150,150,rng-150,81,rng,num-start-991,991,25726,10.776554822921753,True,,True,1,False,1000,True,1.0
./expes/v2_2020-12-03_dh_150-prng-1,30_issda_150,150,rng-150,111,rng,num-start-861,861,25726,8.116982460021973,True,,True,1,False,1000,True,1.0
./expes/v2_2020-12-03_dh_150-prng-1,30_issda_150,150,rng-150,131,rng,num-start-271,271,25726,2.9615612030029297,True,,True,1,False,1000,True,1.0
./expes/v2_2020-12-03_dh_150-prng-1,30_issda_150,150,rng-150,41,rng,num-start-551,551,25726,5.403244972229004,True,,True,1,False,1000,True,1.0
./expes/v2_2020-12-03_dh_150-prng-1,30_issda_150,150,rng-150,131,rng,num-start-591,591,25726,5.945860385894775,True,,True,1,False,1000,True,1.0
./expes/v2_2020-12-03_dh_150-prng-1,30_issda_150,150,rng-150,21,rng,num-start-21,21,25726,34.83292889595032,True,,True,1,False,1000,True,1.0
./expes/v2_2020-12-03_dh_150-prng-1,30_issda_150,150,rng-150,101,rng,num-start-961,961,25726,9.99941873550415,True,,True,1,False,1000,True,1.0
./expes/v2_2020-12-03_dh_150-prng-1,30_issda_150,150,rng-150,131,rng,num-start-131,131,25726,1.3562633991241455,True,,True,1,False,1000,True,1.0
./expes/v2_2020-12-03_dh_150-prng-1,30_issda_150,150,rng-150,91,rng,num-start-161,161,25726,1.9362759590148926,True,,True,1,False,1000,True,1.0
./expes/v2_2020-12-03_dh_150-prng-1,30_issda_150,150,rng-150,61,rng,num-start-821,821,25726,8.998969316482544,True,,True,1,False,1000,True,1.0
./expes/v2_2020-12-03_dh_150-prng-1,30_issda_150,150,rng-150,11,rng,num-start-851,851,25726,6.9710752964019775,True,,True,1,False,1000,True,1.0
./expes/v2_2020-12-03_dh_150-prng-1,30_issda_150,150,rng-150,51,rng,num-start-921,921,25726,9.078802824020386,True,,True,1,False,1000,True,1.0
./expes/v2_2020-12-03_dh_150-prng-1,30_issda_150,150,rng-150,81,rng,num-start-881,881,25726,8.082165002822876,True,,True,1,False,1000,True,1.0
./expes/v2_2020-12-03_dh_150-prng-1,30_issda_150,150,rng-150,131,rng,num-start-611,611,25726,5.570656776428223,True,,True,1,False,1000,True,1.0
./expes/v2_2020-12-03_dh_150-prng-1,30_issda_150,150,rng-150,1,rng,num-start-341,341,25726,2.6533169746398926,True,,True,1,False,1000,True,1.0
./expes/v2_2020-12-03_dh_150-prng-1,30_issda_150,150,rng-150,61,rng,num-start-921,921,25726,10.287929773330688,True,,True,1,False,1000,True,1.0
./expes/v2_2020-12-03_dh_150-prng-1,30_issda_150,150,rng-150,1,rng,num-start-711,711,25726,5.800803184509277,True,,True,1,False,1000,True,1.0
./expes/v2_2020-12-03_dh_150-prng-1,30_issda_150,150,rng-150,81,rng,num-start-611,611,25726,6.285843849182129,True,,True,1,False,1000,True,1.0
./expes/v2_2020-12-03_dh_150-prng-1,30_issda_150,150,rng-150,91,rng,num-start-871,871,25726,8.983604431152344,True,,True,1,False,1000,True,1.0
./expes/v2_2020-12-03_dh_150-prng-1,30_issda_150,150,rng-150,91,rng,num-start-921,921,25726,9.287554264068604,True,,True,1,False,1000,True,1.0
./expes/v2_2020-12-03_dh_150-prng-1,30_issda_150,150,rng-150,1,rng,num-start-771,771,25726,6.116908550262451,True,,True,1,False,1000,True,1.0
./expes/v2_2020-12-03_dh_150-prng-1,30_issda_150,150,rng-150,81,rng,num-start-411,411,25726,3.818145990371704,True,,True,1,False,1000,True,1.0
./expes/v2_2020-12-03_dh_150-prng-1,30_issda_150,150,rng-150,21,rng,num-start-581,581,25726,5.820248126983643,True,,True,1,False,1000,True,1.0
./expes/v2_2020-12-03_dh_150-prng-1,30_issda_150,150,rng-150,71,rng,num-start-271,271,25726,2.8702661991119385,True,,True,1,False,1000,True,1.0
./expes/v2_2020-12-03_dh_150-prng-1,30_issda_150,150,rng-150,61,rng,num-start-871,871,25726,8.63498306274414,True,,True,1,False,1000,True,1.0
./expes/v2_2020-12-03_dh_150-prng-1,30_issda_150,150,rng-150,41,rng,num-start-111,111,25726,1.5514390468597412,True,,True,1,False,1000,True,1.0
./expes/v2_2020-12-03_dh_150-prng-1,30_issda_150,150,rng-150,101,rng,num-start-831,831,25726,8.018887519836426,True,,True,1,False,1000,True,1.0
./expes/v2_2020-12-03_dh_150-prng-1,30_issda_150,150,rng-150,131,rng,num-start-91,91,25726,1.065911054611206,True,,True,1,False,1000,True,1.0
./expes/v2_2020-12-03_dh_150-prng-1,30_issda_150,150,rng-150,141,rng,num-start-711,711,25726,6.160676717758179,True,,True,1,False,1000,True,1.0
./expes/v2_2020-12-03_dh_150-prng-1,30_issda_150,150,rng-150,101,rng,num-start-231,231,25726,2.8511016368865967,True,,True,1,False,1000,True,1.0
./expes/v2_2020-12-03_dh_150-prng-1,30_issda_150,150,rng-150,51,rng,num-start-751,751,25726,7.776201486587524,True,,True,1,False,1000,True,1.0
./expes/v2_2020-12-03_dh_150-prng-1,30_issda_150,150,rng-150,31,rng,num-start-721,721,25726,7.041538715362549,True,,True,1,False,1000,True,1.0
./expes/v2_2020-12-03_dh_150-prng-1,30_issda_150,150,rng-150,121,rng,num-start-431,431,25726,4.492757081985474,True,,True,1,False,1000,True,1.0
./expes/v2_2020-12-03_dh_150-prng-1,30_issda_150,150,rng-150,121,rng,num-start-411,411,25726,4.010416507720947,True,,True,1,False,1000,True,1.0
./expes/v2_2020-12-03_dh_150-prng-1,30_issda_150,150,rng-150,71,rng,num-start-51,51,25726,1.2326257228851318,True,,True,1,False,1000,True,1.0
./expes/v2_2020-12-03_dh_150-prng-1,30_issda_150,150,rng-150,21,rng,num-start-771,771,25726,8.5031099319458,True,,True,1,False,1000,True,1.0
./expes/v2_2020-12-03_dh_150-prng-1,30_issda_150,150,rng-150,141,rng,num-start-861,861,25726,7.187859535217285,True,,True,1,False,1000,True,1.0
./expes/v2_2020-12-03_dh_150-prng-1,30_issda_150,150,rng-150,141,rng,num-start-601,601,25726,5.775203227996826,True,,True,1,False,1000,True,1.0
./expes/v2_2020-12-03_dh_150-prng-1,30_issda_150,150,rng-150,31,rng,num-start-731,731,25726,6.850209951400757,True,,True,1,False,1000,True,1.0
./expes/v2_2020-12-03_dh_150-prng-1,30_issda_150,150,rng-150,101,rng,num-start-911,911,25726,8.252984762191772,True,,True,1,False,1000,True,1.0
./expes/v2_2020-12-03_dh_150-prng-1,30_issda_150,150,rng-150,141,rng,num-start-821,821,25726,6.871218204498291,True,,True,1,False,1000,True,1.0
./expes/v2_2020-12-03_dh_150-prng-1,30_issda_150,150,rng-150,81,rng,num-start-931,931,25726,9.433536052703857,True,,True,1,False,1000,True,1.0
./expes/v2_2020-12-03_dh_150-prng-1,30_issda_150,150,rng-150,21,rng,num-start-381,381,25726,4.320574760437012,True,,True,1,False,1000,True,1.0
./expes/v2_2020-12-03_dh_150-prng-1,30_issda_150,150,rng-150,141,rng,num-start-721,721,25726,7.717890977859497,True,,True,1,False,1000,True,1.0
./expes/v2_2020-12-03_dh_150-prng-1,30_issda_150,150,rng-150,61,rng,num-start-71,71,25726,0.8780393600463867,True,,True,1,False,1000,True,1.0
./expes/v2_2020-12-03_dh_150-prng-1,30_issda_150,150,rng-150,101,rng,num-start-291,291,25726,3.3721399307250977,True,,True,1,False,1000,True,1.0
./expes/v2_2020-12-03_dh_150-prng-1,30_issda_150,150,rng-150,41,rng,num-start-41,41,25726,1.877648115158081,True,,True,1,False,1000,True,1.0
./expes/v2_2020-12-03_dh_150-prng-1,30_issda_150,150,rng-150,141,rng,num-start-961,961,25726,8.365176677703857,True,,True,1,False,1000,True,1.0
./expes/v2_2020-12-03_dh_150-prng-1,30_issda_150,150,rng-150,31,rng,num-start-121,121,25726,1.3738903999328613,True,,True,1,False,1000,True,1.0
./expes/v2_2020-12-03_dh_150-prng-1,30_issda_150,150,rng-150,91,rng,num-start-181,181,25726,1.9711041450500488,True,,True,1,False,1000,True,1.0
./expes/v2_2020-12-03_dh_150-prng-1,30_issda_150,150,rng-150,81,rng,num-start-241,241,25726,2.561532497406006,True,,True,1,False,1000,True,1.0
./expes/v2_2020-12-03_dh_150-prng-1,30_issda_150,150,rng-150,111,rng,num-start-881,881,25726,9.538558959960938,True,,True,1,False,1000,True,1.0
./expes/v2_2020-12-03_dh_150-prng-1,30_issda_150,150,rng-150,141,rng,num-start-911,911,25726,7.567804336547852,True,,True,1,False,1000,True,1.0
./expes/v2_2020-12-03_dh_150-prng-1,30_issda_150,150,rng-150,111,rng,num-start-871,871,25726,8.465666055679321,True,,True,1,False,1000,True,1.0
./expes/v2_2020-12-03_dh_150-prng-1,30_issda_150,150,rng-150,51,rng,num-start-891,891,25726,8.969626903533936,True,,True,1,False,1000,True,1.0
./expes/v2_2020-12-03_dh_150-prng-1,30_issda_150,150,rng-150,141,rng,num-start-171,171,25726,1.5779166221618652,True,,True,1,False,1000,True,1.0
./expes/v2_2020-12-03_dh_150-prng-1,30_issda_150,150,rng-150,101,rng,num-start-151,151,25726,1.9540953636169434,True,,True,1,False,1000,True,1.0
./expes/v2_2020-12-03_dh_150-prng-1,30_issda_150,150,rng-150,91,rng,num-start-481,481,25726,4.591917037963867,True,,True,1,False,1000,True,1.0
./expes/v2_2020-12-03_dh_150-prng-1,30_issda_150,150,rng-150,21,rng,num-start-611,611,25726,5.945078134536743,True,,True,1,False,1000,True,1.0
./expes/v2_2020-12-03_dh_150-prng-1,30_issda_150,150,rng-150,81,rng,num-start-461,461,25726,4.541564702987671,True,,True,1,False,1000,True,1.0
./expes/v2_2020-12-03_dh_150-prng-1,30_issda_150,150,rng-150,131,rng,num-start-691,691,25726,6.534741401672363,True,,True,1,False,1000,True,1.0
./expes/v2_2020-12-03_dh_150-prng-1,30_issda_150,150,rng-150,81,rng,num-start-451,451,25726,5.647212266921997,True,,True,1,False,1000,True,1.0
./expes/v2_2020-12-03_dh_150-prng-1,30_issda_150,150,rng-150,141,rng,num-start-941,941,25726,8.09278655052185,True,,True,1,False,1000,True,1.0
./expes/v2_2020-12-03_dh_150-prng-1,30_issda_150,150,rng-150,91,rng,num-start-361,361,25726,3.965787649154663,True,,True,1,False,1000,True,1.0
./expes/v2_2020-12-03_dh_150-prng-1,30_issda_150,150,rng-150,111,rng,num-start-291,291,25726,2.9659667015075684,True,,True,1,False,1000,True,1.0
./expes/v2_2020-12-03_dh_150-prng-1,30_issda_150,150,rng-150,91,rng,num-start-161,161,25726,2.0076115131378174,True,,True,1,False,1000,True,1.0
./expes/v2_2020-12-03_dh_150-prng-1,30_issda_150,150,rng-150,51,rng,num-start-651,651,25726,6.396966934204102,True,,True,1,False,1000,True,1.0
./expes/v2_2020-12-03_dh_150-prng-1,30_issda_150,150,rng-150,101,rng,num-start-571,571,25726,5.71717095375061,True,,True,1,False,1000,True,1.0
./expes/v2_2020-12-03_dh_150-prng-1,30_issda_150,150,rng-150,41,rng,num-start-861,861,25726,8.237308740615845,True,,True,1,False,1000,True,1.0
./expes/v2_2020-12-03_dh_150-prng-1,30_issda_150,150,rng-150,11,rng,num-start-61,61,25726,0.8595695495605469,True,,True,1,False,1000,True,1.0
./expes/v2_2020-12-03_dh_150-prng-1,30_issda_150,150,rng-150,71,rng,num-start-261,261,25726,2.7397475242614746,True,,True,1,False,1000,True,1.0
./expes/v2_2020-12-03_dh_150-prng-1,30_issda_150,150,rng-150,21,rng,num-start-101,101,25726,1.2732927799224854,True,,True,1,False,1000,True,1.0
./expes/v2_2020-12-03_dh_150-prng-1,30_issda_150,150,rng-150,131,rng,num-start-801,801,25726,7.481507778167725,True,,True,1,False,1000,True,1.0
./expes/v2_2020-12-03_dh_150-prng-1,30_issda_150,150,rng-150,121,rng,num-start-371,371,25726,3.705294370651245,True,,True,1,False,1000,True,1.0
./expes/v2_2020-12-03_dh_150-prng-1,30_issda_150,150,rng-150,51,rng,num-start-181,181,25726,1.8918018341064453,True,,True,1,False,1000,True,1.0
./expes/v2_2020-12-03_dh_150-prng-1,30_issda_150,150,rng-150,41,rng,num-start-771,771,25726,7.671248197555542,True,,True,1,False,1000,True,1.0
./expes/v2_2020-12-03_dh_150-prng-1,30_issda_150,150,rng-150,111,rng,num-start-531,531,25726,5.406227350234985,True,,True,1,False,1000,True,1.0
./expes/v2_2020-12-03_dh_150-prng-1,30_issda_150,150,rng-150,71,rng,num-start-421,421,25726,4.307475805282593,True,,True,1,False,1000,True,1.0
./expes/v2_2020-12-03_dh_150-prng-1,30_issda_150,150,rng-150,141,rng,num-start-601,601,25726,4.97554612159729,True,,True,1,False,1000,True,1.0
./expes/v2_2020-12-03_dh_150-prng-1,30_issda_150,150,rng-150,11,rng,num-start-601,601,25726,6.193002700805664,True,,True,1,False,1000,True,1.0
./expes/v2_2020-12-03_dh_150-prng-1,30_issda_150,150,rng-150,61,rng,num-start-231,231,25726,2.4770922660827637,True,,True,1,False,1000,True,1.0
./expes/v2_2020-12-03_dh_150-prng-1,30_issda_150,150,rng-150,111,rng,num-start-761,761,25726,7.470811605453491,True,,True,1,False,1000,True,1.0
./expes/v2_2020-12-03_dh_150-prng-1,30_issda_150,150,rng-150,121,rng,num-start-941,941,25726,9.23621416091919,True,,True,1,False,1000,True,1.0
./expes/v2_2020-12-03_dh_150-prng-1,30_issda_150,150,rng-150,21,rng,num-start-81,81,25726,1.0562026500701904,True,,True,1,False,1000,True,1.0
./expes/v2_2020-12-03_dh_150-prng-1,30_issda_150,150,rng-150,121,rng,num-start-481,481,25726,4.555174350738525,True,,True,1,False,1000,True,1.0
./expes/v2_2020-12-03_dh_150-prng-1,30_issda_150,150,rng-150,141,rng,num-start-261,261,25726,2.410395622253418,True,,True,1,False,1000,True,1.0
./expes/v2_2020-12-03_dh_150-prng-1,30_issda_150,150,rng-150,81,rng,num-start-891,891,25726,8.287018537521362,True,,True,1,False,1000,True,1.0
./expes/v2_2020-12-03_dh_150-prng-1,30_issda_150,150,rng-150,41,rng,num-start-671,671,25726,6.494997501373291,True,,True,1,False,1000,True,1.0
./expes/v2_2020-12-03_dh_150-prng-1,30_issda_150,150,rng-150,101,rng,num-start-611,611,25726,6.665626764297485,True,,True,1,False,1000,True,1.0
./expes/v2_2020-12-03_dh_150-prng-1,30_issda_150,150,rng-150,71,rng,num-start-271,271,25726,2.7820353507995605,True,,True,1,False,1000,True,1.0
./expes/v2_2020-12-03_dh_150-prng-1,30_issda_150,150,rng-150,31,rng,num-start-381,381,25726,3.881500720977783,True,,True,1,False,1000,True,1.0
./expes/v2_2020-12-03_dh_150-prng-1,30_issda_150,150,rng-150,141,rng,num-start-331,331,25726,3.0480778217315674,True,,True,1,False,1000,True,1.0
./expes/v2_2020-12-03_dh_150-prng-1,30_issda_150,150,rng-150,21,rng,num-start-491,491,25726,5.001693248748779,True,,True,1,False,1000,True,1.0
./expes/v2_2020-12-03_dh_150-prng-1,30_issda_150,150,rng-150,121,rng,num-start-181,181,25726,2.1037745475769043,True,,True,1,False,1000,True,1.0
./expes/v2_2020-12-03_dh_150-prng-1,30_issda_150,150,rng-150,41,rng,num-start-71,71,25726,1.0262186527252197,True,,True,1,False,1000,True,1.0
./expes/v2_2020-12-03_dh_150-prng-1,30_issda_150,150,rng-150,1,rng,num-start-851,851,25726,7.278896331787109,True,,True,1,False,1000,True,1.0
./expes/v2_2020-12-03_dh_150-prng-1,30_issda_150,150,rng-150,141,rng,num-start-411,411,25726,3.4719741344451904,True,,True,1,False,1000,True,1.0
./expes/v2_2020-12-03_dh_150-prng-1,30_issda_150,150,rng-150,71,rng,num-start-561,561,25726,5.6051249504089355,True,,True,1,False,1000,True,1.0
./expes/v2_2020-12-03_dh_150-prng-1,30_issda_150,150,rng-150,111,rng,num-start-411,411,25726,3.5970871448516846,True,,True,1,False,1000,True,1.0
./expes/v2_2020-12-03_dh_150-prng-1,30_issda_150,150,rng-150,141,rng,num-start-91,91,25726,1.1972291469573975,True,,True,1,False,1000,True,1.0
./expes/v2_2020-12-03_dh_150-prng-1,30_issda_150,150,rng-150,21,rng,num-start-221,221,25726,2.358686923980713,True,,True,1,False,1000,True,1.0
./expes/v2_2020-12-03_dh_150-prng-1,30_issda_150,150,rng-150,131,rng,num-start-411,411,25726,4.102703332901001,True,,True,1,False,1000,True,1.0
./expes/v2_2020-12-03_dh_150-prng-1,30_issda_150,150,rng-150,11,rng,num-start-921,921,25726,7.766149997711182,True,,True,1,False,1000,True,1.0
./expes/v2_2020-12-03_dh_150-prng-1,30_issda_150,150,rng-150,101,rng,num-start-191,191,25726,1.8932983875274658,True,,True,1,False,1000,True,1.0
./expes/v2_2020-12-03_dh_150-prng-1,30_issda_150,150,rng-150,41,rng,num-start-951,951,25726,8.910733699798584,True,,True,1,False,1000,True,1.0
./expes/v2_2020-12-03_dh_150-prng-1,30_issda_150,150,rng-150,61,rng,num-start-881,881,25726,8.234598398208618,True,,True,1,False,1000,True,1.0
./expes/v2_2020-12-03_dh_150-prng-1,30_issda_150,150,rng-150,11,rng,num-start-21,21,25726,0.6075084209442139,True,,True,1,False,1000,True,1.0
./expes/v2_2020-12-03_dh_150-prng-1,30_issda_150,150,rng-150,141,rng,num-start-271,271,25726,2.6152093410491943,True,,True,1,False,1000,True,1.0
./expes/v2_2020-12-03_dh_150-prng-1,30_issda_150,150,rng-150,81,rng,num-start-251,251,25726,2.9902291297912598,True,,True,1,False,1000,True,1.0
./expes/v2_2020-12-03_dh_150-prng-1,30_issda_150,150,rng-150,131,rng,num-start-521,521,25726,4.395323753356934,True,,True,1,False,1000,True,1.0
./expes/v2_2020-12-03_dh_150-prng-1,30_issda_150,150,rng-150,111,rng,num-start-511,511,25726,4.704379558563232,True,,True,1,False,1000,True,1.0
./expes/v2_2020-12-03_dh_150-prng-1,30_issda_150,150,rng-150,131,rng,num-start-691,691,25726,6.71996808052063,True,,True,1,False,1000,True,1.0
./expes/v2_2020-12-03_dh_150-prng-1,30_issda_150,150,rng-150,131,rng,num-start-601,601,25726,5.529854774475098,True,,True,1,False,1000,True,1.0
./expes/v2_2020-12-03_dh_150-prng-1,30_issda_150,150,rng-150,41,rng,num-start-691,691,25726,6.704775810241699,True,,True,1,False,1000,True,1.0
./expes/v2_2020-12-03_dh_150-prng-1,30_issda_150,150,rng-150,31,rng,num-start-911,911,25726,8.86715316772461,True,,True,1,False,1000,True,1.0
./expes/v2_2020-12-03_dh_150-prng-1,30_issda_150,150,rng-150,121,rng,num-start-851,851,25726,8.299665212631226,True,,True,1,False,1000,True,1.0
./expes/v2_2020-12-03_dh_150-prng-1,30_issda_150,150,rng-150,121,rng,num-start-671,671,25726,6.6905882358551025,True,,True,1,False,1000,True,1.0
./expes/v2_2020-12-03_dh_150-prng-1,30_issda_150,150,rng-150,61,rng,num-start-931,931,25726,8.904106140136719,True,,True,1,False,1000,True,1.0
./expes/v2_2020-12-03_dh_150-prng-1,30_issda_150,150,rng-150,21,rng,num-start-581,581,25726,5.814493894577026,True,,True,1,False,1000,True,1.0
./expes/v2_2020-12-03_dh_150-prng-1,30_issda_150,150,rng-150,51,rng,num-start-591,591,25726,5.747014760971069,True,,True,1,False,1000,True,1.0
./expes/v2_2020-12-03_dh_150-prng-1,30_issda_150,150,rng-150,121,rng,num-start-501,501,25726,5.178289890289307,True,,True,1,False,1000,True,1.0
./expes/v2_2020-12-03_dh_150-prng-1,30_issda_150,150,rng-150,111,rng,num-start-311,311,25726,3.264751672744751,True,,True,1,False,1000,True,1.0
./expes/v2_2020-12-03_dh_150-prng-1,30_issda_150,150,rng-150,21,rng,num-start-901,901,25726,8.700077056884766,True,,True,1,False,1000,True,1.0
./expes/v2_2020-12-03_dh_150-prng-1,30_issda_150,150,rng-150,91,rng,num-start-141,141,25726,1.611107587814331,True,,True,1,False,1000,True,1.0
./expes/v2_2020-12-03_dh_150-prng-1,30_issda_150,150,rng-150,11,rng,num-start-281,281,25726,2.540748357772827,True,,True,1,False,1000,True,1.0
./expes/v2_2020-12-03_dh_150-prng-1,30_issda_150,150,rng-150,111,rng,num-start-561,561,25726,5.489265441894531,True,,True,1,False,1000,True,1.0
./expes/v2_2020-12-03_dh_150-prng-1,30_issda_150,150,rng-150,91,rng,num-start-921,921,25726,8.692046642303467,True,,True,1,False,1000,True,1.0
./expes/v2_2020-12-03_dh_150-prng-1,30_issda_150,150,rng-150,141,rng,num-start-531,531,25726,4.168641805648804,True,,True,1,False,1000,True,1.0
./expes/v2_2020-12-03_dh_150-prng-1,30_issda_150,150,rng-150,31,rng,num-start-71,71,25726,0.8268873691558838,True,,True,1,False,1000,True,1.0
./expes/v2_2020-12-03_dh_150-prng-1,30_issda_150,150,rng-150,91,rng,num-start-221,221,25726,2.199777126312256,True,,True,1,False,1000,True,1.0
./expes/v2_2020-12-03_dh_150-prng-1,30_issda_150,150,rng-150,51,rng,num-start-931,931,25726,10.784753799438477,True,,True,1,False,1000,True,1.0
./expes/v2_2020-12-03_dh_150-prng-1,30_issda_150,150,rng-150,91,rng,num-start-231,231,25726,2.440639019012451,True,,True,1,False,1000,True,1.0
./expes/v2_2020-12-03_dh_150-prng-1,30_issda_150,150,rng-150,11,rng,num-start-691,691,25726,7.162973880767822,True,,True,1,False,1000,True,1.0
./expes/v2_2020-12-03_dh_150-prng-1,30_issda_150,150,rng-150,91,rng,num-start-71,71,25726,0.8054282665252686,True,,True,1,False,1000,True,1.0
./expes/v2_2020-12-03_dh_150-prng-1,30_issda_150,150,rng-150,101,rng,num-start-391,391,25726,3.6227669715881348,True,,True,1,False,1000,True,1.0
./expes/v2_2020-12-03_dh_150-prng-1,30_issda_150,150,rng-150,31,rng,num-start-381,381,25726,3.8777968883514404,True,,True,1,False,1000,True,1.0
./expes/v2_2020-12-03_dh_150-prng-1,30_issda_150,150,rng-150,91,rng,num-start-101,101,25726,1.0782523155212402,True,,True,1,False,1000,True,1.0
./expes/v2_2020-12-03_dh_150-prng-1,30_issda_150,150,rng-150,51,rng,num-start-321,321,25726,2.9051082134246826,True,,True,1,False,1000,True,1.0
./expes/v2_2020-12-03_dh_150-prng-1,30_issda_150,150,rng-150,81,rng,num-start-641,641,25726,6.328674554824829,True,,True,1,False,1000,True,1.0
./expes/v2_2020-12-03_dh_150-prng-1,30_issda_150,150,rng-150,1,rng,num-start-721,721,25726,5.783412933349609,True,,True,1,False,1000,True,1.0
./expes/v2_2020-12-03_dh_150-prng-1,30_issda_150,150,rng-150,61,rng,num-start-621,621,25726,6.3530592918396,True,,True,1,False,1000,True,1.0
./expes/v2_2020-12-03_dh_150-prng-1,30_issda_150,150,rng-150,141,rng,num-start-191,191,25726,1.514695644378662,True,,True,1,False,1000,True,1.0
./expes/v2_2020-12-03_dh_150-prng-1,30_issda_150,150,rng-150,81,rng,num-start-371,371,25726,3.913405656814575,True,,True,1,False,1000,True,1.0
./expes/v2_2020-12-03_dh_150-prng-1,30_issda_150,150,rng-150,61,rng,num-start-621,621,25726,6.181947946548462,True,,True,1,False,1000,True,1.0
./expes/v2_2020-12-03_dh_150-prng-1,30_issda_150,150,rng-150,71,rng,num-start-261,261,25726,2.651503086090088,True,,True,1,False,1000,True,1.0
./expes/v2_2020-12-03_dh_150-prng-1,30_issda_150,150,rng-150,21,rng,num-start-951,951,25726,9.329781293869019,True,,True,1,False,1000,True,1.0
./expes/v2_2020-12-03_dh_150-prng-1,30_issda_150,150,rng-150,11,rng,num-start-201,201,25726,1.9465415477752686,True,,True,1,False,1000,True,1.0
./expes/v2_2020-12-03_dh_150-prng-1,30_issda_150,150,rng-150,121,rng,num-start-21,21,25726,664.3229424953461,True,,True,1,False,1000,True,1.0
./expes/v2_2020-12-03_dh_150-prng-1,30_issda_150,150,rng-150,61,rng,num-start-581,581,25726,5.845640420913696,True,,True,1,False,1000,True,1.0
./expes/v2_2020-12-03_dh_150-prng-1,30_issda_150,150,rng-150,101,rng,num-start-661,661,25726,6.768413305282593,True,,True,1,False,1000,True,1.0
./expes/v2_2020-12-03_dh_150-prng-1,30_issda_150,150,rng-150,41,rng,num-start-621,621,25726,6.124356031417847,True,,True,1,False,1000,True,1.0
./expes/v2_2020-12-03_dh_150-prng-1,30_issda_150,150,rng-150,101,rng,num-start-321,321,25726,3.2778570652008057,True,,True,1,False,1000,True,1.0
./expes/v2_2020-12-03_dh_150-prng-1,30_issda_150,150,rng-150,71,rng,num-start-411,411,25726,4.548643589019775,True,,True,1,False,1000,True,1.0
./expes/v2_2020-12-03_dh_150-prng-1,30_issda_150,150,rng-150,101,rng,num-start-341,341,25726,3.5200843811035156,True,,True,1,False,1000,True,1.0
./expes/v2_2020-12-03_dh_150-prng-1,30_issda_150,150,rng-150,11,rng,num-start-871,871,25726,8.191655397415161,True,,True,1,False,1000,True,1.0
./expes/v2_2020-12-03_dh_150-prng-1,30_issda_150,150,rng-150,81,rng,num-start-371,371,25726,4.335215091705322,True,,True,1,False,1000,True,1.0
./expes/v2_2020-12-03_dh_150-prng-1,30_issda_150,150,rng-150,31,rng,num-start-411,411,25726,3.994777202606201,True,,True,1,False,1000,True,1.0
./expes/v2_2020-12-03_dh_150-prng-1,30_issda_150,150,rng-150,51,rng,num-start-791,791,25726,7.067582607269287,True,,True,1,False,1000,True,1.0
./expes/v2_2020-12-03_dh_150-prng-1,30_issda_150,150,rng-150,81,rng,num-start-911,911,25726,8.908628940582275,True,,True,1,False,1000,True,1.0
./expes/v2_2020-12-03_dh_150-prng-1,30_issda_150,150,rng-150,81,rng,num-start-21,21,25726,1000.4873511791229,False,,False,0,True,1000,True,0.0
./expes/v2_2020-12-03_dh_150-prng-1,30_issda_150,150,rng-150,141,rng,num-start-131,131,25726,1.1941649913787842,True,,True,1,False,1000,True,1.0
./expes/v2_2020-12-03_dh_150-prng-1,30_issda_150,150,rng-150,131,rng,num-start-551,551,25726,4.910132646560669,True,,True,1,False,1000,True,1.0
./expes/v2_2020-12-03_dh_150-prng-1,30_issda_150,150,rng-150,51,rng,num-start-541,541,25726,5.413490056991577,True,,True,1,False,1000,True,1.0
./expes/v2_2020-12-03_dh_150-prng-1,30_issda_150,150,rng-150,121,rng,num-start-601,601,25726,5.856269598007202,True,,True,1,False,1000,True,1.0
./expes/v2_2020-12-03_dh_150-prng-1,30_issda_150,150,rng-150,41,rng,num-start-681,681,25726,6.028225421905518,True,,True,1,False,1000,True,1.0
./expes/v2_2020-12-03_dh_150-prng-1,30_issda_150,150,rng-150,51,rng,num-start-891,891,25726,8.524088621139526,True,,True,1,False,1000,True,1.0
./expes/v2_2020-12-03_dh_150-prng-1,30_issda_150,150,rng-150,61,rng,num-start-241,241,25726,2.305936574935913,True,,True,1,False,1000,True,1.0
./expes/v2_2020-12-03_dh_150-prng-1,30_issda_150,150,rng-150,131,rng,num-start-101,101,25726,1.083228349685669,True,,True,1,False,1000,True,1.0
./expes/v2_2020-12-03_dh_150-prng-1,30_issda_150,150,rng-150,31,rng,num-start-281,281,25726,2.8890812397003174,True,,True,1,False,1000,True,1.0
./expes/v2_2020-12-03_dh_150-prng-1,30_issda_150,150,rng-150,41,rng,num-start-361,361,25726,3.9115707874298096,True,,True,1,False,1000,True,1.0
./expes/v2_2020-12-03_dh_150-prng-1,30_issda_150,150,rng-150,91,rng,num-start-961,961,25726,9.630684852600098,True,,True,1,False,1000,True,1.0
./expes/v2_2020-12-03_dh_150-prng-1,30_issda_150,150,rng-150,31,rng,num-start-571,571,25726,5.965780735015869,True,,True,1,False,1000,True,1.0
./expes/v2_2020-12-03_dh_150-prng-1,30_issda_150,150,rng-150,91,rng,num-start-511,511,25726,5.274653196334839,True,,True,1,False,1000,True,1.0
./expes/v2_2020-12-03_dh_150-prng-1,30_issda_150,150,rng-150,51,rng,num-start-31,31,25726,1007.5976986885071,False,,False,0,True,1000,True,0.0
./expes/v2_2020-12-03_dh_150-prng-1,30_issda_150,150,rng-150,21,rng,num-start-1,1,25726,0.031162738800048828,False,,False,2,False,1000,True,1.0
./expes/v2_2020-12-03_dh_150-prng-1,30_issda_150,150,rng-150,61,rng,num-start-31,31,25726,1000.3246374130249,False,,False,0,True,1000,True,0.0
./expes/v2_2020-12-03_dh_150-prng-1,30_issda_150,150,rng-150,121,rng,num-start-471,471,25726,4.2945191860198975,True,,True,1,False,1000,True,1.0
./expes/v2_2020-12-03_dh_150-prng-1,30_issda_150,150,rng-150,51,rng,num-start-971,971,25726,9.44220495223999,True,,True,1,False,1000,True,1.0
