expe,clients,clients_size,clients_subset,agg_size,method,days,days_size,days_total,time,valid,valid_sum,success,nsols,wall_hit,wall_time,pooled,valid_sums
./expes/v2_2020-12-03_dh_150-prng-1,30_issda_150,150,rng-150,111,rng,num-start-31,31,25726,1016.56387758255,False,,False,0,True,1000,True,0.0
./expes/v2_2020-12-03_dh_150-prng-1,30_issda_150,150,rng-150,111,rng,num-start-971,971,25726,10.448878049850464,True,,True,1,False,1000,True,1.0
./expes/v2_2020-12-03_dh_150-prng-1,30_issda_150,150,rng-150,141,rng,num-start-721,721,25726,5.682592153549194,True,,True,1,False,1000,True,1.0
./expes/v2_2020-12-03_dh_150-prng-1,30_issda_150,150,rng-150,91,rng,num-start-621,621,25726,6.181130409240723,True,,True,1,False,1000,True,1.0
./expes/v2_2020-12-03_dh_150-prng-1,30_issda_150,150,rng-150,11,rng,num-start-811,811,25726,6.66745138168335,True,,True,1,False,1000,True,1.0
./expes/v2_2020-12-03_dh_150-prng-1,30_issda_150,150,rng-150,71,rng,num-start-221,221,25726,2.370999574661255,True,,True,1,False,1000,True,1.0
./expes/v2_2020-12-03_dh_150-prng-1,30_issda_150,150,rng-150,121,rng,num-start-91,91,25726,1.2086727619171143,True,,True,1,False,1000,True,1.0
./expes/v2_2020-12-03_dh_150-prng-1,30_issda_150,150,rng-150,91,rng,num-start-751,751,25726,6.723027467727661,True,,True,1,False,1000,True,1.0
./expes/v2_2020-12-03_dh_150-prng-1,30_issda_150,150,rng-150,11,rng,num-start-851,851,25726,6.74719762802124,True,,True,1,False,1000,True,1.0
./expes/v2_2020-12-03_dh_150-prng-1,30_issda_150,150,rng-150,121,rng,num-start-891,891,25726,8.396689176559448,True,,True,1,False,1000,True,1.0
./expes/v2_2020-12-03_dh_150-prng-1,30_issda_150,150,rng-150,41,rng,num-start-741,741,25726,7.532779216766357,True,,True,1,False,1000,True,1.0
./expes/v2_2020-12-03_dh_150-prng-1,30_issda_150,150,rng-150,81,rng,num-start-191,191,25726,2.1916561126708984,True,,True,1,False,1000,True,1.0
./expes/v2_2020-12-03_dh_150-prng-1,30_issda_150,150,rng-150,131,rng,num-start-491,491,25726,4.525713205337524,True,,True,1,False,1000,True,1.0
./expes/v2_2020-12-03_dh_150-prng-1,30_issda_150,150,rng-150,31,rng,num-start-971,971,25726,10.31943678855896,True,,True,1,False,1000,True,1.0
./expes/v2_2020-12-03_dh_150-prng-1,30_issda_150,150,rng-150,11,rng,num-start-531,531,25726,6.124034404754639,True,,True,1,False,1000,True,1.0
./expes/v2_2020-12-03_dh_150-prng-1,30_issda_150,150,rng-150,101,rng,num-start-931,931,25726,9.34377908706665,True,,True,1,False,1000,True,1.0
./expes/v2_2020-12-03_dh_150-prng-1,30_issda_150,150,rng-150,111,rng,num-start-471,471,25726,4.1831042766571045,True,,True,1,False,1000,True,1.0
./expes/v2_2020-12-03_dh_150-prng-1,30_issda_150,150,rng-150,1,rng,num-start-711,711,25726,6.006665229797363,True,,True,1,False,1000,True,1.0
./expes/v2_2020-12-03_dh_150-prng-1,30_issda_150,150,rng-150,91,rng,num-start-331,331,25726,3.629798412322998,True,,True,1,False,1000,True,1.0
./expes/v2_2020-12-03_dh_150-prng-1,30_issda_150,150,rng-150,91,rng,num-start-871,871,25726,8.65230679512024,True,,True,1,False,1000,True,1.0
./expes/v2_2020-12-03_dh_150-prng-1,30_issda_150,150,rng-150,121,rng,num-start-61,61,25726,0.7850255966186523,True,,True,1,False,1000,True,1.0
./expes/v2_2020-12-03_dh_150-prng-1,30_issda_150,150,rng-150,121,rng,num-start-81,81,25726,0.8758058547973633,True,,True,1,False,1000,True,1.0
./expes/v2_2020-12-03_dh_150-prng-1,30_issda_150,150,rng-150,31,rng,num-start-491,491,25726,4.556490182876587,True,,True,1,False,1000,True,1.0
./expes/v2_2020-12-03_dh_150-prng-1,30_issda_150,150,rng-150,81,rng,num-start-731,731,25726,6.850581407546997,True,,True,1,False,1000,True,1.0
./expes/v2_2020-12-03_dh_150-prng-1,30_issda_150,150,rng-150,81,rng,num-start-931,931,25726,8.124446392059326,True,,True,1,False,1000,True,1.0
./expes/v2_2020-12-03_dh_150-prng-1,30_issda_150,150,rng-150,61,rng,num-start-721,721,25726,6.9761762619018555,True,,True,1,False,1000,True,1.0
./expes/v2_2020-12-03_dh_150-prng-1,30_issda_150,150,rng-150,61,rng,num-start-471,471,25726,5.1271748542785645,True,,True,1,False,1000,True,1.0
./expes/v2_2020-12-03_dh_150-prng-1,30_issda_150,150,rng-150,51,rng,num-start-471,471,25726,4.896785020828247,True,,True,1,False,1000,True,1.0
./expes/v2_2020-12-03_dh_150-prng-1,30_issda_150,150,rng-150,31,rng,num-start-651,651,25726,6.453063488006592,True,,True,1,False,1000,True,1.0
./expes/v2_2020-12-03_dh_150-prng-1,30_issda_150,150,rng-150,31,rng,num-start-591,591,25726,5.486978769302368,True,,True,1,False,1000,True,1.0
./expes/v2_2020-12-03_dh_150-prng-1,30_issda_150,150,rng-150,21,rng,num-start-991,991,25726,10.256561040878296,True,,True,1,False,1000,True,1.0
./expes/v2_2020-12-03_dh_150-prng-1,30_issda_150,150,rng-150,41,rng,num-start-921,921,25726,9.710261583328247,True,,True,1,False,1000,True,1.0
./expes/v2_2020-12-03_dh_150-prng-1,30_issda_150,150,rng-150,81,rng,num-start-341,341,25726,3.363147020339966,True,,True,1,False,1000,True,1.0
./expes/v2_2020-12-03_dh_150-prng-1,30_issda_150,150,rng-150,61,rng,num-start-901,901,25726,9.040153503417969,True,,True,1,False,1000,True,1.0
./expes/v2_2020-12-03_dh_150-prng-1,30_issda_150,150,rng-150,61,rng,num-start-91,91,25726,1.3165714740753174,True,,True,1,False,1000,True,1.0
./expes/v2_2020-12-03_dh_150-prng-1,30_issda_150,150,rng-150,81,rng,num-start-61,61,25726,1.6609604358673096,True,,True,1,False,1000,True,1.0
./expes/v2_2020-12-03_dh_150-prng-1,30_issda_150,150,rng-150,91,rng,num-start-141,141,25726,1.630769968032837,True,,True,1,False,1000,True,1.0
./expes/v2_2020-12-03_dh_150-prng-1,30_issda_150,150,rng-150,61,rng,num-start-761,761,25726,7.561135292053223,True,,True,1,False,1000,True,1.0
./expes/v2_2020-12-03_dh_150-prng-1,30_issda_150,150,rng-150,31,rng,num-start-11,11,25726,1000.6894474029541,False,,False,0,True,1000,True,0.0
./expes/v2_2020-12-03_dh_150-prng-1,30_issda_150,150,rng-150,131,rng,num-start-111,111,25726,1.1350178718566895,True,,True,1,False,1000,True,1.0
./expes/v2_2020-12-03_dh_150-prng-1,30_issda_150,150,rng-150,91,rng,num-start-561,561,25726,6.6297523975372314,True,,True,1,False,1000,True,1.0
./expes/v2_2020-12-03_dh_150-prng-1,30_issda_150,150,rng-150,71,rng,num-start-121,121,25726,1.261228084564209,True,,True,1,False,1000,True,1.0
./expes/v2_2020-12-03_dh_150-prng-1,30_issda_150,150,rng-150,51,rng,num-start-631,631,25726,6.847005605697632,True,,True,1,False,1000,True,1.0
./expes/v2_2020-12-03_dh_150-prng-1,30_issda_150,150,rng-150,11,rng,num-start-861,861,25726,6.991119861602783,True,,True,1,False,1000,True,1.0
./expes/v2_2020-12-03_dh_150-prng-1,30_issda_150,150,rng-150,61,rng,num-start-941,941,25726,9.15818166732788,True,,True,1,False,1000,True,1.0
./expes/v2_2020-12-03_dh_150-prng-1,30_issda_150,150,rng-150,91,rng,num-start-871,871,25726,8.764358282089233,True,,True,1,False,1000,True,1.0
./expes/v2_2020-12-03_dh_150-prng-1,30_issda_150,150,rng-150,11,rng,num-start-711,711,25726,5.706779956817627,True,,True,1,False,1000,True,1.0
./expes/v2_2020-12-03_dh_150-prng-1,30_issda_150,150,rng-150,101,rng,num-start-851,851,25726,8.106720685958862,True,,True,1,False,1000,True,1.0
./expes/v2_2020-12-03_dh_150-prng-1,30_issda_150,150,rng-150,81,rng,num-start-441,441,25726,4.847568035125732,True,,True,1,False,1000,True,1.0
./expes/v2_2020-12-03_dh_150-prng-1,30_issda_150,150,rng-150,101,rng,num-start-601,601,25726,5.9532201290130615,True,,True,1,False,1000,True,1.0
./expes/v2_2020-12-03_dh_150-prng-1,30_issda_150,150,rng-150,121,rng,num-start-211,211,25726,2.2274231910705566,True,,True,1,False,1000,True,1.0
./expes/v2_2020-12-03_dh_150-prng-1,30_issda_150,150,rng-150,51,rng,num-start-11,11,25726,1000.3949763774872,False,,False,0,True,1000,True,0.0
./expes/v2_2020-12-03_dh_150-prng-1,30_issda_150,150,rng-150,121,rng,num-start-661,661,25726,6.061063289642334,True,,True,1,False,1000,True,1.0
./expes/v2_2020-12-03_dh_150-prng-1,30_issda_150,150,rng-150,101,rng,num-start-651,651,25726,6.664204835891724,True,,True,1,False,1000,True,1.0
./expes/v2_2020-12-03_dh_150-prng-1,30_issda_150,150,rng-150,31,rng,num-start-151,151,25726,1.5598804950714111,True,,True,1,False,1000,True,1.0
./expes/v2_2020-12-03_dh_150-prng-1,30_issda_150,150,rng-150,141,rng,num-start-611,611,25726,5.4652650356292725,True,,True,1,False,1000,True,1.0
./expes/v2_2020-12-03_dh_150-prng-1,30_issda_150,150,rng-150,51,rng,num-start-581,581,25726,5.526648283004761,True,,True,1,False,1000,True,1.0
./expes/v2_2020-12-03_dh_150-prng-1,30_issda_150,150,rng-150,1,rng,num-start-271,271,25726,2.1242282390594482,True,,True,1,False,1000,True,1.0
./expes/v2_2020-12-03_dh_150-prng-1,30_issda_150,150,rng-150,1,rng,num-start-101,101,25726,0.810269832611084,True,,True,1,False,1000,True,1.0
./expes/v2_2020-12-03_dh_150-prng-1,30_issda_150,150,rng-150,101,rng,num-start-641,641,25726,6.2552385330200195,True,,True,1,False,1000,True,1.0
./expes/v2_2020-12-03_dh_150-prng-1,30_issda_150,150,rng-150,31,rng,num-start-121,121,25726,1.544468879699707,True,,True,1,False,1000,True,1.0
./expes/v2_2020-12-03_dh_150-prng-1,30_issda_150,150,rng-150,81,rng,num-start-321,321,25726,3.56428861618042,True,,True,1,False,1000,True,1.0
./expes/v2_2020-12-03_dh_150-prng-1,30_issda_150,150,rng-150,51,rng,num-start-361,361,25726,3.5155324935913086,True,,True,1,False,1000,True,1.0
./expes/v2_2020-12-03_dh_150-prng-1,30_issda_150,150,rng-150,41,rng,num-start-741,741,25726,7.2960731983184814,True,,True,1,False,1000,True,1.0
./expes/v2_2020-12-03_dh_150-prng-1,30_issda_150,150,rng-150,71,rng,num-start-701,701,25726,6.374533176422119,True,,True,1,False,1000,True,1.0
./expes/v2_2020-12-03_dh_150-prng-1,30_issda_150,150,rng-150,71,rng,num-start-441,441,25726,4.230310678482056,True,,True,1,False,1000,True,1.0
./expes/v2_2020-12-03_dh_150-prng-1,30_issda_150,150,rng-150,121,rng,num-start-281,281,25726,2.623950481414795,True,,True,1,False,1000,True,1.0
./expes/v2_2020-12-03_dh_150-prng-1,30_issda_150,150,rng-150,81,rng,num-start-561,561,25726,5.751337289810181,True,,True,1,False,1000,True,1.0
./expes/v2_2020-12-03_dh_150-prng-1,30_issda_150,150,rng-150,11,rng,num-start-521,521,25726,4.03674054145813,True,,True,1,False,1000,True,1.0
./expes/v2_2020-12-03_dh_150-prng-1,30_issda_150,150,rng-150,21,rng,num-start-61,61,25726,0.8383994102478027,True,,True,1,False,1000,True,1.0
./expes/v2_2020-12-03_dh_150-prng-1,30_issda_150,150,rng-150,91,rng,num-start-601,601,25726,5.830513954162598,True,,True,1,False,1000,True,1.0
./expes/v2_2020-12-03_dh_150-prng-1,30_issda_150,150,rng-150,1,rng,num-start-921,921,25726,7.533587694168091,True,,True,1,False,1000,True,1.0
./expes/v2_2020-12-03_dh_150-prng-1,30_issda_150,150,rng-150,91,rng,num-start-341,341,25726,4.896211385726929,True,,True,1,False,1000,True,1.0
./expes/v2_2020-12-03_dh_150-prng-1,30_issda_150,150,rng-150,61,rng,num-start-881,881,25726,10.55728530883789,True,,True,1,False,1000,True,1.0
./expes/v2_2020-12-03_dh_150-prng-1,30_issda_150,150,rng-150,61,rng,num-start-171,171,25726,1.7950642108917236,True,,True,1,False,1000,True,1.0
./expes/v2_2020-12-03_dh_150-prng-1,30_issda_150,150,rng-150,31,rng,num-start-31,31,25726,4.1543989181518555,True,,True,1,False,1000,True,1.0
./expes/v2_2020-12-03_dh_150-prng-1,30_issda_150,150,rng-150,111,rng,num-start-91,91,25726,0.9779515266418457,True,,True,1,False,1000,True,1.0
./expes/v2_2020-12-03_dh_150-prng-1,30_issda_150,150,rng-150,51,rng,num-start-591,591,25726,5.768798589706421,True,,True,1,False,1000,True,1.0
./expes/v2_2020-12-03_dh_150-prng-1,30_issda_150,150,rng-150,101,rng,num-start-491,491,25726,4.886487007141113,True,,True,1,False,1000,True,1.0
./expes/v2_2020-12-03_dh_150-prng-1,30_issda_150,150,rng-150,1,rng,num-start-451,451,25726,3.5771567821502686,True,,True,1,False,1000,True,1.0
./expes/v2_2020-12-03_dh_150-prng-1,30_issda_150,150,rng-150,141,rng,num-start-781,781,25726,6.214197397232056,True,,True,1,False,1000,True,1.0
./expes/v2_2020-12-03_dh_150-prng-1,30_issda_150,150,rng-150,51,rng,num-start-971,971,25726,9.491658687591553,True,,True,1,False,1000,True,1.0
./expes/v2_2020-12-03_dh_150-prng-1,30_issda_150,150,rng-150,91,rng,num-start-731,731,25726,8.287784814834595,True,,True,1,False,1000,True,1.0
./expes/v2_2020-12-03_dh_150-prng-1,30_issda_150,150,rng-150,51,rng,num-start-891,891,25726,9.485073566436768,True,,True,1,False,1000,True,1.0
./expes/v2_2020-12-03_dh_150-prng-1,30_issda_150,150,rng-150,71,rng,num-start-411,411,25726,4.027392864227295,True,,True,1,False,1000,True,1.0
./expes/v2_2020-12-03_dh_150-prng-1,30_issda_150,150,rng-150,71,rng,num-start-61,61,25726,1.5542759895324707,True,,True,1,False,1000,True,1.0
./expes/v2_2020-12-03_dh_150-prng-1,30_issda_150,150,rng-150,141,rng,num-start-271,271,25726,2.1840224266052246,True,,True,1,False,1000,True,1.0
./expes/v2_2020-12-03_dh_150-prng-1,30_issda_150,150,rng-150,131,rng,num-start-771,771,25726,7.840794801712036,True,,True,1,False,1000,True,1.0
./expes/v2_2020-12-03_dh_150-prng-1,30_issda_150,150,rng-150,31,rng,num-start-161,161,25726,1.7169804573059082,True,,True,1,False,1000,True,1.0
./expes/v2_2020-12-03_dh_150-prng-1,30_issda_150,150,rng-150,81,rng,num-start-201,201,25726,2.1252658367156982,True,,True,1,False,1000,True,1.0
./expes/v2_2020-12-03_dh_150-prng-1,30_issda_150,150,rng-150,41,rng,num-start-941,941,25726,10.487387895584106,True,,True,1,False,1000,True,1.0
./expes/v2_2020-12-03_dh_150-prng-1,30_issda_150,150,rng-150,91,rng,num-start-951,951,25726,8.876631021499634,True,,True,1,False,1000,True,1.0
./expes/v2_2020-12-03_dh_150-prng-1,30_issda_150,150,rng-150,71,rng,num-start-31,31,25726,1019.0317094326019,False,,False,0,True,1000,True,0.0
./expes/v2_2020-12-03_dh_150-prng-1,30_issda_150,150,rng-150,111,rng,num-start-241,241,25726,2.6872711181640625,True,,True,1,False,1000,True,1.0
./expes/v2_2020-12-03_dh_150-prng-1,30_issda_150,150,rng-150,51,rng,num-start-791,791,25726,8.5864577293396,True,,True,1,False,1000,True,1.0
./expes/v2_2020-12-03_dh_150-prng-1,30_issda_150,150,rng-150,121,rng,num-start-421,421,25726,4.5815534591674805,True,,True,1,False,1000,True,1.0
./expes/v2_2020-12-03_dh_150-prng-1,30_issda_150,150,rng-150,41,rng,num-start-211,211,25726,2.1429355144500732,True,,True,1,False,1000,True,1.0
./expes/v2_2020-12-03_dh_150-prng-1,30_issda_150,150,rng-150,11,rng,num-start-561,561,25726,4.708869934082031,True,,True,1,False,1000,True,1.0
./expes/v2_2020-12-03_dh_150-prng-1,30_issda_150,150,rng-150,121,rng,num-start-701,701,25726,7.453017711639404,True,,True,1,False,1000,True,1.0
./expes/v2_2020-12-03_dh_150-prng-1,30_issda_150,150,rng-150,51,rng,num-start-61,61,25726,1.0825636386871338,True,,True,1,False,1000,True,1.0
./expes/v2_2020-12-03_dh_150-prng-1,30_issda_150,150,rng-150,81,rng,num-start-981,981,25726,9.505831718444824,True,,True,1,False,1000,True,1.0
./expes/v2_2020-12-03_dh_150-prng-1,30_issda_150,150,rng-150,81,rng,num-start-61,61,25726,1.6299595832824707,True,,True,1,False,1000,True,1.0
./expes/v2_2020-12-03_dh_150-prng-1,30_issda_150,150,rng-150,31,rng,num-start-111,111,25726,1.4115328788757324,True,,True,1,False,1000,True,1.0
./expes/v2_2020-12-03_dh_150-prng-1,30_issda_150,150,rng-150,61,rng,num-start-971,971,25726,12.106853008270264,True,,True,1,False,1000,True,1.0
./expes/v2_2020-12-03_dh_150-prng-1,30_issda_150,150,rng-150,51,rng,num-start-501,501,25726,5.681402206420898,True,,True,1,False,1000,True,1.0
./expes/v2_2020-12-03_dh_150-prng-1,30_issda_150,150,rng-150,91,rng,num-start-431,431,25726,4.004498720169067,True,,True,1,False,1000,True,1.0
./expes/v2_2020-12-03_dh_150-prng-1,30_issda_150,150,rng-150,41,rng,num-start-431,431,25726,4.53827428817749,True,,True,1,False,1000,True,1.0
./expes/v2_2020-12-03_dh_150-prng-1,30_issda_150,150,rng-150,51,rng,num-start-481,481,25726,5.422656536102295,True,,True,1,False,1000,True,1.0
./expes/v2_2020-12-03_dh_150-prng-1,30_issda_150,150,rng-150,1,rng,num-start-211,211,25726,1.7133493423461914,True,,True,1,False,1000,True,1.0
./expes/v2_2020-12-03_dh_150-prng-1,30_issda_150,150,rng-150,11,rng,num-start-541,541,25726,6.566888332366943,True,,True,1,False,1000,True,1.0
./expes/v2_2020-12-03_dh_150-prng-1,30_issda_150,150,rng-150,21,rng,num-start-631,631,25726,6.574649333953857,True,,True,1,False,1000,True,1.0
./expes/v2_2020-12-03_dh_150-prng-1,30_issda_150,150,rng-150,71,rng,num-start-721,721,25726,7.6267194747924805,True,,True,1,False,1000,True,1.0
./expes/v2_2020-12-03_dh_150-prng-1,30_issda_150,150,rng-150,91,rng,num-start-291,291,25726,3.169032573699951,True,,True,1,False,1000,True,1.0
./expes/v2_2020-12-03_dh_150-prng-1,30_issda_150,150,rng-150,41,rng,num-start-921,921,25726,8.520310878753662,True,,True,1,False,1000,True,1.0
./expes/v2_2020-12-03_dh_150-prng-1,30_issda_150,150,rng-150,21,rng,num-start-681,681,25726,6.760162115097046,True,,True,1,False,1000,True,1.0
./expes/v2_2020-12-03_dh_150-prng-1,30_issda_150,150,rng-150,61,rng,num-start-751,751,25726,6.559434413909912,True,,True,1,False,1000,True,1.0
./expes/v2_2020-12-03_dh_150-prng-1,30_issda_150,150,rng-150,41,rng,num-start-381,381,25726,3.645355701446533,True,,True,1,False,1000,True,1.0
./expes/v2_2020-12-03_dh_150-prng-1,30_issda_150,150,rng-150,11,rng,num-start-441,441,25726,4.6541712284088135,True,,True,1,False,1000,True,1.0
./expes/v2_2020-12-03_dh_150-prng-1,30_issda_150,150,rng-150,41,rng,num-start-151,151,25726,1.7557651996612549,True,,True,1,False,1000,True,1.0
./expes/v2_2020-12-03_dh_150-prng-1,30_issda_150,150,rng-150,1,rng,num-start-171,171,25726,1.4061365127563477,True,,True,1,False,1000,True,1.0
./expes/v2_2020-12-03_dh_150-prng-1,30_issda_150,150,rng-150,91,rng,num-start-931,931,25726,9.782028913497925,True,,True,1,False,1000,True,1.0
./expes/v2_2020-12-03_dh_150-prng-1,30_issda_150,150,rng-150,11,rng,num-start-441,441,25726,4.025571584701538,True,,True,1,False,1000,True,1.0
./expes/v2_2020-12-03_dh_150-prng-1,30_issda_150,150,rng-150,121,rng,num-start-431,431,25726,4.310214042663574,True,,True,1,False,1000,True,1.0
./expes/v2_2020-12-03_dh_150-prng-1,30_issda_150,150,rng-150,1,rng,num-start-661,661,25726,5.206051826477051,True,,True,1,False,1000,True,1.0
./expes/v2_2020-12-03_dh_150-prng-1,30_issda_150,150,rng-150,11,rng,num-start-611,611,25726,4.945029258728027,True,,True,1,False,1000,True,1.0
./expes/v2_2020-12-03_dh_150-prng-1,30_issda_150,150,rng-150,121,rng,num-start-701,701,25726,7.5299928188323975,True,,True,1,False,1000,True,1.0
./expes/v2_2020-12-03_dh_150-prng-1,30_issda_150,150,rng-150,111,rng,num-start-131,131,25726,1.4708895683288574,True,,True,1,False,1000,True,1.0
./expes/v2_2020-12-03_dh_150-prng-1,30_issda_150,150,rng-150,101,rng,num-start-191,191,25726,1.9602034091949463,True,,True,1,False,1000,True,1.0
./expes/v2_2020-12-03_dh_150-prng-1,30_issda_150,150,rng-150,1,rng,num-start-51,51,25726,0.40805792808532715,True,,True,1,False,1000,True,1.0
./expes/v2_2020-12-03_dh_150-prng-1,30_issda_150,150,rng-150,11,rng,num-start-61,61,25726,0.9290721416473389,True,,True,1,False,1000,True,1.0
./expes/v2_2020-12-03_dh_150-prng-1,30_issda_150,150,rng-150,91,rng,num-start-81,81,25726,1.2197296619415283,True,,True,1,False,1000,True,1.0
./expes/v2_2020-12-03_dh_150-prng-1,30_issda_150,150,rng-150,141,rng,num-start-231,231,25726,1.9594192504882812,True,,True,1,False,1000,True,1.0
./expes/v2_2020-12-03_dh_150-prng-1,30_issda_150,150,rng-150,71,rng,num-start-661,661,25726,6.488328456878662,True,,True,1,False,1000,True,1.0
./expes/v2_2020-12-03_dh_150-prng-1,30_issda_150,150,rng-150,71,rng,num-start-731,731,25726,8.115124464035034,True,,True,1,False,1000,True,1.0
./expes/v2_2020-12-03_dh_150-prng-1,30_issda_150,150,rng-150,1,rng,num-start-271,271,25726,2.1947741508483887,True,,True,1,False,1000,True,1.0
./expes/v2_2020-12-03_dh_150-prng-1,30_issda_150,150,rng-150,71,rng,num-start-451,451,25726,4.546376943588257,True,,True,1,False,1000,True,1.0
./expes/v2_2020-12-03_dh_150-prng-1,30_issda_150,150,rng-150,31,rng,num-start-841,841,25726,8.807233572006226,True,,True,1,False,1000,True,1.0
./expes/v2_2020-12-03_dh_150-prng-1,30_issda_150,150,rng-150,1,rng,num-start-241,241,25726,1.9293580055236816,True,,True,1,False,1000,True,1.0
./expes/v2_2020-12-03_dh_150-prng-1,30_issda_150,150,rng-150,91,rng,num-start-21,21,25726,1002.8851428031921,False,,False,0,True,1000,True,0.0
./expes/v2_2020-12-03_dh_150-prng-1,30_issda_150,150,rng-150,131,rng,num-start-621,621,25726,5.572803974151611,True,,True,1,False,1000,True,1.0
./expes/v2_2020-12-03_dh_150-prng-1,30_issda_150,150,rng-150,131,rng,num-start-611,611,25726,5.656560897827148,True,,True,1,False,1000,True,1.0
./expes/v2_2020-12-03_dh_150-prng-1,30_issda_150,150,rng-150,91,rng,num-start-271,271,25726,2.9157803058624268,True,,True,1,False,1000,True,1.0
./expes/v2_2020-12-03_dh_150-prng-1,30_issda_150,150,rng-150,111,rng,num-start-671,671,25726,6.433898687362671,True,,True,1,False,1000,True,1.0
./expes/v2_2020-12-03_dh_150-prng-1,30_issda_150,150,rng-150,141,rng,num-start-991,991,25726,9.03758430480957,True,,True,1,False,1000,True,1.0
./expes/v2_2020-12-03_dh_150-prng-1,30_issda_150,150,rng-150,71,rng,num-start-941,941,25726,9.220803022384644,True,,True,1,False,1000,True,1.0
./expes/v2_2020-12-03_dh_150-prng-1,30_issda_150,150,rng-150,111,rng,num-start-631,631,25726,6.292307376861572,True,,True,1,False,1000,True,1.0
./expes/v2_2020-12-03_dh_150-prng-1,30_issda_150,150,rng-150,121,rng,num-start-771,771,25726,7.311891078948975,True,,True,1,False,1000,True,1.0
./expes/v2_2020-12-03_dh_150-prng-1,30_issda_150,150,rng-150,141,rng,num-start-501,501,25726,3.9881842136383057,True,,True,1,False,1000,True,1.0
./expes/v2_2020-12-03_dh_150-prng-1,30_issda_150,150,rng-150,31,rng,num-start-391,391,25726,4.176977634429932,True,,True,1,False,1000,True,1.0
./expes/v2_2020-12-03_dh_150-prng-1,30_issda_150,150,rng-150,41,rng,num-start-341,341,25726,4.010172605514526,True,,True,1,False,1000,True,1.0
./expes/v2_2020-12-03_dh_150-prng-1,30_issda_150,150,rng-150,61,rng,num-start-911,911,25726,10.989519357681274,True,,True,1,False,1000,True,1.0
./expes/v2_2020-12-03_dh_150-prng-1,30_issda_150,150,rng-150,101,rng,num-start-321,321,25726,3.3947336673736572,True,,True,1,False,1000,True,1.0
./expes/v2_2020-12-03_dh_150-prng-1,30_issda_150,150,rng-150,141,rng,num-start-111,111,25726,1.1013407707214355,True,,True,1,False,1000,True,1.0
./expes/v2_2020-12-03_dh_150-prng-1,30_issda_150,150,rng-150,31,rng,num-start-961,961,25726,9.224405288696289,True,,True,1,False,1000,True,1.0
./expes/v2_2020-12-03_dh_150-prng-1,30_issda_150,150,rng-150,1,rng,num-start-621,621,25726,5.067559003829956,True,,True,1,False,1000,True,1.0
./expes/v2_2020-12-03_dh_150-prng-1,30_issda_150,150,rng-150,131,rng,num-start-51,51,25726,0.6256182193756104,True,,True,1,False,1000,True,1.0
./expes/v2_2020-12-03_dh_150-prng-1,30_issda_150,150,rng-150,21,rng,num-start-201,201,25726,2.002706289291382,True,,True,1,False,1000,True,1.0
./expes/v2_2020-12-03_dh_150-prng-1,30_issda_150,150,rng-150,11,rng,num-start-711,711,25726,6.14225697517395,True,,True,1,False,1000,True,1.0
./expes/v2_2020-12-03_dh_150-prng-1,30_issda_150,150,rng-150,101,rng,num-start-571,571,25726,5.839751482009888,True,,True,1,False,1000,True,1.0
./expes/v2_2020-12-03_dh_150-prng-1,30_issda_150,150,rng-150,141,rng,num-start-811,811,25726,6.486647129058838,True,,True,1,False,1000,True,1.0
./expes/v2_2020-12-03_dh_150-prng-1,30_issda_150,150,rng-150,1,rng,num-start-901,901,25726,7.192935466766357,True,,True,1,False,1000,True,1.0
./expes/v2_2020-12-03_dh_150-prng-1,30_issda_150,150,rng-150,41,rng,num-start-881,881,25726,8.818122148513794,True,,True,1,False,1000,True,1.0
./expes/v2_2020-12-03_dh_150-prng-1,30_issda_150,150,rng-150,21,rng,num-start-631,631,25726,5.869654178619385,True,,True,1,False,1000,True,1.0
./expes/v2_2020-12-03_dh_150-prng-1,30_issda_150,150,rng-150,1,rng,num-start-531,531,25726,4.254024505615234,True,,True,1,False,1000,True,1.0
./expes/v2_2020-12-03_dh_150-prng-1,30_issda_150,150,rng-150,51,rng,num-start-811,811,25726,8.36519718170166,True,,True,1,False,1000,True,1.0
./expes/v2_2020-12-03_dh_150-prng-1,30_issda_150,150,rng-150,1,rng,num-start-611,611,25726,4.985367774963379,True,,True,1,False,1000,True,1.0
./expes/v2_2020-12-03_dh_150-prng-1,30_issda_150,150,rng-150,81,rng,num-start-221,221,25726,2.5146946907043457,True,,True,1,False,1000,True,1.0
./expes/v2_2020-12-03_dh_150-prng-1,30_issda_150,150,rng-150,91,rng,num-start-121,121,25726,1.38716459274292,True,,True,1,False,1000,True,1.0
./expes/v2_2020-12-03_dh_150-prng-1,30_issda_150,150,rng-150,31,rng,num-start-351,351,25726,3.258777141571045,True,,True,1,False,1000,True,1.0
./expes/v2_2020-12-03_dh_150-prng-1,30_issda_150,150,rng-150,61,rng,num-start-671,671,25726,6.530194282531738,True,,True,1,False,1000,True,1.0
./expes/v2_2020-12-03_dh_150-prng-1,30_issda_150,150,rng-150,81,rng,num-start-501,501,25726,5.43108606338501,True,,True,1,False,1000,True,1.0
./expes/v2_2020-12-03_dh_150-prng-1,30_issda_150,150,rng-150,41,rng,num-start-821,821,25726,7.964744329452515,True,,True,1,False,1000,True,1.0
./expes/v2_2020-12-03_dh_150-prng-1,30_issda_150,150,rng-150,141,rng,num-start-851,851,25726,7.006718158721924,True,,True,1,False,1000,True,1.0
./expes/v2_2020-12-03_dh_150-prng-1,30_issda_150,150,rng-150,91,rng,num-start-71,71,25726,1.03389310836792,True,,True,1,False,1000,True,1.0
./expes/v2_2020-12-03_dh_150-prng-1,30_issda_150,150,rng-150,101,rng,num-start-311,311,25726,3.2755632400512695,True,,True,1,False,1000,True,1.0
./expes/v2_2020-12-03_dh_150-prng-1,30_issda_150,150,rng-150,21,rng,num-start-861,861,25726,8.391906023025513,True,,True,1,False,1000,True,1.0
./expes/v2_2020-12-03_dh_150-prng-1,30_issda_150,150,rng-150,61,rng,num-start-791,791,25726,7.861205101013184,True,,True,1,False,1000,True,1.0
./expes/v2_2020-12-03_dh_150-prng-1,30_issda_150,150,rng-150,141,rng,num-start-1,1,25726,0.041951894760131836,False,,False,2,False,1000,True,1.0
./expes/v2_2020-12-03_dh_150-prng-1,30_issda_150,150,rng-150,101,rng,num-start-351,351,25726,3.805939197540283,True,,True,1,False,1000,True,1.0
./expes/v2_2020-12-03_dh_150-prng-1,30_issda_150,150,rng-150,141,rng,num-start-221,221,25726,2.185091495513916,True,,True,1,False,1000,True,1.0
./expes/v2_2020-12-03_dh_150-prng-1,30_issda_150,150,rng-150,91,rng,num-start-611,611,25726,6.471022605895996,True,,True,1,False,1000,True,1.0
./expes/v2_2020-12-03_dh_150-prng-1,30_issda_150,150,rng-150,11,rng,num-start-361,361,25726,3.367633104324341,True,,True,1,False,1000,True,1.0
./expes/v2_2020-12-03_dh_150-prng-1,30_issda_150,150,rng-150,21,rng,num-start-921,921,25726,9.065072774887085,True,,True,1,False,1000,True,1.0
./expes/v2_2020-12-03_dh_150-prng-1,30_issda_150,150,rng-150,51,rng,num-start-771,771,25726,8.146893739700317,True,,True,1,False,1000,True,1.0
./expes/v2_2020-12-03_dh_150-prng-1,30_issda_150,150,rng-150,11,rng,num-start-551,551,25726,5.265148878097534,True,,True,1,False,1000,True,1.0
./expes/v2_2020-12-03_dh_150-prng-1,30_issda_150,150,rng-150,1,rng,num-start-651,651,25726,5.501728057861328,True,,True,1,False,1000,True,1.0
./expes/v2_2020-12-03_dh_150-prng-1,30_issda_150,150,rng-150,91,rng,num-start-261,261,25726,2.7052865028381348,True,,True,1,False,1000,True,1.0
./expes/v2_2020-12-03_dh_150-prng-1,30_issda_150,150,rng-150,11,rng,num-start-661,661,25726,5.437072515487671,True,,True,1,False,1000,True,1.0
./expes/v2_2020-12-03_dh_150-prng-1,30_issda_150,150,rng-150,141,rng,num-start-141,141,25726,1.1997277736663818,True,,True,1,False,1000,True,1.0
./expes/v2_2020-12-03_dh_150-prng-1,30_issda_150,150,rng-150,21,rng,num-start-391,391,25726,4.0269598960876465,True,,True,1,False,1000,True,1.0
./expes/v2_2020-12-03_dh_150-prng-1,30_issda_150,150,rng-150,61,rng,num-start-11,11,25726,1000.1832740306854,False,,False,0,True,1000,True,0.0
./expes/v2_2020-12-03_dh_150-prng-1,30_issda_150,150,rng-150,131,rng,num-start-511,511,25726,4.857377529144287,True,,True,1,False,1000,True,1.0
./expes/v2_2020-12-03_dh_150-prng-1,30_issda_150,150,rng-150,41,rng,num-start-521,521,25726,4.896774053573608,True,,True,1,False,1000,True,1.0
./expes/v2_2020-12-03_dh_150-prng-1,30_issda_150,150,rng-150,91,rng,num-start-961,961,25726,9.732353448867798,True,,True,1,False,1000,True,1.0
./expes/v2_2020-12-03_dh_150-prng-1,30_issda_150,150,rng-150,1,rng,num-start-661,661,25726,5.2467920780181885,True,,True,1,False,1000,True,1.0
./expes/v2_2020-12-03_dh_150-prng-1,30_issda_150,150,rng-150,101,rng,num-start-871,871,25726,9.527703046798706,True,,True,1,False,1000,True,1.0
./expes/v2_2020-12-03_dh_150-prng-1,30_issda_150,150,rng-150,81,rng,num-start-871,871,25726,9.180107831954956,True,,True,1,False,1000,True,1.0
./expes/v2_2020-12-03_dh_150-prng-1,30_issda_150,150,rng-150,11,rng,num-start-271,271,25726,2.7000904083251953,True,,True,1,False,1000,True,1.0
./expes/v2_2020-12-03_dh_150-prng-1,30_issda_150,150,rng-150,61,rng,num-start-701,701,25726,6.82348370552063,True,,True,1,False,1000,True,1.0
./expes/v2_2020-12-03_dh_150-prng-1,30_issda_150,150,rng-150,61,rng,num-start-851,851,25726,8.759607791900635,True,,True,1,False,1000,True,1.0
./expes/v2_2020-12-03_dh_150-prng-1,30_issda_150,150,rng-150,81,rng,num-start-341,341,25726,4.07013201713562,True,,True,1,False,1000,True,1.0
./expes/v2_2020-12-03_dh_150-prng-1,30_issda_150,150,rng-150,61,rng,num-start-181,181,25726,1.7311065196990967,True,,True,1,False,1000,True,1.0
./expes/v2_2020-12-03_dh_150-prng-1,30_issda_150,150,rng-150,91,rng,num-start-391,391,25726,3.6446003913879395,True,,True,1,False,1000,True,1.0
./expes/v2_2020-12-03_dh_150-prng-1,30_issda_150,150,rng-150,91,rng,num-start-201,201,25726,2.0430855751037598,True,,True,1,False,1000,True,1.0
./expes/v2_2020-12-03_dh_150-prng-1,30_issda_150,150,rng-150,21,rng,num-start-161,161,25726,1.6602754592895508,True,,True,1,False,1000,True,1.0
./expes/v2_2020-12-03_dh_150-prng-1,30_issda_150,150,rng-150,141,rng,num-start-471,471,25726,4.2479612827301025,True,,True,1,False,1000,True,1.0
./expes/v2_2020-12-03_dh_150-prng-1,30_issda_150,150,rng-150,81,rng,num-start-941,941,25726,8.902299880981445,True,,True,1,False,1000,True,1.0
./expes/v2_2020-12-03_dh_150-prng-1,30_issda_150,150,rng-150,71,rng,num-start-851,851,25726,8.76282286643982,True,,True,1,False,1000,True,1.0
./expes/v2_2020-12-03_dh_150-prng-1,30_issda_150,150,rng-150,121,rng,num-start-691,691,25726,7.00685977935791,True,,True,1,False,1000,True,1.0
./expes/v2_2020-12-03_dh_150-prng-1,30_issda_150,150,rng-150,141,rng,num-start-951,951,25726,7.490994691848755,True,,True,1,False,1000,True,1.0
./expes/v2_2020-12-03_dh_150-prng-1,30_issda_150,150,rng-150,51,rng,num-start-181,181,25726,2.00968861579895,True,,True,1,False,1000,True,1.0
./expes/v2_2020-12-03_dh_150-prng-1,30_issda_150,150,rng-150,41,rng,num-start-281,281,25726,2.8270275592803955,True,,True,1,False,1000,True,1.0
./expes/v2_2020-12-03_dh_150-prng-1,30_issda_150,150,rng-150,41,rng,num-start-291,291,25726,3.015045642852783,True,,True,1,False,1000,True,1.0
./expes/v2_2020-12-03_dh_150-prng-1,30_issda_150,150,rng-150,131,rng,num-start-541,541,25726,5.590222358703613,True,,True,1,False,1000,True,1.0
./expes/v2_2020-12-03_dh_150-prng-1,30_issda_150,150,rng-150,1,rng,num-start-831,831,25726,6.796858787536621,True,,True,1,False,1000,True,1.0
./expes/v2_2020-12-03_dh_150-prng-1,30_issda_150,150,rng-150,41,rng,num-start-881,881,25726,10.110742092132568,True,,True,1,False,1000,True,1.0
./expes/v2_2020-12-03_dh_150-prng-1,30_issda_150,150,rng-150,61,rng,num-start-981,981,25726,9.586391687393188,True,,True,1,False,1000,True,1.0
./expes/v2_2020-12-03_dh_150-prng-1,30_issda_150,150,rng-150,81,rng,num-start-741,741,25726,6.900949001312256,True,,True,1,False,1000,True,1.0
./expes/v2_2020-12-03_dh_150-prng-1,30_issda_150,150,rng-150,61,rng,num-start-251,251,25726,2.9139974117279053,True,,True,1,False,1000,True,1.0
./expes/v2_2020-12-03_dh_150-prng-1,30_issda_150,150,rng-150,81,rng,num-start-31,31,25726,1007.3834693431854,False,,False,0,True,1000,True,0.0
./expes/v2_2020-12-03_dh_150-prng-1,30_issda_150,150,rng-150,141,rng,num-start-891,891,25726,7.513752698898315,True,,True,1,False,1000,True,1.0
./expes/v2_2020-12-03_dh_150-prng-1,30_issda_150,150,rng-150,31,rng,num-start-261,261,25726,2.775747537612915,True,,True,1,False,1000,True,1.0
./expes/v2_2020-12-03_dh_150-prng-1,30_issda_150,150,rng-150,101,rng,num-start-581,581,25726,6.634798526763916,True,,True,1,False,1000,True,1.0
./expes/v2_2020-12-03_dh_150-prng-1,30_issda_150,150,rng-150,11,rng,num-start-101,101,25726,1.2795965671539307,True,,True,1,False,1000,True,1.0
./expes/v2_2020-12-03_dh_150-prng-1,30_issda_150,150,rng-150,51,rng,num-start-861,861,25726,8.39118504524231,True,,True,1,False,1000,True,1.0
./expes/v2_2020-12-03_dh_150-prng-1,30_issda_150,150,rng-150,101,rng,num-start-911,911,25726,10.012861013412476,True,,True,1,False,1000,True,1.0
./expes/v2_2020-12-03_dh_150-prng-1,30_issda_150,150,rng-150,61,rng,num-start-281,281,25726,2.9684813022613525,True,,True,1,False,1000,True,1.0
./expes/v2_2020-12-03_dh_150-prng-1,30_issda_150,150,rng-150,71,rng,num-start-721,721,25726,7.18178129196167,True,,True,1,False,1000,True,1.0
./expes/v2_2020-12-03_dh_150-prng-1,30_issda_150,150,rng-150,1,rng,num-start-741,741,25726,6.46048641204834,True,,True,1,False,1000,True,1.0
./expes/v2_2020-12-03_dh_150-prng-1,30_issda_150,150,rng-150,61,rng,num-start-731,731,25726,7.24308967590332,True,,True,1,False,1000,True,1.0
./expes/v2_2020-12-03_dh_150-prng-1,30_issda_150,150,rng-150,81,rng,num-start-471,471,25726,6.802203893661499,True,,True,1,False,1000,True,1.0
./expes/v2_2020-12-03_dh_150-prng-1,30_issda_150,150,rng-150,131,rng,num-start-541,541,25726,7.867906332015991,True,,True,1,False,1000,True,1.0
./expes/v2_2020-12-03_dh_150-prng-1,30_issda_150,150,rng-150,51,rng,num-start-491,491,25726,6.859638929367065,True,,True,1,False,1000,True,1.0
./expes/v2_2020-12-03_dh_150-prng-1,30_issda_150,150,rng-150,61,rng,num-start-331,331,25726,4.004314661026001,True,,True,1,False,1000,True,1.0
./expes/v2_2020-12-03_dh_150-prng-1,30_issda_150,150,rng-150,51,rng,num-start-521,521,25726,7.682767629623413,True,,True,1,False,1000,True,1.0
./expes/v2_2020-12-03_dh_150-prng-1,30_issda_150,150,rng-150,111,rng,num-start-741,741,25726,9.664169073104858,True,,True,1,False,1000,True,1.0
./expes/v2_2020-12-03_dh_150-prng-1,30_issda_150,150,rng-150,71,rng,num-start-991,991,25726,13.545031070709229,True,,True,1,False,1000,True,1.0
./expes/v2_2020-12-03_dh_150-prng-1,30_issda_150,150,rng-150,141,rng,num-start-901,901,25726,8.858444213867188,True,,True,1,False,1000,True,1.0
./expes/v2_2020-12-03_dh_150-prng-1,30_issda_150,150,rng-150,121,rng,num-start-371,371,25726,4.699324607849121,True,,True,1,False,1000,True,1.0
./expes/v2_2020-12-03_dh_150-prng-1,30_issda_150,150,rng-150,1,rng,num-start-881,881,25726,7.114503860473633,True,,True,1,False,1000,True,1.0
./expes/v2_2020-12-03_dh_150-prng-1,30_issda_150,150,rng-150,101,rng,num-start-411,411,25726,4.036077260971069,True,,True,1,False,1000,True,1.0
./expes/v2_2020-12-03_dh_150-prng-1,30_issda_150,150,rng-150,1,rng,num-start-321,321,25726,2.7195651531219482,True,,True,1,False,1000,True,1.0
./expes/v2_2020-12-03_dh_150-prng-1,30_issda_150,150,rng-150,71,rng,num-start-651,651,25726,6.922411203384399,True,,True,1,False,1000,True,1.0
./expes/v2_2020-12-03_dh_150-prng-1,30_issda_150,150,rng-150,1,rng,num-start-491,491,25726,3.8213422298431396,True,,True,1,False,1000,True,1.0
./expes/v2_2020-12-03_dh_150-prng-1,30_issda_150,150,rng-150,41,rng,num-start-381,381,25726,3.39392352104187,True,,True,1,False,1000,True,1.0
./expes/v2_2020-12-03_dh_150-prng-1,30_issda_150,150,rng-150,21,rng,num-start-751,751,25726,7.908204555511475,True,,True,1,False,1000,True,1.0
./expes/v2_2020-12-03_dh_150-prng-1,30_issda_150,150,rng-150,81,rng,num-start-411,411,25726,4.110286235809326,True,,True,1,False,1000,True,1.0
./expes/v2_2020-12-03_dh_150-prng-1,30_issda_150,150,rng-150,71,rng,num-start-651,651,25726,6.664931297302246,True,,True,1,False,1000,True,1.0
./expes/v2_2020-12-03_dh_150-prng-1,30_issda_150,150,rng-150,121,rng,num-start-601,601,25726,5.9744322299957275,True,,True,1,False,1000,True,1.0
./expes/v2_2020-12-03_dh_150-prng-1,30_issda_150,150,rng-150,41,rng,num-start-761,761,25726,8.339921712875366,True,,True,1,False,1000,True,1.0
./expes/v2_2020-12-03_dh_150-prng-1,30_issda_150,150,rng-150,131,rng,num-start-991,991,25726,9.74838900566101,True,,True,1,False,1000,True,1.0
./expes/v2_2020-12-03_dh_150-prng-1,30_issda_150,150,rng-150,141,rng,num-start-191,191,25726,1.8683366775512695,True,,True,1,False,1000,True,1.0
./expes/v2_2020-12-03_dh_150-prng-1,30_issda_150,150,rng-150,31,rng,num-start-31,31,25726,1016.3136177062988,False,,False,1,True,1000,True,0.0
./expes/v2_2020-12-03_dh_150-prng-1,30_issda_150,150,rng-150,11,rng,num-start-751,751,25726,6.333829641342163,True,,True,1,False,1000,True,1.0
./expes/v2_2020-12-03_dh_150-prng-1,30_issda_150,150,rng-150,51,rng,num-start-561,561,25726,5.842831134796143,True,,True,1,False,1000,True,1.0
./expes/v2_2020-12-03_dh_150-prng-1,30_issda_150,150,rng-150,21,rng,num-start-671,671,25726,6.883885622024536,True,,True,1,False,1000,True,1.0
./expes/v2_2020-12-03_dh_150-prng-1,30_issda_150,150,rng-150,61,rng,num-start-921,921,25726,9.781167984008789,True,,True,1,False,1000,True,1.0
./expes/v2_2020-12-03_dh_150-prng-1,30_issda_150,150,rng-150,71,rng,num-start-291,291,25726,3.2327346801757812,True,,True,1,False,1000,True,1.0
./expes/v2_2020-12-03_dh_150-prng-1,30_issda_150,150,rng-150,41,rng,num-start-91,91,25726,1.0333075523376465,True,,True,1,False,1000,True,1.0
./expes/v2_2020-12-03_dh_150-prng-1,30_issda_150,150,rng-150,31,rng,num-start-541,541,25726,5.57682728767395,True,,True,1,False,1000,True,1.0
./expes/v2_2020-12-03_dh_150-prng-1,30_issda_150,150,rng-150,131,rng,num-start-451,451,25726,4.1753339767456055,True,,True,1,False,1000,True,1.0
./expes/v2_2020-12-03_dh_150-prng-1,30_issda_150,150,rng-150,141,rng,num-start-701,701,25726,5.950705289840698,True,,True,1,False,1000,True,1.0
./expes/v2_2020-12-03_dh_150-prng-1,30_issda_150,150,rng-150,131,rng,num-start-381,381,25726,3.7182977199554443,True,,True,1,False,1000,True,1.0
./expes/v2_2020-12-03_dh_150-prng-1,30_issda_150,150,rng-150,91,rng,num-start-121,121,25726,1.2707815170288086,True,,True,1,False,1000,True,1.0
./expes/v2_2020-12-03_dh_150-prng-1,30_issda_150,150,rng-150,11,rng,num-start-751,751,25726,6.3735363483428955,True,,True,1,False,1000,True,1.0
./expes/v2_2020-12-03_dh_150-prng-1,30_issda_150,150,rng-150,21,rng,num-start-791,791,25726,7.563408851623535,True,,True,1,False,1000,True,1.0
./expes/v2_2020-12-03_dh_150-prng-1,30_issda_150,150,rng-150,91,rng,num-start-11,11,25726,1000.3731498718262,False,,False,0,True,1000,True,0.0
./expes/v2_2020-12-03_dh_150-prng-1,30_issda_150,150,rng-150,121,rng,num-start-101,101,25726,1.1050374507904053,True,,True,1,False,1000,True,1.0
./expes/v2_2020-12-03_dh_150-prng-1,30_issda_150,150,rng-150,81,rng,num-start-21,21,25726,1002.002720117569,False,,False,0,True,1000,True,0.0
./expes/v2_2020-12-03_dh_150-prng-1,30_issda_150,150,rng-150,41,rng,num-start-611,611,25726,5.897280693054199,True,,True,1,False,1000,True,1.0
./expes/v2_2020-12-03_dh_150-prng-1,30_issda_150,150,rng-150,121,rng,num-start-361,361,25726,3.760319232940674,True,,True,1,False,1000,True,1.0
./expes/v2_2020-12-03_dh_150-prng-1,30_issda_150,150,rng-150,121,rng,num-start-821,821,25726,7.885691404342651,True,,True,1,False,1000,True,1.0
./expes/v2_2020-12-03_dh_150-prng-1,30_issda_150,150,rng-150,31,rng,num-start-661,661,25726,6.426511526107788,True,,True,1,False,1000,True,1.0
./expes/v2_2020-12-03_dh_150-prng-1,30_issda_150,150,rng-150,31,rng,num-start-891,891,25726,8.628780364990234,True,,True,1,False,1000,True,1.0
./expes/v2_2020-12-03_dh_150-prng-1,30_issda_150,150,rng-150,71,rng,num-start-971,971,25726,9.890005350112915,True,,True,1,False,1000,True,1.0
./expes/v2_2020-12-03_dh_150-prng-1,30_issda_150,150,rng-150,111,rng,num-start-841,841,25726,8.602009534835815,True,,True,1,False,1000,True,1.0
./expes/v2_2020-12-03_dh_150-prng-1,30_issda_150,150,rng-150,81,rng,num-start-981,981,25726,8.891729593276978,True,,True,1,False,1000,True,1.0
./expes/v2_2020-12-03_dh_150-prng-1,30_issda_150,150,rng-150,111,rng,num-start-531,531,25726,6.37779974937439,True,,True,1,False,1000,True,1.0
./expes/v2_2020-12-03_dh_150-prng-1,30_issda_150,150,rng-150,1,rng,num-start-511,511,25726,4.008893013000488,True,,True,1,False,1000,True,1.0
./expes/v2_2020-12-03_dh_150-prng-1,30_issda_150,150,rng-150,131,rng,num-start-251,251,25726,2.3295507431030273,True,,True,1,False,1000,True,1.0
./expes/v2_2020-12-03_dh_150-prng-1,30_issda_150,150,rng-150,41,rng,num-start-781,781,25726,8.182308435440063,True,,True,1,False,1000,True,1.0
./expes/v2_2020-12-03_dh_150-prng-1,30_issda_150,150,rng-150,11,rng,num-start-941,941,25726,9.335318088531494,True,,True,1,False,1000,True,1.0
./expes/v2_2020-12-03_dh_150-prng-1,30_issda_150,150,rng-150,131,rng,num-start-881,881,25726,7.985918283462524,True,,True,1,False,1000,True,1.0
./expes/v2_2020-12-03_dh_150-prng-1,30_issda_150,150,rng-150,1,rng,num-start-621,621,25726,4.863510608673096,True,,True,1,False,1000,True,1.0
./expes/v2_2020-12-03_dh_150-prng-1,30_issda_150,150,rng-150,131,rng,num-start-671,671,25726,6.283863544464111,True,,True,1,False,1000,True,1.0
./expes/v2_2020-12-03_dh_150-prng-1,30_issda_150,150,rng-150,31,rng,num-start-291,291,25726,2.8435168266296387,True,,True,1,False,1000,True,1.0
./expes/v2_2020-12-03_dh_150-prng-1,30_issda_150,150,rng-150,1,rng,num-start-401,401,25726,3.2188777923583984,True,,True,1,False,1000,True,1.0
./expes/v2_2020-12-03_dh_150-prng-1,30_issda_150,150,rng-150,41,rng,num-start-571,571,25726,5.490596055984497,True,,True,1,False,1000,True,1.0
./expes/v2_2020-12-03_dh_150-prng-1,30_issda_150,150,rng-150,131,rng,num-start-251,251,25726,2.504739999771118,True,,True,1,False,1000,True,1.0
./expes/v2_2020-12-03_dh_150-prng-1,30_issda_150,150,rng-150,141,rng,num-start-781,781,25726,6.251271963119507,True,,True,1,False,1000,True,1.0
./expes/v2_2020-12-03_dh_150-prng-1,30_issda_150,150,rng-150,121,rng,num-start-781,781,25726,7.2655675411224365,True,,True,1,False,1000,True,1.0
./expes/v2_2020-12-03_dh_150-prng-1,30_issda_150,150,rng-150,81,rng,num-start-461,461,25726,4.894575357437134,True,,True,1,False,1000,True,1.0
./expes/v2_2020-12-03_dh_150-prng-1,30_issda_150,150,rng-150,61,rng,num-start-401,401,25726,4.362915754318237,True,,True,1,False,1000,True,1.0
./expes/v2_2020-12-03_dh_150-prng-1,30_issda_150,150,rng-150,111,rng,num-start-181,181,25726,2.111325740814209,True,,True,1,False,1000,True,1.0
./expes/v2_2020-12-03_dh_150-prng-1,30_issda_150,150,rng-150,1,rng,num-start-661,661,25726,5.392571449279785,True,,True,1,False,1000,True,1.0
./expes/v2_2020-12-03_dh_150-prng-1,30_issda_150,150,rng-150,61,rng,num-start-671,671,25726,6.250152349472046,True,,True,1,False,1000,True,1.0
./expes/v2_2020-12-03_dh_150-prng-1,30_issda_150,150,rng-150,81,rng,num-start-531,531,25726,5.487062215805054,True,,True,1,False,1000,True,1.0
./expes/v2_2020-12-03_dh_150-prng-1,30_issda_150,150,rng-150,11,rng,num-start-421,421,25726,4.413056135177612,True,,True,1,False,1000,True,1.0
./expes/v2_2020-12-03_dh_150-prng-1,30_issda_150,150,rng-150,31,rng,num-start-851,851,25726,8.297367334365845,True,,True,1,False,1000,True,1.0
./expes/v2_2020-12-03_dh_150-prng-1,30_issda_150,150,rng-150,71,rng,num-start-571,571,25726,5.652271509170532,True,,True,1,False,1000,True,1.0
./expes/v2_2020-12-03_dh_150-prng-1,30_issda_150,150,rng-150,71,rng,num-start-881,881,25726,9.183766603469849,True,,True,1,False,1000,True,1.0
./expes/v2_2020-12-03_dh_150-prng-1,30_issda_150,150,rng-150,1,rng,num-start-831,831,25726,6.646536588668823,True,,True,1,False,1000,True,1.0
./expes/v2_2020-12-03_dh_150-prng-1,30_issda_150,150,rng-150,11,rng,num-start-491,491,25726,4.473708152770996,True,,True,1,False,1000,True,1.0
./expes/v2_2020-12-03_dh_150-prng-1,30_issda_150,150,rng-150,81,rng,num-start-191,191,25726,1.9262983798980713,True,,True,1,False,1000,True,1.0
./expes/v2_2020-12-03_dh_150-prng-1,30_issda_150,150,rng-150,121,rng,num-start-171,171,25726,1.8560740947723389,True,,True,1,False,1000,True,1.0
./expes/v2_2020-12-03_dh_150-prng-1,30_issda_150,150,rng-150,111,rng,num-start-881,881,25726,8.617326736450195,True,,True,1,False,1000,True,1.0
./expes/v2_2020-12-03_dh_150-prng-1,30_issda_150,150,rng-150,111,rng,num-start-841,841,25726,7.798105239868164,True,,True,1,False,1000,True,1.0
./expes/v2_2020-12-03_dh_150-prng-1,30_issda_150,150,rng-150,31,rng,num-start-861,861,25726,8.147845268249512,True,,True,1,False,1000,True,1.0
./expes/v2_2020-12-03_dh_150-prng-1,30_issda_150,150,rng-150,131,rng,num-start-591,591,25726,5.771933317184448,True,,True,1,False,1000,True,1.0
./expes/v2_2020-12-03_dh_150-prng-1,30_issda_150,150,rng-150,41,rng,num-start-781,781,25726,9.17110562324524,True,,True,1,False,1000,True,1.0
./expes/v2_2020-12-03_dh_150-prng-1,30_issda_150,150,rng-150,51,rng,num-start-71,71,25726,1.5426273345947266,True,,True,1,False,1000,True,1.0
./expes/v2_2020-12-03_dh_150-prng-1,30_issda_150,150,rng-150,41,rng,num-start-21,21,25726,1011.3686802387238,False,,False,0,True,1000,True,0.0
./expes/v2_2020-12-03_dh_150-prng-1,30_issda_150,150,rng-150,111,rng,num-start-731,731,25726,7.419354438781738,True,,True,1,False,1000,True,1.0
./expes/v2_2020-12-03_dh_150-prng-1,30_issda_150,150,rng-150,71,rng,num-start-1,1,25726,0.04789280891418457,False,,False,2,False,1000,True,1.0
./expes/v2_2020-12-03_dh_150-prng-1,30_issda_150,150,rng-150,91,rng,num-start-461,461,25726,4.249361753463745,True,,True,1,False,1000,True,1.0
./expes/v2_2020-12-03_dh_150-prng-1,30_issda_150,150,rng-150,61,rng,num-start-101,101,25726,1.140166997909546,True,,True,1,False,1000,True,1.0
./expes/v2_2020-12-03_dh_150-prng-1,30_issda_150,150,rng-150,41,rng,num-start-91,91,25726,1.0465116500854492,True,,True,1,False,1000,True,1.0
./expes/v2_2020-12-03_dh_150-prng-1,30_issda_150,150,rng-150,11,rng,num-start-801,801,25726,6.291638374328613,True,,True,1,False,1000,True,1.0
./expes/v2_2020-12-03_dh_150-prng-1,30_issda_150,150,rng-150,91,rng,num-start-841,841,25726,7.511613368988037,True,,True,1,False,1000,True,1.0
./expes/v2_2020-12-03_dh_150-prng-1,30_issda_150,150,rng-150,21,rng,num-start-311,311,25726,2.9097368717193604,True,,True,1,False,1000,True,1.0
./expes/v2_2020-12-03_dh_150-prng-1,30_issda_150,150,rng-150,101,rng,num-start-331,331,25726,3.348625898361206,True,,True,1,False,1000,True,1.0
./expes/v2_2020-12-03_dh_150-prng-1,30_issda_150,150,rng-150,21,rng,num-start-421,421,25726,4.323987722396851,True,,True,1,False,1000,True,1.0
./expes/v2_2020-12-03_dh_150-prng-1,30_issda_150,150,rng-150,101,rng,num-start-451,451,25726,4.107339859008789,True,,True,1,False,1000,True,1.0
./expes/v2_2020-12-03_dh_150-prng-1,30_issda_150,150,rng-150,51,rng,num-start-691,691,25726,6.854758262634277,True,,True,1,False,1000,True,1.0
./expes/v2_2020-12-03_dh_150-prng-1,30_issda_150,150,rng-150,111,rng,num-start-451,451,25726,4.481250286102295,True,,True,1,False,1000,True,1.0
./expes/v2_2020-12-03_dh_150-prng-1,30_issda_150,150,rng-150,11,rng,num-start-231,231,25726,2.4242939949035645,True,,True,1,False,1000,True,1.0
./expes/v2_2020-12-03_dh_150-prng-1,30_issda_150,150,rng-150,41,rng,num-start-581,581,25726,6.346257209777832,True,,True,1,False,1000,True,1.0
./expes/v2_2020-12-03_dh_150-prng-1,30_issda_150,150,rng-150,141,rng,num-start-211,211,25726,2.0557615756988525,True,,True,1,False,1000,True,1.0
./expes/v2_2020-12-03_dh_150-prng-1,30_issda_150,150,rng-150,41,rng,num-start-931,931,25726,9.670952796936035,True,,True,1,False,1000,True,1.0
./expes/v2_2020-12-03_dh_150-prng-1,30_issda_150,150,rng-150,111,rng,num-start-121,121,25726,1.2659697532653809,True,,True,1,False,1000,True,1.0
./expes/v2_2020-12-03_dh_150-prng-1,30_issda_150,150,rng-150,131,rng,num-start-901,901,25726,7.7224225997924805,True,,True,1,False,1000,True,1.0
./expes/v2_2020-12-03_dh_150-prng-1,30_issda_150,150,rng-150,11,rng,num-start-881,881,25726,6.927079200744629,True,,True,1,False,1000,True,1.0
./expes/v2_2020-12-03_dh_150-prng-1,30_issda_150,150,rng-150,71,rng,num-start-31,31,25726,1015.0546436309814,False,,False,0,True,1000,True,0.0
./expes/v2_2020-12-03_dh_150-prng-1,30_issda_150,150,rng-150,1,rng,num-start-781,781,25726,6.382039785385132,True,,True,1,False,1000,True,1.0
./expes/v2_2020-12-03_dh_150-prng-1,30_issda_150,150,rng-150,11,rng,num-start-431,431,25726,3.4927756786346436,True,,True,1,False,1000,True,1.0
./expes/v2_2020-12-03_dh_150-prng-1,30_issda_150,150,rng-150,31,rng,num-start-691,691,25726,6.624266624450684,True,,True,1,False,1000,True,1.0
./expes/v2_2020-12-03_dh_150-prng-1,30_issda_150,150,rng-150,101,rng,num-start-841,841,25726,8.046516418457031,True,,True,1,False,1000,True,1.0
./expes/v2_2020-12-03_dh_150-prng-1,30_issda_150,150,rng-150,11,rng,num-start-171,171,25726,1.9437499046325684,True,,True,1,False,1000,True,1.0
./expes/v2_2020-12-03_dh_150-prng-1,30_issda_150,150,rng-150,91,rng,num-start-221,221,25726,2.3033547401428223,True,,True,1,False,1000,True,1.0
./expes/v2_2020-12-03_dh_150-prng-1,30_issda_150,150,rng-150,111,rng,num-start-641,641,25726,5.91938591003418,True,,True,1,False,1000,True,1.0
./expes/v2_2020-12-03_dh_150-prng-1,30_issda_150,150,rng-150,121,rng,num-start-521,521,25726,4.774147033691406,True,,True,1,False,1000,True,1.0
./expes/v2_2020-12-03_dh_150-prng-1,30_issda_150,150,rng-150,61,rng,num-start-391,391,25726,3.726027727127075,True,,True,1,False,1000,True,1.0
./expes/v2_2020-12-03_dh_150-prng-1,30_issda_150,150,rng-150,101,rng,num-start-811,811,25726,8.082307577133179,True,,True,1,False,1000,True,1.0
./expes/v2_2020-12-03_dh_150-prng-1,30_issda_150,150,rng-150,91,rng,num-start-21,21,25726,1003.1022267341614,False,,False,0,True,1000,True,0.0
./expes/v2_2020-12-03_dh_150-prng-1,30_issda_150,150,rng-150,91,rng,num-start-971,971,25726,10.0689697265625,True,,True,1,False,1000,True,1.0
./expes/v2_2020-12-03_dh_150-prng-1,30_issda_150,150,rng-150,1,rng,num-start-801,801,25726,6.7749433517456055,True,,True,1,False,1000,True,1.0
./expes/v2_2020-12-03_dh_150-prng-1,30_issda_150,150,rng-150,141,rng,num-start-111,111,25726,0.9119071960449219,True,,True,1,False,1000,True,1.0
./expes/v2_2020-12-03_dh_150-prng-1,30_issda_150,150,rng-150,71,rng,num-start-201,201,25726,2.1197140216827393,True,,True,1,False,1000,True,1.0
./expes/v2_2020-12-03_dh_150-prng-1,30_issda_150,150,rng-150,91,rng,num-start-461,461,25726,4.3043060302734375,True,,True,1,False,1000,True,1.0
./expes/v2_2020-12-03_dh_150-prng-1,30_issda_150,150,rng-150,81,rng,num-start-121,121,25726,1.4306128025054932,True,,True,1,False,1000,True,1.0
./expes/v2_2020-12-03_dh_150-prng-1,30_issda_150,150,rng-150,1,rng,num-start-951,951,25726,7.594482421875,True,,True,1,False,1000,True,1.0
./expes/v2_2020-12-03_dh_150-prng-1,30_issda_150,150,rng-150,91,rng,num-start-161,161,25726,2.0801026821136475,True,,True,1,False,1000,True,1.0
./expes/v2_2020-12-03_dh_150-prng-1,30_issda_150,150,rng-150,11,rng,num-start-461,461,25726,4.069240093231201,True,,True,1,False,1000,True,1.0
./expes/v2_2020-12-03_dh_150-prng-1,30_issda_150,150,rng-150,1,rng,num-start-571,571,25726,4.575546026229858,True,,True,1,False,1000,True,1.0
./expes/v2_2020-12-03_dh_150-prng-1,30_issda_150,150,rng-150,21,rng,num-start-671,671,25726,5.9163994789123535,True,,True,1,False,1000,True,1.0
./expes/v2_2020-12-03_dh_150-prng-1,30_issda_150,150,rng-150,71,rng,num-start-981,981,25726,10.304219722747803,True,,True,1,False,1000,True,1.0
./expes/v2_2020-12-03_dh_150-prng-1,30_issda_150,150,rng-150,61,rng,num-start-1,1,25726,0.03786873817443848,False,,False,2,False,1000,True,1.0
./expes/v2_2020-12-03_dh_150-prng-1,30_issda_150,150,rng-150,41,rng,num-start-791,791,25726,7.966331481933594,True,,True,1,False,1000,True,1.0
./expes/v2_2020-12-03_dh_150-prng-1,30_issda_150,150,rng-150,21,rng,num-start-821,821,25726,10.122307538986206,True,,True,1,False,1000,True,1.0
./expes/v2_2020-12-03_dh_150-prng-1,30_issda_150,150,rng-150,21,rng,num-start-641,641,25726,6.564869403839111,True,,True,1,False,1000,True,1.0
./expes/v2_2020-12-03_dh_150-prng-1,30_issda_150,150,rng-150,91,rng,num-start-491,491,25726,5.04256796836853,True,,True,1,False,1000,True,1.0
./expes/v2_2020-12-03_dh_150-prng-1,30_issda_150,150,rng-150,11,rng,num-start-771,771,25726,7.539945602416992,True,,True,1,False,1000,True,1.0
./expes/v2_2020-12-03_dh_150-prng-1,30_issda_150,150,rng-150,71,rng,num-start-51,51,25726,1.1237261295318604,True,,True,1,False,1000,True,1.0
./expes/v2_2020-12-03_dh_150-prng-1,30_issda_150,150,rng-150,121,rng,num-start-161,161,25726,1.9273133277893066,True,,True,1,False,1000,True,1.0
./expes/v2_2020-12-03_dh_150-prng-1,30_issda_150,150,rng-150,31,rng,num-start-381,381,25726,3.8457224369049072,True,,True,1,False,1000,True,1.0
./expes/v2_2020-12-03_dh_150-prng-1,30_issda_150,150,rng-150,81,rng,num-start-451,451,25726,4.5290610790252686,True,,True,1,False,1000,True,1.0
./expes/v2_2020-12-03_dh_150-prng-1,30_issda_150,150,rng-150,111,rng,num-start-541,541,25726,5.616904258728027,True,,True,1,False,1000,True,1.0
./expes/v2_2020-12-03_dh_150-prng-1,30_issda_150,150,rng-150,121,rng,num-start-401,401,25726,3.788470983505249,True,,True,1,False,1000,True,1.0
./expes/v2_2020-12-03_dh_150-prng-1,30_issda_150,150,rng-150,21,rng,num-start-471,471,25726,4.7116539478302,True,,True,1,False,1000,True,1.0
./expes/v2_2020-12-03_dh_150-prng-1,30_issda_150,150,rng-150,111,rng,num-start-521,521,25726,5.237566709518433,True,,True,1,False,1000,True,1.0
./expes/v2_2020-12-03_dh_150-prng-1,30_issda_150,150,rng-150,121,rng,num-start-791,791,25726,7.782243013381958,True,,True,1,False,1000,True,1.0
./expes/v2_2020-12-03_dh_150-prng-1,30_issda_150,150,rng-150,41,rng,num-start-601,601,25726,6.277066946029663,True,,True,1,False,1000,True,1.0
./expes/v2_2020-12-03_dh_150-prng-1,30_issda_150,150,rng-150,101,rng,num-start-181,181,25726,2.191488265991211,True,,True,1,False,1000,True,1.0
./expes/v2_2020-12-03_dh_150-prng-1,30_issda_150,150,rng-150,141,rng,num-start-111,111,25726,1.1963284015655518,True,,True,1,False,1000,True,1.0
./expes/v2_2020-12-03_dh_150-prng-1,30_issda_150,150,rng-150,21,rng,num-start-21,21,25726,0.8902170658111572,True,,True,1,False,1000,True,1.0
./expes/v2_2020-12-03_dh_150-prng-1,30_issda_150,150,rng-150,91,rng,num-start-681,681,25726,6.903955459594727,True,,True,1,False,1000,True,1.0
./expes/v2_2020-12-03_dh_150-prng-1,30_issda_150,150,rng-150,61,rng,num-start-491,491,25726,4.804251194000244,True,,True,1,False,1000,True,1.0
./expes/v2_2020-12-03_dh_150-prng-1,30_issda_150,150,rng-150,31,rng,num-start-271,271,25726,2.5846657752990723,True,,True,1,False,1000,True,1.0
./expes/v2_2020-12-03_dh_150-prng-1,30_issda_150,150,rng-150,141,rng,num-start-511,511,25726,5.114923477172852,True,,True,1,False,1000,True,1.0
./expes/v2_2020-12-03_dh_150-prng-1,30_issda_150,150,rng-150,61,rng,num-start-101,101,25726,1.1613740921020508,True,,True,1,False,1000,True,1.0
./expes/v2_2020-12-03_dh_150-prng-1,30_issda_150,150,rng-150,11,rng,num-start-791,791,25726,7.509573698043823,True,,True,1,False,1000,True,1.0
./expes/v2_2020-12-03_dh_150-prng-1,30_issda_150,150,rng-150,41,rng,num-start-941,941,25726,9.488772869110107,True,,True,1,False,1000,True,1.0
./expes/v2_2020-12-03_dh_150-prng-1,30_issda_150,150,rng-150,111,rng,num-start-431,431,25726,4.717451572418213,True,,True,1,False,1000,True,1.0
./expes/v2_2020-12-03_dh_150-prng-1,30_issda_150,150,rng-150,91,rng,num-start-991,991,25726,11.315684795379639,True,,True,1,False,1000,True,1.0
./expes/v2_2020-12-03_dh_150-prng-1,30_issda_150,150,rng-150,81,rng,num-start-111,111,25726,1.3662867546081543,True,,True,1,False,1000,True,1.0
./expes/v2_2020-12-03_dh_150-prng-1,30_issda_150,150,rng-150,51,rng,num-start-601,601,25726,5.59526801109314,True,,True,1,False,1000,True,1.0
./expes/v2_2020-12-03_dh_150-prng-1,30_issda_150,150,rng-150,1,rng,num-start-591,591,25726,4.904410362243652,True,,True,1,False,1000,True,1.0
./expes/v2_2020-12-03_dh_150-prng-1,30_issda_150,150,rng-150,11,rng,num-start-291,291,25726,2.5256433486938477,True,,True,1,False,1000,True,1.0
./expes/v2_2020-12-03_dh_150-prng-1,30_issda_150,150,rng-150,51,rng,num-start-741,741,25726,7.187324523925781,True,,True,1,False,1000,True,1.0
./expes/v2_2020-12-03_dh_150-prng-1,30_issda_150,150,rng-150,101,rng,num-start-251,251,25726,2.6034066677093506,True,,True,1,False,1000,True,1.0
./expes/v2_2020-12-03_dh_150-prng-1,30_issda_150,150,rng-150,71,rng,num-start-821,821,25726,8.353224515914917,True,,True,1,False,1000,True,1.0
./expes/v2_2020-12-03_dh_150-prng-1,30_issda_150,150,rng-150,11,rng,num-start-351,351,25726,3.133513927459717,True,,True,1,False,1000,True,1.0
./expes/v2_2020-12-03_dh_150-prng-1,30_issda_150,150,rng-150,41,rng,num-start-271,271,25726,2.853835105895996,True,,True,1,False,1000,True,1.0
./expes/v2_2020-12-03_dh_150-prng-1,30_issda_150,150,rng-150,141,rng,num-start-461,461,25726,3.8787453174591064,True,,True,1,False,1000,True,1.0
./expes/v2_2020-12-03_dh_150-prng-1,30_issda_150,150,rng-150,51,rng,num-start-401,401,25726,4.469379901885986,True,,True,1,False,1000,True,1.0
./expes/v2_2020-12-03_dh_150-prng-1,30_issda_150,150,rng-150,51,rng,num-start-11,11,25726,1000.273695230484,False,,False,0,True,1000,True,0.0
./expes/v2_2020-12-03_dh_150-prng-1,30_issda_150,150,rng-150,111,rng,num-start-561,561,25726,5.374037027359009,True,,True,1,False,1000,True,1.0
./expes/v2_2020-12-03_dh_150-prng-1,30_issda_150,150,rng-150,91,rng,num-start-621,621,25726,5.866982460021973,True,,True,1,False,1000,True,1.0
./expes/v2_2020-12-03_dh_150-prng-1,30_issda_150,150,rng-150,41,rng,num-start-151,151,25726,1.833991527557373,True,,True,1,False,1000,True,1.0
./expes/v2_2020-12-03_dh_150-prng-1,30_issda_150,150,rng-150,21,rng,num-start-401,401,25726,3.5669217109680176,True,,True,1,False,1000,True,1.0
./expes/v2_2020-12-03_dh_150-prng-1,30_issda_150,150,rng-150,101,rng,num-start-801,801,25726,7.893673896789551,True,,True,1,False,1000,True,1.0
./expes/v2_2020-12-03_dh_150-prng-1,30_issda_150,150,rng-150,31,rng,num-start-191,191,25726,1.9311468601226807,True,,True,1,False,1000,True,1.0
./expes/v2_2020-12-03_dh_150-prng-1,30_issda_150,150,rng-150,61,rng,num-start-801,801,25726,9.36028528213501,True,,True,1,False,1000,True,1.0
./expes/v2_2020-12-03_dh_150-prng-1,30_issda_150,150,rng-150,11,rng,num-start-831,831,25726,7.037070274353027,True,,True,1,False,1000,True,1.0
./expes/v2_2020-12-03_dh_150-prng-1,30_issda_150,150,rng-150,131,rng,num-start-581,581,25726,5.355767250061035,True,,True,1,False,1000,True,1.0
./expes/v2_2020-12-03_dh_150-prng-1,30_issda_150,150,rng-150,101,rng,num-start-31,31,25726,1004.0236337184906,False,,False,0,True,1000,True,0.0
./expes/v2_2020-12-03_dh_150-prng-1,30_issda_150,150,rng-150,41,rng,num-start-791,791,25726,7.93705677986145,True,,True,1,False,1000,True,1.0
./expes/v2_2020-12-03_dh_150-prng-1,30_issda_150,150,rng-150,41,rng,num-start-121,121,25726,1.3231446743011475,True,,True,1,False,1000,True,1.0
./expes/v2_2020-12-03_dh_150-prng-1,30_issda_150,150,rng-150,91,rng,num-start-171,171,25726,2.1267151832580566,True,,True,1,False,1000,True,1.0
./expes/v2_2020-12-03_dh_150-prng-1,30_issda_150,150,rng-150,141,rng,num-start-811,811,25726,6.674151659011841,True,,True,1,False,1000,True,1.0
./expes/v2_2020-12-03_dh_150-prng-1,30_issda_150,150,rng-150,131,rng,num-start-371,371,25726,3.9905152320861816,True,,True,1,False,1000,True,1.0
./expes/v2_2020-12-03_dh_150-prng-1,30_issda_150,150,rng-150,61,rng,num-start-71,71,25726,1.3096308708190918,True,,True,1,False,1000,True,1.0
./expes/v2_2020-12-03_dh_150-prng-1,30_issda_150,150,rng-150,131,rng,num-start-131,131,25726,1.6353049278259277,True,,True,1,False,1000,True,1.0
./expes/v2_2020-12-03_dh_150-prng-1,30_issda_150,150,rng-150,101,rng,num-start-831,831,25726,7.657851457595825,True,,True,1,False,1000,True,1.0
./expes/v2_2020-12-03_dh_150-prng-1,30_issda_150,150,rng-150,31,rng,num-start-311,311,25726,3.105931520462036,True,,True,1,False,1000,True,1.0
./expes/v2_2020-12-03_dh_150-prng-1,30_issda_150,150,rng-150,111,rng,num-start-651,651,25726,7.18820858001709,True,,True,1,False,1000,True,1.0
./expes/v2_2020-12-03_dh_150-prng-1,30_issda_150,150,rng-150,81,rng,num-start-161,161,25726,1.715034008026123,True,,True,1,False,1000,True,1.0
./expes/v2_2020-12-03_dh_150-prng-1,30_issda_150,150,rng-150,61,rng,num-start-251,251,25726,2.900089979171753,True,,True,1,False,1000,True,1.0
./expes/v2_2020-12-03_dh_150-prng-1,30_issda_150,150,rng-150,121,rng,num-start-511,511,25726,5.399563312530518,True,,True,1,False,1000,True,1.0
./expes/v2_2020-12-03_dh_150-prng-1,30_issda_150,150,rng-150,41,rng,num-start-331,331,25726,3.6135854721069336,True,,True,1,False,1000,True,1.0
./expes/v2_2020-12-03_dh_150-prng-1,30_issda_150,150,rng-150,131,rng,num-start-111,111,25726,1.259228229522705,True,,True,1,False,1000,True,1.0
./expes/v2_2020-12-03_dh_150-prng-1,30_issda_150,150,rng-150,21,rng,num-start-621,621,25726,6.325767517089844,True,,True,1,False,1000,True,1.0
./expes/v2_2020-12-03_dh_150-prng-1,30_issda_150,150,rng-150,71,rng,num-start-981,981,25726,9.525266408920288,True,,True,1,False,1000,True,1.0
./expes/v2_2020-12-03_dh_150-prng-1,30_issda_150,150,rng-150,121,rng,num-start-451,451,25726,4.49686074256897,True,,True,1,False,1000,True,1.0
./expes/v2_2020-12-03_dh_150-prng-1,30_issda_150,150,rng-150,21,rng,num-start-281,281,25726,2.948751449584961,True,,True,1,False,1000,True,1.0
./expes/v2_2020-12-03_dh_150-prng-1,30_issda_150,150,rng-150,31,rng,num-start-61,61,25726,0.8152711391448975,True,,True,1,False,1000,True,1.0
./expes/v2_2020-12-03_dh_150-prng-1,30_issda_150,150,rng-150,21,rng,num-start-861,861,25726,9.29119086265564,True,,True,1,False,1000,True,1.0
./expes/v2_2020-12-03_dh_150-prng-1,30_issda_150,150,rng-150,31,rng,num-start-221,221,25726,2.2819225788116455,True,,True,1,False,1000,True,1.0
./expes/v2_2020-12-03_dh_150-prng-1,30_issda_150,150,rng-150,41,rng,num-start-851,851,25726,9.12972640991211,True,,True,1,False,1000,True,1.0
./expes/v2_2020-12-03_dh_150-prng-1,30_issda_150,150,rng-150,41,rng,num-start-941,941,25726,9.559307098388672,True,,True,1,False,1000,True,1.0
./expes/v2_2020-12-03_dh_150-prng-1,30_issda_150,150,rng-150,111,rng,num-start-781,781,25726,7.49403190612793,True,,True,1,False,1000,True,1.0
./expes/v2_2020-12-03_dh_150-prng-1,30_issda_150,150,rng-150,41,rng,num-start-151,151,25726,1.6278753280639648,True,,True,1,False,1000,True,1.0
./expes/v2_2020-12-03_dh_150-prng-1,30_issda_150,150,rng-150,11,rng,num-start-171,171,25726,1.7033545970916748,True,,True,1,False,1000,True,1.0
./expes/v2_2020-12-03_dh_150-prng-1,30_issda_150,150,rng-150,141,rng,num-start-971,971,25726,8.432466745376587,True,,True,1,False,1000,True,1.0
./expes/v2_2020-12-03_dh_150-prng-1,30_issda_150,150,rng-150,91,rng,num-start-111,111,25726,1.2635993957519531,True,,True,1,False,1000,True,1.0
./expes/v2_2020-12-03_dh_150-prng-1,30_issda_150,150,rng-150,91,rng,num-start-871,871,25726,7.995959281921387,True,,True,1,False,1000,True,1.0
./expes/v2_2020-12-03_dh_150-prng-1,30_issda_150,150,rng-150,131,rng,num-start-901,901,25726,8.501415014266968,True,,True,1,False,1000,True,1.0
./expes/v2_2020-12-03_dh_150-prng-1,30_issda_150,150,rng-150,51,rng,num-start-401,401,25726,4.155551910400391,True,,True,1,False,1000,True,1.0
./expes/v2_2020-12-03_dh_150-prng-1,30_issda_150,150,rng-150,121,rng,num-start-511,511,25726,4.68314528465271,True,,True,1,False,1000,True,1.0
./expes/v2_2020-12-03_dh_150-prng-1,30_issda_150,150,rng-150,131,rng,num-start-921,921,25726,9.043596506118774,True,,True,1,False,1000,True,1.0
./expes/v2_2020-12-03_dh_150-prng-1,30_issda_150,150,rng-150,111,rng,num-start-31,31,25726,1000.3979306221008,False,,False,1,True,1000,True,0.0
./expes/v2_2020-12-03_dh_150-prng-1,30_issda_150,150,rng-150,41,rng,num-start-451,451,25726,4.590057611465454,True,,True,1,False,1000,True,1.0
./expes/v2_2020-12-03_dh_150-prng-1,30_issda_150,150,rng-150,81,rng,num-start-1,1,25726,0.02939128875732422,False,,False,2,False,1000,True,1.0
./expes/v2_2020-12-03_dh_150-prng-1,30_issda_150,150,rng-150,1,rng,num-start-971,971,25726,7.774461984634399,True,,True,1,False,1000,True,1.0
./expes/v2_2020-12-03_dh_150-prng-1,30_issda_150,150,rng-150,71,rng,num-start-711,711,25726,7.397321462631226,True,,True,1,False,1000,True,1.0
./expes/v2_2020-12-03_dh_150-prng-1,30_issda_150,150,rng-150,51,rng,num-start-461,461,25726,4.6332433223724365,True,,True,1,False,1000,True,1.0
./expes/v2_2020-12-03_dh_150-prng-1,30_issda_150,150,rng-150,121,rng,num-start-801,801,25726,7.565819501876831,True,,True,1,False,1000,True,1.0
./expes/v2_2020-12-03_dh_150-prng-1,30_issda_150,150,rng-150,71,rng,num-start-971,971,25726,9.38564419746399,True,,True,1,False,1000,True,1.0
./expes/v2_2020-12-03_dh_150-prng-1,30_issda_150,150,rng-150,101,rng,num-start-851,851,25726,9.66349196434021,True,,True,1,False,1000,True,1.0
./expes/v2_2020-12-03_dh_150-prng-1,30_issda_150,150,rng-150,141,rng,num-start-321,321,25726,2.666625499725342,True,,True,1,False,1000,True,1.0
./expes/v2_2020-12-03_dh_150-prng-1,30_issda_150,150,rng-150,41,rng,num-start-611,611,25726,6.10295844078064,True,,True,1,False,1000,True,1.0
./expes/v2_2020-12-03_dh_150-prng-1,30_issda_150,150,rng-150,61,rng,num-start-691,691,25726,6.324463367462158,True,,True,1,False,1000,True,1.0
./expes/v2_2020-12-03_dh_150-prng-1,30_issda_150,150,rng-150,31,rng,num-start-541,541,25726,5.418846130371094,True,,True,1,False,1000,True,1.0
./expes/v2_2020-12-03_dh_150-prng-1,30_issda_150,150,rng-150,21,rng,num-start-41,41,25726,1.1461052894592285,True,,True,1,False,1000,True,1.0
./expes/v2_2020-12-03_dh_150-prng-1,30_issda_150,150,rng-150,141,rng,num-start-761,761,25726,6.119369745254517,True,,True,1,False,1000,True,1.0
./expes/v2_2020-12-03_dh_150-prng-1,30_issda_150,150,rng-150,121,rng,num-start-651,651,25726,6.253767490386963,True,,True,1,False,1000,True,1.0
./expes/v2_2020-12-03_dh_150-prng-1,30_issda_150,150,rng-150,141,rng,num-start-571,571,25726,5.101151704788208,True,,True,1,False,1000,True,1.0
./expes/v2_2020-12-03_dh_150-prng-1,30_issda_150,150,rng-150,21,rng,num-start-151,151,25726,1.6458053588867188,True,,True,1,False,1000,True,1.0
./expes/v2_2020-12-03_dh_150-prng-1,30_issda_150,150,rng-150,31,rng,num-start-51,51,25726,0.7931294441223145,True,,True,1,False,1000,True,1.0
./expes/v2_2020-12-03_dh_150-prng-1,30_issda_150,150,rng-150,41,rng,num-start-361,361,25726,3.7007343769073486,True,,True,1,False,1000,True,1.0
./expes/v2_2020-12-03_dh_150-prng-1,30_issda_150,150,rng-150,71,rng,num-start-961,961,25726,9.61999225616455,True,,True,1,False,1000,True,1.0
./expes/v2_2020-12-03_dh_150-prng-1,30_issda_150,150,rng-150,141,rng,num-start-461,461,25726,4.176298141479492,True,,True,1,False,1000,True,1.0
./expes/v2_2020-12-03_dh_150-prng-1,30_issda_150,150,rng-150,51,rng,num-start-511,511,25726,5.070105075836182,True,,True,1,False,1000,True,1.0
./expes/v2_2020-12-03_dh_150-prng-1,30_issda_150,150,rng-150,51,rng,num-start-41,41,25726,3.573925495147705,True,,True,1,False,1000,True,1.0
./expes/v2_2020-12-03_dh_150-prng-1,30_issda_150,150,rng-150,81,rng,num-start-691,691,25726,6.382622718811035,True,,True,1,False,1000,True,1.0
./expes/v2_2020-12-03_dh_150-prng-1,30_issda_150,150,rng-150,131,rng,num-start-491,491,25726,4.507768154144287,True,,True,1,False,1000,True,1.0
./expes/v2_2020-12-03_dh_150-prng-1,30_issda_150,150,rng-150,51,rng,num-start-311,311,25726,3.208679676055908,True,,True,1,False,1000,True,1.0
./expes/v2_2020-12-03_dh_150-prng-1,30_issda_150,150,rng-150,91,rng,num-start-801,801,25726,8.096923828125,True,,True,1,False,1000,True,1.0
./expes/v2_2020-12-03_dh_150-prng-1,30_issda_150,150,rng-150,71,rng,num-start-771,771,25726,7.1763012409210205,True,,True,1,False,1000,True,1.0
./expes/v2_2020-12-03_dh_150-prng-1,30_issda_150,150,rng-150,111,rng,num-start-451,451,25726,4.375450134277344,True,,True,1,False,1000,True,1.0
./expes/v2_2020-12-03_dh_150-prng-1,30_issda_150,150,rng-150,41,rng,num-start-31,31,25726,1000.3630814552307,False,,False,1,True,1000,True,0.0
./expes/v2_2020-12-03_dh_150-prng-1,30_issda_150,150,rng-150,81,rng,num-start-961,961,25726,9.787147760391235,True,,True,1,False,1000,True,1.0
./expes/v2_2020-12-03_dh_150-prng-1,30_issda_150,150,rng-150,111,rng,num-start-751,751,25726,6.9065101146698,True,,True,1,False,1000,True,1.0
./expes/v2_2020-12-03_dh_150-prng-1,30_issda_150,150,rng-150,101,rng,num-start-991,991,25726,9.53156590461731,True,,True,1,False,1000,True,1.0
./expes/v2_2020-12-03_dh_150-prng-1,30_issda_150,150,rng-150,131,rng,num-start-651,651,25726,6.874830484390259,True,,True,1,False,1000,True,1.0
./expes/v2_2020-12-03_dh_150-prng-1,30_issda_150,150,rng-150,131,rng,num-start-291,291,25726,3.0584495067596436,True,,True,1,False,1000,True,1.0
./expes/v2_2020-12-03_dh_150-prng-1,30_issda_150,150,rng-150,131,rng,num-start-801,801,25726,7.112754821777344,True,,True,1,False,1000,True,1.0
