expe,clients,clients_size,clients_subset,agg_size,method,days,days_size,days_total,time,valid,valid_sum,success,nsols,wall_hit,wall_time,pooled,valid_sums
./expes/v2_2020-12-03_dh_150-prng-1,30_issda_150,150,rng-150,1,rng,num-start-91,91,25726,0.8950555324554443,True,,True,1,False,1000,True,1.0
./expes/v2_2020-12-03_dh_150-prng-1,30_issda_150,150,rng-150,41,rng,num-start-511,511,25726,4.809900760650635,True,,True,1,False,1000,True,1.0
./expes/v2_2020-12-03_dh_150-prng-1,30_issda_150,150,rng-150,71,rng,num-start-731,731,25726,6.689093112945557,True,,True,1,False,1000,True,1.0
./expes/v2_2020-12-03_dh_150-prng-1,30_issda_150,150,rng-150,1,rng,num-start-401,401,25726,3.2224278450012207,True,,True,1,False,1000,True,1.0
./expes/v2_2020-12-03_dh_150-prng-1,30_issda_150,150,rng-150,91,rng,num-start-131,131,25726,1.4432682991027832,True,,True,1,False,1000,True,1.0
./expes/v2_2020-12-03_dh_150-prng-1,30_issda_150,150,rng-150,111,rng,num-start-531,531,25726,5.1667375564575195,True,,True,1,False,1000,True,1.0
./expes/v2_2020-12-03_dh_150-prng-1,30_issda_150,150,rng-150,71,rng,num-start-731,731,25726,8.103686571121216,True,,True,1,False,1000,True,1.0
./expes/v2_2020-12-03_dh_150-prng-1,30_issda_150,150,rng-150,11,rng,num-start-691,691,25726,5.451681137084961,True,,True,1,False,1000,True,1.0
./expes/v2_2020-12-03_dh_150-prng-1,30_issda_150,150,rng-150,111,rng,num-start-841,841,25726,8.254353523254395,True,,True,1,False,1000,True,1.0
./expes/v2_2020-12-03_dh_150-prng-1,30_issda_150,150,rng-150,111,rng,num-start-321,321,25726,3.1053466796875,True,,True,1,False,1000,True,1.0
./expes/v2_2020-12-03_dh_150-prng-1,30_issda_150,150,rng-150,61,rng,num-start-881,881,25726,8.493382930755615,True,,True,1,False,1000,True,1.0
./expes/v2_2020-12-03_dh_150-prng-1,30_issda_150,150,rng-150,61,rng,num-start-121,121,25726,1.5074419975280762,True,,True,1,False,1000,True,1.0
./expes/v2_2020-12-03_dh_150-prng-1,30_issda_150,150,rng-150,101,rng,num-start-771,771,25726,8.035698175430298,True,,True,1,False,1000,True,1.0
./expes/v2_2020-12-03_dh_150-prng-1,30_issda_150,150,rng-150,71,rng,num-start-991,991,25726,10.181098699569702,True,,True,1,False,1000,True,1.0
./expes/v2_2020-12-03_dh_150-prng-1,30_issda_150,150,rng-150,81,rng,num-start-741,741,25726,7.7411580085754395,True,,True,1,False,1000,True,1.0
./expes/v2_2020-12-03_dh_150-prng-1,30_issda_150,150,rng-150,71,rng,num-start-51,51,25726,2.6584863662719727,True,,True,1,False,1000,True,1.0
./expes/v2_2020-12-03_dh_150-prng-1,30_issda_150,150,rng-150,81,rng,num-start-421,421,25726,4.590984582901001,True,,True,1,False,1000,True,1.0
./expes/v2_2020-12-03_dh_150-prng-1,30_issda_150,150,rng-150,11,rng,num-start-51,51,25726,0.833350658416748,True,,True,1,False,1000,True,1.0
./expes/v2_2020-12-03_dh_150-prng-1,30_issda_150,150,rng-150,31,rng,num-start-461,461,25726,4.717144966125488,True,,True,1,False,1000,True,1.0
./expes/v2_2020-12-03_dh_150-prng-1,30_issda_150,150,rng-150,41,rng,num-start-821,821,25726,9.376442432403564,True,,True,1,False,1000,True,1.0
./expes/v2_2020-12-03_dh_150-prng-1,30_issda_150,150,rng-150,71,rng,num-start-421,421,25726,4.1052751541137695,True,,True,1,False,1000,True,1.0
./expes/v2_2020-12-03_dh_150-prng-1,30_issda_150,150,rng-150,131,rng,num-start-791,791,25726,8.190288543701172,True,,True,1,False,1000,True,1.0
./expes/v2_2020-12-03_dh_150-prng-1,30_issda_150,150,rng-150,11,rng,num-start-411,411,25726,4.511212110519409,True,,True,1,False,1000,True,1.0
./expes/v2_2020-12-03_dh_150-prng-1,30_issda_150,150,rng-150,131,rng,num-start-661,661,25726,7.656780481338501,True,,True,1,False,1000,True,1.0
./expes/v2_2020-12-03_dh_150-prng-1,30_issda_150,150,rng-150,61,rng,num-start-661,661,25726,7.776424169540405,True,,True,1,False,1000,True,1.0
./expes/v2_2020-12-03_dh_150-prng-1,30_issda_150,150,rng-150,141,rng,num-start-191,191,25726,1.578749656677246,True,,True,1,False,1000,True,1.0
./expes/v2_2020-12-03_dh_150-prng-1,30_issda_150,150,rng-150,131,rng,num-start-191,191,25726,1.94278883934021,True,,True,1,False,1000,True,1.0
./expes/v2_2020-12-03_dh_150-prng-1,30_issda_150,150,rng-150,141,rng,num-start-541,541,25726,4.415887832641602,True,,True,1,False,1000,True,1.0
./expes/v2_2020-12-03_dh_150-prng-1,30_issda_150,150,rng-150,111,rng,num-start-231,231,25726,2.300549268722534,True,,True,1,False,1000,True,1.0
./expes/v2_2020-12-03_dh_150-prng-1,30_issda_150,150,rng-150,141,rng,num-start-591,591,25726,5.0577733516693115,True,,True,1,False,1000,True,1.0
./expes/v2_2020-12-03_dh_150-prng-1,30_issda_150,150,rng-150,21,rng,num-start-981,981,25726,10.568807601928711,True,,True,1,False,1000,True,1.0
./expes/v2_2020-12-03_dh_150-prng-1,30_issda_150,150,rng-150,131,rng,num-start-111,111,25726,1.2312383651733398,True,,True,1,False,1000,True,1.0
./expes/v2_2020-12-03_dh_150-prng-1,30_issda_150,150,rng-150,21,rng,num-start-181,181,25726,1.8238794803619385,True,,True,1,False,1000,True,1.0
./expes/v2_2020-12-03_dh_150-prng-1,30_issda_150,150,rng-150,131,rng,num-start-421,421,25726,4.162151575088501,True,,True,1,False,1000,True,1.0
./expes/v2_2020-12-03_dh_150-prng-1,30_issda_150,150,rng-150,101,rng,num-start-381,381,25726,4.350668430328369,True,,True,1,False,1000,True,1.0
./expes/v2_2020-12-03_dh_150-prng-1,30_issda_150,150,rng-150,131,rng,num-start-381,381,25726,3.3199076652526855,True,,True,1,False,1000,True,1.0
./expes/v2_2020-12-03_dh_150-prng-1,30_issda_150,150,rng-150,61,rng,num-start-181,181,25726,1.8106915950775146,True,,True,1,False,1000,True,1.0
./expes/v2_2020-12-03_dh_150-prng-1,30_issda_150,150,rng-150,101,rng,num-start-111,111,25726,1.19460129737854,True,,True,1,False,1000,True,1.0
./expes/v2_2020-12-03_dh_150-prng-1,30_issda_150,150,rng-150,21,rng,num-start-541,541,25726,5.002089977264404,True,,True,1,False,1000,True,1.0
./expes/v2_2020-12-03_dh_150-prng-1,30_issda_150,150,rng-150,91,rng,num-start-11,11,25726,1000.4538259506226,False,,False,0,True,1000,True,0.0
./expes/v2_2020-12-03_dh_150-prng-1,30_issda_150,150,rng-150,41,rng,num-start-141,141,25726,1.495574712753296,True,,True,1,False,1000,True,1.0
./expes/v2_2020-12-03_dh_150-prng-1,30_issda_150,150,rng-150,111,rng,num-start-581,581,25726,5.966986417770386,True,,True,1,False,1000,True,1.0
./expes/v2_2020-12-03_dh_150-prng-1,30_issda_150,150,rng-150,1,rng,num-start-391,391,25726,3.235490322113037,True,,True,1,False,1000,True,1.0
./expes/v2_2020-12-03_dh_150-prng-1,30_issda_150,150,rng-150,81,rng,num-start-741,741,25726,7.836362838745117,True,,True,1,False,1000,True,1.0
./expes/v2_2020-12-03_dh_150-prng-1,30_issda_150,150,rng-150,101,rng,num-start-571,571,25726,6.576768636703491,True,,True,1,False,1000,True,1.0
./expes/v2_2020-12-03_dh_150-prng-1,30_issda_150,150,rng-150,91,rng,num-start-431,431,25726,3.691453695297241,True,,True,1,False,1000,True,1.0
./expes/v2_2020-12-03_dh_150-prng-1,30_issda_150,150,rng-150,1,rng,num-start-981,981,25726,7.7498273849487305,True,,True,1,False,1000,True,1.0
./expes/v2_2020-12-03_dh_150-prng-1,30_issda_150,150,rng-150,101,rng,num-start-811,811,25726,8.368319034576416,True,,True,1,False,1000,True,1.0
./expes/v2_2020-12-03_dh_150-prng-1,30_issda_150,150,rng-150,141,rng,num-start-381,381,25726,3.109679698944092,True,,True,1,False,1000,True,1.0
./expes/v2_2020-12-03_dh_150-prng-1,30_issda_150,150,rng-150,81,rng,num-start-261,261,25726,2.703770875930786,True,,True,1,False,1000,True,1.0
./expes/v2_2020-12-03_dh_150-prng-1,30_issda_150,150,rng-150,111,rng,num-start-911,911,25726,9.034544229507446,True,,True,1,False,1000,True,1.0
./expes/v2_2020-12-03_dh_150-prng-1,30_issda_150,150,rng-150,11,rng,num-start-311,311,25726,3.485478401184082,True,,True,1,False,1000,True,1.0
./expes/v2_2020-12-03_dh_150-prng-1,30_issda_150,150,rng-150,111,rng,num-start-921,921,25726,8.449150800704956,True,,True,1,False,1000,True,1.0
./expes/v2_2020-12-03_dh_150-prng-1,30_issda_150,150,rng-150,31,rng,num-start-661,661,25726,6.559887170791626,True,,True,1,False,1000,True,1.0
./expes/v2_2020-12-03_dh_150-prng-1,30_issda_150,150,rng-150,141,rng,num-start-121,121,25726,1.1403117179870605,True,,True,1,False,1000,True,1.0
./expes/v2_2020-12-03_dh_150-prng-1,30_issda_150,150,rng-150,111,rng,num-start-321,321,25726,3.454505205154419,True,,True,1,False,1000,True,1.0
./expes/v2_2020-12-03_dh_150-prng-1,30_issda_150,150,rng-150,121,rng,num-start-301,301,25726,2.957603693008423,True,,True,1,False,1000,True,1.0
./expes/v2_2020-12-03_dh_150-prng-1,30_issda_150,150,rng-150,131,rng,num-start-841,841,25726,7.578750133514404,True,,True,1,False,1000,True,1.0
./expes/v2_2020-12-03_dh_150-prng-1,30_issda_150,150,rng-150,81,rng,num-start-281,281,25726,3.0044634342193604,True,,True,1,False,1000,True,1.0
./expes/v2_2020-12-03_dh_150-prng-1,30_issda_150,150,rng-150,91,rng,num-start-131,131,25726,1.272111415863037,True,,True,1,False,1000,True,1.0
./expes/v2_2020-12-03_dh_150-prng-1,30_issda_150,150,rng-150,121,rng,num-start-471,471,25726,4.1058030128479,True,,True,1,False,1000,True,1.0
./expes/v2_2020-12-03_dh_150-prng-1,30_issda_150,150,rng-150,71,rng,num-start-431,431,25726,4.344839334487915,True,,True,1,False,1000,True,1.0
./expes/v2_2020-12-03_dh_150-prng-1,30_issda_150,150,rng-150,71,rng,num-start-811,811,25726,7.8278913497924805,True,,True,1,False,1000,True,1.0
./expes/v2_2020-12-03_dh_150-prng-1,30_issda_150,150,rng-150,131,rng,num-start-811,811,25726,9.314417839050293,True,,True,1,False,1000,True,1.0
./expes/v2_2020-12-03_dh_150-prng-1,30_issda_150,150,rng-150,131,rng,num-start-861,861,25726,11.448958396911621,True,,True,1,False,1000,True,1.0
./expes/v2_2020-12-03_dh_150-prng-1,30_issda_150,150,rng-150,121,rng,num-start-641,641,25726,8.219866275787354,True,,True,1,False,1000,True,1.0
./expes/v2_2020-12-03_dh_150-prng-1,30_issda_150,150,rng-150,11,rng,num-start-731,731,25726,9.176944494247437,True,,True,1,False,1000,True,1.0
./expes/v2_2020-12-03_dh_150-prng-1,30_issda_150,150,rng-150,131,rng,num-start-71,71,25726,1.0263433456420898,True,,True,1,False,1000,True,1.0
./expes/v2_2020-12-03_dh_150-prng-1,30_issda_150,150,rng-150,21,rng,num-start-771,771,25726,10.3588228225708,True,,True,1,False,1000,True,1.0
./expes/v2_2020-12-03_dh_150-prng-1,30_issda_150,150,rng-150,51,rng,num-start-541,541,25726,7.156425952911377,True,,True,1,False,1000,True,1.0
./expes/v2_2020-12-03_dh_150-prng-1,30_issda_150,150,rng-150,141,rng,num-start-361,361,25726,4.9425671100616455,True,,True,1,False,1000,True,1.0
./expes/v2_2020-12-03_dh_150-prng-1,30_issda_150,150,rng-150,111,rng,num-start-361,361,25726,5.199185132980347,True,,True,1,False,1000,True,1.0
./expes/v2_2020-12-03_dh_150-prng-1,30_issda_150,150,rng-150,121,rng,num-start-171,171,25726,2.889514207839966,True,,True,1,False,1000,True,1.0
./expes/v2_2020-12-03_dh_150-prng-1,30_issda_150,150,rng-150,1,rng,num-start-321,321,25726,3.6671879291534424,True,,True,1,False,1000,True,1.0
./expes/v2_2020-12-03_dh_150-prng-1,30_issda_150,150,rng-150,41,rng,num-start-791,791,25726,10.560669422149658,True,,True,1,False,1000,True,1.0
./expes/v2_2020-12-03_dh_150-prng-1,30_issda_150,150,rng-150,51,rng,num-start-561,561,25726,8.10530161857605,True,,True,1,False,1000,True,1.0
./expes/v2_2020-12-03_dh_150-prng-1,30_issda_150,150,rng-150,111,rng,num-start-891,891,25726,12.648493766784668,True,,True,1,False,1000,True,1.0
./expes/v2_2020-12-03_dh_150-prng-1,30_issda_150,150,rng-150,21,rng,num-start-351,351,25726,3.729241371154785,True,,True,1,False,1000,True,1.0
./expes/v2_2020-12-03_dh_150-prng-1,30_issda_150,150,rng-150,131,rng,num-start-651,651,25726,6.54918646812439,True,,True,1,False,1000,True,1.0
./expes/v2_2020-12-03_dh_150-prng-1,30_issda_150,150,rng-150,1,rng,num-start-341,341,25726,2.7170069217681885,True,,True,1,False,1000,True,1.0
./expes/v2_2020-12-03_dh_150-prng-1,30_issda_150,150,rng-150,61,rng,num-start-421,421,25726,4.344073295593262,True,,True,1,False,1000,True,1.0
./expes/v2_2020-12-03_dh_150-prng-1,30_issda_150,150,rng-150,91,rng,num-start-431,431,25726,4.512466669082642,True,,True,1,False,1000,True,1.0
./expes/v2_2020-12-03_dh_150-prng-1,30_issda_150,150,rng-150,71,rng,num-start-921,921,25726,8.44019365310669,True,,True,1,False,1000,True,1.0
./expes/v2_2020-12-03_dh_150-prng-1,30_issda_150,150,rng-150,21,rng,num-start-261,261,25726,2.4300177097320557,True,,True,1,False,1000,True,1.0
./expes/v2_2020-12-03_dh_150-prng-1,30_issda_150,150,rng-150,21,rng,num-start-611,611,25726,5.972427606582642,True,,True,1,False,1000,True,1.0
./expes/v2_2020-12-03_dh_150-prng-1,30_issda_150,150,rng-150,141,rng,num-start-631,631,25726,6.262544870376587,True,,True,1,False,1000,True,1.0
./expes/v2_2020-12-03_dh_150-prng-1,30_issda_150,150,rng-150,41,rng,num-start-501,501,25726,5.185031414031982,True,,True,1,False,1000,True,1.0
./expes/v2_2020-12-03_dh_150-prng-1,30_issda_150,150,rng-150,101,rng,num-start-311,311,25726,2.9580705165863037,True,,True,1,False,1000,True,1.0
./expes/v2_2020-12-03_dh_150-prng-1,30_issda_150,150,rng-150,51,rng,num-start-51,51,25726,1.3018131256103516,True,,True,1,False,1000,True,1.0
./expes/v2_2020-12-03_dh_150-prng-1,30_issda_150,150,rng-150,121,rng,num-start-51,51,25726,1.1334004402160645,True,,True,1,False,1000,True,1.0
./expes/v2_2020-12-03_dh_150-prng-1,30_issda_150,150,rng-150,1,rng,num-start-291,291,25726,3.522764205932617,True,,True,1,False,1000,True,1.0
./expes/v2_2020-12-03_dh_150-prng-1,30_issda_150,150,rng-150,1,rng,num-start-591,591,25726,4.842264652252197,True,,True,1,False,1000,True,1.0
./expes/v2_2020-12-03_dh_150-prng-1,30_issda_150,150,rng-150,61,rng,num-start-531,531,25726,5.596631050109863,True,,True,1,False,1000,True,1.0
./expes/v2_2020-12-03_dh_150-prng-1,30_issda_150,150,rng-150,111,rng,num-start-451,451,25726,4.583256244659424,True,,True,1,False,1000,True,1.0
./expes/v2_2020-12-03_dh_150-prng-1,30_issda_150,150,rng-150,51,rng,num-start-391,391,25726,3.7621452808380127,True,,True,1,False,1000,True,1.0
./expes/v2_2020-12-03_dh_150-prng-1,30_issda_150,150,rng-150,71,rng,num-start-171,171,25726,2.138258695602417,True,,True,1,False,1000,True,1.0
./expes/v2_2020-12-03_dh_150-prng-1,30_issda_150,150,rng-150,111,rng,num-start-931,931,25726,9.517043113708496,True,,True,1,False,1000,True,1.0
./expes/v2_2020-12-03_dh_150-prng-1,30_issda_150,150,rng-150,1,rng,num-start-11,11,25726,0.09440493583679199,True,,True,1,False,1000,True,1.0
./expes/v2_2020-12-03_dh_150-prng-1,30_issda_150,150,rng-150,1,rng,num-start-551,551,25726,4.411771297454834,True,,True,1,False,1000,True,1.0
./expes/v2_2020-12-03_dh_150-prng-1,30_issda_150,150,rng-150,111,rng,num-start-231,231,25726,2.431551694869995,True,,True,1,False,1000,True,1.0
./expes/v2_2020-12-03_dh_150-prng-1,30_issda_150,150,rng-150,41,rng,num-start-661,661,25726,6.728875160217285,True,,True,1,False,1000,True,1.0
./expes/v2_2020-12-03_dh_150-prng-1,30_issda_150,150,rng-150,61,rng,num-start-481,481,25726,4.710247755050659,True,,True,1,False,1000,True,1.0
./expes/v2_2020-12-03_dh_150-prng-1,30_issda_150,150,rng-150,121,rng,num-start-181,181,25726,1.9059972763061523,True,,True,1,False,1000,True,1.0
./expes/v2_2020-12-03_dh_150-prng-1,30_issda_150,150,rng-150,31,rng,num-start-721,721,25726,6.75970721244812,True,,True,1,False,1000,True,1.0
./expes/v2_2020-12-03_dh_150-prng-1,30_issda_150,150,rng-150,111,rng,num-start-541,541,25726,5.131044387817383,True,,True,1,False,1000,True,1.0
./expes/v2_2020-12-03_dh_150-prng-1,30_issda_150,150,rng-150,81,rng,num-start-591,591,25726,5.526110649108887,True,,True,1,False,1000,True,1.0
./expes/v2_2020-12-03_dh_150-prng-1,30_issda_150,150,rng-150,51,rng,num-start-811,811,25726,8.842454195022583,True,,True,1,False,1000,True,1.0
./expes/v2_2020-12-03_dh_150-prng-1,30_issda_150,150,rng-150,121,rng,num-start-161,161,25726,1.811328649520874,True,,True,1,False,1000,True,1.0
./expes/v2_2020-12-03_dh_150-prng-1,30_issda_150,150,rng-150,1,rng,num-start-531,531,25726,6.147841453552246,True,,True,1,False,1000,True,1.0
./expes/v2_2020-12-03_dh_150-prng-1,30_issda_150,150,rng-150,71,rng,num-start-401,401,25726,4.056914329528809,True,,True,1,False,1000,True,1.0
./expes/v2_2020-12-03_dh_150-prng-1,30_issda_150,150,rng-150,31,rng,num-start-151,151,25726,1.696216344833374,True,,True,1,False,1000,True,1.0
./expes/v2_2020-12-03_dh_150-prng-1,30_issda_150,150,rng-150,1,rng,num-start-751,751,25726,6.061168193817139,True,,True,1,False,1000,True,1.0
./expes/v2_2020-12-03_dh_150-prng-1,30_issda_150,150,rng-150,11,rng,num-start-861,861,25726,8.547929048538208,True,,True,1,False,1000,True,1.0
./expes/v2_2020-12-03_dh_150-prng-1,30_issda_150,150,rng-150,21,rng,num-start-151,151,25726,1.7732741832733154,True,,True,1,False,1000,True,1.0
./expes/v2_2020-12-03_dh_150-prng-1,30_issda_150,150,rng-150,71,rng,num-start-391,391,25726,4.451753377914429,True,,True,1,False,1000,True,1.0
./expes/v2_2020-12-03_dh_150-prng-1,30_issda_150,150,rng-150,81,rng,num-start-1,1,25726,0.04974246025085449,False,,False,2,False,1000,True,1.0
./expes/v2_2020-12-03_dh_150-prng-1,30_issda_150,150,rng-150,31,rng,num-start-341,341,25726,4.285391807556152,True,,True,1,False,1000,True,1.0
./expes/v2_2020-12-03_dh_150-prng-1,30_issda_150,150,rng-150,111,rng,num-start-61,61,25726,1.6848938465118408,True,,True,1,False,1000,True,1.0
./expes/v2_2020-12-03_dh_150-prng-1,30_issda_150,150,rng-150,121,rng,num-start-521,521,25726,5.723868131637573,True,,True,1,False,1000,True,1.0
./expes/v2_2020-12-03_dh_150-prng-1,30_issda_150,150,rng-150,11,rng,num-start-231,231,25726,2.2265677452087402,True,,True,1,False,1000,True,1.0
./expes/v2_2020-12-03_dh_150-prng-1,30_issda_150,150,rng-150,121,rng,num-start-471,471,25726,5.358534336090088,True,,True,1,False,1000,True,1.0
./expes/v2_2020-12-03_dh_150-prng-1,30_issda_150,150,rng-150,61,rng,num-start-351,351,25726,3.8162600994110107,True,,True,1,False,1000,True,1.0
./expes/v2_2020-12-03_dh_150-prng-1,30_issda_150,150,rng-150,121,rng,num-start-451,451,25726,4.736277341842651,True,,True,1,False,1000,True,1.0
./expes/v2_2020-12-03_dh_150-prng-1,30_issda_150,150,rng-150,41,rng,num-start-301,301,25726,3.5771658420562744,True,,True,1,False,1000,True,1.0
./expes/v2_2020-12-03_dh_150-prng-1,30_issda_150,150,rng-150,101,rng,num-start-711,711,25726,6.354811191558838,True,,True,1,False,1000,True,1.0
./expes/v2_2020-12-03_dh_150-prng-1,30_issda_150,150,rng-150,71,rng,num-start-571,571,25726,5.60949444770813,True,,True,1,False,1000,True,1.0
./expes/v2_2020-12-03_dh_150-prng-1,30_issda_150,150,rng-150,111,rng,num-start-771,771,25726,7.804901123046875,True,,True,1,False,1000,True,1.0
./expes/v2_2020-12-03_dh_150-prng-1,30_issda_150,150,rng-150,91,rng,num-start-351,351,25726,3.281087636947632,True,,True,1,False,1000,True,1.0
./expes/v2_2020-12-03_dh_150-prng-1,30_issda_150,150,rng-150,11,rng,num-start-971,971,25726,8.638749599456787,True,,True,1,False,1000,True,1.0
./expes/v2_2020-12-03_dh_150-prng-1,30_issda_150,150,rng-150,91,rng,num-start-201,201,25726,2.12007474899292,True,,True,1,False,1000,True,1.0
./expes/v2_2020-12-03_dh_150-prng-1,30_issda_150,150,rng-150,1,rng,num-start-831,831,25726,6.639854669570923,True,,True,1,False,1000,True,1.0
./expes/v2_2020-12-03_dh_150-prng-1,30_issda_150,150,rng-150,121,rng,num-start-871,871,25726,8.231778860092163,True,,True,1,False,1000,True,1.0
./expes/v2_2020-12-03_dh_150-prng-1,30_issda_150,150,rng-150,111,rng,num-start-551,551,25726,5.082793474197388,True,,True,1,False,1000,True,1.0
./expes/v2_2020-12-03_dh_150-prng-1,30_issda_150,150,rng-150,61,rng,num-start-341,341,25726,3.569110155105591,True,,True,1,False,1000,True,1.0
./expes/v2_2020-12-03_dh_150-prng-1,30_issda_150,150,rng-150,61,rng,num-start-111,111,25726,1.1588134765625,True,,True,1,False,1000,True,1.0
./expes/v2_2020-12-03_dh_150-prng-1,30_issda_150,150,rng-150,91,rng,num-start-561,561,25726,5.316022872924805,True,,True,1,False,1000,True,1.0
./expes/v2_2020-12-03_dh_150-prng-1,30_issda_150,150,rng-150,31,rng,num-start-361,361,25726,3.5179736614227295,True,,True,1,False,1000,True,1.0
./expes/v2_2020-12-03_dh_150-prng-1,30_issda_150,150,rng-150,81,rng,num-start-751,751,25726,8.34739899635315,True,,True,1,False,1000,True,1.0
./expes/v2_2020-12-03_dh_150-prng-1,30_issda_150,150,rng-150,71,rng,num-start-351,351,25726,3.9154601097106934,True,,True,1,False,1000,True,1.0
./expes/v2_2020-12-03_dh_150-prng-1,30_issda_150,150,rng-150,1,rng,num-start-921,921,25726,7.262141466140747,True,,True,1,False,1000,True,1.0
./expes/v2_2020-12-03_dh_150-prng-1,30_issda_150,150,rng-150,1,rng,num-start-961,961,25726,7.820188760757446,True,,True,1,False,1000,True,1.0
./expes/v2_2020-12-03_dh_150-prng-1,30_issda_150,150,rng-150,61,rng,num-start-911,911,25726,8.909900665283203,True,,True,1,False,1000,True,1.0
./expes/v2_2020-12-03_dh_150-prng-1,30_issda_150,150,rng-150,61,rng,num-start-91,91,25726,1.013538122177124,True,,True,1,False,1000,True,1.0
./expes/v2_2020-12-03_dh_150-prng-1,30_issda_150,150,rng-150,61,rng,num-start-351,351,25726,3.3049476146698,True,,True,1,False,1000,True,1.0
./expes/v2_2020-12-03_dh_150-prng-1,30_issda_150,150,rng-150,121,rng,num-start-811,811,25726,9.092785835266113,True,,True,1,False,1000,True,1.0
./expes/v2_2020-12-03_dh_150-prng-1,30_issda_150,150,rng-150,11,rng,num-start-861,861,25726,7.404656648635864,True,,True,1,False,1000,True,1.0
./expes/v2_2020-12-03_dh_150-prng-1,30_issda_150,150,rng-150,1,rng,num-start-511,511,25726,4.4862987995147705,True,,True,1,False,1000,True,1.0
./expes/v2_2020-12-03_dh_150-prng-1,30_issda_150,150,rng-150,21,rng,num-start-181,181,25726,1.9664466381072998,True,,True,1,False,1000,True,1.0
./expes/v2_2020-12-03_dh_150-prng-1,30_issda_150,150,rng-150,71,rng,num-start-851,851,25726,8.587152004241943,True,,True,1,False,1000,True,1.0
./expes/v2_2020-12-03_dh_150-prng-1,30_issda_150,150,rng-150,61,rng,num-start-821,821,25726,8.394434928894043,True,,True,1,False,1000,True,1.0
./expes/v2_2020-12-03_dh_150-prng-1,30_issda_150,150,rng-150,31,rng,num-start-911,911,25726,8.736074686050415,True,,True,1,False,1000,True,1.0
./expes/v2_2020-12-03_dh_150-prng-1,30_issda_150,150,rng-150,31,rng,num-start-581,581,25726,5.718960523605347,True,,True,1,False,1000,True,1.0
./expes/v2_2020-12-03_dh_150-prng-1,30_issda_150,150,rng-150,81,rng,num-start-611,611,25726,6.308086156845093,True,,True,1,False,1000,True,1.0
./expes/v2_2020-12-03_dh_150-prng-1,30_issda_150,150,rng-150,31,rng,num-start-501,501,25726,4.953868627548218,True,,True,1,False,1000,True,1.0
./expes/v2_2020-12-03_dh_150-prng-1,30_issda_150,150,rng-150,31,rng,num-start-171,171,25726,1.7460379600524902,True,,True,1,False,1000,True,1.0
./expes/v2_2020-12-03_dh_150-prng-1,30_issda_150,150,rng-150,121,rng,num-start-291,291,25726,2.928001642227173,True,,True,1,False,1000,True,1.0
./expes/v2_2020-12-03_dh_150-prng-1,30_issda_150,150,rng-150,111,rng,num-start-661,661,25726,5.902181625366211,True,,True,1,False,1000,True,1.0
./expes/v2_2020-12-03_dh_150-prng-1,30_issda_150,150,rng-150,61,rng,num-start-371,371,25726,3.4676356315612793,True,,True,1,False,1000,True,1.0
./expes/v2_2020-12-03_dh_150-prng-1,30_issda_150,150,rng-150,41,rng,num-start-151,151,25726,1.6021409034729004,True,,True,1,False,1000,True,1.0
./expes/v2_2020-12-03_dh_150-prng-1,30_issda_150,150,rng-150,71,rng,num-start-371,371,25726,3.39387583732605,True,,True,1,False,1000,True,1.0
./expes/v2_2020-12-03_dh_150-prng-1,30_issda_150,150,rng-150,71,rng,num-start-321,321,25726,3.2747414112091064,True,,True,1,False,1000,True,1.0
./expes/v2_2020-12-03_dh_150-prng-1,30_issda_150,150,rng-150,121,rng,num-start-251,251,25726,2.5639729499816895,True,,True,1,False,1000,True,1.0
./expes/v2_2020-12-03_dh_150-prng-1,30_issda_150,150,rng-150,31,rng,num-start-161,161,25726,1.735452651977539,True,,True,1,False,1000,True,1.0
./expes/v2_2020-12-03_dh_150-prng-1,30_issda_150,150,rng-150,81,rng,num-start-881,881,25726,8.459904432296753,True,,True,1,False,1000,True,1.0
./expes/v2_2020-12-03_dh_150-prng-1,30_issda_150,150,rng-150,81,rng,num-start-1,1,25726,0.08234190940856934,False,,False,2,False,1000,True,1.0
./expes/v2_2020-12-03_dh_150-prng-1,30_issda_150,150,rng-150,81,rng,num-start-721,721,25726,6.6902360916137695,True,,True,1,False,1000,True,1.0
./expes/v2_2020-12-03_dh_150-prng-1,30_issda_150,150,rng-150,51,rng,num-start-471,471,25726,4.526193141937256,True,,True,1,False,1000,True,1.0
./expes/v2_2020-12-03_dh_150-prng-1,30_issda_150,150,rng-150,31,rng,num-start-791,791,25726,8.237337350845337,True,,True,1,False,1000,True,1.0
./expes/v2_2020-12-03_dh_150-prng-1,30_issda_150,150,rng-150,141,rng,num-start-471,471,25726,3.870306968688965,True,,True,1,False,1000,True,1.0
./expes/v2_2020-12-03_dh_150-prng-1,30_issda_150,150,rng-150,41,rng,num-start-471,471,25726,4.4278786182403564,True,,True,1,False,1000,True,1.0
./expes/v2_2020-12-03_dh_150-prng-1,30_issda_150,150,rng-150,21,rng,num-start-791,791,25726,8.146957874298096,True,,True,1,False,1000,True,1.0
./expes/v2_2020-12-03_dh_150-prng-1,30_issda_150,150,rng-150,131,rng,num-start-81,81,25726,0.9340314865112305,True,,True,1,False,1000,True,1.0
./expes/v2_2020-12-03_dh_150-prng-1,30_issda_150,150,rng-150,121,rng,num-start-411,411,25726,3.7451999187469482,True,,True,1,False,1000,True,1.0
./expes/v2_2020-12-03_dh_150-prng-1,30_issda_150,150,rng-150,61,rng,num-start-501,501,25726,4.7107834815979,True,,True,1,False,1000,True,1.0
./expes/v2_2020-12-03_dh_150-prng-1,30_issda_150,150,rng-150,141,rng,num-start-101,101,25726,1.017759084701538,True,,True,1,False,1000,True,1.0
./expes/v2_2020-12-03_dh_150-prng-1,30_issda_150,150,rng-150,141,rng,num-start-891,891,25726,7.75520133972168,True,,True,1,False,1000,True,1.0
./expes/v2_2020-12-03_dh_150-prng-1,30_issda_150,150,rng-150,11,rng,num-start-491,491,25726,4.403864860534668,True,,True,1,False,1000,True,1.0
./expes/v2_2020-12-03_dh_150-prng-1,30_issda_150,150,rng-150,31,rng,num-start-261,261,25726,2.8360629081726074,True,,True,1,False,1000,True,1.0
./expes/v2_2020-12-03_dh_150-prng-1,30_issda_150,150,rng-150,131,rng,num-start-111,111,25726,1.2321889400482178,True,,True,1,False,1000,True,1.0
./expes/v2_2020-12-03_dh_150-prng-1,30_issda_150,150,rng-150,121,rng,num-start-351,351,25726,3.4950287342071533,True,,True,1,False,1000,True,1.0
./expes/v2_2020-12-03_dh_150-prng-1,30_issda_150,150,rng-150,101,rng,num-start-421,421,25726,4.244328260421753,True,,True,1,False,1000,True,1.0
./expes/v2_2020-12-03_dh_150-prng-1,30_issda_150,150,rng-150,81,rng,num-start-21,21,25726,1002.8166697025299,False,,False,0,True,1000,True,0.0
./expes/v2_2020-12-03_dh_150-prng-1,30_issda_150,150,rng-150,91,rng,num-start-81,81,25726,0.9981124401092529,True,,True,1,False,1000,True,1.0
./expes/v2_2020-12-03_dh_150-prng-1,30_issda_150,150,rng-150,41,rng,num-start-851,851,25726,8.615721940994263,True,,True,1,False,1000,True,1.0
./expes/v2_2020-12-03_dh_150-prng-1,30_issda_150,150,rng-150,41,rng,num-start-101,101,25726,1.3717191219329834,True,,True,1,False,1000,True,1.0
./expes/v2_2020-12-03_dh_150-prng-1,30_issda_150,150,rng-150,41,rng,num-start-701,701,25726,7.390544652938843,True,,True,1,False,1000,True,1.0
./expes/v2_2020-12-03_dh_150-prng-1,30_issda_150,150,rng-150,71,rng,num-start-201,201,25726,2.227173089981079,True,,True,1,False,1000,True,1.0
./expes/v2_2020-12-03_dh_150-prng-1,30_issda_150,150,rng-150,121,rng,num-start-291,291,25726,2.6927647590637207,True,,True,1,False,1000,True,1.0
./expes/v2_2020-12-03_dh_150-prng-1,30_issda_150,150,rng-150,81,rng,num-start-911,911,25726,9.234864234924316,True,,True,1,False,1000,True,1.0
./expes/v2_2020-12-03_dh_150-prng-1,30_issda_150,150,rng-150,1,rng,num-start-881,881,25726,7.102482795715332,True,,True,1,False,1000,True,1.0
./expes/v2_2020-12-03_dh_150-prng-1,30_issda_150,150,rng-150,121,rng,num-start-451,451,25726,4.837456464767456,True,,True,1,False,1000,True,1.0
./expes/v2_2020-12-03_dh_150-prng-1,30_issda_150,150,rng-150,61,rng,num-start-961,961,25726,9.839090585708618,True,,True,1,False,1000,True,1.0
./expes/v2_2020-12-03_dh_150-prng-1,30_issda_150,150,rng-150,141,rng,num-start-181,181,25726,1.48484206199646,True,,True,1,False,1000,True,1.0
./expes/v2_2020-12-03_dh_150-prng-1,30_issda_150,150,rng-150,11,rng,num-start-751,751,25726,6.423496246337891,True,,True,1,False,1000,True,1.0
./expes/v2_2020-12-03_dh_150-prng-1,30_issda_150,150,rng-150,1,rng,num-start-771,771,25726,6.257597208023071,True,,True,1,False,1000,True,1.0
./expes/v2_2020-12-03_dh_150-prng-1,30_issda_150,150,rng-150,61,rng,num-start-361,361,25726,3.9190256595611572,True,,True,1,False,1000,True,1.0
./expes/v2_2020-12-03_dh_150-prng-1,30_issda_150,150,rng-150,111,rng,num-start-231,231,25726,2.60333251953125,True,,True,1,False,1000,True,1.0
./expes/v2_2020-12-03_dh_150-prng-1,30_issda_150,150,rng-150,101,rng,num-start-921,921,25726,9.906456708908081,True,,True,1,False,1000,True,1.0
./expes/v2_2020-12-03_dh_150-prng-1,30_issda_150,150,rng-150,21,rng,num-start-831,831,25726,8.485204935073853,True,,True,1,False,1000,True,1.0
./expes/v2_2020-12-03_dh_150-prng-1,30_issda_150,150,rng-150,111,rng,num-start-421,421,25726,4.281590938568115,True,,True,1,False,1000,True,1.0
./expes/v2_2020-12-03_dh_150-prng-1,30_issda_150,150,rng-150,121,rng,num-start-151,151,25726,1.9393715858459473,True,,True,1,False,1000,True,1.0
./expes/v2_2020-12-03_dh_150-prng-1,30_issda_150,150,rng-150,41,rng,num-start-931,931,25726,10.437633037567139,True,,True,1,False,1000,True,1.0
./expes/v2_2020-12-03_dh_150-prng-1,30_issda_150,150,rng-150,21,rng,num-start-761,761,25726,8.020505666732788,True,,True,1,False,1000,True,1.0
./expes/v2_2020-12-03_dh_150-prng-1,30_issda_150,150,rng-150,91,rng,num-start-481,481,25726,5.4796507358551025,True,,True,1,False,1000,True,1.0
./expes/v2_2020-12-03_dh_150-prng-1,30_issda_150,150,rng-150,141,rng,num-start-321,321,25726,2.6436893939971924,True,,True,1,False,1000,True,1.0
./expes/v2_2020-12-03_dh_150-prng-1,30_issda_150,150,rng-150,101,rng,num-start-611,611,25726,5.8033716678619385,True,,True,1,False,1000,True,1.0
./expes/v2_2020-12-03_dh_150-prng-1,30_issda_150,150,rng-150,81,rng,num-start-161,161,25726,1.5903661251068115,True,,True,1,False,1000,True,1.0
./expes/v2_2020-12-03_dh_150-prng-1,30_issda_150,150,rng-150,111,rng,num-start-811,811,25726,8.434757947921753,True,,True,1,False,1000,True,1.0
./expes/v2_2020-12-03_dh_150-prng-1,30_issda_150,150,rng-150,71,rng,num-start-941,941,25726,10.216191053390503,True,,True,1,False,1000,True,1.0
./expes/v2_2020-12-03_dh_150-prng-1,30_issda_150,150,rng-150,131,rng,num-start-451,451,25726,4.2229955196380615,True,,True,1,False,1000,True,1.0
./expes/v2_2020-12-03_dh_150-prng-1,30_issda_150,150,rng-150,101,rng,num-start-11,11,25726,1000.6753871440887,False,,False,0,True,1000,True,0.0
./expes/v2_2020-12-03_dh_150-prng-1,30_issda_150,150,rng-150,131,rng,num-start-691,691,25726,6.5505664348602295,True,,True,1,False,1000,True,1.0
./expes/v2_2020-12-03_dh_150-prng-1,30_issda_150,150,rng-150,111,rng,num-start-961,961,25726,9.039783000946045,True,,True,1,False,1000,True,1.0
./expes/v2_2020-12-03_dh_150-prng-1,30_issda_150,150,rng-150,51,rng,num-start-101,101,25726,1.19429612159729,True,,True,1,False,1000,True,1.0
./expes/v2_2020-12-03_dh_150-prng-1,30_issda_150,150,rng-150,91,rng,num-start-781,781,25726,8.622448682785034,True,,True,1,False,1000,True,1.0
./expes/v2_2020-12-03_dh_150-prng-1,30_issda_150,150,rng-150,131,rng,num-start-391,391,25726,3.9765048027038574,True,,True,1,False,1000,True,1.0
./expes/v2_2020-12-03_dh_150-prng-1,30_issda_150,150,rng-150,21,rng,num-start-421,421,25726,3.7601311206817627,True,,True,1,False,1000,True,1.0
./expes/v2_2020-12-03_dh_150-prng-1,30_issda_150,150,rng-150,111,rng,num-start-301,301,25726,3.244948387145996,True,,True,1,False,1000,True,1.0
./expes/v2_2020-12-03_dh_150-prng-1,30_issda_150,150,rng-150,41,rng,num-start-21,21,25726,1001.8660712242126,False,,False,0,True,1000,True,0.0
./expes/v2_2020-12-03_dh_150-prng-1,30_issda_150,150,rng-150,91,rng,num-start-471,471,25726,5.078936576843262,True,,True,1,False,1000,True,1.0
./expes/v2_2020-12-03_dh_150-prng-1,30_issda_150,150,rng-150,51,rng,num-start-461,461,25726,4.899874925613403,True,,True,1,False,1000,True,1.0
./expes/v2_2020-12-03_dh_150-prng-1,30_issda_150,150,rng-150,131,rng,num-start-631,631,25726,6.226841449737549,True,,True,1,False,1000,True,1.0
./expes/v2_2020-12-03_dh_150-prng-1,30_issda_150,150,rng-150,81,rng,num-start-511,511,25726,5.624390602111816,True,,True,1,False,1000,True,1.0
./expes/v2_2020-12-03_dh_150-prng-1,30_issda_150,150,rng-150,41,rng,num-start-571,571,25726,6.131499528884888,True,,True,1,False,1000,True,1.0
./expes/v2_2020-12-03_dh_150-prng-1,30_issda_150,150,rng-150,51,rng,num-start-151,151,25726,1.81900954246521,True,,True,1,False,1000,True,1.0
./expes/v2_2020-12-03_dh_150-prng-1,30_issda_150,150,rng-150,91,rng,num-start-61,61,25726,1.880652666091919,True,,True,1,False,1000,True,1.0
./expes/v2_2020-12-03_dh_150-prng-1,30_issda_150,150,rng-150,111,rng,num-start-491,491,25726,5.399358510971069,True,,True,1,False,1000,True,1.0
./expes/v2_2020-12-03_dh_150-prng-1,30_issda_150,150,rng-150,11,rng,num-start-421,421,25726,3.545949935913086,True,,True,1,False,1000,True,1.0
./expes/v2_2020-12-03_dh_150-prng-1,30_issda_150,150,rng-150,51,rng,num-start-561,561,25726,5.453294277191162,True,,True,1,False,1000,True,1.0
./expes/v2_2020-12-03_dh_150-prng-1,30_issda_150,150,rng-150,1,rng,num-start-831,831,25726,6.6078619956970215,True,,True,1,False,1000,True,1.0
./expes/v2_2020-12-03_dh_150-prng-1,30_issda_150,150,rng-150,1,rng,num-start-341,341,25726,2.7228145599365234,True,,True,1,False,1000,True,1.0
./expes/v2_2020-12-03_dh_150-prng-1,30_issda_150,150,rng-150,51,rng,num-start-701,701,25726,6.668723821640015,True,,True,1,False,1000,True,1.0
./expes/v2_2020-12-03_dh_150-prng-1,30_issda_150,150,rng-150,1,rng,num-start-501,501,25726,4.063283205032349,True,,True,1,False,1000,True,1.0
./expes/v2_2020-12-03_dh_150-prng-1,30_issda_150,150,rng-150,41,rng,num-start-781,781,25726,7.714768886566162,True,,True,1,False,1000,True,1.0
./expes/v2_2020-12-03_dh_150-prng-1,30_issda_150,150,rng-150,91,rng,num-start-711,711,25726,6.445276737213135,True,,True,1,False,1000,True,1.0
./expes/v2_2020-12-03_dh_150-prng-1,30_issda_150,150,rng-150,91,rng,num-start-891,891,25726,8.72885775566101,True,,True,1,False,1000,True,1.0
./expes/v2_2020-12-03_dh_150-prng-1,30_issda_150,150,rng-150,41,rng,num-start-431,431,25726,4.322346210479736,False,,False,2,False,1000,True,1.0
./expes/v2_2020-12-03_dh_150-prng-1,30_issda_150,150,rng-150,81,rng,num-start-221,221,25726,2.3572921752929688,True,,True,1,False,1000,True,1.0
./expes/v2_2020-12-03_dh_150-prng-1,30_issda_150,150,rng-150,51,rng,num-start-61,61,25726,0.8464870452880859,True,,True,1,False,1000,True,1.0
./expes/v2_2020-12-03_dh_150-prng-1,30_issda_150,150,rng-150,91,rng,num-start-191,191,25726,2.0595829486846924,True,,True,1,False,1000,True,1.0
./expes/v2_2020-12-03_dh_150-prng-1,30_issda_150,150,rng-150,121,rng,num-start-21,21,25726,25.943658590316772,True,,True,1,False,1000,True,1.0
./expes/v2_2020-12-03_dh_150-prng-1,30_issda_150,150,rng-150,41,rng,num-start-811,811,25726,8.27508544921875,True,,True,1,False,1000,True,1.0
./expes/v2_2020-12-03_dh_150-prng-1,30_issda_150,150,rng-150,141,rng,num-start-431,431,25726,3.7127304077148438,True,,True,1,False,1000,True,1.0
./expes/v2_2020-12-03_dh_150-prng-1,30_issda_150,150,rng-150,61,rng,num-start-181,181,25726,1.9986658096313477,True,,True,1,False,1000,True,1.0
./expes/v2_2020-12-03_dh_150-prng-1,30_issda_150,150,rng-150,21,rng,num-start-111,111,25726,1.1729204654693604,True,,True,1,False,1000,True,1.0
./expes/v2_2020-12-03_dh_150-prng-1,30_issda_150,150,rng-150,51,rng,num-start-491,491,25726,5.04304575920105,True,,True,1,False,1000,True,1.0
./expes/v2_2020-12-03_dh_150-prng-1,30_issda_150,150,rng-150,111,rng,num-start-11,11,25726,1001.5442879199982,False,,False,0,True,1000,True,0.0
./expes/v2_2020-12-03_dh_150-prng-1,30_issda_150,150,rng-150,91,rng,num-start-171,171,25726,1.8540582656860352,True,,True,1,False,1000,True,1.0
./expes/v2_2020-12-03_dh_150-prng-1,30_issda_150,150,rng-150,101,rng,num-start-641,641,25726,7.169405221939087,True,,True,1,False,1000,True,1.0
./expes/v2_2020-12-03_dh_150-prng-1,30_issda_150,150,rng-150,41,rng,num-start-901,901,25726,7.957767009735107,True,,True,1,False,1000,True,1.0
./expes/v2_2020-12-03_dh_150-prng-1,30_issda_150,150,rng-150,101,rng,num-start-521,521,25726,4.779889345169067,True,,True,1,False,1000,True,1.0
./expes/v2_2020-12-03_dh_150-prng-1,30_issda_150,150,rng-150,31,rng,num-start-261,261,25726,3.0767343044281006,True,,True,1,False,1000,True,1.0
./expes/v2_2020-12-03_dh_150-prng-1,30_issda_150,150,rng-150,31,rng,num-start-961,961,25726,8.769193887710571,True,,True,1,False,1000,True,1.0
./expes/v2_2020-12-03_dh_150-prng-1,30_issda_150,150,rng-150,61,rng,num-start-641,641,25726,6.248208999633789,True,,True,1,False,1000,True,1.0
./expes/v2_2020-12-03_dh_150-prng-1,30_issda_150,150,rng-150,81,rng,num-start-821,821,25726,8.83026933670044,True,,True,1,False,1000,True,1.0
./expes/v2_2020-12-03_dh_150-prng-1,30_issda_150,150,rng-150,51,rng,num-start-571,571,25726,5.546870946884155,True,,True,1,False,1000,True,1.0
./expes/v2_2020-12-03_dh_150-prng-1,30_issda_150,150,rng-150,31,rng,num-start-841,841,25726,9.674049854278564,True,,True,1,False,1000,True,1.0
./expes/v2_2020-12-03_dh_150-prng-1,30_issda_150,150,rng-150,131,rng,num-start-51,51,25726,0.6242432594299316,True,,True,1,False,1000,True,1.0
./expes/v2_2020-12-03_dh_150-prng-1,30_issda_150,150,rng-150,91,rng,num-start-411,411,25726,4.0751142501831055,True,,True,1,False,1000,True,1.0
./expes/v2_2020-12-03_dh_150-prng-1,30_issda_150,150,rng-150,71,rng,num-start-471,471,25726,4.451707363128662,True,,True,1,False,1000,True,1.0
./expes/v2_2020-12-03_dh_150-prng-1,30_issda_150,150,rng-150,121,rng,num-start-631,631,25726,5.743842840194702,True,,True,1,False,1000,True,1.0
./expes/v2_2020-12-03_dh_150-prng-1,30_issda_150,150,rng-150,121,rng,num-start-721,721,25726,7.8790905475616455,True,,True,1,False,1000,True,1.0
./expes/v2_2020-12-03_dh_150-prng-1,30_issda_150,150,rng-150,1,rng,num-start-201,201,25726,1.7583682537078857,True,,True,1,False,1000,True,1.0
./expes/v2_2020-12-03_dh_150-prng-1,30_issda_150,150,rng-150,41,rng,num-start-101,101,25726,1.1948869228363037,True,,True,1,False,1000,True,1.0
./expes/v2_2020-12-03_dh_150-prng-1,30_issda_150,150,rng-150,61,rng,num-start-261,261,25726,2.7053492069244385,True,,True,1,False,1000,True,1.0
./expes/v2_2020-12-03_dh_150-prng-1,30_issda_150,150,rng-150,131,rng,num-start-681,681,25726,6.593047142028809,True,,True,1,False,1000,True,1.0
./expes/v2_2020-12-03_dh_150-prng-1,30_issda_150,150,rng-150,81,rng,num-start-391,391,25726,4.109688997268677,True,,True,1,False,1000,True,1.0
./expes/v2_2020-12-03_dh_150-prng-1,30_issda_150,150,rng-150,101,rng,num-start-871,871,25726,8.937396764755249,True,,True,1,False,1000,True,1.0
./expes/v2_2020-12-03_dh_150-prng-1,30_issda_150,150,rng-150,71,rng,num-start-951,951,25726,9.809138298034668,True,,True,1,False,1000,True,1.0
./expes/v2_2020-12-03_dh_150-prng-1,30_issda_150,150,rng-150,131,rng,num-start-651,651,25726,7.0320892333984375,True,,True,1,False,1000,True,1.0
./expes/v2_2020-12-03_dh_150-prng-1,30_issda_150,150,rng-150,111,rng,num-start-251,251,25726,2.475687265396118,True,,True,1,False,1000,True,1.0
./expes/v2_2020-12-03_dh_150-prng-1,30_issda_150,150,rng-150,31,rng,num-start-371,371,25726,3.7424139976501465,True,,True,1,False,1000,True,1.0
./expes/v2_2020-12-03_dh_150-prng-1,30_issda_150,150,rng-150,11,rng,num-start-451,451,25726,4.287746429443359,True,,True,1,False,1000,True,1.0
./expes/v2_2020-12-03_dh_150-prng-1,30_issda_150,150,rng-150,1,rng,num-start-81,81,25726,0.6387584209442139,True,,True,1,False,1000,True,1.0
./expes/v2_2020-12-03_dh_150-prng-1,30_issda_150,150,rng-150,131,rng,num-start-951,951,25726,9.009937763214111,True,,True,1,False,1000,True,1.0
./expes/v2_2020-12-03_dh_150-prng-1,30_issda_150,150,rng-150,81,rng,num-start-501,501,25726,5.739481210708618,True,,True,1,False,1000,True,1.0
./expes/v2_2020-12-03_dh_150-prng-1,30_issda_150,150,rng-150,21,rng,num-start-541,541,25726,5.4146668910980225,True,,True,1,False,1000,True,1.0
./expes/v2_2020-12-03_dh_150-prng-1,30_issda_150,150,rng-150,131,rng,num-start-611,611,25726,5.688263416290283,True,,True,1,False,1000,True,1.0
./expes/v2_2020-12-03_dh_150-prng-1,30_issda_150,150,rng-150,141,rng,num-start-841,841,25726,6.832777261734009,True,,True,1,False,1000,True,1.0
./expes/v2_2020-12-03_dh_150-prng-1,30_issda_150,150,rng-150,11,rng,num-start-431,431,25726,3.6104838848114014,True,,True,1,False,1000,True,1.0
./expes/v2_2020-12-03_dh_150-prng-1,30_issda_150,150,rng-150,41,rng,num-start-581,581,25726,6.303222179412842,True,,True,1,False,1000,True,1.0
./expes/v2_2020-12-03_dh_150-prng-1,30_issda_150,150,rng-150,111,rng,num-start-781,781,25726,7.794634819030762,True,,True,1,False,1000,True,1.0
./expes/v2_2020-12-03_dh_150-prng-1,30_issda_150,150,rng-150,41,rng,num-start-911,911,25726,9.249462366104126,True,,True,1,False,1000,True,1.0
./expes/v2_2020-12-03_dh_150-prng-1,30_issda_150,150,rng-150,21,rng,num-start-861,861,25726,9.467430353164673,True,,True,1,False,1000,True,1.0
./expes/v2_2020-12-03_dh_150-prng-1,30_issda_150,150,rng-150,121,rng,num-start-461,461,25726,4.672005891799927,True,,True,1,False,1000,True,1.0
./expes/v2_2020-12-03_dh_150-prng-1,30_issda_150,150,rng-150,1,rng,num-start-611,611,25726,4.918038368225098,True,,True,1,False,1000,True,1.0
./expes/v2_2020-12-03_dh_150-prng-1,30_issda_150,150,rng-150,91,rng,num-start-911,911,25726,8.911426544189453,True,,True,1,False,1000,True,1.0
./expes/v2_2020-12-03_dh_150-prng-1,30_issda_150,150,rng-150,101,rng,num-start-461,461,25726,4.369972229003906,True,,True,1,False,1000,True,1.0
./expes/v2_2020-12-03_dh_150-prng-1,30_issda_150,150,rng-150,1,rng,num-start-451,451,25726,3.864311695098877,True,,True,1,False,1000,True,1.0
./expes/v2_2020-12-03_dh_150-prng-1,30_issda_150,150,rng-150,71,rng,num-start-731,731,25726,6.782393455505371,True,,True,1,False,1000,True,1.0
./expes/v2_2020-12-03_dh_150-prng-1,30_issda_150,150,rng-150,41,rng,num-start-511,511,25726,6.117743968963623,True,,True,1,False,1000,True,1.0
./expes/v2_2020-12-03_dh_150-prng-1,30_issda_150,150,rng-150,101,rng,num-start-461,461,25726,4.889122247695923,True,,True,1,False,1000,True,1.0
./expes/v2_2020-12-03_dh_150-prng-1,30_issda_150,150,rng-150,41,rng,num-start-871,871,25726,8.919405460357666,True,,True,1,False,1000,True,1.0
./expes/v2_2020-12-03_dh_150-prng-1,30_issda_150,150,rng-150,121,rng,num-start-851,851,25726,8.979703903198242,True,,True,1,False,1000,True,1.0
./expes/v2_2020-12-03_dh_150-prng-1,30_issda_150,150,rng-150,121,rng,num-start-341,341,25726,3.4117543697357178,True,,True,1,False,1000,True,1.0
./expes/v2_2020-12-03_dh_150-prng-1,30_issda_150,150,rng-150,71,rng,num-start-931,931,25726,10.712912559509277,True,,True,1,False,1000,True,1.0
./expes/v2_2020-12-03_dh_150-prng-1,30_issda_150,150,rng-150,91,rng,num-start-601,601,25726,5.654971361160278,True,,True,1,False,1000,True,1.0
./expes/v2_2020-12-03_dh_150-prng-1,30_issda_150,150,rng-150,121,rng,num-start-561,561,25726,5.4498984813690186,True,,True,1,False,1000,True,1.0
./expes/v2_2020-12-03_dh_150-prng-1,30_issda_150,150,rng-150,141,rng,num-start-831,831,25726,7.114780902862549,True,,True,1,False,1000,True,1.0
./expes/v2_2020-12-03_dh_150-prng-1,30_issda_150,150,rng-150,131,rng,num-start-61,61,25726,0.9558649063110352,True,,True,1,False,1000,True,1.0
./expes/v2_2020-12-03_dh_150-prng-1,30_issda_150,150,rng-150,21,rng,num-start-851,851,25726,9.815095663070679,True,,True,1,False,1000,True,1.0
./expes/v2_2020-12-03_dh_150-prng-1,30_issda_150,150,rng-150,31,rng,num-start-381,381,25726,3.6667869091033936,True,,True,1,False,1000,True,1.0
./expes/v2_2020-12-03_dh_150-prng-1,30_issda_150,150,rng-150,61,rng,num-start-471,471,25726,4.939932346343994,True,,True,1,False,1000,True,1.0
./expes/v2_2020-12-03_dh_150-prng-1,30_issda_150,150,rng-150,131,rng,num-start-981,981,25726,8.642752408981323,True,,True,1,False,1000,True,1.0
./expes/v2_2020-12-03_dh_150-prng-1,30_issda_150,150,rng-150,121,rng,num-start-821,821,25726,8.180442810058594,True,,True,1,False,1000,True,1.0
./expes/v2_2020-12-03_dh_150-prng-1,30_issda_150,150,rng-150,51,rng,num-start-161,161,25726,1.7618730068206787,True,,True,1,False,1000,True,1.0
./expes/v2_2020-12-03_dh_150-prng-1,30_issda_150,150,rng-150,11,rng,num-start-61,61,25726,0.7165107727050781,True,,True,1,False,1000,True,1.0
./expes/v2_2020-12-03_dh_150-prng-1,30_issda_150,150,rng-150,21,rng,num-start-421,421,25726,4.7097485065460205,True,,True,1,False,1000,True,1.0
./expes/v2_2020-12-03_dh_150-prng-1,30_issda_150,150,rng-150,101,rng,num-start-571,571,25726,5.96940279006958,True,,True,1,False,1000,True,1.0
./expes/v2_2020-12-03_dh_150-prng-1,30_issda_150,150,rng-150,91,rng,num-start-431,431,25726,4.628955841064453,True,,True,1,False,1000,True,1.0
./expes/v2_2020-12-03_dh_150-prng-1,30_issda_150,150,rng-150,61,rng,num-start-581,581,25726,5.558046579360962,True,,True,1,False,1000,True,1.0
./expes/v2_2020-12-03_dh_150-prng-1,30_issda_150,150,rng-150,21,rng,num-start-531,531,25726,5.030772924423218,True,,True,1,False,1000,True,1.0
./expes/v2_2020-12-03_dh_150-prng-1,30_issda_150,150,rng-150,41,rng,num-start-371,371,25726,4.008929967880249,True,,True,1,False,1000,True,1.0
./expes/v2_2020-12-03_dh_150-prng-1,30_issda_150,150,rng-150,61,rng,num-start-561,561,25726,6.112842798233032,True,,True,1,False,1000,True,1.0
./expes/v2_2020-12-03_dh_150-prng-1,30_issda_150,150,rng-150,131,rng,num-start-241,241,25726,2.974543571472168,True,,True,1,False,1000,True,1.0
./expes/v2_2020-12-03_dh_150-prng-1,30_issda_150,150,rng-150,61,rng,num-start-31,31,25726,1002.1122071743011,False,,False,0,True,1000,True,0.0
./expes/v2_2020-12-03_dh_150-prng-1,30_issda_150,150,rng-150,61,rng,num-start-171,171,25726,2.0022759437561035,True,,True,1,False,1000,True,1.0
./expes/v2_2020-12-03_dh_150-prng-1,30_issda_150,150,rng-150,131,rng,num-start-771,771,25726,6.995109558105469,True,,True,1,False,1000,True,1.0
./expes/v2_2020-12-03_dh_150-prng-1,30_issda_150,150,rng-150,111,rng,num-start-681,681,25726,6.927890300750732,True,,True,1,False,1000,True,1.0
./expes/v2_2020-12-03_dh_150-prng-1,30_issda_150,150,rng-150,1,rng,num-start-131,131,25726,1.1132748126983643,True,,True,1,False,1000,True,1.0
./expes/v2_2020-12-03_dh_150-prng-1,30_issda_150,150,rng-150,91,rng,num-start-421,421,25726,4.233867883682251,True,,True,1,False,1000,True,1.0
./expes/v2_2020-12-03_dh_150-prng-1,30_issda_150,150,rng-150,11,rng,num-start-361,361,25726,3.2822141647338867,True,,True,1,False,1000,True,1.0
./expes/v2_2020-12-03_dh_150-prng-1,30_issda_150,150,rng-150,11,rng,num-start-31,31,25726,0.3928685188293457,True,,True,1,False,1000,True,1.0
./expes/v2_2020-12-03_dh_150-prng-1,30_issda_150,150,rng-150,21,rng,num-start-81,81,25726,0.8949334621429443,True,,True,1,False,1000,True,1.0
./expes/v2_2020-12-03_dh_150-prng-1,30_issda_150,150,rng-150,91,rng,num-start-671,671,25726,7.055594444274902,True,,True,1,False,1000,True,1.0
./expes/v2_2020-12-03_dh_150-prng-1,30_issda_150,150,rng-150,141,rng,num-start-501,501,25726,4.074495792388916,True,,True,1,False,1000,True,1.0
./expes/v2_2020-12-03_dh_150-prng-1,30_issda_150,150,rng-150,11,rng,num-start-901,901,25726,7.171998500823975,True,,True,1,False,1000,True,1.0
./expes/v2_2020-12-03_dh_150-prng-1,30_issda_150,150,rng-150,131,rng,num-start-41,41,25726,0.8536324501037598,True,,True,1,False,1000,True,1.0
./expes/v2_2020-12-03_dh_150-prng-1,30_issda_150,150,rng-150,81,rng,num-start-901,901,25726,10.239067792892456,True,,True,1,False,1000,True,1.0
./expes/v2_2020-12-03_dh_150-prng-1,30_issda_150,150,rng-150,61,rng,num-start-971,971,25726,9.93222713470459,True,,True,1,False,1000,True,1.0
./expes/v2_2020-12-03_dh_150-prng-1,30_issda_150,150,rng-150,121,rng,num-start-221,221,25726,2.135169744491577,True,,True,1,False,1000,True,1.0
./expes/v2_2020-12-03_dh_150-prng-1,30_issda_150,150,rng-150,51,rng,num-start-691,691,25726,6.175568103790283,True,,True,1,False,1000,True,1.0
./expes/v2_2020-12-03_dh_150-prng-1,30_issda_150,150,rng-150,51,rng,num-start-81,81,25726,0.8597559928894043,True,,True,1,False,1000,True,1.0
./expes/v2_2020-12-03_dh_150-prng-1,30_issda_150,150,rng-150,121,rng,num-start-481,481,25726,4.458976984024048,True,,True,1,False,1000,True,1.0
./expes/v2_2020-12-03_dh_150-prng-1,30_issda_150,150,rng-150,131,rng,num-start-971,971,25726,9.905388355255127,True,,True,1,False,1000,True,1.0
./expes/v2_2020-12-03_dh_150-prng-1,30_issda_150,150,rng-150,121,rng,num-start-281,281,25726,3.134098529815674,True,,True,1,False,1000,True,1.0
./expes/v2_2020-12-03_dh_150-prng-1,30_issda_150,150,rng-150,71,rng,num-start-1,1,25726,0.18523812294006348,False,,False,2,False,1000,True,1.0
./expes/v2_2020-12-03_dh_150-prng-1,30_issda_150,150,rng-150,51,rng,num-start-311,311,25726,2.8161911964416504,True,,True,1,False,1000,True,1.0
./expes/v2_2020-12-03_dh_150-prng-1,30_issda_150,150,rng-150,121,rng,num-start-611,611,25726,5.745195627212524,True,,True,1,False,1000,True,1.0
./expes/v2_2020-12-03_dh_150-prng-1,30_issda_150,150,rng-150,91,rng,num-start-471,471,25726,4.360650062561035,True,,True,1,False,1000,True,1.0
./expes/v2_2020-12-03_dh_150-prng-1,30_issda_150,150,rng-150,81,rng,num-start-181,181,25726,2.0746397972106934,True,,True,1,False,1000,True,1.0
./expes/v2_2020-12-03_dh_150-prng-1,30_issda_150,150,rng-150,31,rng,num-start-801,801,25726,8.680084943771362,True,,True,1,False,1000,True,1.0
./expes/v2_2020-12-03_dh_150-prng-1,30_issda_150,150,rng-150,141,rng,num-start-701,701,25726,6.056708574295044,True,,True,1,False,1000,True,1.0
./expes/v2_2020-12-03_dh_150-prng-1,30_issda_150,150,rng-150,81,rng,num-start-461,461,25726,5.030423879623413,True,,True,1,False,1000,True,1.0
./expes/v2_2020-12-03_dh_150-prng-1,30_issda_150,150,rng-150,51,rng,num-start-181,181,25726,2.0398147106170654,True,,True,1,False,1000,True,1.0
./expes/v2_2020-12-03_dh_150-prng-1,30_issda_150,150,rng-150,91,rng,num-start-411,411,25726,4.7094995975494385,True,,True,1,False,1000,True,1.0
./expes/v2_2020-12-03_dh_150-prng-1,30_issda_150,150,rng-150,11,rng,num-start-201,201,25726,2.0380899906158447,True,,True,1,False,1000,True,1.0
./expes/v2_2020-12-03_dh_150-prng-1,30_issda_150,150,rng-150,121,rng,num-start-61,61,25726,0.9361357688903809,True,,True,1,False,1000,True,1.0
./expes/v2_2020-12-03_dh_150-prng-1,30_issda_150,150,rng-150,11,rng,num-start-571,571,25726,5.002241849899292,True,,True,1,False,1000,True,1.0
./expes/v2_2020-12-03_dh_150-prng-1,30_issda_150,150,rng-150,121,rng,num-start-461,461,25726,4.33653450012207,True,,True,1,False,1000,True,1.0
./expes/v2_2020-12-03_dh_150-prng-1,30_issda_150,150,rng-150,21,rng,num-start-641,641,25726,6.5558154582977295,True,,True,1,False,1000,True,1.0
./expes/v2_2020-12-03_dh_150-prng-1,30_issda_150,150,rng-150,71,rng,num-start-251,251,25726,2.698070764541626,True,,True,1,False,1000,True,1.0
./expes/v2_2020-12-03_dh_150-prng-1,30_issda_150,150,rng-150,61,rng,num-start-881,881,25726,8.632177114486694,True,,True,1,False,1000,True,1.0
./expes/v2_2020-12-03_dh_150-prng-1,30_issda_150,150,rng-150,101,rng,num-start-801,801,25726,9.266707181930542,True,,True,1,False,1000,True,1.0
./expes/v2_2020-12-03_dh_150-prng-1,30_issda_150,150,rng-150,111,rng,num-start-821,821,25726,9.128843545913696,True,,True,1,False,1000,True,1.0
./expes/v2_2020-12-03_dh_150-prng-1,30_issda_150,150,rng-150,61,rng,num-start-71,71,25726,0.9815852642059326,True,,True,1,False,1000,True,1.0
./expes/v2_2020-12-03_dh_150-prng-1,30_issda_150,150,rng-150,141,rng,num-start-621,621,25726,4.911508083343506,True,,True,1,False,1000,True,1.0
./expes/v2_2020-12-03_dh_150-prng-1,30_issda_150,150,rng-150,61,rng,num-start-601,601,25726,6.058654308319092,True,,True,1,False,1000,True,1.0
./expes/v2_2020-12-03_dh_150-prng-1,30_issda_150,150,rng-150,71,rng,num-start-271,271,25726,3.0161991119384766,True,,True,1,False,1000,True,1.0
./expes/v2_2020-12-03_dh_150-prng-1,30_issda_150,150,rng-150,41,rng,num-start-311,311,25726,3.634337902069092,True,,True,1,False,1000,True,1.0
./expes/v2_2020-12-03_dh_150-prng-1,30_issda_150,150,rng-150,131,rng,num-start-501,501,25726,4.609752416610718,True,,True,1,False,1000,True,1.0
./expes/v2_2020-12-03_dh_150-prng-1,30_issda_150,150,rng-150,11,rng,num-start-551,551,25726,5.208189249038696,True,,True,1,False,1000,True,1.0
./expes/v2_2020-12-03_dh_150-prng-1,30_issda_150,150,rng-150,41,rng,num-start-901,901,25726,9.674050092697144,True,,True,1,False,1000,True,1.0
./expes/v2_2020-12-03_dh_150-prng-1,30_issda_150,150,rng-150,51,rng,num-start-571,571,25726,6.26951789855957,True,,True,1,False,1000,True,1.0
./expes/v2_2020-12-03_dh_150-prng-1,30_issda_150,150,rng-150,21,rng,num-start-831,831,25726,8.589699983596802,True,,True,1,False,1000,True,1.0
./expes/v2_2020-12-03_dh_150-prng-1,30_issda_150,150,rng-150,31,rng,num-start-501,501,25726,4.790730714797974,True,,True,1,False,1000,True,1.0
./expes/v2_2020-12-03_dh_150-prng-1,30_issda_150,150,rng-150,41,rng,num-start-171,171,25726,1.7845509052276611,True,,True,1,False,1000,True,1.0
./expes/v2_2020-12-03_dh_150-prng-1,30_issda_150,150,rng-150,71,rng,num-start-81,81,25726,0.947899341583252,True,,True,1,False,1000,True,1.0
./expes/v2_2020-12-03_dh_150-prng-1,30_issda_150,150,rng-150,111,rng,num-start-141,141,25726,1.5577020645141602,True,,True,1,False,1000,True,1.0
./expes/v2_2020-12-03_dh_150-prng-1,30_issda_150,150,rng-150,91,rng,num-start-961,961,25726,9.953116416931152,True,,True,1,False,1000,True,1.0
./expes/v2_2020-12-03_dh_150-prng-1,30_issda_150,150,rng-150,51,rng,num-start-541,541,25726,5.532417297363281,True,,True,1,False,1000,True,1.0
./expes/v2_2020-12-03_dh_150-prng-1,30_issda_150,150,rng-150,31,rng,num-start-161,161,25726,1.6677446365356445,True,,True,1,False,1000,True,1.0
./expes/v2_2020-12-03_dh_150-prng-1,30_issda_150,150,rng-150,11,rng,num-start-861,861,25726,7.079820871353149,True,,True,1,False,1000,True,1.0
./expes/v2_2020-12-03_dh_150-prng-1,30_issda_150,150,rng-150,21,rng,num-start-361,361,25726,4.0316994190216064,True,,True,1,False,1000,True,1.0
./expes/v2_2020-12-03_dh_150-prng-1,30_issda_150,150,rng-150,131,rng,num-start-51,51,25726,0.7429547309875488,True,,True,1,False,1000,True,1.0
./expes/v2_2020-12-03_dh_150-prng-1,30_issda_150,150,rng-150,21,rng,num-start-931,931,25726,9.221682071685791,True,,True,1,False,1000,True,1.0
./expes/v2_2020-12-03_dh_150-prng-1,30_issda_150,150,rng-150,131,rng,num-start-51,51,25726,0.5996215343475342,True,,True,1,False,1000,True,1.0
./expes/v2_2020-12-03_dh_150-prng-1,30_issda_150,150,rng-150,11,rng,num-start-71,71,25726,0.8671677112579346,True,,True,1,False,1000,True,1.0
./expes/v2_2020-12-03_dh_150-prng-1,30_issda_150,150,rng-150,91,rng,num-start-31,31,25726,1004.2563059329987,False,,False,0,True,1000,True,0.0
./expes/v2_2020-12-03_dh_150-prng-1,30_issda_150,150,rng-150,51,rng,num-start-791,791,25726,8.351606845855713,True,,True,1,False,1000,True,1.0
./expes/v2_2020-12-03_dh_150-prng-1,30_issda_150,150,rng-150,41,rng,num-start-511,511,25726,5.246166467666626,True,,True,1,False,1000,True,1.0
./expes/v2_2020-12-03_dh_150-prng-1,30_issda_150,150,rng-150,81,rng,num-start-901,901,25726,9.112020254135132,True,,True,1,False,1000,True,1.0
./expes/v2_2020-12-03_dh_150-prng-1,30_issda_150,150,rng-150,101,rng,num-start-281,281,25726,2.9892172813415527,True,,True,1,False,1000,True,1.0
./expes/v2_2020-12-03_dh_150-prng-1,30_issda_150,150,rng-150,11,rng,num-start-481,481,25726,4.7751569747924805,True,,True,1,False,1000,True,1.0
./expes/v2_2020-12-03_dh_150-prng-1,30_issda_150,150,rng-150,121,rng,num-start-151,151,25726,1.6560320854187012,True,,True,1,False,1000,True,1.0
./expes/v2_2020-12-03_dh_150-prng-1,30_issda_150,150,rng-150,101,rng,num-start-581,581,25726,6.040708780288696,True,,True,1,False,1000,True,1.0
./expes/v2_2020-12-03_dh_150-prng-1,30_issda_150,150,rng-150,11,rng,num-start-511,511,25726,4.748596668243408,True,,True,1,False,1000,True,1.0
./expes/v2_2020-12-03_dh_150-prng-1,30_issda_150,150,rng-150,81,rng,num-start-471,471,25726,4.276874303817749,True,,True,1,False,1000,True,1.0
./expes/v2_2020-12-03_dh_150-prng-1,30_issda_150,150,rng-150,51,rng,num-start-591,591,25726,5.75737738609314,True,,True,1,False,1000,True,1.0
./expes/v2_2020-12-03_dh_150-prng-1,30_issda_150,150,rng-150,41,rng,num-start-71,71,25726,0.930605411529541,True,,True,1,False,1000,True,1.0
./expes/v2_2020-12-03_dh_150-prng-1,30_issda_150,150,rng-150,61,rng,num-start-261,261,25726,3.056089162826538,True,,True,1,False,1000,True,1.0
./expes/v2_2020-12-03_dh_150-prng-1,30_issda_150,150,rng-150,131,rng,num-start-981,981,25726,8.903718709945679,True,,True,1,False,1000,True,1.0
./expes/v2_2020-12-03_dh_150-prng-1,30_issda_150,150,rng-150,1,rng,num-start-681,681,25726,5.4546191692352295,True,,True,1,False,1000,True,1.0
./expes/v2_2020-12-03_dh_150-prng-1,30_issda_150,150,rng-150,21,rng,num-start-601,601,25726,5.502361297607422,True,,True,1,False,1000,True,1.0
./expes/v2_2020-12-03_dh_150-prng-1,30_issda_150,150,rng-150,1,rng,num-start-41,41,25726,0.32209038734436035,True,,True,1,False,1000,True,1.0
./expes/v2_2020-12-03_dh_150-prng-1,30_issda_150,150,rng-150,51,rng,num-start-121,121,25726,1.6094870567321777,True,,True,1,False,1000,True,1.0
./expes/v2_2020-12-03_dh_150-prng-1,30_issda_150,150,rng-150,91,rng,num-start-251,251,25726,2.9606094360351562,True,,True,1,False,1000,True,1.0
./expes/v2_2020-12-03_dh_150-prng-1,30_issda_150,150,rng-150,141,rng,num-start-181,181,25726,1.970658779144287,True,,True,1,False,1000,True,1.0
./expes/v2_2020-12-03_dh_150-prng-1,30_issda_150,150,rng-150,131,rng,num-start-131,131,25726,1.4563629627227783,True,,True,1,False,1000,True,1.0
./expes/v2_2020-12-03_dh_150-prng-1,30_issda_150,150,rng-150,1,rng,num-start-791,791,25726,6.303408861160278,True,,True,1,False,1000,True,1.0
./expes/v2_2020-12-03_dh_150-prng-1,30_issda_150,150,rng-150,41,rng,num-start-981,981,25726,10.104204893112183,True,,True,1,False,1000,True,1.0
./expes/v2_2020-12-03_dh_150-prng-1,30_issda_150,150,rng-150,131,rng,num-start-951,951,25726,9.528023719787598,True,,True,1,False,1000,True,1.0
./expes/v2_2020-12-03_dh_150-prng-1,30_issda_150,150,rng-150,1,rng,num-start-81,81,25726,0.731823205947876,True,,True,1,False,1000,True,1.0
./expes/v2_2020-12-03_dh_150-prng-1,30_issda_150,150,rng-150,111,rng,num-start-451,451,25726,4.885541200637817,True,,True,1,False,1000,True,1.0
./expes/v2_2020-12-03_dh_150-prng-1,30_issda_150,150,rng-150,101,rng,num-start-11,11,25726,1000.1735064983368,False,,False,0,True,1000,True,0.0
./expes/v2_2020-12-03_dh_150-prng-1,30_issda_150,150,rng-150,91,rng,num-start-71,71,25726,0.9584708213806152,True,,True,1,False,1000,True,1.0
./expes/v2_2020-12-03_dh_150-prng-1,30_issda_150,150,rng-150,31,rng,num-start-901,901,25726,8.648417711257935,True,,True,1,False,1000,True,1.0
./expes/v2_2020-12-03_dh_150-prng-1,30_issda_150,150,rng-150,91,rng,num-start-61,61,25726,1.6440045833587646,True,,True,1,False,1000,True,1.0
./expes/v2_2020-12-03_dh_150-prng-1,30_issda_150,150,rng-150,41,rng,num-start-401,401,25726,4.113398313522339,True,,True,1,False,1000,True,1.0
./expes/v2_2020-12-03_dh_150-prng-1,30_issda_150,150,rng-150,31,rng,num-start-531,531,25726,5.251403093338013,True,,True,1,False,1000,True,1.0
./expes/v2_2020-12-03_dh_150-prng-1,30_issda_150,150,rng-150,21,rng,num-start-41,41,25726,0.8983974456787109,True,,True,1,False,1000,True,1.0
./expes/v2_2020-12-03_dh_150-prng-1,30_issda_150,150,rng-150,41,rng,num-start-301,301,25726,3.703352928161621,True,,True,1,False,1000,True,1.0
./expes/v2_2020-12-03_dh_150-prng-1,30_issda_150,150,rng-150,11,rng,num-start-551,551,25726,4.73967170715332,True,,True,1,False,1000,True,1.0
./expes/v2_2020-12-03_dh_150-prng-1,30_issda_150,150,rng-150,101,rng,num-start-1,1,25726,0.03677725791931152,False,,False,2,False,1000,True,1.0
./expes/v2_2020-12-03_dh_150-prng-1,30_issda_150,150,rng-150,31,rng,num-start-161,161,25726,1.8453104496002197,True,,True,1,False,1000,True,1.0
./expes/v2_2020-12-03_dh_150-prng-1,30_issda_150,150,rng-150,51,rng,num-start-581,581,25726,5.579299449920654,True,,True,1,False,1000,True,1.0
./expes/v2_2020-12-03_dh_150-prng-1,30_issda_150,150,rng-150,11,rng,num-start-881,881,25726,7.339715957641602,True,,True,1,False,1000,True,1.0
./expes/v2_2020-12-03_dh_150-prng-1,30_issda_150,150,rng-150,81,rng,num-start-471,471,25726,4.752274036407471,True,,True,1,False,1000,True,1.0
./expes/v2_2020-12-03_dh_150-prng-1,30_issda_150,150,rng-150,41,rng,num-start-421,421,25726,4.866719484329224,True,,True,1,False,1000,True,1.0
./expes/v2_2020-12-03_dh_150-prng-1,30_issda_150,150,rng-150,31,rng,num-start-311,311,25726,2.946608304977417,True,,True,1,False,1000,True,1.0
./expes/v2_2020-12-03_dh_150-prng-1,30_issda_150,150,rng-150,111,rng,num-start-301,301,25726,2.9431872367858887,True,,True,1,False,1000,True,1.0
./expes/v2_2020-12-03_dh_150-prng-1,30_issda_150,150,rng-150,71,rng,num-start-41,41,25726,4.257293939590454,True,,True,1,False,1000,True,1.0
./expes/v2_2020-12-03_dh_150-prng-1,30_issda_150,150,rng-150,31,rng,num-start-131,131,25726,1.3593440055847168,True,,True,1,False,1000,True,1.0
./expes/v2_2020-12-03_dh_150-prng-1,30_issda_150,150,rng-150,111,rng,num-start-361,361,25726,3.5386884212493896,True,,True,1,False,1000,True,1.0
./expes/v2_2020-12-03_dh_150-prng-1,30_issda_150,150,rng-150,21,rng,num-start-261,261,25726,2.5640079975128174,True,,True,1,False,1000,True,1.0
./expes/v2_2020-12-03_dh_150-prng-1,30_issda_150,150,rng-150,111,rng,num-start-481,481,25726,4.572596788406372,True,,True,1,False,1000,True,1.0
./expes/v2_2020-12-03_dh_150-prng-1,30_issda_150,150,rng-150,81,rng,num-start-581,581,25726,5.605280876159668,True,,True,1,False,1000,True,1.0
./expes/v2_2020-12-03_dh_150-prng-1,30_issda_150,150,rng-150,81,rng,num-start-391,391,25726,3.802379608154297,True,,True,1,False,1000,True,1.0
./expes/v2_2020-12-03_dh_150-prng-1,30_issda_150,150,rng-150,31,rng,num-start-261,261,25726,2.6508800983428955,True,,True,1,False,1000,True,1.0
./expes/v2_2020-12-03_dh_150-prng-1,30_issda_150,150,rng-150,71,rng,num-start-481,481,25726,5.369431495666504,True,,True,1,False,1000,True,1.0
./expes/v2_2020-12-03_dh_150-prng-1,30_issda_150,150,rng-150,31,rng,num-start-921,921,25726,9.043874979019165,True,,True,1,False,1000,True,1.0
./expes/v2_2020-12-03_dh_150-prng-1,30_issda_150,150,rng-150,71,rng,num-start-661,661,25726,6.896365404129028,True,,True,1,False,1000,True,1.0
./expes/v2_2020-12-03_dh_150-prng-1,30_issda_150,150,rng-150,61,rng,num-start-471,471,25726,4.394042253494263,True,,True,1,False,1000,True,1.0
./expes/v2_2020-12-03_dh_150-prng-1,30_issda_150,150,rng-150,41,rng,num-start-231,231,25726,2.337961196899414,True,,True,1,False,1000,True,1.0
./expes/v2_2020-12-03_dh_150-prng-1,30_issda_150,150,rng-150,31,rng,num-start-801,801,25726,7.604034423828125,True,,True,1,False,1000,True,1.0
./expes/v2_2020-12-03_dh_150-prng-1,30_issda_150,150,rng-150,21,rng,num-start-771,771,25726,7.860366106033325,True,,True,1,False,1000,True,1.0
./expes/v2_2020-12-03_dh_150-prng-1,30_issda_150,150,rng-150,121,rng,num-start-281,281,25726,3.1623198986053467,True,,True,1,False,1000,True,1.0
./expes/v2_2020-12-03_dh_150-prng-1,30_issda_150,150,rng-150,31,rng,num-start-711,711,25726,7.279865503311157,True,,True,1,False,1000,True,1.0
./expes/v2_2020-12-03_dh_150-prng-1,30_issda_150,150,rng-150,111,rng,num-start-191,191,25726,2.10870361328125,True,,True,1,False,1000,True,1.0
./expes/v2_2020-12-03_dh_150-prng-1,30_issda_150,150,rng-150,91,rng,num-start-11,11,25726,1000.7643775939941,False,,False,0,True,1000,True,0.0
./expes/v2_2020-12-03_dh_150-prng-1,30_issda_150,150,rng-150,81,rng,num-start-921,921,25726,9.222194194793701,True,,True,1,False,1000,True,1.0
./expes/v2_2020-12-03_dh_150-prng-1,30_issda_150,150,rng-150,71,rng,num-start-811,811,25726,7.1985392570495605,True,,True,1,False,1000,True,1.0
./expes/v2_2020-12-03_dh_150-prng-1,30_issda_150,150,rng-150,91,rng,num-start-341,341,25726,3.5830535888671875,True,,True,1,False,1000,True,1.0
./expes/v2_2020-12-03_dh_150-prng-1,30_issda_150,150,rng-150,71,rng,num-start-681,681,25726,7.16726279258728,True,,True,1,False,1000,True,1.0
./expes/v2_2020-12-03_dh_150-prng-1,30_issda_150,150,rng-150,81,rng,num-start-851,851,25726,8.823522567749023,True,,True,1,False,1000,True,1.0
./expes/v2_2020-12-03_dh_150-prng-1,30_issda_150,150,rng-150,51,rng,num-start-901,901,25726,9.58103609085083,True,,True,1,False,1000,True,1.0
./expes/v2_2020-12-03_dh_150-prng-1,30_issda_150,150,rng-150,51,rng,num-start-761,761,25726,7.600075721740723,True,,True,1,False,1000,True,1.0
./expes/v2_2020-12-03_dh_150-prng-1,30_issda_150,150,rng-150,91,rng,num-start-261,261,25726,2.966916561126709,True,,True,1,False,1000,True,1.0
./expes/v2_2020-12-03_dh_150-prng-1,30_issda_150,150,rng-150,71,rng,num-start-51,51,25726,2.0697033405303955,True,,True,1,False,1000,True,1.0
./expes/v2_2020-12-03_dh_150-prng-1,30_issda_150,150,rng-150,121,rng,num-start-61,61,25726,0.9262382984161377,True,,True,1,False,1000,True,1.0
./expes/v2_2020-12-03_dh_150-prng-1,30_issda_150,150,rng-150,101,rng,num-start-671,671,25726,6.295650959014893,True,,True,1,False,1000,True,1.0
./expes/v2_2020-12-03_dh_150-prng-1,30_issda_150,150,rng-150,31,rng,num-start-231,231,25726,2.484524965286255,True,,True,1,False,1000,True,1.0
./expes/v2_2020-12-03_dh_150-prng-1,30_issda_150,150,rng-150,101,rng,num-start-181,181,25726,2.2748513221740723,True,,True,1,False,1000,True,1.0
./expes/v2_2020-12-03_dh_150-prng-1,30_issda_150,150,rng-150,21,rng,num-start-341,341,25726,3.548009157180786,True,,True,1,False,1000,True,1.0
./expes/v2_2020-12-03_dh_150-prng-1,30_issda_150,150,rng-150,141,rng,num-start-531,531,25726,4.4778218269348145,True,,True,1,False,1000,True,1.0
./expes/v2_2020-12-03_dh_150-prng-1,30_issda_150,150,rng-150,91,rng,num-start-301,301,25726,3.1525397300720215,True,,True,1,False,1000,True,1.0
./expes/v2_2020-12-03_dh_150-prng-1,30_issda_150,150,rng-150,41,rng,num-start-21,21,25726,1005.2415781021118,False,,False,0,True,1000,True,0.0
./expes/v2_2020-12-03_dh_150-prng-1,30_issda_150,150,rng-150,111,rng,num-start-461,461,25726,4.982748985290527,True,,True,1,False,1000,True,1.0
./expes/v2_2020-12-03_dh_150-prng-1,30_issda_150,150,rng-150,41,rng,num-start-101,101,25726,1.2929811477661133,True,,True,1,False,1000,True,1.0
./expes/v2_2020-12-03_dh_150-prng-1,30_issda_150,150,rng-150,141,rng,num-start-571,571,25726,5.248565912246704,True,,True,1,False,1000,True,1.0
./expes/v2_2020-12-03_dh_150-prng-1,30_issda_150,150,rng-150,91,rng,num-start-441,441,25726,4.459287405014038,True,,True,1,False,1000,True,1.0
./expes/v2_2020-12-03_dh_150-prng-1,30_issda_150,150,rng-150,141,rng,num-start-401,401,25726,3.806614398956299,True,,True,1,False,1000,True,1.0
./expes/v2_2020-12-03_dh_150-prng-1,30_issda_150,150,rng-150,141,rng,num-start-521,521,25726,4.476598501205444,True,,True,1,False,1000,True,1.0
./expes/v2_2020-12-03_dh_150-prng-1,30_issda_150,150,rng-150,141,rng,num-start-821,821,25726,6.665391683578491,True,,True,1,False,1000,True,1.0
./expes/v2_2020-12-03_dh_150-prng-1,30_issda_150,150,rng-150,51,rng,num-start-691,691,25726,6.864913702011108,True,,True,1,False,1000,True,1.0
./expes/v2_2020-12-03_dh_150-prng-1,30_issda_150,150,rng-150,111,rng,num-start-951,951,25726,9.868777751922607,True,,True,1,False,1000,True,1.0
./expes/v2_2020-12-03_dh_150-prng-1,30_issda_150,150,rng-150,11,rng,num-start-931,931,25726,7.532203197479248,True,,True,1,False,1000,True,1.0
./expes/v2_2020-12-03_dh_150-prng-1,30_issda_150,150,rng-150,1,rng,num-start-181,181,25726,1.4557874202728271,True,,True,1,False,1000,True,1.0
./expes/v2_2020-12-03_dh_150-prng-1,30_issda_150,150,rng-150,121,rng,num-start-261,261,25726,2.596153974533081,True,,True,1,False,1000,True,1.0
./expes/v2_2020-12-03_dh_150-prng-1,30_issda_150,150,rng-150,61,rng,num-start-951,951,25726,9.763794660568237,True,,True,1,False,1000,True,1.0
./expes/v2_2020-12-03_dh_150-prng-1,30_issda_150,150,rng-150,31,rng,num-start-551,551,25726,5.6991286277771,True,,True,1,False,1000,True,1.0
./expes/v2_2020-12-03_dh_150-prng-1,30_issda_150,150,rng-150,111,rng,num-start-211,211,25726,2.088306427001953,True,,True,1,False,1000,True,1.0
./expes/v2_2020-12-03_dh_150-prng-1,30_issda_150,150,rng-150,51,rng,num-start-971,971,25726,9.13152003288269,True,,True,1,False,1000,True,1.0
./expes/v2_2020-12-03_dh_150-prng-1,30_issda_150,150,rng-150,51,rng,num-start-981,981,25726,9.775056600570679,True,,True,1,False,1000,True,1.0
./expes/v2_2020-12-03_dh_150-prng-1,30_issda_150,150,rng-150,41,rng,num-start-951,951,25726,10.138277292251587,True,,True,1,False,1000,True,1.0
./expes/v2_2020-12-03_dh_150-prng-1,30_issda_150,150,rng-150,1,rng,num-start-301,301,25726,2.458171844482422,True,,True,1,False,1000,True,1.0
./expes/v2_2020-12-03_dh_150-prng-1,30_issda_150,150,rng-150,121,rng,num-start-61,61,25726,0.7368950843811035,True,,True,1,False,1000,True,1.0
./expes/v2_2020-12-03_dh_150-prng-1,30_issda_150,150,rng-150,41,rng,num-start-241,241,25726,2.498326063156128,True,,True,1,False,1000,True,1.0
./expes/v2_2020-12-03_dh_150-prng-1,30_issda_150,150,rng-150,1,rng,num-start-891,891,25726,7.392621755599976,True,,True,1,False,1000,True,1.0
./expes/v2_2020-12-03_dh_150-prng-1,30_issda_150,150,rng-150,1,rng,num-start-621,621,25726,5.08692193031311,True,,True,1,False,1000,True,1.0
./expes/v2_2020-12-03_dh_150-prng-1,30_issda_150,150,rng-150,31,rng,num-start-971,971,25726,11.209736824035645,True,,True,1,False,1000,True,1.0
./expes/v2_2020-12-03_dh_150-prng-1,30_issda_150,150,rng-150,1,rng,num-start-351,351,25726,2.8228931427001953,True,,True,1,False,1000,True,1.0
./expes/v2_2020-12-03_dh_150-prng-1,30_issda_150,150,rng-150,71,rng,num-start-991,991,25726,10.250163078308105,True,,True,1,False,1000,True,1.0
./expes/v2_2020-12-03_dh_150-prng-1,30_issda_150,150,rng-150,141,rng,num-start-51,51,25726,0.5986330509185791,True,,True,1,False,1000,True,1.0
./expes/v2_2020-12-03_dh_150-prng-1,30_issda_150,150,rng-150,41,rng,num-start-71,71,25726,0.8234879970550537,True,,True,1,False,1000,True,1.0
./expes/v2_2020-12-03_dh_150-prng-1,30_issda_150,150,rng-150,11,rng,num-start-921,921,25726,7.501427888870239,True,,True,1,False,1000,True,1.0
./expes/v2_2020-12-03_dh_150-prng-1,30_issda_150,150,rng-150,91,rng,num-start-481,481,25726,4.9280030727386475,True,,True,1,False,1000,True,1.0
./expes/v2_2020-12-03_dh_150-prng-1,30_issda_150,150,rng-150,1,rng,num-start-61,61,25726,0.4952585697174072,True,,True,1,False,1000,True,1.0
./expes/v2_2020-12-03_dh_150-prng-1,30_issda_150,150,rng-150,31,rng,num-start-231,231,25726,2.3531928062438965,True,,True,1,False,1000,True,1.0
./expes/v2_2020-12-03_dh_150-prng-1,30_issda_150,150,rng-150,91,rng,num-start-231,231,25726,2.6781322956085205,True,,True,1,False,1000,True,1.0
./expes/v2_2020-12-03_dh_150-prng-1,30_issda_150,150,rng-150,91,rng,num-start-581,581,25726,5.6136634349823,True,,True,1,False,1000,True,1.0
./expes/v2_2020-12-03_dh_150-prng-1,30_issda_150,150,rng-150,21,rng,num-start-501,501,25726,4.671048402786255,True,,True,1,False,1000,True,1.0
./expes/v2_2020-12-03_dh_150-prng-1,30_issda_150,150,rng-150,51,rng,num-start-171,171,25726,2.2266499996185303,True,,True,1,False,1000,True,1.0
./expes/v2_2020-12-03_dh_150-prng-1,30_issda_150,150,rng-150,61,rng,num-start-231,231,25726,2.5542356967926025,True,,True,1,False,1000,True,1.0
./expes/v2_2020-12-03_dh_150-prng-1,30_issda_150,150,rng-150,71,rng,num-start-1,1,25726,0.044907331466674805,False,,False,2,False,1000,True,1.0
./expes/v2_2020-12-03_dh_150-prng-1,30_issda_150,150,rng-150,71,rng,num-start-151,151,25726,1.8738033771514893,True,,True,1,False,1000,True,1.0
./expes/v2_2020-12-03_dh_150-prng-1,30_issda_150,150,rng-150,111,rng,num-start-71,71,25726,1.1369907855987549,True,,True,1,False,1000,True,1.0
./expes/v2_2020-12-03_dh_150-prng-1,30_issda_150,150,rng-150,1,rng,num-start-691,691,25726,5.928610801696777,True,,True,1,False,1000,True,1.0
./expes/v2_2020-12-03_dh_150-prng-1,30_issda_150,150,rng-150,111,rng,num-start-1,1,25726,0.03383755683898926,False,,False,2,False,1000,True,1.0
./expes/v2_2020-12-03_dh_150-prng-1,30_issda_150,150,rng-150,101,rng,num-start-61,61,25726,1.4332029819488525,True,,True,1,False,1000,True,1.0
./expes/v2_2020-12-03_dh_150-prng-1,30_issda_150,150,rng-150,31,rng,num-start-81,81,25726,0.8646855354309082,True,,True,1,False,1000,True,1.0
./expes/v2_2020-12-03_dh_150-prng-1,30_issda_150,150,rng-150,121,rng,num-start-461,461,25726,4.795875072479248,True,,True,1,False,1000,True,1.0
./expes/v2_2020-12-03_dh_150-prng-1,30_issda_150,150,rng-150,71,rng,num-start-601,601,25726,6.027655601501465,True,,True,1,False,1000,True,1.0
./expes/v2_2020-12-03_dh_150-prng-1,30_issda_150,150,rng-150,121,rng,num-start-391,391,25726,4.1205244064331055,True,,True,1,False,1000,True,1.0
./expes/v2_2020-12-03_dh_150-prng-1,30_issda_150,150,rng-150,81,rng,num-start-601,601,25726,7.51520037651062,True,,True,1,False,1000,True,1.0
./expes/v2_2020-12-03_dh_150-prng-1,30_issda_150,150,rng-150,1,rng,num-start-391,391,25726,3.1857242584228516,True,,True,1,False,1000,True,1.0
./expes/v2_2020-12-03_dh_150-prng-1,30_issda_150,150,rng-150,141,rng,num-start-891,891,25726,8.610508680343628,True,,True,1,False,1000,True,1.0
./expes/v2_2020-12-03_dh_150-prng-1,30_issda_150,150,rng-150,101,rng,num-start-821,821,25726,8.398584842681885,True,,True,1,False,1000,True,1.0
./expes/v2_2020-12-03_dh_150-prng-1,30_issda_150,150,rng-150,111,rng,num-start-221,221,25726,2.316298007965088,True,,True,1,False,1000,True,1.0
./expes/v2_2020-12-03_dh_150-prng-1,30_issda_150,150,rng-150,121,rng,num-start-741,741,25726,8.819222688674927,True,,True,1,False,1000,True,1.0
./expes/v2_2020-12-03_dh_150-prng-1,30_issda_150,150,rng-150,1,rng,num-start-121,121,25726,1.0662219524383545,True,,True,1,False,1000,True,1.0
./expes/v2_2020-12-03_dh_150-prng-1,30_issda_150,150,rng-150,1,rng,num-start-61,61,25726,0.5147182941436768,True,,True,1,False,1000,True,1.0
./expes/v2_2020-12-03_dh_150-prng-1,30_issda_150,150,rng-150,71,rng,num-start-821,821,25726,7.822458505630493,True,,True,1,False,1000,True,1.0
./expes/v2_2020-12-03_dh_150-prng-1,30_issda_150,150,rng-150,141,rng,num-start-651,651,25726,5.573025703430176,True,,True,1,False,1000,True,1.0
./expes/v2_2020-12-03_dh_150-prng-1,30_issda_150,150,rng-150,1,rng,num-start-691,691,25726,5.966647148132324,True,,True,1,False,1000,True,1.0
./expes/v2_2020-12-03_dh_150-prng-1,30_issda_150,150,rng-150,1,rng,num-start-711,711,25726,5.784094572067261,True,,True,1,False,1000,True,1.0
./expes/v2_2020-12-03_dh_150-prng-1,30_issda_150,150,rng-150,61,rng,num-start-661,661,25726,7.2102437019348145,True,,True,1,False,1000,True,1.0
./expes/v2_2020-12-03_dh_150-prng-1,30_issda_150,150,rng-150,21,rng,num-start-341,341,25726,3.2665419578552246,True,,True,1,False,1000,True,1.0
./expes/v2_2020-12-03_dh_150-prng-1,30_issda_150,150,rng-150,131,rng,num-start-601,601,25726,5.754658222198486,True,,True,1,False,1000,True,1.0
./expes/v2_2020-12-03_dh_150-prng-1,30_issda_150,150,rng-150,11,rng,num-start-371,371,25726,3.67769718170166,True,,True,1,False,1000,True,1.0
./expes/v2_2020-12-03_dh_150-prng-1,30_issda_150,150,rng-150,21,rng,num-start-201,201,25726,2.111873149871826,True,,True,1,False,1000,True,1.0
./expes/v2_2020-12-03_dh_150-prng-1,30_issda_150,150,rng-150,71,rng,num-start-571,571,25726,5.72839879989624,True,,True,1,False,1000,True,1.0
./expes/v2_2020-12-03_dh_150-prng-1,30_issda_150,150,rng-150,21,rng,num-start-151,151,25726,1.922508955001831,True,,True,1,False,1000,True,1.0
./expes/v2_2020-12-03_dh_150-prng-1,30_issda_150,150,rng-150,101,rng,num-start-201,201,25726,2.246723175048828,True,,True,1,False,1000,True,1.0
./expes/v2_2020-12-03_dh_150-prng-1,30_issda_150,150,rng-150,91,rng,num-start-751,751,25726,8.236889600753784,True,,True,1,False,1000,True,1.0
./expes/v2_2020-12-03_dh_150-prng-1,30_issda_150,150,rng-150,1,rng,num-start-301,301,25726,2.5334088802337646,True,,True,1,False,1000,True,1.0
./expes/v2_2020-12-03_dh_150-prng-1,30_issda_150,150,rng-150,11,rng,num-start-101,101,25726,1.119384765625,True,,True,1,False,1000,True,1.0
./expes/v2_2020-12-03_dh_150-prng-1,30_issda_150,150,rng-150,81,rng,num-start-181,181,25726,2.3082826137542725,True,,True,1,False,1000,True,1.0
./expes/v2_2020-12-03_dh_150-prng-1,30_issda_150,150,rng-150,21,rng,num-start-381,381,25726,4.249116897583008,True,,True,1,False,1000,True,1.0
./expes/v2_2020-12-03_dh_150-prng-1,30_issda_150,150,rng-150,131,rng,num-start-321,321,25726,3.6995298862457275,True,,True,1,False,1000,True,1.0
./expes/v2_2020-12-03_dh_150-prng-1,30_issda_150,150,rng-150,101,rng,num-start-571,571,25726,6.451996326446533,True,,True,1,False,1000,True,1.0
./expes/v2_2020-12-03_dh_150-prng-1,30_issda_150,150,rng-150,71,rng,num-start-891,891,25726,9.297610998153687,True,,True,1,False,1000,True,1.0
./expes/v2_2020-12-03_dh_150-prng-1,30_issda_150,150,rng-150,111,rng,num-start-901,901,25726,9.046160221099854,True,,True,1,False,1000,True,1.0
./expes/v2_2020-12-03_dh_150-prng-1,30_issda_150,150,rng-150,61,rng,num-start-251,251,25726,2.337965488433838,True,,True,1,False,1000,True,1.0
./expes/v2_2020-12-03_dh_150-prng-1,30_issda_150,150,rng-150,1,rng,num-start-221,221,25726,1.84952712059021,True,,True,1,False,1000,True,1.0
./expes/v2_2020-12-03_dh_150-prng-1,30_issda_150,150,rng-150,101,rng,num-start-431,431,25726,5.011476993560791,True,,True,1,False,1000,True,1.0
./expes/v2_2020-12-03_dh_150-prng-1,30_issda_150,150,rng-150,101,rng,num-start-501,501,25726,4.867387533187866,True,,True,1,False,1000,True,1.0
./expes/v2_2020-12-03_dh_150-prng-1,30_issda_150,150,rng-150,101,rng,num-start-101,101,25726,1.230463981628418,True,,True,1,False,1000,True,1.0
./expes/v2_2020-12-03_dh_150-prng-1,30_issda_150,150,rng-150,121,rng,num-start-1,1,25726,0.026820659637451172,False,,False,2,False,1000,True,1.0
./expes/v2_2020-12-03_dh_150-prng-1,30_issda_150,150,rng-150,51,rng,num-start-431,431,25726,4.455210208892822,True,,True,1,False,1000,True,1.0
./expes/v2_2020-12-03_dh_150-prng-1,30_issda_150,150,rng-150,11,rng,num-start-521,521,25726,4.762546539306641,True,,True,1,False,1000,True,1.0
./expes/v2_2020-12-03_dh_150-prng-1,30_issda_150,150,rng-150,31,rng,num-start-361,361,25726,3.613180160522461,True,,True,1,False,1000,True,1.0
./expes/v2_2020-12-03_dh_150-prng-1,30_issda_150,150,rng-150,71,rng,num-start-41,41,25726,1003.2208433151245,False,,False,0,True,1000,True,0.0
./expes/v2_2020-12-03_dh_150-prng-1,30_issda_150,150,rng-150,71,rng,num-start-51,51,25726,1.531708002090454,True,,True,1,False,1000,True,1.0
./expes/v2_2020-12-03_dh_150-prng-1,30_issda_150,150,rng-150,61,rng,num-start-481,481,25726,4.658807992935181,True,,True,1,False,1000,True,1.0
./expes/v2_2020-12-03_dh_150-prng-1,30_issda_150,150,rng-150,1,rng,num-start-541,541,25726,4.3119728565216064,True,,True,1,False,1000,True,1.0
./expes/v2_2020-12-03_dh_150-prng-1,30_issda_150,150,rng-150,91,rng,num-start-21,21,25726,1000.5592486858368,False,,False,0,True,1000,True,0.0
./expes/v2_2020-12-03_dh_150-prng-1,30_issda_150,150,rng-150,81,rng,num-start-51,51,25726,4.800875663757324,True,,True,1,False,1000,True,1.0
./expes/v2_2020-12-03_dh_150-prng-1,30_issda_150,150,rng-150,61,rng,num-start-251,251,25726,3.08815336227417,True,,True,1,False,1000,True,1.0
./expes/v2_2020-12-03_dh_150-prng-1,30_issda_150,150,rng-150,101,rng,num-start-911,911,25726,9.13007140159607,True,,True,1,False,1000,True,1.0
./expes/v2_2020-12-03_dh_150-prng-1,30_issda_150,150,rng-150,121,rng,num-start-681,681,25726,6.274956941604614,True,,True,1,False,1000,True,1.0
./expes/v2_2020-12-03_dh_150-prng-1,30_issda_150,150,rng-150,111,rng,num-start-531,531,25726,5.212992429733276,True,,True,1,False,1000,True,1.0
./expes/v2_2020-12-03_dh_150-prng-1,30_issda_150,150,rng-150,121,rng,num-start-971,971,25726,10.008872509002686,True,,True,1,False,1000,True,1.0
./expes/v2_2020-12-03_dh_150-prng-1,30_issda_150,150,rng-150,91,rng,num-start-551,551,25726,5.734832286834717,True,,True,1,False,1000,True,1.0
./expes/v2_2020-12-03_dh_150-prng-1,30_issda_150,150,rng-150,11,rng,num-start-531,531,25726,4.9444639682769775,True,,True,1,False,1000,True,1.0
./expes/v2_2020-12-03_dh_150-prng-1,30_issda_150,150,rng-150,81,rng,num-start-451,451,25726,4.413227796554565,True,,True,1,False,1000,True,1.0
./expes/v2_2020-12-03_dh_150-prng-1,30_issda_150,150,rng-150,11,rng,num-start-291,291,25726,2.3629887104034424,True,,True,1,False,1000,True,1.0
./expes/v2_2020-12-03_dh_150-prng-1,30_issda_150,150,rng-150,101,rng,num-start-311,311,25726,3.3365318775177,True,,True,1,False,1000,True,1.0
./expes/v2_2020-12-03_dh_150-prng-1,30_issda_150,150,rng-150,11,rng,num-start-131,131,25726,1.4579570293426514,True,,True,1,False,1000,True,1.0
./expes/v2_2020-12-03_dh_150-prng-1,30_issda_150,150,rng-150,61,rng,num-start-611,611,25726,6.608292579650879,True,,True,1,False,1000,True,1.0
./expes/v2_2020-12-03_dh_150-prng-1,30_issda_150,150,rng-150,81,rng,num-start-851,851,25726,8.622915267944336,True,,True,1,False,1000,True,1.0
./expes/v2_2020-12-03_dh_150-prng-1,30_issda_150,150,rng-150,81,rng,num-start-991,991,25726,11.108231544494629,True,,True,1,False,1000,True,1.0
./expes/v2_2020-12-03_dh_150-prng-1,30_issda_150,150,rng-150,51,rng,num-start-631,631,25726,5.863664865493774,True,,True,1,False,1000,True,1.0
./expes/v2_2020-12-03_dh_150-prng-1,30_issda_150,150,rng-150,131,rng,num-start-151,151,25726,1.6776633262634277,True,,True,1,False,1000,True,1.0
./expes/v2_2020-12-03_dh_150-prng-1,30_issda_150,150,rng-150,51,rng,num-start-871,871,25726,8.902024507522583,True,,True,1,False,1000,True,1.0
./expes/v2_2020-12-03_dh_150-prng-1,30_issda_150,150,rng-150,41,rng,num-start-21,21,25726,1019.3295588493347,False,,False,0,True,1000,True,0.0
./expes/v2_2020-12-03_dh_150-prng-1,30_issda_150,150,rng-150,81,rng,num-start-191,191,25726,2.3177638053894043,True,,True,1,False,1000,True,1.0
./expes/v2_2020-12-03_dh_150-prng-1,30_issda_150,150,rng-150,41,rng,num-start-731,731,25726,7.65332555770874,True,,True,1,False,1000,True,1.0
./expes/v2_2020-12-03_dh_150-prng-1,30_issda_150,150,rng-150,111,rng,num-start-521,521,25726,5.686144113540649,True,,True,1,False,1000,True,1.0
./expes/v2_2020-12-03_dh_150-prng-1,30_issda_150,150,rng-150,11,rng,num-start-921,921,25726,7.53749942779541,True,,True,1,False,1000,True,1.0
./expes/v2_2020-12-03_dh_150-prng-1,30_issda_150,150,rng-150,141,rng,num-start-661,661,25726,5.321733474731445,True,,True,1,False,1000,True,1.0
./expes/v2_2020-12-03_dh_150-prng-1,30_issda_150,150,rng-150,101,rng,num-start-261,261,25726,2.767801523208618,True,,True,1,False,1000,True,1.0
./expes/v2_2020-12-03_dh_150-prng-1,30_issda_150,150,rng-150,21,rng,num-start-611,611,25726,6.145561456680298,True,,True,1,False,1000,True,1.0
./expes/v2_2020-12-03_dh_150-prng-1,30_issda_150,150,rng-150,131,rng,num-start-851,851,25726,8.93292498588562,True,,True,1,False,1000,True,1.0
./expes/v2_2020-12-03_dh_150-prng-1,30_issda_150,150,rng-150,121,rng,num-start-461,461,25726,4.293457746505737,True,,True,1,False,1000,True,1.0
./expes/v2_2020-12-03_dh_150-prng-1,30_issda_150,150,rng-150,21,rng,num-start-841,841,25726,8.689734935760498,True,,True,1,False,1000,True,1.0
./expes/v2_2020-12-03_dh_150-prng-1,30_issda_150,150,rng-150,81,rng,num-start-311,311,25726,2.9740426540374756,True,,True,1,False,1000,True,1.0
./expes/v2_2020-12-03_dh_150-prng-1,30_issda_150,150,rng-150,11,rng,num-start-871,871,25726,8.158827066421509,True,,True,1,False,1000,True,1.0
./expes/v2_2020-12-03_dh_150-prng-1,30_issda_150,150,rng-150,11,rng,num-start-161,161,25726,1.6957871913909912,True,,True,1,False,1000,True,1.0
./expes/v2_2020-12-03_dh_150-prng-1,30_issda_150,150,rng-150,131,rng,num-start-641,641,25726,8.604551315307617,True,,True,1,False,1000,True,1.0
./expes/v2_2020-12-03_dh_150-prng-1,30_issda_150,150,rng-150,51,rng,num-start-411,411,25726,3.6832275390625,True,,True,1,False,1000,True,1.0
./expes/v2_2020-12-03_dh_150-prng-1,30_issda_150,150,rng-150,111,rng,num-start-831,831,25726,8.258650541305542,True,,True,1,False,1000,True,1.0
./expes/v2_2020-12-03_dh_150-prng-1,30_issda_150,150,rng-150,51,rng,num-start-11,11,25726,1001.6170620918274,False,,False,0,True,1000,True,0.0
./expes/v2_2020-12-03_dh_150-prng-1,30_issda_150,150,rng-150,61,rng,num-start-991,991,25726,9.681423902511597,True,,True,1,False,1000,True,1.0
./expes/v2_2020-12-03_dh_150-prng-1,30_issda_150,150,rng-150,51,rng,num-start-861,861,25726,8.671428442001343,True,,True,1,False,1000,True,1.0
./expes/v2_2020-12-03_dh_150-prng-1,30_issda_150,150,rng-150,11,rng,num-start-981,981,25726,8.071966648101807,True,,True,1,False,1000,True,1.0
./expes/v2_2020-12-03_dh_150-prng-1,30_issda_150,150,rng-150,81,rng,num-start-21,21,25726,1000.6509602069855,False,,False,0,True,1000,True,0.0
