expe,clients,clients_size,clients_subset,agg_size,method,days,days_size,days_total,time,valid,valid_sum,success,nsols,wall_hit,wall_time,pooled,valid_sums
./expes/v2_2020-12-03_dh_150-prng-1,30_issda_150,150,rng-150,141,rng,num-start-951,951,25726,17.801180839538574,True,,True,1,False,1000,True,1.0
./expes/v2_2020-12-03_dh_150-prng-1,30_issda_150,150,rng-150,61,rng,num-start-441,441,25726,8.885767698287964,True,,True,1,False,1000,True,1.0
./expes/v2_2020-12-03_dh_150-prng-1,30_issda_150,150,rng-150,121,rng,num-start-181,181,25726,3.7799696922302246,True,,True,1,False,1000,True,1.0
./expes/v2_2020-12-03_dh_150-prng-1,30_issda_150,150,rng-150,31,rng,num-start-821,821,25726,15.804492950439453,True,,True,1,False,1000,True,1.0
./expes/v2_2020-12-03_dh_150-prng-1,30_issda_150,150,rng-150,71,rng,num-start-81,81,25726,1.8234503269195557,True,,True,1,False,1000,True,1.0
./expes/v2_2020-12-03_dh_150-prng-1,30_issda_150,150,rng-150,21,rng,num-start-601,601,25726,12.141098499298096,True,,True,1,False,1000,True,1.0
./expes/v2_2020-12-03_dh_150-prng-1,30_issda_150,150,rng-150,111,rng,num-start-21,21,25726,1004.3718557357788,False,,False,0,True,1000,True,0.0
./expes/v2_2020-12-03_dh_150-prng-1,30_issda_150,150,rng-150,91,rng,num-start-21,21,25726,1000.7604780197144,False,,False,0,True,1000,True,0.0
./expes/v2_2020-12-03_dh_150-prng-1,30_issda_150,150,rng-150,91,rng,num-start-751,751,25726,16.432021856307983,True,,True,1,False,1000,True,1.0
./expes/v2_2020-12-03_dh_150-prng-1,30_issda_150,150,rng-150,71,rng,num-start-421,421,25726,9.198735475540161,True,,True,1,False,1000,True,1.0
./expes/v2_2020-12-03_dh_150-prng-1,30_issda_150,150,rng-150,81,rng,num-start-281,281,25726,6.579505443572998,True,,True,1,False,1000,True,1.0
./expes/v2_2020-12-03_dh_150-prng-1,30_issda_150,150,rng-150,101,rng,num-start-671,671,25726,15.10059118270874,True,,True,1,False,1000,True,1.0
./expes/v2_2020-12-03_dh_150-prng-1,30_issda_150,150,rng-150,141,rng,num-start-381,381,25726,8.312736511230469,True,,True,1,False,1000,True,1.0
./expes/v2_2020-12-03_dh_150-prng-1,30_issda_150,150,rng-150,141,rng,num-start-771,771,25726,16.831833124160767,True,,True,1,False,1000,True,1.0
./expes/v2_2020-12-03_dh_150-prng-1,30_issda_150,150,rng-150,51,rng,num-start-861,861,25726,17.37566590309143,True,,True,1,False,1000,True,1.0
./expes/v2_2020-12-03_dh_150-prng-1,30_issda_150,150,rng-150,61,rng,num-start-901,901,25726,17.433878421783447,True,,True,1,False,1000,True,1.0
./expes/v2_2020-12-03_dh_150-prng-1,30_issda_150,150,rng-150,121,rng,num-start-211,211,25726,4.562151670455933,True,,True,1,False,1000,True,1.0
./expes/v2_2020-12-03_dh_150-prng-1,30_issda_150,150,rng-150,21,rng,num-start-211,211,25726,4.090128421783447,True,,True,1,False,1000,True,1.0
./expes/v2_2020-12-03_dh_150-prng-1,30_issda_150,150,rng-150,21,rng,num-start-481,481,25726,10.016920566558838,True,,True,1,False,1000,True,1.0
./expes/v2_2020-12-03_dh_150-prng-1,30_issda_150,150,rng-150,61,rng,num-start-451,451,25726,9.622329473495483,True,,True,1,False,1000,True,1.0
./expes/v2_2020-12-03_dh_150-prng-1,30_issda_150,150,rng-150,61,rng,num-start-571,571,25726,10.975367546081543,True,,True,1,False,1000,True,1.0
./expes/v2_2020-12-03_dh_150-prng-1,30_issda_150,150,rng-150,111,rng,num-start-691,691,25726,13.470012903213501,True,,True,1,False,1000,True,1.0
./expes/v2_2020-12-03_dh_150-prng-1,30_issda_150,150,rng-150,61,rng,num-start-661,661,25726,13.88235855102539,True,,True,1,False,1000,True,1.0
./expes/v2_2020-12-03_dh_150-prng-1,30_issda_150,150,rng-150,61,rng,num-start-821,821,25726,16.031848907470703,True,,True,1,False,1000,True,1.0
./expes/v2_2020-12-03_dh_150-prng-1,30_issda_150,150,rng-150,141,rng,num-start-271,271,25726,5.596056222915649,True,,True,1,False,1000,True,1.0
./expes/v2_2020-12-03_dh_150-prng-1,30_issda_150,150,rng-150,111,rng,num-start-381,381,25726,7.510703802108765,True,,True,1,False,1000,True,1.0
./expes/v2_2020-12-03_dh_150-prng-1,30_issda_150,150,rng-150,81,rng,num-start-481,481,25726,10.145707607269287,True,,True,1,False,1000,True,1.0
./expes/v2_2020-12-03_dh_150-prng-1,30_issda_150,150,rng-150,11,rng,num-start-871,871,25726,16.06311011314392,True,,True,1,False,1000,True,1.0
./expes/v2_2020-12-03_dh_150-prng-1,30_issda_150,150,rng-150,41,rng,num-start-911,911,25726,17.81924057006836,True,,True,1,False,1000,True,1.0
./expes/v2_2020-12-03_dh_150-prng-1,30_issda_150,150,rng-150,31,rng,num-start-791,791,25726,15.80542278289795,True,,True,1,False,1000,True,1.0
./expes/v2_2020-12-03_dh_150-prng-1,30_issda_150,150,rng-150,41,rng,num-start-831,831,25726,17.03738784790039,True,,True,1,False,1000,True,1.0
./expes/v2_2020-12-03_dh_150-prng-1,30_issda_150,150,rng-150,41,rng,num-start-201,201,25726,4.287060976028442,True,,True,1,False,1000,True,1.0
./expes/v2_2020-12-03_dh_150-prng-1,30_issda_150,150,rng-150,141,rng,num-start-841,841,25726,15.349132299423218,True,,True,1,False,1000,True,1.0
./expes/v2_2020-12-03_dh_150-prng-1,30_issda_150,150,rng-150,121,rng,num-start-291,291,25726,5.557084321975708,True,,True,1,False,1000,True,1.0
./expes/v2_2020-12-03_dh_150-prng-1,30_issda_150,150,rng-150,131,rng,num-start-281,281,25726,5.585723400115967,True,,True,1,False,1000,True,1.0
./expes/v2_2020-12-03_dh_150-prng-1,30_issda_150,150,rng-150,41,rng,num-start-231,231,25726,4.6366682052612305,True,,True,1,False,1000,True,1.0
./expes/v2_2020-12-03_dh_150-prng-1,30_issda_150,150,rng-150,131,rng,num-start-81,81,25726,1.6892378330230713,True,,True,1,False,1000,True,1.0
./expes/v2_2020-12-03_dh_150-prng-1,30_issda_150,150,rng-150,21,rng,num-start-371,371,25726,7.182545900344849,True,,True,1,False,1000,True,1.0
./expes/v2_2020-12-03_dh_150-prng-1,30_issda_150,150,rng-150,1,rng,num-start-511,511,25726,9.03231406211853,True,,True,1,False,1000,True,1.0
./expes/v2_2020-12-03_dh_150-prng-1,30_issda_150,150,rng-150,51,rng,num-start-101,101,25726,2.24253511428833,True,,True,1,False,1000,True,1.0
./expes/v2_2020-12-03_dh_150-prng-1,30_issda_150,150,rng-150,21,rng,num-start-831,831,25726,15.503082513809204,True,,True,1,False,1000,True,1.0
./expes/v2_2020-12-03_dh_150-prng-1,30_issda_150,150,rng-150,51,rng,num-start-331,331,25726,6.683225393295288,True,,True,1,False,1000,True,1.0
./expes/v2_2020-12-03_dh_150-prng-1,30_issda_150,150,rng-150,141,rng,num-start-81,81,25726,1.584747314453125,True,,True,1,False,1000,True,1.0
./expes/v2_2020-12-03_dh_150-prng-1,30_issda_150,150,rng-150,31,rng,num-start-761,761,25726,14.531830310821533,True,,True,1,False,1000,True,1.0
./expes/v2_2020-12-03_dh_150-prng-1,30_issda_150,150,rng-150,21,rng,num-start-731,731,25726,13.837331771850586,True,,True,1,False,1000,True,1.0
./expes/v2_2020-12-03_dh_150-prng-1,30_issda_150,150,rng-150,131,rng,num-start-681,681,25726,13.259732246398926,True,,True,1,False,1000,True,1.0
./expes/v2_2020-12-03_dh_150-prng-1,30_issda_150,150,rng-150,131,rng,num-start-711,711,25726,13.642229318618774,True,,True,1,False,1000,True,1.0
./expes/v2_2020-12-03_dh_150-prng-1,30_issda_150,150,rng-150,1,rng,num-start-261,261,25726,4.693471908569336,True,,True,1,False,1000,True,1.0
./expes/v2_2020-12-03_dh_150-prng-1,30_issda_150,150,rng-150,11,rng,num-start-561,561,25726,10.29486870765686,True,,True,1,False,1000,True,1.0
./expes/v2_2020-12-03_dh_150-prng-1,30_issda_150,150,rng-150,111,rng,num-start-441,441,25726,8.56647539138794,True,,True,1,False,1000,True,1.0
./expes/v2_2020-12-03_dh_150-prng-1,30_issda_150,150,rng-150,51,rng,num-start-711,711,25726,14.895071506500244,True,,True,1,False,1000,True,1.0
./expes/v2_2020-12-03_dh_150-prng-1,30_issda_150,150,rng-150,131,rng,num-start-101,101,25726,2.1697769165039062,True,,True,1,False,1000,True,1.0
./expes/v2_2020-12-03_dh_150-prng-1,30_issda_150,150,rng-150,141,rng,num-start-91,91,25726,1.9107120037078857,True,,True,1,False,1000,True,1.0
./expes/v2_2020-12-03_dh_150-prng-1,30_issda_150,150,rng-150,71,rng,num-start-181,181,25726,4.783279180526733,True,,True,1,False,1000,True,1.0
./expes/v2_2020-12-03_dh_150-prng-1,30_issda_150,150,rng-150,111,rng,num-start-641,641,25726,13.127193212509155,True,,True,1,False,1000,True,1.0
./expes/v2_2020-12-03_dh_150-prng-1,30_issda_150,150,rng-150,41,rng,num-start-331,331,25726,7.0386762619018555,True,,True,1,False,1000,True,1.0
./expes/v2_2020-12-03_dh_150-prng-1,30_issda_150,150,rng-150,141,rng,num-start-171,171,25726,3.54825496673584,True,,True,1,False,1000,True,1.0
./expes/v2_2020-12-03_dh_150-prng-1,30_issda_150,150,rng-150,61,rng,num-start-941,941,25726,19.434247970581055,True,,True,1,False,1000,True,1.0
./expes/v2_2020-12-03_dh_150-prng-1,30_issda_150,150,rng-150,21,rng,num-start-61,61,25726,1.3636932373046875,True,,True,1,False,1000,True,1.0
./expes/v2_2020-12-03_dh_150-prng-1,30_issda_150,150,rng-150,141,rng,num-start-721,721,25726,13.537425518035889,True,,True,1,False,1000,True,1.0
./expes/v2_2020-12-03_dh_150-prng-1,30_issda_150,150,rng-150,81,rng,num-start-891,891,25726,18.113107681274414,True,,True,1,False,1000,True,1.0
./expes/v2_2020-12-03_dh_150-prng-1,30_issda_150,150,rng-150,41,rng,num-start-471,471,25726,9.22259783744812,True,,True,1,False,1000,True,1.0
./expes/v2_2020-12-03_dh_150-prng-1,30_issda_150,150,rng-150,81,rng,num-start-151,151,25726,3.315908193588257,True,,True,1,False,1000,True,1.0
./expes/v2_2020-12-03_dh_150-prng-1,30_issda_150,150,rng-150,11,rng,num-start-61,61,25726,1.2809360027313232,True,,True,1,False,1000,True,1.0
./expes/v2_2020-12-03_dh_150-prng-1,30_issda_150,150,rng-150,31,rng,num-start-671,671,25726,12.73012900352478,True,,True,1,False,1000,True,1.0
./expes/v2_2020-12-03_dh_150-prng-1,30_issda_150,150,rng-150,11,rng,num-start-741,741,25726,13.388875007629395,True,,True,1,False,1000,True,1.0
./expes/v2_2020-12-03_dh_150-prng-1,30_issda_150,150,rng-150,51,rng,num-start-561,561,25726,10.594209432601929,True,,True,1,False,1000,True,1.0
./expes/v2_2020-12-03_dh_150-prng-1,30_issda_150,150,rng-150,1,rng,num-start-171,171,25726,3.0548229217529297,True,,True,1,False,1000,True,1.0
./expes/v2_2020-12-03_dh_150-prng-1,30_issda_150,150,rng-150,81,rng,num-start-111,111,25726,2.3131444454193115,True,,True,1,False,1000,True,1.0
./expes/v2_2020-12-03_dh_150-prng-1,30_issda_150,150,rng-150,31,rng,num-start-541,541,25726,10.611481189727783,True,,True,1,False,1000,True,1.0
./expes/v2_2020-12-03_dh_150-prng-1,30_issda_150,150,rng-150,111,rng,num-start-861,861,25726,16.64061188697815,True,,True,1,False,1000,True,1.0
./expes/v2_2020-12-03_dh_150-prng-1,30_issda_150,150,rng-150,11,rng,num-start-931,931,25726,16.625678062438965,True,,True,1,False,1000,True,1.0
./expes/v2_2020-12-03_dh_150-prng-1,30_issda_150,150,rng-150,11,rng,num-start-41,41,25726,0.8783884048461914,True,,True,1,False,1000,True,1.0
./expes/v2_2020-12-03_dh_150-prng-1,30_issda_150,150,rng-150,121,rng,num-start-811,811,25726,15.497242450714111,True,,True,1,False,1000,True,1.0
./expes/v2_2020-12-03_dh_150-prng-1,30_issda_150,150,rng-150,1,rng,num-start-811,811,25726,14.304384708404541,True,,True,1,False,1000,True,1.0
./expes/v2_2020-12-03_dh_150-prng-1,30_issda_150,150,rng-150,141,rng,num-start-821,821,25726,14.515808820724487,True,,True,1,False,1000,True,1.0
./expes/v2_2020-12-03_dh_150-prng-1,30_issda_150,150,rng-150,61,rng,num-start-241,241,25726,4.927708387374878,True,,True,1,False,1000,True,1.0
./expes/v2_2020-12-03_dh_150-prng-1,30_issda_150,150,rng-150,91,rng,num-start-331,331,25726,6.371495723724365,True,,True,1,False,1000,True,1.0
./expes/v2_2020-12-03_dh_150-prng-1,30_issda_150,150,rng-150,101,rng,num-start-631,631,25726,12.112695932388306,True,,True,1,False,1000,True,1.0
./expes/v2_2020-12-03_dh_150-prng-1,30_issda_150,150,rng-150,111,rng,num-start-321,321,25726,6.137197256088257,True,,True,1,False,1000,True,1.0
./expes/v2_2020-12-03_dh_150-prng-1,30_issda_150,150,rng-150,141,rng,num-start-51,51,25726,1.0731093883514404,True,,True,1,False,1000,True,1.0
./expes/v2_2020-12-03_dh_150-prng-1,30_issda_150,150,rng-150,121,rng,num-start-41,41,25726,1.3796401023864746,True,,True,1,False,1000,True,1.0
./expes/v2_2020-12-03_dh_150-prng-1,30_issda_150,150,rng-150,111,rng,num-start-731,731,25726,14.337965726852417,True,,True,1,False,1000,True,1.0
./expes/v2_2020-12-03_dh_150-prng-1,30_issda_150,150,rng-150,11,rng,num-start-91,91,25726,1.8796849250793457,True,,True,1,False,1000,True,1.0
./expes/v2_2020-12-03_dh_150-prng-1,30_issda_150,150,rng-150,31,rng,num-start-61,61,25726,1.291102409362793,True,,True,1,False,1000,True,1.0
./expes/v2_2020-12-03_dh_150-prng-1,30_issda_150,150,rng-150,51,rng,num-start-211,211,25726,4.28422999382019,True,,True,1,False,1000,True,1.0
./expes/v2_2020-12-03_dh_150-prng-1,30_issda_150,150,rng-150,121,rng,num-start-451,451,25726,8.331414937973022,True,,True,1,False,1000,True,1.0
./expes/v2_2020-12-03_dh_150-prng-1,30_issda_150,150,rng-150,21,rng,num-start-181,181,25726,3.6506032943725586,True,,True,1,False,1000,True,1.0
./expes/v2_2020-12-03_dh_150-prng-1,30_issda_150,150,rng-150,131,rng,num-start-271,271,25726,5.477102518081665,True,,True,1,False,1000,True,1.0
./expes/v2_2020-12-03_dh_150-prng-1,30_issda_150,150,rng-150,21,rng,num-start-51,51,25726,1.2701382637023926,True,,True,1,False,1000,True,1.0
./expes/v2_2020-12-03_dh_150-prng-1,30_issda_150,150,rng-150,121,rng,num-start-741,741,25726,14.241938591003418,True,,True,1,False,1000,True,1.0
./expes/v2_2020-12-03_dh_150-prng-1,30_issda_150,150,rng-150,31,rng,num-start-801,801,25726,15.464856386184692,True,,True,1,False,1000,True,1.0
./expes/v2_2020-12-03_dh_150-prng-1,30_issda_150,150,rng-150,121,rng,num-start-941,941,25726,18.831761598587036,True,,True,1,False,1000,True,1.0
./expes/v2_2020-12-03_dh_150-prng-1,30_issda_150,150,rng-150,51,rng,num-start-291,291,25726,5.976258993148804,True,,True,1,False,1000,True,1.0
./expes/v2_2020-12-03_dh_150-prng-1,30_issda_150,150,rng-150,111,rng,num-start-601,601,25726,11.254185676574707,True,,True,1,False,1000,True,1.0
./expes/v2_2020-12-03_dh_150-prng-1,30_issda_150,150,rng-150,11,rng,num-start-461,461,25726,8.509421110153198,True,,True,1,False,1000,True,1.0
./expes/v2_2020-12-03_dh_150-prng-1,30_issda_150,150,rng-150,111,rng,num-start-531,531,25726,9.711211442947388,True,,True,1,False,1000,True,1.0
./expes/v2_2020-12-03_dh_150-prng-1,30_issda_150,150,rng-150,61,rng,num-start-791,791,25726,14.967036247253418,True,,True,1,False,1000,True,1.0
./expes/v2_2020-12-03_dh_150-prng-1,30_issda_150,150,rng-150,41,rng,num-start-621,621,25726,11.955587148666382,True,,True,1,False,1000,True,1.0
./expes/v2_2020-12-03_dh_150-prng-1,30_issda_150,150,rng-150,51,rng,num-start-361,361,25726,7.175234317779541,True,,True,1,False,1000,True,1.0
./expes/v2_2020-12-03_dh_150-prng-1,30_issda_150,150,rng-150,91,rng,num-start-131,131,25726,2.6799778938293457,True,,True,1,False,1000,True,1.0
./expes/v2_2020-12-03_dh_150-prng-1,30_issda_150,150,rng-150,91,rng,num-start-991,991,25726,19.484586238861084,True,,True,1,False,1000,True,1.0
./expes/v2_2020-12-03_dh_150-prng-1,30_issda_150,150,rng-150,61,rng,num-start-821,821,25726,15.643633127212524,True,,True,1,False,1000,True,1.0
./expes/v2_2020-12-03_dh_150-prng-1,30_issda_150,150,rng-150,81,rng,num-start-591,591,25726,11.260685205459595,True,,True,1,False,1000,True,1.0
./expes/v2_2020-12-03_dh_150-prng-1,30_issda_150,150,rng-150,101,rng,num-start-71,71,25726,1.4261176586151123,False,,False,2,False,1000,True,1.0
./expes/v2_2020-12-03_dh_150-prng-1,30_issda_150,150,rng-150,41,rng,num-start-691,691,25726,13.44843053817749,True,,True,1,False,1000,True,1.0
./expes/v2_2020-12-03_dh_150-prng-1,30_issda_150,150,rng-150,31,rng,num-start-701,701,25726,13.663555383682251,True,,True,1,False,1000,True,1.0
./expes/v2_2020-12-03_dh_150-prng-1,30_issda_150,150,rng-150,11,rng,num-start-41,41,25726,0.9085087776184082,True,,True,1,False,1000,True,1.0
./expes/v2_2020-12-03_dh_150-prng-1,30_issda_150,150,rng-150,91,rng,num-start-41,41,25726,827.3991696834564,True,,True,1,False,1000,True,1.0
./expes/v2_2020-12-03_dh_150-prng-1,30_issda_150,150,rng-150,31,rng,num-start-711,711,25726,13.613018989562988,True,,True,1,False,1000,True,1.0
./expes/v2_2020-12-03_dh_150-prng-1,30_issda_150,150,rng-150,71,rng,num-start-871,871,25726,16.7485933303833,True,,True,1,False,1000,True,1.0
./expes/v2_2020-12-03_dh_150-prng-1,30_issda_150,150,rng-150,1,rng,num-start-231,231,25726,4.0770862102508545,True,,True,1,False,1000,True,1.0
./expes/v2_2020-12-03_dh_150-prng-1,30_issda_150,150,rng-150,41,rng,num-start-661,661,25726,12.293896436691284,True,,True,1,False,1000,True,1.0
./expes/v2_2020-12-03_dh_150-prng-1,30_issda_150,150,rng-150,71,rng,num-start-901,901,25726,17.338371992111206,True,,True,1,False,1000,True,1.0
./expes/v2_2020-12-03_dh_150-prng-1,30_issda_150,150,rng-150,1,rng,num-start-431,431,25726,7.759045839309692,True,,True,1,False,1000,True,1.0
./expes/v2_2020-12-03_dh_150-prng-1,30_issda_150,150,rng-150,141,rng,num-start-21,21,25726,0.6700439453125,True,,True,1,False,1000,True,1.0
./expes/v2_2020-12-03_dh_150-prng-1,30_issda_150,150,rng-150,141,rng,num-start-421,421,25726,7.501647472381592,True,,True,1,False,1000,True,1.0
./expes/v2_2020-12-03_dh_150-prng-1,30_issda_150,150,rng-150,61,rng,num-start-211,211,25726,4.263744831085205,True,,True,1,False,1000,True,1.0
./expes/v2_2020-12-03_dh_150-prng-1,30_issda_150,150,rng-150,101,rng,num-start-701,701,25726,13.340380430221558,True,,True,1,False,1000,True,1.0
./expes/v2_2020-12-03_dh_150-prng-1,30_issda_150,150,rng-150,21,rng,num-start-381,381,25726,7.257993936538696,True,,True,1,False,1000,True,1.0
./expes/v2_2020-12-03_dh_150-prng-1,30_issda_150,150,rng-150,141,rng,num-start-651,651,25726,11.917443990707397,True,,True,1,False,1000,True,1.0
./expes/v2_2020-12-03_dh_150-prng-1,30_issda_150,150,rng-150,21,rng,num-start-871,871,25726,16.68207097053528,True,,True,1,False,1000,True,1.0
./expes/v2_2020-12-03_dh_150-prng-1,30_issda_150,150,rng-150,101,rng,num-start-541,541,25726,10.011343240737915,True,,True,1,False,1000,True,1.0
./expes/v2_2020-12-03_dh_150-prng-1,30_issda_150,150,rng-150,131,rng,num-start-951,951,25726,18.553356409072876,True,,True,1,False,1000,True,1.0
./expes/v2_2020-12-03_dh_150-prng-1,30_issda_150,150,rng-150,71,rng,num-start-641,641,25726,12.446255207061768,True,,True,1,False,1000,True,1.0
./expes/v2_2020-12-03_dh_150-prng-1,30_issda_150,150,rng-150,41,rng,num-start-181,181,25726,3.659041404724121,True,,True,1,False,1000,True,1.0
./expes/v2_2020-12-03_dh_150-prng-1,30_issda_150,150,rng-150,101,rng,num-start-281,281,25726,5.476740837097168,True,,True,1,False,1000,True,1.0
./expes/v2_2020-12-03_dh_150-prng-1,30_issda_150,150,rng-150,41,rng,num-start-201,201,25726,4.112987518310547,True,,True,1,False,1000,True,1.0
./expes/v2_2020-12-03_dh_150-prng-1,30_issda_150,150,rng-150,141,rng,num-start-121,121,25726,2.276275873184204,True,,True,1,False,1000,True,1.0
./expes/v2_2020-12-03_dh_150-prng-1,30_issda_150,150,rng-150,71,rng,num-start-181,181,25726,3.6732778549194336,True,,True,1,False,1000,True,1.0
./expes/v2_2020-12-03_dh_150-prng-1,30_issda_150,150,rng-150,141,rng,num-start-431,431,25726,7.799253463745117,True,,True,1,False,1000,True,1.0
./expes/v2_2020-12-03_dh_150-prng-1,30_issda_150,150,rng-150,61,rng,num-start-471,471,25726,9.09489107131958,True,,True,1,False,1000,True,1.0
./expes/v2_2020-12-03_dh_150-prng-1,30_issda_150,150,rng-150,91,rng,num-start-901,901,25726,17.35220193862915,True,,True,1,False,1000,True,1.0
./expes/v2_2020-12-03_dh_150-prng-1,30_issda_150,150,rng-150,51,rng,num-start-921,921,25726,17.479285717010498,True,,True,1,False,1000,True,1.0
./expes/v2_2020-12-03_dh_150-prng-1,30_issda_150,150,rng-150,131,rng,num-start-771,771,25726,14.53874921798706,True,,True,1,False,1000,True,1.0
./expes/v2_2020-12-03_dh_150-prng-1,30_issda_150,150,rng-150,101,rng,num-start-251,251,25726,4.864818811416626,True,,True,1,False,1000,True,1.0
./expes/v2_2020-12-03_dh_150-prng-1,30_issda_150,150,rng-150,111,rng,num-start-71,71,25726,1.4556505680084229,True,,True,1,False,1000,True,1.0
./expes/v2_2020-12-03_dh_150-prng-1,30_issda_150,150,rng-150,101,rng,num-start-241,241,25726,4.84298849105835,True,,True,1,False,1000,True,1.0
./expes/v2_2020-12-03_dh_150-prng-1,30_issda_150,150,rng-150,31,rng,num-start-781,781,25726,15.426931619644165,True,,True,1,False,1000,True,1.0
./expes/v2_2020-12-03_dh_150-prng-1,30_issda_150,150,rng-150,31,rng,num-start-971,971,25726,19.94729232788086,True,,True,1,False,1000,True,1.0
./expes/v2_2020-12-03_dh_150-prng-1,30_issda_150,150,rng-150,81,rng,num-start-391,391,25726,7.282008171081543,True,,True,1,False,1000,True,1.0
./expes/v2_2020-12-03_dh_150-prng-1,30_issda_150,150,rng-150,121,rng,num-start-291,291,25726,5.761370658874512,True,,True,1,False,1000,True,1.0
./expes/v2_2020-12-03_dh_150-prng-1,30_issda_150,150,rng-150,141,rng,num-start-11,11,25726,0.6642777919769287,True,,True,1,False,1000,True,1.0
./expes/v2_2020-12-03_dh_150-prng-1,30_issda_150,150,rng-150,131,rng,num-start-751,751,25726,14.009742736816406,True,,True,1,False,1000,True,1.0
./expes/v2_2020-12-03_dh_150-prng-1,30_issda_150,150,rng-150,31,rng,num-start-971,971,25726,20.349497318267822,True,,True,1,False,1000,True,1.0
./expes/v2_2020-12-03_dh_150-prng-1,30_issda_150,150,rng-150,1,rng,num-start-51,51,25726,0.9920704364776611,True,,True,1,False,1000,True,1.0
./expes/v2_2020-12-03_dh_150-prng-1,30_issda_150,150,rng-150,21,rng,num-start-831,831,25726,16.75572395324707,True,,True,1,False,1000,True,1.0
./expes/v2_2020-12-03_dh_150-prng-1,30_issda_150,150,rng-150,41,rng,num-start-561,561,25726,11.622166395187378,True,,True,1,False,1000,True,1.0
./expes/v2_2020-12-03_dh_150-prng-1,30_issda_150,150,rng-150,31,rng,num-start-651,651,25726,12.655887126922607,True,,True,1,False,1000,True,1.0
./expes/v2_2020-12-03_dh_150-prng-1,30_issda_150,150,rng-150,111,rng,num-start-861,861,25726,16.988638877868652,True,,True,1,False,1000,True,1.0
./expes/v2_2020-12-03_dh_150-prng-1,30_issda_150,150,rng-150,141,rng,num-start-271,271,25726,5.194369792938232,True,,True,1,False,1000,True,1.0
./expes/v2_2020-12-03_dh_150-prng-1,30_issda_150,150,rng-150,71,rng,num-start-261,261,25726,5.480647087097168,True,,True,1,False,1000,True,1.0
./expes/v2_2020-12-03_dh_150-prng-1,30_issda_150,150,rng-150,11,rng,num-start-241,241,25726,4.636415004730225,True,,True,1,False,1000,True,1.0
./expes/v2_2020-12-03_dh_150-prng-1,30_issda_150,150,rng-150,31,rng,num-start-661,661,25726,12.65297794342041,True,,True,1,False,1000,True,1.0
./expes/v2_2020-12-03_dh_150-prng-1,30_issda_150,150,rng-150,131,rng,num-start-431,431,25726,8.262406349182129,True,,True,1,False,1000,True,1.0
./expes/v2_2020-12-03_dh_150-prng-1,30_issda_150,150,rng-150,91,rng,num-start-101,101,25726,2.349430799484253,True,,True,1,False,1000,True,1.0
./expes/v2_2020-12-03_dh_150-prng-1,30_issda_150,150,rng-150,71,rng,num-start-121,121,25726,2.645737409591675,True,,True,1,False,1000,True,1.0
./expes/v2_2020-12-03_dh_150-prng-1,30_issda_150,150,rng-150,141,rng,num-start-821,821,25726,15.615082502365112,True,,True,1,False,1000,True,1.0
./expes/v2_2020-12-03_dh_150-prng-1,30_issda_150,150,rng-150,141,rng,num-start-671,671,25726,12.642268657684326,True,,True,1,False,1000,True,1.0
./expes/v2_2020-12-03_dh_150-prng-1,30_issda_150,150,rng-150,91,rng,num-start-1,1,25726,0.05331587791442871,False,,False,2,False,1000,True,1.0
./expes/v2_2020-12-03_dh_150-prng-1,30_issda_150,150,rng-150,11,rng,num-start-861,861,25726,15.975710153579712,True,,True,1,False,1000,True,1.0
./expes/v2_2020-12-03_dh_150-prng-1,30_issda_150,150,rng-150,1,rng,num-start-511,511,25726,9.339898586273193,True,,True,1,False,1000,True,1.0
./expes/v2_2020-12-03_dh_150-prng-1,30_issda_150,150,rng-150,81,rng,num-start-111,111,25726,2.403193712234497,True,,True,1,False,1000,True,1.0
./expes/v2_2020-12-03_dh_150-prng-1,30_issda_150,150,rng-150,71,rng,num-start-201,201,25726,4.258031368255615,True,,True,1,False,1000,True,1.0
./expes/v2_2020-12-03_dh_150-prng-1,30_issda_150,150,rng-150,91,rng,num-start-211,211,25726,4.348583698272705,True,,True,1,False,1000,True,1.0
./expes/v2_2020-12-03_dh_150-prng-1,30_issda_150,150,rng-150,111,rng,num-start-31,31,25726,11.709118843078613,True,,True,1,False,1000,True,1.0
./expes/v2_2020-12-03_dh_150-prng-1,30_issda_150,150,rng-150,21,rng,num-start-501,501,25726,9.644962072372437,True,,True,1,False,1000,True,1.0
./expes/v2_2020-12-03_dh_150-prng-1,30_issda_150,150,rng-150,41,rng,num-start-951,951,25726,18.60409379005432,True,,True,1,False,1000,True,1.0
./expes/v2_2020-12-03_dh_150-prng-1,30_issda_150,150,rng-150,1,rng,num-start-551,551,25726,9.700555801391602,True,,True,1,False,1000,True,1.0
./expes/v2_2020-12-03_dh_150-prng-1,30_issda_150,150,rng-150,31,rng,num-start-581,581,25726,11.096144676208496,True,,True,1,False,1000,True,1.0
./expes/v2_2020-12-03_dh_150-prng-1,30_issda_150,150,rng-150,141,rng,num-start-1,1,25726,0.12515783309936523,False,,False,2,False,1000,True,1.0
./expes/v2_2020-12-03_dh_150-prng-1,30_issda_150,150,rng-150,51,rng,num-start-681,681,25726,13.268946170806885,True,,True,1,False,1000,True,1.0
./expes/v2_2020-12-03_dh_150-prng-1,30_issda_150,150,rng-150,61,rng,num-start-801,801,25726,15.971009016036987,True,,True,1,False,1000,True,1.0
./expes/v2_2020-12-03_dh_150-prng-1,30_issda_150,150,rng-150,81,rng,num-start-811,811,25726,15.714593172073364,True,,True,1,False,1000,True,1.0
./expes/v2_2020-12-03_dh_150-prng-1,30_issda_150,150,rng-150,111,rng,num-start-761,761,25726,14.902746677398682,True,,True,1,False,1000,True,1.0
./expes/v2_2020-12-03_dh_150-prng-1,30_issda_150,150,rng-150,131,rng,num-start-651,651,25726,12.61249828338623,True,,True,1,False,1000,True,1.0
./expes/v2_2020-12-03_dh_150-prng-1,30_issda_150,150,rng-150,121,rng,num-start-911,911,25726,17.604254722595215,True,,True,1,False,1000,True,1.0
./expes/v2_2020-12-03_dh_150-prng-1,30_issda_150,150,rng-150,31,rng,num-start-551,551,25726,10.892586469650269,True,,True,1,False,1000,True,1.0
./expes/v2_2020-12-03_dh_150-prng-1,30_issda_150,150,rng-150,51,rng,num-start-151,151,25726,3.169011354446411,True,,True,1,False,1000,True,1.0
./expes/v2_2020-12-03_dh_150-prng-1,30_issda_150,150,rng-150,61,rng,num-start-241,241,25726,5.098598003387451,True,,True,1,False,1000,True,1.0
./expes/v2_2020-12-03_dh_150-prng-1,30_issda_150,150,rng-150,141,rng,num-start-861,861,25726,16.043198108673096,True,,True,1,False,1000,True,1.0
./expes/v2_2020-12-03_dh_150-prng-1,30_issda_150,150,rng-150,71,rng,num-start-851,851,25726,16.361165523529053,True,,True,1,False,1000,True,1.0
./expes/v2_2020-12-03_dh_150-prng-1,30_issda_150,150,rng-150,71,rng,num-start-311,311,25726,6.162818431854248,True,,True,1,False,1000,True,1.0
./expes/v2_2020-12-03_dh_150-prng-1,30_issda_150,150,rng-150,141,rng,num-start-901,901,25726,16.237462759017944,True,,True,1,False,1000,True,1.0
./expes/v2_2020-12-03_dh_150-prng-1,30_issda_150,150,rng-150,91,rng,num-start-291,291,25726,5.579761028289795,True,,True,1,False,1000,True,1.0
./expes/v2_2020-12-03_dh_150-prng-1,30_issda_150,150,rng-150,121,rng,num-start-161,161,25726,3.2586545944213867,True,,True,1,False,1000,True,1.0
./expes/v2_2020-12-03_dh_150-prng-1,30_issda_150,150,rng-150,101,rng,num-start-631,631,25726,12.18448805809021,True,,True,1,False,1000,True,1.0
./expes/v2_2020-12-03_dh_150-prng-1,30_issda_150,150,rng-150,11,rng,num-start-651,651,25726,12.64716625213623,True,,True,1,False,1000,True,1.0
./expes/v2_2020-12-03_dh_150-prng-1,30_issda_150,150,rng-150,81,rng,num-start-981,981,25726,18.640438556671143,True,,True,1,False,1000,True,1.0
./expes/v2_2020-12-03_dh_150-prng-1,30_issda_150,150,rng-150,91,rng,num-start-531,531,25726,10.278453350067139,True,,True,1,False,1000,True,1.0
./expes/v2_2020-12-03_dh_150-prng-1,30_issda_150,150,rng-150,141,rng,num-start-521,521,25726,9.499549865722656,True,,True,1,False,1000,True,1.0
./expes/v2_2020-12-03_dh_150-prng-1,30_issda_150,150,rng-150,71,rng,num-start-701,701,25726,13.577473640441895,True,,True,1,False,1000,True,1.0
./expes/v2_2020-12-03_dh_150-prng-1,30_issda_150,150,rng-150,131,rng,num-start-911,911,25726,17.456210613250732,True,,True,1,False,1000,True,1.0
./expes/v2_2020-12-03_dh_150-prng-1,30_issda_150,150,rng-150,81,rng,num-start-611,611,25726,11.812489748001099,True,,True,1,False,1000,True,1.0
./expes/v2_2020-12-03_dh_150-prng-1,30_issda_150,150,rng-150,51,rng,num-start-501,501,25726,10.006434917449951,True,,True,1,False,1000,True,1.0
./expes/v2_2020-12-03_dh_150-prng-1,30_issda_150,150,rng-150,101,rng,num-start-491,491,25726,9.687768697738647,True,,True,1,False,1000,True,1.0
./expes/v2_2020-12-03_dh_150-prng-1,30_issda_150,150,rng-150,71,rng,num-start-771,771,25726,14.982081413269043,True,,True,1,False,1000,True,1.0
./expes/v2_2020-12-03_dh_150-prng-1,30_issda_150,150,rng-150,61,rng,num-start-621,621,25726,12.241014003753662,True,,True,1,False,1000,True,1.0
./expes/v2_2020-12-03_dh_150-prng-1,30_issda_150,150,rng-150,131,rng,num-start-921,921,25726,20.058512687683105,True,,True,1,False,1000,True,1.0
./expes/v2_2020-12-03_dh_150-prng-1,30_issda_150,150,rng-150,141,rng,num-start-81,81,25726,1.7663142681121826,True,,True,1,False,1000,True,1.0
./expes/v2_2020-12-03_dh_150-prng-1,30_issda_150,150,rng-150,111,rng,num-start-701,701,25726,15.421926259994507,True,,True,1,False,1000,True,1.0
./expes/v2_2020-12-03_dh_150-prng-1,30_issda_150,150,rng-150,111,rng,num-start-921,921,25726,21.108826398849487,True,,True,1,False,1000,True,1.0
./expes/v2_2020-12-03_dh_150-prng-1,30_issda_150,150,rng-150,101,rng,num-start-831,831,25726,16.81719160079956,True,,True,1,False,1000,True,1.0
./expes/v2_2020-12-03_dh_150-prng-1,30_issda_150,150,rng-150,1,rng,num-start-221,221,25726,3.964627742767334,True,,True,1,False,1000,True,1.0
./expes/v2_2020-12-03_dh_150-prng-1,30_issda_150,150,rng-150,111,rng,num-start-991,991,25726,19.384366035461426,True,,True,1,False,1000,True,1.0
./expes/v2_2020-12-03_dh_150-prng-1,30_issda_150,150,rng-150,91,rng,num-start-721,721,25726,14.109155416488647,True,,True,1,False,1000,True,1.0
./expes/v2_2020-12-03_dh_150-prng-1,30_issda_150,150,rng-150,81,rng,num-start-701,701,25726,13.58192777633667,True,,True,1,False,1000,True,1.0
./expes/v2_2020-12-03_dh_150-prng-1,30_issda_150,150,rng-150,101,rng,num-start-101,101,25726,2.1498632431030273,True,,True,1,False,1000,True,1.0
./expes/v2_2020-12-03_dh_150-prng-1,30_issda_150,150,rng-150,101,rng,num-start-931,931,25726,18.521437406539917,True,,True,1,False,1000,True,1.0
./expes/v2_2020-12-03_dh_150-prng-1,30_issda_150,150,rng-150,41,rng,num-start-911,911,25726,17.911059617996216,True,,True,1,False,1000,True,1.0
./expes/v2_2020-12-03_dh_150-prng-1,30_issda_150,150,rng-150,51,rng,num-start-721,721,25726,14.467309474945068,True,,True,1,False,1000,True,1.0
./expes/v2_2020-12-03_dh_150-prng-1,30_issda_150,150,rng-150,1,rng,num-start-211,211,25726,3.860213041305542,True,,True,1,False,1000,True,1.0
./expes/v2_2020-12-03_dh_150-prng-1,30_issda_150,150,rng-150,11,rng,num-start-381,381,25726,7.031553030014038,True,,True,1,False,1000,True,1.0
./expes/v2_2020-12-03_dh_150-prng-1,30_issda_150,150,rng-150,101,rng,num-start-731,731,25726,14.220820426940918,True,,True,1,False,1000,True,1.0
./expes/v2_2020-12-03_dh_150-prng-1,30_issda_150,150,rng-150,131,rng,num-start-111,111,25726,2.305415153503418,True,,True,1,False,1000,True,1.0
./expes/v2_2020-12-03_dh_150-prng-1,30_issda_150,150,rng-150,111,rng,num-start-341,341,25726,6.728968620300293,True,,True,1,False,1000,True,1.0
./expes/v2_2020-12-03_dh_150-prng-1,30_issda_150,150,rng-150,51,rng,num-start-421,421,25726,7.88318657875061,True,,True,1,False,1000,True,1.0
./expes/v2_2020-12-03_dh_150-prng-1,30_issda_150,150,rng-150,51,rng,num-start-421,421,25726,8.388654232025146,True,,True,1,False,1000,True,1.0
./expes/v2_2020-12-03_dh_150-prng-1,30_issda_150,150,rng-150,81,rng,num-start-661,661,25726,12.33625340461731,True,,True,1,False,1000,True,1.0
./expes/v2_2020-12-03_dh_150-prng-1,30_issda_150,150,rng-150,141,rng,num-start-41,41,25726,0.9608900547027588,True,,True,1,False,1000,True,1.0
./expes/v2_2020-12-03_dh_150-prng-1,30_issda_150,150,rng-150,111,rng,num-start-11,11,25726,1000.4446194171906,False,,False,0,True,1000,True,0.0
./expes/v2_2020-12-03_dh_150-prng-1,30_issda_150,150,rng-150,131,rng,num-start-161,161,25726,3.48319149017334,True,,True,1,False,1000,True,1.0
./expes/v2_2020-12-03_dh_150-prng-1,30_issda_150,150,rng-150,121,rng,num-start-631,631,25726,12.095815658569336,True,,True,1,False,1000,True,1.0
./expes/v2_2020-12-03_dh_150-prng-1,30_issda_150,150,rng-150,81,rng,num-start-651,651,25726,12.30592942237854,True,,True,1,False,1000,True,1.0
./expes/v2_2020-12-03_dh_150-prng-1,30_issda_150,150,rng-150,71,rng,num-start-71,71,25726,1.561802864074707,True,,True,1,False,1000,True,1.0
./expes/v2_2020-12-03_dh_150-prng-1,30_issda_150,150,rng-150,11,rng,num-start-541,541,25726,9.544596910476685,True,,True,1,False,1000,True,1.0
./expes/v2_2020-12-03_dh_150-prng-1,30_issda_150,150,rng-150,101,rng,num-start-351,351,25726,6.783130168914795,True,,True,1,False,1000,True,1.0
./expes/v2_2020-12-03_dh_150-prng-1,30_issda_150,150,rng-150,41,rng,num-start-641,641,25726,12.05807375907898,True,,True,1,False,1000,True,1.0
./expes/v2_2020-12-03_dh_150-prng-1,30_issda_150,150,rng-150,91,rng,num-start-571,571,25726,10.8416907787323,True,,True,1,False,1000,True,1.0
./expes/v2_2020-12-03_dh_150-prng-1,30_issda_150,150,rng-150,61,rng,num-start-941,941,25726,17.933550357818604,True,,True,1,False,1000,True,1.0
./expes/v2_2020-12-03_dh_150-prng-1,30_issda_150,150,rng-150,51,rng,num-start-411,411,25726,8.271873712539673,True,,True,1,False,1000,True,1.0
./expes/v2_2020-12-03_dh_150-prng-1,30_issda_150,150,rng-150,61,rng,num-start-461,461,25726,8.933326959609985,True,,True,1,False,1000,True,1.0
./expes/v2_2020-12-03_dh_150-prng-1,30_issda_150,150,rng-150,111,rng,num-start-111,111,25726,2.5788614749908447,True,,True,1,False,1000,True,1.0
./expes/v2_2020-12-03_dh_150-prng-1,30_issda_150,150,rng-150,11,rng,num-start-281,281,25726,6.060793161392212,True,,True,1,False,1000,True,1.0
./expes/v2_2020-12-03_dh_150-prng-1,30_issda_150,150,rng-150,71,rng,num-start-951,951,25726,20.152715921401978,True,,True,1,False,1000,True,1.0
./expes/v2_2020-12-03_dh_150-prng-1,30_issda_150,150,rng-150,51,rng,num-start-101,101,25726,2.365504503250122,True,,True,1,False,1000,True,1.0
./expes/v2_2020-12-03_dh_150-prng-1,30_issda_150,150,rng-150,41,rng,num-start-601,601,25726,13.494146823883057,True,,True,1,False,1000,True,1.0
./expes/v2_2020-12-03_dh_150-prng-1,30_issda_150,150,rng-150,71,rng,num-start-221,221,25726,4.670923471450806,True,,True,1,False,1000,True,1.0
./expes/v2_2020-12-03_dh_150-prng-1,30_issda_150,150,rng-150,1,rng,num-start-601,601,25726,10.55522871017456,True,,True,1,False,1000,True,1.0
./expes/v2_2020-12-03_dh_150-prng-1,30_issda_150,150,rng-150,91,rng,num-start-311,311,25726,6.456451654434204,True,,True,1,False,1000,True,1.0
./expes/v2_2020-12-03_dh_150-prng-1,30_issda_150,150,rng-150,11,rng,num-start-221,221,25726,4.284457683563232,True,,True,1,False,1000,True,1.0
./expes/v2_2020-12-03_dh_150-prng-1,30_issda_150,150,rng-150,131,rng,num-start-81,81,25726,1.5824289321899414,True,,True,1,False,1000,True,1.0
./expes/v2_2020-12-03_dh_150-prng-1,30_issda_150,150,rng-150,121,rng,num-start-351,351,25726,6.616093158721924,True,,True,1,False,1000,True,1.0
./expes/v2_2020-12-03_dh_150-prng-1,30_issda_150,150,rng-150,11,rng,num-start-131,131,25726,2.7455251216888428,True,,True,1,False,1000,True,1.0
./expes/v2_2020-12-03_dh_150-prng-1,30_issda_150,150,rng-150,41,rng,num-start-311,311,25726,5.95441746711731,True,,True,1,False,1000,True,1.0
./expes/v2_2020-12-03_dh_150-prng-1,30_issda_150,150,rng-150,131,rng,num-start-831,831,25726,16.058876276016235,True,,True,1,False,1000,True,1.0
./expes/v2_2020-12-03_dh_150-prng-1,30_issda_150,150,rng-150,1,rng,num-start-621,621,25726,10.894963502883911,True,,True,1,False,1000,True,1.0
./expes/v2_2020-12-03_dh_150-prng-1,30_issda_150,150,rng-150,91,rng,num-start-111,111,25726,2.346018075942993,True,,True,1,False,1000,True,1.0
./expes/v2_2020-12-03_dh_150-prng-1,30_issda_150,150,rng-150,131,rng,num-start-101,101,25726,2.0311532020568848,True,,True,1,False,1000,True,1.0
./expes/v2_2020-12-03_dh_150-prng-1,30_issda_150,150,rng-150,141,rng,num-start-381,381,25726,6.726580858230591,True,,True,1,False,1000,True,1.0
./expes/v2_2020-12-03_dh_150-prng-1,30_issda_150,150,rng-150,71,rng,num-start-31,31,25726,1000.763674736023,False,,False,0,True,1000,True,0.0
./expes/v2_2020-12-03_dh_150-prng-1,30_issda_150,150,rng-150,1,rng,num-start-831,831,25726,14.608767032623291,True,,True,1,False,1000,True,1.0
./expes/v2_2020-12-03_dh_150-prng-1,30_issda_150,150,rng-150,51,rng,num-start-931,931,25726,17.431532382965088,True,,True,1,False,1000,True,1.0
./expes/v2_2020-12-03_dh_150-prng-1,30_issda_150,150,rng-150,91,rng,num-start-241,241,25726,4.507689714431763,True,,True,1,False,1000,True,1.0
./expes/v2_2020-12-03_dh_150-prng-1,30_issda_150,150,rng-150,1,rng,num-start-661,661,25726,11.651702880859375,True,,True,1,False,1000,True,1.0
./expes/v2_2020-12-03_dh_150-prng-1,30_issda_150,150,rng-150,121,rng,num-start-921,921,25726,17.369428396224976,True,,True,1,False,1000,True,1.0
./expes/v2_2020-12-03_dh_150-prng-1,30_issda_150,150,rng-150,61,rng,num-start-991,991,25726,19.445296049118042,True,,True,1,False,1000,True,1.0
./expes/v2_2020-12-03_dh_150-prng-1,30_issda_150,150,rng-150,71,rng,num-start-601,601,25726,11.2529878616333,True,,True,1,False,1000,True,1.0
./expes/v2_2020-12-03_dh_150-prng-1,30_issda_150,150,rng-150,81,rng,num-start-131,131,25726,2.7297816276550293,True,,True,1,False,1000,True,1.0
./expes/v2_2020-12-03_dh_150-prng-1,30_issda_150,150,rng-150,51,rng,num-start-621,621,25726,11.991973400115967,True,,True,1,False,1000,True,1.0
./expes/v2_2020-12-03_dh_150-prng-1,30_issda_150,150,rng-150,41,rng,num-start-931,931,25726,18.12231206893921,True,,True,1,False,1000,True,1.0
./expes/v2_2020-12-03_dh_150-prng-1,30_issda_150,150,rng-150,121,rng,num-start-211,211,25726,4.4055094718933105,True,,True,1,False,1000,True,1.0
./expes/v2_2020-12-03_dh_150-prng-1,30_issda_150,150,rng-150,91,rng,num-start-421,421,25726,7.995413780212402,True,,True,1,False,1000,True,1.0
./expes/v2_2020-12-03_dh_150-prng-1,30_issda_150,150,rng-150,71,rng,num-start-621,621,25726,11.855939865112305,True,,True,1,False,1000,True,1.0
./expes/v2_2020-12-03_dh_150-prng-1,30_issda_150,150,rng-150,41,rng,num-start-461,461,25726,8.685987710952759,True,,True,1,False,1000,True,1.0
./expes/v2_2020-12-03_dh_150-prng-1,30_issda_150,150,rng-150,111,rng,num-start-901,901,25726,17.235137224197388,True,,True,1,False,1000,True,1.0
./expes/v2_2020-12-03_dh_150-prng-1,30_issda_150,150,rng-150,131,rng,num-start-501,501,25726,9.295002222061157,True,,True,1,False,1000,True,1.0
./expes/v2_2020-12-03_dh_150-prng-1,30_issda_150,150,rng-150,111,rng,num-start-181,181,25726,3.5505776405334473,True,,True,1,False,1000,True,1.0
./expes/v2_2020-12-03_dh_150-prng-1,30_issda_150,150,rng-150,41,rng,num-start-421,421,25726,8.08443570137024,True,,True,1,False,1000,True,1.0
./expes/v2_2020-12-03_dh_150-prng-1,30_issda_150,150,rng-150,41,rng,num-start-521,521,25726,10.368272066116333,True,,True,1,False,1000,True,1.0
./expes/v2_2020-12-03_dh_150-prng-1,30_issda_150,150,rng-150,121,rng,num-start-931,931,25726,17.6932532787323,True,,True,1,False,1000,True,1.0
./expes/v2_2020-12-03_dh_150-prng-1,30_issda_150,150,rng-150,121,rng,num-start-511,511,25726,9.459106206893921,True,,True,1,False,1000,True,1.0
./expes/v2_2020-12-03_dh_150-prng-1,30_issda_150,150,rng-150,101,rng,num-start-861,861,25726,16.578311920166016,True,,True,1,False,1000,True,1.0
./expes/v2_2020-12-03_dh_150-prng-1,30_issda_150,150,rng-150,81,rng,num-start-281,281,25726,5.486082553863525,True,,True,1,False,1000,True,1.0
./expes/v2_2020-12-03_dh_150-prng-1,30_issda_150,150,rng-150,61,rng,num-start-771,771,25726,15.23490309715271,True,,True,1,False,1000,True,1.0
./expes/v2_2020-12-03_dh_150-prng-1,30_issda_150,150,rng-150,61,rng,num-start-141,141,25726,2.8834874629974365,True,,True,1,False,1000,True,1.0
./expes/v2_2020-12-03_dh_150-prng-1,30_issda_150,150,rng-150,141,rng,num-start-411,411,25726,7.320982456207275,True,,True,1,False,1000,True,1.0
./expes/v2_2020-12-03_dh_150-prng-1,30_issda_150,150,rng-150,111,rng,num-start-181,181,25726,3.635802745819092,True,,True,1,False,1000,True,1.0
./expes/v2_2020-12-03_dh_150-prng-1,30_issda_150,150,rng-150,31,rng,num-start-121,121,25726,2.5564746856689453,True,,True,1,False,1000,True,1.0
./expes/v2_2020-12-03_dh_150-prng-1,30_issda_150,150,rng-150,71,rng,num-start-331,331,25726,6.460866212844849,True,,True,1,False,1000,True,1.0
./expes/v2_2020-12-03_dh_150-prng-1,30_issda_150,150,rng-150,51,rng,num-start-501,501,25726,9.601746559143066,True,,True,1,False,1000,True,1.0
./expes/v2_2020-12-03_dh_150-prng-1,30_issda_150,150,rng-150,61,rng,num-start-541,541,25726,10.409169912338257,True,,True,1,False,1000,True,1.0
./expes/v2_2020-12-03_dh_150-prng-1,30_issda_150,150,rng-150,41,rng,num-start-91,91,25726,1.9337444305419922,True,,True,1,False,1000,True,1.0
./expes/v2_2020-12-03_dh_150-prng-1,30_issda_150,150,rng-150,31,rng,num-start-431,431,25726,8.975840330123901,True,,True,1,False,1000,True,1.0
./expes/v2_2020-12-03_dh_150-prng-1,30_issda_150,150,rng-150,61,rng,num-start-571,571,25726,11.723009586334229,True,,True,1,False,1000,True,1.0
./expes/v2_2020-12-03_dh_150-prng-1,30_issda_150,150,rng-150,121,rng,num-start-751,751,25726,14.632556438446045,True,,True,1,False,1000,True,1.0
./expes/v2_2020-12-03_dh_150-prng-1,30_issda_150,150,rng-150,71,rng,num-start-261,261,25726,5.249370813369751,True,,True,1,False,1000,True,1.0
./expes/v2_2020-12-03_dh_150-prng-1,30_issda_150,150,rng-150,141,rng,num-start-171,171,25726,3.3528926372528076,True,,True,1,False,1000,True,1.0
./expes/v2_2020-12-03_dh_150-prng-1,30_issda_150,150,rng-150,91,rng,num-start-501,501,25726,9.431264400482178,True,,True,1,False,1000,True,1.0
./expes/v2_2020-12-03_dh_150-prng-1,30_issda_150,150,rng-150,71,rng,num-start-241,241,25726,5.013285398483276,True,,True,1,False,1000,True,1.0
./expes/v2_2020-12-03_dh_150-prng-1,30_issda_150,150,rng-150,121,rng,num-start-391,391,25726,8.053982734680176,True,,True,1,False,1000,True,1.0
./expes/v2_2020-12-03_dh_150-prng-1,30_issda_150,150,rng-150,11,rng,num-start-461,461,25726,8.873327493667603,True,,True,1,False,1000,True,1.0
./expes/v2_2020-12-03_dh_150-prng-1,30_issda_150,150,rng-150,71,rng,num-start-411,411,25726,8.596848011016846,True,,True,1,False,1000,True,1.0
./expes/v2_2020-12-03_dh_150-prng-1,30_issda_150,150,rng-150,111,rng,num-start-1,1,25726,0.052466630935668945,False,,False,2,False,1000,True,1.0
./expes/v2_2020-12-03_dh_150-prng-1,30_issda_150,150,rng-150,1,rng,num-start-171,171,25726,3.13732647895813,True,,True,1,False,1000,True,1.0
./expes/v2_2020-12-03_dh_150-prng-1,30_issda_150,150,rng-150,121,rng,num-start-441,441,25726,8.517308712005615,True,,True,1,False,1000,True,1.0
./expes/v2_2020-12-03_dh_150-prng-1,30_issda_150,150,rng-150,111,rng,num-start-671,671,25726,13.959527730941772,True,,True,1,False,1000,True,1.0
./expes/v2_2020-12-03_dh_150-prng-1,30_issda_150,150,rng-150,131,rng,num-start-401,401,25726,8.073586225509644,True,,True,1,False,1000,True,1.0
./expes/v2_2020-12-03_dh_150-prng-1,30_issda_150,150,rng-150,131,rng,num-start-961,961,25726,18.740917444229126,True,,True,1,False,1000,True,1.0
./expes/v2_2020-12-03_dh_150-prng-1,30_issda_150,150,rng-150,141,rng,num-start-901,901,25726,16.54447889328003,True,,True,1,False,1000,True,1.0
./expes/v2_2020-12-03_dh_150-prng-1,30_issda_150,150,rng-150,131,rng,num-start-821,821,25726,15.77921748161316,True,,True,1,False,1000,True,1.0
./expes/v2_2020-12-03_dh_150-prng-1,30_issda_150,150,rng-150,141,rng,num-start-391,391,25726,7.373756170272827,True,,True,1,False,1000,True,1.0
./expes/v2_2020-12-03_dh_150-prng-1,30_issda_150,150,rng-150,101,rng,num-start-121,121,25726,2.6141598224639893,True,,True,1,False,1000,True,1.0
./expes/v2_2020-12-03_dh_150-prng-1,30_issda_150,150,rng-150,21,rng,num-start-21,21,25726,493.9238929748535,True,,True,1,False,1000,True,1.0
./expes/v2_2020-12-03_dh_150-prng-1,30_issda_150,150,rng-150,41,rng,num-start-691,691,25726,13.358176469802856,True,,True,1,False,1000,True,1.0
./expes/v2_2020-12-03_dh_150-prng-1,30_issda_150,150,rng-150,101,rng,num-start-71,71,25726,1.596137523651123,True,,True,1,False,1000,True,1.0
./expes/v2_2020-12-03_dh_150-prng-1,30_issda_150,150,rng-150,21,rng,num-start-951,951,25726,19.533225059509277,True,,True,1,False,1000,True,1.0
./expes/v2_2020-12-03_dh_150-prng-1,30_issda_150,150,rng-150,61,rng,num-start-101,101,25726,2.3110623359680176,True,,True,1,False,1000,True,1.0
./expes/v2_2020-12-03_dh_150-prng-1,30_issda_150,150,rng-150,61,rng,num-start-971,971,25726,19.263909339904785,True,,True,1,False,1000,True,1.0
./expes/v2_2020-12-03_dh_150-prng-1,30_issda_150,150,rng-150,61,rng,num-start-371,371,25726,7.567216873168945,True,,True,1,False,1000,True,1.0
./expes/v2_2020-12-03_dh_150-prng-1,30_issda_150,150,rng-150,21,rng,num-start-271,271,25726,5.393974304199219,True,,True,1,False,1000,True,1.0
./expes/v2_2020-12-03_dh_150-prng-1,30_issda_150,150,rng-150,41,rng,num-start-121,121,25726,2.6194839477539062,True,,True,1,False,1000,True,1.0
./expes/v2_2020-12-03_dh_150-prng-1,30_issda_150,150,rng-150,61,rng,num-start-511,511,25726,10.454156637191772,True,,True,1,False,1000,True,1.0
./expes/v2_2020-12-03_dh_150-prng-1,30_issda_150,150,rng-150,71,rng,num-start-21,21,25726,1000.5113620758057,False,,False,0,True,1000,True,0.0
./expes/v2_2020-12-03_dh_150-prng-1,30_issda_150,150,rng-150,21,rng,num-start-301,301,25726,5.97032618522644,True,,True,1,False,1000,True,1.0
./expes/v2_2020-12-03_dh_150-prng-1,30_issda_150,150,rng-150,101,rng,num-start-911,911,25726,16.67911458015442,True,,True,1,False,1000,True,1.0
./expes/v2_2020-12-03_dh_150-prng-1,30_issda_150,150,rng-150,71,rng,num-start-541,541,25726,10.413022756576538,True,,True,1,False,1000,True,1.0
./expes/v2_2020-12-03_dh_150-prng-1,30_issda_150,150,rng-150,1,rng,num-start-701,701,25726,12.754604578018188,True,,True,1,False,1000,True,1.0
./expes/v2_2020-12-03_dh_150-prng-1,30_issda_150,150,rng-150,121,rng,num-start-41,41,25726,1.484788179397583,True,,True,1,False,1000,True,1.0
./expes/v2_2020-12-03_dh_150-prng-1,30_issda_150,150,rng-150,111,rng,num-start-391,391,25726,7.8995232582092285,True,,True,1,False,1000,True,1.0
./expes/v2_2020-12-03_dh_150-prng-1,30_issda_150,150,rng-150,1,rng,num-start-381,381,25726,6.688326597213745,True,,True,1,False,1000,True,1.0
./expes/v2_2020-12-03_dh_150-prng-1,30_issda_150,150,rng-150,71,rng,num-start-331,331,25726,6.663268089294434,True,,True,1,False,1000,True,1.0
./expes/v2_2020-12-03_dh_150-prng-1,30_issda_150,150,rng-150,21,rng,num-start-761,761,25726,13.993149280548096,True,,True,1,False,1000,True,1.0
./expes/v2_2020-12-03_dh_150-prng-1,30_issda_150,150,rng-150,11,rng,num-start-751,751,25726,13.553593873977661,True,,True,1,False,1000,True,1.0
./expes/v2_2020-12-03_dh_150-prng-1,30_issda_150,150,rng-150,131,rng,num-start-901,901,25726,16.735992193222046,True,,True,1,False,1000,True,1.0
./expes/v2_2020-12-03_dh_150-prng-1,30_issda_150,150,rng-150,141,rng,num-start-61,61,25726,1.2274422645568848,True,,True,1,False,1000,True,1.0
./expes/v2_2020-12-03_dh_150-prng-1,30_issda_150,150,rng-150,91,rng,num-start-661,661,25726,12.329406023025513,True,,True,1,False,1000,True,1.0
./expes/v2_2020-12-03_dh_150-prng-1,30_issda_150,150,rng-150,81,rng,num-start-791,791,25726,15.236653327941895,True,,True,1,False,1000,True,1.0
./expes/v2_2020-12-03_dh_150-prng-1,30_issda_150,150,rng-150,71,rng,num-start-931,931,25726,17.883158683776855,True,,True,1,False,1000,True,1.0
./expes/v2_2020-12-03_dh_150-prng-1,30_issda_150,150,rng-150,51,rng,num-start-451,451,25726,8.440558671951294,True,,True,1,False,1000,True,1.0
./expes/v2_2020-12-03_dh_150-prng-1,30_issda_150,150,rng-150,131,rng,num-start-831,831,25726,16.15496015548706,True,,True,1,False,1000,True,1.0
./expes/v2_2020-12-03_dh_150-prng-1,30_issda_150,150,rng-150,21,rng,num-start-391,391,25726,7.493890285491943,True,,True,1,False,1000,True,1.0
./expes/v2_2020-12-03_dh_150-prng-1,30_issda_150,150,rng-150,121,rng,num-start-311,311,25726,5.885595083236694,True,,True,1,False,1000,True,1.0
./expes/v2_2020-12-03_dh_150-prng-1,30_issda_150,150,rng-150,121,rng,num-start-261,261,25726,5.122572898864746,True,,True,1,False,1000,True,1.0
./expes/v2_2020-12-03_dh_150-prng-1,30_issda_150,150,rng-150,61,rng,num-start-121,121,25726,2.685497522354126,True,,True,1,False,1000,True,1.0
./expes/v2_2020-12-03_dh_150-prng-1,30_issda_150,150,rng-150,91,rng,num-start-521,521,25726,10.036628007888794,True,,True,1,False,1000,True,1.0
./expes/v2_2020-12-03_dh_150-prng-1,30_issda_150,150,rng-150,41,rng,num-start-671,671,25726,13.093562126159668,True,,True,1,False,1000,True,1.0
./expes/v2_2020-12-03_dh_150-prng-1,30_issda_150,150,rng-150,91,rng,num-start-501,501,25726,10.025927543640137,True,,True,1,False,1000,True,1.0
./expes/v2_2020-12-03_dh_150-prng-1,30_issda_150,150,rng-150,51,rng,num-start-21,21,25726,1000.6040425300598,False,,False,0,True,1000,True,0.0
./expes/v2_2020-12-03_dh_150-prng-1,30_issda_150,150,rng-150,121,rng,num-start-851,851,25726,16.682695627212524,True,,True,1,False,1000,True,1.0
./expes/v2_2020-12-03_dh_150-prng-1,30_issda_150,150,rng-150,121,rng,num-start-111,111,25726,2.202517032623291,True,,True,1,False,1000,True,1.0
./expes/v2_2020-12-03_dh_150-prng-1,30_issda_150,150,rng-150,81,rng,num-start-841,841,25726,16.251673460006714,True,,True,1,False,1000,True,1.0
./expes/v2_2020-12-03_dh_150-prng-1,30_issda_150,150,rng-150,31,rng,num-start-321,321,25726,6.3874993324279785,True,,True,1,False,1000,True,1.0
./expes/v2_2020-12-03_dh_150-prng-1,30_issda_150,150,rng-150,51,rng,num-start-101,101,25726,2.199514627456665,True,,True,1,False,1000,True,1.0
./expes/v2_2020-12-03_dh_150-prng-1,30_issda_150,150,rng-150,111,rng,num-start-81,81,25726,1.6789155006408691,True,,True,1,False,1000,True,1.0
./expes/v2_2020-12-03_dh_150-prng-1,30_issda_150,150,rng-150,131,rng,num-start-261,261,25726,5.187804937362671,True,,True,1,False,1000,True,1.0
./expes/v2_2020-12-03_dh_150-prng-1,30_issda_150,150,rng-150,111,rng,num-start-241,241,25726,4.771200656890869,True,,True,1,False,1000,True,1.0
./expes/v2_2020-12-03_dh_150-prng-1,30_issda_150,150,rng-150,41,rng,num-start-741,741,25726,14.028478860855103,True,,True,1,False,1000,True,1.0
./expes/v2_2020-12-03_dh_150-prng-1,30_issda_150,150,rng-150,111,rng,num-start-171,171,25726,3.53560733795166,True,,True,1,False,1000,True,1.0
./expes/v2_2020-12-03_dh_150-prng-1,30_issda_150,150,rng-150,31,rng,num-start-911,911,25726,17.39179229736328,True,,True,1,False,1000,True,1.0
./expes/v2_2020-12-03_dh_150-prng-1,30_issda_150,150,rng-150,81,rng,num-start-361,361,25726,6.90662693977356,True,,True,1,False,1000,True,1.0
./expes/v2_2020-12-03_dh_150-prng-1,30_issda_150,150,rng-150,21,rng,num-start-381,381,25726,7.594807863235474,True,,True,1,False,1000,True,1.0
./expes/v2_2020-12-03_dh_150-prng-1,30_issda_150,150,rng-150,41,rng,num-start-371,371,25726,7.415254354476929,True,,True,1,False,1000,True,1.0
./expes/v2_2020-12-03_dh_150-prng-1,30_issda_150,150,rng-150,81,rng,num-start-831,831,25726,16.73619031906128,True,,True,1,False,1000,True,1.0
./expes/v2_2020-12-03_dh_150-prng-1,30_issda_150,150,rng-150,31,rng,num-start-621,621,25726,11.688869714736938,True,,True,1,False,1000,True,1.0
./expes/v2_2020-12-03_dh_150-prng-1,30_issda_150,150,rng-150,141,rng,num-start-121,121,25726,2.4336652755737305,True,,True,1,False,1000,True,1.0
./expes/v2_2020-12-03_dh_150-prng-1,30_issda_150,150,rng-150,121,rng,num-start-401,401,25726,7.791163206100464,True,,True,1,False,1000,True,1.0
./expes/v2_2020-12-03_dh_150-prng-1,30_issda_150,150,rng-150,51,rng,num-start-331,331,25726,6.4161317348480225,True,,True,1,False,1000,True,1.0
./expes/v2_2020-12-03_dh_150-prng-1,30_issda_150,150,rng-150,31,rng,num-start-241,241,25726,4.737796068191528,True,,True,1,False,1000,True,1.0
./expes/v2_2020-12-03_dh_150-prng-1,30_issda_150,150,rng-150,71,rng,num-start-191,191,25726,3.9857685565948486,True,,True,1,False,1000,True,1.0
./expes/v2_2020-12-03_dh_150-prng-1,30_issda_150,150,rng-150,111,rng,num-start-181,181,25726,3.7938544750213623,True,,True,1,False,1000,True,1.0
./expes/v2_2020-12-03_dh_150-prng-1,30_issda_150,150,rng-150,81,rng,num-start-31,31,25726,1001.074827671051,False,,False,0,True,1000,True,0.0
./expes/v2_2020-12-03_dh_150-prng-1,30_issda_150,150,rng-150,131,rng,num-start-281,281,25726,5.428832530975342,True,,True,1,False,1000,True,1.0
./expes/v2_2020-12-03_dh_150-prng-1,30_issda_150,150,rng-150,141,rng,num-start-761,761,25726,13.477161407470703,True,,True,1,False,1000,True,1.0
./expes/v2_2020-12-03_dh_150-prng-1,30_issda_150,150,rng-150,81,rng,num-start-261,261,25726,5.146146059036255,True,,True,1,False,1000,True,1.0
./expes/v2_2020-12-03_dh_150-prng-1,30_issda_150,150,rng-150,131,rng,num-start-741,741,25726,14.189867734909058,True,,True,1,False,1000,True,1.0
./expes/v2_2020-12-03_dh_150-prng-1,30_issda_150,150,rng-150,41,rng,num-start-661,661,25726,12.743920087814331,True,,True,1,False,1000,True,1.0
./expes/v2_2020-12-03_dh_150-prng-1,30_issda_150,150,rng-150,41,rng,num-start-911,911,25726,18.30143690109253,True,,True,1,False,1000,True,1.0
./expes/v2_2020-12-03_dh_150-prng-1,30_issda_150,150,rng-150,91,rng,num-start-531,531,25726,10.090222120285034,True,,True,1,False,1000,True,1.0
./expes/v2_2020-12-03_dh_150-prng-1,30_issda_150,150,rng-150,71,rng,num-start-231,231,25726,4.672002792358398,True,,True,1,False,1000,True,1.0
./expes/v2_2020-12-03_dh_150-prng-1,30_issda_150,150,rng-150,61,rng,num-start-61,61,25726,2.0275988578796387,True,,True,1,False,1000,True,1.0
./expes/v2_2020-12-03_dh_150-prng-1,30_issda_150,150,rng-150,111,rng,num-start-31,31,25726,1002.5048348903656,False,,False,0,True,1000,True,0.0
./expes/v2_2020-12-03_dh_150-prng-1,30_issda_150,150,rng-150,81,rng,num-start-181,181,25726,3.7735769748687744,True,,True,1,False,1000,True,1.0
./expes/v2_2020-12-03_dh_150-prng-1,30_issda_150,150,rng-150,31,rng,num-start-531,531,25726,10.35330867767334,True,,True,1,False,1000,True,1.0
./expes/v2_2020-12-03_dh_150-prng-1,30_issda_150,150,rng-150,51,rng,num-start-941,941,25726,18.484782218933105,True,,True,1,False,1000,True,1.0
./expes/v2_2020-12-03_dh_150-prng-1,30_issda_150,150,rng-150,91,rng,num-start-71,71,25726,1.5332224369049072,True,,True,1,False,1000,True,1.0
./expes/v2_2020-12-03_dh_150-prng-1,30_issda_150,150,rng-150,111,rng,num-start-411,411,25726,7.788411378860474,True,,True,1,False,1000,True,1.0
./expes/v2_2020-12-03_dh_150-prng-1,30_issda_150,150,rng-150,1,rng,num-start-931,931,25726,16.81291127204895,True,,True,1,False,1000,True,1.0
./expes/v2_2020-12-03_dh_150-prng-1,30_issda_150,150,rng-150,101,rng,num-start-831,831,25726,16.420308351516724,True,,True,1,False,1000,True,1.0
./expes/v2_2020-12-03_dh_150-prng-1,30_issda_150,150,rng-150,111,rng,num-start-881,881,25726,17.80743646621704,True,,True,1,False,1000,True,1.0
./expes/v2_2020-12-03_dh_150-prng-1,30_issda_150,150,rng-150,81,rng,num-start-421,421,25726,8.703560829162598,True,,True,1,False,1000,True,1.0
./expes/v2_2020-12-03_dh_150-prng-1,30_issda_150,150,rng-150,71,rng,num-start-111,111,25726,2.390850067138672,True,,True,1,False,1000,True,1.0
./expes/v2_2020-12-03_dh_150-prng-1,30_issda_150,150,rng-150,1,rng,num-start-91,91,25726,1.633845329284668,True,,True,1,False,1000,True,1.0
./expes/v2_2020-12-03_dh_150-prng-1,30_issda_150,150,rng-150,1,rng,num-start-441,441,25726,7.947690010070801,True,,True,1,False,1000,True,1.0
./expes/v2_2020-12-03_dh_150-prng-1,30_issda_150,150,rng-150,61,rng,num-start-961,961,25726,19.191059827804565,True,,True,1,False,1000,True,1.0
./expes/v2_2020-12-03_dh_150-prng-1,30_issda_150,150,rng-150,31,rng,num-start-911,911,25726,17.735982179641724,True,,True,1,False,1000,True,1.0
./expes/v2_2020-12-03_dh_150-prng-1,30_issda_150,150,rng-150,81,rng,num-start-701,701,25726,14.102810144424438,True,,True,1,False,1000,True,1.0
./expes/v2_2020-12-03_dh_150-prng-1,30_issda_150,150,rng-150,71,rng,num-start-681,681,25726,13.103042364120483,True,,True,1,False,1000,True,1.0
./expes/v2_2020-12-03_dh_150-prng-1,30_issda_150,150,rng-150,41,rng,num-start-221,221,25726,4.5326926708221436,True,,True,1,False,1000,True,1.0
./expes/v2_2020-12-03_dh_150-prng-1,30_issda_150,150,rng-150,21,rng,num-start-511,511,25726,9.799461126327515,True,,True,1,False,1000,True,1.0
./expes/v2_2020-12-03_dh_150-prng-1,30_issda_150,150,rng-150,81,rng,num-start-131,131,25726,2.8063812255859375,True,,True,1,False,1000,True,1.0
./expes/v2_2020-12-03_dh_150-prng-1,30_issda_150,150,rng-150,31,rng,num-start-591,591,25726,11.912377119064331,True,,True,1,False,1000,True,1.0
./expes/v2_2020-12-03_dh_150-prng-1,30_issda_150,150,rng-150,31,rng,num-start-311,311,25726,6.266648530960083,True,,True,1,False,1000,True,1.0
