expe,clients,clients_size,clients_subset,agg_size,agg_size_pc,method,days,days_size,days_total,noise_method,time,valid,valid_sum,success,nsols,wall_hit,wall_time,pooled,valid_sums
./expes/v2_2021-01-07_di_4500-prng-w5-2,daily_issda-4500,4500,rng-4500,784,17,rng,num-start-51,51,536,normal,17.30876612663269,False,,False,2,False,5000,True,0.0
./expes/v2_2021-01-07_di_4500-prng-w5-2,daily_issda-4500,4500,rng-4500,1232,27,rng,num-start-41,41,536,normal,13.9606454372406,False,,False,2,False,5000,True,0.0
./expes/v2_2021-01-07_di_4500-prng-w5-2,daily_issda-4500,4500,rng-4500,560,12,rng,num-start-61,61,536,normal,21.86034393310547,False,,False,2,False,5000,True,0.0
./expes/v2_2021-01-07_di_4500-prng-w5-2,daily_issda-4500,4500,rng-4500,224,4,rng,num-start-251,251,536,normal,84.20482897758484,False,,False,2,False,5000,True,0.0
./expes/v2_2021-01-07_di_4500-prng-w5-2,daily_issda-4500,4500,rng-4500,1344,29,rng,num-start-151,151,536,normal,44.97896194458008,False,,False,2,False,5000,True,0.0
./expes/v2_2021-01-07_di_4500-prng-w5-2,daily_issda-4500,4500,rng-4500,784,17,rng,num-start-291,291,536,normal,97.52219223976135,False,,False,2,False,5000,True,0.0
./expes/v2_2021-01-07_di_4500-prng-w5-2,daily_issda-4500,4500,rng-4500,2016,44,rng,num-start-131,131,536,normal,40.700135707855225,False,,False,2,False,5000,True,0.0
