expe,clients,clients_size,clients_subset,agg_size,agg_size_pc,method,days,days_size,days_total,noise_method,time,valid,valid_sum,success,nsols,wall_hit,wall_time,pooled,valid_sums
./expes/v2_2021-01-07_di_4500-prng-w5-2,daily_issda-4500,4500,rng-4500,2016,44,rng,num-start-111,111,536,normal,31.028379678726196,False,,False,2,False,5000,True,0.0
./expes/v2_2021-01-07_di_4500-prng-w5-2,daily_issda-4500,4500,rng-4500,1008,22,rng,num-start-71,71,536,normal,25.090080976486206,False,,False,2,False,5000,True,0.0
./expes/v2_2021-01-07_di_4500-prng-w5-2,daily_issda-4500,4500,rng-4500,224,4,rng,num-start-211,211,536,normal,77.29294443130493,False,,False,2,False,5000,True,0.0
./expes/v2_2021-01-07_di_4500-prng-w5-2,daily_issda-4500,4500,rng-4500,1904,42,rng,num-start-201,201,536,normal,54.95717930793762,False,,False,2,False,5000,True,0.0
./expes/v2_2021-01-07_di_4500-prng-w5-2,daily_issda-4500,4500,rng-4500,672,14,rng,num-start-51,51,536,normal,14.514868021011353,False,,False,2,False,5000,True,0.0
./expes/v2_2021-01-07_di_4500-prng-w5-2,daily_issda-4500,4500,rng-4500,1680,37,rng,num-start-281,281,536,normal,78.37997484207153,False,,False,2,False,5000,True,0.0
./expes/v2_2021-01-07_di_4500-prng-w5-2,daily_issda-4500,4500,rng-4500,448,9,rng,num-start-21,21,536,normal,7.809624910354614,False,,False,2,False,5000,True,0.0
./expes/v2_2021-01-07_di_4500-prng-w5-2,daily_issda-4500,4500,rng-4500,2128,47,rng,num-start-181,181,536,normal,47.6426887512207,False,,False,2,False,5000,True,0.0
