expe,clients,clients_size,clients_subset,agg_size,method,days,days_size,days_total,time,valid,valid_sum,success,nsols,wall_hit,wall_time,pooled,valid_sums
./expes/v2_2020-11-04_hbh_50-prng-1,30_base_hphc_50,50,first-50,21,rng,num-start-501,501,17520,5.1174280643463135,True,,True,1,False,1000,True,1.0
./expes/v2_2020-11-04_hbh_50-prng-1,30_base_hphc_50,50,first-50,21,rng,num-start-981,981,17520,9.617716789245605,True,,True,1,False,1000,True,1.0
