expe,clients,clients_size,clients_subset,agg_size,method,days,days_size,days_total,time,valid,valid_sum,success,nsols,wall_hit,wall_time,pooled,valid_sums
./expes/v2_2020-11-04_hbh_50-prng-1,30_base_hphc_50,50,first-50,21,rng,num-start-591,591,17520,5.946926593780518,True,,True,1,False,1000,True,1.0
./expes/v2_2020-11-04_hbh_50-prng-1,30_base_hphc_50,50,first-50,31,rng,num-start-121,121,17520,1.240833044052124,True,,True,1,False,1000,True,1.0
./expes/v2_2020-11-04_hbh_50-prng-1,30_base_hphc_50,50,first-50,21,rng,num-start-841,841,17520,8.165826559066772,True,,True,1,False,1000,True,1.0
./expes/v2_2020-11-04_hbh_50-prng-1,30_base_hphc_50,50,first-50,41,rng,num-start-881,881,17520,8.292722940444946,True,,True,1,False,1000,True,1.0
./expes/v2_2020-11-04_hbh_50-prng-1,30_base_hphc_50,50,first-50,11,rng,num-start-661,661,17520,6.245406150817871,True,,True,1,False,1000,True,1.0
./expes/v2_2020-11-04_hbh_50-prng-1,30_base_hphc_50,50,first-50,31,rng,num-start-251,251,17520,2.361912965774536,True,,True,1,False,1000,True,1.0
./expes/v2_2020-11-04_hbh_50-prng-1,30_base_hphc_50,50,first-50,41,rng,num-start-201,201,17520,1.9564270973205566,True,,True,1,False,1000,True,1.0
./expes/v2_2020-11-04_hbh_50-prng-1,30_base_hphc_50,50,first-50,31,rng,num-start-91,91,17520,0.9808588027954102,True,,True,1,False,1000,True,1.0
./expes/v2_2020-11-04_hbh_50-prng-1,30_base_hphc_50,50,first-50,11,rng,num-start-381,381,17520,3.6117630004882812,True,,True,1,False,1000,True,1.0
