expe,clients,clients_size,clients_subset,agg_size,method,days,days_size,days_total,time,valid,valid_sum,success,nsols,wall_hit,wall_time,pooled,valid_sums
./expes/v2_2020-12-01_di_200-prng-1,daily_issda_200,200,rng-200,101,rng,num-start-1,1,536,2.7635457515716553,False,,False,2,False,1000,True,1.0
./expes/v2_2020-12-01_di_200-prng-1,daily_issda_200,200,rng-200,31,rng,num-start-241,241,536,4.0358967781066895,True,,True,1,False,1000,True,1.0
./expes/v2_2020-12-01_di_200-prng-1,daily_issda_200,200,rng-200,21,rng,num-start-21,21,536,1004.8237037658691,False,,False,0,True,1000,True,0.0
./expes/v2_2020-12-01_di_200-prng-1,daily_issda_200,200,rng-200,101,rng,num-start-281,281,536,5.133026838302612,True,,True,1,False,1000,True,1.0
./expes/v2_2020-12-01_di_200-prng-1,daily_issda_200,200,rng-200,81,rng,num-start-221,221,536,3.8628439903259277,True,,True,1,False,1000,True,1.0
./expes/v2_2020-12-01_di_200-prng-1,daily_issda_200,200,rng-200,101,rng,num-start-141,141,536,2.7583916187286377,True,,True,1,False,1000,True,1.0
./expes/v2_2020-12-01_di_200-prng-1,daily_issda_200,200,rng-200,11,rng,num-start-261,261,536,4.44155216217041,True,,True,1,False,1000,True,1.0
./expes/v2_2020-12-01_di_200-prng-1,daily_issda_200,200,rng-200,31,rng,num-start-261,261,536,4.326359510421753,True,,True,1,False,1000,True,1.0
./expes/v2_2020-12-01_di_200-prng-1,daily_issda_200,200,rng-200,11,rng,num-start-91,91,536,1.5886178016662598,True,,True,1,False,1000,True,1.0
./expes/v2_2020-12-01_di_200-prng-1,daily_issda_200,200,rng-200,141,rng,num-start-291,291,536,4.525826454162598,True,,True,1,False,1000,True,1.0
./expes/v2_2020-12-01_di_200-prng-1,daily_issda_200,200,rng-200,121,rng,num-start-171,171,536,2.984816312789917,True,,True,1,False,1000,True,1.0
./expes/v2_2020-12-01_di_200-prng-1,daily_issda_200,200,rng-200,141,rng,num-start-51,51,536,1000.692125082016,False,,False,0,True,1000,True,0.0
./expes/v2_2020-12-01_di_200-prng-1,daily_issda_200,200,rng-200,121,rng,num-start-11,11,536,1000.2311406135559,False,,False,0,True,1000,True,0.0
./expes/v2_2020-12-01_di_200-prng-1,daily_issda_200,200,rng-200,131,rng,num-start-171,171,536,3.027264356613159,True,,True,1,False,1000,True,1.0
./expes/v2_2020-12-01_di_200-prng-1,daily_issda_200,200,rng-200,171,rng,num-start-221,221,536,4.546339750289917,True,,True,1,False,1000,True,1.0
./expes/v2_2020-12-01_di_200-prng-1,daily_issda_200,200,rng-200,1,rng,num-start-161,161,536,2.112130880355835,True,,True,1,False,1000,True,1.0
./expes/v2_2020-12-01_di_200-prng-1,daily_issda_200,200,rng-200,181,rng,num-start-211,211,536,3.137432813644409,True,,True,1,False,1000,True,1.0
./expes/v2_2020-12-01_di_200-prng-1,daily_issda_200,200,rng-200,1,rng,num-start-111,111,536,1.410935878753662,True,,True,1,False,1000,True,1.0
./expes/v2_2020-12-01_di_200-prng-1,daily_issda_200,200,rng-200,121,rng,num-start-1,1,536,1.196662425994873,False,,False,2,False,1000,True,1.0
./expes/v2_2020-12-01_di_200-prng-1,daily_issda_200,200,rng-200,61,rng,num-start-131,131,536,2.317610502243042,True,,True,1,False,1000,True,1.0
./expes/v2_2020-12-01_di_200-prng-1,daily_issda_200,200,rng-200,161,rng,num-start-181,181,536,2.863126277923584,True,,True,1,False,1000,True,1.0
./expes/v2_2020-12-01_di_200-prng-1,daily_issda_200,200,rng-200,31,rng,num-start-281,281,536,4.552565574645996,True,,True,1,False,1000,True,1.0
./expes/v2_2020-12-01_di_200-prng-1,daily_issda_200,200,rng-200,191,rng,num-start-131,131,536,1.9459302425384521,True,,True,1,False,1000,True,1.0
./expes/v2_2020-12-01_di_200-prng-1,daily_issda_200,200,rng-200,101,rng,num-start-121,121,536,2.1305549144744873,True,,True,1,False,1000,True,1.0
./expes/v2_2020-12-01_di_200-prng-1,daily_issda_200,200,rng-200,61,rng,num-start-241,241,536,4.043855905532837,True,,True,1,False,1000,True,1.0
./expes/v2_2020-12-01_di_200-prng-1,daily_issda_200,200,rng-200,161,rng,num-start-81,81,536,1.915393590927124,True,,True,1,False,1000,True,1.0
./expes/v2_2020-12-01_di_200-prng-1,daily_issda_200,200,rng-200,71,rng,num-start-131,131,536,2.2441835403442383,True,,True,1,False,1000,True,1.0
./expes/v2_2020-12-01_di_200-prng-1,daily_issda_200,200,rng-200,41,rng,num-start-131,131,536,2.287990093231201,True,,True,1,False,1000,True,1.0
./expes/v2_2020-12-01_di_200-prng-1,daily_issda_200,200,rng-200,41,rng,num-start-51,51,536,13.87996530532837,True,,True,1,False,1000,True,1.0
./expes/v2_2020-12-01_di_200-prng-1,daily_issda_200,200,rng-200,121,rng,num-start-231,231,536,3.6472666263580322,True,,True,1,False,1000,True,1.0
./expes/v2_2020-12-01_di_200-prng-1,daily_issda_200,200,rng-200,131,rng,num-start-111,111,536,1.8726155757904053,True,,True,1,False,1000,True,1.0
./expes/v2_2020-12-01_di_200-prng-1,daily_issda_200,200,rng-200,111,rng,num-start-91,91,536,1.9264967441558838,True,,True,1,False,1000,True,1.0
./expes/v2_2020-12-01_di_200-prng-1,daily_issda_200,200,rng-200,51,rng,num-start-181,181,536,2.9575228691101074,True,,True,1,False,1000,True,1.0
./expes/v2_2020-12-01_di_200-prng-1,daily_issda_200,200,rng-200,1,rng,num-start-181,181,536,2.2666373252868652,True,,True,1,False,1000,True,1.0
./expes/v2_2020-12-01_di_200-prng-1,daily_issda_200,200,rng-200,1,rng,num-start-201,201,536,2.58461594581604,True,,True,1,False,1000,True,1.0
./expes/v2_2020-12-01_di_200-prng-1,daily_issda_200,200,rng-200,141,rng,num-start-41,41,536,1009.5478646755219,False,,False,1,True,1000,True,0.0
./expes/v2_2020-12-01_di_200-prng-1,daily_issda_200,200,rng-200,161,rng,num-start-61,61,536,2.0222890377044678,True,,True,1,False,1000,True,1.0
./expes/v2_2020-12-01_di_200-prng-1,daily_issda_200,200,rng-200,41,rng,num-start-151,151,536,2.454564332962036,True,,True,1,False,1000,True,1.0
./expes/v2_2020-12-01_di_200-prng-1,daily_issda_200,200,rng-200,191,rng,num-start-211,211,536,3.3401284217834473,True,,True,1,False,1000,True,1.0
./expes/v2_2020-12-01_di_200-prng-1,daily_issda_200,200,rng-200,21,rng,num-start-251,251,536,4.157093524932861,True,,True,1,False,1000,True,1.0
./expes/v2_2020-12-01_di_200-prng-1,daily_issda_200,200,rng-200,51,rng,num-start-61,61,536,1.7751262187957764,True,,True,1,False,1000,True,1.0
./expes/v2_2020-12-01_di_200-prng-1,daily_issda_200,200,rng-200,171,rng,num-start-61,61,536,1.0110008716583252,True,,True,1,False,1000,True,1.0
./expes/v2_2020-12-01_di_200-prng-1,daily_issda_200,200,rng-200,131,rng,num-start-11,11,536,1000.2698318958282,False,,False,0,True,1000,True,0.0
./expes/v2_2020-12-01_di_200-prng-1,daily_issda_200,200,rng-200,171,rng,num-start-31,31,536,2.361253023147583,True,,True,1,False,1000,True,1.0
./expes/v2_2020-12-01_di_200-prng-1,daily_issda_200,200,rng-200,111,rng,num-start-251,251,536,3.968336820602417,True,,True,1,False,1000,True,1.0
./expes/v2_2020-12-01_di_200-prng-1,daily_issda_200,200,rng-200,131,rng,num-start-261,261,536,4.303265333175659,True,,True,1,False,1000,True,1.0
./expes/v2_2020-12-01_di_200-prng-1,daily_issda_200,200,rng-200,81,rng,num-start-101,101,536,1.7640948295593262,True,,True,1,False,1000,True,1.0
./expes/v2_2020-12-01_di_200-prng-1,daily_issda_200,200,rng-200,131,rng,num-start-81,81,536,2.743046283721924,True,,True,1,False,1000,True,1.0
./expes/v2_2020-12-01_di_200-prng-1,daily_issda_200,200,rng-200,31,rng,num-start-261,261,536,4.106453895568848,True,,True,1,False,1000,True,1.0
./expes/v2_2020-12-01_di_200-prng-1,daily_issda_200,200,rng-200,131,rng,num-start-41,41,536,1000.6631236076355,False,,False,0,True,1000,True,0.0
./expes/v2_2020-12-01_di_200-prng-1,daily_issda_200,200,rng-200,111,rng,num-start-1,1,536,1.0413858890533447,False,,False,2,False,1000,True,1.0
./expes/v2_2020-12-01_di_200-prng-1,daily_issda_200,200,rng-200,121,rng,num-start-201,201,536,3.250455856323242,True,,True,1,False,1000,True,1.0
./expes/v2_2020-12-01_di_200-prng-1,daily_issda_200,200,rng-200,181,rng,num-start-141,141,536,2.2383501529693604,True,,True,1,False,1000,True,1.0
./expes/v2_2020-12-01_di_200-prng-1,daily_issda_200,200,rng-200,61,rng,num-start-221,221,536,3.8491649627685547,True,,True,1,False,1000,True,1.0
./expes/v2_2020-12-01_di_200-prng-1,daily_issda_200,200,rng-200,191,rng,num-start-51,51,536,0.8250300884246826,True,,True,1,False,1000,True,1.0
./expes/v2_2020-12-01_di_200-prng-1,daily_issda_200,200,rng-200,51,rng,num-start-201,201,536,3.609677314758301,True,,True,1,False,1000,True,1.0
./expes/v2_2020-12-01_di_200-prng-1,daily_issda_200,200,rng-200,131,rng,num-start-101,101,536,1.7703568935394287,True,,True,1,False,1000,True,1.0
./expes/v2_2020-12-01_di_200-prng-1,daily_issda_200,200,rng-200,121,rng,num-start-151,151,536,2.6734328269958496,True,,True,1,False,1000,True,1.0
./expes/v2_2020-12-01_di_200-prng-1,daily_issda_200,200,rng-200,61,rng,num-start-71,71,536,2.3995201587677,True,,True,1,False,1000,True,1.0
./expes/v2_2020-12-01_di_200-prng-1,daily_issda_200,200,rng-200,51,rng,num-start-71,71,536,2.0186238288879395,True,,True,1,False,1000,True,1.0
./expes/v2_2020-12-01_di_200-prng-1,daily_issda_200,200,rng-200,151,rng,num-start-261,261,536,3.954070568084717,True,,True,1,False,1000,True,1.0
./expes/v2_2020-12-01_di_200-prng-1,daily_issda_200,200,rng-200,131,rng,num-start-291,291,536,5.090808153152466,True,,True,1,False,1000,True,1.0
./expes/v2_2020-12-01_di_200-prng-1,daily_issda_200,200,rng-200,91,rng,num-start-61,61,536,693.0267724990845,True,,True,1,False,1000,True,1.0
./expes/v2_2020-12-01_di_200-prng-1,daily_issda_200,200,rng-200,11,rng,num-start-1,1,536,1.5830559730529785,False,,False,2,False,1000,True,1.0
./expes/v2_2020-12-01_di_200-prng-1,daily_issda_200,200,rng-200,121,rng,num-start-261,261,536,4.57548189163208,True,,True,1,False,1000,True,1.0
./expes/v2_2020-12-01_di_200-prng-1,daily_issda_200,200,rng-200,121,rng,num-start-11,11,536,1000.1913990974426,False,,False,0,True,1000,True,0.0
./expes/v2_2020-12-01_di_200-prng-1,daily_issda_200,200,rng-200,31,rng,num-start-221,221,536,3.9223241806030273,True,,True,1,False,1000,True,1.0
./expes/v2_2020-12-01_di_200-prng-1,daily_issda_200,200,rng-200,31,rng,num-start-261,261,536,4.33689284324646,True,,True,1,False,1000,True,1.0
./expes/v2_2020-12-01_di_200-prng-1,daily_issda_200,200,rng-200,31,rng,num-start-211,211,536,3.6614887714385986,True,,True,1,False,1000,True,1.0
./expes/v2_2020-12-01_di_200-prng-1,daily_issda_200,200,rng-200,191,rng,num-start-221,221,536,3.3277087211608887,True,,True,1,False,1000,True,1.0
./expes/v2_2020-12-01_di_200-prng-1,daily_issda_200,200,rng-200,51,rng,num-start-151,151,536,2.5241775512695312,True,,True,1,False,1000,True,1.0
./expes/v2_2020-12-01_di_200-prng-1,daily_issda_200,200,rng-200,181,rng,num-start-151,151,536,2.637258529663086,True,,True,1,False,1000,True,1.0
./expes/v2_2020-12-01_di_200-prng-1,daily_issda_200,200,rng-200,191,rng,num-start-161,161,536,2.5988144874572754,True,,True,1,False,1000,True,1.0
./expes/v2_2020-12-01_di_200-prng-1,daily_issda_200,200,rng-200,101,rng,num-start-151,151,536,2.7783730030059814,True,,True,1,False,1000,True,1.0
./expes/v2_2020-12-01_di_200-prng-1,daily_issda_200,200,rng-200,131,rng,num-start-101,101,536,1.9452641010284424,True,,True,1,False,1000,True,1.0
./expes/v2_2020-12-01_di_200-prng-1,daily_issda_200,200,rng-200,71,rng,num-start-161,161,536,3.1611592769622803,True,,True,1,False,1000,True,1.0
./expes/v2_2020-12-01_di_200-prng-1,daily_issda_200,200,rng-200,11,rng,num-start-141,141,536,2.297308921813965,True,,True,1,False,1000,True,1.0
./expes/v2_2020-12-01_di_200-prng-1,daily_issda_200,200,rng-200,41,rng,num-start-271,271,536,4.5697972774505615,True,,True,1,False,1000,True,1.0
./expes/v2_2020-12-01_di_200-prng-1,daily_issda_200,200,rng-200,131,rng,num-start-241,241,536,4.409947395324707,True,,True,1,False,1000,True,1.0
./expes/v2_2020-12-01_di_200-prng-1,daily_issda_200,200,rng-200,71,rng,num-start-131,131,536,2.364076852798462,True,,True,1,False,1000,True,1.0
./expes/v2_2020-12-01_di_200-prng-1,daily_issda_200,200,rng-200,141,rng,num-start-111,111,536,2.035555124282837,True,,True,1,False,1000,True,1.0
./expes/v2_2020-12-01_di_200-prng-1,daily_issda_200,200,rng-200,61,rng,num-start-61,61,536,723.3467400074005,True,,True,1,False,1000,True,1.0
./expes/v2_2020-12-01_di_200-prng-1,daily_issda_200,200,rng-200,71,rng,num-start-261,261,536,4.523409605026245,True,,True,1,False,1000,True,1.0
./expes/v2_2020-12-01_di_200-prng-1,daily_issda_200,200,rng-200,161,rng,num-start-61,61,536,2.13456392288208,True,,True,1,False,1000,True,1.0
./expes/v2_2020-12-01_di_200-prng-1,daily_issda_200,200,rng-200,121,rng,num-start-221,221,536,3.703856945037842,True,,True,1,False,1000,True,1.0
./expes/v2_2020-12-01_di_200-prng-1,daily_issda_200,200,rng-200,191,rng,num-start-41,41,536,0.8027536869049072,True,,True,1,False,1000,True,1.0
