expe,clients,clients_size,clients_subset,agg_size,agg_size_pc,method,days,days_size,days_total,noise_method,time,valid,valid_sum,success,score_avg,score_min,score_max,nsols,oracle,wall_hit,wall_time,pooled,pool_size,uuid,infeasible,optimal,valid_sums
./expes/v4_2021-03-18_issda_1000-prng-1-w1-p100-ukn95_98,30_issda-1000,991,first-1000,450,45,rng,num-start-400,400,25726,ukn-95-98,39.300429344177246,False,,False,0.32690249491005474,0.05131670194948623,0.9046537410754407,100,"['2', '3', '6', '9', '10', '11', '13', '15', '18', '19', '22', '23', '25', '27', '28', '29', '30', '31', '32', '34', '36', '37', '39', '41', '42', '45', '47', '49', '58', '61', '65', '66', '67', '72', '73', '75', '79', '84', '86', '87', '89', '92', '94', '97', '99', '102', '103', '105', '106', '107', '111', '112', '113', '115', '117', '118', '119', '121', '124', '129', '133', '134', '137', '138', '139', '150', '151', '161', '163', '164', '165', '166', '168', '171', '172', '173', '174', '175', '176', '178', '182', '186', '188', '190', '191', '193', '195', '199', '204', '205', '206', '211', '213', '215', '218', '219', '221', '222', '223', '225', '226', '228', '229', '230', '231', '233', '235', '236', '237', '238', '239', '241', '246', '248', '249', '253', '256', '257', '259', '260', '262', '265', '266', '273', '274', '275', '276', '280', '284', '288', '289', '291', '297', '298', '299', '302', '303', '304', '306', '311', '314', '315', '316', '318', '320', '321', '323', '325', '326', '328', '329', '330', '334', '336', '340', '341', '347', '348', '349', '350', '352', '353', '354', '355', '356', '362', '365', '366', '370', '374', '376', '377', '380', '384', '388', '389', '390', '391', '393', '396', '400', '401', '403', '404', '405', '407', '409', '412', '414', '415', '417', '424', '425', '427', '432', '433', '437', '440', '443', '444', '446', '449', '450', '457', '459', '461', '462', '464', '466', '467', '469', '470', '471', '472', '481', '484', '486', '489', '492', '493', '497', '500', '501', '502', '505', '508', '509', '512', '513', '515', '517', '518', '519', '520', '521', '522', '523', '525', '527', '529', '532', '534', '537', '541', '546', '548', '552', '553', '554', '555', '556', '558', '561', '562', '564', '565', '567', '568', '570', '575', '577', '578', '579', '580', '583', '584', '585', '588', '590', '592', '593', '594', '599', '601', '602', '604', '605', '606', '608', '611', '615', '616', '619', '621', '623', '624', '627', '628', '629', '630', '633', '638', '639', '640', '645', '646', '647', '651', '658', '663', '664', '665', '666', '668', '673', '676', '678', '680', '681', '682', '687', '690', '691', '692', '694', '695', '698', '703', '704', '705', '712', '713', '720', '721', '722', '729', '733', '737', '739', '742', '743', '744', '747', '748', '751', '756', '759', '761', '762', '772', '773', '774', '778', '780', '781', '783', '786', '787', '789', '790', '795', '797', '798', '799', '801', '802', '803', '804', '805', '806', '808', '809', '816', '817', '818', '822', '823', '824', '826', '829', '831', '833', '837', '838', '840', '841', '846', '848', '849', '850', '853', '856', '858', '861', '862', '866', '867', '868', '869', '871', '872', '874', '878', '879', '880', '881', '882', '887', '889', '891', '893', '897', '900', '903', '904', '907', '908', '909', '913', '915', '918', '919', '922', '923', '924', '932', '933', '936', '937', '939', '940', '943', '945', '948', '949', '954', '955', '959', '961', '962', '964', '967', '968', '973', '975', '976', '978', '981', '983', '986', '988', '989', '991', '992', '993', '994', '997', '998', '999', '1000']",False,1000,True,100,27635a0a3c,0.0,1.0,0.0
./expes/v4_2021-03-18_issda_1000-prng-1-w1-p100-ukn95_98,30_issda-1000,991,first-1000,450,45,rng,num-start-500,500,25726,ukn-95-98,48.77121043205261,False,,False,0.30768249564558464,0.05131670194948623,0.9046537410754407,100,"['1', '2', '3', '4', '9', '10', '13', '14', '15', '16', '17', '20', '23', '24', '28', '33', '34', '37', '38', '39', '40', '41', '42', '43', '44', '47', '48', '50', '52', '60', '63', '64', '65', '66', '68', '71', '72', '73', '74', '76', '81', '83', '84', '85', '86', '87', '90', '92', '94', '96', '98', '101', '102', '103', '104', '112', '118', '119', '120', '121', '122', '123', '127', '128', '133', '134', '136', '137', '139', '142', '143', '144', '146', '150', '151', '154', '155', '158', '159', '160', '162', '163', '164', '166', '168', '170', '171', '174', '175', '180', '183', '184', '185', '187', '189', '190', '192', '193', '194', '195', '196', '197', '200', '203', '204', '205', '209', '210', '211', '213', '216', '219', '221', '224', '225', '226', '227', '228', '229', '242', '245', '246', '248', '249', '250', '257', '263', '266', '267', '277', '278', '282', '283', '286', '287', '288', '289', '295', '297', '298', '299', '301', '307', '309', '310', '311', '316', '318', '319', '320', '323', '324', '325', '328', '333', '334', '337', '339', '341', '342', '343', '344', '346', '347', '351', '352', '356', '359', '361', '363', '366', '367', '368', '370', '376', '377', '380', '381', '382', '385', '388', '395', '398', '401', '404', '405', '407', '409', '412', '413', '415', '420', '425', '426', '428', '429', '430', '431', '436', '437', '445', '446', '447', '453', '454', '456', '457', '458', '459', '460', '462', '464', '469', '470', '479', '482', '483', '484', '486', '488', '489', '490', '491', '493', '494', '498', '499', '502', '505', '506', '507', '510', '516', '517', '521', '524', '532', '534', '535', '536', '538', '541', '542', '543', '546', '548', '551', '554', '557', '558', '561', '562', '565', '566', '570', '572', '574', '575', '579', '582', '583', '584', '588', '590', '594', '598', '602', '604', '605', '609', '611', '612', '617', '618', '619', '621', '623', '625', '626', '627', '628', '634', '636', '641', '642', '643', '646', '649', '650', '651', '653', '655', '656', '657', '660', '661', '663', '665', '667', '670', '672', '673', '674', '677', '679', '682', '685', '689', '690', '692', '693', '695', '696', '697', '698', '700', '701', '704', '706', '708', '715', '716', '717', '718', '719', '721', '723', '724', '727', '728', '730', '733', '735', '736', '737', '743', '745', '747', '748', '749', '750', '753', '757', '760', '767', '768', '773', '774', '776', '777', '781', '786', '791', '799', '802', '803', '804', '808', '809', '812', '813', '814', '818', '819', '820', '823', '825', '826', '828', '829', '830', '832', '835', '836', '837', '842', '843', '845', '846', '848', '849', '850', '851', '854', '856', '858', '859', '861', '862', '863', '865', '866', '867', '870', '871', '872', '875', '876', '878', '883', '887', '889', '892', '893', '895', '896', '897', '898', '906', '907', '912', '914', '916', '917', '920', '921', '922', '924', '925', '927', '930', '931', '932', '935', '936', '938', '939', '940', '941', '942', '944', '945', '946', '956', '957', '959', '960', '961', '970', '973', '977', '985', '987', '989', '990', '991', '992', '994', '998', '1000']",False,1000,True,100,2ba57ae3a4,0.0,1.0,0.0
./expes/v4_2021-03-18_issda_1000-prng-1-w1-p100-ukn95_98,30_issda-1000,992,first-1000,400,40,rng,num-start-400,400,25726,ukn-95-98,39.77134370803833,False,,False,0.31559971986645446,0.1060241979720572,0.9101520513035235,100,"['1', '2', '4', '6', '10', '12', '14', '19', '21', '23', '24', '25', '29', '30', '33', '34', '36', '37', '38', '41', '43', '48', '50', '54', '56', '58', '59', '61', '65', '67', '68', '74', '81', '83', '92', '94', '95', '98', '105', '110', '111', '114', '116', '118', '122', '125', '130', '133', '134', '136', '137', '140', '143', '145', '146', '147', '150', '151', '152', '153', '161', '163', '164', '166', '170', '171', '173', '174', '176', '177', '181', '182', '183', '184', '185', '186', '187', '190', '199', '201', '202', '204', '210', '213', '214', '215', '221', '222', '225', '232', '244', '250', '252', '253', '256', '257', '258', '262', '263', '267', '271', '272', '278', '279', '281', '283', '286', '287', '288', '290', '294', '296', '297', '299', '301', '302', '303', '306', '309', '310', '314', '315', '317', '318', '320', '322', '324', '325', '326', '327', '334', '340', '343', '347', '348', '349', '353', '354', '357', '359', '360', '361', '364', '365', '366', '367', '368', '370', '371', '372', '373', '374', '375', '377', '379', '381', '382', '383', '385', '386', '387', '389', '390', '392', '393', '394', '399', '402', '414', '416', '418', '419', '420', '424', '425', '426', '427', '429', '430', '431', '432', '440', '443', '444', '445', '452', '455', '456', '461', '464', '465', '467', '474', '475', '477', '479', '481', '482', '483', '484', '486', '489', '491', '492', '493', '495', '496', '498', '500', '504', '506', '509', '512', '513', '515', '525', '526', '528', '529', '531', '535', '538', '543', '545', '546', '547', '552', '553', '557', '559', '561', '562', '563', '564', '567', '573', '574', '578', '580', '588', '593', '595', '601', '602', '604', '605', '609', '611', '616', '618', '624', '626', '627', '629', '630', '632', '633', '636', '637', '638', '639', '640', '641', '642', '643', '645', '646', '647', '653', '654', '658', '660', '663', '665', '666', '667', '668', '676', '678', '679', '680', '682', '685', '687', '688', '690', '695', '703', '705', '706', '708', '709', '712', '714', '720', '722', '725', '726', '734', '736', '737', '738', '739', '748', '749', '750', '756', '758', '759', '760', '767', '768', '774', '778', '781', '785', '789', '793', '794', '795', '800', '801', '805', '807', '815', '817', '818', '821', '833', '837', '838', '839', '840', '841', '842', '847', '849', '852', '856', '857', '859', '861', '862', '864', '866', '873', '875', '876', '877', '881', '888', '889', '890', '891', '893', '894', '898', '913', '914', '915', '916', '919', '923', '924', '925', '936', '939', '941', '945', '946', '947', '952', '958', '959', '960', '961', '962', '964', '965', '966', '968', '969', '973', '974', '975', '978', '979', '980', '981', '982', '983', '984', '985', '988', '989', '990', '992', '996', '999', '1000']",False,1000,True,100,b7be014012,0.0,1.0,0.0
./expes/v4_2021-03-18_issda_1000-prng-1-w1-p100-ukn95_98,30_issda-1000,993,first-1000,350,35,rng,num-start-600,600,25726,ukn-95-98,61.519285440444946,False,,False,0.31630258777364567,0.16418380628428875,0.9047499047498572,100,"['2', '5', '6', '9', '17', '19', '20', '21', '22', '25', '26', '29', '32', '33', '35', '37', '38', '42', '45', '47', '51', '53', '58', '59', '61', '62', '70', '76', '78', '79', '83', '85', '87', '90', '94', '96', '97', '99', '103', '104', '105', '108', '109', '114', '116', '118', '119', '122', '125', '131', '135', '140', '144', '148', '155', '156', '158', '161', '163', '165', '166', '169', '171', '174', '175', '177', '178', '181', '182', '186', '187', '189', '196', '197', '204', '213', '214', '216', '218', '223', '225', '228', '231', '233', '234', '237', '238', '239', '242', '247', '251', '253', '254', '256', '257', '258', '260', '261', '262', '263', '266', '269', '271', '273', '275', '280', '286', '292', '293', '297', '311', '314', '316', '317', '318', '320', '324', '327', '333', '336', '346', '350', '353', '354', '360', '363', '369', '370', '371', '372', '373', '375', '376', '381', '382', '383', '390', '394', '395', '402', '403', '405', '410', '412', '417', '419', '421', '423', '425', '429', '430', '434', '436', '442', '445', '456', '457', '459', '460', '463', '465', '466', '468', '473', '475', '476', '477', '485', '492', '498', '499', '501', '502', '503', '511', '513', '515', '517', '520', '521', '522', '523', '524', '525', '527', '528', '531', '532', '534', '535', '536', '538', '539', '544', '549', '558', '565', '571', '572', '574', '576', '582', '586', '589', '596', '599', '603', '604', '606', '608', '620', '621', '622', '626', '629', '631', '632', '637', '639', '640', '643', '651', '653', '654', '658', '668', '669', '671', '675', '677', '678', '680', '686', '687', '689', '691', '698', '699', '701', '702', '704', '707', '709', '717', '723', '724', '726', '727', '732', '733', '734', '735', '741', '742', '744', '747', '749', '753', '754', '757', '758', '761', '763', '766', '769', '772', '773', '774', '778', '779', '782', '785', '792', '794', '800', '804', '808', '809', '811', '814', '816', '819', '820', '822', '823', '826', '829', '832', '833', '835', '841', '845', '846', '852', '856', '859', '861', '870', '875', '880', '881', '884', '892', '896', '897', '898', '902', '903', '904', '905', '906', '909', '911', '914', '916', '920', '922', '923', '924', '925', '929', '930', '931', '934', '938', '939', '941', '943', '944', '948', '952', '955', '957', '958', '959', '961', '964', '967', '971', '973', '978', '979', '981', '982', '983', '984', '985', '987', '994', '995']",False,1000,True,100,dfec1d0e4d,0.0,1.0,0.0
./expes/v4_2021-03-18_issda_1000-prng-1-w1-p100-ukn95_98,30_issda-1000,998,first-1000,100,10,rng,num-start-400,400,25726,ukn-95-98,46.75544548034668,False,,False,0.5866733397206351,0.5750980997046213,0.9552114070977611,100,"['39', '48', '50', '51', '60', '61', '62', '64', '65', '72', '75', '84', '89', '93', '97', '100', '106', '121', '127', '137', '148', '155', '156', '169', '185', '186', '193', '211', '220', '227', '229', '247', '250', '255', '295', '297', '307', '308', '316', '322', '332', '351', '352', '371', '375', '382', '405', '407', '429', '430', '435', '438', '445', '460', '465', '477', '507', '509', '520', '525', '538', '545', '549', '554', '561', '565', '571', '574', '578', '580', '585', '589', '591', '596', '597', '600', '624', '634', '643', '646', '655', '667', '697', '699', '716', '730', '747', '776', '796', '799', '814', '836', '841', '847', '880', '897', '932', '946', '971', '1000']",False,1000,True,100,bf0c423666,0.0,1.0,0.0
