expe,clients,clients_size,clients_subset,agg_size,agg_size_pc,method,days,days_size,days_total,noise_method,time,valid,valid_sum,success,score_avg,score_min,score_max,nsols,oracle,wall_hit,wall_time,pooled,pool_size,uuid,infeasible,optimal,valid_sums
./expes/v4_2021-03-18_issda_1000-prng-1-w1-p100-ukn95_98,30_issda-1000,998,first-1000,100,10,rng,num-start-100,100,25726,ukn-95-98,10.08299708366394,False,,False,0.6112392067118578,0.5846476764745695,0.9552114070977611,100,"['25', '29', '37', '58', '87', '94', '140', '163', '166', '169', '174', '178', '181', '182', '187', '218', '237', '242', '256', '258', '275', '286', '316', '327', '333', '363', '369', '370', '371', '373', '381', '390', '403', '410', '425', '434', '442', '456', '457', '466', '473', '477', '502', '511', '513', '515', '522', '523', '527', '528', '538', '539', '544', '558', '574', '596', '608', '621', '622', '654', '671', '678', '686', '691', '698', '733', '741', '753', '754', '757', '773', '782', '809', '816', '823', '829', '852', '856', '870', '875', '880', '881', '884', '892', '905', '906', '914', '916', '923', '929', '930', '931', '948', '955', '959', '971', '973', '978', '979', '985']",False,1000,True,100,c49d48f09d,0.0,1.0,0.0
./expes/v4_2021-03-18_issda_1000-prng-1-w1-p100-ukn95_98,30_issda-1000,992,first-1000,400,40,rng,num-start-500,500,25726,ukn-95-98,39.476624488830566,False,,False,0.3265156278640678,0.1060241979720572,0.9101520513035235,100,"['1', '2', '5', '13', '15', '20', '22', '24', '27', '28', '29', '30', '39', '41', '48', '50', '51', '54', '56', '60', '61', '62', '63', '64', '65', '67', '69', '71', '72', '73', '75', '80', '83', '84', '85', '87', '88', '89', '93', '94', '96', '97', '100', '104', '105', '106', '107', '113', '119', '120', '121', '123', '124', '126', '127', '129', '131', '133', '134', '135', '137', '141', '143', '145', '148', '150', '151', '153', '154', '155', '156', '160', '163', '166', '167', '169', '171', '172', '173', '175', '177', '181', '183', '185', '186', '187', '188', '193', '196', '199', '200', '202', '205', '210', '211', '213', '214', '217', '218', '220', '224', '226', '227', '229', '233', '237', '238', '239', '246', '247', '250', '254', '255', '258', '259', '266', '268', '270', '272', '277', '285', '286', '287', '289', '292', '295', '297', '300', '306', '307', '308', '316', '318', '320', '322', '327', '332', '334', '338', '341', '346', '349', '351', '352', '353', '356', '358', '359', '363', '364', '365', '368', '371', '373', '374', '375', '376', '379', '382', '386', '390', '396', '398', '401', '402', '404', '405', '406', '407', '408', '409', '411', '412', '426', '429', '430', '431', '432', '435', '438', '441', '445', '451', '452', '457', '458', '460', '465', '468', '470', '473', '475', '477', '478', '482', '484', '485', '486', '490', '491', '492', '494', '495', '496', '497', '500', '501', '505', '506', '507', '509', '514', '515', '520', '523', '525', '528', '529', '530', '531', '537', '538', '540', '541', '545', '546', '548', '549', '550', '554', '555', '557', '558', '561', '562', '563', '564', '565', '571', '572', '573', '574', '578', '580', '581', '585', '587', '589', '591', '592', '594', '596', '597', '598', '600', '601', '604', '605', '609', '611', '616', '617', '620', '624', '625', '626', '627', '628', '629', '633', '634', '640', '643', '646', '650', '652', '655', '659', '663', '666', '667', '669', '671', '672', '674', '675', '677', '679', '681', '685', '693', '697', '698', '699', '700', '707', '708', '709', '710', '712', '713', '714', '716', '719', '724', '729', '730', '734', '740', '741', '743', '744', '747', '749', '757', '758', '759', '762', '768', '769', '776', '777', '783', '787', '791', '795', '796', '798', '799', '802', '808', '809', '810', '814', '817', '818', '819', '821', '823', '826', '828', '831', '835', '836', '838', '839', '841', '842', '846', '847', '849', '852', '855', '861', '866', '870', '874', '880', '885', '892', '893', '894', '895', '896', '897', '900', '905', '906', '909', '911', '920', '922', '926', '927', '931', '932', '937', '939', '940', '946', '956', '957', '960', '964', '968', '969', '970', '971', '972', '974', '975', '976', '978', '979', '980', '981', '986', '995', '998', '1000']",False,1000,True,100,903906f063,0.0,1.0,0.0
./expes/v4_2021-03-18_issda_1000-prng-1-w1-p100-ukn95_98,30_issda-1000,991,first-1000,450,45,rng,num-start-300,300,25726,ukn-95-98,24.23928475379944,False,,False,0.30759403974763166,0.05131670194948623,0.9046537410754407,100,"['4', '5', '7', '13', '14', '18', '21', '23', '24', '27', '32', '34', '35', '38', '39', '40', '45', '47', '51', '53', '59', '60', '63', '65', '66', '67', '68', '71', '72', '74', '77', '82', '83', '84', '85', '86', '87', '88', '89', '90', '92', '93', '95', '96', '98', '100', '103', '109', '110', '111', '112', '114', '115', '117', '120', '124', '125', '130', '131', '136', '139', '141', '143', '144', '146', '152', '153', '154', '158', '159', '161', '163', '164', '165', '168', '171', '174', '175', '177', '179', '180', '181', '182', '183', '192', '195', '196', '197', '198', '199', '201', '203', '204', '206', '207', '211', '213', '215', '216', '217', '223', '224', '226', '228', '230', '231', '233', '235', '237', '238', '240', '241', '249', '250', '251', '252', '254', '256', '261', '262', '265', '271', '273', '274', '276', '278', '281', '284', '290', '292', '293', '295', '296', '297', '298', '299', '301', '303', '304', '306', '307', '308', '310', '317', '320', '322', '327', '328', '329', '332', '334', '335', '346', '347', '349', '351', '352', '353', '357', '360', '365', '366', '367', '369', '370', '371', '373', '375', '376', '377', '379', '380', '381', '385', '386', '387', '388', '389', '390', '391', '393', '394', '396', '398', '399', '400', '401', '404', '406', '407', '411', '413', '417', '418', '420', '422', '425', '427', '428', '430', '434', '437', '438', '442', '443', '445', '447', '448', '451', '453', '456', '457', '460', '464', '465', '467', '468', '469', '471', '474', '483', '485', '486', '488', '491', '497', '500', '501', '502', '507', '509', '510', '511', '512', '513', '514', '515', '516', '517', '518', '519', '520', '523', '525', '527', '529', '530', '533', '534', '537', '538', '539', '540', '541', '542', '545', '547', '548', '553', '559', '561', '570', '571', '573', '577', '578', '580', '581', '583', '587', '588', '593', '594', '595', '596', '599', '600', '603', '611', '615', '616', '619', '620', '622', '625', '627', '628', '629', '633', '636', '639', '640', '641', '648', '651', '655', '658', '660', '662', '663', '664', '666', '668', '669', '670', '671', '673', '674', '675', '677', '679', '680', '684', '686', '690', '693', '697', '701', '702', '704', '707', '708', '709', '712', '718', '719', '722', '723', '726', '728', '733', '735', '736', '737', '739', '743', '744', '746', '747', '751', '753', '754', '755', '759', '762', '763', '766', '767', '768', '774', '778', '781', '783', '785', '786', '799', '800', '801', '803', '806', '808', '810', '813', '816', '824', '827', '828', '831', '833', '834', '835', '837', '839', '841', '843', '845', '846', '849', '850', '851', '852', '854', '855', '856', '857', '858', '859', '860', '863', '864', '865', '867', '868', '871', '873', '876', '878', '880', '881', '886', '888', '890', '897', '900', '903', '904', '905', '909', '910', '913', '915', '917', '919', '922', '924', '925', '926', '927', '928', '929', '930', '931', '932', '934', '935', '939', '941', '942', '943', '945', '948', '950', '951', '954', '955', '959', '960', '965', '969', '973', '981', '982', '986', '989', '991', '992', '994', '995', '997', '999']",False,1000,True,100,f2160b2899,0.0,1.0,0.0
./expes/v4_2021-03-18_issda_1000-prng-1-w1-p100-ukn95_98,30_issda-1000,999,first-1000,50,5,rng,num-start-300,300,25726,ukn-95-98,38.24940013885498,False,,False,0.7045737132609335,0.6882398537696726,0.9683455531083541,100,"['3', '10', '23', '27', '30', '32', '65', '97', '105', '121', '138', '215', '222', '235', '262', '273', '326', '389', '391', '400', '433', '444', '457', '461', '484', '500', '508', '555', '583', '606', '623', '666', '668', '703', '713', '739', '780', '781', '783', '786', '808', '822', '856', '868', '903', '915', '924', '962', '968', '993']",False,1000,True,100,77291f75be,0.0,1.0,0.0
./expes/v4_2021-03-18_issda_1000-prng-1-w1-p100-ukn95_98,30_issda-1000,990,first-1000,500,50,rng,num-start-200,200,25726,ukn-95-98,16.779972314834595,False,,False,0.29971101425909785,-0.0005054334414200667,0.8898479770968952,100,"['1', '2', '3', '4', '6', '10', '11', '12', '14', '15', '17', '19', '21', '23', '24', '25', '27', '28', '29', '30', '33', '34', '36', '37', '38', '41', '43', '45', '48', '50', '51', '54', '56', '58', '59', '61', '65', '67', '68', '69', '71', '74', '81', '83', '88', '92', '94', '95', '98', '105', '110', '111', '114', '116', '118', '122', '125', '126', '127', '130', '133', '134', '136', '137', '138', '140', '143', '145', '146', '147', '150', '151', '152', '153', '154', '158', '159', '161', '163', '164', '166', '170', '171', '173', '174', '176', '177', '181', '182', '183', '184', '185', '186', '187', '188', '190', '196', '199', '201', '202', '204', '210', '213', '214', '215', '219', '221', '222', '225', '232', '236', '244', '250', '252', '253', '256', '257', '258', '259', '262', '263', '267', '271', '272', '274', '275', '278', '279', '281', '283', '286', '287', '288', '290', '293', '294', '296', '297', '299', '300', '301', '302', '303', '304', '306', '308', '309', '310', '311', '314', '315', '317', '318', '319', '320', '322', '323', '324', '325', '326', '327', '334', '339', '340', '342', '343', '345', '347', '348', '349', '353', '354', '357', '359', '360', '361', '364', '365', '366', '367', '368', '370', '371', '372', '373', '374', '375', '377', '379', '381', '382', '383', '385', '386', '387', '389', '390', '392', '393', '394', '395', '399', '402', '409', '414', '415', '416', '418', '419', '420', '424', '425', '426', '427', '429', '430', '431', '432', '436', '438', '440', '443', '444', '445', '449', '452', '455', '456', '461', '464', '465', '467', '474', '475', '476', '477', '479', '481', '482', '483', '484', '486', '487', '488', '489', '490', '491', '492', '493', '494', '495', '496', '498', '499', '500', '502', '504', '505', '506', '509', '510', '512', '513', '515', '525', '526', '528', '529', '531', '535', '538', '543', '545', '546', '547', '551', '552', '553', '555', '557', '559', '561', '562', '563', '564', '567', '569', '573', '574', '578', '580', '585', '588', '590', '593', '595', '597', '600', '601', '602', '604', '605', '609', '610', '611', '616', '618', '619', '623', '624', '626', '627', '629', '630', '632', '633', '636', '637', '638', '639', '640', '641', '642', '643', '645', '646', '647', '648', '653', '654', '658', '660', '661', '662', '663', '664', '665', '666', '667', '668', '676', '677', '678', '679', '680', '682', '685', '687', '688', '690', '695', '699', '702', '703', '704', '705', '706', '708', '709', '712', '714', '719', '720', '722', '723', '725', '726', '730', '734', '736', '737', '738', '739', '740', '748', '749', '750', '751', '756', '758', '759', '760', '761', '762', '763', '764', '767', '768', '774', '777', '778', '779', '781', '785', '789', '793', '794', '795', '798', '800', '801', '805', '807', '811', '815', '817', '818', '821', '822', '827', '832', '833', '837', '838', '839', '840', '841', '842', '845', '847', '849', '850', '852', '856', '857', '859', '861', '862', '863', '864', '865', '866', '873', '875', '876', '877', '880', '881', '885', '888', '889', '890', '891', '893', '894', '898', '900', '902', '910', '911', '913', '914', '915', '916', '917', '919', '921', '923', '924', '925', '933', '934', '936', '939', '941', '945', '946', '947', '952', '958', '959', '960', '961', '962', '964', '965', '966', '968', '969', '973', '974', '975', '976', '977', '978', '979', '980', '981', '982', '983', '984', '985', '988', '989', '990', '992', '996', '997', '999', '1000']",False,1000,True,100,61e5dfc839,0.0,1.0,0.0
./expes/v4_2021-03-18_issda_1000-prng-1-w1-p100-ukn95_98,30_issda-1000,997,first-1000,150,15,rng,num-start-100,100,25726,ukn-95-98,9.207459449768066,False,,False,0.5000613677630872,0.4539297013347664,0.9451178700051548,100,"['8', '14', '16', '21', '30', '32', '37', '44', '46', '47', '65', '66', '68', '69', '91', '100', '107', '122', '128', '134', '138', '140', '155', '156', '164', '168', '197', '217', '223', '238', '240', '242', '244', '265', '266', '274', '276', '286', '287', '292', '301', '309', '318', '335', '339', '345', '353', '360', '375', '379', '387', '396', '397', '400', '405', '407', '418', '421', '426', '432', '438', '447', '456', '481', '482', '485', '486', '488', '494', '496', '507', '518', '520', '536', '547', '554', '555', '558', '563', '565', '583', '586', '588', '591', '595', '599', '600', '601', '606', '607', '610', '619', '620', '621', '630', '641', '642', '649', '651', '655', '672', '688', '689', '699', '713', '716', '731', '732', '735', '736', '737', '746', '760', '777', '780', '788', '796', '798', '799', '808', '820', '821', '844', '852', '854', '857', '858', '875', '876', '877', '882', '887', '889', '894', '900', '903', '919', '926', '927', '931', '938', '943', '944', '945', '949', '952', '959', '981', '988', '989']",False,1000,True,100,6b177ef0a0,0.0,1.0,0.0
./expes/v4_2021-03-18_issda_1000-prng-1-w1-p100-ukn95_98,30_issda-1000,995,first-1000,250,25,rng,num-start-500,500,25726,ukn-95-98,40.59423828125,False,,False,0.3921999451399644,0.2943174031015131,0.9160818641703311,100,"['1', '4', '6', '7', '9', '13', '16', '18', '19', '25', '27', '31', '36', '42', '43', '45', '50', '52', '53', '56', '57', '63', '65', '68', '71', '83', '86', '87', '89', '90', '91', '96', '99', '105', '106', '113', '114', '115', '121', '124', '125', '136', '137', '141', '142', '143', '145', '146', '149', '152', '153', '161', '166', '169', '173', '174', '176', '177', '191', '197', '203', '204', '205', '208', '210', '214', '215', '216', '219', '228', '230', '237', '243', '244', '255', '266', '270', '274', '275', '277', '281', '285', '288', '292', '298', '299', '302', '304', '315', '333', '337', '339', '343', '347', '350', '355', '356', '364', '375', '379', '382', '383', '388', '389', '391', '393', '399', '407', '408', '411', '412', '413', '422', '431', '432', '433', '435', '436', '439', '444', '455', '462', '463', '475', '493', '504', '509', '510', '513', '515', '518', '519', '523', '530', '535', '551', '553', '568', '569', '570', '574', '576', '579', '580', '587', '589', '590', '593', '594', '599', '603', '605', '612', '620', '621', '622', '623', '624', '626', '627', '628', '632', '645', '655', '664', '680', '684', '691', '693', '700', '705', '710', '713', '717', '718', '721', '723', '726', '727', '733', '737', '743', '744', '746', '754', '755', '756', '764', '765', '766', '779', '783', '784', '792', '793', '794', '797', '800', '803', '806', '809', '813', '814', '818', '819', '823', '827', '829', '830', '835', '864', '866', '867', '872', '873', '881', '885', '888', '889', '890', '893', '897', '901', '903', '908', '909', '911', '914', '917', '918', '920', '928', '929', '934', '940', '942', '944', '947', '959', '963', '969', '970', '974', '975', '979', '982', '985', '988', '990', '999']",False,1000,True,100,94c0401a6f,0.0,1.0,0.0
