expe,clients,clients_size,clients_subset,agg_size,agg_size_pc,method,days,days_size,days_total,noise_method,time,valid,valid_sum,success,score_avg,score_min,score_max,nsols,oracle,wall_hit,wall_time,pooled,pool_size,uuid,infeasible,optimal,valid_sums
./expes/v4_2021-03-18_issda_1000-prng-1-w1-p100-ukn95_98,30_issda-1000,996,first-1000,200,20,rng,num-start-300,300,25726,ukn-95-98,27.407178163528442,False,,False,0.44405866940774097,0.3691355535863955,0.9365957375051759,100,"['2', '4', '6', '10', '14', '19', '23', '24', '30', '33', '34', '38', '48', '50', '54', '58', '59', '67', '68', '74', '81', '83', '94', '95', '105', '111', '116', '122', '130', '136', '143', '150', '152', '153', '161', '164', '166', '170', '171', '181', '182', '186', '187', '190', '202', '204', '210', '213', '214', '215', '221', '222', '244', '252', '253', '256', '257', '262', '263', '271', '283', '287', '297', '303', '306', '309', '314', '317', '318', '320', '322', '324', '325', '340', '343', '347', '349', '353', '364', '367', '368', '370', '372', '375', '377', '381', '386', '390', '393', '399', '414', '416', '418', '425', '429', '432', '444', '456', '464', '467', '474', '477', '481', '484', '493', '496', '506', '525', '526', '538', '543', '547', '553', '557', '559', '563', '588', '593', '601', '604', '609', '611', '616', '618', '626', '633', '638', '639', '641', '642', '654', '665', '667', '668', '695', '703', '706', '708', '714', '720', '722', '725', '738', '739', '749', '758', '759', '760', '767', '768', '774', '781', '785', '793', '795', '800', '807', '815', '817', '818', '821', '838', '839', '840', '847', '859', '861', '862', '866', '881', '889', '890', '893', '894', '898', '915', '916', '923', '939', '941', '945', '946', '947', '952', '959', '962', '964', '965', '966', '969', '973', '978', '979', '984', '985', '989', '990', '992', '996', '999']",False,1000,True,100,d4428b3ba5,0.0,1.0,0.0
./expes/v4_2021-03-18_issda_1000-prng-1-w1-p100-ukn95_98,30_issda-1000,999,first-1000,50,5,rng,num-start-600,600,25726,ukn-95-98,1040.7583367824554,False,,False,0.7835903024770108,0.7222333558232118,0.9683455531083541,18,"['7', '42', '53', '65', '83', '105', '114', '136', '142', '161', '173', '174', '191', '210', '244', '274', '299', '343', '347', '383', '389', '393', '433', '463', '475', '515', '519', '568', '605', '620', '628', '632', '693', '705', '717', '721', '743', '746', '765', '793', '809', '888', '893', '909', '920', '942', '947', '959', '969', '975']",True,1000,True,100,5e083ea22c,0.0,0.0,0.0
