expe,clients,clients_size,clients_subset,agg_size,agg_size_pc,method,days,days_size,days_total,noise_method,time,valid,valid_sum,success,score_avg,score_min,score_max,nsols,oracle,wall_hit,wall_time,pooled,pool_size,uuid,infeasible,optimal,valid_sums
./expes/v4_2021-03-18_issda_1000-prng-1-w1-p100-ukn95_98,30_issda-1000,991,first-1000,450,45,rng,num-start-500,500,25726,ukn-95-98,36.18255686759949,False,,False,0.2959674898679123,0.05131670194948623,0.894590744661054,100,"['1', '2', '3', '4', '6', '10', '12', '14', '15', '17', '19', '21', '23', '24', '25', '28', '29', '30', '33', '34', '36', '37', '38', '41', '43', '48', '50', '54', '56', '58', '59', '61', '65', '67', '68', '74', '81', '83', '92', '94', '95', '98', '105', '110', '111', '114', '116', '118', '122', '125', '130', '133', '134', '136', '137', '140', '143', '145', '146', '147', '150', '151', '152', '153', '159', '161', '163', '164', '166', '170', '171', '173', '174', '176', '177', '181', '182', '183', '184', '185', '186', '187', '190', '196', '199', '201', '202', '204', '210', '213', '214', '215', '221', '222', '225', '232', '244', '250', '252', '253', '256', '257', '258', '259', '262', '263', '267', '271', '272', '275', '278', '279', '281', '283', '286', '287', '288', '290', '293', '294', '296', '297', '299', '301', '302', '303', '304', '306', '308', '309', '310', '311', '314', '315', '317', '318', '319', '320', '322', '324', '325', '326', '327', '334', '340', '343', '345', '347', '348', '349', '353', '354', '357', '359', '360', '361', '364', '365', '366', '367', '368', '370', '371', '372', '373', '374', '375', '377', '379', '381', '382', '383', '385', '386', '387', '389', '390', '392', '393', '394', '395', '399', '402', '414', '416', '418', '419', '420', '424', '425', '426', '427', '429', '430', '431', '432', '438', '440', '443', '444', '445', '452', '455', '456', '461', '464', '465', '467', '474', '475', '476', '477', '479', '481', '482', '483', '484', '486', '487', '488', '489', '490', '491', '492', '493', '494', '495', '496', '498', '500', '502', '504', '505', '506', '509', '512', '513', '515', '525', '526', '528', '529', '531', '535', '538', '543', '545', '546', '547', '552', '553', '557', '559', '561', '562', '563', '564', '567', '573', '574', '578', '580', '588', '590', '593', '595', '597', '601', '602', '604', '605', '609', '610', '611', '616', '618', '619', '623', '624', '626', '627', '629', '630', '632', '633', '636', '637', '638', '639', '640', '641', '642', '643', '645', '646', '647', '648', '653', '654', '658', '660', '661', '663', '664', '665', '666', '667', '668', '676', '678', '679', '680', '682', '685', '687', '688', '690', '695', '699', '703', '704', '705', '706', '708', '709', '712', '714', '720', '722', '725', '726', '734', '736', '737', '738', '739', '748', '749', '750', '756', '758', '759', '760', '762', '763', '767', '768', '774', '777', '778', '779', '781', '785', '789', '793', '794', '795', '798', '800', '801', '805', '807', '815', '817', '818', '821', '827', '833', '837', '838', '839', '840', '841', '842', '847', '849', '850', '852', '856', '857', '859', '861', '862', '864', '865', '866', '873', '875', '876', '877', '880', '881', '885', '888', '889', '890', '891', '893', '894', '898', '902', '910', '913', '914', '915', '916', '917', '919', '921', '923', '924', '925', '933', '934', '936', '939', '941', '945', '946', '947', '952', '958', '959', '960', '961', '962', '964', '965', '966', '968', '969', '973', '974', '975', '977', '978', '979', '980', '981', '982', '983', '984', '985', '988', '989', '990', '992', '996', '999', '1000']",False,1000,True,100,d022a6c86e,0.0,1.0,0.0
./expes/v4_2021-03-18_issda_1000-prng-1-w1-p100-ukn95_98,30_issda-1000,993,first-1000,350,35,rng,num-start-200,200,25726,ukn-95-98,14.777909755706787,False,,False,0.3510489322723386,0.16418380628428875,0.9159973118709691,100,"['1', '2', '4', '6', '10', '12', '14', '19', '23', '24', '29', '30', '33', '34', '36', '37', '38', '43', '48', '50', '54', '56', '58', '59', '61', '65', '67', '68', '74', '81', '83', '92', '94', '95', '98', '105', '110', '111', '114', '116', '118', '122', '130', '134', '136', '137', '143', '145', '146', '150', '151', '152', '153', '161', '164', '166', '170', '171', '173', '174', '176', '177', '181', '182', '183', '184', '185', '186', '187', '190', '199', '201', '202', '204', '210', '213', '214', '215', '221', '222', '225', '232', '244', '252', '253', '256', '257', '262', '263', '271', '272', '278', '279', '281', '283', '286', '287', '288', '290', '296', '297', '299', '301', '302', '303', '306', '309', '310', '314', '317', '318', '320', '322', '324', '325', '326', '334', '340', '343', '347', '348', '349', '353', '354', '357', '359', '360', '364', '365', '366', '367', '368', '370', '371', '372', '373', '374', '375', '377', '381', '382', '383', '386', '387', '390', '393', '399', '414', '416', '418', '419', '420', '424', '425', '426', '427', '429', '431', '432', '444', '445', '452', '456', '461', '464', '465', '467', '474', '475', '477', '481', '482', '483', '484', '486', '489', '491', '493', '495', '496', '498', '500', '504', '506', '512', '513', '515', '525', '526', '528', '529', '531', '535', '538', '543', '545', '547', '553', '557', '559', '561', '562', '563', '564', '567', '573', '578', '588', '593', '595', '601', '602', '604', '605', '609', '611', '616', '618', '626', '627', '629', '632', '633', '636', '638', '639', '640', '641', '642', '643', '646', '647', '653', '654', '660', '663', '665', '666', '667', '668', '679', '680', '682', '685', '687', '688', '690', '695', '703', '705', '706', '708', '709', '712', '714', '720', '722', '725', '734', '736', '737', '738', '739', '748', '749', '750', '756', '758', '759', '760', '767', '768', '774', '778', '781', '785', '789', '793', '794', '795', '800', '801', '805', '807', '815', '817', '818', '821', '837', '838', '839', '840', '842', '847', '849', '852', '856', '857', '859', '861', '862', '864', '866', '873', '875', '877', '881', '888', '889', '890', '891', '893', '894', '898', '914', '915', '916', '919', '923', '924', '925', '939', '941', '945', '946', '947', '952', '959', '960', '961', '962', '964', '965', '966', '969', '973', '975', '978', '979', '980', '983', '984', '985', '988', '989', '990', '992', '996', '999', '1000']",False,1000,True,100,637b5ff24b,0.0,1.0,0.0
./expes/v4_2021-03-18_issda_1000-prng-1-w1-p100-ukn95_98,30_issda-1000,991,first-1000,450,45,rng,num-start-400,400,25726,ukn-95-98,29.5787034034729,False,,False,0.29993209717543884,0.05131670194948623,0.9046537410754407,100,"['1', '2', '3', '4', '9', '10', '13', '14', '15', '16', '17', '20', '23', '24', '28', '33', '34', '37', '38', '39', '40', '41', '42', '43', '44', '47', '48', '50', '52', '60', '63', '64', '65', '66', '68', '71', '72', '73', '74', '76', '81', '83', '84', '85', '86', '87', '90', '92', '94', '96', '98', '101', '102', '103', '104', '112', '118', '119', '120', '121', '122', '123', '127', '128', '133', '134', '136', '137', '139', '142', '143', '144', '146', '150', '151', '154', '155', '158', '159', '160', '162', '163', '164', '166', '168', '170', '171', '174', '175', '180', '183', '184', '185', '187', '189', '190', '192', '193', '194', '195', '196', '197', '200', '203', '204', '205', '209', '210', '211', '213', '216', '219', '221', '224', '225', '226', '227', '228', '229', '242', '245', '246', '248', '249', '250', '257', '263', '266', '267', '277', '278', '282', '283', '286', '287', '288', '289', '295', '297', '298', '299', '301', '307', '309', '310', '311', '316', '318', '319', '320', '323', '324', '325', '328', '333', '334', '337', '339', '341', '342', '343', '344', '346', '347', '351', '352', '356', '359', '361', '363', '366', '367', '368', '370', '376', '377', '380', '381', '382', '385', '388', '395', '398', '401', '404', '405', '407', '409', '412', '413', '415', '420', '425', '426', '428', '429', '430', '431', '436', '437', '445', '446', '447', '453', '454', '456', '457', '458', '459', '460', '462', '464', '469', '470', '479', '482', '483', '484', '486', '488', '489', '490', '491', '493', '494', '498', '499', '502', '505', '506', '507', '510', '516', '517', '521', '524', '532', '534', '535', '536', '538', '541', '542', '543', '546', '548', '551', '554', '557', '558', '561', '562', '565', '566', '570', '572', '574', '575', '579', '582', '583', '584', '588', '590', '594', '598', '602', '604', '605', '609', '611', '612', '617', '618', '619', '621', '623', '625', '626', '627', '628', '634', '636', '641', '642', '643', '646', '649', '650', '651', '653', '655', '656', '657', '660', '661', '663', '665', '667', '670', '672', '673', '674', '677', '679', '682', '685', '689', '690', '692', '693', '695', '696', '697', '698', '700', '701', '704', '706', '708', '715', '716', '717', '718', '719', '721', '723', '724', '727', '728', '730', '733', '735', '736', '737', '743', '745', '747', '748', '749', '750', '753', '757', '760', '767', '768', '773', '774', '776', '777', '781', '786', '791', '799', '802', '803', '804', '808', '809', '812', '813', '814', '818', '819', '820', '823', '825', '826', '828', '829', '830', '832', '835', '836', '837', '842', '843', '845', '846', '848', '849', '850', '851', '854', '856', '858', '859', '861', '862', '863', '865', '866', '867', '870', '871', '872', '875', '876', '878', '883', '887', '889', '892', '893', '895', '896', '897', '898', '906', '907', '912', '914', '916', '917', '920', '921', '922', '924', '925', '927', '930', '931', '932', '935', '936', '938', '939', '940', '941', '942', '944', '945', '946', '956', '957', '959', '960', '961', '970', '973', '977', '985', '987', '989', '990', '991', '992', '994', '998', '1000']",False,1000,True,100,b2515a80b8,0.0,1.0,0.0
./expes/v4_2021-03-18_issda_1000-prng-1-w1-p100-ukn95_98,30_issda-1000,992,first-1000,400,40,rng,num-start-400,400,25726,ukn-95-98,28.557892560958862,False,,False,0.33437078789130603,0.1060241979720572,0.9101520513035235,100,"['2', '4', '5', '8', '12', '14', '16', '21', '22', '23', '28', '30', '32', '33', '34', '35', '36', '37', '44', '46', '47', '48', '51', '52', '53', '55', '57', '62', '63', '65', '66', '68', '69', '70', '71', '74', '79', '82', '88', '89', '91', '100', '105', '106', '107', '108', '111', '117', '122', '123', '124', '126', '127', '128', '129', '130', '131', '132', '133', '134', '135', '137', '138', '140', '142', '155', '156', '160', '161', '164', '168', '174', '176', '182', '183', '188', '190', '192', '196', '197', '203', '204', '205', '217', '223', '224', '227', '228', '230', '231', '233', '238', '240', '242', '244', '245', '246', '251', '255', '258', '259', '265', '266', '270', '271', '272', '274', '276', '278', '281', '286', '287', '292', '294', '296', '298', '299', '301', '306', '308', '309', '311', '312', '318', '321', '322', '323', '324', '328', '330', '331', '335', '336', '337', '339', '341', '342', '345', '348', '349', '350', '353', '354', '355', '360', '361', '362', '369', '370', '373', '375', '379', '386', '387', '390', '396', '397', '399', '400', '405', '407', '410', '418', '420', '421', '424', '426', '427', '430', '432', '434', '438', '439', '441', '442', '445', '446', '447', '448', '449', '456', '462', '468', '472', '476', '478', '481', '482', '485', '486', '488', '489', '493', '494', '495', '496', '500', '502', '507', '513', '515', '516', '518', '520', '523', '525', '528', '531', '532', '533', '534', '536', '538', '540', '543', '547', '548', '549', '550', '554', '555', '557', '558', '562', '563', '565', '569', '573', '581', '582', '583', '585', '586', '588', '589', '591', '594', '595', '599', '600', '601', '603', '604', '606', '607', '610', '615', '616', '619', '620', '621', '624', '626', '627', '630', '631', '633', '635', '636', '638', '641', '642', '643', '644', '648', '649', '650', '651', '655', '658', '660', '663', '666', '670', '672', '679', '688', '689', '692', '693', '695', '696', '698', '699', '701', '707', '711', '713', '715', '716', '724', '730', '731', '732', '733', '734', '735', '736', '737', '738', '741', '746', '753', '756', '760', '764', '766', '772', '775', '777', '780', '788', '791', '794', '796', '798', '799', '802', '806', '807', '808', '811', '813', '815', '820', '821', '823', '824', '826', '827', '830', '831', '832', '833', '837', '840', '844', '848', '852', '853', '854', '857', '858', '859', '865', '871', '875', '876', '877', '878', '879', '882', '883', '884', '885', '887', '888', '889', '891', '894', '900', '902', '903', '905', '907', '909', '911', '912', '919', '922', '926', '927', '931', '935', '938', '940', '943', '944', '945', '947', '949', '950', '952', '959', '962', '964', '966', '972', '973', '978', '981', '982', '984', '987', '988', '989', '995', '996', '997', '999']",False,1000,True,100,cae400b6b3,0.0,1.0,0.0
./expes/v4_2021-03-18_issda_1000-prng-1-w1-p100-ukn95_98,30_issda-1000,994,first-1000,300,30,rng,num-start-300,300,25726,ukn-95-98,21.73478674888611,False,,False,0.3799829125363049,0.22657430144955237,0.9222677925663528,100,"['1', '5', '13', '24', '27', '28', '29', '30', '39', '41', '48', '50', '51', '54', '56', '60', '61', '62', '63', '64', '65', '67', '69', '71', '72', '73', '75', '80', '83', '84', '85', '88', '89', '93', '94', '96', '97', '100', '104', '105', '106', '107', '113', '119', '120', '121', '126', '127', '129', '133', '137', '141', '148', '150', '151', '153', '155', '156', '166', '167', '169', '171', '172', '173', '181', '185', '186', '187', '193', '196', '200', '205', '211', '213', '214', '220', '224', '227', '229', '233', '237', '238', '239', '246', '247', '250', '254', '255', '259', '268', '270', '272', '277', '285', '286', '289', '292', '295', '297', '306', '307', '308', '316', '318', '320', '322', '327', '332', '338', '349', '351', '352', '356', '359', '364', '365', '368', '371', '373', '375', '376', '379', '382', '386', '390', '396', '401', '402', '404', '405', '407', '408', '409', '411', '412', '426', '429', '430', '432', '435', '438', '441', '445', '452', '457', '460', '465', '468', '473', '477', '478', '486', '491', '492', '494', '496', '497', '500', '501', '505', '506', '507', '509', '515', '520', '525', '528', '529', '531', '538', '541', '545', '546', '548', '549', '550', '554', '555', '557', '561', '563', '564', '565', '571', '572', '573', '574', '578', '580', '581', '585', '587', '589', '591', '592', '594', '596', '597', '600', '604', '609', '616', '617', '624', '625', '626', '628', '629', '633', '634', '643', '646', '650', '652', '655', '659', '663', '667', '671', '675', '681', '685', '693', '697', '698', '699', '700', '707', '708', '709', '712', '713', '714', '716', '719', '724', '730', '734', '747', '749', '757', '758', '759', '768', '776', '777', '783', '787', '791', '796', '798', '799', '808', '809', '810', '814', '817', '818', '823', '826', '831', '836', '838', '839', '841', '842', '847', '849', '852', '861', '866', '870', '874', '880', '885', '892', '893', '896', '897', '905', '906', '909', '922', '931', '932', '937', '939', '946', '956', '964', '968', '971', '972', '974', '975', '976', '979', '981', '986', '1000']",False,1000,True,100,ad1cd4a60f,0.0,1.0,0.0
./expes/v4_2021-03-18_issda_1000-prng-1-w1-p100-ukn95_98,30_issda-1000,998,first-1000,100,10,rng,num-start-500,500,25726,ukn-95-98,70.92837524414062,False,,False,0.5843504456537352,0.5657584806915927,0.9552114070977611,100,"['25', '29', '37', '58', '87', '94', '140', '163', '166', '169', '174', '178', '181', '182', '187', '218', '237', '242', '256', '258', '275', '286', '316', '327', '333', '363', '369', '370', '371', '373', '381', '390', '403', '410', '425', '434', '442', '456', '457', '466', '473', '477', '502', '511', '513', '515', '522', '523', '527', '528', '538', '539', '544', '558', '574', '596', '608', '621', '622', '654', '671', '678', '686', '691', '698', '733', '741', '753', '754', '757', '773', '782', '809', '816', '823', '829', '852', '856', '870', '875', '880', '881', '884', '892', '905', '906', '914', '916', '923', '929', '930', '931', '948', '955', '959', '971', '973', '978', '979', '985']",False,1000,True,100,b6b2c72495,0.0,1.0,0.0
./expes/v4_2021-03-18_issda_1000-prng-1-w1-p100-ukn95_98,30_issda-1000,992,first-1000,400,40,rng,num-start-700,700,25726,ukn-95-98,49.689260959625244,False,,False,0.3190503854639141,0.1060241979720572,0.9101520513035235,100,"['1', '2', '4', '6', '10', '12', '14', '19', '21', '23', '24', '25', '29', '30', '33', '34', '36', '37', '38', '41', '43', '48', '50', '54', '56', '58', '59', '61', '65', '67', '68', '74', '81', '83', '92', '94', '95', '98', '105', '110', '111', '114', '116', '118', '122', '125', '130', '133', '134', '136', '137', '140', '143', '145', '146', '147', '150', '151', '152', '153', '161', '163', '164', '166', '170', '171', '173', '174', '176', '177', '181', '182', '183', '184', '185', '186', '187', '190', '199', '201', '202', '204', '210', '213', '214', '215', '221', '222', '225', '232', '244', '250', '252', '253', '256', '257', '258', '262', '263', '267', '271', '272', '278', '279', '281', '283', '286', '287', '288', '290', '294', '296', '297', '299', '301', '302', '303', '306', '309', '310', '314', '315', '317', '318', '320', '322', '324', '325', '326', '327', '334', '340', '343', '347', '348', '349', '353', '354', '357', '359', '360', '361', '364', '365', '366', '367', '368', '370', '371', '372', '373', '374', '375', '377', '379', '381', '382', '383', '385', '386', '387', '389', '390', '392', '393', '394', '399', '402', '414', '416', '418', '419', '420', '424', '425', '426', '427', '429', '430', '431', '432', '440', '443', '444', '445', '452', '455', '456', '461', '464', '465', '467', '474', '475', '477', '479', '481', '482', '483', '484', '486', '489', '491', '492', '493', '495', '496', '498', '500', '504', '506', '509', '512', '513', '515', '525', '526', '528', '529', '531', '535', '538', '543', '545', '546', '547', '552', '553', '557', '559', '561', '562', '563', '564', '567', '573', '574', '578', '580', '588', '593', '595', '601', '602', '604', '605', '609', '611', '616', '618', '624', '626', '627', '629', '630', '632', '633', '636', '637', '638', '639', '640', '641', '642', '643', '645', '646', '647', '653', '654', '658', '660', '663', '665', '666', '667', '668', '676', '678', '679', '680', '682', '685', '687', '688', '690', '695', '703', '705', '706', '708', '709', '712', '714', '720', '722', '725', '726', '734', '736', '737', '738', '739', '748', '749', '750', '756', '758', '759', '760', '767', '768', '774', '778', '781', '785', '789', '793', '794', '795', '800', '801', '805', '807', '815', '817', '818', '821', '833', '837', '838', '839', '840', '841', '842', '847', '849', '852', '856', '857', '859', '861', '862', '864', '866', '873', '875', '876', '877', '881', '888', '889', '890', '891', '893', '894', '898', '913', '914', '915', '916', '919', '923', '924', '925', '936', '939', '941', '945', '946', '947', '952', '958', '959', '960', '961', '962', '964', '965', '966', '968', '969', '973', '974', '975', '978', '979', '980', '981', '982', '983', '984', '985', '988', '989', '990', '992', '996', '999', '1000']",False,1000,True,100,afa0e01f0a,0.0,1.0,0.0
