{
  "clients": [
    {
      "name": "30_issda-4500",
      "path": "./csv/30_issda.csv",
      "subset": "first-4500",
      "subset_size": 4500,
      "param": null
    }
  ],
  "noise": {
    "name": "classic",
    "method": "classic",
    "param": null
  },
  "agg_size": [
    225,
    450,
    675,
    900,
    1125,
    1350,
    1575,
    1800,
    2025,
    2250
  ],
  "methods": [
    {
      "name": "rng",
      "param": 0
    }
  ],
  "days": [
    {
      "name": "num-start-450",
      "param": 450
    },
    {
      "name": "num-start-900",
      "param": 900
    },
    {
      "name": "num-start-1350",
      "param": 1350
    },
    {
      "name": "num-start-1800",
      "param": 1800
    },
    {
      "name": "num-start-2250",
      "param": 2250
    },
    {
      "name": "num-start-2700",
      "param": 2700
    },
    {
      "name": "num-start-3150",
      "param": 3150
    },
    {
      "name": "num-start-3600",
      "param": 3600
    },
    {
      "name": "num-start-4050",
      "param": 4050
    },
    {
      "name": "num-start-4500",
      "param": 4500
    },
    {
      "name": "num-start-4950",
      "param": 4950
    },
    {
      "name": "num-start-5400",
      "param": 5400
    },
    {
      "name": "num-start-5850",
      "param": 5850
    },
    {
      "name": "num-start-6300",
      "param": 6300
    },
    {
      "name": "num-start-6750",
      "param": 6750
    },
    {
      "name": "num-start-7200",
      "param": 7200
    },
    {
      "name": "num-start-7650",
      "param": 7650
    },
    {
      "name": "num-start-8100",
      "param": 8100
    },
    {
      "name": "num-start-8550",
      "param": 8550
    },
    {
      "name": "num-start-9000",
      "param": 9000
    }
  ],
  "threads": null,
  "wall_time": 10000,
  "pooled": true,
  "pool_size": 100
}