expe,clients,clients_size,clients_subset,agg_size,method,days,days_size,days_total,time,valid,valid_sum,success,nsols,wall_hit,wall_time,pooled,valid_sums
./expes/v2_2020-11-04_dbh_300-prng-1,daily_base_hphc_300,300,first-300,21,rng,num-start-191,191,365,6.032747745513916,True,,True,1,False,1000,True,1.0
./expes/v2_2020-11-04_dbh_300-prng-1,daily_base_hphc_300,300,first-300,241,rng,num-start-21,21,365,1000.9502370357513,False,,False,0,True,1000,True,0.0
./expes/v2_2020-11-04_dbh_300-prng-1,daily_base_hphc_300,300,first-300,21,rng,num-start-121,121,365,3.9185991287231445,True,,True,1,False,1000,True,1.0
./expes/v2_2020-11-04_dbh_300-prng-1,daily_base_hphc_300,300,first-300,81,rng,num-start-241,241,365,8.366377115249634,True,,True,1,False,1000,True,1.0
./expes/v2_2020-11-04_dbh_300-prng-1,daily_base_hphc_300,300,first-300,241,rng,num-start-131,131,365,4.620819091796875,True,,True,1,False,1000,True,1.0
./expes/v2_2020-11-04_dbh_300-prng-1,daily_base_hphc_300,300,first-300,101,rng,num-start-111,111,365,7.231933832168579,True,,True,1,False,1000,True,1.0
./expes/v2_2020-11-04_dbh_300-prng-1,daily_base_hphc_300,300,first-300,21,rng,num-start-81,81,365,2.688631296157837,True,,True,1,False,1000,True,1.0
./expes/v2_2020-11-04_dbh_300-prng-1,daily_base_hphc_300,300,first-300,11,rng,num-start-71,71,365,2.1999263763427734,True,,True,1,False,1000,True,1.0
./expes/v2_2020-11-04_dbh_300-prng-1,daily_base_hphc_300,300,first-300,201,rng,num-start-71,71,365,1001.9347240924835,False,,False,0,True,1000,True,0.0
./expes/v2_2020-11-04_dbh_300-prng-1,daily_base_hphc_300,300,first-300,151,rng,num-start-61,61,365,1001.8602042198181,False,,False,0,True,1000,True,0.0
./expes/v2_2020-11-04_dbh_300-prng-1,daily_base_hphc_300,300,first-300,121,rng,num-start-1,1,365,0.1721665859222412,False,,False,2,False,1000,True,1.0
./expes/v2_2020-11-04_dbh_300-prng-1,daily_base_hphc_300,300,first-300,111,rng,num-start-201,201,365,7.014678478240967,True,,True,1,False,1000,True,1.0
./expes/v2_2020-11-04_dbh_300-prng-1,daily_base_hphc_300,300,first-300,131,rng,num-start-221,221,365,8.118191957473755,True,,True,1,False,1000,True,1.0
./expes/v2_2020-11-04_dbh_300-prng-1,daily_base_hphc_300,300,first-300,151,rng,num-start-101,101,365,1002.6620025634766,False,,False,0,True,1000,True,0.0
