expe,clients,clients_size,clients_subset,agg_size,agg_size_pc,method,days,days_size,days_total,noise_method,time,valid,valid_sum,success,score_avg,score_min,score_max,nsols,oracle,wall_hit,wall_time,pooled,pool_size,uuid,infeasible,optimal,valid_sums
./expes/v2_2021-04-10_issda-daily_500-prng-1-w1-p2,daily_issda-500,500,first-500,150,30,rng,num-start-300,300,536,classic,29.71846318244934,True,,True,1.0,1.0,1.0,1,"['1', '8', '17', '20', '21', '32', '33', '36', '38', '42', '46', '47', '48', '49', '51', '52', '56', '64', '67', '72', '73', '76', '77', '95', '96', '97', '98', '105', '111', '112', '114', '121', '123', '124', '125', '129', '133', '134', '141', '142', '145', '148', '149', '150', '155', '156', '159', '162', '163', '164', '167', '170', '171', '182', '184', '198', '201', '205', '208', '215', '216', '223', '227', '228', '230', '242', '244', '245', '249', '251', '253', '259', '261', '262', '267', '268', '269', '273', '277', '279', '281', '283', '287', '291', '295', '297', '299', '301', '302', '306', '309', '313', '314', '317', '321', '328', '337', '343', '348', '350', '351', '359', '361', '362', '364', '369', '374', '387', '388', '389', '402', '409', '410', '412', '413', '415', '416', '418', '421', '423', '424', '425', '429', '431', '432', '433', '435', '436', '444', '445', '446', '449', '456', '457', '459', '460', '461', '462', '465', '466', '468', '469', '470', '471', '473', '478', '487', '494', '495', '496']",False,1000,True,2,fa2543fa3d,0.0,1.0,1.0
./expes/v2_2021-04-10_issda-daily_500-prng-1-w1-p2,daily_issda-500,500,first-500,100,20,rng,num-start-150,150,536,classic,1005.2340495586395,False,,False,0,,,0,"['4', '11', '14', '23', '24', '31', '35', '42', '45', '46', '47', '53', '55', '75', '80', '83', '85', '89', '92', '100', '110', '114', '120', '121', '127', '128', '133', '134', '135', '140', '142', '144', '148', '149', '150', '154', '156', '157', '159', '160', '173', '176', '185', '191', '199', '203', '206', '212', '217', '221', '232', '237', '242', '243', '246', '260', '261', '266', '267', '274', '275', '281', '282', '294', '307', '311', '321', '322', '329', '332', '344', '345', '359', '361', '370', '375', '392', '400', '409', '410', '414', '417', '419', '424', '425', '431', '433', '435', '438', '444', '445', '451', '452', '466', '470', '475', '479', '483', '484', '492']",True,1000,True,2,dd1baac7a1,0.0,0.0,0.0
