expe,clients,clients_size,clients_subset,agg_size,agg_size_pc,method,days,days_size,days_total,noise_method,time,valid,valid_sum,success,score_avg,score_min,score_max,nsols,oracle,wall_hit,wall_time,pooled,pool_size,uuid,infeasible,optimal,valid_sums
./expes/v2_2021-04-10_issda-daily_500-prng-1-w1-p2,daily_issda-500,500,first-500,400,80,rng,num-start-150,150,536,classic,18.091402530670166,True,,True,1.0,1.0,1.0,1,"['1', '2', '3', '5', '6', '9', '10', '11', '13', '15', '16', '17', '18', '19', '20', '21', '23', '24', '26', '27', '28', '29', '30', '31', '32', '34', '35', '37', '38', '39', '40', '41', '42', '43', '44', '45', '46', '47', '48', '49', '50', '52', '53', '54', '55', '57', '58', '59', '60', '61', '63', '66', '68', '69', '70', '71', '72', '73', '74', '75', '76', '77', '78', '79', '80', '81', '82', '83', '84', '85', '86', '87', '88', '89', '91', '93', '94', '95', '97', '98', '99', '102', '103', '105', '107', '108', '109', '110', '111', '112', '113', '114', '116', '117', '119', '120', '121', '124', '126', '127', '128', '129', '130', '131', '132', '133', '135', '136', '137', '138', '140', '141', '143', '145', '146', '147', '149', '150', '151', '152', '155', '156', '157', '158', '159', '160', '161', '162', '164', '167', '168', '169', '170', '171', '172', '173', '175', '177', '178', '180', '182', '183', '184', '185', '186', '187', '188', '191', '192', '195', '196', '197', '198', '200', '201', '202', '203', '205', '206', '207', '208', '209', '210', '211', '212', '213', '214', '215', '217', '218', '219', '221', '223', '225', '226', '227', '228', '229', '230', '232', '233', '234', '235', '236', '237', '238', '239', '240', '241', '242', '243', '245', '246', '247', '248', '249', '250', '251', '252', '255', '256', '257', '258', '259', '260', '261', '262', '263', '264', '265', '266', '267', '268', '269', '270', '272', '273', '275', '276', '277', '279', '280', '281', '283', '286', '287', '288', '289', '290', '291', '292', '293', '294', '295', '298', '300', '301', '302', '303', '304', '305', '306', '310', '311', '313', '314', '315', '316', '317', '319', '320', '321', '322', '325', '326', '327', '328', '329', '330', '331', '332', '333', '334', '335', '336', '338', '339', '340', '342', '343', '344', '345', '346', '347', '348', '349', '350', '351', '352', '354', '355', '357', '358', '359', '361', '362', '363', '364', '365', '366', '367', '368', '369', '371', '372', '373', '374', '375', '377', '378', '379', '381', '382', '383', '385', '386', '387', '389', '390', '391', '392', '393', '396', '397', '398', '400', '401', '402', '404', '405', '406', '407', '408', '409', '410', '411', '412', '413', '415', '416', '417', '418', '419', '420', '421', '423', '426', '427', '428', '429', '430', '431', '435', '436', '437', '438', '439', '440', '441', '442', '443', '444', '446', '448', '449', '450', '451', '452', '453', '454', '455', '456', '457', '458', '459', '460', '461', '462', '463', '464', '465', '466', '467', '469', '470', '471', '472', '473', '474', '476', '478', '479', '480', '481', '482', '483', '484', '486', '487', '489', '490', '491', '492', '493', '494', '495', '496', '497', '498', '499']",False,1000,True,2,afa1fbaa8a,0.0,1.0,1.0
./expes/v2_2021-04-10_issda-daily_500-prng-1-w1-p2,daily_issda-500,500,first-500,250,50,rng,num-start-300,300,536,classic,18.33264446258545,True,,True,1.0,1.0,1.0,1,"['1', '2', '3', '5', '7', '8', '9', '10', '11', '12', '13', '14', '15', '16', '17', '18', '19', '23', '29', '33', '36', '37', '43', '45', '47', '49', '52', '53', '56', '57', '59', '61', '62', '67', '69', '75', '82', '83', '84', '86', '87', '88', '89', '91', '93', '95', '96', '97', '98', '103', '106', '108', '111', '113', '114', '115', '116', '117', '118', '119', '120', '125', '128', '130', '131', '133', '137', '138', '140', '144', '146', '149', '151', '152', '156', '158', '160', '163', '165', '170', '171', '176', '177', '178', '181', '183', '187', '188', '190', '192', '195', '196', '197', '198', '200', '202', '204', '207', '208', '212', '213', '214', '216', '217', '219', '222', '225', '229', '231', '232', '233', '235', '236', '241', '242', '243', '246', '247', '249', '250', '251', '254', '255', '256', '257', '258', '259', '260', '261', '262', '263', '264', '265', '266', '267', '269', '271', '276', '277', '278', '279', '281', '282', '283', '284', '285', '288', '292', '296', '297', '300', '301', '302', '303', '304', '308', '311', '312', '314', '315', '320', '323', '326', '329', '332', '333', '334', '337', '338', '340', '341', '344', '345', '346', '347', '348', '352', '356', '357', '360', '361', '365', '369', '370', '371', '372', '374', '376', '378', '380', '381', '387', '390', '391', '392', '393', '395', '398', '399', '402', '403', '404', '408', '409', '411', '412', '415', '417', '419', '421', '425', '427', '428', '429', '431', '434', '435', '436', '437', '439', '441', '445', '446', '452', '454', '458', '459', '461', '462', '466', '467', '470', '472', '473', '475', '477', '480', '481', '482', '484', '487', '488', '489', '491', '492', '495', '496', '497', '499', '500']",False,1000,True,2,96bf4642fe,0.0,1.0,1.0
./expes/v2_2021-04-10_issda-daily_500-prng-1-w1-p2,daily_issda-500,500,first-500,300,60,rng,num-start-100,100,536,classic,1003.5623195171356,False,,False,0,,,0,"['1', '2', '7', '8', '9', '10', '12', '14', '17', '19', '20', '21', '22', '24', '26', '30', '32', '33', '36', '37', '38', '41', '42', '43', '46', '47', '48', '49', '51', '52', '56', '59', '60', '61', '62', '64', '67', '68', '69', '70', '72', '73', '75', '76', '77', '79', '80', '81', '82', '83', '85', '87', '88', '90', '93', '94', '95', '96', '97', '98', '99', '100', '102', '103', '105', '106', '108', '110', '111', '112', '113', '114', '115', '121', '123', '124', '125', '129', '132', '133', '134', '139', '141', '142', '143', '144', '145', '148', '149', '150', '155', '156', '159', '160', '162', '163', '164', '167', '170', '171', '172', '176', '178', '180', '181', '182', '183', '184', '188', '190', '191', '194', '198', '199', '201', '204', '205', '206', '208', '210', '213', '214', '215', '216', '218', '219', '223', '224', '227', '228', '229', '230', '231', '232', '235', '240', '241', '242', '244', '245', '246', '247', '249', '250', '251', '253', '254', '258', '259', '261', '262', '267', '268', '269', '271', '272', '273', '274', '277', '279', '281', '283', '286', '287', '288', '291', '292', '294', '295', '297', '299', '301', '302', '303', '305', '306', '309', '310', '311', '312', '313', '314', '317', '318', '321', '322', '323', '325', '326', '327', '328', '329', '331', '332', '333', '334', '335', '336', '337', '339', '340', '341', '343', '345', '346', '347', '348', '349', '350', '351', '353', '354', '358', '359', '360', '361', '362', '364', '367', '368', '369', '372', '373', '374', '375', '379', '380', '384', '387', '388', '389', '391', '393', '396', '401', '402', '404', '406', '407', '409', '410', '412', '413', '415', '416', '418', '419', '421', '422', '423', '424', '425', '426', '427', '428', '429', '430', '431', '432', '433', '434', '435', '436', '438', '442', '444', '445', '446', '447', '448', '449', '453', '454', '456', '457', '459', '460', '461', '462', '464', '465', '466', '468', '469', '470', '471', '472', '473', '478', '480', '481', '485', '487', '489', '493', '494', '495', '496', '497', '499']",True,1000,True,2,b50e90077e,0.0,0.0,0.0
