expe,clients,clients_size,clients_subset,agg_size,agg_size_pc,method,days,days_size,days_total,noise_method,time,valid,valid_sum,success,score_avg,score_min,score_max,nsols,oracle,wall_hit,wall_time,pooled,pool_size,uuid,infeasible,optimal,valid_sums
./expes/v2_2021-04-10_issda-daily_500-prng-1-w1-p2,daily_issda-500,500,first-500,150,30,rng,num-start-400,400,536,classic,22.167206287384033,True,,True,1.0,1.0,1.0,1,"['4', '10', '11', '14', '22', '23', '24', '31', '32', '35', '42', '43', '45', '46', '47', '52', '53', '55', '63', '75', '79', '80', '83', '85', '89', '91', '92', '95', '100', '101', '102', '104', '110', '114', '118', '120', '121', '122', '127', '128', '133', '134', '135', '140', '142', '143', '144', '147', '148', '149', '150', '154', '156', '157', '159', '160', '165', '166', '168', '170', '173', '176', '183', '185', '191', '199', '203', '206', '211', '212', '217', '221', '224', '226', '232', '236', '237', '242', '243', '246', '260', '261', '266', '267', '274', '275', '281', '282', '286', '294', '299', '302', '307', '311', '316', '318', '321', '322', '324', '325', '326', '329', '332', '334', '344', '345', '346', '349', '358', '359', '361', '363', '370', '375', '377', '383', '392', '397', '400', '409', '410', '414', '417', '419', '424', '425', '430', '431', '433', '435', '438', '442', '444', '445', '446', '451', '452', '459', '464', '466', '468', '470', '475', '479', '483', '484', '489', '492', '494', '495']",False,1000,True,2,d1ca0fa813,0.0,1.0,1.0
./expes/v2_2021-04-10_issda-daily_500-prng-1-w1-p2,daily_issda-500,500,first-500,200,40,rng,num-start-500,500,536,classic,27.036096334457397,True,,True,1.0,1.0,1.0,1,"['4', '6', '7', '8', '11', '12', '15', '16', '17', '19', '22', '23', '24', '31', '32', '33', '34', '35', '40', '46', '50', '53', '54', '56', '61', '64', '67', '69', '70', '71', '78', '80', '82', '84', '91', '95', '99', '102', '109', '112', '119', '120', '121', '122', '129', '133', '135', '137', '138', '139', '143', '144', '146', '150', '151', '153', '155', '156', '159', '161', '162', '164', '168', '170', '171', '173', '174', '177', '180', '181', '185', '187', '188', '190', '193', '194', '198', '199', '200', '203', '204', '209', '211', '213', '216', '219', '221', '224', '228', '234', '236', '239', '241', '243', '244', '247', '248', '251', '254', '259', '260', '267', '268', '274', '275', '277', '278', '279', '281', '282', '283', '287', '292', '293', '294', '296', '297', '298', '300', '301', '302', '303', '304', '305', '308', '310', '311', '312', '313', '315', '316', '318', '321', '322', '324', '325', '326', '328', '330', '336', '344', '345', '347', '348', '349', '350', '354', '357', '358', '362', '366', '367', '368', '369', '373', '378', '380', '389', '390', '394', '398', '399', '400', '404', '410', '411', '416', '422', '426', '427', '429', '438', '439', '441', '442', '444', '445', '446', '447', '450', '452', '460', '463', '464', '466', '469', '470', '472', '473', '475', '476', '480', '482', '486', '489', '491', '494', '495', '498', '499']",False,1000,True,2,41634b1636,0.0,1.0,1.0
