expe,clients,clients_size,clients_subset,agg_size,agg_size_pc,method,days,days_size,days_total,noise_method,time,valid,valid_sum,success,score_avg,score_min,score_max,nsols,oracle,wall_hit,wall_time,pooled,pool_size,uuid,infeasible,optimal,valid_sums
./expes/v2_2021-03-23_issda-30_2000-prng-1-w8-p2,30_issda-2000,2000,first-2000,600,30,rng,num-start-2400,2400,25726,classic,2734.7261114120483,True,,True,1.0,1.0,1.0,1,"['7', '10', '14', '25', '28', '30', '35', '41', '46', '47', '53', '57', '63', '66', '67', '68', '69', '70', '72', '76', '77', '80', '82', '90', '93', '101', '105', '118', '119', '125', '129', '130', '132', '134', '136', '141', '144', '147', '154', '164', '165', '168', '169', '170', '171', '172', '173', '175', '177', '179', '183', '184', '186', '190', '192', '195', '196', '199', '200', '205', '210', '217', '218', '219', '221', '222', '223', '224', '228', '229', '233', '234', '239', '240', '248', '250', '255', '259', '261', '262', '272', '277', '279', '281', '282', '285', '286', '288', '289', '292', '294', '304', '305', '308', '315', '317', '322', '325', '328', '330', '335', '341', '347', '348', '349', '350', '353', '355', '357', '359', '362', '364', '365', '379', '384', '389', '392', '394', '396', '398', '401', '402', '405', '408', '411', '414', '421', '426', '429', '431', '433', '446', '447', '451', '456', '459', '462', '465', '470', '473', '475', '477', '480', '481', '483', '497', '500', '501', '504', '507', '508', '512', '522', '523', '530', '535', '542', '545', '546', '547', '551', '555', '562', '568', '579', '583', '586', '589', '590', '592', '593', '594', '595', '597', '598', '601', '605', '606', '607', '608', '612', '614', '615', '618', '619', '633', '639', '642', '643', '654', '655', '656', '658', '664', '667', '670', '691', '692', '694', '698', '699', '701', '703', '705', '710', '711', '713', '720', '729', '731', '732', '733', '734', '738', '739', '741', '742', '746', '748', '750', '751', '754', '756', '757', '758', '759', '761', '762', '764', '768', '769', '772', '773', '776', '777', '780', '781', '786', '787', '792', '795', '798', '800', '801', '807', '808', '812', '814', '821', '825', '826', '834', '835', '836', '840', '844', '850', '854', '856', '860', '868', '872', '873', '876', '880', '883', '884', '886', '890', '893', '895', '899', '901', '902', '903', '905', '912', '914', '916', '919', '920', '928', '929', '931', '933', '935', '938', '941', '942', '948', '966', '970', '972', '975', '977', '981', '991', '994', '999', '1000', '1001', '1003', '1004', '1014', '1018', '1019', '1020', '1021', '1022', '1023', '1024', '1025', '1028', '1029', '1030', '1032', '1033', '1034', '1035', '1038', '1039', '1040', '1045', '1049', '1054', '1058', '1059', '1065', '1066', '1067', '1073', '1076', '1077', '1079', '1080', '1082', '1083', '1084', '1090', '1093', '1095', '1106', '1117', '1121', '1139', '1142', '1146', '1150', '1153', '1155', '1156', '1160', '1161', '1165', '1166', '1174', '1175', '1181', '1185', '1186', '1188', '1190', '1191', '1197', '1199', '1200', '1206', '1222', '1229', '1230', '1231', '1232', '1238', '1239', '1240', '1243', '1244', '1249', '1250', '1253', '1256', '1257', '1265', '1271', '1273', '1278', '1280', '1281', '1288', '1289', '1291', '1295', '1296', '1302', '1310', '1315', '1319', '1323', '1324', '1326', '1327', '1331', '1332', '1333', '1335', '1337', '1339', '1340', '1341', '1342', '1344', '1345', '1346', '1347', '1349', '1354', '1358', '1359', '1368', '1371', '1373', '1379', '1385', '1393', '1402', '1403', '1407', '1410', '1414', '1415', '1416', '1418', '1424', '1432', '1436', '1437', '1438', '1444', '1445', '1451', '1454', '1455', '1466', '1469', '1472', '1474', '1477', '1478', '1485', '1486', '1487', '1491', '1492', '1493', '1502', '1505', '1508', '1509', '1510', '1518', '1519', '1522', '1523', '1524', '1525', '1531', '1534', '1535', '1536', '1543', '1548', '1555', '1556', '1561', '1566', '1570', '1571', '1573', '1597', '1598', '1600', '1602', '1605', '1610', '1611', '1616', '1619', '1620', '1625', '1632', '1648', '1653', '1655', '1656', '1661', '1662', '1666', '1668', '1669', '1673', '1678', '1682', '1685', '1690', '1691', '1696', '1697', '1699', '1700', '1701', '1703', '1707', '1709', '1712', '1713', '1716', '1717', '1719', '1724', '1726', '1728', '1729', '1733', '1735', '1742', '1746', '1752', '1755', '1760', '1762', '1772', '1775', '1779', '1780', '1793', '1797', '1799', '1805', '1807', '1809', '1818', '1820', '1824', '1826', '1830', '1834', '1837', '1838', '1840', '1844', '1847', '1848', '1850', '1851', '1854', '1855', '1857', '1858', '1860', '1862', '1864', '1867', '1870', '1877', '1882', '1883', '1884', '1886', '1890', '1895', '1896', '1900', '1902', '1903', '1908', '1910', '1911', '1918', '1919', '1929', '1935', '1937', '1938', '1939', '1942', '1946', '1961', '1964', '1965', '1971', '1976', '1977', '1978', '1981', '1983', '1987', '1989', '1990', '1993', '1997']",False,8000,True,2,e91055ad6a,0.0,1.0,1.0
./expes/v2_2021-03-23_issda-30_2000-prng-1-w8-p2,30_issda-2000,2000,first-2000,100,5,rng,num-start-2600,2600,25726,classic,2451.6476349830627,True,,True,1.0,1.0,1.0,1,"['6', '15', '35', '47', '89', '145', '151', '202', '204', '215', '221', '234', '246', '248', '276', '284', '304', '325', '376', '393', '409', '413', '415', '425', '477', '534', '535', '549', '593', '613', '638', '667', '671', '712', '756', '796', '800', '806', '812', '833', '844', '849', '867', '878', '902', '931', '934', '939', '983', '984', '1011', '1012', '1025', '1029', '1048', '1066', '1084', '1110', '1111', '1117', '1121', '1166', '1169', '1181', '1186', '1198', '1217', '1219', '1265', '1283', '1305', '1349', '1387', '1445', '1491', '1498', '1503', '1548', '1584', '1587', '1608', '1622', '1642', '1645', '1689', '1708', '1710', '1747', '1774', '1801', '1824', '1834', '1836', '1838', '1856', '1874', '1885', '1954', '1960', '1983']",False,8000,True,2,b1c1e16bfb,0.0,1.0,1.0
./expes/v2_2021-03-23_issda-30_2000-prng-1-w8-p2,30_issda-2000,2000,first-2000,300,15,rng,num-start-3200,3200,25726,classic,2781.1659729480743,True,,True,1.0,1.0,1.0,1,"['1', '2', '10', '20', '23', '31', '32', '34', '35', '37', '41', '44', '61', '62', '69', '72', '74', '80', '86', '87', '96', '98', '108', '122', '123', '124', '130', '137', '138', '141', '142', '144', '150', '151', '152', '153', '154', '161', '171', '175', '179', '185', '186', '189', '193', '206', '207', '213', '221', '222', '224', '239', '242', '259', '261', '269', '270', '276', '278', '280', '284', '288', '291', '300', '316', '323', '325', '360', '361', '364', '375', '379', '382', '384', '386', '389', '390', '391', '401', '403', '407', '418', '428', '430', '432', '435', '436', '437', '438', '468', '471', '479', '489', '496', '498', '505', '511', '521', '523', '527', '529', '552', '553', '570', '574', '578', '592', '596', '601', '603', '607', '622', '623', '637', '638', '639', '646', '654', '669', '674', '678', '682', '690', '733', '742', '756', '762', '769', '786', '791', '792', '796', '803', '808', '809', '812', '814', '821', '834', '840', '843', '859', '860', '862', '864', '903', '905', '913', '915', '917', '923', '926', '927', '928', '929', '937', '951', '953', '954', '963', '973', '975', '982', '988', '989', '991', '998', '1006', '1024', '1041', '1043', '1049', '1050', '1051', '1064', '1066', '1069', '1083', '1088', '1104', '1129', '1135', '1146', '1147', '1154', '1160', '1172', '1177', '1182', '1194', '1197', '1203', '1209', '1211', '1214', '1220', '1222', '1226', '1229', '1232', '1233', '1237', '1250', '1251', '1258', '1259', '1261', '1262', '1275', '1277', '1285', '1289', '1290', '1300', '1303', '1304', '1312', '1315', '1319', '1332', '1339', '1340', '1342', '1346', '1357', '1383', '1397', '1403', '1407', '1416', '1421', '1436', '1443', '1448', '1450', '1452', '1476', '1486', '1497', '1499', '1501', '1514', '1515', '1516', '1534', '1553', '1570', '1576', '1583', '1594', '1595', '1600', '1625', '1633', '1646', '1647', '1659', '1675', '1687', '1701', '1704', '1705', '1721', '1726', '1734', '1736', '1746', '1750', '1752', '1755', '1771', '1774', '1775', '1802', '1807', '1813', '1824', '1825', '1854', '1861', '1865', '1874', '1879', '1890', '1892', '1893', '1899', '1904', '1909', '1926', '1940', '1946', '1963', '1965', '1972', '1975', '1976', '1989', '1993', '1997']",False,8000,True,2,98f5bf0c18,0.0,1.0,1.0
./expes/v2_2021-03-23_issda-30_2000-prng-1-w8-p2,30_issda-2000,2000,first-2000,100,5,rng,num-start-1600,1600,25726,classic,579.1874647140503,True,,True,1.0,1.0,1.0,1,"['27', '32', '59', '64', '74', '88', '132', '135', '200', '268', '275', '279', '309', '311', '327', '393', '445', '475', '476', '480', '488', '529', '532', '552', '617', '690', '719', '749', '758', '791', '794', '799', '809', '814', '835', '863', '875', '894', '911', '961', '964', '969', '971', '976', '1014', '1039', '1072', '1094', '1108', '1115', '1126', '1129', '1176', '1182', '1190', '1197', '1199', '1211', '1214', '1219', '1237', '1241', '1282', '1284', '1301', '1309', '1376', '1377', '1397', '1463', '1469', '1473', '1492', '1519', '1553', '1592', '1596', '1598', '1615', '1641', '1687', '1707', '1714', '1716', '1752', '1764', '1773', '1778', '1800', '1852', '1862', '1876', '1885', '1887', '1897', '1903', '1917', '1961', '1975', '1978']",False,8000,True,2,e7856a0b74,0.0,1.0,1.0
