expe,clients,clients_size,clients_subset,agg_size,method,days,days_size,days_total,time,valid,valid_sum,success,nsols,wall_hit,wall_time,pooled,valid_sums
./expes/v2_2020-12-02_dh_150-prng-1,30_issda_150,150,rng-150,21,rng,num-start-4001,4001,25726,55.733288288116455,True,,True,1,False,1000,True,1.0
./expes/v2_2020-12-02_dh_150-prng-1,30_issda_150,150,rng-150,111,rng,num-start-1001,1001,25726,13.761665344238281,True,,True,1,False,1000,True,1.0
./expes/v2_2020-12-02_dh_150-prng-1,30_issda_150,150,rng-150,101,rng,num-start-8001,8001,25726,130.29850029945374,True,,True,1,False,1000,True,1.0
./expes/v2_2020-12-02_dh_150-prng-1,30_issda_150,150,rng-150,11,rng,num-start-12001,12001,25726,147.0633385181427,True,,True,1,False,1000,True,1.0
./expes/v2_2020-12-02_dh_150-prng-1,30_issda_150,150,rng-150,41,rng,num-start-5001,5001,25726,85.29953742027283,True,,True,1,False,1000,True,1.0
./expes/v2_2020-12-02_dh_150-prng-1,30_issda_150,150,rng-150,11,rng,num-start-14001,14001,25726,190.4531512260437,True,,True,1,False,1000,True,1.0
./expes/v2_2020-12-02_dh_150-prng-1,30_issda_150,150,rng-150,21,rng,num-start-13001,13001,25726,184.71243619918823,True,,True,1,False,1000,True,1.0
./expes/v2_2020-12-02_dh_150-prng-1,30_issda_150,150,rng-150,111,rng,num-start-16001,16001,25726,272.7863094806671,True,,True,1,False,1000,True,1.0
./expes/v2_2020-12-02_dh_150-prng-1,30_issda_150,150,rng-150,71,rng,num-start-8001,8001,25726,117.3018171787262,True,,True,1,False,1000,True,1.0
./expes/v2_2020-12-02_dh_150-prng-1,30_issda_150,150,rng-150,51,rng,num-start-12001,12001,25726,168.8040714263916,True,,True,1,False,1000,True,1.0
./expes/v2_2020-12-02_dh_150-prng-1,30_issda_150,150,rng-150,21,rng,num-start-10001,10001,25726,133.5260465145111,True,,True,1,False,1000,True,1.0
./expes/v2_2020-12-02_dh_150-prng-1,30_issda_150,150,rng-150,121,rng,num-start-6001,6001,25726,85.67669010162354,True,,True,1,False,1000,True,1.0
./expes/v2_2020-12-02_dh_150-prng-1,30_issda_150,150,rng-150,121,rng,num-start-15001,15001,25726,203.29690623283386,True,,True,1,False,1000,True,1.0
./expes/v2_2020-12-02_dh_150-prng-1,30_issda_150,150,rng-150,1,rng,num-start-6001,6001,25726,65.44009900093079,True,,True,1,False,1000,True,1.0
./expes/v2_2020-12-02_dh_150-prng-1,30_issda_150,150,rng-150,91,rng,num-start-3001,3001,25726,42.56251335144043,True,,True,1,False,1000,True,1.0
./expes/v2_2020-12-02_dh_150-prng-1,30_issda_150,150,rng-150,61,rng,num-start-1,1,25726,0.03706717491149902,False,,False,2,False,1000,True,1.0
./expes/v2_2020-12-02_dh_150-prng-1,30_issda_150,150,rng-150,31,rng,num-start-7001,7001,25726,97.52499270439148,True,,True,1,False,1000,True,1.0
./expes/v2_2020-12-02_dh_150-prng-1,30_issda_150,150,rng-150,31,rng,num-start-7001,7001,25726,89.93913960456848,True,,True,1,False,1000,True,1.0
./expes/v2_2020-12-02_dh_150-prng-1,30_issda_150,150,rng-150,71,rng,num-start-3001,3001,25726,38.67720365524292,True,,True,1,False,1000,True,1.0
./expes/v2_2020-12-02_dh_150-prng-1,30_issda_150,150,rng-150,21,rng,num-start-4001,4001,25726,53.12471151351929,True,,True,1,False,1000,True,1.0
./expes/v2_2020-12-02_dh_150-prng-1,30_issda_150,150,rng-150,111,rng,num-start-7001,7001,25726,87.40540313720703,True,,True,1,False,1000,True,1.0
./expes/v2_2020-12-02_dh_150-prng-1,30_issda_150,150,rng-150,21,rng,num-start-14001,14001,25726,169.71876573562622,True,,True,1,False,1000,True,1.0
./expes/v2_2020-12-02_dh_150-prng-1,30_issda_150,150,rng-150,141,rng,num-start-11001,11001,25726,120.74611043930054,True,,True,1,False,1000,True,1.0
./expes/v2_2020-12-02_dh_150-prng-1,30_issda_150,150,rng-150,41,rng,num-start-15001,15001,25726,187.81699681282043,True,,True,1,False,1000,True,1.0
./expes/v2_2020-12-02_dh_150-prng-1,30_issda_150,150,rng-150,71,rng,num-start-16001,16001,25726,202.81138443946838,True,,True,1,False,1000,True,1.0
./expes/v2_2020-12-02_dh_150-prng-1,30_issda_150,150,rng-150,11,rng,num-start-3001,3001,25726,33.20661664009094,True,,True,1,False,1000,True,1.0
./expes/v2_2020-12-02_dh_150-prng-1,30_issda_150,150,rng-150,141,rng,num-start-4001,4001,25726,43.522565841674805,True,,True,1,False,1000,True,1.0
./expes/v2_2020-12-02_dh_150-prng-1,30_issda_150,150,rng-150,41,rng,num-start-8001,8001,25726,122.73615622520447,True,,True,1,False,1000,True,1.0
./expes/v2_2020-12-02_dh_150-prng-1,30_issda_150,150,rng-150,141,rng,num-start-12001,12001,25726,140.82993483543396,True,,True,1,False,1000,True,1.0
./expes/v2_2020-12-02_dh_150-prng-1,30_issda_150,150,rng-150,131,rng,num-start-11001,11001,25726,166.23925352096558,True,,True,1,False,1000,True,1.0
./expes/v2_2020-12-02_dh_150-prng-1,30_issda_150,150,rng-150,51,rng,num-start-10001,10001,25726,139.22647309303284,True,,True,1,False,1000,True,1.0
./expes/v2_2020-12-02_dh_150-prng-1,30_issda_150,150,rng-150,111,rng,num-start-8001,8001,25726,115.80770015716553,True,,True,1,False,1000,True,1.0
./expes/v2_2020-12-02_dh_150-prng-1,30_issda_150,150,rng-150,121,rng,num-start-3001,3001,25726,41.088427782058716,True,,True,1,False,1000,True,1.0
./expes/v2_2020-12-02_dh_150-prng-1,30_issda_150,150,rng-150,101,rng,num-start-4001,4001,25726,60.58344578742981,True,,True,1,False,1000,True,1.0
./expes/v2_2020-12-02_dh_150-prng-1,30_issda_150,150,rng-150,111,rng,num-start-4001,4001,25726,60.60330533981323,True,,True,1,False,1000,True,1.0
./expes/v2_2020-12-02_dh_150-prng-1,30_issda_150,150,rng-150,1,rng,num-start-14001,14001,25726,164.4399311542511,True,,True,1,False,1000,True,1.0
./expes/v2_2020-12-02_dh_150-prng-1,30_issda_150,150,rng-150,81,rng,num-start-10001,10001,25726,146.72092413902283,True,,True,1,False,1000,True,1.0
./expes/v2_2020-12-02_dh_150-prng-1,30_issda_150,150,rng-150,101,rng,num-start-3001,3001,25726,41.918976068496704,True,,True,1,False,1000,True,1.0
./expes/v2_2020-12-02_dh_150-prng-1,30_issda_150,150,rng-150,71,rng,num-start-4001,4001,25726,57.466241121292114,True,,True,1,False,1000,True,1.0
./expes/v2_2020-12-02_dh_150-prng-1,30_issda_150,150,rng-150,21,rng,num-start-1,1,25726,0.2753438949584961,False,,False,2,False,1000,True,1.0
./expes/v2_2020-12-02_dh_150-prng-1,30_issda_150,150,rng-150,41,rng,num-start-16001,16001,25726,242.6560046672821,True,,True,1,False,1000,True,1.0
./expes/v2_2020-12-02_dh_150-prng-1,30_issda_150,150,rng-150,121,rng,num-start-3001,3001,25726,40.70809245109558,True,,True,1,False,1000,True,1.0
./expes/v2_2020-12-02_dh_150-prng-1,30_issda_150,150,rng-150,31,rng,num-start-4001,4001,25726,57.04894542694092,True,,True,1,False,1000,True,1.0
./expes/v2_2020-12-02_dh_150-prng-1,30_issda_150,150,rng-150,131,rng,num-start-9001,9001,25726,123.98518466949463,True,,True,1,False,1000,True,1.0
./expes/v2_2020-12-02_dh_150-prng-1,30_issda_150,150,rng-150,101,rng,num-start-7001,7001,25726,112.1488926410675,True,,True,1,False,1000,True,1.0
./expes/v2_2020-12-02_dh_150-prng-1,30_issda_150,150,rng-150,121,rng,num-start-7001,7001,25726,90.81024479866028,True,,True,1,False,1000,True,1.0
./expes/v2_2020-12-02_dh_150-prng-1,30_issda_150,150,rng-150,91,rng,num-start-5001,5001,25726,74.94332885742188,True,,True,1,False,1000,True,1.0
./expes/v2_2020-12-02_dh_150-prng-1,30_issda_150,150,rng-150,131,rng,num-start-1001,1001,25726,13.60285997390747,True,,True,1,False,1000,True,1.0
./expes/v2_2020-12-02_dh_150-prng-1,30_issda_150,150,rng-150,31,rng,num-start-1001,1001,25726,13.940310716629028,True,,True,1,False,1000,True,1.0
./expes/v2_2020-12-02_dh_150-prng-1,30_issda_150,150,rng-150,141,rng,num-start-12001,12001,25726,174.3103060722351,True,,True,1,False,1000,True,1.0
./expes/v2_2020-12-02_dh_150-prng-1,30_issda_150,150,rng-150,91,rng,num-start-3001,3001,25726,48.346649169921875,True,,True,1,False,1000,True,1.0
./expes/v2_2020-12-02_dh_150-prng-1,30_issda_150,150,rng-150,1,rng,num-start-15001,15001,25726,177.32867884635925,True,,True,1,False,1000,True,1.0
./expes/v2_2020-12-02_dh_150-prng-1,30_issda_150,150,rng-150,41,rng,num-start-1,1,25726,0.055034637451171875,False,,False,2,False,1000,True,1.0
./expes/v2_2020-12-02_dh_150-prng-1,30_issda_150,150,rng-150,31,rng,num-start-8001,8001,25726,161.62059092521667,True,,True,1,False,1000,True,1.0
./expes/v2_2020-12-02_dh_150-prng-1,30_issda_150,150,rng-150,81,rng,num-start-15001,15001,25726,251.81791019439697,True,,True,1,False,1000,True,1.0
./expes/v2_2020-12-02_dh_150-prng-1,30_issda_150,150,rng-150,21,rng,num-start-6001,6001,25726,83.55931735038757,True,,True,1,False,1000,True,1.0
./expes/v2_2020-12-02_dh_150-prng-1,30_issda_150,150,rng-150,131,rng,num-start-10001,10001,25726,124.16714262962341,True,,True,1,False,1000,True,1.0
./expes/v2_2020-12-02_dh_150-prng-1,30_issda_150,150,rng-150,1,rng,num-start-7001,7001,25726,81.98315906524658,True,,True,1,False,1000,True,1.0
./expes/v2_2020-12-02_dh_150-prng-1,30_issda_150,150,rng-150,111,rng,num-start-3001,3001,25726,42.035911560058594,True,,True,1,False,1000,True,1.0
./expes/v2_2020-12-02_dh_150-prng-1,30_issda_150,150,rng-150,51,rng,num-start-16001,16001,25726,219.23443412780762,True,,True,1,False,1000,True,1.0
./expes/v2_2020-12-02_dh_150-prng-1,30_issda_150,150,rng-150,91,rng,num-start-13001,13001,25726,200.21362805366516,True,,True,1,False,1000,True,1.0
./expes/v2_2020-12-02_dh_150-prng-1,30_issda_150,150,rng-150,91,rng,num-start-15001,15001,25726,203.8453347682953,True,,True,1,False,1000,True,1.0
./expes/v2_2020-12-02_dh_150-prng-1,30_issda_150,150,rng-150,101,rng,num-start-11001,11001,25726,166.52075934410095,True,,True,1,False,1000,True,1.0
./expes/v2_2020-12-02_dh_150-prng-1,30_issda_150,150,rng-150,41,rng,num-start-10001,10001,25726,128.63920331001282,True,,True,1,False,1000,True,1.0
./expes/v2_2020-12-02_dh_150-prng-1,30_issda_150,150,rng-150,91,rng,num-start-2001,2001,25726,26.461503744125366,True,,True,1,False,1000,True,1.0
./expes/v2_2020-12-02_dh_150-prng-1,30_issda_150,150,rng-150,131,rng,num-start-11001,11001,25726,138.89617395401,True,,True,1,False,1000,True,1.0
./expes/v2_2020-12-02_dh_150-prng-1,30_issda_150,150,rng-150,131,rng,num-start-4001,4001,25726,49.142863512039185,True,,True,1,False,1000,True,1.0
./expes/v2_2020-12-02_dh_150-prng-1,30_issda_150,150,rng-150,51,rng,num-start-7001,7001,25726,103.57501697540283,True,,True,1,False,1000,True,1.0
./expes/v2_2020-12-02_dh_150-prng-1,30_issda_150,150,rng-150,81,rng,num-start-9001,9001,25726,140.93892884254456,True,,True,1,False,1000,True,1.0
./expes/v2_2020-12-02_dh_150-prng-1,30_issda_150,150,rng-150,101,rng,num-start-4001,4001,25726,50.63327741622925,True,,True,1,False,1000,True,1.0
./expes/v2_2020-12-02_dh_150-prng-1,30_issda_150,150,rng-150,1,rng,num-start-2001,2001,25726,22.34748387336731,True,,True,1,False,1000,True,1.0
./expes/v2_2020-12-02_dh_150-prng-1,30_issda_150,150,rng-150,91,rng,num-start-3001,3001,25726,40.473353147506714,True,,True,1,False,1000,True,1.0
./expes/v2_2020-12-02_dh_150-prng-1,30_issda_150,150,rng-150,61,rng,num-start-13001,13001,25726,229.2310996055603,True,,True,1,False,1000,True,1.0
./expes/v2_2020-12-02_dh_150-prng-1,30_issda_150,150,rng-150,81,rng,num-start-13001,13001,25726,187.29349565505981,True,,True,1,False,1000,True,1.0
./expes/v2_2020-12-02_dh_150-prng-1,30_issda_150,150,rng-150,11,rng,num-start-5001,5001,25726,56.79074835777283,True,,True,1,False,1000,True,1.0
./expes/v2_2020-12-02_dh_150-prng-1,30_issda_150,150,rng-150,1,rng,num-start-6001,6001,25726,65.71426630020142,True,,True,1,False,1000,True,1.0
./expes/v2_2020-12-02_dh_150-prng-1,30_issda_150,150,rng-150,141,rng,num-start-5001,5001,25726,59.750166177749634,True,,True,1,False,1000,True,1.0
./expes/v2_2020-12-02_dh_150-prng-1,30_issda_150,150,rng-150,101,rng,num-start-13001,13001,25726,178.67222785949707,True,,True,1,False,1000,True,1.0
./expes/v2_2020-12-02_dh_150-prng-1,30_issda_150,150,rng-150,91,rng,num-start-1,1,25726,0.03316020965576172,False,,False,2,False,1000,True,1.0
./expes/v2_2020-12-02_dh_150-prng-1,30_issda_150,150,rng-150,1,rng,num-start-11001,11001,25726,122.19070768356323,True,,True,1,False,1000,True,1.0
./expes/v2_2020-12-02_dh_150-prng-1,30_issda_150,150,rng-150,1,rng,num-start-3001,3001,25726,32.74471879005432,True,,True,1,False,1000,True,1.0
./expes/v2_2020-12-02_dh_150-prng-1,30_issda_150,150,rng-150,21,rng,num-start-4001,4001,25726,57.51771783828735,True,,True,1,False,1000,True,1.0
./expes/v2_2020-12-02_dh_150-prng-1,30_issda_150,150,rng-150,1,rng,num-start-14001,14001,25726,162.8931474685669,True,,True,1,False,1000,True,1.0
./expes/v2_2020-12-02_dh_150-prng-1,30_issda_150,150,rng-150,131,rng,num-start-5001,5001,25726,62.66042137145996,True,,True,1,False,1000,True,1.0
./expes/v2_2020-12-02_dh_150-prng-1,30_issda_150,150,rng-150,141,rng,num-start-4001,4001,25726,43.97486162185669,True,,True,1,False,1000,True,1.0
./expes/v2_2020-12-02_dh_150-prng-1,30_issda_150,150,rng-150,31,rng,num-start-10001,10001,25726,146.69210195541382,True,,True,1,False,1000,True,1.0
./expes/v2_2020-12-02_dh_150-prng-1,30_issda_150,150,rng-150,121,rng,num-start-1001,1001,25726,15.205313444137573,True,,True,1,False,1000,True,1.0
./expes/v2_2020-12-02_dh_150-prng-1,30_issda_150,150,rng-150,51,rng,num-start-14001,14001,25726,228.34194707870483,True,,True,1,False,1000,True,1.0
./expes/v2_2020-12-02_dh_150-prng-1,30_issda_150,150,rng-150,11,rng,num-start-13001,13001,25726,154.84102272987366,True,,True,1,False,1000,True,1.0
./expes/v2_2020-12-02_dh_150-prng-1,30_issda_150,150,rng-150,81,rng,num-start-1001,1001,25726,12.597048997879028,True,,True,1,False,1000,True,1.0
./expes/v2_2020-12-02_dh_150-prng-1,30_issda_150,150,rng-150,11,rng,num-start-1001,1001,25726,16.1799213886261,True,,True,1,False,1000,True,1.0
./expes/v2_2020-12-02_dh_150-prng-1,30_issda_150,150,rng-150,81,rng,num-start-14001,14001,25726,177.4642550945282,True,,True,1,False,1000,True,1.0
./expes/v2_2020-12-02_dh_150-prng-1,30_issda_150,150,rng-150,1,rng,num-start-7001,7001,25726,75.86117768287659,True,,True,1,False,1000,True,1.0
./expes/v2_2020-12-02_dh_150-prng-1,30_issda_150,150,rng-150,71,rng,num-start-6001,6001,25726,88.3704571723938,True,,True,1,False,1000,True,1.0
./expes/v2_2020-12-02_dh_150-prng-1,30_issda_150,150,rng-150,111,rng,num-start-4001,4001,25726,60.244832038879395,True,,True,1,False,1000,True,1.0
./expes/v2_2020-12-02_dh_150-prng-1,30_issda_150,150,rng-150,31,rng,num-start-10001,10001,25726,124.4804208278656,True,,True,1,False,1000,True,1.0
./expes/v2_2020-12-02_dh_150-prng-1,30_issda_150,150,rng-150,91,rng,num-start-1001,1001,25726,13.015140295028687,True,,True,1,False,1000,True,1.0
./expes/v2_2020-12-02_dh_150-prng-1,30_issda_150,150,rng-150,81,rng,num-start-12001,12001,25726,192.83355903625488,True,,True,1,False,1000,True,1.0
./expes/v2_2020-12-02_dh_150-prng-1,30_issda_150,150,rng-150,141,rng,num-start-4001,4001,25726,43.371625900268555,True,,True,1,False,1000,True,1.0
./expes/v2_2020-12-02_dh_150-prng-1,30_issda_150,150,rng-150,121,rng,num-start-5001,5001,25726,68.67888474464417,True,,True,1,False,1000,True,1.0
./expes/v2_2020-12-02_dh_150-prng-1,30_issda_150,150,rng-150,101,rng,num-start-13001,13001,25726,175.85557770729065,True,,True,1,False,1000,True,1.0
./expes/v2_2020-12-02_dh_150-prng-1,30_issda_150,150,rng-150,141,rng,num-start-16001,16001,25726,181.89819049835205,True,,True,1,False,1000,True,1.0
./expes/v2_2020-12-02_dh_150-prng-1,30_issda_150,150,rng-150,11,rng,num-start-3001,3001,25726,34.04324007034302,True,,True,1,False,1000,True,1.0
./expes/v2_2020-12-02_dh_150-prng-1,30_issda_150,150,rng-150,131,rng,num-start-1001,1001,25726,12.29098129272461,True,,True,1,False,1000,True,1.0
./expes/v2_2020-12-02_dh_150-prng-1,30_issda_150,150,rng-150,81,rng,num-start-3001,3001,25726,38.45210337638855,True,,True,1,False,1000,True,1.0
./expes/v2_2020-12-02_dh_150-prng-1,30_issda_150,150,rng-150,51,rng,num-start-13001,13001,25726,206.95809268951416,True,,True,1,False,1000,True,1.0
./expes/v2_2020-12-02_dh_150-prng-1,30_issda_150,150,rng-150,11,rng,num-start-2001,2001,25726,22.513256549835205,True,,True,1,False,1000,True,1.0
./expes/v2_2020-12-02_dh_150-prng-1,30_issda_150,150,rng-150,21,rng,num-start-15001,15001,25726,189.13857984542847,True,,True,1,False,1000,True,1.0
./expes/v2_2020-12-02_dh_150-prng-1,30_issda_150,150,rng-150,111,rng,num-start-1,1,25726,0.06033134460449219,False,,False,2,False,1000,True,1.0
./expes/v2_2020-12-02_dh_150-prng-1,30_issda_150,150,rng-150,61,rng,num-start-7001,7001,25726,86.00248718261719,True,,True,1,False,1000,True,1.0
./expes/v2_2020-12-02_dh_150-prng-1,30_issda_150,150,rng-150,51,rng,num-start-5001,5001,25726,70.11753463745117,True,,True,1,False,1000,True,1.0
./expes/v2_2020-12-02_dh_150-prng-1,30_issda_150,150,rng-150,121,rng,num-start-1,1,25726,0.044678688049316406,False,,False,2,False,1000,True,1.0
./expes/v2_2020-12-02_dh_150-prng-1,30_issda_150,150,rng-150,41,rng,num-start-4001,4001,25726,52.91292333602905,True,,True,1,False,1000,True,1.0
./expes/v2_2020-12-02_dh_150-prng-1,30_issda_150,150,rng-150,1,rng,num-start-1,1,25726,0.019988059997558594,True,,True,1,False,1000,True,1.0
./expes/v2_2020-12-02_dh_150-prng-1,30_issda_150,150,rng-150,111,rng,num-start-16001,16001,25726,200.02665972709656,True,,True,1,False,1000,True,1.0
./expes/v2_2020-12-02_dh_150-prng-1,30_issda_150,150,rng-150,111,rng,num-start-3001,3001,25726,39.5089795589447,True,,True,1,False,1000,True,1.0
./expes/v2_2020-12-02_dh_150-prng-1,30_issda_150,150,rng-150,101,rng,num-start-2001,2001,25726,24.87155556678772,True,,True,1,False,1000,True,1.0
./expes/v2_2020-12-02_dh_150-prng-1,30_issda_150,150,rng-150,21,rng,num-start-7001,7001,25726,99.89644813537598,True,,True,1,False,1000,True,1.0
./expes/v2_2020-12-02_dh_150-prng-1,30_issda_150,150,rng-150,121,rng,num-start-8001,8001,25726,96.90105628967285,True,,True,1,False,1000,True,1.0
./expes/v2_2020-12-02_dh_150-prng-1,30_issda_150,150,rng-150,71,rng,num-start-2001,2001,25726,32.564597368240356,True,,True,1,False,1000,True,1.0
./expes/v2_2020-12-02_dh_150-prng-1,30_issda_150,150,rng-150,31,rng,num-start-15001,15001,25726,195.35672783851624,True,,True,1,False,1000,True,1.0
./expes/v2_2020-12-02_dh_150-prng-1,30_issda_150,150,rng-150,51,rng,num-start-14001,14001,25726,170.05813670158386,True,,True,1,False,1000,True,1.0
./expes/v2_2020-12-02_dh_150-prng-1,30_issda_150,150,rng-150,81,rng,num-start-11001,11001,25726,156.35769033432007,True,,True,1,False,1000,True,1.0
./expes/v2_2020-12-02_dh_150-prng-1,30_issda_150,150,rng-150,131,rng,num-start-15001,15001,25726,187.9017632007599,True,,True,1,False,1000,True,1.0
./expes/v2_2020-12-02_dh_150-prng-1,30_issda_150,150,rng-150,1,rng,num-start-10001,10001,25726,109.37700462341309,True,,True,1,False,1000,True,1.0
./expes/v2_2020-12-02_dh_150-prng-1,30_issda_150,150,rng-150,71,rng,num-start-10001,10001,25726,124.44375896453857,True,,True,1,False,1000,True,1.0
./expes/v2_2020-12-02_dh_150-prng-1,30_issda_150,150,rng-150,81,rng,num-start-12001,12001,25726,167.06269812583923,True,,True,1,False,1000,True,1.0
./expes/v2_2020-12-02_dh_150-prng-1,30_issda_150,150,rng-150,91,rng,num-start-14001,14001,25726,202.60901856422424,True,,True,1,False,1000,True,1.0
./expes/v2_2020-12-02_dh_150-prng-1,30_issda_150,150,rng-150,131,rng,num-start-7001,7001,25726,83.05306267738342,True,,True,1,False,1000,True,1.0
./expes/v2_2020-12-02_dh_150-prng-1,30_issda_150,150,rng-150,51,rng,num-start-14001,14001,25726,190.80802655220032,True,,True,1,False,1000,True,1.0
./expes/v2_2020-12-02_dh_150-prng-1,30_issda_150,150,rng-150,21,rng,num-start-1,1,25726,0.0411684513092041,False,,False,2,False,1000,True,1.0
./expes/v2_2020-12-02_dh_150-prng-1,30_issda_150,150,rng-150,111,rng,num-start-3001,3001,25726,42.92822861671448,True,,True,1,False,1000,True,1.0
./expes/v2_2020-12-02_dh_150-prng-1,30_issda_150,150,rng-150,81,rng,num-start-4001,4001,25726,49.17984342575073,True,,True,1,False,1000,True,1.0
./expes/v2_2020-12-02_dh_150-prng-1,30_issda_150,150,rng-150,121,rng,num-start-14001,14001,25726,194.5581259727478,True,,True,1,False,1000,True,1.0
./expes/v2_2020-12-02_dh_150-prng-1,30_issda_150,150,rng-150,81,rng,num-start-1001,1001,25726,12.53279709815979,True,,True,1,False,1000,True,1.0
./expes/v2_2020-12-02_dh_150-prng-1,30_issda_150,150,rng-150,81,rng,num-start-1,1,25726,0.0360260009765625,False,,False,2,False,1000,True,1.0
./expes/v2_2020-12-02_dh_150-prng-1,30_issda_150,150,rng-150,61,rng,num-start-16001,16001,25726,215.42541432380676,True,,True,1,False,1000,True,1.0
./expes/v2_2020-12-02_dh_150-prng-1,30_issda_150,150,rng-150,121,rng,num-start-2001,2001,25726,26.952494144439697,True,,True,1,False,1000,True,1.0
./expes/v2_2020-12-02_dh_150-prng-1,30_issda_150,150,rng-150,141,rng,num-start-13001,13001,25726,146.82426762580872,True,,True,1,False,1000,True,1.0
./expes/v2_2020-12-02_dh_150-prng-1,30_issda_150,150,rng-150,41,rng,num-start-5001,5001,25726,60.80879855155945,True,,True,1,False,1000,True,1.0
./expes/v2_2020-12-02_dh_150-prng-1,30_issda_150,150,rng-150,121,rng,num-start-14001,14001,25726,173.46649813652039,True,,True,1,False,1000,True,1.0
./expes/v2_2020-12-02_dh_150-prng-1,30_issda_150,150,rng-150,101,rng,num-start-2001,2001,25726,24.44952940940857,True,,True,1,False,1000,True,1.0
./expes/v2_2020-12-02_dh_150-prng-1,30_issda_150,150,rng-150,1,rng,num-start-4001,4001,25726,43.26873278617859,True,,True,1,False,1000,True,1.0
./expes/v2_2020-12-02_dh_150-prng-1,30_issda_150,150,rng-150,141,rng,num-start-3001,3001,25726,33.218217849731445,True,,True,1,False,1000,True,1.0
./expes/v2_2020-12-02_dh_150-prng-1,30_issda_150,150,rng-150,21,rng,num-start-15001,15001,25726,219.564124584198,True,,True,1,False,1000,True,1.0
./expes/v2_2020-12-02_dh_150-prng-1,30_issda_150,150,rng-150,1,rng,num-start-12001,12001,25726,138.83452200889587,True,,True,1,False,1000,True,1.0
./expes/v2_2020-12-02_dh_150-prng-1,30_issda_150,150,rng-150,131,rng,num-start-4001,4001,25726,57.89313244819641,True,,True,1,False,1000,True,1.0
./expes/v2_2020-12-02_dh_150-prng-1,30_issda_150,150,rng-150,121,rng,num-start-6001,6001,25726,74.06020522117615,True,,True,1,False,1000,True,1.0
./expes/v2_2020-12-02_dh_150-prng-1,30_issda_150,150,rng-150,111,rng,num-start-15001,15001,25726,193.59883546829224,True,,True,1,False,1000,True,1.0
./expes/v2_2020-12-02_dh_150-prng-1,30_issda_150,150,rng-150,141,rng,num-start-7001,7001,25726,77.64579319953918,True,,True,1,False,1000,True,1.0
./expes/v2_2020-12-02_dh_150-prng-1,30_issda_150,150,rng-150,71,rng,num-start-12001,12001,25726,186.01006817817688,True,,True,1,False,1000,True,1.0
./expes/v2_2020-12-02_dh_150-prng-1,30_issda_150,150,rng-150,91,rng,num-start-16001,16001,25726,240.92857146263123,True,,True,1,False,1000,True,1.0
./expes/v2_2020-12-02_dh_150-prng-1,30_issda_150,150,rng-150,41,rng,num-start-10001,10001,25726,142.97320938110352,True,,True,1,False,1000,True,1.0
./expes/v2_2020-12-02_dh_150-prng-1,30_issda_150,150,rng-150,131,rng,num-start-3001,3001,25726,37.13302731513977,True,,True,1,False,1000,True,1.0
./expes/v2_2020-12-02_dh_150-prng-1,30_issda_150,150,rng-150,21,rng,num-start-10001,10001,25726,121.88772130012512,True,,True,1,False,1000,True,1.0
./expes/v2_2020-12-02_dh_150-prng-1,30_issda_150,150,rng-150,21,rng,num-start-12001,12001,25726,143.13017463684082,True,,True,1,False,1000,True,1.0
./expes/v2_2020-12-02_dh_150-prng-1,30_issda_150,150,rng-150,21,rng,num-start-1,1,25726,0.05359077453613281,False,,False,2,False,1000,True,1.0
./expes/v2_2020-12-02_dh_150-prng-1,30_issda_150,150,rng-150,131,rng,num-start-1,1,25726,0.17125868797302246,False,,False,2,False,1000,True,1.0
./expes/v2_2020-12-02_dh_150-prng-1,30_issda_150,150,rng-150,1,rng,num-start-14001,14001,25726,153.72597646713257,True,,True,1,False,1000,True,1.0
./expes/v2_2020-12-02_dh_150-prng-1,30_issda_150,150,rng-150,11,rng,num-start-9001,9001,25726,98.16226768493652,True,,True,1,False,1000,True,1.0
./expes/v2_2020-12-02_dh_150-prng-1,30_issda_150,150,rng-150,61,rng,num-start-4001,4001,25726,52.56608438491821,True,,True,1,False,1000,True,1.0
./expes/v2_2020-12-02_dh_150-prng-1,30_issda_150,150,rng-150,31,rng,num-start-13001,13001,25726,160.12326645851135,True,,True,1,False,1000,True,1.0
./expes/v2_2020-12-02_dh_150-prng-1,30_issda_150,150,rng-150,1,rng,num-start-12001,12001,25726,132.28612089157104,True,,True,1,False,1000,True,1.0
./expes/v2_2020-12-02_dh_150-prng-1,30_issda_150,150,rng-150,131,rng,num-start-12001,12001,25726,138.03260731697083,True,,True,1,False,1000,True,1.0
./expes/v2_2020-12-02_dh_150-prng-1,30_issda_150,150,rng-150,91,rng,num-start-1,1,25726,0.05010271072387695,False,,False,2,False,1000,True,1.0
./expes/v2_2020-12-02_dh_150-prng-1,30_issda_150,150,rng-150,51,rng,num-start-5001,5001,25726,69.15111184120178,True,,True,1,False,1000,True,1.0
./expes/v2_2020-12-02_dh_150-prng-1,30_issda_150,150,rng-150,1,rng,num-start-14001,14001,25726,152.2149784564972,True,,True,1,False,1000,True,1.0
./expes/v2_2020-12-02_dh_150-prng-1,30_issda_150,150,rng-150,41,rng,num-start-7001,7001,25726,83.46601343154907,True,,True,1,False,1000,True,1.0
./expes/v2_2020-12-02_dh_150-prng-1,30_issda_150,150,rng-150,51,rng,num-start-1,1,25726,0.07247614860534668,False,,False,2,False,1000,True,1.0
./expes/v2_2020-12-02_dh_150-prng-1,30_issda_150,150,rng-150,101,rng,num-start-1,1,25726,0.1090402603149414,False,,False,2,False,1000,True,1.0
./expes/v2_2020-12-02_dh_150-prng-1,30_issda_150,150,rng-150,31,rng,num-start-8001,8001,25726,103.99329781532288,True,,True,1,False,1000,True,1.0
./expes/v2_2020-12-02_dh_150-prng-1,30_issda_150,150,rng-150,61,rng,num-start-3001,3001,25726,37.93022394180298,True,,True,1,False,1000,True,1.0
./expes/v2_2020-12-02_dh_150-prng-1,30_issda_150,150,rng-150,61,rng,num-start-1001,1001,25726,12.327749729156494,True,,True,1,False,1000,True,1.0
./expes/v2_2020-12-02_dh_150-prng-1,30_issda_150,150,rng-150,81,rng,num-start-3001,3001,25726,40.04704141616821,True,,True,1,False,1000,True,1.0
./expes/v2_2020-12-02_dh_150-prng-1,30_issda_150,150,rng-150,111,rng,num-start-2001,2001,25726,24.863428354263306,True,,True,1,False,1000,True,1.0
./expes/v2_2020-12-02_dh_150-prng-1,30_issda_150,150,rng-150,61,rng,num-start-15001,15001,25726,235.5839307308197,True,,True,1,False,1000,True,1.0
./expes/v2_2020-12-02_dh_150-prng-1,30_issda_150,150,rng-150,131,rng,num-start-3001,3001,25726,39.83431839942932,True,,True,1,False,1000,True,1.0
./expes/v2_2020-12-02_dh_150-prng-1,30_issda_150,150,rng-150,51,rng,num-start-9001,9001,25726,135.6504430770874,True,,True,1,False,1000,True,1.0
./expes/v2_2020-12-02_dh_150-prng-1,30_issda_150,150,rng-150,111,rng,num-start-10001,10001,25726,134.76845955848694,True,,True,1,False,1000,True,1.0
./expes/v2_2020-12-02_dh_150-prng-1,30_issda_150,150,rng-150,111,rng,num-start-16001,16001,25726,211.74101185798645,True,,True,1,False,1000,True,1.0
./expes/v2_2020-12-02_dh_150-prng-1,30_issda_150,150,rng-150,91,rng,num-start-11001,11001,25726,139.85000109672546,True,,True,1,False,1000,True,1.0
./expes/v2_2020-12-02_dh_150-prng-1,30_issda_150,150,rng-150,121,rng,num-start-1001,1001,25726,12.737629652023315,True,,True,1,False,1000,True,1.0
./expes/v2_2020-12-02_dh_150-prng-1,30_issda_150,150,rng-150,21,rng,num-start-6001,6001,25726,71.13519978523254,True,,True,1,False,1000,True,1.0
./expes/v2_2020-12-02_dh_150-prng-1,30_issda_150,150,rng-150,121,rng,num-start-6001,6001,25726,76.93129777908325,True,,True,1,False,1000,True,1.0
./expes/v2_2020-12-02_dh_150-prng-1,30_issda_150,150,rng-150,11,rng,num-start-8001,8001,25726,92.36239719390869,True,,True,1,False,1000,True,1.0
./expes/v2_2020-12-02_dh_150-prng-1,30_issda_150,150,rng-150,91,rng,num-start-2001,2001,25726,25.303237915039062,True,,True,1,False,1000,True,1.0
./expes/v2_2020-12-02_dh_150-prng-1,30_issda_150,150,rng-150,11,rng,num-start-14001,14001,25726,154.143816947937,True,,True,1,False,1000,True,1.0
./expes/v2_2020-12-02_dh_150-prng-1,30_issda_150,150,rng-150,21,rng,num-start-9001,9001,25726,120.34901809692383,True,,True,1,False,1000,True,1.0
./expes/v2_2020-12-02_dh_150-prng-1,30_issda_150,150,rng-150,51,rng,num-start-15001,15001,25726,214.70699763298035,True,,True,1,False,1000,True,1.0
./expes/v2_2020-12-02_dh_150-prng-1,30_issda_150,150,rng-150,31,rng,num-start-5001,5001,25726,79.56400609016418,True,,True,1,False,1000,True,1.0
./expes/v2_2020-12-02_dh_150-prng-1,30_issda_150,150,rng-150,61,rng,num-start-6001,6001,25726,77.85909605026245,True,,True,1,False,1000,True,1.0
./expes/v2_2020-12-02_dh_150-prng-1,30_issda_150,150,rng-150,51,rng,num-start-12001,12001,25726,180.17864680290222,True,,True,1,False,1000,True,1.0
./expes/v2_2020-12-02_dh_150-prng-1,30_issda_150,150,rng-150,61,rng,num-start-8001,8001,25726,113.25777697563171,True,,True,1,False,1000,True,1.0
./expes/v2_2020-12-02_dh_150-prng-1,30_issda_150,150,rng-150,21,rng,num-start-15001,15001,25726,188.7128791809082,True,,True,1,False,1000,True,1.0
./expes/v2_2020-12-02_dh_150-prng-1,30_issda_150,150,rng-150,131,rng,num-start-2001,2001,25726,23.51493191719055,True,,True,1,False,1000,True,1.0
./expes/v2_2020-12-02_dh_150-prng-1,30_issda_150,150,rng-150,131,rng,num-start-12001,12001,25726,136.25092363357544,True,,True,1,False,1000,True,1.0
./expes/v2_2020-12-02_dh_150-prng-1,30_issda_150,150,rng-150,61,rng,num-start-7001,7001,25726,109.76863622665405,True,,True,1,False,1000,True,1.0
./expes/v2_2020-12-02_dh_150-prng-1,30_issda_150,150,rng-150,51,rng,num-start-11001,11001,25726,138.84961915016174,True,,True,1,False,1000,True,1.0
./expes/v2_2020-12-02_dh_150-prng-1,30_issda_150,150,rng-150,91,rng,num-start-12001,12001,25726,145.09079003334045,True,,True,1,False,1000,True,1.0
./expes/v2_2020-12-02_dh_150-prng-1,30_issda_150,150,rng-150,51,rng,num-start-2001,2001,25726,24.77439546585083,True,,True,1,False,1000,True,1.0
./expes/v2_2020-12-02_dh_150-prng-1,30_issda_150,150,rng-150,41,rng,num-start-5001,5001,25726,64.11570835113525,True,,True,1,False,1000,True,1.0
./expes/v2_2020-12-02_dh_150-prng-1,30_issda_150,150,rng-150,51,rng,num-start-2001,2001,25726,30.279104232788086,True,,True,1,False,1000,True,1.0
./expes/v2_2020-12-02_dh_150-prng-1,30_issda_150,150,rng-150,101,rng,num-start-10001,10001,25726,148.44629049301147,True,,True,1,False,1000,True,1.0
./expes/v2_2020-12-02_dh_150-prng-1,30_issda_150,150,rng-150,131,rng,num-start-9001,9001,25726,104.74747848510742,True,,True,1,False,1000,True,1.0
./expes/v2_2020-12-02_dh_150-prng-1,30_issda_150,150,rng-150,91,rng,num-start-5001,5001,25726,64.53147745132446,True,,True,1,False,1000,True,1.0
./expes/v2_2020-12-02_dh_150-prng-1,30_issda_150,150,rng-150,1,rng,num-start-15001,15001,25726,164.44425225257874,True,,True,1,False,1000,True,1.0
./expes/v2_2020-12-02_dh_150-prng-1,30_issda_150,150,rng-150,21,rng,num-start-8001,8001,25726,104.85199522972107,True,,True,1,False,1000,True,1.0
./expes/v2_2020-12-02_dh_150-prng-1,30_issda_150,150,rng-150,51,rng,num-start-16001,16001,25726,201.9785988330841,True,,True,1,False,1000,True,1.0
./expes/v2_2020-12-02_dh_150-prng-1,30_issda_150,150,rng-150,81,rng,num-start-6001,6001,25726,73.10582709312439,True,,True,1,False,1000,True,1.0
./expes/v2_2020-12-02_dh_150-prng-1,30_issda_150,150,rng-150,121,rng,num-start-4001,4001,25726,56.248815059661865,True,,True,1,False,1000,True,1.0
./expes/v2_2020-12-02_dh_150-prng-1,30_issda_150,150,rng-150,21,rng,num-start-14001,14001,25726,180.76801657676697,True,,True,1,False,1000,True,1.0
./expes/v2_2020-12-02_dh_150-prng-1,30_issda_150,150,rng-150,71,rng,num-start-15001,15001,25726,232.38377118110657,True,,True,1,False,1000,True,1.0
./expes/v2_2020-12-02_dh_150-prng-1,30_issda_150,150,rng-150,141,rng,num-start-1,1,25726,0.04204154014587402,False,,False,2,False,1000,True,1.0
./expes/v2_2020-12-02_dh_150-prng-1,30_issda_150,150,rng-150,51,rng,num-start-14001,14001,25726,180.32323837280273,True,,True,1,False,1000,True,1.0
./expes/v2_2020-12-02_dh_150-prng-1,30_issda_150,150,rng-150,51,rng,num-start-5001,5001,25726,76.3669376373291,True,,True,1,False,1000,True,1.0
./expes/v2_2020-12-02_dh_150-prng-1,30_issda_150,150,rng-150,121,rng,num-start-4001,4001,25726,47.39936065673828,True,,True,1,False,1000,True,1.0
./expes/v2_2020-12-02_dh_150-prng-1,30_issda_150,150,rng-150,71,rng,num-start-1,1,25726,0.0763552188873291,False,,False,2,False,1000,True,1.0
./expes/v2_2020-12-02_dh_150-prng-1,30_issda_150,150,rng-150,21,rng,num-start-8001,8001,25726,111.22540664672852,True,,True,1,False,1000,True,1.0
./expes/v2_2020-12-02_dh_150-prng-1,30_issda_150,150,rng-150,71,rng,num-start-5001,5001,25726,70.55172514915466,True,,True,1,False,1000,True,1.0
./expes/v2_2020-12-02_dh_150-prng-1,30_issda_150,150,rng-150,1,rng,num-start-14001,14001,25726,152.4769139289856,True,,True,1,False,1000,True,1.0
./expes/v2_2020-12-02_dh_150-prng-1,30_issda_150,150,rng-150,1,rng,num-start-5001,5001,25726,54.5440878868103,True,,True,1,False,1000,True,1.0
./expes/v2_2020-12-02_dh_150-prng-1,30_issda_150,150,rng-150,91,rng,num-start-14001,14001,25726,178.64140701293945,True,,True,1,False,1000,True,1.0
./expes/v2_2020-12-02_dh_150-prng-1,30_issda_150,150,rng-150,31,rng,num-start-10001,10001,25726,125.35569858551025,True,,True,1,False,1000,True,1.0
./expes/v2_2020-12-02_dh_150-prng-1,30_issda_150,150,rng-150,21,rng,num-start-3001,3001,25726,38.1824996471405,True,,True,1,False,1000,True,1.0
./expes/v2_2020-12-02_dh_150-prng-1,30_issda_150,150,rng-150,61,rng,num-start-12001,12001,25726,199.03381872177124,True,,True,1,False,1000,True,1.0
./expes/v2_2020-12-02_dh_150-prng-1,30_issda_150,150,rng-150,51,rng,num-start-1001,1001,25726,13.203580617904663,True,,True,1,False,1000,True,1.0
./expes/v2_2020-12-02_dh_150-prng-1,30_issda_150,150,rng-150,91,rng,num-start-9001,9001,25726,111.20751762390137,True,,True,1,False,1000,True,1.0
./expes/v2_2020-12-02_dh_150-prng-1,30_issda_150,150,rng-150,51,rng,num-start-5001,5001,25726,63.34180235862732,True,,True,1,False,1000,True,1.0
./expes/v2_2020-12-02_dh_150-prng-1,30_issda_150,150,rng-150,1,rng,num-start-10001,10001,25726,108.04870748519897,True,,True,1,False,1000,True,1.0
./expes/v2_2020-12-02_dh_150-prng-1,30_issda_150,150,rng-150,81,rng,num-start-8001,8001,25726,114.03247451782227,True,,True,1,False,1000,True,1.0
./expes/v2_2020-12-02_dh_150-prng-1,30_issda_150,150,rng-150,121,rng,num-start-11001,11001,25726,140.72568488121033,True,,True,1,False,1000,True,1.0
./expes/v2_2020-12-02_dh_150-prng-1,30_issda_150,150,rng-150,21,rng,num-start-5001,5001,25726,67.23877501487732,True,,True,1,False,1000,True,1.0
./expes/v2_2020-12-02_dh_150-prng-1,30_issda_150,150,rng-150,91,rng,num-start-5001,5001,25726,77.23512625694275,True,,True,1,False,1000,True,1.0
./expes/v2_2020-12-02_dh_150-prng-1,30_issda_150,150,rng-150,121,rng,num-start-1001,1001,25726,12.3781418800354,True,,True,1,False,1000,True,1.0
./expes/v2_2020-12-02_dh_150-prng-1,30_issda_150,150,rng-150,101,rng,num-start-5001,5001,25726,61.44142770767212,True,,True,1,False,1000,True,1.0
./expes/v2_2020-12-02_dh_150-prng-1,30_issda_150,150,rng-150,111,rng,num-start-4001,4001,25726,56.65575695037842,True,,True,1,False,1000,True,1.0
./expes/v2_2020-12-02_dh_150-prng-1,30_issda_150,150,rng-150,61,rng,num-start-4001,4001,25726,52.49238920211792,True,,True,1,False,1000,True,1.0
./expes/v2_2020-12-02_dh_150-prng-1,30_issda_150,150,rng-150,11,rng,num-start-14001,14001,25726,168.95283889770508,True,,True,1,False,1000,True,1.0
./expes/v2_2020-12-02_dh_150-prng-1,30_issda_150,150,rng-150,21,rng,num-start-6001,6001,25726,77.67224907875061,True,,True,1,False,1000,True,1.0
./expes/v2_2020-12-02_dh_150-prng-1,30_issda_150,150,rng-150,61,rng,num-start-7001,7001,25726,93.29360580444336,True,,True,1,False,1000,True,1.0
./expes/v2_2020-12-02_dh_150-prng-1,30_issda_150,150,rng-150,11,rng,num-start-12001,12001,25726,131.51336216926575,True,,True,1,False,1000,True,1.0
./expes/v2_2020-12-02_dh_150-prng-1,30_issda_150,150,rng-150,51,rng,num-start-5001,5001,25726,64.98326253890991,True,,True,1,False,1000,True,1.0
./expes/v2_2020-12-02_dh_150-prng-1,30_issda_150,150,rng-150,91,rng,num-start-13001,13001,25726,196.24297857284546,True,,True,1,False,1000,True,1.0
./expes/v2_2020-12-02_dh_150-prng-1,30_issda_150,150,rng-150,51,rng,num-start-8001,8001,25726,118.16228604316711,True,,True,1,False,1000,True,1.0
./expes/v2_2020-12-02_dh_150-prng-1,30_issda_150,150,rng-150,51,rng,num-start-3001,3001,25726,40.389230728149414,True,,True,1,False,1000,True,1.0
./expes/v2_2020-12-02_dh_150-prng-1,30_issda_150,150,rng-150,91,rng,num-start-1001,1001,25726,12.351441621780396,True,,True,1,False,1000,True,1.0
./expes/v2_2020-12-02_dh_150-prng-1,30_issda_150,150,rng-150,111,rng,num-start-11001,11001,25726,152.28499031066895,True,,True,1,False,1000,True,1.0
./expes/v2_2020-12-02_dh_150-prng-1,30_issda_150,150,rng-150,61,rng,num-start-15001,15001,25726,196.0839283466339,True,,True,1,False,1000,True,1.0
./expes/v2_2020-12-02_dh_150-prng-1,30_issda_150,150,rng-150,31,rng,num-start-5001,5001,25726,67.92138051986694,True,,True,1,False,1000,True,1.0
./expes/v2_2020-12-02_dh_150-prng-1,30_issda_150,150,rng-150,141,rng,num-start-6001,6001,25726,62.613445520401,True,,True,1,False,1000,True,1.0
./expes/v2_2020-12-02_dh_150-prng-1,30_issda_150,150,rng-150,131,rng,num-start-8001,8001,25726,96.50263023376465,True,,True,1,False,1000,True,1.0
./expes/v2_2020-12-02_dh_150-prng-1,30_issda_150,150,rng-150,131,rng,num-start-15001,15001,25726,197.83041143417358,True,,True,1,False,1000,True,1.0
./expes/v2_2020-12-02_dh_150-prng-1,30_issda_150,150,rng-150,61,rng,num-start-1001,1001,25726,12.448913335800171,True,,True,1,False,1000,True,1.0
./expes/v2_2020-12-02_dh_150-prng-1,30_issda_150,150,rng-150,61,rng,num-start-10001,10001,25726,124.79272222518921,True,,True,1,False,1000,True,1.0
./expes/v2_2020-12-02_dh_150-prng-1,30_issda_150,150,rng-150,31,rng,num-start-16001,16001,25726,238.47084760665894,True,,True,1,False,1000,True,1.0
./expes/v2_2020-12-02_dh_150-prng-1,30_issda_150,150,rng-150,101,rng,num-start-1001,1001,25726,12.113015413284302,True,,True,1,False,1000,True,1.0
./expes/v2_2020-12-02_dh_150-prng-1,30_issda_150,150,rng-150,111,rng,num-start-3001,3001,25726,38.913381576538086,True,,True,1,False,1000,True,1.0
./expes/v2_2020-12-02_dh_150-prng-1,30_issda_150,150,rng-150,61,rng,num-start-3001,3001,25726,40.45888113975525,True,,True,1,False,1000,True,1.0
./expes/v2_2020-12-02_dh_150-prng-1,30_issda_150,150,rng-150,111,rng,num-start-16001,16001,25726,201.43447065353394,True,,True,1,False,1000,True,1.0
./expes/v2_2020-12-02_dh_150-prng-1,30_issda_150,150,rng-150,31,rng,num-start-9001,9001,25726,109.32690763473511,True,,True,1,False,1000,True,1.0
./expes/v2_2020-12-02_dh_150-prng-1,30_issda_150,150,rng-150,21,rng,num-start-13001,13001,25726,179.22199320793152,True,,True,1,False,1000,True,1.0
./expes/v2_2020-12-02_dh_150-prng-1,30_issda_150,150,rng-150,121,rng,num-start-10001,10001,25726,152.42042136192322,True,,True,1,False,1000,True,1.0
./expes/v2_2020-12-02_dh_150-prng-1,30_issda_150,150,rng-150,1,rng,num-start-7001,7001,25726,76.94317555427551,True,,True,1,False,1000,True,1.0
./expes/v2_2020-12-02_dh_150-prng-1,30_issda_150,150,rng-150,81,rng,num-start-14001,14001,25726,193.9675703048706,True,,True,1,False,1000,True,1.0
./expes/v2_2020-12-02_dh_150-prng-1,30_issda_150,150,rng-150,111,rng,num-start-5001,5001,25726,66.04104447364807,True,,True,1,False,1000,True,1.0
./expes/v2_2020-12-02_dh_150-prng-1,30_issda_150,150,rng-150,81,rng,num-start-7001,7001,25726,109.90270948410034,True,,True,1,False,1000,True,1.0
./expes/v2_2020-12-02_dh_150-prng-1,30_issda_150,150,rng-150,41,rng,num-start-1,1,25726,0.09084200859069824,False,,False,2,False,1000,True,1.0
./expes/v2_2020-12-02_dh_150-prng-1,30_issda_150,150,rng-150,41,rng,num-start-4001,4001,25726,51.37860369682312,True,,True,1,False,1000,True,1.0
./expes/v2_2020-12-02_dh_150-prng-1,30_issda_150,150,rng-150,11,rng,num-start-5001,5001,25726,56.514620780944824,True,,True,1,False,1000,True,1.0
./expes/v2_2020-12-02_dh_150-prng-1,30_issda_150,150,rng-150,121,rng,num-start-10001,10001,25726,124.68927764892578,True,,True,1,False,1000,True,1.0
./expes/v2_2020-12-02_dh_150-prng-1,30_issda_150,150,rng-150,111,rng,num-start-13001,13001,25726,163.89593958854675,True,,True,1,False,1000,True,1.0
./expes/v2_2020-12-02_dh_150-prng-1,30_issda_150,150,rng-150,121,rng,num-start-7001,7001,25726,81.2104914188385,True,,True,1,False,1000,True,1.0
./expes/v2_2020-12-02_dh_150-prng-1,30_issda_150,150,rng-150,51,rng,num-start-1,1,25726,0.03588128089904785,False,,False,2,False,1000,True,1.0
./expes/v2_2020-12-02_dh_150-prng-1,30_issda_150,150,rng-150,91,rng,num-start-7001,7001,25726,94.10599613189697,True,,True,1,False,1000,True,1.0
./expes/v2_2020-12-02_dh_150-prng-1,30_issda_150,150,rng-150,81,rng,num-start-13001,13001,25726,173.62614607810974,True,,True,1,False,1000,True,1.0
./expes/v2_2020-12-02_dh_150-prng-1,30_issda_150,150,rng-150,121,rng,num-start-15001,15001,25726,224.48471236228943,True,,True,1,False,1000,True,1.0
./expes/v2_2020-12-02_dh_150-prng-1,30_issda_150,150,rng-150,81,rng,num-start-12001,12001,25726,157.87941193580627,True,,True,1,False,1000,True,1.0
