expe,clients,clients_size,clients_subset,agg_size,method,days,days_size,days_total,time,valid,valid_sum,success,nsols,wall_hit,wall_time,pooled,valid_sums
./expes/v2_2020-11-29_di_2000-prng-1,daily_issda_2000,2000,rng-2000,801,rng,num-start-231,231,536,1032.5968234539032,False,,False,0,True,1000,True,0.0
./expes/v2_2020-11-29_di_2000-prng-1,daily_issda_2000,2000,rng-2000,1201,rng,num-start-1,1,536,0.3453099727630615,False,,False,2,False,1000,True,1.0
./expes/v2_2020-11-29_di_2000-prng-1,daily_issda_2000,2000,rng-2000,1401,rng,num-start-71,71,536,1008.85489153862,False,,False,0,True,1000,True,0.0
./expes/v2_2020-11-29_di_2000-prng-1,daily_issda_2000,2000,rng-2000,1001,rng,num-start-111,111,536,1014.0592243671417,False,,False,0,True,1000,True,0.0
./expes/v2_2020-11-29_di_2000-prng-1,daily_issda_2000,2000,rng-2000,801,rng,num-start-201,201,536,1026.1100852489471,False,,False,0,True,1000,True,0.0
./expes/v2_2020-11-29_di_2000-prng-1,daily_issda_2000,2000,rng-2000,401,rng,num-start-271,271,536,1034.8583314418793,False,,False,0,True,1000,True,0.0
./expes/v2_2020-11-29_di_2000-prng-1,daily_issda_2000,2000,rng-2000,401,rng,num-start-291,291,536,1036.354910850525,False,,False,0,True,1000,True,0.0
./expes/v2_2020-11-29_di_2000-prng-1,daily_issda_2000,2000,rng-2000,801,rng,num-start-231,231,536,1029.3616683483124,False,,False,0,True,1000,True,0.0
./expes/v2_2020-11-29_di_2000-prng-1,daily_issda_2000,2000,rng-2000,1601,rng,num-start-1,1,536,1.7419536113739014,False,,False,2,False,1000,True,1.0
./expes/v2_2020-11-29_di_2000-prng-1,daily_issda_2000,2000,rng-2000,1801,rng,num-start-121,121,536,1015.5185546875,False,,False,0,True,1000,True,0.0
./expes/v2_2020-11-29_di_2000-prng-1,daily_issda_2000,2000,rng-2000,1201,rng,num-start-201,201,536,1024.8300297260284,False,,False,0,True,1000,True,0.0
./expes/v2_2020-11-29_di_2000-prng-1,daily_issda_2000,2000,rng-2000,601,rng,num-start-171,171,536,1022.0386650562286,False,,False,0,True,1000,True,0.0
./expes/v2_2020-11-29_di_2000-prng-1,daily_issda_2000,2000,rng-2000,1601,rng,num-start-221,221,536,1028.6057357788086,False,,False,0,True,1000,True,0.0
./expes/v2_2020-11-29_di_2000-prng-1,daily_issda_2000,2000,rng-2000,801,rng,num-start-181,181,536,1021.9293985366821,False,,False,0,True,1000,True,0.0
./expes/v2_2020-11-29_di_2000-prng-1,daily_issda_2000,2000,rng-2000,1201,rng,num-start-231,231,536,1028.833666563034,False,,False,0,True,1000,True,0.0
./expes/v2_2020-11-29_di_2000-prng-1,daily_issda_2000,2000,rng-2000,601,rng,num-start-91,91,536,1011.397444486618,False,,False,0,True,1000,True,0.0
./expes/v2_2020-11-29_di_2000-prng-1,daily_issda_2000,2000,rng-2000,601,rng,num-start-281,281,536,1034.9899995326996,False,,False,0,True,1000,True,0.0
./expes/v2_2020-11-29_di_2000-prng-1,daily_issda_2000,2000,rng-2000,401,rng,num-start-61,61,536,1007.2633299827576,False,,False,0,True,1000,True,0.0
./expes/v2_2020-11-29_di_2000-prng-1,daily_issda_2000,2000,rng-2000,1001,rng,num-start-71,71,536,1008.8652017116547,False,,False,0,True,1000,True,0.0
./expes/v2_2020-11-29_di_2000-prng-1,daily_issda_2000,2000,rng-2000,1,rng,num-start-211,211,536,27.103299856185913,True,,True,1,False,1000,True,1.0
./expes/v2_2020-11-29_di_2000-prng-1,daily_issda_2000,2000,rng-2000,1401,rng,num-start-121,121,536,1015.1549742221832,False,,False,0,True,1000,True,0.0
./expes/v2_2020-11-29_di_2000-prng-1,daily_issda_2000,2000,rng-2000,1401,rng,num-start-31,31,536,1003.9845180511475,False,,False,0,True,1000,True,0.0
./expes/v2_2020-11-29_di_2000-prng-1,daily_issda_2000,2000,rng-2000,401,rng,num-start-41,41,536,1005.2230496406555,False,,False,0,True,1000,True,0.0
./expes/v2_2020-11-29_di_2000-prng-1,daily_issda_2000,2000,rng-2000,1601,rng,num-start-61,61,536,1007.5859808921814,False,,False,0,True,1000,True,0.0
./expes/v2_2020-11-29_di_2000-prng-1,daily_issda_2000,2000,rng-2000,1001,rng,num-start-131,131,536,1017.0327022075653,False,,False,0,True,1000,True,0.0
./expes/v2_2020-11-29_di_2000-prng-1,daily_issda_2000,2000,rng-2000,1601,rng,num-start-211,211,536,1026.3778567314148,False,,False,0,True,1000,True,0.0
./expes/v2_2020-11-29_di_2000-prng-1,daily_issda_2000,2000,rng-2000,1001,rng,num-start-171,171,536,1021.924412727356,False,,False,0,True,1000,True,0.0
./expes/v2_2020-11-29_di_2000-prng-1,daily_issda_2000,2000,rng-2000,1201,rng,num-start-81,81,536,1009.9140088558197,False,,False,0,True,1000,True,0.0
./expes/v2_2020-11-29_di_2000-prng-1,daily_issda_2000,2000,rng-2000,201,rng,num-start-221,221,536,1028.5711522102356,False,,False,0,True,1000,True,0.0
./expes/v2_2020-11-29_di_2000-prng-1,daily_issda_2000,2000,rng-2000,1001,rng,num-start-271,271,536,1032.894018650055,False,,False,0,True,1000,True,0.0
./expes/v2_2020-11-29_di_2000-prng-1,daily_issda_2000,2000,rng-2000,1801,rng,num-start-241,241,536,1031.0460848808289,False,,False,0,True,1000,True,0.0
./expes/v2_2020-11-29_di_2000-prng-1,daily_issda_2000,2000,rng-2000,1601,rng,num-start-221,221,536,1028.1442494392395,False,,False,0,True,1000,True,0.0
./expes/v2_2020-11-29_di_2000-prng-1,daily_issda_2000,2000,rng-2000,1801,rng,num-start-291,291,536,1036.2192714214325,False,,False,0,True,1000,True,0.0
./expes/v2_2020-11-29_di_2000-prng-1,daily_issda_2000,2000,rng-2000,1801,rng,num-start-231,231,536,1030.502310037613,False,,False,0,True,1000,True,0.0
./expes/v2_2020-11-29_di_2000-prng-1,daily_issda_2000,2000,rng-2000,1601,rng,num-start-241,241,536,1032.6518642902374,False,,False,0,True,1000,True,0.0
./expes/v2_2020-11-29_di_2000-prng-1,daily_issda_2000,2000,rng-2000,401,rng,num-start-101,101,536,1013.4276010990143,False,,False,0,True,1000,True,0.0
./expes/v2_2020-11-29_di_2000-prng-1,daily_issda_2000,2000,rng-2000,1201,rng,num-start-161,161,536,1020.9763875007629,False,,False,0,True,1000,True,0.0
./expes/v2_2020-11-29_di_2000-prng-1,daily_issda_2000,2000,rng-2000,201,rng,num-start-101,101,536,1013.7429528236389,False,,False,0,True,1000,True,0.0
./expes/v2_2020-11-29_di_2000-prng-1,daily_issda_2000,2000,rng-2000,1401,rng,num-start-281,281,536,1037.0037620067596,False,,False,0,True,1000,True,0.0
./expes/v2_2020-11-29_di_2000-prng-1,daily_issda_2000,2000,rng-2000,1401,rng,num-start-181,181,536,1024.7920928001404,False,,False,0,True,1000,True,0.0
./expes/v2_2020-11-29_di_2000-prng-1,daily_issda_2000,2000,rng-2000,201,rng,num-start-241,241,536,1031.6276392936707,False,,False,0,True,1000,True,0.0
./expes/v2_2020-11-29_di_2000-prng-1,daily_issda_2000,2000,rng-2000,401,rng,num-start-91,91,536,1011.6754202842712,False,,False,0,True,1000,True,0.0
./expes/v2_2020-11-29_di_2000-prng-1,daily_issda_2000,2000,rng-2000,1001,rng,num-start-21,21,536,1002.6696820259094,False,,False,0,True,1000,True,0.0
./expes/v2_2020-11-29_di_2000-prng-1,daily_issda_2000,2000,rng-2000,601,rng,num-start-141,141,536,1018.1601893901825,False,,False,0,True,1000,True,0.0
./expes/v2_2020-11-29_di_2000-prng-1,daily_issda_2000,2000,rng-2000,201,rng,num-start-131,131,536,1016.6686027050018,False,,False,0,True,1000,True,0.0
./expes/v2_2020-11-29_di_2000-prng-1,daily_issda_2000,2000,rng-2000,1801,rng,num-start-61,61,536,1007.9306786060333,False,,False,0,True,1000,True,0.0
./expes/v2_2020-11-29_di_2000-prng-1,daily_issda_2000,2000,rng-2000,401,rng,num-start-61,61,536,1007.8701093196869,False,,False,0,True,1000,True,0.0
./expes/v2_2020-11-29_di_2000-prng-1,daily_issda_2000,2000,rng-2000,801,rng,num-start-1,1,536,12.44987154006958,False,,False,2,False,1000,True,1.0
./expes/v2_2020-11-29_di_2000-prng-1,daily_issda_2000,2000,rng-2000,1601,rng,num-start-51,51,536,1006.6037991046906,False,,False,0,True,1000,True,0.0
./expes/v2_2020-11-29_di_2000-prng-1,daily_issda_2000,2000,rng-2000,1801,rng,num-start-151,151,536,1018.7404780387878,False,,False,0,True,1000,True,0.0
./expes/v2_2020-11-29_di_2000-prng-1,daily_issda_2000,2000,rng-2000,1201,rng,num-start-281,281,536,1035.5518698692322,False,,False,0,True,1000,True,0.0
./expes/v2_2020-11-29_di_2000-prng-1,daily_issda_2000,2000,rng-2000,1,rng,num-start-111,111,536,14.068212509155273,True,,True,1,False,1000,True,1.0
./expes/v2_2020-11-29_di_2000-prng-1,daily_issda_2000,2000,rng-2000,1,rng,num-start-241,241,536,30.941730976104736,True,,True,1,False,1000,True,1.0
./expes/v2_2020-11-29_di_2000-prng-1,daily_issda_2000,2000,rng-2000,1401,rng,num-start-1,1,536,0.7396912574768066,False,,False,2,False,1000,True,1.0
./expes/v2_2020-11-29_di_2000-prng-1,daily_issda_2000,2000,rng-2000,401,rng,num-start-171,171,536,1022.3208854198456,False,,False,0,True,1000,True,0.0
./expes/v2_2020-11-29_di_2000-prng-1,daily_issda_2000,2000,rng-2000,1201,rng,num-start-201,201,536,1025.7873268127441,False,,False,0,True,1000,True,0.0
./expes/v2_2020-11-29_di_2000-prng-1,daily_issda_2000,2000,rng-2000,1601,rng,num-start-31,31,536,1004.2119238376617,False,,False,0,True,1000,True,0.0
./expes/v2_2020-11-29_di_2000-prng-1,daily_issda_2000,2000,rng-2000,201,rng,num-start-31,31,536,1004.218780040741,False,,False,0,True,1000,True,0.0
./expes/v2_2020-11-29_di_2000-prng-1,daily_issda_2000,2000,rng-2000,1801,rng,num-start-71,71,536,1009.5479400157928,False,,False,0,True,1000,True,0.0
./expes/v2_2020-11-29_di_2000-prng-1,daily_issda_2000,2000,rng-2000,1001,rng,num-start-31,31,536,1004.2613818645477,False,,False,0,True,1000,True,0.0
./expes/v2_2020-11-29_di_2000-prng-1,daily_issda_2000,2000,rng-2000,201,rng,num-start-261,261,536,1033.6237540245056,False,,False,0,True,1000,True,0.0
./expes/v2_2020-11-29_di_2000-prng-1,daily_issda_2000,2000,rng-2000,1201,rng,num-start-21,21,536,1002.7101197242737,False,,False,0,True,1000,True,0.0
./expes/v2_2020-11-29_di_2000-prng-1,daily_issda_2000,2000,rng-2000,1801,rng,num-start-251,251,536,1033.388346672058,False,,False,0,True,1000,True,0.0
./expes/v2_2020-11-29_di_2000-prng-1,daily_issda_2000,2000,rng-2000,1201,rng,num-start-121,121,536,1014.8147144317627,False,,False,0,True,1000,True,0.0
./expes/v2_2020-11-29_di_2000-prng-1,daily_issda_2000,2000,rng-2000,1201,rng,num-start-51,51,536,1006.134024143219,False,,False,0,True,1000,True,0.0
./expes/v2_2020-11-29_di_2000-prng-1,daily_issda_2000,2000,rng-2000,201,rng,num-start-11,11,536,1001.488618850708,False,,False,0,True,1000,True,0.0
./expes/v2_2020-11-29_di_2000-prng-1,daily_issda_2000,2000,rng-2000,1,rng,num-start-51,51,536,6.483290433883667,True,,True,1,False,1000,True,1.0
./expes/v2_2020-11-29_di_2000-prng-1,daily_issda_2000,2000,rng-2000,1601,rng,num-start-231,231,536,1031.0839793682098,False,,False,0,True,1000,True,0.0
./expes/v2_2020-11-29_di_2000-prng-1,daily_issda_2000,2000,rng-2000,601,rng,num-start-191,191,536,1024.6477756500244,False,,False,0,True,1000,True,0.0
./expes/v2_2020-11-29_di_2000-prng-1,daily_issda_2000,2000,rng-2000,1201,rng,num-start-241,241,536,1031.246833562851,False,,False,0,True,1000,True,0.0
./expes/v2_2020-11-29_di_2000-prng-1,daily_issda_2000,2000,rng-2000,1601,rng,num-start-201,201,536,1027.3926217556,False,,False,0,True,1000,True,0.0
./expes/v2_2020-11-29_di_2000-prng-1,daily_issda_2000,2000,rng-2000,401,rng,num-start-201,201,536,1026.1206007003784,False,,False,0,True,1000,True,0.0
./expes/v2_2020-11-29_di_2000-prng-1,daily_issda_2000,2000,rng-2000,601,rng,num-start-81,81,536,1009.7945098876953,False,,False,0,True,1000,True,0.0
./expes/v2_2020-11-29_di_2000-prng-1,daily_issda_2000,2000,rng-2000,1601,rng,num-start-131,131,536,1016.9868950843811,False,,False,0,True,1000,True,0.0
./expes/v2_2020-11-29_di_2000-prng-1,daily_issda_2000,2000,rng-2000,1001,rng,num-start-11,11,536,1001.5980525016785,False,,False,0,True,1000,True,0.0
./expes/v2_2020-11-29_di_2000-prng-1,daily_issda_2000,2000,rng-2000,801,rng,num-start-151,151,536,1019.4418702125549,False,,False,0,True,1000,True,0.0
./expes/v2_2020-11-29_di_2000-prng-1,daily_issda_2000,2000,rng-2000,1601,rng,num-start-111,111,536,1013.6303787231445,False,,False,0,True,1000,True,0.0
./expes/v2_2020-11-29_di_2000-prng-1,daily_issda_2000,2000,rng-2000,601,rng,num-start-51,51,536,1006.6714987754822,False,,False,0,True,1000,True,0.0
./expes/v2_2020-11-29_di_2000-prng-1,daily_issda_2000,2000,rng-2000,1001,rng,num-start-261,261,536,1034.5482196807861,False,,False,0,True,1000,True,0.0
./expes/v2_2020-11-29_di_2000-prng-1,daily_issda_2000,2000,rng-2000,801,rng,num-start-141,141,536,1017.0878646373749,False,,False,0,True,1000,True,0.0
./expes/v2_2020-11-29_di_2000-prng-1,daily_issda_2000,2000,rng-2000,1201,rng,num-start-1,1,536,2.1819286346435547,False,,False,2,False,1000,True,1.0
./expes/v2_2020-11-29_di_2000-prng-1,daily_issda_2000,2000,rng-2000,601,rng,num-start-41,41,536,1004.9293940067291,False,,False,0,True,1000,True,0.0
./expes/v2_2020-11-29_di_2000-prng-1,daily_issda_2000,2000,rng-2000,1601,rng,num-start-1,1,536,0.37657713890075684,False,,False,2,False,1000,True,1.0
./expes/v2_2020-11-29_di_2000-prng-1,daily_issda_2000,2000,rng-2000,1201,rng,num-start-111,111,536,1014.2819442749023,False,,False,0,True,1000,True,0.0
./expes/v2_2020-11-29_di_2000-prng-1,daily_issda_2000,2000,rng-2000,1401,rng,num-start-121,121,536,1014.9416728019714,False,,False,0,True,1000,True,0.0
