expe,clients,clients_size,clients_subset,agg_size,method,days,days_size,days_total,time,valid,valid_sum,success,nsols,wall_hit,wall_time,pooled,valid_sums
./expes/v2_2020-12-01_dh_4000-prng-1,30_issda_4000,4000,rng-4000,3501,rng,num-start-1,1,25726,1.6015942096710205,False,,False,2,False,1000,True,1.0
./expes/v2_2020-12-01_dh_4000-prng-1,30_issda_4000,4000,rng-4000,3501,rng,num-start-8001,8001,25726,3814.365921020508,False,,False,1,True,1000,True,0.0
./expes/v2_2020-12-01_dh_4000-prng-1,30_issda_4000,4000,rng-4000,2501,rng,num-start-1001,1001,25726,1346.947241783142,False,,False,0,True,1000,True,0.0
./expes/v2_2020-12-01_dh_4000-prng-1,30_issda_4000,4000,rng-4000,1001,rng,num-start-4001,4001,25726,2376.726493358612,False,,False,1,True,1000,True,0.0
./expes/v2_2020-12-01_dh_4000-prng-1,30_issda_4000,4000,rng-4000,2501,rng,num-start-13001,13001,25726,5357.010784626007,False,,False,1,True,1000,True,0.0
./expes/v2_2020-12-01_dh_4000-prng-1,30_issda_4000,4000,rng-4000,501,rng,num-start-7001,7001,25726,3326.810969352722,False,,False,1,True,1000,True,0.0
./expes/v2_2020-12-01_dh_4000-prng-1,30_issda_4000,4000,rng-4000,1501,rng,num-start-10001,10001,25726,4342.353997468948,False,,False,1,True,1000,True,0.0
./expes/v2_2020-12-01_dh_4000-prng-1,30_issda_4000,4000,rng-4000,1501,rng,num-start-13001,13001,25726,5390.609960317612,False,,False,1,True,1000,True,0.0
./expes/v2_2020-12-01_dh_4000-prng-1,30_issda_4000,4000,rng-4000,3001,rng,num-start-2001,2001,25726,1656.0323390960693,False,,False,1,True,1000,True,0.0
./expes/v2_2020-12-01_dh_4000-prng-1,30_issda_4000,4000,rng-4000,3501,rng,num-start-16001,16001,25726,6347.054601192474,False,,False,1,True,1000,True,0.0
./expes/v2_2020-12-01_dh_4000-prng-1,30_issda_4000,4000,rng-4000,3501,rng,num-start-3001,3001,25726,1986.0262348651886,False,,False,1,True,1000,True,0.0
./expes/v2_2020-12-01_dh_4000-prng-1,30_issda_4000,4000,rng-4000,1,rng,num-start-6001,6001,25726,2006.031137228012,True,,True,1,False,1000,True,1.0
./expes/v2_2020-12-01_dh_4000-prng-1,30_issda_4000,4000,rng-4000,1,rng,num-start-2001,2001,25726,689.1813070774078,True,,True,1,False,1000,True,1.0
./expes/v2_2020-12-01_dh_4000-prng-1,30_issda_4000,4000,rng-4000,1501,rng,num-start-1,1,25726,0.572136402130127,False,,False,2,False,1000,True,1.0
./expes/v2_2020-12-01_dh_4000-prng-1,30_issda_4000,4000,rng-4000,501,rng,num-start-3001,3001,25726,2019.234025478363,False,,False,1,True,1000,True,0.0
./expes/v2_2020-12-01_dh_4000-prng-1,30_issda_4000,4000,rng-4000,2001,rng,num-start-10001,10001,25726,4223.4359395504,False,,False,1,True,1000,True,0.0
./expes/v2_2020-12-01_dh_4000-prng-1,30_issda_4000,4000,rng-4000,1501,rng,num-start-10001,10001,25726,4331.914780378342,False,,False,1,True,1000,True,0.0
./expes/v2_2020-12-01_dh_4000-prng-1,30_issda_4000,4000,rng-4000,501,rng,num-start-16001,16001,25726,6354.590783119202,False,,False,1,True,1000,True,0.0
./expes/v2_2020-12-01_dh_4000-prng-1,30_issda_4000,4000,rng-4000,2501,rng,num-start-11001,11001,25726,4737.355797052383,False,,False,1,True,1000,True,0.0
./expes/v2_2020-12-01_dh_4000-prng-1,30_issda_4000,4000,rng-4000,501,rng,num-start-11001,11001,25726,4666.876527070999,False,,False,1,True,1000,True,0.0
./expes/v2_2020-12-01_dh_4000-prng-1,30_issda_4000,4000,rng-4000,2001,rng,num-start-3001,3001,25726,2031.625244140625,False,,False,1,True,1000,True,0.0
./expes/v2_2020-12-01_dh_4000-prng-1,30_issda_4000,4000,rng-4000,2001,rng,num-start-16001,16001,25726,6184.310825109482,False,,False,1,True,1000,True,0.0
./expes/v2_2020-12-01_dh_4000-prng-1,30_issda_4000,4000,rng-4000,501,rng,num-start-5001,5001,25726,2627.149365901947,False,,False,1,True,1000,True,0.0
./expes/v2_2020-12-01_dh_4000-prng-1,30_issda_4000,4000,rng-4000,3501,rng,num-start-9001,9001,25726,3957.57697224617,False,,False,1,True,1000,True,0.0
./expes/v2_2020-12-01_dh_4000-prng-1,30_issda_4000,4000,rng-4000,1001,rng,num-start-3001,3001,25726,1991.317791223526,False,,False,1,True,1000,True,0.0
