expe,clients,clients_size,clients_subset,agg_size,method,days,days_size,days_total,time,valid,valid_sum,success,nsols,wall_hit,wall_time,pooled,valid_sums
./expes/v2_2020-12-01_dh_4000-prng-1,30_issda_4000,4000,rng-4000,1001,rng,num-start-7001,7001,25726,2825.2737276554108,False,,False,1,True,1000,True,0.0
./expes/v2_2020-12-01_dh_4000-prng-1,30_issda_4000,4000,rng-4000,1501,rng,num-start-5001,5001,25726,2287.626137971878,False,,False,1,True,1000,True,0.0
./expes/v2_2020-12-01_dh_4000-prng-1,30_issda_4000,4000,rng-4000,2001,rng,num-start-8001,8001,25726,3097.7760424613953,False,,False,1,True,1000,True,0.0
./expes/v2_2020-12-01_dh_4000-prng-1,30_issda_4000,4000,rng-4000,3501,rng,num-start-9001,9001,25726,3300.157159805298,False,,False,1,True,1000,True,0.0
./expes/v2_2020-12-01_dh_4000-prng-1,30_issda_4000,4000,rng-4000,1,rng,num-start-9001,9001,25726,2336.0324664115906,True,,True,1,False,1000,True,1.0
./expes/v2_2020-12-01_dh_4000-prng-1,30_issda_4000,4000,rng-4000,2001,rng,num-start-6001,6001,25726,2563.243899822235,False,,False,1,True,1000,True,0.0
./expes/v2_2020-12-01_dh_4000-prng-1,30_issda_4000,4000,rng-4000,1501,rng,num-start-4001,4001,25726,2028.3250031471252,False,,False,1,True,1000,True,0.0
./expes/v2_2020-12-01_dh_4000-prng-1,30_issda_4000,4000,rng-4000,3001,rng,num-start-4001,4001,25726,2027.9706995487213,False,,False,1,True,1000,True,0.0
./expes/v2_2020-12-01_dh_4000-prng-1,30_issda_4000,4000,rng-4000,501,rng,num-start-3001,3001,25726,1786.499537229538,False,,False,1,True,1000,True,0.0
./expes/v2_2020-12-01_dh_4000-prng-1,30_issda_4000,4000,rng-4000,1001,rng,num-start-1,1,25726,0.5582854747772217,False,,False,2,False,1000,True,1.0
./expes/v2_2020-12-01_dh_4000-prng-1,30_issda_4000,4000,rng-4000,3001,rng,num-start-3001,3001,25726,1764.1397438049316,False,,False,1,True,1000,True,0.0
./expes/v2_2020-12-01_dh_4000-prng-1,30_issda_4000,4000,rng-4000,2001,rng,num-start-15001,15001,25726,4922.7691197395325,False,,False,1,True,1000,True,0.0
./expes/v2_2020-12-01_dh_4000-prng-1,30_issda_4000,4000,rng-4000,2001,rng,num-start-15001,15001,25726,4914.118745326996,False,,False,1,True,1000,True,0.0
./expes/v2_2020-12-01_dh_4000-prng-1,30_issda_4000,4000,rng-4000,2501,rng,num-start-9001,9001,25726,3370.385948896408,False,,False,1,True,1000,True,0.0
./expes/v2_2020-12-01_dh_4000-prng-1,30_issda_4000,4000,rng-4000,2501,rng,num-start-7001,7001,25726,2789.2439002990723,False,,False,1,True,1000,True,0.0
./expes/v2_2020-12-01_dh_4000-prng-1,30_issda_4000,4000,rng-4000,2001,rng,num-start-1001,1001,25726,1266.1710205078125,False,,False,0,True,1000,True,0.0
./expes/v2_2020-12-01_dh_4000-prng-1,30_issda_4000,4000,rng-4000,3501,rng,num-start-5001,5001,25726,2324.835163831711,False,,False,1,True,1000,True,0.0
./expes/v2_2020-12-01_dh_4000-prng-1,30_issda_4000,4000,rng-4000,2001,rng,num-start-11001,11001,25726,3758.9250271320343,False,,False,1,True,1000,True,0.0
./expes/v2_2020-12-01_dh_4000-prng-1,30_issda_4000,4000,rng-4000,3001,rng,num-start-2001,2001,25726,1525.413889169693,False,,False,1,True,1000,True,0.0
./expes/v2_2020-12-01_dh_4000-prng-1,30_issda_4000,4000,rng-4000,2001,rng,num-start-2001,2001,25726,1514.8738923072815,False,,False,0,True,1000,True,0.0
./expes/v2_2020-12-01_dh_4000-prng-1,30_issda_4000,4000,rng-4000,2501,rng,num-start-11001,11001,25726,3792.501207113266,False,,False,1,True,1000,True,0.0
./expes/v2_2020-12-01_dh_4000-prng-1,30_issda_4000,4000,rng-4000,2501,rng,num-start-1001,1001,25726,1260.086201429367,False,,False,0,True,1000,True,0.0
./expes/v2_2020-12-01_dh_4000-prng-1,30_issda_4000,4000,rng-4000,501,rng,num-start-16001,16001,25726,5132.9746334552765,False,,False,1,True,1000,True,0.0
./expes/v2_2020-12-01_dh_4000-prng-1,30_issda_4000,4000,rng-4000,1001,rng,num-start-10001,10001,25726,3469.431750059128,False,,False,1,True,1000,True,0.0
./expes/v2_2020-12-01_dh_4000-prng-1,30_issda_4000,4000,rng-4000,2001,rng,num-start-2001,2001,25726,1492.5469801425934,False,,False,1,True,1000,True,0.0
./expes/v2_2020-12-01_dh_4000-prng-1,30_issda_4000,4000,rng-4000,1001,rng,num-start-6001,6001,25726,2545.5001616477966,False,,False,1,True,1000,True,0.0
./expes/v2_2020-12-01_dh_4000-prng-1,30_issda_4000,4000,rng-4000,2501,rng,num-start-16001,16001,25726,5031.974020957947,False,,False,1,True,1000,True,0.0
./expes/v2_2020-12-01_dh_4000-prng-1,30_issda_4000,4000,rng-4000,1501,rng,num-start-14001,14001,25726,4518.785536289215,False,,False,1,True,1000,True,0.0
./expes/v2_2020-12-01_dh_4000-prng-1,30_issda_4000,4000,rng-4000,2501,rng,num-start-7001,7001,25726,2762.565672636032,False,,False,1,True,1000,True,0.0
./expes/v2_2020-12-01_dh_4000-prng-1,30_issda_4000,4000,rng-4000,501,rng,num-start-8001,8001,25726,3026.8425636291504,False,,False,1,True,1000,True,0.0
