expe,clients,clients_size,clients_subset,agg_size,agg_size_pc,method,days,days_size,days_total,noise_method,time,valid,valid_sum,success,nsols,wall_hit,wall_time,pooled,valid_sums
./expes/v2_2021-01-07_hi_4500-prng-w5-d500-1,30_issda-4500,4500,rng-4500,672,14,rng,num-start-7501,7501,25726,normal,3529.1170239448547,False,,False,2,False,5000,True,0.0
./expes/v2_2021-01-07_hi_4500-prng-w5-d500-1,30_issda-4500,4500,rng-4500,672,14,rng,num-start-6501,6501,25726,normal,2811.747240781784,False,,False,2,False,5000,True,0.0
