expe,clients,clients_size,clients_subset,agg_size,agg_size_pc,method,days,days_size,days_total,noise_method,time,valid,valid_sum,success,score_avg,score_min,score_max,nsols,oracle,wall_hit,wall_time,pooled,pool_size,uuid,infeasible,optimal,valid_sums
./expes/v2_2021-04-10_issda-30_500-prng-1-w1-p2,30_issda-500,500,first-500,500,100,rng,num-start-450,450,25726,classic,21.971054315567017,True,,True,1.0,1.0,1.0,1,"['1', '2', '3', '4', '5', '6', '7', '8', '9', '10', '11', '12', '13', '14', '15', '16', '17', '18', '19', '20', '21', '22', '23', '24', '25', '26', '27', '28', '29', '30', '31', '32', '33', '34', '35', '36', '37', '38', '39', '40', '41', '42', '43', '44', '45', '46', '47', '48', '49', '50', '51', '52', '53', '54', '55', '56', '57', '58', '59', '60', '61', '62', '63', '64', '65', '66', '67', '68', '69', '70', '71', '72', '73', '74', '75', '76', '77', '78', '79', '80', '81', '82', '83', '84', '85', '86', '87', '88', '89', '90', '91', '92', '93', '94', '95', '96', '97', '98', '99', '100', '101', '102', '103', '104', '105', '106', '107', '108', '109', '110', '111', '112', '113', '114', '115', '116', '117', '118', '119', '120', '121', '122', '123', '124', '125', '126', '127', '128', '129', '130', '131', '132', '133', '134', '135', '136', '137', '138', '139', '140', '141', '142', '143', '144', '145', '146', '147', '148', '149', '150', '151', '152', '153', '154', '155', '156', '157', '158', '159', '160', '161', '162', '163', '164', '165', '166', '167', '168', '169', '170', '171', '172', '173', '174', '175', '176', '177', '178', '179', '180', '181', '182', '183', '184', '185', '186', '187', '188', '189', '190', '191', '192', '193', '194', '195', '196', '197', '198', '199', '200', '201', '202', '203', '204', '205', '206', '207', '208', '209', '210', '211', '212', '213', '214', '215', '216', '217', '218', '219', '220', '221', '222', '223', '224', '225', '226', '227', '228', '229', '230', '231', '232', '233', '234', '235', '236', '237', '238', '239', '240', '241', '242', '243', '244', '245', '246', '247', '248', '249', '250', '251', '252', '253', '254', '255', '256', '257', '258', '259', '260', '261', '262', '263', '264', '265', '266', '267', '268', '269', '270', '271', '272', '273', '274', '275', '276', '277', '278', '279', '280', '281', '282', '283', '284', '285', '286', '287', '288', '289', '290', '291', '292', '293', '294', '295', '296', '297', '298', '299', '300', '301', '302', '303', '304', '305', '306', '307', '308', '309', '310', '311', '312', '313', '314', '315', '316', '317', '318', '319', '320', '321', '322', '323', '324', '325', '326', '327', '328', '329', '330', '331', '332', '333', '334', '335', '336', '337', '338', '339', '340', '341', '342', '343', '344', '345', '346', '347', '348', '349', '350', '351', '352', '353', '354', '355', '356', '357', '358', '359', '360', '361', '362', '363', '364', '365', '366', '367', '368', '369', '370', '371', '372', '373', '374', '375', '376', '377', '378', '379', '380', '381', '382', '383', '384', '385', '386', '387', '388', '389', '390', '391', '392', '393', '394', '395', '396', '397', '398', '399', '400', '401', '402', '403', '404', '405', '406', '407', '408', '409', '410', '411', '412', '413', '414', '415', '416', '417', '418', '419', '420', '421', '422', '423', '424', '425', '426', '427', '428', '429', '430', '431', '432', '433', '434', '435', '436', '437', '438', '439', '440', '441', '442', '443', '444', '445', '446', '447', '448', '449', '450', '451', '452', '453', '454', '455', '456', '457', '458', '459', '460', '461', '462', '463', '464', '465', '466', '467', '468', '469', '470', '471', '472', '473', '474', '475', '476', '477', '478', '479', '480', '481', '482', '483', '484', '485', '486', '487', '488', '489', '490', '491', '492', '493', '494', '495', '496', '497', '498', '499', '500']",False,1000,True,2,3eb34455ce,0.0,1.0,1.0
./expes/v2_2021-04-10_issda-30_500-prng-1-w1-p2,30_issda-500,500,first-500,300,60,rng,num-start-300,300,25726,classic,19.690890312194824,True,,True,1.0,1.0,1.0,1,"['1', '3', '5', '9', '10', '11', '13', '15', '16', '17', '18', '19', '21', '23', '24', '26', '27', '29', '30', '31', '35', '38', '39', '40', '42', '43', '44', '45', '47', '48', '49', '50', '52', '53', '54', '55', '57', '58', '59', '60', '61', '63', '66', '68', '70', '72', '74', '78', '79', '81', '82', '83', '85', '86', '87', '88', '89', '91', '93', '94', '95', '98', '99', '102', '107', '108', '109', '112', '113', '114', '116', '117', '119', '120', '121', '124', '126', '127', '128', '129', '130', '131', '132', '133', '135', '136', '137', '138', '140', '143', '146', '147', '149', '156', '157', '158', '159', '160', '162', '164', '167', '168', '172', '173', '175', '177', '180', '182', '184', '185', '186', '187', '188', '191', '192', '195', '197', '198', '201', '202', '203', '205', '206', '209', '210', '211', '212', '213', '215', '217', '218', '221', '223', '228', '229', '230', '232', '233', '234', '235', '237', '238', '239', '241', '243', '246', '249', '250', '251', '252', '255', '256', '257', '258', '259', '260', '261', '262', '263', '264', '266', '267', '268', '269', '270', '272', '275', '279', '283', '286', '287', '288', '291', '293', '295', '298', '300', '302', '303', '304', '310', '311', '313', '315', '316', '317', '319', '320', '322', '326', '327', '329', '334', '335', '336', '338', '339', '340', '343', '344', '345', '346', '349', '350', '351', '352', '354', '355', '359', '362', '363', '364', '366', '367', '368', '371', '372', '374', '375', '377', '379', '381', '382', '383', '385', '386', '387', '389', '390', '391', '393', '396', '397', '398', '400', '402', '404', '405', '406', '407', '408', '410', '411', '412', '413', '415', '416', '417', '418', '421', '423', '426', '428', '430', '431', '435', '436', '438', '440', '441', '442', '446', '448', '449', '451', '452', '453', '455', '456', '457', '458', '460', '461', '462', '463', '465', '466', '467', '469', '470', '471', '472', '474', '476', '478', '479', '480', '481', '482', '484', '486', '487', '489', '490', '491', '492', '493', '494', '497', '498']",False,1000,True,2,c74d9bbc5f,0.0,1.0,1.0
./expes/v2_2021-04-10_issda-30_500-prng-1-w1-p2,30_issda-500,500,first-500,500,100,rng,num-start-450,450,25726,classic,21.950460195541382,True,,True,1.0,1.0,1.0,1,"['1', '2', '3', '4', '5', '6', '7', '8', '9', '10', '11', '12', '13', '14', '15', '16', '17', '18', '19', '20', '21', '22', '23', '24', '25', '26', '27', '28', '29', '30', '31', '32', '33', '34', '35', '36', '37', '38', '39', '40', '41', '42', '43', '44', '45', '46', '47', '48', '49', '50', '51', '52', '53', '54', '55', '56', '57', '58', '59', '60', '61', '62', '63', '64', '65', '66', '67', '68', '69', '70', '71', '72', '73', '74', '75', '76', '77', '78', '79', '80', '81', '82', '83', '84', '85', '86', '87', '88', '89', '90', '91', '92', '93', '94', '95', '96', '97', '98', '99', '100', '101', '102', '103', '104', '105', '106', '107', '108', '109', '110', '111', '112', '113', '114', '115', '116', '117', '118', '119', '120', '121', '122', '123', '124', '125', '126', '127', '128', '129', '130', '131', '132', '133', '134', '135', '136', '137', '138', '139', '140', '141', '142', '143', '144', '145', '146', '147', '148', '149', '150', '151', '152', '153', '154', '155', '156', '157', '158', '159', '160', '161', '162', '163', '164', '165', '166', '167', '168', '169', '170', '171', '172', '173', '174', '175', '176', '177', '178', '179', '180', '181', '182', '183', '184', '185', '186', '187', '188', '189', '190', '191', '192', '193', '194', '195', '196', '197', '198', '199', '200', '201', '202', '203', '204', '205', '206', '207', '208', '209', '210', '211', '212', '213', '214', '215', '216', '217', '218', '219', '220', '221', '222', '223', '224', '225', '226', '227', '228', '229', '230', '231', '232', '233', '234', '235', '236', '237', '238', '239', '240', '241', '242', '243', '244', '245', '246', '247', '248', '249', '250', '251', '252', '253', '254', '255', '256', '257', '258', '259', '260', '261', '262', '263', '264', '265', '266', '267', '268', '269', '270', '271', '272', '273', '274', '275', '276', '277', '278', '279', '280', '281', '282', '283', '284', '285', '286', '287', '288', '289', '290', '291', '292', '293', '294', '295', '296', '297', '298', '299', '300', '301', '302', '303', '304', '305', '306', '307', '308', '309', '310', '311', '312', '313', '314', '315', '316', '317', '318', '319', '320', '321', '322', '323', '324', '325', '326', '327', '328', '329', '330', '331', '332', '333', '334', '335', '336', '337', '338', '339', '340', '341', '342', '343', '344', '345', '346', '347', '348', '349', '350', '351', '352', '353', '354', '355', '356', '357', '358', '359', '360', '361', '362', '363', '364', '365', '366', '367', '368', '369', '370', '371', '372', '373', '374', '375', '376', '377', '378', '379', '380', '381', '382', '383', '384', '385', '386', '387', '388', '389', '390', '391', '392', '393', '394', '395', '396', '397', '398', '399', '400', '401', '402', '403', '404', '405', '406', '407', '408', '409', '410', '411', '412', '413', '414', '415', '416', '417', '418', '419', '420', '421', '422', '423', '424', '425', '426', '427', '428', '429', '430', '431', '432', '433', '434', '435', '436', '437', '438', '439', '440', '441', '442', '443', '444', '445', '446', '447', '448', '449', '450', '451', '452', '453', '454', '455', '456', '457', '458', '459', '460', '461', '462', '463', '464', '465', '466', '467', '468', '469', '470', '471', '472', '473', '474', '475', '476', '477', '478', '479', '480', '481', '482', '483', '484', '485', '486', '487', '488', '489', '490', '491', '492', '493', '494', '495', '496', '497', '498', '499', '500']",False,1000,True,2,db61cb1dae,0.0,1.0,1.0
./expes/v2_2021-04-10_issda-30_500-prng-1-w1-p2,30_issda-500,500,first-500,350,70,rng,num-start-400,400,25726,classic,28.13884449005127,True,,True,1.0,1.0,1.0,1,"['1', '2', '3', '5', '6', '7', '8', '9', '10', '11', '12', '13', '14', '15', '16', '17', '18', '19', '20', '21', '23', '24', '25', '29', '31', '33', '34', '36', '37', '38', '40', '42', '43', '44', '45', '46', '47', '49', '50', '51', '52', '53', '54', '56', '57', '58', '59', '60', '61', '62', '65', '67', '69', '70', '75', '76', '81', '82', '83', '84', '86', '87', '88', '89', '91', '93', '94', '95', '96', '97', '98', '100', '102', '103', '106', '107', '108', '109', '110', '111', '112', '113', '114', '115', '116', '117', '118', '119', '120', '121', '123', '124', '125', '127', '128', '129', '130', '131', '133', '137', '138', '140', '142', '144', '145', '146', '149', '150', '151', '152', '153', '156', '157', '158', '159', '160', '161', '162', '163', '164', '165', '167', '168', '170', '171', '174', '175', '176', '177', '178', '181', '183', '185', '187', '188', '189', '190', '192', '194', '195', '196', '197', '198', '200', '201', '202', '203', '204', '205', '206', '207', '208', '209', '212', '213', '214', '216', '217', '219', '220', '222', '223', '225', '229', '231', '232', '233', '234', '235', '236', '241', '242', '243', '245', '246', '247', '249', '250', '251', '253', '254', '255', '256', '257', '258', '259', '260', '261', '262', '263', '264', '265', '266', '267', '269', '271', '273', '274', '276', '277', '278', '279', '281', '282', '283', '284', '285', '288', '289', '290', '292', '293', '294', '295', '296', '297', '300', '301', '302', '303', '304', '306', '308', '310', '311', '312', '314', '315', '317', '319', '320', '323', '324', '326', '329', '332', '333', '334', '337', '338', '339', '340', '341', '344', '345', '346', '347', '348', '349', '352', '353', '356', '357', '360', '361', '365', '367', '369', '370', '371', '372', '374', '376', '378', '380', '381', '387', '389', '390', '391', '392', '393', '394', '395', '398', '399', '400', '401', '402', '403', '404', '405', '408', '409', '411', '412', '413', '415', '416', '417', '419', '420', '421', '423', '424', '425', '427', '428', '429', '431', '433', '434', '435', '436', '437', '439', '440', '441', '444', '445', '446', '447', '449', '450', '452', '454', '455', '457', '458', '459', '460', '461', '462', '466', '467', '468', '469', '470', '472', '473', '474', '475', '477', '478', '480', '481', '482', '484', '487', '488', '489', '491', '492', '493', '494', '495', '496', '497', '499', '500']",False,1000,True,2,c76bf1f441,0.0,1.0,1.0
./expes/v2_2021-04-10_issda-30_500-prng-1-w1-p2,30_issda-500,500,first-500,450,90,rng,num-start-150,150,25726,classic,8.986778020858765,True,,True,1.0,1.0,1.0,1,"['1', '2', '4', '5', '6', '7', '8', '9', '10', '11', '12', '13', '14', '15', '16', '17', '18', '19', '20', '21', '22', '23', '24', '25', '26', '29', '30', '31', '32', '33', '34', '36', '37', '38', '39', '40', '41', '42', '43', '44', '45', '46', '47', '48', '49', '51', '52', '53', '54', '56', '57', '58', '59', '60', '61', '62', '63', '64', '65', '66', '67', '68', '69', '70', '71', '72', '73', '74', '75', '76', '77', '78', '79', '80', '81', '82', '83', '84', '85', '86', '87', '88', '90', '92', '93', '94', '95', '96', '97', '98', '99', '100', '102', '103', '104', '105', '106', '107', '108', '110', '111', '112', '113', '114', '115', '116', '118', '119', '120', '121', '122', '123', '124', '125', '128', '129', '130', '131', '132', '133', '134', '135', '139', '141', '142', '143', '144', '145', '147', '148', '149', '150', '151', '152', '153', '154', '155', '156', '157', '158', '159', '160', '162', '163', '164', '165', '166', '167', '168', '169', '170', '171', '172', '173', '174', '175', '176', '177', '178', '179', '180', '181', '182', '183', '184', '185', '186', '188', '189', '190', '191', '193', '194', '195', '196', '197', '198', '199', '201', '202', '203', '204', '205', '206', '207', '208', '209', '210', '211', '213', '214', '215', '216', '217', '218', '219', '221', '223', '224', '226', '227', '228', '229', '230', '231', '232', '233', '234', '235', '236', '239', '240', '241', '242', '243', '244', '245', '246', '247', '249', '250', '251', '252', '253', '254', '255', '256', '258', '259', '260', '261', '262', '265', '266', '267', '268', '269', '270', '271', '272', '273', '274', '275', '276', '277', '278', '279', '280', '281', '282', '283', '284', '285', '286', '287', '288', '289', '290', '291', '292', '293', '294', '295', '297', '298', '299', '300', '301', '302', '303', '304', '305', '306', '307', '308', '309', '310', '311', '312', '313', '314', '315', '317', '318', '319', '320', '321', '322', '323', '324', '325', '326', '327', '328', '329', '330', '331', '332', '333', '334', '335', '336', '337', '338', '339', '340', '341', '342', '343', '344', '345', '346', '347', '348', '349', '350', '351', '352', '353', '354', '355', '358', '359', '360', '361', '362', '363', '364', '365', '366', '367', '368', '369', '370', '372', '373', '374', '375', '376', '377', '379', '380', '382', '383', '384', '386', '387', '388', '389', '391', '393', '396', '397', '398', '399', '400', '401', '402', '403', '404', '405', '406', '407', '408', '409', '410', '412', '413', '414', '415', '416', '418', '419', '420', '421', '422', '423', '424', '425', '426', '427', '428', '429', '430', '431', '432', '433', '434', '435', '436', '437', '438', '439', '440', '441', '442', '443', '444', '445', '446', '447', '448', '449', '450', '452', '453', '454', '455', '456', '457', '458', '459', '460', '461', '462', '463', '464', '465', '466', '467', '468', '469', '470', '471', '472', '473', '475', '477', '478', '479', '480', '481', '483', '484', '485', '486', '487', '488', '489', '490', '491', '492', '493', '494', '495', '496', '497', '498', '499', '500']",False,1000,True,2,ed6bc80b5c,0.0,1.0,1.0
./expes/v2_2021-04-10_issda-30_500-prng-1-w1-p2,30_issda-500,500,first-500,200,40,rng,num-start-150,150,25726,classic,1007.2394173145294,False,,False,0,,,0,"['4', '5', '10', '11', '14', '17', '19', '21', '22', '23', '24', '29', '31', '32', '35', '40', '42', '43', '45', '46', '47', '50', '52', '53', '55', '59', '63', '70', '75', '77', '79', '80', '82', '83', '85', '87', '89', '91', '92', '95', '97', '99', '100', '101', '102', '103', '104', '107', '110', '111', '113', '114', '118', '120', '121', '122', '124', '127', '128', '129', '131', '133', '134', '135', '140', '142', '143', '144', '147', '148', '149', '150', '151', '154', '156', '157', '159', '160', '165', '166', '168', '170', '173', '176', '183', '185', '186', '187', '191', '196', '199', '203', '206', '210', '211', '212', '216', '217', '218', '220', '221', '224', '225', '226', '228', '232', '233', '236', '237', '242', '243', '245', '246', '252', '256', '260', '261', '266', '267', '271', '274', '275', '280', '281', '282', '286', '293', '294', '299', '302', '305', '307', '311', '316', '317', '318', '321', '322', '324', '325', '326', '329', '332', '334', '344', '345', '346', '347', '349', '358', '359', '361', '363', '370', '375', '377', '378', '383', '392', '397', '400', '402', '409', '410', '412', '414', '417', '419', '424', '425', '426', '428', '430', '431', '433', '435', '438', '442', '444', '445', '446', '451', '452', '456', '458', '459', '464', '466', '468', '470', '475', '479', '483', '484', '489', '492', '493', '494', '495', '497']",True,1000,True,2,14a68c4696,0.0,0.0,0.0
