expe,clients,clients_size,clients_subset,agg_size,method,days,days_size,days_total,time,valid,valid_sum,success,nsols,wall_hit,wall_time,pooled,valid_sums
./expes/v2_2020-11-04_hbh_100-prng-1,30_base_hphc_100,100,first-100,11,rng,num-start-331,331,17520,5.325988054275513,True,,True,1,False,1000,True,1.0
./expes/v2_2020-11-04_hbh_100-prng-1,30_base_hphc_100,100,first-100,21,rng,num-start-481,481,17520,7.694239616394043,True,,True,1,False,1000,True,1.0
./expes/v2_2020-11-04_hbh_100-prng-1,30_base_hphc_100,100,first-100,21,rng,num-start-71,71,17520,1.224719762802124,True,,True,1,False,1000,True,1.0
./expes/v2_2020-11-04_hbh_100-prng-1,30_base_hphc_100,100,first-100,31,rng,num-start-681,681,17520,11.323231935501099,True,,True,1,False,1000,True,1.0
./expes/v2_2020-11-04_hbh_100-prng-1,30_base_hphc_100,100,first-100,31,rng,num-start-451,451,17520,7.109402179718018,True,,True,1,False,1000,True,1.0
./expes/v2_2020-11-04_hbh_100-prng-1,30_base_hphc_100,100,first-100,81,rng,num-start-101,101,17520,1.7104122638702393,True,,True,1,False,1000,True,1.0
./expes/v2_2020-11-04_hbh_100-prng-1,30_base_hphc_100,100,first-100,31,rng,num-start-491,491,17520,7.86214017868042,True,,True,1,False,1000,True,1.0
./expes/v2_2020-11-04_hbh_100-prng-1,30_base_hphc_100,100,first-100,71,rng,num-start-211,211,17520,3.488438844680786,True,,True,1,False,1000,True,1.0
./expes/v2_2020-11-04_hbh_100-prng-1,30_base_hphc_100,100,first-100,1,rng,num-start-161,161,17520,2.341322183609009,True,,True,1,False,1000,True,1.0
./expes/v2_2020-11-04_hbh_100-prng-1,30_base_hphc_100,100,first-100,61,rng,num-start-511,511,17520,8.579411029815674,True,,True,1,False,1000,True,1.0
./expes/v2_2020-11-04_hbh_100-prng-1,30_base_hphc_100,100,first-100,51,rng,num-start-741,741,17520,11.735669374465942,True,,True,1,False,1000,True,1.0
./expes/v2_2020-11-04_hbh_100-prng-1,30_base_hphc_100,100,first-100,91,rng,num-start-461,461,17520,7.217250347137451,True,,True,1,False,1000,True,1.0
./expes/v2_2020-11-04_hbh_100-prng-1,30_base_hphc_100,100,first-100,61,rng,num-start-881,881,17520,14.250560522079468,True,,True,1,False,1000,True,1.0
./expes/v2_2020-11-04_hbh_100-prng-1,30_base_hphc_100,100,first-100,61,rng,num-start-831,831,17520,13.093474864959717,True,,True,1,False,1000,True,1.0
./expes/v2_2020-11-04_hbh_100-prng-1,30_base_hphc_100,100,first-100,11,rng,num-start-501,501,17520,7.99376106262207,True,,True,1,False,1000,True,1.0
./expes/v2_2020-11-04_hbh_100-prng-1,30_base_hphc_100,100,first-100,1,rng,num-start-411,411,17520,6.052018404006958,True,,True,1,False,1000,True,1.0
./expes/v2_2020-11-04_hbh_100-prng-1,30_base_hphc_100,100,first-100,1,rng,num-start-681,681,17520,10.022475004196167,True,,True,1,False,1000,True,1.0
./expes/v2_2020-11-04_hbh_100-prng-1,30_base_hphc_100,100,first-100,11,rng,num-start-231,231,17520,3.7691760063171387,True,,True,1,False,1000,True,1.0
./expes/v2_2020-11-04_hbh_100-prng-1,30_base_hphc_100,100,first-100,71,rng,num-start-951,951,17520,15.353365421295166,True,,True,1,False,1000,True,1.0
./expes/v2_2020-11-04_hbh_100-prng-1,30_base_hphc_100,100,first-100,71,rng,num-start-931,931,17520,15.50865364074707,True,,True,1,False,1000,True,1.0
./expes/v2_2020-11-04_hbh_100-prng-1,30_base_hphc_100,100,first-100,61,rng,num-start-471,471,17520,7.496311902999878,True,,True,1,False,1000,True,1.0
