expe,clients,clients_size,clients_subset,agg_size,method,days,days_size,days_total,time,valid,valid_sum,success,nsols,wall_hit,wall_time,pooled,valid_sums
./expes/v2_2020-11-04_hbh_100-prng-1,30_base_hphc_100,100,first-100,31,rng,num-start-651,651,17520,4.5863564014434814,True,,True,1,False,1000,True,1.0
./expes/v2_2020-11-04_hbh_100-prng-1,30_base_hphc_100,100,first-100,31,rng,num-start-171,171,17520,1.2785656452178955,True,,True,1,False,1000,True,1.0
./expes/v2_2020-11-04_hbh_100-prng-1,30_base_hphc_100,100,first-100,61,rng,num-start-111,111,17520,0.8782651424407959,True,,True,1,False,1000,True,1.0
./expes/v2_2020-11-04_hbh_100-prng-1,30_base_hphc_100,100,first-100,51,rng,num-start-51,51,17520,0.6139519214630127,True,,True,1,False,1000,True,1.0
./expes/v2_2020-11-04_hbh_100-prng-1,30_base_hphc_100,100,first-100,61,rng,num-start-221,221,17520,1.863631010055542,True,,True,1,False,1000,True,1.0
./expes/v2_2020-11-04_hbh_100-prng-1,30_base_hphc_100,100,first-100,21,rng,num-start-121,121,17520,0.9850420951843262,True,,True,1,False,1000,True,1.0
./expes/v2_2020-11-04_hbh_100-prng-1,30_base_hphc_100,100,first-100,81,rng,num-start-511,511,17520,3.6832470893859863,True,,True,1,False,1000,True,1.0
./expes/v2_2020-11-04_hbh_100-prng-1,30_base_hphc_100,100,first-100,31,rng,num-start-971,971,17520,7.2400031089782715,True,,True,1,False,1000,True,1.0
./expes/v2_2020-11-04_hbh_100-prng-1,30_base_hphc_100,100,first-100,71,rng,num-start-781,781,17520,5.631425857543945,True,,True,1,False,1000,True,1.0
./expes/v2_2020-11-04_hbh_100-prng-1,30_base_hphc_100,100,first-100,21,rng,num-start-201,201,17520,1.5045287609100342,True,,True,1,False,1000,True,1.0
./expes/v2_2020-11-04_hbh_100-prng-1,30_base_hphc_100,100,first-100,21,rng,num-start-381,381,17520,2.7006442546844482,True,,True,1,False,1000,True,1.0
./expes/v2_2020-11-04_hbh_100-prng-1,30_base_hphc_100,100,first-100,31,rng,num-start-791,791,17520,5.696279287338257,True,,True,1,False,1000,True,1.0
./expes/v2_2020-11-04_hbh_100-prng-1,30_base_hphc_100,100,first-100,11,rng,num-start-171,171,17520,1.3501121997833252,True,,True,1,False,1000,True,1.0
./expes/v2_2020-11-04_hbh_100-prng-1,30_base_hphc_100,100,first-100,11,rng,num-start-91,91,17520,0.8051531314849854,True,,True,1,False,1000,True,1.0
./expes/v2_2020-11-04_hbh_100-prng-1,30_base_hphc_100,100,first-100,51,rng,num-start-501,501,17520,3.318465232849121,True,,True,1,False,1000,True,1.0
./expes/v2_2020-11-04_hbh_100-prng-1,30_base_hphc_100,100,first-100,21,rng,num-start-41,41,17520,0.6876614093780518,True,,True,1,False,1000,True,1.0
./expes/v2_2020-11-04_hbh_100-prng-1,30_base_hphc_100,100,first-100,11,rng,num-start-711,711,17520,5.522212505340576,True,,True,1,False,1000,True,1.0
./expes/v2_2020-11-04_hbh_100-prng-1,30_base_hphc_100,100,first-100,1,rng,num-start-541,541,17520,3.1435396671295166,True,,True,1,False,1000,True,1.0
./expes/v2_2020-11-04_hbh_100-prng-1,30_base_hphc_100,100,first-100,41,rng,num-start-471,471,17520,3.2845537662506104,True,,True,1,False,1000,True,1.0
./expes/v2_2020-11-04_hbh_100-prng-1,30_base_hphc_100,100,first-100,81,rng,num-start-571,571,17520,4.094491720199585,True,,True,1,False,1000,True,1.0
./expes/v2_2020-11-04_hbh_100-prng-1,30_base_hphc_100,100,first-100,51,rng,num-start-221,221,17520,1.5554101467132568,True,,True,1,False,1000,True,1.0
./expes/v2_2020-11-04_hbh_100-prng-1,30_base_hphc_100,100,first-100,11,rng,num-start-591,591,17520,4.027867317199707,True,,True,1,False,1000,True,1.0
./expes/v2_2020-11-04_hbh_100-prng-1,30_base_hphc_100,100,first-100,51,rng,num-start-961,961,17520,7.235435962677002,True,,True,1,False,1000,True,1.0
./expes/v2_2020-11-04_hbh_100-prng-1,30_base_hphc_100,100,first-100,1,rng,num-start-501,501,17520,2.8540570735931396,True,,True,1,False,1000,True,1.0
./expes/v2_2020-11-04_hbh_100-prng-1,30_base_hphc_100,100,first-100,71,rng,num-start-61,61,17520,0.6499245166778564,True,,True,1,False,1000,True,1.0
./expes/v2_2020-11-04_hbh_100-prng-1,30_base_hphc_100,100,first-100,91,rng,num-start-631,631,17520,4.662388563156128,True,,True,1,False,1000,True,1.0
./expes/v2_2020-11-04_hbh_100-prng-1,30_base_hphc_100,100,first-100,81,rng,num-start-721,721,17520,5.315904140472412,True,,True,1,False,1000,True,1.0
./expes/v2_2020-11-04_hbh_100-prng-1,30_base_hphc_100,100,first-100,81,rng,num-start-601,601,17520,5.62734580039978,True,,True,1,False,1000,True,1.0
./expes/v2_2020-11-04_hbh_100-prng-1,30_base_hphc_100,100,first-100,71,rng,num-start-611,611,17520,5.005611896514893,True,,True,1,False,1000,True,1.0
./expes/v2_2020-11-04_hbh_100-prng-1,30_base_hphc_100,100,first-100,71,rng,num-start-341,341,17520,2.8319153785705566,True,,True,1,False,1000,True,1.0
./expes/v2_2020-11-04_hbh_100-prng-1,30_base_hphc_100,100,first-100,71,rng,num-start-111,111,17520,0.9548647403717041,True,,True,1,False,1000,True,1.0
./expes/v2_2020-11-04_hbh_100-prng-1,30_base_hphc_100,100,first-100,31,rng,num-start-591,591,17520,4.81047248840332,True,,True,1,False,1000,True,1.0
./expes/v2_2020-11-04_hbh_100-prng-1,30_base_hphc_100,100,first-100,61,rng,num-start-761,761,17520,6.012269020080566,True,,True,1,False,1000,True,1.0
./expes/v2_2020-11-04_hbh_100-prng-1,30_base_hphc_100,100,first-100,31,rng,num-start-21,21,17520,1016.6264383792877,False,,False,1,True,1000,True,0.0
