expe,clients,clients_size,clients_subset,agg_size,method,days,days_size,days_total,time,valid,valid_sum,success,nsols,wall_hit,wall_time,pooled,valid_sums
./expes/v2_2020-11-04_hbh_100-prng-1,30_base_hphc_100,100,first-100,91,rng,num-start-431,431,17520,2.737274646759033,True,,True,1,False,1000,True,1.0
./expes/v2_2020-11-04_hbh_100-prng-1,30_base_hphc_100,100,first-100,1,rng,num-start-31,31,17520,0.16928386688232422,True,,True,1,False,1000,True,1.0
./expes/v2_2020-11-04_hbh_100-prng-1,30_base_hphc_100,100,first-100,71,rng,num-start-241,241,17520,1.7144379615783691,True,,True,1,False,1000,True,1.0
./expes/v2_2020-11-04_hbh_100-prng-1,30_base_hphc_100,100,first-100,11,rng,num-start-311,311,17520,2.145151138305664,True,,True,1,False,1000,True,1.0
./expes/v2_2020-11-04_hbh_100-prng-1,30_base_hphc_100,100,first-100,11,rng,num-start-961,961,17520,5.742328643798828,True,,True,1,False,1000,True,1.0
./expes/v2_2020-11-04_hbh_100-prng-1,30_base_hphc_100,100,first-100,91,rng,num-start-611,611,17520,3.8228542804718018,True,,True,1,False,1000,True,1.0
./expes/v2_2020-11-04_hbh_100-prng-1,30_base_hphc_100,100,first-100,61,rng,num-start-791,791,17520,5.6302807331085205,True,,True,1,False,1000,True,1.0
./expes/v2_2020-11-04_hbh_100-prng-1,30_base_hphc_100,100,first-100,91,rng,num-start-551,551,17520,3.5927891731262207,True,,True,1,False,1000,True,1.0
./expes/v2_2020-11-04_hbh_100-prng-1,30_base_hphc_100,100,first-100,21,rng,num-start-401,401,17520,3.1972808837890625,True,,True,1,False,1000,True,1.0
./expes/v2_2020-11-04_hbh_100-prng-1,30_base_hphc_100,100,first-100,71,rng,num-start-141,141,17520,1.2028977870941162,True,,True,1,False,1000,True,1.0
./expes/v2_2020-11-04_hbh_100-prng-1,30_base_hphc_100,100,first-100,71,rng,num-start-271,271,17520,2.0485165119171143,True,,True,1,False,1000,True,1.0
./expes/v2_2020-11-04_hbh_100-prng-1,30_base_hphc_100,100,first-100,51,rng,num-start-121,121,17520,1.112037181854248,True,,True,1,False,1000,True,1.0
./expes/v2_2020-11-04_hbh_100-prng-1,30_base_hphc_100,100,first-100,21,rng,num-start-551,551,17520,4.117248058319092,True,,True,1,False,1000,True,1.0
./expes/v2_2020-11-04_hbh_100-prng-1,30_base_hphc_100,100,first-100,71,rng,num-start-701,701,17520,5.2116005420684814,True,,True,1,False,1000,True,1.0
./expes/v2_2020-11-04_hbh_100-prng-1,30_base_hphc_100,100,first-100,41,rng,num-start-101,101,17520,0.8127021789550781,True,,True,1,False,1000,True,1.0
./expes/v2_2020-11-04_hbh_100-prng-1,30_base_hphc_100,100,first-100,11,rng,num-start-461,461,17520,3.193351984024048,True,,True,1,False,1000,True,1.0
./expes/v2_2020-11-04_hbh_100-prng-1,30_base_hphc_100,100,first-100,61,rng,num-start-871,871,17520,6.199934005737305,True,,True,1,False,1000,True,1.0
./expes/v2_2020-11-04_hbh_100-prng-1,30_base_hphc_100,100,first-100,1,rng,num-start-1,1,17520,0.13865351676940918,True,,False,2,False,1000,True,1.0
./expes/v2_2020-11-04_hbh_100-prng-1,30_base_hphc_100,100,first-100,51,rng,num-start-271,271,17520,2.344085216522217,True,,True,1,False,1000,True,1.0
./expes/v2_2020-11-04_hbh_100-prng-1,30_base_hphc_100,100,first-100,11,rng,num-start-971,971,17520,6.334521532058716,True,,True,1,False,1000,True,1.0
./expes/v2_2020-11-04_hbh_100-prng-1,30_base_hphc_100,100,first-100,21,rng,num-start-221,221,17520,1.7505290508270264,True,,True,1,False,1000,True,1.0
./expes/v2_2020-11-04_hbh_100-prng-1,30_base_hphc_100,100,first-100,11,rng,num-start-811,811,17520,5.688467741012573,True,,True,1,False,1000,True,1.0
./expes/v2_2020-11-04_hbh_100-prng-1,30_base_hphc_100,100,first-100,11,rng,num-start-51,51,17520,0.474384069442749,True,,True,1,False,1000,True,1.0
./expes/v2_2020-11-04_hbh_100-prng-1,30_base_hphc_100,100,first-100,91,rng,num-start-821,821,17520,4.808759927749634,True,,True,1,False,1000,True,1.0
./expes/v2_2020-11-04_hbh_100-prng-1,30_base_hphc_100,100,first-100,11,rng,num-start-11,11,17520,72.79216742515564,True,,True,1,False,1000,True,1.0
./expes/v2_2020-11-04_hbh_100-prng-1,30_base_hphc_100,100,first-100,91,rng,num-start-81,81,17520,0.7008254528045654,True,,True,1,False,1000,True,1.0
./expes/v2_2020-11-04_hbh_100-prng-1,30_base_hphc_100,100,first-100,41,rng,num-start-551,551,17520,4.163950681686401,True,,True,1,False,1000,True,1.0
./expes/v2_2020-11-04_hbh_100-prng-1,30_base_hphc_100,100,first-100,31,rng,num-start-201,201,17520,1.5950086116790771,True,,True,1,False,1000,True,1.0
./expes/v2_2020-11-04_hbh_100-prng-1,30_base_hphc_100,100,first-100,31,rng,num-start-411,411,17520,2.964374303817749,True,,True,1,False,1000,True,1.0
./expes/v2_2020-11-04_hbh_100-prng-1,30_base_hphc_100,100,first-100,31,rng,num-start-931,931,17520,7.105459928512573,True,,True,1,False,1000,True,1.0
./expes/v2_2020-11-04_hbh_100-prng-1,30_base_hphc_100,100,first-100,31,rng,num-start-741,741,17520,5.593687295913696,True,,True,1,False,1000,True,1.0
./expes/v2_2020-11-04_hbh_100-prng-1,30_base_hphc_100,100,first-100,41,rng,num-start-291,291,17520,2.287811756134033,True,,True,1,False,1000,True,1.0
./expes/v2_2020-11-04_hbh_100-prng-1,30_base_hphc_100,100,first-100,61,rng,num-start-321,321,17520,2.598482847213745,True,,True,1,False,1000,True,1.0
./expes/v2_2020-11-04_hbh_100-prng-1,30_base_hphc_100,100,first-100,71,rng,num-start-941,941,17520,7.292458772659302,True,,True,1,False,1000,True,1.0
