expe,clients,clients_size,clients_subset,agg_size,method,days,days_size,days_total,time,valid,valid_sum,success,nsols,wall_hit,wall_time,pooled,valid_sums
./expes/v2_2020-11-23_di_100-prng-3,daily_issda_100,100,rng-100,51,rng,num-start-281,281,536,3.013063907623291,True,,True,1,False,1000,True,1.0
./expes/v2_2020-11-23_di_100-prng-3,daily_issda_100,100,rng-100,11,rng,num-start-371,371,536,3.700279712677002,True,,True,1,False,1000,True,1.0
./expes/v2_2020-11-23_di_100-prng-3,daily_issda_100,100,rng-100,1,rng,num-start-1,1,536,0.014694929122924805,True,,True,1,False,1000,True,1.0
./expes/v2_2020-11-23_di_100-prng-3,daily_issda_100,100,rng-100,21,rng,num-start-271,271,536,2.764880657196045,True,,True,1,False,1000,True,1.0
./expes/v2_2020-11-23_di_100-prng-3,daily_issda_100,100,rng-100,1,rng,num-start-61,61,536,0.5589604377746582,True,,True,1,False,1000,True,1.0
./expes/v2_2020-11-23_di_100-prng-3,daily_issda_100,100,rng-100,61,rng,num-start-241,241,536,2.559908151626587,True,,True,1,False,1000,True,1.0
./expes/v2_2020-11-23_di_100-prng-3,daily_issda_100,100,rng-100,91,rng,num-start-401,401,536,4.015193462371826,True,,True,1,False,1000,True,1.0
./expes/v2_2020-11-23_di_100-prng-3,daily_issda_100,100,rng-100,31,rng,num-start-191,191,536,2.0888733863830566,True,,True,1,False,1000,True,1.0
./expes/v2_2020-11-23_di_100-prng-3,daily_issda_100,100,rng-100,71,rng,num-start-181,181,536,1.988617181777954,True,,True,1,False,1000,True,1.0
./expes/v2_2020-11-23_di_100-prng-3,daily_issda_100,100,rng-100,1,rng,num-start-131,131,536,1.1985771656036377,True,,True,1,False,1000,True,1.0
./expes/v2_2020-11-23_di_100-prng-3,daily_issda_100,100,rng-100,71,rng,num-start-91,91,536,1.055934190750122,True,,True,1,False,1000,True,1.0
./expes/v2_2020-11-23_di_100-prng-3,daily_issda_100,100,rng-100,71,rng,num-start-401,401,536,4.197145938873291,True,,True,1,False,1000,True,1.0
./expes/v2_2020-11-23_di_100-prng-3,daily_issda_100,100,rng-100,51,rng,num-start-491,491,536,5.042181730270386,True,,True,1,False,1000,True,1.0
./expes/v2_2020-11-23_di_100-prng-3,daily_issda_100,100,rng-100,51,rng,num-start-421,421,536,4.300184965133667,True,,True,1,False,1000,True,1.0
./expes/v2_2020-11-23_di_100-prng-3,daily_issda_100,100,rng-100,21,rng,num-start-471,471,536,5.11236572265625,True,,True,1,False,1000,True,1.0
./expes/v2_2020-11-23_di_100-prng-3,daily_issda_100,100,rng-100,51,rng,num-start-31,31,536,13.130679368972778,True,,True,1,False,1000,True,1.0
./expes/v2_2020-11-23_di_100-prng-3,daily_issda_100,100,rng-100,31,rng,num-start-431,431,536,4.675816774368286,True,,True,1,False,1000,True,1.0
./expes/v2_2020-11-23_di_100-prng-3,daily_issda_100,100,rng-100,1,rng,num-start-351,351,536,3.2420499324798584,True,,True,1,False,1000,True,1.0
./expes/v2_2020-11-23_di_100-prng-3,daily_issda_100,100,rng-100,21,rng,num-start-91,91,536,1.040207862854004,True,,True,1,False,1000,True,1.0
./expes/v2_2020-11-23_di_100-prng-3,daily_issda_100,100,rng-100,1,rng,num-start-361,361,536,3.3047597408294678,True,,True,1,False,1000,True,1.0
./expes/v2_2020-11-23_di_100-prng-3,daily_issda_100,100,rng-100,71,rng,num-start-101,101,536,1.1616108417510986,True,,True,1,False,1000,True,1.0
./expes/v2_2020-11-23_di_100-prng-3,daily_issda_100,100,rng-100,51,rng,num-start-71,71,536,0.8396978378295898,True,,True,1,False,1000,True,1.0
./expes/v2_2020-11-23_di_100-prng-3,daily_issda_100,100,rng-100,51,rng,num-start-221,221,536,2.5184497833251953,True,,True,1,False,1000,True,1.0
./expes/v2_2020-11-23_di_100-prng-3,daily_issda_100,100,rng-100,41,rng,num-start-51,51,536,0.678725004196167,True,,True,1,False,1000,True,1.0
./expes/v2_2020-11-23_di_100-prng-3,daily_issda_100,100,rng-100,1,rng,num-start-111,111,536,1.0259599685668945,True,,True,1,False,1000,True,1.0
./expes/v2_2020-11-23_di_100-prng-3,daily_issda_100,100,rng-100,31,rng,num-start-91,91,536,1.121422529220581,True,,True,1,False,1000,True,1.0
./expes/v2_2020-11-23_di_100-prng-3,daily_issda_100,100,rng-100,71,rng,num-start-171,171,536,1.9327681064605713,True,,True,1,False,1000,True,1.0
./expes/v2_2020-11-23_di_100-prng-3,daily_issda_100,100,rng-100,31,rng,num-start-291,291,536,3.198199987411499,True,,True,1,False,1000,True,1.0
./expes/v2_2020-11-23_di_100-prng-3,daily_issda_100,100,rng-100,1,rng,num-start-31,31,536,0.30156898498535156,True,,True,1,False,1000,True,1.0
./expes/v2_2020-11-23_di_100-prng-3,daily_issda_100,100,rng-100,41,rng,num-start-471,471,536,4.748436689376831,True,,True,1,False,1000,True,1.0
./expes/v2_2020-11-23_di_100-prng-3,daily_issda_100,100,rng-100,51,rng,num-start-141,141,536,1.6244096755981445,True,,True,1,False,1000,True,1.0
./expes/v2_2020-11-23_di_100-prng-3,daily_issda_100,100,rng-100,51,rng,num-start-131,131,536,1.4359288215637207,True,,True,1,False,1000,True,1.0
./expes/v2_2020-11-23_di_100-prng-3,daily_issda_100,100,rng-100,61,rng,num-start-1,1,536,0.779353141784668,False,,False,2,False,1000,True,1.0
./expes/v2_2020-11-23_di_100-prng-3,daily_issda_100,100,rng-100,11,rng,num-start-141,141,536,1.541940689086914,True,,True,1,False,1000,True,1.0
./expes/v2_2020-11-23_di_100-prng-3,daily_issda_100,100,rng-100,31,rng,num-start-121,121,536,1.3884124755859375,True,,True,1,False,1000,True,1.0
./expes/v2_2020-11-23_di_100-prng-3,daily_issda_100,100,rng-100,11,rng,num-start-181,181,536,1.9348034858703613,True,,True,1,False,1000,True,1.0
./expes/v2_2020-11-23_di_100-prng-3,daily_issda_100,100,rng-100,11,rng,num-start-491,491,536,4.911520004272461,True,,True,1,False,1000,True,1.0
./expes/v2_2020-11-23_di_100-prng-3,daily_issda_100,100,rng-100,1,rng,num-start-81,81,536,0.7350203990936279,True,,True,1,False,1000,True,1.0
./expes/v2_2020-11-23_di_100-prng-3,daily_issda_100,100,rng-100,21,rng,num-start-121,121,536,1.3584990501403809,True,,True,1,False,1000,True,1.0
./expes/v2_2020-11-23_di_100-prng-3,daily_issda_100,100,rng-100,31,rng,num-start-161,161,536,1.7883636951446533,True,,True,1,False,1000,True,1.0
./expes/v2_2020-11-23_di_100-prng-3,daily_issda_100,100,rng-100,91,rng,num-start-41,41,536,0.4950382709503174,True,,True,1,False,1000,True,1.0
./expes/v2_2020-11-23_di_100-prng-3,daily_issda_100,100,rng-100,11,rng,num-start-31,31,536,0.5196654796600342,True,,True,1,False,1000,True,1.0
./expes/v2_2020-11-23_di_100-prng-3,daily_issda_100,100,rng-100,31,rng,num-start-251,251,536,2.7105045318603516,True,,True,1,False,1000,True,1.0
./expes/v2_2020-11-23_di_100-prng-3,daily_issda_100,100,rng-100,31,rng,num-start-231,231,536,2.3997514247894287,True,,True,1,False,1000,True,1.0
./expes/v2_2020-11-23_di_100-prng-3,daily_issda_100,100,rng-100,1,rng,num-start-451,451,536,4.13380241394043,True,,True,1,False,1000,True,1.0
./expes/v2_2020-11-23_di_100-prng-3,daily_issda_100,100,rng-100,31,rng,num-start-11,11,536,1002.7332231998444,False,,False,0,True,1000,True,0.0
./expes/v2_2020-11-23_di_100-prng-3,daily_issda_100,100,rng-100,51,rng,num-start-281,281,536,2.933039665222168,True,,True,1,False,1000,True,1.0
./expes/v2_2020-11-23_di_100-prng-3,daily_issda_100,100,rng-100,11,rng,num-start-351,351,536,3.60502028465271,True,,True,1,False,1000,True,1.0
./expes/v2_2020-11-23_di_100-prng-3,daily_issda_100,100,rng-100,91,rng,num-start-281,281,536,2.794893503189087,True,,True,1,False,1000,True,1.0
./expes/v2_2020-11-23_di_100-prng-3,daily_issda_100,100,rng-100,71,rng,num-start-21,21,536,882.9901525974274,True,,True,1,False,1000,True,1.0
./expes/v2_2020-11-23_di_100-prng-3,daily_issda_100,100,rng-100,21,rng,num-start-301,301,536,3.1296896934509277,True,,True,1,False,1000,True,1.0
./expes/v2_2020-11-23_di_100-prng-3,daily_issda_100,100,rng-100,1,rng,num-start-441,441,536,4.233887195587158,True,,True,1,False,1000,True,1.0
./expes/v2_2020-11-23_di_100-prng-3,daily_issda_100,100,rng-100,91,rng,num-start-101,101,536,1.185133695602417,True,,True,1,False,1000,True,1.0
./expes/v2_2020-11-23_di_100-prng-3,daily_issda_100,100,rng-100,81,rng,num-start-311,311,536,3.3098862171173096,True,,True,1,False,1000,True,1.0
./expes/v2_2020-11-23_di_100-prng-3,daily_issda_100,100,rng-100,31,rng,num-start-111,111,536,1.240861177444458,True,,True,1,False,1000,True,1.0
./expes/v2_2020-11-23_di_100-prng-3,daily_issda_100,100,rng-100,1,rng,num-start-91,91,536,0.8560864925384521,True,,True,1,False,1000,True,1.0
./expes/v2_2020-11-23_di_100-prng-3,daily_issda_100,100,rng-100,41,rng,num-start-491,491,536,5.298734426498413,True,,True,1,False,1000,True,1.0
./expes/v2_2020-11-23_di_100-prng-3,daily_issda_100,100,rng-100,51,rng,num-start-291,291,536,3.2910261154174805,True,,True,1,False,1000,True,1.0
./expes/v2_2020-11-23_di_100-prng-3,daily_issda_100,100,rng-100,51,rng,num-start-141,141,536,1.6638195514678955,True,,True,1,False,1000,True,1.0
./expes/v2_2020-11-23_di_100-prng-3,daily_issda_100,100,rng-100,61,rng,num-start-121,121,536,1.4089136123657227,True,,True,1,False,1000,True,1.0
./expes/v2_2020-11-23_di_100-prng-3,daily_issda_100,100,rng-100,11,rng,num-start-341,341,536,3.5392847061157227,True,,True,1,False,1000,True,1.0
./expes/v2_2020-11-23_di_100-prng-3,daily_issda_100,100,rng-100,61,rng,num-start-131,131,536,1.5605356693267822,True,,True,1,False,1000,True,1.0
./expes/v2_2020-11-23_di_100-prng-3,daily_issda_100,100,rng-100,51,rng,num-start-31,31,536,0.6415383815765381,True,,True,1,False,1000,True,1.0
./expes/v2_2020-11-23_di_100-prng-3,daily_issda_100,100,rng-100,61,rng,num-start-401,401,536,4.203568696975708,True,,True,1,False,1000,True,1.0
./expes/v2_2020-11-23_di_100-prng-3,daily_issda_100,100,rng-100,81,rng,num-start-1,1,536,0.6386406421661377,False,,False,2,False,1000,True,1.0
./expes/v2_2020-11-23_di_100-prng-3,daily_issda_100,100,rng-100,81,rng,num-start-271,271,536,2.848672389984131,True,,True,1,False,1000,True,1.0
./expes/v2_2020-11-23_di_100-prng-3,daily_issda_100,100,rng-100,91,rng,num-start-381,381,536,4.07924747467041,True,,True,1,False,1000,True,1.0
./expes/v2_2020-11-23_di_100-prng-3,daily_issda_100,100,rng-100,1,rng,num-start-41,41,536,0.3766670227050781,True,,True,1,False,1000,True,1.0
./expes/v2_2020-11-23_di_100-prng-3,daily_issda_100,100,rng-100,21,rng,num-start-411,411,536,4.071397066116333,True,,True,1,False,1000,True,1.0
./expes/v2_2020-11-23_di_100-prng-3,daily_issda_100,100,rng-100,31,rng,num-start-71,71,536,0.796741247177124,True,,True,1,False,1000,True,1.0
./expes/v2_2020-11-23_di_100-prng-3,daily_issda_100,100,rng-100,1,rng,num-start-101,101,536,0.918543815612793,True,,True,1,False,1000,True,1.0
./expes/v2_2020-11-23_di_100-prng-3,daily_issda_100,100,rng-100,11,rng,num-start-321,321,536,3.4132769107818604,True,,True,1,False,1000,True,1.0
./expes/v2_2020-11-23_di_100-prng-3,daily_issda_100,100,rng-100,41,rng,num-start-261,261,536,2.677706480026245,True,,True,1,False,1000,True,1.0
./expes/v2_2020-11-23_di_100-prng-3,daily_issda_100,100,rng-100,61,rng,num-start-291,291,536,3.147841691970825,True,,True,1,False,1000,True,1.0
./expes/v2_2020-11-23_di_100-prng-3,daily_issda_100,100,rng-100,21,rng,num-start-11,11,536,1006.9098720550537,False,,False,0,True,1000,True,0.0
./expes/v2_2020-11-23_di_100-prng-3,daily_issda_100,100,rng-100,21,rng,num-start-231,231,536,2.4140405654907227,True,,True,1,False,1000,True,1.0
./expes/v2_2020-11-23_di_100-prng-3,daily_issda_100,100,rng-100,41,rng,num-start-431,431,536,4.597616195678711,True,,True,1,False,1000,True,1.0
./expes/v2_2020-11-23_di_100-prng-3,daily_issda_100,100,rng-100,51,rng,num-start-341,341,536,3.5494909286499023,True,,True,1,False,1000,True,1.0
./expes/v2_2020-11-23_di_100-prng-3,daily_issda_100,100,rng-100,91,rng,num-start-451,451,536,4.830477237701416,True,,True,1,False,1000,True,1.0
./expes/v2_2020-11-23_di_100-prng-3,daily_issda_100,100,rng-100,61,rng,num-start-461,461,536,4.577319860458374,True,,True,1,False,1000,True,1.0
./expes/v2_2020-11-23_di_100-prng-3,daily_issda_100,100,rng-100,81,rng,num-start-71,71,536,0.8006336688995361,True,,True,1,False,1000,True,1.0
./expes/v2_2020-11-23_di_100-prng-3,daily_issda_100,100,rng-100,31,rng,num-start-191,191,536,2.0689120292663574,True,,True,1,False,1000,True,1.0
./expes/v2_2020-11-23_di_100-prng-3,daily_issda_100,100,rng-100,51,rng,num-start-81,81,536,0.9579999446868896,True,,True,1,False,1000,True,1.0
./expes/v2_2020-11-23_di_100-prng-3,daily_issda_100,100,rng-100,61,rng,num-start-281,281,536,3.127718687057495,True,,True,1,False,1000,True,1.0
./expes/v2_2020-11-23_di_100-prng-3,daily_issda_100,100,rng-100,41,rng,num-start-1,1,536,0.39444899559020996,False,,False,2,False,1000,True,1.0
./expes/v2_2020-11-23_di_100-prng-3,daily_issda_100,100,rng-100,11,rng,num-start-41,41,536,0.47722792625427246,True,,True,1,False,1000,True,1.0
./expes/v2_2020-11-23_di_100-prng-3,daily_issda_100,100,rng-100,71,rng,num-start-311,311,536,3.0875658988952637,True,,True,1,False,1000,True,1.0
./expes/v2_2020-11-23_di_100-prng-3,daily_issda_100,100,rng-100,21,rng,num-start-311,311,536,3.3306760787963867,True,,True,1,False,1000,True,1.0
./expes/v2_2020-11-23_di_100-prng-3,daily_issda_100,100,rng-100,31,rng,num-start-231,231,536,2.5183663368225098,True,,True,1,False,1000,True,1.0
./expes/v2_2020-11-23_di_100-prng-3,daily_issda_100,100,rng-100,71,rng,num-start-61,61,536,0.7029047012329102,True,,True,1,False,1000,True,1.0
./expes/v2_2020-11-23_di_100-prng-3,daily_issda_100,100,rng-100,61,rng,num-start-241,241,536,2.622368812561035,True,,True,1,False,1000,True,1.0
./expes/v2_2020-11-23_di_100-prng-3,daily_issda_100,100,rng-100,31,rng,num-start-121,121,536,1.3831853866577148,True,,True,1,False,1000,True,1.0
./expes/v2_2020-11-23_di_100-prng-3,daily_issda_100,100,rng-100,11,rng,num-start-31,31,536,0.38347387313842773,True,,True,1,False,1000,True,1.0
./expes/v2_2020-11-23_di_100-prng-3,daily_issda_100,100,rng-100,41,rng,num-start-301,301,536,3.003239154815674,True,,True,1,False,1000,True,1.0
./expes/v2_2020-11-23_di_100-prng-3,daily_issda_100,100,rng-100,11,rng,num-start-41,41,536,0.48371195793151855,True,,True,1,False,1000,True,1.0
./expes/v2_2020-11-23_di_100-prng-3,daily_issda_100,100,rng-100,21,rng,num-start-31,31,536,0.7213518619537354,True,,True,1,False,1000,True,1.0
./expes/v2_2020-11-23_di_100-prng-3,daily_issda_100,100,rng-100,11,rng,num-start-41,41,536,0.5273261070251465,True,,True,1,False,1000,True,1.0
./expes/v2_2020-11-23_di_100-prng-3,daily_issda_100,100,rng-100,31,rng,num-start-11,11,536,1000.1650815010071,False,,False,0,True,1000,True,0.0
