expe,clients,clients_size,clients_subset,agg_size,agg_size_pc,method,days,days_size,days_total,noise_method,time,valid,valid_sum,success,nsols,wall_hit,wall_time,pooled,valid_sums
./expes/v2_2021-01-07_di_4500-prng-w5-1,issda-4500,4500,rng-4500,1008,22,rng,num-start-171,171,536,normal,68.31720113754272,False,,False,2,False,5000,True,0.0
./expes/v2_2021-01-07_di_4500-prng-w5-1,issda-4500,4500,rng-4500,336,7,rng,num-start-161,161,536,normal,65.12173652648926,False,,False,2,False,5000,True,0.0
./expes/v2_2021-01-07_di_4500-prng-w5-1,issda-4500,4500,rng-4500,1456,32,rng,num-start-121,121,536,normal,47.874385595321655,False,,False,2,False,5000,True,0.0
./expes/v2_2021-01-07_di_4500-prng-w5-1,issda-4500,4500,rng-4500,1232,27,rng,num-start-71,71,536,normal,28.571937322616577,False,,False,2,False,5000,True,0.0
./expes/v2_2021-01-07_di_4500-prng-w5-1,issda-4500,4500,rng-4500,1232,27,rng,num-start-201,201,536,normal,81.18244218826294,False,,False,2,False,5000,True,0.0
./expes/v2_2021-01-07_di_4500-prng-w5-1,issda-4500,4500,rng-4500,224,4,rng,num-start-231,231,536,normal,103.52042007446289,False,,False,2,False,5000,True,0.0
./expes/v2_2021-01-07_di_4500-prng-w5-1,issda-4500,4500,rng-4500,2016,44,rng,num-start-281,281,536,normal,106.98957705497742,False,,False,2,False,5000,True,0.0
