expe,clients,clients_size,clients_subset,agg_size,method,days,days_size,days_total,time,valid,valid_sum,success,nsols,wall_hit,wall_time,pooled,valid_sums
./expes/v2_2020-12-03_dh_250-prng-1,30_issda_250,250,rng-250,71,rng,num-start-611,611,25726,10.708630800247192,True,,True,1,False,1000,True,1.0
./expes/v2_2020-12-03_dh_250-prng-1,30_issda_250,250,rng-250,221,rng,num-start-681,681,25726,10.12547516822815,True,,True,1,False,1000,True,1.0
./expes/v2_2020-12-03_dh_250-prng-1,30_issda_250,250,rng-250,121,rng,num-start-331,331,25726,6.219826698303223,True,,True,1,False,1000,True,1.0
./expes/v2_2020-12-03_dh_250-prng-1,30_issda_250,250,rng-250,1,rng,num-start-791,791,25726,9.72603440284729,True,,True,1,False,1000,True,1.0
./expes/v2_2020-12-03_dh_250-prng-1,30_issda_250,250,rng-250,71,rng,num-start-131,131,25726,2.3509483337402344,True,,True,1,False,1000,True,1.0
./expes/v2_2020-12-03_dh_250-prng-1,30_issda_250,250,rng-250,101,rng,num-start-631,631,25726,10.511401414871216,True,,True,1,False,1000,True,1.0
./expes/v2_2020-12-03_dh_250-prng-1,30_issda_250,250,rng-250,151,rng,num-start-281,281,25726,5.141458749771118,True,,True,1,False,1000,True,1.0
./expes/v2_2020-12-03_dh_250-prng-1,30_issda_250,250,rng-250,71,rng,num-start-311,311,25726,4.834396123886108,True,,True,1,False,1000,True,1.0
./expes/v2_2020-12-03_dh_250-prng-1,30_issda_250,250,rng-250,241,rng,num-start-11,11,25726,2.022590160369873,True,,True,1,False,1000,True,1.0
./expes/v2_2020-12-03_dh_250-prng-1,30_issda_250,250,rng-250,1,rng,num-start-701,701,25726,8.770346879959106,True,,True,1,False,1000,True,1.0
./expes/v2_2020-12-03_dh_250-prng-1,30_issda_250,250,rng-250,181,rng,num-start-851,851,25726,17.07205104827881,True,,True,1,False,1000,True,1.0
./expes/v2_2020-12-03_dh_250-prng-1,30_issda_250,250,rng-250,41,rng,num-start-151,151,25726,2.761256456375122,True,,True,1,False,1000,True,1.0
./expes/v2_2020-12-03_dh_250-prng-1,30_issda_250,250,rng-250,81,rng,num-start-651,651,25726,10.635860919952393,True,,True,1,False,1000,True,1.0
./expes/v2_2020-12-03_dh_250-prng-1,30_issda_250,250,rng-250,201,rng,num-start-501,501,25726,7.707123517990112,True,,True,1,False,1000,True,1.0
./expes/v2_2020-12-03_dh_250-prng-1,30_issda_250,250,rng-250,161,rng,num-start-791,791,25726,15.486875057220459,True,,True,1,False,1000,True,1.0
./expes/v2_2020-12-03_dh_250-prng-1,30_issda_250,250,rng-250,111,rng,num-start-691,691,25726,14.464229106903076,True,,True,1,False,1000,True,1.0
./expes/v2_2020-12-03_dh_250-prng-1,30_issda_250,250,rng-250,31,rng,num-start-881,881,25726,17.389206171035767,True,,True,1,False,1000,True,1.0
./expes/v2_2020-12-03_dh_250-prng-1,30_issda_250,250,rng-250,1,rng,num-start-151,151,25726,1.8936207294464111,True,,True,1,False,1000,True,1.0
./expes/v2_2020-12-03_dh_250-prng-1,30_issda_250,250,rng-250,121,rng,num-start-771,771,25726,16.51476550102234,True,,True,1,False,1000,True,1.0
./expes/v2_2020-12-03_dh_250-prng-1,30_issda_250,250,rng-250,221,rng,num-start-221,221,25726,3.7242980003356934,True,,True,1,False,1000,True,1.0
./expes/v2_2020-12-03_dh_250-prng-1,30_issda_250,250,rng-250,31,rng,num-start-611,611,25726,10.489131927490234,True,,True,1,False,1000,True,1.0
./expes/v2_2020-12-03_dh_250-prng-1,30_issda_250,250,rng-250,21,rng,num-start-951,951,25726,15.998392820358276,True,,True,1,False,1000,True,1.0
./expes/v2_2020-12-03_dh_250-prng-1,30_issda_250,250,rng-250,31,rng,num-start-41,41,25726,9.984821081161499,True,,True,1,False,1000,True,1.0
./expes/v2_2020-12-03_dh_250-prng-1,30_issda_250,250,rng-250,121,rng,num-start-51,51,25726,1000.7530632019043,False,,False,0,True,1000,True,0.0
./expes/v2_2020-12-03_dh_250-prng-1,30_issda_250,250,rng-250,121,rng,num-start-971,971,25726,19.29853916168213,True,,True,1,False,1000,True,1.0
./expes/v2_2020-12-03_dh_250-prng-1,30_issda_250,250,rng-250,11,rng,num-start-931,931,25726,13.503729104995728,True,,True,1,False,1000,True,1.0
./expes/v2_2020-12-03_dh_250-prng-1,30_issda_250,250,rng-250,91,rng,num-start-801,801,25726,14.688931703567505,True,,True,1,False,1000,True,1.0
./expes/v2_2020-12-03_dh_250-prng-1,30_issda_250,250,rng-250,81,rng,num-start-511,511,25726,9.327799797058105,True,,True,1,False,1000,True,1.0
./expes/v2_2020-12-03_dh_250-prng-1,30_issda_250,250,rng-250,121,rng,num-start-81,81,25726,16.278799057006836,True,,True,1,False,1000,True,1.0
./expes/v2_2020-12-03_dh_250-prng-1,30_issda_250,250,rng-250,101,rng,num-start-731,731,25726,14.69295358657837,True,,True,1,False,1000,True,1.0
./expes/v2_2020-12-03_dh_250-prng-1,30_issda_250,250,rng-250,61,rng,num-start-661,661,25726,10.839439630508423,True,,True,1,False,1000,True,1.0
./expes/v2_2020-12-03_dh_250-prng-1,30_issda_250,250,rng-250,41,rng,num-start-271,271,25726,5.106806039810181,True,,True,1,False,1000,True,1.0
./expes/v2_2020-12-03_dh_250-prng-1,30_issda_250,250,rng-250,231,rng,num-start-461,461,25726,7.638035774230957,True,,True,1,False,1000,True,1.0
./expes/v2_2020-12-03_dh_250-prng-1,30_issda_250,250,rng-250,231,rng,num-start-341,341,25726,5.771014213562012,True,,True,1,False,1000,True,1.0
./expes/v2_2020-12-03_dh_250-prng-1,30_issda_250,250,rng-250,171,rng,num-start-541,541,25726,10.137471437454224,True,,True,1,False,1000,True,1.0
./expes/v2_2020-12-03_dh_250-prng-1,30_issda_250,250,rng-250,161,rng,num-start-411,411,25726,6.795895099639893,True,,True,1,False,1000,True,1.0
./expes/v2_2020-12-03_dh_250-prng-1,30_issda_250,250,rng-250,81,rng,num-start-981,981,25726,18.37895894050598,True,,True,1,False,1000,True,1.0
./expes/v2_2020-12-03_dh_250-prng-1,30_issda_250,250,rng-250,21,rng,num-start-171,171,25726,2.886873722076416,True,,True,1,False,1000,True,1.0
./expes/v2_2020-12-03_dh_250-prng-1,30_issda_250,250,rng-250,41,rng,num-start-941,941,25726,17.116163969039917,True,,True,1,False,1000,True,1.0
./expes/v2_2020-12-03_dh_250-prng-1,30_issda_250,250,rng-250,131,rng,num-start-11,11,25726,1000.3775260448456,False,,False,0,True,1000,True,0.0
./expes/v2_2020-12-03_dh_250-prng-1,30_issda_250,250,rng-250,161,rng,num-start-331,331,25726,6.353640794754028,True,,True,1,False,1000,True,1.0
./expes/v2_2020-12-03_dh_250-prng-1,30_issda_250,250,rng-250,101,rng,num-start-781,781,25726,16.130985736846924,True,,True,1,False,1000,True,1.0
./expes/v2_2020-12-03_dh_250-prng-1,30_issda_250,250,rng-250,181,rng,num-start-671,671,25726,13.13267993927002,True,,True,1,False,1000,True,1.0
./expes/v2_2020-12-03_dh_250-prng-1,30_issda_250,250,rng-250,201,rng,num-start-131,131,25726,2.5890421867370605,True,,True,1,False,1000,True,1.0
./expes/v2_2020-12-03_dh_250-prng-1,30_issda_250,250,rng-250,241,rng,num-start-101,101,25726,2.0908708572387695,True,,True,1,False,1000,True,1.0
./expes/v2_2020-12-03_dh_250-prng-1,30_issda_250,250,rng-250,91,rng,num-start-711,711,25726,14.952000379562378,True,,True,1,False,1000,True,1.0
./expes/v2_2020-12-03_dh_250-prng-1,30_issda_250,250,rng-250,181,rng,num-start-741,741,25726,13.785438060760498,True,,True,1,False,1000,True,1.0
./expes/v2_2020-12-03_dh_250-prng-1,30_issda_250,250,rng-250,241,rng,num-start-391,391,25726,5.174225807189941,True,,True,1,False,1000,True,1.0
./expes/v2_2020-12-03_dh_250-prng-1,30_issda_250,250,rng-250,101,rng,num-start-371,371,25726,6.374480485916138,True,,True,1,False,1000,True,1.0
./expes/v2_2020-12-03_dh_250-prng-1,30_issda_250,250,rng-250,231,rng,num-start-411,411,25726,5.7557289600372314,True,,True,1,False,1000,True,1.0
./expes/v2_2020-12-03_dh_250-prng-1,30_issda_250,250,rng-250,31,rng,num-start-811,811,25726,13.513574361801147,True,,True,1,False,1000,True,1.0
./expes/v2_2020-12-03_dh_250-prng-1,30_issda_250,250,rng-250,141,rng,num-start-61,61,25726,1000.88623213768,False,,False,0,True,1000,True,0.0
./expes/v2_2020-12-03_dh_250-prng-1,30_issda_250,250,rng-250,101,rng,num-start-351,351,25726,6.1999499797821045,True,,True,1,False,1000,True,1.0
./expes/v2_2020-12-03_dh_250-prng-1,30_issda_250,250,rng-250,201,rng,num-start-931,931,25726,16.44526505470276,True,,True,1,False,1000,True,1.0
./expes/v2_2020-12-03_dh_250-prng-1,30_issda_250,250,rng-250,181,rng,num-start-501,501,25726,10.569947957992554,True,,True,1,False,1000,True,1.0
./expes/v2_2020-12-03_dh_250-prng-1,30_issda_250,250,rng-250,11,rng,num-start-271,271,25726,4.058290481567383,True,,True,1,False,1000,True,1.0
./expes/v2_2020-12-03_dh_250-prng-1,30_issda_250,250,rng-250,101,rng,num-start-541,541,25726,10.327255725860596,True,,True,1,False,1000,True,1.0
./expes/v2_2020-12-03_dh_250-prng-1,30_issda_250,250,rng-250,161,rng,num-start-521,521,25726,12.303635120391846,True,,True,1,False,1000,True,1.0
./expes/v2_2020-12-03_dh_250-prng-1,30_issda_250,250,rng-250,101,rng,num-start-911,911,25726,19.927400588989258,True,,True,1,False,1000,True,1.0
./expes/v2_2020-12-03_dh_250-prng-1,30_issda_250,250,rng-250,101,rng,num-start-401,401,25726,7.909251689910889,True,,True,1,False,1000,True,1.0
./expes/v2_2020-12-03_dh_250-prng-1,30_issda_250,250,rng-250,181,rng,num-start-941,941,25726,19.656797647476196,True,,True,1,False,1000,True,1.0
./expes/v2_2020-12-03_dh_250-prng-1,30_issda_250,250,rng-250,231,rng,num-start-511,511,25726,10.303699731826782,True,,True,1,False,1000,True,1.0
./expes/v2_2020-12-03_dh_250-prng-1,30_issda_250,250,rng-250,241,rng,num-start-501,501,25726,8.025585651397705,True,,True,1,False,1000,True,1.0
./expes/v2_2020-12-03_dh_250-prng-1,30_issda_250,250,rng-250,161,rng,num-start-731,731,25726,12.754974603652954,True,,True,1,False,1000,True,1.0
./expes/v2_2020-12-03_dh_250-prng-1,30_issda_250,250,rng-250,161,rng,num-start-291,291,25726,4.522406101226807,True,,True,1,False,1000,True,1.0
./expes/v2_2020-12-03_dh_250-prng-1,30_issda_250,250,rng-250,41,rng,num-start-111,111,25726,2.1650450229644775,True,,True,1,False,1000,True,1.0
./expes/v2_2020-12-03_dh_250-prng-1,30_issda_250,250,rng-250,171,rng,num-start-21,21,25726,1000.452957868576,False,,False,0,True,1000,True,0.0
./expes/v2_2020-12-03_dh_250-prng-1,30_issda_250,250,rng-250,141,rng,num-start-301,301,25726,6.153387069702148,True,,True,1,False,1000,True,1.0
./expes/v2_2020-12-03_dh_250-prng-1,30_issda_250,250,rng-250,71,rng,num-start-161,161,25726,2.860102415084839,True,,True,1,False,1000,True,1.0
./expes/v2_2020-12-03_dh_250-prng-1,30_issda_250,250,rng-250,11,rng,num-start-771,771,25726,9.46416449546814,True,,True,1,False,1000,True,1.0
./expes/v2_2020-12-03_dh_250-prng-1,30_issda_250,250,rng-250,101,rng,num-start-461,461,25726,8.265924215316772,True,,True,1,False,1000,True,1.0
./expes/v2_2020-12-03_dh_250-prng-1,30_issda_250,250,rng-250,211,rng,num-start-561,561,25726,12.304050922393799,True,,True,1,False,1000,True,1.0
./expes/v2_2020-12-03_dh_250-prng-1,30_issda_250,250,rng-250,171,rng,num-start-731,731,25726,13.531318187713623,True,,True,1,False,1000,True,1.0
./expes/v2_2020-12-03_dh_250-prng-1,30_issda_250,250,rng-250,151,rng,num-start-31,31,25726,1000.7101294994354,False,,False,0,True,1000,True,0.0
./expes/v2_2020-12-03_dh_250-prng-1,30_issda_250,250,rng-250,111,rng,num-start-661,661,25726,13.228729724884033,True,,True,1,False,1000,True,1.0
./expes/v2_2020-12-03_dh_250-prng-1,30_issda_250,250,rng-250,61,rng,num-start-481,481,25726,8.19971227645874,True,,True,1,False,1000,True,1.0
./expes/v2_2020-12-03_dh_250-prng-1,30_issda_250,250,rng-250,61,rng,num-start-311,311,25726,5.078289985656738,True,,True,1,False,1000,True,1.0
./expes/v2_2020-12-03_dh_250-prng-1,30_issda_250,250,rng-250,211,rng,num-start-811,811,25726,15.098552227020264,True,,True,1,False,1000,True,1.0
./expes/v2_2020-12-03_dh_250-prng-1,30_issda_250,250,rng-250,1,rng,num-start-821,821,25726,10.555675029754639,True,,True,1,False,1000,True,1.0
./expes/v2_2020-12-03_dh_250-prng-1,30_issda_250,250,rng-250,111,rng,num-start-201,201,25726,4.009786367416382,True,,True,1,False,1000,True,1.0
./expes/v2_2020-12-03_dh_250-prng-1,30_issda_250,250,rng-250,51,rng,num-start-881,881,25726,13.411258459091187,True,,True,1,False,1000,True,1.0
./expes/v2_2020-12-03_dh_250-prng-1,30_issda_250,250,rng-250,11,rng,num-start-931,931,25726,12.459409713745117,True,,True,1,False,1000,True,1.0
./expes/v2_2020-12-03_dh_250-prng-1,30_issda_250,250,rng-250,171,rng,num-start-471,471,25726,7.501667022705078,True,,True,1,False,1000,True,1.0
./expes/v2_2020-12-03_dh_250-prng-1,30_issda_250,250,rng-250,111,rng,num-start-931,931,25726,15.926653385162354,True,,True,1,False,1000,True,1.0
./expes/v2_2020-12-03_dh_250-prng-1,30_issda_250,250,rng-250,221,rng,num-start-411,411,25726,6.10114598274231,True,,True,1,False,1000,True,1.0
