expe,clients,clients_size,clients_subset,agg_size,method,days,days_size,days_total,time,valid,valid_sum,success,nsols,wall_hit,wall_time,pooled,valid_sums
./expes/v2_2020-12-03_dh_250-prng-1,30_issda_250,250,rng-250,111,rng,num-start-921,921,25726,15.90620493888855,True,,True,1,False,1000,True,1.0
./expes/v2_2020-12-03_dh_250-prng-1,30_issda_250,250,rng-250,111,rng,num-start-491,491,25726,8.665128946304321,True,,True,1,False,1000,True,1.0
./expes/v2_2020-12-03_dh_250-prng-1,30_issda_250,250,rng-250,1,rng,num-start-281,281,25726,3.6234235763549805,True,,True,1,False,1000,True,1.0
./expes/v2_2020-12-03_dh_250-prng-1,30_issda_250,250,rng-250,31,rng,num-start-441,441,25726,7.3266942501068115,True,,True,1,False,1000,True,1.0
./expes/v2_2020-12-03_dh_250-prng-1,30_issda_250,250,rng-250,121,rng,num-start-431,431,25726,8.17862582206726,True,,True,1,False,1000,True,1.0
./expes/v2_2020-12-03_dh_250-prng-1,30_issda_250,250,rng-250,211,rng,num-start-121,121,25726,2.2658474445343018,True,,True,1,False,1000,True,1.0
./expes/v2_2020-12-03_dh_250-prng-1,30_issda_250,250,rng-250,61,rng,num-start-211,211,25726,3.9069719314575195,True,,True,1,False,1000,True,1.0
./expes/v2_2020-12-03_dh_250-prng-1,30_issda_250,250,rng-250,61,rng,num-start-831,831,25726,17.924532890319824,True,,True,1,False,1000,True,1.0
./expes/v2_2020-12-03_dh_250-prng-1,30_issda_250,250,rng-250,191,rng,num-start-101,101,25726,1.9065167903900146,True,,True,1,False,1000,True,1.0
./expes/v2_2020-12-03_dh_250-prng-1,30_issda_250,250,rng-250,41,rng,num-start-671,671,25726,14.48656439781189,True,,True,1,False,1000,True,1.0
./expes/v2_2020-12-03_dh_250-prng-1,30_issda_250,250,rng-250,131,rng,num-start-521,521,25726,8.692540884017944,True,,True,1,False,1000,True,1.0
./expes/v2_2020-12-03_dh_250-prng-1,30_issda_250,250,rng-250,171,rng,num-start-621,621,25726,11.157278299331665,True,,True,1,False,1000,True,1.0
./expes/v2_2020-12-03_dh_250-prng-1,30_issda_250,250,rng-250,221,rng,num-start-71,71,25726,2.6684370040893555,True,,True,1,False,1000,True,1.0
./expes/v2_2020-12-03_dh_250-prng-1,30_issda_250,250,rng-250,131,rng,num-start-21,21,25726,1000.5182845592499,False,,False,0,True,1000,True,0.0
./expes/v2_2020-12-03_dh_250-prng-1,30_issda_250,250,rng-250,21,rng,num-start-131,131,25726,2.1709067821502686,True,,True,1,False,1000,True,1.0
./expes/v2_2020-12-03_dh_250-prng-1,30_issda_250,250,rng-250,231,rng,num-start-341,341,25726,5.7505943775177,True,,True,1,False,1000,True,1.0
./expes/v2_2020-12-03_dh_250-prng-1,30_issda_250,250,rng-250,161,rng,num-start-721,721,25726,16.492938995361328,True,,True,1,False,1000,True,1.0
./expes/v2_2020-12-03_dh_250-prng-1,30_issda_250,250,rng-250,211,rng,num-start-141,141,25726,2.4515297412872314,True,,True,1,False,1000,True,1.0
./expes/v2_2020-12-03_dh_250-prng-1,30_issda_250,250,rng-250,181,rng,num-start-941,941,25726,17.165123224258423,True,,True,1,False,1000,True,1.0
./expes/v2_2020-12-03_dh_250-prng-1,30_issda_250,250,rng-250,241,rng,num-start-101,101,25726,1.5703072547912598,True,,True,1,False,1000,True,1.0
./expes/v2_2020-12-03_dh_250-prng-1,30_issda_250,250,rng-250,31,rng,num-start-741,741,25726,13.66045331954956,True,,True,1,False,1000,True,1.0
./expes/v2_2020-12-03_dh_250-prng-1,30_issda_250,250,rng-250,211,rng,num-start-921,921,25726,18.111080169677734,True,,True,1,False,1000,True,1.0
./expes/v2_2020-12-03_dh_250-prng-1,30_issda_250,250,rng-250,161,rng,num-start-971,971,25726,16.47327709197998,True,,True,1,False,1000,True,1.0
./expes/v2_2020-12-03_dh_250-prng-1,30_issda_250,250,rng-250,131,rng,num-start-951,951,25726,20.27594232559204,True,,True,1,False,1000,True,1.0
./expes/v2_2020-12-03_dh_250-prng-1,30_issda_250,250,rng-250,21,rng,num-start-1,1,25726,0.11171865463256836,False,,False,2,False,1000,True,1.0
./expes/v2_2020-12-03_dh_250-prng-1,30_issda_250,250,rng-250,131,rng,num-start-831,831,25726,15.033151149749756,True,,True,1,False,1000,True,1.0
./expes/v2_2020-12-03_dh_250-prng-1,30_issda_250,250,rng-250,1,rng,num-start-551,551,25726,7.056354761123657,True,,True,1,False,1000,True,1.0
./expes/v2_2020-12-03_dh_250-prng-1,30_issda_250,250,rng-250,211,rng,num-start-711,711,25726,13.736788272857666,True,,True,1,False,1000,True,1.0
./expes/v2_2020-12-03_dh_250-prng-1,30_issda_250,250,rng-250,21,rng,num-start-461,461,25726,7.817139625549316,True,,True,1,False,1000,True,1.0
./expes/v2_2020-12-03_dh_250-prng-1,30_issda_250,250,rng-250,141,rng,num-start-61,61,25726,1000.8843545913696,False,,False,0,True,1000,True,0.0
./expes/v2_2020-12-03_dh_250-prng-1,30_issda_250,250,rng-250,171,rng,num-start-531,531,25726,10.264671564102173,True,,True,1,False,1000,True,1.0
./expes/v2_2020-12-03_dh_250-prng-1,30_issda_250,250,rng-250,211,rng,num-start-301,301,25726,5.138550519943237,True,,True,1,False,1000,True,1.0
./expes/v2_2020-12-03_dh_250-prng-1,30_issda_250,250,rng-250,21,rng,num-start-951,951,25726,16.326294660568237,True,,True,1,False,1000,True,1.0
./expes/v2_2020-12-03_dh_250-prng-1,30_issda_250,250,rng-250,81,rng,num-start-701,701,25726,12.904798030853271,True,,True,1,False,1000,True,1.0
./expes/v2_2020-12-03_dh_250-prng-1,30_issda_250,250,rng-250,151,rng,num-start-301,301,25726,5.349040508270264,True,,True,1,False,1000,True,1.0
./expes/v2_2020-12-03_dh_250-prng-1,30_issda_250,250,rng-250,51,rng,num-start-861,861,25726,16.86307406425476,True,,True,1,False,1000,True,1.0
./expes/v2_2020-12-03_dh_250-prng-1,30_issda_250,250,rng-250,111,rng,num-start-391,391,25726,7.321830987930298,True,,True,1,False,1000,True,1.0
./expes/v2_2020-12-03_dh_250-prng-1,30_issda_250,250,rng-250,211,rng,num-start-951,951,25726,16.30307960510254,True,,True,1,False,1000,True,1.0
./expes/v2_2020-12-03_dh_250-prng-1,30_issda_250,250,rng-250,121,rng,num-start-851,851,25726,15.90993332862854,True,,True,1,False,1000,True,1.0
./expes/v2_2020-12-03_dh_250-prng-1,30_issda_250,250,rng-250,141,rng,num-start-301,301,25726,5.734333276748657,True,,True,1,False,1000,True,1.0
./expes/v2_2020-12-03_dh_250-prng-1,30_issda_250,250,rng-250,211,rng,num-start-151,151,25726,3.062162399291992,True,,True,1,False,1000,True,1.0
./expes/v2_2020-12-03_dh_250-prng-1,30_issda_250,250,rng-250,211,rng,num-start-831,831,25726,14.493717432022095,True,,True,1,False,1000,True,1.0
./expes/v2_2020-12-03_dh_250-prng-1,30_issda_250,250,rng-250,171,rng,num-start-91,91,25726,3.245500326156616,True,,True,1,False,1000,True,1.0
./expes/v2_2020-12-03_dh_250-prng-1,30_issda_250,250,rng-250,131,rng,num-start-31,31,25726,1001.1424667835236,False,,False,0,True,1000,True,0.0
./expes/v2_2020-12-03_dh_250-prng-1,30_issda_250,250,rng-250,71,rng,num-start-891,891,25726,15.822412729263306,True,,True,1,False,1000,True,1.0
./expes/v2_2020-12-03_dh_250-prng-1,30_issda_250,250,rng-250,21,rng,num-start-651,651,25726,10.54793667793274,True,,True,1,False,1000,True,1.0
./expes/v2_2020-12-03_dh_250-prng-1,30_issda_250,250,rng-250,21,rng,num-start-371,371,25726,6.580729961395264,True,,True,1,False,1000,True,1.0
./expes/v2_2020-12-03_dh_250-prng-1,30_issda_250,250,rng-250,241,rng,num-start-991,991,25726,12.756984233856201,True,,True,1,False,1000,True,1.0
./expes/v2_2020-12-03_dh_250-prng-1,30_issda_250,250,rng-250,171,rng,num-start-591,591,25726,10.539424896240234,True,,True,1,False,1000,True,1.0
./expes/v2_2020-12-03_dh_250-prng-1,30_issda_250,250,rng-250,191,rng,num-start-491,491,25726,8.185482025146484,True,,True,1,False,1000,True,1.0
./expes/v2_2020-12-03_dh_250-prng-1,30_issda_250,250,rng-250,41,rng,num-start-291,291,25726,4.834980010986328,True,,True,1,False,1000,True,1.0
./expes/v2_2020-12-03_dh_250-prng-1,30_issda_250,250,rng-250,1,rng,num-start-531,531,25726,7.036258697509766,True,,True,1,False,1000,True,1.0
./expes/v2_2020-12-03_dh_250-prng-1,30_issda_250,250,rng-250,71,rng,num-start-471,471,25726,9.216851234436035,True,,True,1,False,1000,True,1.0
./expes/v2_2020-12-03_dh_250-prng-1,30_issda_250,250,rng-250,61,rng,num-start-611,611,25726,10.196605205535889,True,,True,1,False,1000,True,1.0
./expes/v2_2020-12-03_dh_250-prng-1,30_issda_250,250,rng-250,151,rng,num-start-201,201,25726,4.43679666519165,True,,True,1,False,1000,True,1.0
./expes/v2_2020-12-03_dh_250-prng-1,30_issda_250,250,rng-250,121,rng,num-start-691,691,25726,11.27565860748291,True,,True,1,False,1000,True,1.0
./expes/v2_2020-12-03_dh_250-prng-1,30_issda_250,250,rng-250,21,rng,num-start-791,791,25726,13.38364553451538,True,,True,1,False,1000,True,1.0
./expes/v2_2020-12-03_dh_250-prng-1,30_issda_250,250,rng-250,141,rng,num-start-231,231,25726,4.582005262374878,True,,True,1,False,1000,True,1.0
./expes/v2_2020-12-03_dh_250-prng-1,30_issda_250,250,rng-250,171,rng,num-start-51,51,25726,1001.0995755195618,False,,False,0,True,1000,True,0.0
./expes/v2_2020-12-03_dh_250-prng-1,30_issda_250,250,rng-250,221,rng,num-start-651,651,25726,10.608257055282593,True,,True,1,False,1000,True,1.0
./expes/v2_2020-12-03_dh_250-prng-1,30_issda_250,250,rng-250,101,rng,num-start-431,431,25726,8.817124605178833,True,,True,1,False,1000,True,1.0
./expes/v2_2020-12-03_dh_250-prng-1,30_issda_250,250,rng-250,191,rng,num-start-221,221,25726,4.140950918197632,True,,True,1,False,1000,True,1.0
./expes/v2_2020-12-03_dh_250-prng-1,30_issda_250,250,rng-250,21,rng,num-start-681,681,25726,10.819257974624634,True,,True,1,False,1000,True,1.0
./expes/v2_2020-12-03_dh_250-prng-1,30_issda_250,250,rng-250,91,rng,num-start-561,561,25726,10.372487306594849,True,,True,1,False,1000,True,1.0
./expes/v2_2020-12-03_dh_250-prng-1,30_issda_250,250,rng-250,171,rng,num-start-601,601,25726,10.467044353485107,True,,True,1,False,1000,True,1.0
./expes/v2_2020-12-03_dh_250-prng-1,30_issda_250,250,rng-250,91,rng,num-start-741,741,25726,13.08117127418518,True,,True,1,False,1000,True,1.0
./expes/v2_2020-12-03_dh_250-prng-1,30_issda_250,250,rng-250,201,rng,num-start-801,801,25726,13.8626070022583,True,,True,1,False,1000,True,1.0
./expes/v2_2020-12-03_dh_250-prng-1,30_issda_250,250,rng-250,11,rng,num-start-851,851,25726,12.09577465057373,True,,True,1,False,1000,True,1.0
./expes/v2_2020-12-03_dh_250-prng-1,30_issda_250,250,rng-250,101,rng,num-start-811,811,25726,15.761010885238647,True,,True,1,False,1000,True,1.0
./expes/v2_2020-12-03_dh_250-prng-1,30_issda_250,250,rng-250,51,rng,num-start-971,971,25726,17.511270761489868,True,,True,1,False,1000,True,1.0
./expes/v2_2020-12-03_dh_250-prng-1,30_issda_250,250,rng-250,61,rng,num-start-61,61,25726,11.108340740203857,True,,True,1,False,1000,True,1.0
./expes/v2_2020-12-03_dh_250-prng-1,30_issda_250,250,rng-250,231,rng,num-start-891,891,25726,13.424550533294678,True,,True,1,False,1000,True,1.0
./expes/v2_2020-12-03_dh_250-prng-1,30_issda_250,250,rng-250,81,rng,num-start-391,391,25726,7.431256294250488,True,,True,1,False,1000,True,1.0
./expes/v2_2020-12-03_dh_250-prng-1,30_issda_250,250,rng-250,111,rng,num-start-311,311,25726,6.03536319732666,True,,True,1,False,1000,True,1.0
./expes/v2_2020-12-03_dh_250-prng-1,30_issda_250,250,rng-250,111,rng,num-start-11,11,25726,1000.4899079799652,False,,False,0,True,1000,True,0.0
./expes/v2_2020-12-03_dh_250-prng-1,30_issda_250,250,rng-250,221,rng,num-start-681,681,25726,11.38782811164856,True,,True,1,False,1000,True,1.0
./expes/v2_2020-12-03_dh_250-prng-1,30_issda_250,250,rng-250,111,rng,num-start-821,821,25726,17.102808713912964,True,,True,1,False,1000,True,1.0
./expes/v2_2020-12-03_dh_250-prng-1,30_issda_250,250,rng-250,141,rng,num-start-841,841,25726,14.975411891937256,True,,True,1,False,1000,True,1.0
./expes/v2_2020-12-03_dh_250-prng-1,30_issda_250,250,rng-250,221,rng,num-start-511,511,25726,8.493580341339111,True,,True,1,False,1000,True,1.0
./expes/v2_2020-12-03_dh_250-prng-1,30_issda_250,250,rng-250,21,rng,num-start-301,301,25726,4.748792886734009,True,,True,1,False,1000,True,1.0
./expes/v2_2020-12-03_dh_250-prng-1,30_issda_250,250,rng-250,21,rng,num-start-581,581,25726,9.109331130981445,True,,True,1,False,1000,True,1.0
./expes/v2_2020-12-03_dh_250-prng-1,30_issda_250,250,rng-250,141,rng,num-start-741,741,25726,12.637073516845703,True,,True,1,False,1000,True,1.0
./expes/v2_2020-12-03_dh_250-prng-1,30_issda_250,250,rng-250,121,rng,num-start-851,851,25726,16.166914463043213,True,,True,1,False,1000,True,1.0
./expes/v2_2020-12-03_dh_250-prng-1,30_issda_250,250,rng-250,121,rng,num-start-941,941,25726,21.35990858078003,True,,True,1,False,1000,True,1.0
./expes/v2_2020-12-03_dh_250-prng-1,30_issda_250,250,rng-250,201,rng,num-start-571,571,25726,9.53462028503418,True,,True,1,False,1000,True,1.0
./expes/v2_2020-12-03_dh_250-prng-1,30_issda_250,250,rng-250,211,rng,num-start-591,591,25726,12.107065677642822,True,,True,1,False,1000,True,1.0
./expes/v2_2020-12-03_dh_250-prng-1,30_issda_250,250,rng-250,51,rng,num-start-91,91,25726,2.1162102222442627,True,,True,1,False,1000,True,1.0
./expes/v2_2020-12-03_dh_250-prng-1,30_issda_250,250,rng-250,81,rng,num-start-661,661,25726,12.421254634857178,True,,True,1,False,1000,True,1.0
./expes/v2_2020-12-03_dh_250-prng-1,30_issda_250,250,rng-250,41,rng,num-start-491,491,25726,7.715990304946899,True,,True,1,False,1000,True,1.0
./expes/v2_2020-12-03_dh_250-prng-1,30_issda_250,250,rng-250,141,rng,num-start-341,341,25726,6.204881191253662,True,,True,1,False,1000,True,1.0
./expes/v2_2020-12-03_dh_250-prng-1,30_issda_250,250,rng-250,91,rng,num-start-661,661,25726,11.740803956985474,True,,True,1,False,1000,True,1.0
./expes/v2_2020-12-03_dh_250-prng-1,30_issda_250,250,rng-250,161,rng,num-start-291,291,25726,5.289627313613892,True,,True,1,False,1000,True,1.0
./expes/v2_2020-12-03_dh_250-prng-1,30_issda_250,250,rng-250,41,rng,num-start-451,451,25726,9.53945541381836,True,,True,1,False,1000,True,1.0
./expes/v2_2020-12-03_dh_250-prng-1,30_issda_250,250,rng-250,1,rng,num-start-421,421,25726,5.475100755691528,True,,True,1,False,1000,True,1.0
