{
  "clients": [
    {
      "name": "london-4500",
      "path": "./csv/london_clean.csv",
      "subset": "first-4500",
      "subset_size": 4500,
      "param": null
    }
  ],
  "noise": {
    "name": "classic",
    "method": "classic",
    "param": null
  },
  "agg_size": [
    225,
    450,
    675,
    900,
    1125,
    1350,
    1575,
    1800,
    2025,
    2250
  ],
  "methods": [
    {
      "name": "rng",
      "param": 0
    },
    {
      "name": "rng",
      "param": 1
    },
    {
      "name": "rng",
      "param": 2
    },
    {
      "name": "rng",
      "param": 3
    },
    {
      "name": "rng",
      "param": 4
    }
  ],
  "days": [
    {
      "name": "num-start-450",
      "param": 450
    },
    {
      "name": "num-start-900",
      "param": 900
    },
    {
      "name": "num-start-1350",
      "param": 1350
    },
    {
      "name": "num-start-1800",
      "param": 1800
    },
    {
      "name": "num-start-2250",
      "param": 2250
    },
    {
      "name": "num-start-2700",
      "param": 2700
    },
    {
      "name": "num-start-3150",
      "param": 3150
    },
    {
      "name": "num-start-3600",
      "param": 3600
    },
    {
      "name": "num-start-4050",
      "param": 4050
    },
    {
      "name": "num-start-4500",
      "param": 4500
    }
  ],
  "threads": null,
  "wall_time": 86400,
  "pooled": true,
  "pool_size": 100
}