expe,clients,clients_size,clients_subset,agg_size,method,days,days_size,days_total,time,valid,valid_sum,success,nsols,wall_hit,wall_time,pooled,valid_sums
./expes/v2_2020-11-09_3bh_100-prng-1,30_base_hphc_100,100,first-100,41,rng,num-start-411,411,17520,5.870879173278809,True,,True,1,False,1000,True,1.0
./expes/v2_2020-11-09_3bh_100-prng-1,30_base_hphc_100,100,first-100,71,rng,num-start-871,871,17520,11.754210948944092,True,,True,1,False,1000,True,1.0
./expes/v2_2020-11-09_3bh_100-prng-1,30_base_hphc_100,100,first-100,31,rng,num-start-81,81,17520,1.2295477390289307,True,,True,1,False,1000,True,1.0
./expes/v2_2020-11-09_3bh_100-prng-1,30_base_hphc_100,100,first-100,41,rng,num-start-711,711,17520,9.337990522384644,True,,True,1,False,1000,True,1.0
./expes/v2_2020-11-09_3bh_100-prng-1,30_base_hphc_100,100,first-100,21,rng,num-start-391,391,17520,5.216188907623291,True,,True,1,False,1000,True,1.0
./expes/v2_2020-11-09_3bh_100-prng-1,30_base_hphc_100,100,first-100,31,rng,num-start-261,261,17520,3.822467088699341,True,,True,1,False,1000,True,1.0
./expes/v2_2020-11-09_3bh_100-prng-1,30_base_hphc_100,100,first-100,1,rng,num-start-151,151,17520,1.8610665798187256,True,,True,1,False,1000,True,1.0
./expes/v2_2020-11-09_3bh_100-prng-1,30_base_hphc_100,100,first-100,71,rng,num-start-781,781,17520,10.388296604156494,True,,True,1,False,1000,True,1.0
./expes/v2_2020-11-09_3bh_100-prng-1,30_base_hphc_100,100,first-100,51,rng,num-start-811,811,17520,11.206883907318115,True,,True,1,False,1000,True,1.0
./expes/v2_2020-11-09_3bh_100-prng-1,30_base_hphc_100,100,first-100,81,rng,num-start-321,321,17520,4.673173427581787,True,,True,1,False,1000,True,1.0
./expes/v2_2020-11-09_3bh_100-prng-1,30_base_hphc_100,100,first-100,11,rng,num-start-411,411,17520,5.94226861000061,True,,True,1,False,1000,True,1.0
./expes/v2_2020-11-09_3bh_100-prng-1,30_base_hphc_100,100,first-100,31,rng,num-start-71,71,17520,1.0869624614715576,True,,True,1,False,1000,True,1.0
./expes/v2_2020-11-09_3bh_100-prng-1,30_base_hphc_100,100,first-100,61,rng,num-start-741,741,17520,11.043402194976807,True,,True,1,False,1000,True,1.0
./expes/v2_2020-11-09_3bh_100-prng-1,30_base_hphc_100,100,first-100,91,rng,num-start-91,91,17520,1.4169771671295166,True,,True,1,False,1000,True,1.0
./expes/v2_2020-11-09_3bh_100-prng-1,30_base_hphc_100,100,first-100,81,rng,num-start-101,101,17520,1.6185393333435059,True,,True,1,False,1000,True,1.0
./expes/v2_2020-11-09_3bh_100-prng-1,30_base_hphc_100,100,first-100,41,rng,num-start-641,641,17520,8.810249090194702,True,,True,1,False,1000,True,1.0
./expes/v2_2020-11-09_3bh_100-prng-1,30_base_hphc_100,100,first-100,31,rng,num-start-111,111,17520,1.6589312553405762,True,,True,1,False,1000,True,1.0
./expes/v2_2020-11-09_3bh_100-prng-1,30_base_hphc_100,100,first-100,41,rng,num-start-241,241,17520,3.6441855430603027,True,,True,1,False,1000,True,1.0
./expes/v2_2020-11-09_3bh_100-prng-1,30_base_hphc_100,100,first-100,51,rng,num-start-531,531,17520,7.289934873580933,True,,True,1,False,1000,True,1.0
./expes/v2_2020-11-09_3bh_100-prng-1,30_base_hphc_100,100,first-100,81,rng,num-start-611,611,17520,8.34843397140503,True,,True,1,False,1000,True,1.0
./expes/v2_2020-11-09_3bh_100-prng-1,30_base_hphc_100,100,first-100,31,rng,num-start-51,51,17520,0.876624345779419,True,,True,1,False,1000,True,1.0
./expes/v2_2020-11-09_3bh_100-prng-1,30_base_hphc_100,100,first-100,81,rng,num-start-351,351,17520,4.882819652557373,True,,True,1,False,1000,True,1.0
./expes/v2_2020-11-09_3bh_100-prng-1,30_base_hphc_100,100,first-100,91,rng,num-start-531,531,17520,7.2478742599487305,True,,True,1,False,1000,True,1.0
./expes/v2_2020-11-09_3bh_100-prng-1,30_base_hphc_100,100,first-100,1,rng,num-start-891,891,17520,11.297130584716797,True,,True,1,False,1000,True,1.0
./expes/v2_2020-11-09_3bh_100-prng-1,30_base_hphc_100,100,first-100,61,rng,num-start-611,611,17520,8.590016841888428,True,,True,1,False,1000,True,1.0
./expes/v2_2020-11-09_3bh_100-prng-1,30_base_hphc_100,100,first-100,11,rng,num-start-291,291,17520,4.068277835845947,True,,True,1,False,1000,True,1.0
./expes/v2_2020-11-09_3bh_100-prng-1,30_base_hphc_100,100,first-100,71,rng,num-start-1,1,17520,0.02935624122619629,False,,False,2,False,1000,True,1.0
./expes/v2_2020-11-09_3bh_100-prng-1,30_base_hphc_100,100,first-100,1,rng,num-start-671,671,17520,8.385586023330688,True,,True,1,False,1000,True,1.0
./expes/v2_2020-11-09_3bh_100-prng-1,30_base_hphc_100,100,first-100,41,rng,num-start-961,961,17520,13.477256774902344,True,,True,1,False,1000,True,1.0
./expes/v2_2020-11-09_3bh_100-prng-1,30_base_hphc_100,100,first-100,11,rng,num-start-491,491,17520,7.013212442398071,True,,True,1,False,1000,True,1.0
./expes/v2_2020-11-09_3bh_100-prng-1,30_base_hphc_100,100,first-100,11,rng,num-start-761,761,17520,10.637619256973267,True,,True,1,False,1000,True,1.0
./expes/v2_2020-11-09_3bh_100-prng-1,30_base_hphc_100,100,first-100,41,rng,num-start-1,1,17520,0.021315336227416992,False,,False,2,False,1000,True,1.0
./expes/v2_2020-11-09_3bh_100-prng-1,30_base_hphc_100,100,first-100,31,rng,num-start-381,381,17520,5.623206615447998,True,,True,1,False,1000,True,1.0
./expes/v2_2020-11-09_3bh_100-prng-1,30_base_hphc_100,100,first-100,71,rng,num-start-271,271,17520,4.03862190246582,True,,True,1,False,1000,True,1.0
./expes/v2_2020-11-09_3bh_100-prng-1,30_base_hphc_100,100,first-100,71,rng,num-start-981,981,17520,14.595304250717163,True,,True,1,False,1000,True,1.0
./expes/v2_2020-11-09_3bh_100-prng-1,30_base_hphc_100,100,first-100,21,rng,num-start-111,111,17520,1.7612903118133545,True,,True,1,False,1000,True,1.0
./expes/v2_2020-11-09_3bh_100-prng-1,30_base_hphc_100,100,first-100,71,rng,num-start-871,871,17520,12.55703854560852,True,,True,1,False,1000,True,1.0
./expes/v2_2020-11-09_3bh_100-prng-1,30_base_hphc_100,100,first-100,1,rng,num-start-281,281,17520,3.7054567337036133,True,,True,1,False,1000,True,1.0
./expes/v2_2020-11-09_3bh_100-prng-1,30_base_hphc_100,100,first-100,41,rng,num-start-81,81,17520,1.3395087718963623,True,,True,1,False,1000,True,1.0
./expes/v2_2020-11-09_3bh_100-prng-1,30_base_hphc_100,100,first-100,1,rng,num-start-611,611,17520,8.146389722824097,True,,True,1,False,1000,True,1.0
./expes/v2_2020-11-09_3bh_100-prng-1,30_base_hphc_100,100,first-100,1,rng,num-start-151,151,17520,1.868492603302002,True,,True,1,False,1000,True,1.0
./expes/v2_2020-11-09_3bh_100-prng-1,30_base_hphc_100,100,first-100,21,rng,num-start-851,851,17520,12.044636487960815,True,,True,1,False,1000,True,1.0
./expes/v2_2020-11-09_3bh_100-prng-1,30_base_hphc_100,100,first-100,51,rng,num-start-651,651,17520,9.566520929336548,True,,True,1,False,1000,True,1.0
./expes/v2_2020-11-09_3bh_100-prng-1,30_base_hphc_100,100,first-100,71,rng,num-start-561,561,17520,8.236024618148804,True,,True,1,False,1000,True,1.0
./expes/v2_2020-11-09_3bh_100-prng-1,30_base_hphc_100,100,first-100,91,rng,num-start-671,671,17520,9.43061351776123,True,,True,1,False,1000,True,1.0
./expes/v2_2020-11-09_3bh_100-prng-1,30_base_hphc_100,100,first-100,61,rng,num-start-191,191,17520,2.9708921909332275,True,,True,1,False,1000,True,1.0
./expes/v2_2020-11-09_3bh_100-prng-1,30_base_hphc_100,100,first-100,81,rng,num-start-201,201,17520,3.096822500228882,True,,True,1,False,1000,True,1.0
./expes/v2_2020-11-09_3bh_100-prng-1,30_base_hphc_100,100,first-100,41,rng,num-start-291,291,17520,4.39438271522522,True,,True,1,False,1000,True,1.0
./expes/v2_2020-11-09_3bh_100-prng-1,30_base_hphc_100,100,first-100,91,rng,num-start-821,821,17520,11.32683801651001,True,,True,1,False,1000,True,1.0
./expes/v2_2020-11-09_3bh_100-prng-1,30_base_hphc_100,100,first-100,61,rng,num-start-541,541,17520,7.9238433837890625,True,,True,1,False,1000,True,1.0
./expes/v2_2020-11-09_3bh_100-prng-1,30_base_hphc_100,100,first-100,31,rng,num-start-231,231,17520,3.6278719902038574,True,,True,1,False,1000,True,1.0
./expes/v2_2020-11-09_3bh_100-prng-1,30_base_hphc_100,100,first-100,71,rng,num-start-601,601,17520,8.65155291557312,True,,True,1,False,1000,True,1.0
./expes/v2_2020-11-09_3bh_100-prng-1,30_base_hphc_100,100,first-100,91,rng,num-start-241,241,17520,3.4212286472320557,True,,True,1,False,1000,True,1.0
./expes/v2_2020-11-09_3bh_100-prng-1,30_base_hphc_100,100,first-100,41,rng,num-start-651,651,17520,9.059706687927246,True,,True,1,False,1000,True,1.0
./expes/v2_2020-11-09_3bh_100-prng-1,30_base_hphc_100,100,first-100,61,rng,num-start-381,381,17520,5.369099378585815,True,,True,1,False,1000,True,1.0
./expes/v2_2020-11-09_3bh_100-prng-1,30_base_hphc_100,100,first-100,81,rng,num-start-411,411,17520,5.770041465759277,True,,True,1,False,1000,True,1.0
./expes/v2_2020-11-09_3bh_100-prng-1,30_base_hphc_100,100,first-100,51,rng,num-start-171,171,17520,2.629903554916382,True,,True,1,False,1000,True,1.0
./expes/v2_2020-11-09_3bh_100-prng-1,30_base_hphc_100,100,first-100,91,rng,num-start-201,201,17520,2.941589832305908,True,,True,1,False,1000,True,1.0
./expes/v2_2020-11-09_3bh_100-prng-1,30_base_hphc_100,100,first-100,1,rng,num-start-691,691,17520,8.681248188018799,True,,True,1,False,1000,True,1.0
./expes/v2_2020-11-09_3bh_100-prng-1,30_base_hphc_100,100,first-100,81,rng,num-start-361,361,17520,5.032782554626465,True,,True,1,False,1000,True,1.0
./expes/v2_2020-11-09_3bh_100-prng-1,30_base_hphc_100,100,first-100,41,rng,num-start-621,621,17520,8.92277455329895,True,,True,1,False,1000,True,1.0
./expes/v2_2020-11-09_3bh_100-prng-1,30_base_hphc_100,100,first-100,21,rng,num-start-891,891,17520,12.930300951004028,True,,True,1,False,1000,True,1.0
./expes/v2_2020-11-09_3bh_100-prng-1,30_base_hphc_100,100,first-100,81,rng,num-start-541,541,17520,7.795903921127319,True,,True,1,False,1000,True,1.0
./expes/v2_2020-11-09_3bh_100-prng-1,30_base_hphc_100,100,first-100,1,rng,num-start-661,661,17520,8.842519998550415,True,,True,1,False,1000,True,1.0
./expes/v2_2020-11-09_3bh_100-prng-1,30_base_hphc_100,100,first-100,91,rng,num-start-31,31,17520,0.5761287212371826,True,,True,1,False,1000,True,1.0
./expes/v2_2020-11-09_3bh_100-prng-1,30_base_hphc_100,100,first-100,91,rng,num-start-81,81,17520,1.3241806030273438,True,,True,1,False,1000,True,1.0
./expes/v2_2020-11-09_3bh_100-prng-1,30_base_hphc_100,100,first-100,11,rng,num-start-161,161,17520,2.6112961769104004,True,,True,1,False,1000,True,1.0
./expes/v2_2020-11-09_3bh_100-prng-1,30_base_hphc_100,100,first-100,41,rng,num-start-721,721,17520,10.653223514556885,True,,True,1,False,1000,True,1.0
./expes/v2_2020-11-09_3bh_100-prng-1,30_base_hphc_100,100,first-100,1,rng,num-start-961,961,17520,12.84791350364685,True,,True,1,False,1000,True,1.0
./expes/v2_2020-11-09_3bh_100-prng-1,30_base_hphc_100,100,first-100,41,rng,num-start-731,731,17520,10.856778621673584,True,,True,1,False,1000,True,1.0
./expes/v2_2020-11-09_3bh_100-prng-1,30_base_hphc_100,100,first-100,31,rng,num-start-281,281,17520,4.2905800342559814,True,,True,1,False,1000,True,1.0
./expes/v2_2020-11-09_3bh_100-prng-1,30_base_hphc_100,100,first-100,41,rng,num-start-151,151,17520,2.1810779571533203,True,,True,1,False,1000,True,1.0
./expes/v2_2020-11-09_3bh_100-prng-1,30_base_hphc_100,100,first-100,21,rng,num-start-531,531,17520,7.366360902786255,True,,True,1,False,1000,True,1.0
./expes/v2_2020-11-09_3bh_100-prng-1,30_base_hphc_100,100,first-100,21,rng,num-start-501,501,17520,7.30373477935791,True,,True,1,False,1000,True,1.0
./expes/v2_2020-11-09_3bh_100-prng-1,30_base_hphc_100,100,first-100,31,rng,num-start-711,711,17520,10.714585304260254,True,,True,1,False,1000,True,1.0
./expes/v2_2020-11-09_3bh_100-prng-1,30_base_hphc_100,100,first-100,71,rng,num-start-611,611,17520,8.724722385406494,True,,True,1,False,1000,True,1.0
./expes/v2_2020-11-09_3bh_100-prng-1,30_base_hphc_100,100,first-100,41,rng,num-start-311,311,17520,4.875013113021851,True,,True,1,False,1000,True,1.0
./expes/v2_2020-11-09_3bh_100-prng-1,30_base_hphc_100,100,first-100,41,rng,num-start-681,681,17520,9.955390691757202,True,,True,1,False,1000,True,1.0
./expes/v2_2020-11-09_3bh_100-prng-1,30_base_hphc_100,100,first-100,1,rng,num-start-1,1,17520,0.02041792869567871,False,,False,2,False,1000,True,1.0
./expes/v2_2020-11-09_3bh_100-prng-1,30_base_hphc_100,100,first-100,81,rng,num-start-561,561,17520,8.204215049743652,True,,True,1,False,1000,True,1.0
./expes/v2_2020-11-09_3bh_100-prng-1,30_base_hphc_100,100,first-100,91,rng,num-start-241,241,17520,3.6488077640533447,True,,True,1,False,1000,True,1.0
./expes/v2_2020-11-09_3bh_100-prng-1,30_base_hphc_100,100,first-100,31,rng,num-start-141,141,17520,2.2492432594299316,True,,True,1,False,1000,True,1.0
./expes/v2_2020-11-09_3bh_100-prng-1,30_base_hphc_100,100,first-100,81,rng,num-start-401,401,17520,5.830907583236694,True,,True,1,False,1000,True,1.0
./expes/v2_2020-11-09_3bh_100-prng-1,30_base_hphc_100,100,first-100,91,rng,num-start-931,931,17520,12.59739875793457,True,,True,1,False,1000,True,1.0
./expes/v2_2020-11-09_3bh_100-prng-1,30_base_hphc_100,100,first-100,31,rng,num-start-481,481,17520,6.666596412658691,True,,True,1,False,1000,True,1.0
./expes/v2_2020-11-09_3bh_100-prng-1,30_base_hphc_100,100,first-100,1,rng,num-start-671,671,17520,8.933763265609741,True,,True,1,False,1000,True,1.0
./expes/v2_2020-11-09_3bh_100-prng-1,30_base_hphc_100,100,first-100,91,rng,num-start-531,531,17520,7.1714043617248535,True,,True,1,False,1000,True,1.0
./expes/v2_2020-11-09_3bh_100-prng-1,30_base_hphc_100,100,first-100,31,rng,num-start-51,51,17520,1.4115283489227295,True,,True,1,False,1000,True,1.0
./expes/v2_2020-11-09_3bh_100-prng-1,30_base_hphc_100,100,first-100,21,rng,num-start-541,541,17520,7.889779090881348,True,,True,1,False,1000,True,1.0
./expes/v2_2020-11-09_3bh_100-prng-1,30_base_hphc_100,100,first-100,41,rng,num-start-401,401,17520,5.872625827789307,True,,True,1,False,1000,True,1.0
./expes/v2_2020-11-09_3bh_100-prng-1,30_base_hphc_100,100,first-100,51,rng,num-start-21,21,17520,1001.8058760166168,False,,False,0,True,1000,True,0.0
./expes/v2_2020-11-09_3bh_100-prng-1,30_base_hphc_100,100,first-100,81,rng,num-start-541,541,17520,7.638818025588989,True,,True,1,False,1000,True,1.0
./expes/v2_2020-11-09_3bh_100-prng-1,30_base_hphc_100,100,first-100,11,rng,num-start-811,811,17520,10.964736700057983,True,,True,1,False,1000,True,1.0
./expes/v2_2020-11-09_3bh_100-prng-1,30_base_hphc_100,100,first-100,61,rng,num-start-201,201,17520,3.145853281021118,True,,True,1,False,1000,True,1.0
./expes/v2_2020-11-09_3bh_100-prng-1,30_base_hphc_100,100,first-100,51,rng,num-start-631,631,17520,8.825093507766724,True,,True,1,False,1000,True,1.0
./expes/v2_2020-11-09_3bh_100-prng-1,30_base_hphc_100,100,first-100,31,rng,num-start-621,621,17520,8.941548824310303,True,,True,1,False,1000,True,1.0
./expes/v2_2020-11-09_3bh_100-prng-1,30_base_hphc_100,100,first-100,21,rng,num-start-121,121,17520,1.8348596096038818,True,,True,1,False,1000,True,1.0
./expes/v2_2020-11-09_3bh_100-prng-1,30_base_hphc_100,100,first-100,11,rng,num-start-501,501,17520,7.00507926940918,True,,True,1,False,1000,True,1.0
./expes/v2_2020-11-09_3bh_100-prng-1,30_base_hphc_100,100,first-100,91,rng,num-start-571,571,17520,7.954531669616699,True,,True,1,False,1000,True,1.0
./expes/v2_2020-11-09_3bh_100-prng-1,30_base_hphc_100,100,first-100,21,rng,num-start-211,211,17520,3.241565704345703,True,,True,1,False,1000,True,1.0
./expes/v2_2020-11-09_3bh_100-prng-1,30_base_hphc_100,100,first-100,1,rng,num-start-921,921,17520,11.289663791656494,True,,True,1,False,1000,True,1.0
./expes/v2_2020-11-09_3bh_100-prng-1,30_base_hphc_100,100,first-100,91,rng,num-start-391,391,17520,5.426315546035767,True,,True,1,False,1000,True,1.0
./expes/v2_2020-11-09_3bh_100-prng-1,30_base_hphc_100,100,first-100,11,rng,num-start-751,751,17520,10.092777967453003,True,,True,1,False,1000,True,1.0
./expes/v2_2020-11-09_3bh_100-prng-1,30_base_hphc_100,100,first-100,21,rng,num-start-781,781,17520,11.204444408416748,True,,True,1,False,1000,True,1.0
./expes/v2_2020-11-09_3bh_100-prng-1,30_base_hphc_100,100,first-100,11,rng,num-start-981,981,17520,13.440227031707764,True,,True,1,False,1000,True,1.0
./expes/v2_2020-11-09_3bh_100-prng-1,30_base_hphc_100,100,first-100,71,rng,num-start-501,501,17520,7.132029294967651,True,,True,1,False,1000,True,1.0
./expes/v2_2020-11-09_3bh_100-prng-1,30_base_hphc_100,100,first-100,51,rng,num-start-761,761,17520,11.026197671890259,True,,True,1,False,1000,True,1.0
./expes/v2_2020-11-09_3bh_100-prng-1,30_base_hphc_100,100,first-100,41,rng,num-start-501,501,17520,7.066794157028198,True,,True,1,False,1000,True,1.0
./expes/v2_2020-11-09_3bh_100-prng-1,30_base_hphc_100,100,first-100,91,rng,num-start-121,121,17520,1.8654310703277588,True,,True,1,False,1000,True,1.0
./expes/v2_2020-11-09_3bh_100-prng-1,30_base_hphc_100,100,first-100,1,rng,num-start-161,161,17520,2.0622849464416504,True,,True,1,False,1000,True,1.0
./expes/v2_2020-11-09_3bh_100-prng-1,30_base_hphc_100,100,first-100,51,rng,num-start-731,731,17520,10.542770624160767,True,,True,1,False,1000,True,1.0
./expes/v2_2020-11-09_3bh_100-prng-1,30_base_hphc_100,100,first-100,81,rng,num-start-671,671,17520,8.993687868118286,True,,True,1,False,1000,True,1.0
./expes/v2_2020-11-09_3bh_100-prng-1,30_base_hphc_100,100,first-100,71,rng,num-start-881,881,17520,12.45983076095581,True,,True,1,False,1000,True,1.0
./expes/v2_2020-11-09_3bh_100-prng-1,30_base_hphc_100,100,first-100,61,rng,num-start-751,751,17520,10.769730567932129,True,,True,1,False,1000,True,1.0
./expes/v2_2020-11-09_3bh_100-prng-1,30_base_hphc_100,100,first-100,21,rng,num-start-711,711,17520,10.098426342010498,True,,True,1,False,1000,True,1.0
./expes/v2_2020-11-09_3bh_100-prng-1,30_base_hphc_100,100,first-100,11,rng,num-start-791,791,17520,11.258726596832275,True,,True,1,False,1000,True,1.0
./expes/v2_2020-11-09_3bh_100-prng-1,30_base_hphc_100,100,first-100,51,rng,num-start-251,251,17520,3.8734498023986816,True,,True,1,False,1000,True,1.0
./expes/v2_2020-11-09_3bh_100-prng-1,30_base_hphc_100,100,first-100,31,rng,num-start-811,811,17520,11.745087146759033,True,,True,1,False,1000,True,1.0
./expes/v2_2020-11-09_3bh_100-prng-1,30_base_hphc_100,100,first-100,91,rng,num-start-851,851,17520,11.123172044754028,True,,True,1,False,1000,True,1.0
./expes/v2_2020-11-09_3bh_100-prng-1,30_base_hphc_100,100,first-100,91,rng,num-start-941,941,17520,12.6222403049469,True,,True,1,False,1000,True,1.0
./expes/v2_2020-11-09_3bh_100-prng-1,30_base_hphc_100,100,first-100,1,rng,num-start-201,201,17520,2.7378437519073486,True,,True,1,False,1000,True,1.0
./expes/v2_2020-11-09_3bh_100-prng-1,30_base_hphc_100,100,first-100,41,rng,num-start-991,991,17520,13.948845863342285,True,,True,1,False,1000,True,1.0
./expes/v2_2020-11-09_3bh_100-prng-1,30_base_hphc_100,100,first-100,71,rng,num-start-871,871,17520,12.181055068969727,True,,True,1,False,1000,True,1.0
./expes/v2_2020-11-09_3bh_100-prng-1,30_base_hphc_100,100,first-100,21,rng,num-start-191,191,17520,2.9323177337646484,True,,True,1,False,1000,True,1.0
./expes/v2_2020-11-09_3bh_100-prng-1,30_base_hphc_100,100,first-100,51,rng,num-start-541,541,17520,7.743618726730347,True,,True,1,False,1000,True,1.0
./expes/v2_2020-11-09_3bh_100-prng-1,30_base_hphc_100,100,first-100,21,rng,num-start-411,411,17520,5.930537223815918,True,,True,1,False,1000,True,1.0
./expes/v2_2020-11-09_3bh_100-prng-1,30_base_hphc_100,100,first-100,21,rng,num-start-981,981,17520,14.17610788345337,True,,True,1,False,1000,True,1.0
./expes/v2_2020-11-09_3bh_100-prng-1,30_base_hphc_100,100,first-100,71,rng,num-start-901,901,17520,12.861377239227295,True,,True,1,False,1000,True,1.0
./expes/v2_2020-11-09_3bh_100-prng-1,30_base_hphc_100,100,first-100,71,rng,num-start-351,351,17520,4.93979549407959,True,,True,1,False,1000,True,1.0
./expes/v2_2020-11-09_3bh_100-prng-1,30_base_hphc_100,100,first-100,71,rng,num-start-91,91,17520,1.4558115005493164,True,,True,1,False,1000,True,1.0
./expes/v2_2020-11-09_3bh_100-prng-1,30_base_hphc_100,100,first-100,71,rng,num-start-181,181,17520,2.77230167388916,True,,True,1,False,1000,True,1.0
./expes/v2_2020-11-09_3bh_100-prng-1,30_base_hphc_100,100,first-100,11,rng,num-start-511,511,17520,7.216787576675415,True,,True,1,False,1000,True,1.0
./expes/v2_2020-11-09_3bh_100-prng-1,30_base_hphc_100,100,first-100,61,rng,num-start-561,561,17520,7.905024290084839,True,,True,1,False,1000,True,1.0
./expes/v2_2020-11-09_3bh_100-prng-1,30_base_hphc_100,100,first-100,81,rng,num-start-471,471,17520,6.971879482269287,True,,True,1,False,1000,True,1.0
./expes/v2_2020-11-09_3bh_100-prng-1,30_base_hphc_100,100,first-100,31,rng,num-start-601,601,17520,8.149072885513306,True,,True,1,False,1000,True,1.0
./expes/v2_2020-11-09_3bh_100-prng-1,30_base_hphc_100,100,first-100,21,rng,num-start-471,471,17520,6.684035062789917,True,,True,1,False,1000,True,1.0
./expes/v2_2020-11-09_3bh_100-prng-1,30_base_hphc_100,100,first-100,91,rng,num-start-1,1,17520,0.029966354370117188,False,,False,2,False,1000,True,1.0
./expes/v2_2020-11-09_3bh_100-prng-1,30_base_hphc_100,100,first-100,31,rng,num-start-571,571,17520,8.093204736709595,True,,True,1,False,1000,True,1.0
./expes/v2_2020-11-09_3bh_100-prng-1,30_base_hphc_100,100,first-100,81,rng,num-start-361,361,17520,5.282371997833252,True,,True,1,False,1000,True,1.0
./expes/v2_2020-11-09_3bh_100-prng-1,30_base_hphc_100,100,first-100,11,rng,num-start-451,451,17520,6.420140981674194,True,,True,1,False,1000,True,1.0
./expes/v2_2020-11-09_3bh_100-prng-1,30_base_hphc_100,100,first-100,91,rng,num-start-11,11,17520,0.9918026924133301,True,,True,1,False,1000,True,1.0
./expes/v2_2020-11-09_3bh_100-prng-1,30_base_hphc_100,100,first-100,1,rng,num-start-381,381,17520,5.039606332778931,True,,True,1,False,1000,True,1.0
./expes/v2_2020-11-09_3bh_100-prng-1,30_base_hphc_100,100,first-100,21,rng,num-start-511,511,17520,7.321948051452637,True,,True,1,False,1000,True,1.0
./expes/v2_2020-11-09_3bh_100-prng-1,30_base_hphc_100,100,first-100,51,rng,num-start-281,281,17520,4.025208473205566,True,,True,1,False,1000,True,1.0
./expes/v2_2020-11-09_3bh_100-prng-1,30_base_hphc_100,100,first-100,21,rng,num-start-191,191,17520,2.941366195678711,True,,True,1,False,1000,True,1.0
./expes/v2_2020-11-09_3bh_100-prng-1,30_base_hphc_100,100,first-100,71,rng,num-start-271,271,17520,3.9444727897644043,True,,True,1,False,1000,True,1.0
./expes/v2_2020-11-09_3bh_100-prng-1,30_base_hphc_100,100,first-100,1,rng,num-start-791,791,17520,10.297810554504395,True,,True,1,False,1000,True,1.0
./expes/v2_2020-11-09_3bh_100-prng-1,30_base_hphc_100,100,first-100,31,rng,num-start-301,301,17520,4.3282835483551025,True,,True,1,False,1000,True,1.0
./expes/v2_2020-11-09_3bh_100-prng-1,30_base_hphc_100,100,first-100,31,rng,num-start-271,271,17520,3.7606747150421143,True,,True,1,False,1000,True,1.0
./expes/v2_2020-11-09_3bh_100-prng-1,30_base_hphc_100,100,first-100,61,rng,num-start-181,181,17520,2.560943126678467,True,,True,1,False,1000,True,1.0
./expes/v2_2020-11-09_3bh_100-prng-1,30_base_hphc_100,100,first-100,1,rng,num-start-551,551,17520,7.2280967235565186,True,,True,1,False,1000,True,1.0
./expes/v2_2020-11-09_3bh_100-prng-1,30_base_hphc_100,100,first-100,61,rng,num-start-281,281,17520,4.077769994735718,True,,True,1,False,1000,True,1.0
./expes/v2_2020-11-09_3bh_100-prng-1,30_base_hphc_100,100,first-100,41,rng,num-start-131,131,17520,2.132647752761841,True,,True,1,False,1000,True,1.0
./expes/v2_2020-11-09_3bh_100-prng-1,30_base_hphc_100,100,first-100,71,rng,num-start-461,461,17520,6.631533861160278,True,,True,1,False,1000,True,1.0
./expes/v2_2020-11-09_3bh_100-prng-1,30_base_hphc_100,100,first-100,61,rng,num-start-851,851,17520,12.22261095046997,True,,True,1,False,1000,True,1.0
./expes/v2_2020-11-09_3bh_100-prng-1,30_base_hphc_100,100,first-100,1,rng,num-start-551,551,17520,7.223973035812378,True,,True,1,False,1000,True,1.0
./expes/v2_2020-11-09_3bh_100-prng-1,30_base_hphc_100,100,first-100,31,rng,num-start-811,811,17520,11.411454916000366,True,,True,1,False,1000,True,1.0
./expes/v2_2020-11-09_3bh_100-prng-1,30_base_hphc_100,100,first-100,81,rng,num-start-141,141,17520,2.1864824295043945,True,,True,1,False,1000,True,1.0
./expes/v2_2020-11-09_3bh_100-prng-1,30_base_hphc_100,100,first-100,91,rng,num-start-1,1,17520,0.028891801834106445,False,,False,2,False,1000,True,1.0
./expes/v2_2020-11-09_3bh_100-prng-1,30_base_hphc_100,100,first-100,11,rng,num-start-61,61,17520,0.8986644744873047,True,,True,1,False,1000,True,1.0
./expes/v2_2020-11-09_3bh_100-prng-1,30_base_hphc_100,100,first-100,81,rng,num-start-541,541,17520,7.141396760940552,True,,True,1,False,1000,True,1.0
./expes/v2_2020-11-09_3bh_100-prng-1,30_base_hphc_100,100,first-100,81,rng,num-start-331,331,17520,4.718735694885254,True,,True,1,False,1000,True,1.0
./expes/v2_2020-11-09_3bh_100-prng-1,30_base_hphc_100,100,first-100,1,rng,num-start-41,41,17520,0.5387969017028809,True,,True,1,False,1000,True,1.0
./expes/v2_2020-11-09_3bh_100-prng-1,30_base_hphc_100,100,first-100,71,rng,num-start-561,561,17520,8.040154933929443,True,,True,1,False,1000,True,1.0
./expes/v2_2020-11-09_3bh_100-prng-1,30_base_hphc_100,100,first-100,21,rng,num-start-731,731,17520,10.601186513900757,True,,True,1,False,1000,True,1.0
./expes/v2_2020-11-09_3bh_100-prng-1,30_base_hphc_100,100,first-100,71,rng,num-start-361,361,17520,4.800267696380615,True,,True,1,False,1000,True,1.0
./expes/v2_2020-11-09_3bh_100-prng-1,30_base_hphc_100,100,first-100,61,rng,num-start-21,21,17520,1006.0371272563934,False,,False,0,True,1000,True,0.0
./expes/v2_2020-11-09_3bh_100-prng-1,30_base_hphc_100,100,first-100,71,rng,num-start-271,271,17520,4.013145923614502,True,,True,1,False,1000,True,1.0
./expes/v2_2020-11-09_3bh_100-prng-1,30_base_hphc_100,100,first-100,1,rng,num-start-131,131,17520,1.6698517799377441,True,,True,1,False,1000,True,1.0
./expes/v2_2020-11-09_3bh_100-prng-1,30_base_hphc_100,100,first-100,31,rng,num-start-941,941,17520,13.524988174438477,True,,True,1,False,1000,True,1.0
./expes/v2_2020-11-09_3bh_100-prng-1,30_base_hphc_100,100,first-100,41,rng,num-start-931,931,17520,13.279661655426025,True,,True,1,False,1000,True,1.0
./expes/v2_2020-11-09_3bh_100-prng-1,30_base_hphc_100,100,first-100,71,rng,num-start-911,911,17520,12.967546701431274,True,,True,1,False,1000,True,1.0
./expes/v2_2020-11-09_3bh_100-prng-1,30_base_hphc_100,100,first-100,41,rng,num-start-721,721,17520,10.166806697845459,True,,True,1,False,1000,True,1.0
./expes/v2_2020-11-09_3bh_100-prng-1,30_base_hphc_100,100,first-100,71,rng,num-start-361,361,17520,5.185848712921143,True,,True,1,False,1000,True,1.0
./expes/v2_2020-11-09_3bh_100-prng-1,30_base_hphc_100,100,first-100,11,rng,num-start-181,181,17520,2.6914498805999756,True,,True,1,False,1000,True,1.0
./expes/v2_2020-11-09_3bh_100-prng-1,30_base_hphc_100,100,first-100,21,rng,num-start-221,221,17520,3.3261845111846924,True,,True,1,False,1000,True,1.0
./expes/v2_2020-11-09_3bh_100-prng-1,30_base_hphc_100,100,first-100,51,rng,num-start-951,951,17520,13.459626913070679,True,,True,1,False,1000,True,1.0
./expes/v2_2020-11-09_3bh_100-prng-1,30_base_hphc_100,100,first-100,41,rng,num-start-461,461,17520,6.689601182937622,True,,True,1,False,1000,True,1.0
./expes/v2_2020-11-09_3bh_100-prng-1,30_base_hphc_100,100,first-100,51,rng,num-start-351,351,17520,5.049978256225586,True,,True,1,False,1000,True,1.0
./expes/v2_2020-11-09_3bh_100-prng-1,30_base_hphc_100,100,first-100,1,rng,num-start-221,221,17520,2.8944177627563477,True,,True,1,False,1000,True,1.0
./expes/v2_2020-11-09_3bh_100-prng-1,30_base_hphc_100,100,first-100,31,rng,num-start-271,271,17520,4.04097843170166,True,,True,1,False,1000,True,1.0
./expes/v2_2020-11-09_3bh_100-prng-1,30_base_hphc_100,100,first-100,11,rng,num-start-981,981,17520,13.438313484191895,True,,True,1,False,1000,True,1.0
./expes/v2_2020-11-09_3bh_100-prng-1,30_base_hphc_100,100,first-100,11,rng,num-start-201,201,17520,3.1018893718719482,True,,True,1,False,1000,True,1.0
./expes/v2_2020-11-09_3bh_100-prng-1,30_base_hphc_100,100,first-100,11,rng,num-start-951,951,17520,13.1106538772583,True,,True,1,False,1000,True,1.0
./expes/v2_2020-11-09_3bh_100-prng-1,30_base_hphc_100,100,first-100,91,rng,num-start-501,501,17520,6.948010444641113,True,,True,1,False,1000,True,1.0
./expes/v2_2020-11-09_3bh_100-prng-1,30_base_hphc_100,100,first-100,41,rng,num-start-361,361,17520,4.857127666473389,True,,True,1,False,1000,True,1.0
./expes/v2_2020-11-09_3bh_100-prng-1,30_base_hphc_100,100,first-100,1,rng,num-start-961,961,17520,12.412920236587524,True,,True,1,False,1000,True,1.0
./expes/v2_2020-11-09_3bh_100-prng-1,30_base_hphc_100,100,first-100,21,rng,num-start-61,61,17520,1.038158893585205,True,,True,1,False,1000,True,1.0
./expes/v2_2020-11-09_3bh_100-prng-1,30_base_hphc_100,100,first-100,21,rng,num-start-201,201,17520,3.069486141204834,True,,True,1,False,1000,True,1.0
./expes/v2_2020-11-09_3bh_100-prng-1,30_base_hphc_100,100,first-100,11,rng,num-start-381,381,17520,5.603902816772461,True,,True,1,False,1000,True,1.0
./expes/v2_2020-11-09_3bh_100-prng-1,30_base_hphc_100,100,first-100,91,rng,num-start-51,51,17520,0.8178906440734863,True,,True,1,False,1000,True,1.0
./expes/v2_2020-11-09_3bh_100-prng-1,30_base_hphc_100,100,first-100,51,rng,num-start-151,151,17520,2.330493927001953,True,,True,1,False,1000,True,1.0
./expes/v2_2020-11-09_3bh_100-prng-1,30_base_hphc_100,100,first-100,11,rng,num-start-661,661,17520,9.338734865188599,True,,True,1,False,1000,True,1.0
./expes/v2_2020-11-09_3bh_100-prng-1,30_base_hphc_100,100,first-100,31,rng,num-start-1,1,17520,0.029659509658813477,False,,False,2,False,1000,True,1.0
./expes/v2_2020-11-09_3bh_100-prng-1,30_base_hphc_100,100,first-100,41,rng,num-start-451,451,17520,6.491546392440796,True,,True,1,False,1000,True,1.0
./expes/v2_2020-11-09_3bh_100-prng-1,30_base_hphc_100,100,first-100,61,rng,num-start-731,731,17520,10.117975234985352,True,,True,1,False,1000,True,1.0
./expes/v2_2020-11-09_3bh_100-prng-1,30_base_hphc_100,100,first-100,41,rng,num-start-501,501,17520,6.7666425704956055,True,,True,1,False,1000,True,1.0
./expes/v2_2020-11-09_3bh_100-prng-1,30_base_hphc_100,100,first-100,41,rng,num-start-921,921,17520,13.072702169418335,True,,True,1,False,1000,True,1.0
./expes/v2_2020-11-09_3bh_100-prng-1,30_base_hphc_100,100,first-100,11,rng,num-start-741,741,17520,10.117013692855835,True,,True,1,False,1000,True,1.0
./expes/v2_2020-11-09_3bh_100-prng-1,30_base_hphc_100,100,first-100,11,rng,num-start-151,151,17520,2.3131937980651855,True,,True,1,False,1000,True,1.0
./expes/v2_2020-11-09_3bh_100-prng-1,30_base_hphc_100,100,first-100,31,rng,num-start-721,721,17520,10.150436162948608,True,,True,1,False,1000,True,1.0
./expes/v2_2020-11-09_3bh_100-prng-1,30_base_hphc_100,100,first-100,61,rng,num-start-581,581,17520,8.113693475723267,True,,True,1,False,1000,True,1.0
./expes/v2_2020-11-09_3bh_100-prng-1,30_base_hphc_100,100,first-100,71,rng,num-start-841,841,17520,12.16131329536438,True,,True,1,False,1000,True,1.0
./expes/v2_2020-11-09_3bh_100-prng-1,30_base_hphc_100,100,first-100,21,rng,num-start-921,921,17520,13.184936046600342,True,,True,1,False,1000,True,1.0
./expes/v2_2020-11-09_3bh_100-prng-1,30_base_hphc_100,100,first-100,51,rng,num-start-681,681,17520,9.74700379371643,True,,True,1,False,1000,True,1.0
./expes/v2_2020-11-09_3bh_100-prng-1,30_base_hphc_100,100,first-100,81,rng,num-start-791,791,17520,11.081491470336914,True,,True,1,False,1000,True,1.0
./expes/v2_2020-11-09_3bh_100-prng-1,30_base_hphc_100,100,first-100,51,rng,num-start-521,521,17520,7.473815679550171,True,,True,1,False,1000,True,1.0
./expes/v2_2020-11-09_3bh_100-prng-1,30_base_hphc_100,100,first-100,91,rng,num-start-281,281,17520,3.6780102252960205,True,,True,1,False,1000,True,1.0
./expes/v2_2020-11-09_3bh_100-prng-1,30_base_hphc_100,100,first-100,1,rng,num-start-911,911,17520,11.989336490631104,True,,True,1,False,1000,True,1.0
./expes/v2_2020-11-09_3bh_100-prng-1,30_base_hphc_100,100,first-100,81,rng,num-start-541,541,17520,7.835034132003784,True,,True,1,False,1000,True,1.0
./expes/v2_2020-11-09_3bh_100-prng-1,30_base_hphc_100,100,first-100,51,rng,num-start-81,81,17520,1.2832629680633545,True,,True,1,False,1000,True,1.0
./expes/v2_2020-11-09_3bh_100-prng-1,30_base_hphc_100,100,first-100,31,rng,num-start-801,801,17520,10.794594526290894,True,,True,1,False,1000,True,1.0
./expes/v2_2020-11-09_3bh_100-prng-1,30_base_hphc_100,100,first-100,41,rng,num-start-391,391,17520,5.58104395866394,True,,True,1,False,1000,True,1.0
./expes/v2_2020-11-09_3bh_100-prng-1,30_base_hphc_100,100,first-100,31,rng,num-start-831,831,17520,11.853021621704102,True,,True,1,False,1000,True,1.0
./expes/v2_2020-11-09_3bh_100-prng-1,30_base_hphc_100,100,first-100,81,rng,num-start-761,761,17520,10.667500972747803,True,,True,1,False,1000,True,1.0
./expes/v2_2020-11-09_3bh_100-prng-1,30_base_hphc_100,100,first-100,51,rng,num-start-941,941,17520,13.47535514831543,True,,True,1,False,1000,True,1.0
./expes/v2_2020-11-09_3bh_100-prng-1,30_base_hphc_100,100,first-100,91,rng,num-start-1,1,17520,0.020376205444335938,False,,False,2,False,1000,True,1.0
./expes/v2_2020-11-09_3bh_100-prng-1,30_base_hphc_100,100,first-100,41,rng,num-start-261,261,17520,4.015232086181641,True,,True,1,False,1000,True,1.0
./expes/v2_2020-11-09_3bh_100-prng-1,30_base_hphc_100,100,first-100,21,rng,num-start-691,691,17520,9.957456350326538,True,,True,1,False,1000,True,1.0
./expes/v2_2020-11-09_3bh_100-prng-1,30_base_hphc_100,100,first-100,91,rng,num-start-841,841,17520,11.037788391113281,True,,True,1,False,1000,True,1.0
./expes/v2_2020-11-09_3bh_100-prng-1,30_base_hphc_100,100,first-100,31,rng,num-start-251,251,17520,3.835289716720581,True,,True,1,False,1000,True,1.0
./expes/v2_2020-11-09_3bh_100-prng-1,30_base_hphc_100,100,first-100,41,rng,num-start-891,891,17520,12.52346420288086,True,,True,1,False,1000,True,1.0
./expes/v2_2020-11-09_3bh_100-prng-1,30_base_hphc_100,100,first-100,1,rng,num-start-551,551,17520,7.1951069831848145,True,,True,1,False,1000,True,1.0
./expes/v2_2020-11-09_3bh_100-prng-1,30_base_hphc_100,100,first-100,71,rng,num-start-691,691,17520,10.08861517906189,True,,True,1,False,1000,True,1.0
./expes/v2_2020-11-09_3bh_100-prng-1,30_base_hphc_100,100,first-100,61,rng,num-start-641,641,17520,9.095003843307495,True,,True,1,False,1000,True,1.0
./expes/v2_2020-11-09_3bh_100-prng-1,30_base_hphc_100,100,first-100,81,rng,num-start-91,91,17520,1.395371437072754,True,,True,1,False,1000,True,1.0
./expes/v2_2020-11-09_3bh_100-prng-1,30_base_hphc_100,100,first-100,11,rng,num-start-231,231,17520,3.2219314575195312,True,,True,1,False,1000,True,1.0
./expes/v2_2020-11-09_3bh_100-prng-1,30_base_hphc_100,100,first-100,81,rng,num-start-621,621,17520,8.544468402862549,True,,True,1,False,1000,True,1.0
./expes/v2_2020-11-09_3bh_100-prng-1,30_base_hphc_100,100,first-100,71,rng,num-start-541,541,17520,7.186339855194092,True,,True,1,False,1000,True,1.0
./expes/v2_2020-11-09_3bh_100-prng-1,30_base_hphc_100,100,first-100,71,rng,num-start-661,661,17520,9.16953444480896,True,,True,1,False,1000,True,1.0
./expes/v2_2020-11-09_3bh_100-prng-1,30_base_hphc_100,100,first-100,71,rng,num-start-281,281,17520,4.135539770126343,True,,True,1,False,1000,True,1.0
./expes/v2_2020-11-09_3bh_100-prng-1,30_base_hphc_100,100,first-100,71,rng,num-start-701,701,17520,9.98853874206543,True,,True,1,False,1000,True,1.0
./expes/v2_2020-11-09_3bh_100-prng-1,30_base_hphc_100,100,first-100,21,rng,num-start-451,451,17520,6.470645189285278,True,,True,1,False,1000,True,1.0
./expes/v2_2020-11-09_3bh_100-prng-1,30_base_hphc_100,100,first-100,91,rng,num-start-221,221,17520,3.2322494983673096,True,,True,1,False,1000,True,1.0
./expes/v2_2020-11-09_3bh_100-prng-1,30_base_hphc_100,100,first-100,71,rng,num-start-361,361,17520,5.067168712615967,True,,True,1,False,1000,True,1.0
./expes/v2_2020-11-09_3bh_100-prng-1,30_base_hphc_100,100,first-100,91,rng,num-start-611,611,17520,8.511067390441895,True,,True,1,False,1000,True,1.0
./expes/v2_2020-11-09_3bh_100-prng-1,30_base_hphc_100,100,first-100,41,rng,num-start-791,791,17520,11.280049800872803,True,,True,1,False,1000,True,1.0
./expes/v2_2020-11-09_3bh_100-prng-1,30_base_hphc_100,100,first-100,11,rng,num-start-371,371,17520,5.399751901626587,True,,True,1,False,1000,True,1.0
./expes/v2_2020-11-09_3bh_100-prng-1,30_base_hphc_100,100,first-100,11,rng,num-start-211,211,17520,3.2661385536193848,True,,True,1,False,1000,True,1.0
./expes/v2_2020-11-09_3bh_100-prng-1,30_base_hphc_100,100,first-100,41,rng,num-start-901,901,17520,13.025299310684204,True,,True,1,False,1000,True,1.0
./expes/v2_2020-11-09_3bh_100-prng-1,30_base_hphc_100,100,first-100,81,rng,num-start-161,161,17520,2.478013038635254,True,,True,1,False,1000,True,1.0
./expes/v2_2020-11-09_3bh_100-prng-1,30_base_hphc_100,100,first-100,21,rng,num-start-881,881,17520,12.38323450088501,True,,True,1,False,1000,True,1.0
./expes/v2_2020-11-09_3bh_100-prng-1,30_base_hphc_100,100,first-100,21,rng,num-start-181,181,17520,2.735405921936035,True,,True,1,False,1000,True,1.0
./expes/v2_2020-11-09_3bh_100-prng-1,30_base_hphc_100,100,first-100,91,rng,num-start-511,511,17520,6.8540778160095215,True,,True,1,False,1000,True,1.0
./expes/v2_2020-11-09_3bh_100-prng-1,30_base_hphc_100,100,first-100,21,rng,num-start-991,991,17520,13.65793490409851,True,,True,1,False,1000,True,1.0
./expes/v2_2020-11-09_3bh_100-prng-1,30_base_hphc_100,100,first-100,41,rng,num-start-941,941,17520,13.647287130355835,True,,True,1,False,1000,True,1.0
./expes/v2_2020-11-09_3bh_100-prng-1,30_base_hphc_100,100,first-100,61,rng,num-start-621,621,17520,8.963267087936401,True,,True,1,False,1000,True,1.0
./expes/v2_2020-11-09_3bh_100-prng-1,30_base_hphc_100,100,first-100,21,rng,num-start-221,221,17520,3.3010241985321045,True,,True,1,False,1000,True,1.0
./expes/v2_2020-11-09_3bh_100-prng-1,30_base_hphc_100,100,first-100,31,rng,num-start-421,421,17520,6.061593770980835,True,,True,1,False,1000,True,1.0
./expes/v2_2020-11-09_3bh_100-prng-1,30_base_hphc_100,100,first-100,51,rng,num-start-131,131,17520,1.9945721626281738,True,,True,1,False,1000,True,1.0
./expes/v2_2020-11-09_3bh_100-prng-1,30_base_hphc_100,100,first-100,91,rng,num-start-541,541,17520,7.555074214935303,True,,True,1,False,1000,True,1.0
./expes/v2_2020-11-09_3bh_100-prng-1,30_base_hphc_100,100,first-100,71,rng,num-start-181,181,17520,2.6761984825134277,True,,True,1,False,1000,True,1.0
./expes/v2_2020-11-09_3bh_100-prng-1,30_base_hphc_100,100,first-100,81,rng,num-start-71,71,17520,1.0458617210388184,True,,True,1,False,1000,True,1.0
./expes/v2_2020-11-09_3bh_100-prng-1,30_base_hphc_100,100,first-100,91,rng,num-start-331,331,17520,4.745934247970581,True,,True,1,False,1000,True,1.0
./expes/v2_2020-11-09_3bh_100-prng-1,30_base_hphc_100,100,first-100,61,rng,num-start-581,581,17520,8.435719966888428,True,,True,1,False,1000,True,1.0
./expes/v2_2020-11-09_3bh_100-prng-1,30_base_hphc_100,100,first-100,81,rng,num-start-311,311,17520,4.689934968948364,True,,True,1,False,1000,True,1.0
./expes/v2_2020-11-09_3bh_100-prng-1,30_base_hphc_100,100,first-100,71,rng,num-start-601,601,17520,8.534220218658447,True,,True,1,False,1000,True,1.0
./expes/v2_2020-11-09_3bh_100-prng-1,30_base_hphc_100,100,first-100,51,rng,num-start-531,531,17520,7.480228424072266,True,,True,1,False,1000,True,1.0
./expes/v2_2020-11-09_3bh_100-prng-1,30_base_hphc_100,100,first-100,51,rng,num-start-841,841,17520,12.210348844528198,True,,True,1,False,1000,True,1.0
./expes/v2_2020-11-09_3bh_100-prng-1,30_base_hphc_100,100,first-100,1,rng,num-start-161,161,17520,2.159329652786255,True,,True,1,False,1000,True,1.0
./expes/v2_2020-11-09_3bh_100-prng-1,30_base_hphc_100,100,first-100,1,rng,num-start-551,551,17520,7.330216407775879,True,,True,1,False,1000,True,1.0
./expes/v2_2020-11-09_3bh_100-prng-1,30_base_hphc_100,100,first-100,31,rng,num-start-751,751,17520,10.91722321510315,True,,True,1,False,1000,True,1.0
./expes/v2_2020-11-09_3bh_100-prng-1,30_base_hphc_100,100,first-100,91,rng,num-start-741,741,17520,9.875205993652344,True,,True,1,False,1000,True,1.0
./expes/v2_2020-11-09_3bh_100-prng-1,30_base_hphc_100,100,first-100,71,rng,num-start-721,721,17520,10.320352792739868,True,,True,1,False,1000,True,1.0
./expes/v2_2020-11-09_3bh_100-prng-1,30_base_hphc_100,100,first-100,71,rng,num-start-621,621,17520,8.875427007675171,True,,True,1,False,1000,True,1.0
./expes/v2_2020-11-09_3bh_100-prng-1,30_base_hphc_100,100,first-100,91,rng,num-start-561,561,17520,7.782106161117554,True,,True,1,False,1000,True,1.0
./expes/v2_2020-11-09_3bh_100-prng-1,30_base_hphc_100,100,first-100,71,rng,num-start-41,41,17520,0.9266312122344971,True,,True,1,False,1000,True,1.0
./expes/v2_2020-11-09_3bh_100-prng-1,30_base_hphc_100,100,first-100,41,rng,num-start-191,191,17520,2.9489731788635254,True,,True,1,False,1000,True,1.0
./expes/v2_2020-11-09_3bh_100-prng-1,30_base_hphc_100,100,first-100,61,rng,num-start-131,131,17520,2.3102681636810303,True,,True,1,False,1000,True,1.0
./expes/v2_2020-11-09_3bh_100-prng-1,30_base_hphc_100,100,first-100,1,rng,num-start-481,481,17520,6.27522611618042,True,,True,1,False,1000,True,1.0
./expes/v2_2020-11-09_3bh_100-prng-1,30_base_hphc_100,100,first-100,81,rng,num-start-551,551,17520,7.884149074554443,True,,True,1,False,1000,True,1.0
./expes/v2_2020-11-09_3bh_100-prng-1,30_base_hphc_100,100,first-100,81,rng,num-start-471,471,17520,6.850898265838623,True,,True,1,False,1000,True,1.0
./expes/v2_2020-11-09_3bh_100-prng-1,30_base_hphc_100,100,first-100,61,rng,num-start-431,431,17520,5.838625192642212,True,,True,1,False,1000,True,1.0
./expes/v2_2020-11-09_3bh_100-prng-1,30_base_hphc_100,100,first-100,21,rng,num-start-361,361,17520,5.266428709030151,True,,True,1,False,1000,True,1.0
./expes/v2_2020-11-09_3bh_100-prng-1,30_base_hphc_100,100,first-100,11,rng,num-start-861,861,17520,11.676811695098877,True,,True,1,False,1000,True,1.0
./expes/v2_2020-11-09_3bh_100-prng-1,30_base_hphc_100,100,first-100,21,rng,num-start-601,601,17520,8.11878228187561,True,,True,1,False,1000,True,1.0
./expes/v2_2020-11-09_3bh_100-prng-1,30_base_hphc_100,100,first-100,51,rng,num-start-511,511,17520,6.866163015365601,True,,True,1,False,1000,True,1.0
./expes/v2_2020-11-09_3bh_100-prng-1,30_base_hphc_100,100,first-100,11,rng,num-start-961,961,17520,12.53627324104309,True,,True,1,False,1000,True,1.0
./expes/v2_2020-11-09_3bh_100-prng-1,30_base_hphc_100,100,first-100,11,rng,num-start-301,301,17520,4.389087200164795,True,,True,1,False,1000,True,1.0
./expes/v2_2020-11-09_3bh_100-prng-1,30_base_hphc_100,100,first-100,1,rng,num-start-331,331,17520,4.240684509277344,True,,True,1,False,1000,True,1.0
./expes/v2_2020-11-09_3bh_100-prng-1,30_base_hphc_100,100,first-100,21,rng,num-start-311,311,17520,4.70594048500061,True,,True,1,False,1000,True,1.0
./expes/v2_2020-11-09_3bh_100-prng-1,30_base_hphc_100,100,first-100,31,rng,num-start-621,621,17520,8.951695919036865,True,,True,1,False,1000,True,1.0
./expes/v2_2020-11-09_3bh_100-prng-1,30_base_hphc_100,100,first-100,61,rng,num-start-121,121,17520,1.8710253238677979,True,,True,1,False,1000,True,1.0
./expes/v2_2020-11-09_3bh_100-prng-1,30_base_hphc_100,100,first-100,11,rng,num-start-871,871,17520,11.733317375183105,True,,True,1,False,1000,True,1.0
./expes/v2_2020-11-09_3bh_100-prng-1,30_base_hphc_100,100,first-100,1,rng,num-start-971,971,17520,12.751741647720337,True,,True,1,False,1000,True,1.0
./expes/v2_2020-11-09_3bh_100-prng-1,30_base_hphc_100,100,first-100,91,rng,num-start-711,711,17520,9.718998908996582,True,,True,1,False,1000,True,1.0
./expes/v2_2020-11-09_3bh_100-prng-1,30_base_hphc_100,100,first-100,41,rng,num-start-81,81,17520,1.2630443572998047,True,,True,1,False,1000,True,1.0
./expes/v2_2020-11-09_3bh_100-prng-1,30_base_hphc_100,100,first-100,21,rng,num-start-701,701,17520,9.963549852371216,True,,True,1,False,1000,True,1.0
./expes/v2_2020-11-09_3bh_100-prng-1,30_base_hphc_100,100,first-100,81,rng,num-start-321,321,17520,4.52724552154541,True,,True,1,False,1000,True,1.0
./expes/v2_2020-11-09_3bh_100-prng-1,30_base_hphc_100,100,first-100,71,rng,num-start-961,961,17520,13.579037427902222,True,,True,1,False,1000,True,1.0
./expes/v2_2020-11-09_3bh_100-prng-1,30_base_hphc_100,100,first-100,51,rng,num-start-911,911,17520,13.307349443435669,True,,True,1,False,1000,True,1.0
./expes/v2_2020-11-09_3bh_100-prng-1,30_base_hphc_100,100,first-100,21,rng,num-start-731,731,17520,10.514961004257202,True,,True,1,False,1000,True,1.0
./expes/v2_2020-11-09_3bh_100-prng-1,30_base_hphc_100,100,first-100,41,rng,num-start-501,501,17520,6.9791176319122314,True,,True,1,False,1000,True,1.0
./expes/v2_2020-11-09_3bh_100-prng-1,30_base_hphc_100,100,first-100,71,rng,num-start-401,401,17520,5.8219733238220215,True,,True,1,False,1000,True,1.0
./expes/v2_2020-11-09_3bh_100-prng-1,30_base_hphc_100,100,first-100,31,rng,num-start-371,371,17520,5.00742244720459,True,,True,1,False,1000,True,1.0
./expes/v2_2020-11-09_3bh_100-prng-1,30_base_hphc_100,100,first-100,71,rng,num-start-901,901,17520,11.997735738754272,True,,True,1,False,1000,True,1.0
./expes/v2_2020-11-09_3bh_100-prng-1,30_base_hphc_100,100,first-100,71,rng,num-start-741,741,17520,10.851716995239258,True,,True,1,False,1000,True,1.0
./expes/v2_2020-11-09_3bh_100-prng-1,30_base_hphc_100,100,first-100,51,rng,num-start-431,431,17520,6.001805067062378,True,,True,1,False,1000,True,1.0
./expes/v2_2020-11-09_3bh_100-prng-1,30_base_hphc_100,100,first-100,71,rng,num-start-711,711,17520,10.016050815582275,True,,True,1,False,1000,True,1.0
./expes/v2_2020-11-09_3bh_100-prng-1,30_base_hphc_100,100,first-100,21,rng,num-start-111,111,17520,1.676332712173462,True,,True,1,False,1000,True,1.0
./expes/v2_2020-11-09_3bh_100-prng-1,30_base_hphc_100,100,first-100,71,rng,num-start-441,441,17520,5.906491994857788,True,,True,1,False,1000,True,1.0
./expes/v2_2020-11-09_3bh_100-prng-1,30_base_hphc_100,100,first-100,1,rng,num-start-21,21,17520,0.26594018936157227,True,,True,1,False,1000,True,1.0
./expes/v2_2020-11-09_3bh_100-prng-1,30_base_hphc_100,100,first-100,61,rng,num-start-441,441,17520,5.971576452255249,True,,True,1,False,1000,True,1.0
./expes/v2_2020-11-09_3bh_100-prng-1,30_base_hphc_100,100,first-100,71,rng,num-start-161,161,17520,2.41534161567688,True,,True,1,False,1000,True,1.0
./expes/v2_2020-11-09_3bh_100-prng-1,30_base_hphc_100,100,first-100,1,rng,num-start-101,101,17520,1.250868320465088,True,,True,1,False,1000,True,1.0
./expes/v2_2020-11-09_3bh_100-prng-1,30_base_hphc_100,100,first-100,31,rng,num-start-611,611,17520,8.192673683166504,True,,True,1,False,1000,True,1.0
./expes/v2_2020-11-09_3bh_100-prng-1,30_base_hphc_100,100,first-100,81,rng,num-start-661,661,17520,9.123986721038818,True,,True,1,False,1000,True,1.0
./expes/v2_2020-11-09_3bh_100-prng-1,30_base_hphc_100,100,first-100,1,rng,num-start-331,331,17520,4.319654941558838,True,,True,1,False,1000,True,1.0
./expes/v2_2020-11-09_3bh_100-prng-1,30_base_hphc_100,100,first-100,41,rng,num-start-201,201,17520,3.1624584197998047,True,,True,1,False,1000,True,1.0
./expes/v2_2020-11-09_3bh_100-prng-1,30_base_hphc_100,100,first-100,81,rng,num-start-261,261,17520,3.836541175842285,True,,True,1,False,1000,True,1.0
./expes/v2_2020-11-09_3bh_100-prng-1,30_base_hphc_100,100,first-100,91,rng,num-start-171,171,17520,2.580775022506714,True,,True,1,False,1000,True,1.0
./expes/v2_2020-11-09_3bh_100-prng-1,30_base_hphc_100,100,first-100,81,rng,num-start-851,851,17520,11.740272283554077,True,,True,1,False,1000,True,1.0
./expes/v2_2020-11-09_3bh_100-prng-1,30_base_hphc_100,100,first-100,1,rng,num-start-341,341,17520,4.447139024734497,True,,True,1,False,1000,True,1.0
./expes/v2_2020-11-09_3bh_100-prng-1,30_base_hphc_100,100,first-100,21,rng,num-start-391,391,17520,5.720205545425415,True,,True,1,False,1000,True,1.0
./expes/v2_2020-11-09_3bh_100-prng-1,30_base_hphc_100,100,first-100,51,rng,num-start-881,881,17520,12.635770797729492,True,,True,1,False,1000,True,1.0
./expes/v2_2020-11-09_3bh_100-prng-1,30_base_hphc_100,100,first-100,91,rng,num-start-151,151,17520,2.209404945373535,True,,True,1,False,1000,True,1.0
./expes/v2_2020-11-09_3bh_100-prng-1,30_base_hphc_100,100,first-100,21,rng,num-start-451,451,17520,6.2691569328308105,True,,True,1,False,1000,True,1.0
./expes/v2_2020-11-09_3bh_100-prng-1,30_base_hphc_100,100,first-100,71,rng,num-start-841,841,17520,11.518798112869263,True,,True,1,False,1000,True,1.0
./expes/v2_2020-11-09_3bh_100-prng-1,30_base_hphc_100,100,first-100,21,rng,num-start-91,91,17520,1.3461756706237793,True,,True,1,False,1000,True,1.0
./expes/v2_2020-11-09_3bh_100-prng-1,30_base_hphc_100,100,first-100,21,rng,num-start-321,321,17520,4.3242552280426025,True,,True,1,False,1000,True,1.0
./expes/v2_2020-11-09_3bh_100-prng-1,30_base_hphc_100,100,first-100,21,rng,num-start-891,891,17520,12.238682270050049,True,,True,1,False,1000,True,1.0
./expes/v2_2020-11-09_3bh_100-prng-1,30_base_hphc_100,100,first-100,71,rng,num-start-751,751,17520,10.69653868675232,True,,True,1,False,1000,True,1.0
./expes/v2_2020-11-09_3bh_100-prng-1,30_base_hphc_100,100,first-100,91,rng,num-start-411,411,17520,5.7596235275268555,True,,True,1,False,1000,True,1.0
./expes/v2_2020-11-09_3bh_100-prng-1,30_base_hphc_100,100,first-100,1,rng,num-start-921,921,17520,12.025688171386719,True,,True,1,False,1000,True,1.0
./expes/v2_2020-11-09_3bh_100-prng-1,30_base_hphc_100,100,first-100,11,rng,num-start-101,101,17520,1.626990556716919,True,,True,1,False,1000,True,1.0
./expes/v2_2020-11-09_3bh_100-prng-1,30_base_hphc_100,100,first-100,61,rng,num-start-21,21,17520,312.1945812702179,True,,True,1,False,1000,True,1.0
./expes/v2_2020-11-09_3bh_100-prng-1,30_base_hphc_100,100,first-100,21,rng,num-start-851,851,17520,11.491655826568604,True,,True,1,False,1000,True,1.0
./expes/v2_2020-11-09_3bh_100-prng-1,30_base_hphc_100,100,first-100,61,rng,num-start-351,351,17520,4.960580348968506,True,,True,1,False,1000,True,1.0
./expes/v2_2020-11-09_3bh_100-prng-1,30_base_hphc_100,100,first-100,51,rng,num-start-501,501,17520,6.9298577308654785,True,,True,1,False,1000,True,1.0
./expes/v2_2020-11-09_3bh_100-prng-1,30_base_hphc_100,100,first-100,21,rng,num-start-881,881,17520,12.227876901626587,True,,True,1,False,1000,True,1.0
./expes/v2_2020-11-09_3bh_100-prng-1,30_base_hphc_100,100,first-100,1,rng,num-start-981,981,17520,12.57826042175293,True,,True,1,False,1000,True,1.0
./expes/v2_2020-11-09_3bh_100-prng-1,30_base_hphc_100,100,first-100,91,rng,num-start-361,361,17520,5.382328271865845,True,,True,1,False,1000,True,1.0
./expes/v2_2020-11-09_3bh_100-prng-1,30_base_hphc_100,100,first-100,1,rng,num-start-331,331,17520,4.273244619369507,True,,True,1,False,1000,True,1.0
./expes/v2_2020-11-09_3bh_100-prng-1,30_base_hphc_100,100,first-100,21,rng,num-start-101,101,17520,1.5591602325439453,True,,True,1,False,1000,True,1.0
./expes/v2_2020-11-09_3bh_100-prng-1,30_base_hphc_100,100,first-100,61,rng,num-start-571,571,17520,7.929008722305298,True,,True,1,False,1000,True,1.0
./expes/v2_2020-11-09_3bh_100-prng-1,30_base_hphc_100,100,first-100,61,rng,num-start-621,621,17520,8.577141761779785,True,,True,1,False,1000,True,1.0
./expes/v2_2020-11-09_3bh_100-prng-1,30_base_hphc_100,100,first-100,61,rng,num-start-81,81,17520,1.2509629726409912,True,,True,1,False,1000,True,1.0
./expes/v2_2020-11-09_3bh_100-prng-1,30_base_hphc_100,100,first-100,21,rng,num-start-541,541,17520,7.628865480422974,True,,True,1,False,1000,True,1.0
./expes/v2_2020-11-09_3bh_100-prng-1,30_base_hphc_100,100,first-100,51,rng,num-start-711,711,17520,9.87650752067566,True,,True,1,False,1000,True,1.0
./expes/v2_2020-11-09_3bh_100-prng-1,30_base_hphc_100,100,first-100,11,rng,num-start-181,181,17520,2.6831607818603516,True,,True,1,False,1000,True,1.0
./expes/v2_2020-11-09_3bh_100-prng-1,30_base_hphc_100,100,first-100,61,rng,num-start-641,641,17520,9.07447624206543,True,,True,1,False,1000,True,1.0
./expes/v2_2020-11-09_3bh_100-prng-1,30_base_hphc_100,100,first-100,61,rng,num-start-521,521,17520,7.661829471588135,True,,True,1,False,1000,True,1.0
./expes/v2_2020-11-09_3bh_100-prng-1,30_base_hphc_100,100,first-100,31,rng,num-start-91,91,17520,1.3750641345977783,True,,True,1,False,1000,True,1.0
./expes/v2_2020-11-09_3bh_100-prng-1,30_base_hphc_100,100,first-100,11,rng,num-start-931,931,17520,12.469374895095825,True,,True,1,False,1000,True,1.0
./expes/v2_2020-11-09_3bh_100-prng-1,30_base_hphc_100,100,first-100,61,rng,num-start-571,571,17520,7.999446868896484,True,,True,1,False,1000,True,1.0
./expes/v2_2020-11-09_3bh_100-prng-1,30_base_hphc_100,100,first-100,11,rng,num-start-141,141,17520,2.2024855613708496,True,,True,1,False,1000,True,1.0
./expes/v2_2020-11-09_3bh_100-prng-1,30_base_hphc_100,100,first-100,31,rng,num-start-351,351,17520,5.005173921585083,True,,True,1,False,1000,True,1.0
./expes/v2_2020-11-09_3bh_100-prng-1,30_base_hphc_100,100,first-100,21,rng,num-start-781,781,17520,11.028550148010254,True,,True,1,False,1000,True,1.0
./expes/v2_2020-11-09_3bh_100-prng-1,30_base_hphc_100,100,first-100,41,rng,num-start-831,831,17520,12.01276683807373,True,,True,1,False,1000,True,1.0
./expes/v2_2020-11-09_3bh_100-prng-1,30_base_hphc_100,100,first-100,71,rng,num-start-911,911,17520,12.875681400299072,True,,True,1,False,1000,True,1.0
./expes/v2_2020-11-09_3bh_100-prng-1,30_base_hphc_100,100,first-100,11,rng,num-start-411,411,17520,5.832911968231201,True,,True,1,False,1000,True,1.0
./expes/v2_2020-11-09_3bh_100-prng-1,30_base_hphc_100,100,first-100,21,rng,num-start-971,971,17520,13.370728492736816,True,,True,1,False,1000,True,1.0
./expes/v2_2020-11-09_3bh_100-prng-1,30_base_hphc_100,100,first-100,21,rng,num-start-291,291,17520,4.194324970245361,True,,True,1,False,1000,True,1.0
./expes/v2_2020-11-09_3bh_100-prng-1,30_base_hphc_100,100,first-100,61,rng,num-start-101,101,17520,1.6170146465301514,True,,True,1,False,1000,True,1.0
./expes/v2_2020-11-09_3bh_100-prng-1,30_base_hphc_100,100,first-100,1,rng,num-start-661,661,17520,8.497329235076904,True,,True,1,False,1000,True,1.0
./expes/v2_2020-11-09_3bh_100-prng-1,30_base_hphc_100,100,first-100,41,rng,num-start-341,341,17520,4.704495668411255,True,,True,1,False,1000,True,1.0
./expes/v2_2020-11-09_3bh_100-prng-1,30_base_hphc_100,100,first-100,21,rng,num-start-491,491,17520,6.648186683654785,True,,True,1,False,1000,True,1.0
./expes/v2_2020-11-09_3bh_100-prng-1,30_base_hphc_100,100,first-100,81,rng,num-start-181,181,17520,2.6403791904449463,True,,True,1,False,1000,True,1.0
./expes/v2_2020-11-09_3bh_100-prng-1,30_base_hphc_100,100,first-100,71,rng,num-start-251,251,17520,3.8365232944488525,True,,True,1,False,1000,True,1.0
./expes/v2_2020-11-09_3bh_100-prng-1,30_base_hphc_100,100,first-100,51,rng,num-start-91,91,17520,1.4289164543151855,True,,True,1,False,1000,True,1.0
./expes/v2_2020-11-09_3bh_100-prng-1,30_base_hphc_100,100,first-100,91,rng,num-start-941,941,17520,12.620908498764038,True,,True,1,False,1000,True,1.0
./expes/v2_2020-11-09_3bh_100-prng-1,30_base_hphc_100,100,first-100,71,rng,num-start-81,81,17520,1.2482490539550781,True,,True,1,False,1000,True,1.0
./expes/v2_2020-11-09_3bh_100-prng-1,30_base_hphc_100,100,first-100,91,rng,num-start-661,661,17520,8.699285507202148,True,,True,1,False,1000,True,1.0
./expes/v2_2020-11-09_3bh_100-prng-1,30_base_hphc_100,100,first-100,91,rng,num-start-101,101,17520,1.4536333084106445,True,,True,1,False,1000,True,1.0
./expes/v2_2020-11-09_3bh_100-prng-1,30_base_hphc_100,100,first-100,91,rng,num-start-541,541,17520,7.46884560585022,True,,True,1,False,1000,True,1.0
./expes/v2_2020-11-09_3bh_100-prng-1,30_base_hphc_100,100,first-100,81,rng,num-start-571,571,17520,7.920205116271973,True,,True,1,False,1000,True,1.0
./expes/v2_2020-11-09_3bh_100-prng-1,30_base_hphc_100,100,first-100,21,rng,num-start-11,11,17520,1001.1299464702606,False,,False,0,True,1000,True,0.0
./expes/v2_2020-11-09_3bh_100-prng-1,30_base_hphc_100,100,first-100,91,rng,num-start-641,641,17520,8.384830713272095,True,,True,1,False,1000,True,1.0
./expes/v2_2020-11-09_3bh_100-prng-1,30_base_hphc_100,100,first-100,91,rng,num-start-641,641,17520,8.664480447769165,True,,True,1,False,1000,True,1.0
./expes/v2_2020-11-09_3bh_100-prng-1,30_base_hphc_100,100,first-100,91,rng,num-start-621,621,17520,8.331651210784912,True,,True,1,False,1000,True,1.0
./expes/v2_2020-11-09_3bh_100-prng-1,30_base_hphc_100,100,first-100,1,rng,num-start-281,281,17520,3.645512580871582,True,,True,1,False,1000,True,1.0
./expes/v2_2020-11-09_3bh_100-prng-1,30_base_hphc_100,100,first-100,41,rng,num-start-491,491,17520,6.625100612640381,True,,True,1,False,1000,True,1.0
./expes/v2_2020-11-09_3bh_100-prng-1,30_base_hphc_100,100,first-100,81,rng,num-start-221,221,17520,3.169863224029541,True,,True,1,False,1000,True,1.0
./expes/v2_2020-11-09_3bh_100-prng-1,30_base_hphc_100,100,first-100,31,rng,num-start-641,641,17520,8.980727672576904,True,,True,1,False,1000,True,1.0
./expes/v2_2020-11-09_3bh_100-prng-1,30_base_hphc_100,100,first-100,71,rng,num-start-871,871,17520,12.141876697540283,True,,True,1,False,1000,True,1.0
./expes/v2_2020-11-09_3bh_100-prng-1,30_base_hphc_100,100,first-100,71,rng,num-start-981,981,17520,13.75599217414856,True,,True,1,False,1000,True,1.0
./expes/v2_2020-11-09_3bh_100-prng-1,30_base_hphc_100,100,first-100,81,rng,num-start-281,281,17520,3.988783121109009,True,,True,1,False,1000,True,1.0
./expes/v2_2020-11-09_3bh_100-prng-1,30_base_hphc_100,100,first-100,91,rng,num-start-951,951,17520,12.929643869400024,True,,True,1,False,1000,True,1.0
./expes/v2_2020-11-09_3bh_100-prng-1,30_base_hphc_100,100,first-100,41,rng,num-start-401,401,17520,5.541674852371216,True,,True,1,False,1000,True,1.0
./expes/v2_2020-11-09_3bh_100-prng-1,30_base_hphc_100,100,first-100,21,rng,num-start-451,451,17520,6.4827423095703125,True,,True,1,False,1000,True,1.0
./expes/v2_2020-11-09_3bh_100-prng-1,30_base_hphc_100,100,first-100,21,rng,num-start-1,1,17520,0.029901504516601562,False,,False,2,False,1000,True,1.0
./expes/v2_2020-11-09_3bh_100-prng-1,30_base_hphc_100,100,first-100,81,rng,num-start-991,991,17520,13.705535411834717,True,,True,1,False,1000,True,1.0
./expes/v2_2020-11-09_3bh_100-prng-1,30_base_hphc_100,100,first-100,61,rng,num-start-41,41,17520,0.9988803863525391,True,,True,1,False,1000,True,1.0
./expes/v2_2020-11-09_3bh_100-prng-1,30_base_hphc_100,100,first-100,71,rng,num-start-181,181,17520,2.7971689701080322,True,,True,1,False,1000,True,1.0
./expes/v2_2020-11-09_3bh_100-prng-1,30_base_hphc_100,100,first-100,41,rng,num-start-761,761,17520,10.148667573928833,True,,True,1,False,1000,True,1.0
./expes/v2_2020-11-09_3bh_100-prng-1,30_base_hphc_100,100,first-100,91,rng,num-start-561,561,17520,7.275662183761597,True,,True,1,False,1000,True,1.0
./expes/v2_2020-11-09_3bh_100-prng-1,30_base_hphc_100,100,first-100,51,rng,num-start-1,1,17520,0.029883623123168945,False,,False,2,False,1000,True,1.0
./expes/v2_2020-11-09_3bh_100-prng-1,30_base_hphc_100,100,first-100,61,rng,num-start-691,691,17520,9.228952884674072,True,,True,1,False,1000,True,1.0
./expes/v2_2020-11-09_3bh_100-prng-1,30_base_hphc_100,100,first-100,61,rng,num-start-11,11,17520,1000.1800756454468,False,,False,0,True,1000,True,0.0
./expes/v2_2020-11-09_3bh_100-prng-1,30_base_hphc_100,100,first-100,61,rng,num-start-81,81,17520,1.3360660076141357,True,,True,1,False,1000,True,1.0
./expes/v2_2020-11-09_3bh_100-prng-1,30_base_hphc_100,100,first-100,61,rng,num-start-701,701,17520,10.058825492858887,True,,True,1,False,1000,True,1.0
./expes/v2_2020-11-09_3bh_100-prng-1,30_base_hphc_100,100,first-100,1,rng,num-start-231,231,17520,2.953378915786743,True,,True,1,False,1000,True,1.0
./expes/v2_2020-11-09_3bh_100-prng-1,30_base_hphc_100,100,first-100,41,rng,num-start-261,261,17520,3.9758336544036865,True,,True,1,False,1000,True,1.0
./expes/v2_2020-11-09_3bh_100-prng-1,30_base_hphc_100,100,first-100,71,rng,num-start-321,321,17520,4.575205087661743,True,,True,1,False,1000,True,1.0
./expes/v2_2020-11-09_3bh_100-prng-1,30_base_hphc_100,100,first-100,81,rng,num-start-21,21,17520,2.8065848350524902,True,,True,1,False,1000,True,1.0
./expes/v2_2020-11-09_3bh_100-prng-1,30_base_hphc_100,100,first-100,1,rng,num-start-501,501,17520,6.481794595718384,True,,True,1,False,1000,True,1.0
./expes/v2_2020-11-09_3bh_100-prng-1,30_base_hphc_100,100,first-100,71,rng,num-start-911,911,17520,12.47178316116333,True,,True,1,False,1000,True,1.0
./expes/v2_2020-11-09_3bh_100-prng-1,30_base_hphc_100,100,first-100,61,rng,num-start-491,491,17520,6.913355112075806,True,,True,1,False,1000,True,1.0
./expes/v2_2020-11-09_3bh_100-prng-1,30_base_hphc_100,100,first-100,81,rng,num-start-611,611,17520,8.300336599349976,True,,True,1,False,1000,True,1.0
./expes/v2_2020-11-09_3bh_100-prng-1,30_base_hphc_100,100,first-100,11,rng,num-start-231,231,17520,3.485301971435547,True,,True,1,False,1000,True,1.0
./expes/v2_2020-11-09_3bh_100-prng-1,30_base_hphc_100,100,first-100,1,rng,num-start-921,921,17520,11.98727798461914,True,,True,1,False,1000,True,1.0
./expes/v2_2020-11-09_3bh_100-prng-1,30_base_hphc_100,100,first-100,41,rng,num-start-121,121,17520,1.9008221626281738,True,,True,1,False,1000,True,1.0
./expes/v2_2020-11-09_3bh_100-prng-1,30_base_hphc_100,100,first-100,41,rng,num-start-661,661,17520,9.215850830078125,True,,True,1,False,1000,True,1.0
./expes/v2_2020-11-09_3bh_100-prng-1,30_base_hphc_100,100,first-100,71,rng,num-start-221,221,17520,3.336526393890381,True,,True,1,False,1000,True,1.0
./expes/v2_2020-11-09_3bh_100-prng-1,30_base_hphc_100,100,first-100,11,rng,num-start-711,711,17520,9.808351755142212,True,,True,1,False,1000,True,1.0
./expes/v2_2020-11-09_3bh_100-prng-1,30_base_hphc_100,100,first-100,11,rng,num-start-931,931,17520,12.848057508468628,True,,True,1,False,1000,True,1.0
./expes/v2_2020-11-09_3bh_100-prng-1,30_base_hphc_100,100,first-100,61,rng,num-start-711,711,17520,10.225186347961426,True,,True,1,False,1000,True,1.0
./expes/v2_2020-11-09_3bh_100-prng-1,30_base_hphc_100,100,first-100,1,rng,num-start-291,291,17520,3.811981201171875,True,,True,1,False,1000,True,1.0
./expes/v2_2020-11-09_3bh_100-prng-1,30_base_hphc_100,100,first-100,51,rng,num-start-761,761,17520,10.950224161148071,True,,True,1,False,1000,True,1.0
./expes/v2_2020-11-09_3bh_100-prng-1,30_base_hphc_100,100,first-100,51,rng,num-start-551,551,17520,7.871754884719849,True,,True,1,False,1000,True,1.0
./expes/v2_2020-11-09_3bh_100-prng-1,30_base_hphc_100,100,first-100,11,rng,num-start-641,641,17520,9.12098741531372,True,,True,1,False,1000,True,1.0
./expes/v2_2020-11-09_3bh_100-prng-1,30_base_hphc_100,100,first-100,51,rng,num-start-421,421,17520,6.183846712112427,True,,True,1,False,1000,True,1.0
./expes/v2_2020-11-09_3bh_100-prng-1,30_base_hphc_100,100,first-100,91,rng,num-start-931,931,17520,12.746304988861084,True,,True,1,False,1000,True,1.0
./expes/v2_2020-11-09_3bh_100-prng-1,30_base_hphc_100,100,first-100,1,rng,num-start-241,241,17520,3.1236727237701416,True,,True,1,False,1000,True,1.0
./expes/v2_2020-11-09_3bh_100-prng-1,30_base_hphc_100,100,first-100,61,rng,num-start-391,391,17520,5.695504665374756,True,,True,1,False,1000,True,1.0
./expes/v2_2020-11-09_3bh_100-prng-1,30_base_hphc_100,100,first-100,91,rng,num-start-471,471,17520,6.387064218521118,True,,True,1,False,1000,True,1.0
./expes/v2_2020-11-09_3bh_100-prng-1,30_base_hphc_100,100,first-100,91,rng,num-start-501,501,17520,6.405215740203857,True,,True,1,False,1000,True,1.0
./expes/v2_2020-11-09_3bh_100-prng-1,30_base_hphc_100,100,first-100,61,rng,num-start-801,801,17520,11.628520488739014,True,,True,1,False,1000,True,1.0
./expes/v2_2020-11-09_3bh_100-prng-1,30_base_hphc_100,100,first-100,71,rng,num-start-241,241,17520,3.652738094329834,True,,True,1,False,1000,True,1.0
./expes/v2_2020-11-09_3bh_100-prng-1,30_base_hphc_100,100,first-100,31,rng,num-start-241,241,17520,3.5133590698242188,True,,True,1,False,1000,True,1.0
./expes/v2_2020-11-09_3bh_100-prng-1,30_base_hphc_100,100,first-100,41,rng,num-start-691,691,17520,9.752915620803833,True,,True,1,False,1000,True,1.0
./expes/v2_2020-11-09_3bh_100-prng-1,30_base_hphc_100,100,first-100,1,rng,num-start-171,171,17520,2.0701093673706055,True,,True,1,False,1000,True,1.0
./expes/v2_2020-11-09_3bh_100-prng-1,30_base_hphc_100,100,first-100,71,rng,num-start-291,291,17520,3.934525728225708,True,,True,1,False,1000,True,1.0
./expes/v2_2020-11-09_3bh_100-prng-1,30_base_hphc_100,100,first-100,51,rng,num-start-731,731,17520,9.846786260604858,True,,True,1,False,1000,True,1.0
./expes/v2_2020-11-09_3bh_100-prng-1,30_base_hphc_100,100,first-100,51,rng,num-start-741,741,17520,9.885940074920654,True,,True,1,False,1000,True,1.0
./expes/v2_2020-11-09_3bh_100-prng-1,30_base_hphc_100,100,first-100,11,rng,num-start-901,901,17520,12.427488803863525,True,,True,1,False,1000,True,1.0
./expes/v2_2020-11-09_3bh_100-prng-1,30_base_hphc_100,100,first-100,51,rng,num-start-641,641,17520,9.268481254577637,True,,True,1,False,1000,True,1.0
./expes/v2_2020-11-09_3bh_100-prng-1,30_base_hphc_100,100,first-100,71,rng,num-start-241,241,17520,3.682617664337158,True,,True,1,False,1000,True,1.0
./expes/v2_2020-11-09_3bh_100-prng-1,30_base_hphc_100,100,first-100,71,rng,num-start-551,551,17520,7.971694707870483,True,,True,1,False,1000,True,1.0
./expes/v2_2020-11-09_3bh_100-prng-1,30_base_hphc_100,100,first-100,31,rng,num-start-271,271,17520,4.004046440124512,True,,True,1,False,1000,True,1.0
./expes/v2_2020-11-09_3bh_100-prng-1,30_base_hphc_100,100,first-100,61,rng,num-start-801,801,17520,11.02782392501831,True,,True,1,False,1000,True,1.0
./expes/v2_2020-11-09_3bh_100-prng-1,30_base_hphc_100,100,first-100,81,rng,num-start-931,931,17520,13.471994400024414,True,,True,1,False,1000,True,1.0
./expes/v2_2020-11-09_3bh_100-prng-1,30_base_hphc_100,100,first-100,1,rng,num-start-871,871,17520,11.177623271942139,True,,True,1,False,1000,True,1.0
./expes/v2_2020-11-09_3bh_100-prng-1,30_base_hphc_100,100,first-100,31,rng,num-start-21,21,17520,1000.3142116069794,False,,False,1,True,1000,True,0.0
./expes/v2_2020-11-09_3bh_100-prng-1,30_base_hphc_100,100,first-100,31,rng,num-start-581,581,17520,8.334276914596558,True,,True,1,False,1000,True,1.0
./expes/v2_2020-11-09_3bh_100-prng-1,30_base_hphc_100,100,first-100,71,rng,num-start-871,871,17520,12.410349369049072,True,,True,1,False,1000,True,1.0
./expes/v2_2020-11-09_3bh_100-prng-1,30_base_hphc_100,100,first-100,11,rng,num-start-531,531,17520,7.414588928222656,True,,True,1,False,1000,True,1.0
./expes/v2_2020-11-09_3bh_100-prng-1,30_base_hphc_100,100,first-100,61,rng,num-start-451,451,17520,6.470687389373779,True,,True,1,False,1000,True,1.0
./expes/v2_2020-11-09_3bh_100-prng-1,30_base_hphc_100,100,first-100,61,rng,num-start-211,211,17520,3.273582696914673,True,,True,1,False,1000,True,1.0
./expes/v2_2020-11-09_3bh_100-prng-1,30_base_hphc_100,100,first-100,41,rng,num-start-741,741,17520,10.321338415145874,True,,True,1,False,1000,True,1.0
./expes/v2_2020-11-09_3bh_100-prng-1,30_base_hphc_100,100,first-100,41,rng,num-start-351,351,17520,4.825368404388428,True,,True,1,False,1000,True,1.0
./expes/v2_2020-11-09_3bh_100-prng-1,30_base_hphc_100,100,first-100,71,rng,num-start-951,951,17520,13.292662620544434,True,,True,1,False,1000,True,1.0
./expes/v2_2020-11-09_3bh_100-prng-1,30_base_hphc_100,100,first-100,41,rng,num-start-931,931,17520,13.208566427230835,True,,True,1,False,1000,True,1.0
./expes/v2_2020-11-09_3bh_100-prng-1,30_base_hphc_100,100,first-100,91,rng,num-start-601,601,17520,8.331204652786255,True,,True,1,False,1000,True,1.0
./expes/v2_2020-11-09_3bh_100-prng-1,30_base_hphc_100,100,first-100,21,rng,num-start-761,761,17520,10.995904445648193,True,,True,1,False,1000,True,1.0
./expes/v2_2020-11-09_3bh_100-prng-1,30_base_hphc_100,100,first-100,21,rng,num-start-951,951,17520,13.774678468704224,True,,True,1,False,1000,True,1.0
./expes/v2_2020-11-09_3bh_100-prng-1,30_base_hphc_100,100,first-100,11,rng,num-start-871,871,17520,11.493727684020996,True,,True,1,False,1000,True,1.0
./expes/v2_2020-11-09_3bh_100-prng-1,30_base_hphc_100,100,first-100,81,rng,num-start-511,511,17520,6.847494840621948,True,,True,1,False,1000,True,1.0
./expes/v2_2020-11-09_3bh_100-prng-1,30_base_hphc_100,100,first-100,81,rng,num-start-871,871,17520,11.719757556915283,True,,True,1,False,1000,True,1.0
./expes/v2_2020-11-09_3bh_100-prng-1,30_base_hphc_100,100,first-100,41,rng,num-start-691,691,17520,9.598214387893677,True,,True,1,False,1000,True,1.0
./expes/v2_2020-11-09_3bh_100-prng-1,30_base_hphc_100,100,first-100,71,rng,num-start-611,611,17520,8.69768738746643,True,,True,1,False,1000,True,1.0
./expes/v2_2020-11-09_3bh_100-prng-1,30_base_hphc_100,100,first-100,61,rng,num-start-781,781,17520,11.082863330841064,True,,True,1,False,1000,True,1.0
./expes/v2_2020-11-09_3bh_100-prng-1,30_base_hphc_100,100,first-100,91,rng,num-start-711,711,17520,9.421728610992432,True,,True,1,False,1000,True,1.0
./expes/v2_2020-11-09_3bh_100-prng-1,30_base_hphc_100,100,first-100,71,rng,num-start-101,101,17520,1.4765784740447998,True,,True,1,False,1000,True,1.0
./expes/v2_2020-11-09_3bh_100-prng-1,30_base_hphc_100,100,first-100,1,rng,num-start-301,301,17520,3.6766796112060547,True,,True,1,False,1000,True,1.0
./expes/v2_2020-11-09_3bh_100-prng-1,30_base_hphc_100,100,first-100,31,rng,num-start-211,211,17520,3.056535243988037,True,,True,1,False,1000,True,1.0
./expes/v2_2020-11-09_3bh_100-prng-1,30_base_hphc_100,100,first-100,81,rng,num-start-251,251,17520,3.5321013927459717,True,,True,1,False,1000,True,1.0
./expes/v2_2020-11-09_3bh_100-prng-1,30_base_hphc_100,100,first-100,1,rng,num-start-831,831,17520,10.903955459594727,True,,True,1,False,1000,True,1.0
./expes/v2_2020-11-09_3bh_100-prng-1,30_base_hphc_100,100,first-100,11,rng,num-start-401,401,17520,5.863215208053589,True,,True,1,False,1000,True,1.0
./expes/v2_2020-11-09_3bh_100-prng-1,30_base_hphc_100,100,first-100,1,rng,num-start-211,211,17520,2.7337567806243896,True,,True,1,False,1000,True,1.0
./expes/v2_2020-11-09_3bh_100-prng-1,30_base_hphc_100,100,first-100,41,rng,num-start-151,151,17520,2.2988531589508057,True,,True,1,False,1000,True,1.0
./expes/v2_2020-11-09_3bh_100-prng-1,30_base_hphc_100,100,first-100,1,rng,num-start-471,471,17520,6.2188355922698975,True,,True,1,False,1000,True,1.0
./expes/v2_2020-11-09_3bh_100-prng-1,30_base_hphc_100,100,first-100,1,rng,num-start-741,741,17520,9.9031822681427,True,,True,1,False,1000,True,1.0
./expes/v2_2020-11-09_3bh_100-prng-1,30_base_hphc_100,100,first-100,71,rng,num-start-711,711,17520,10.13422417640686,True,,True,1,False,1000,True,1.0
./expes/v2_2020-11-09_3bh_100-prng-1,30_base_hphc_100,100,first-100,61,rng,num-start-41,41,17520,1.0427899360656738,True,,True,1,False,1000,True,1.0
./expes/v2_2020-11-09_3bh_100-prng-1,30_base_hphc_100,100,first-100,11,rng,num-start-61,61,17520,1.0586698055267334,True,,True,1,False,1000,True,1.0
./expes/v2_2020-11-09_3bh_100-prng-1,30_base_hphc_100,100,first-100,21,rng,num-start-761,761,17520,11.147088527679443,True,,True,1,False,1000,True,1.0
./expes/v2_2020-11-09_3bh_100-prng-1,30_base_hphc_100,100,first-100,91,rng,num-start-561,561,17520,7.966645240783691,True,,True,1,False,1000,True,1.0
./expes/v2_2020-11-09_3bh_100-prng-1,30_base_hphc_100,100,first-100,1,rng,num-start-821,821,17520,10.997925043106079,True,,True,1,False,1000,True,1.0
./expes/v2_2020-11-09_3bh_100-prng-1,30_base_hphc_100,100,first-100,61,rng,num-start-331,331,17520,4.919798135757446,True,,True,1,False,1000,True,1.0
./expes/v2_2020-11-09_3bh_100-prng-1,30_base_hphc_100,100,first-100,11,rng,num-start-821,821,17520,11.370613813400269,True,,True,1,False,1000,True,1.0
./expes/v2_2020-11-09_3bh_100-prng-1,30_base_hphc_100,100,first-100,1,rng,num-start-91,91,17520,1.102301836013794,True,,True,1,False,1000,True,1.0
./expes/v2_2020-11-09_3bh_100-prng-1,30_base_hphc_100,100,first-100,31,rng,num-start-771,771,17520,11.182272672653198,True,,True,1,False,1000,True,1.0
./expes/v2_2020-11-09_3bh_100-prng-1,30_base_hphc_100,100,first-100,11,rng,num-start-381,381,17520,5.5882368087768555,True,,True,1,False,1000,True,1.0
./expes/v2_2020-11-09_3bh_100-prng-1,30_base_hphc_100,100,first-100,21,rng,num-start-981,981,17520,14.342511177062988,True,,True,1,False,1000,True,1.0
./expes/v2_2020-11-09_3bh_100-prng-1,30_base_hphc_100,100,first-100,21,rng,num-start-501,501,17520,7.519174814224243,True,,True,1,False,1000,True,1.0
./expes/v2_2020-11-09_3bh_100-prng-1,30_base_hphc_100,100,first-100,41,rng,num-start-281,281,17520,4.268787860870361,True,,True,1,False,1000,True,1.0
./expes/v2_2020-11-09_3bh_100-prng-1,30_base_hphc_100,100,first-100,31,rng,num-start-681,681,17520,9.890117645263672,True,,True,1,False,1000,True,1.0
./expes/v2_2020-11-09_3bh_100-prng-1,30_base_hphc_100,100,first-100,21,rng,num-start-541,541,17520,7.737213611602783,True,,True,1,False,1000,True,1.0
./expes/v2_2020-11-09_3bh_100-prng-1,30_base_hphc_100,100,first-100,41,rng,num-start-561,561,17520,8.093084335327148,True,,True,1,False,1000,True,1.0
./expes/v2_2020-11-09_3bh_100-prng-1,30_base_hphc_100,100,first-100,21,rng,num-start-601,601,17520,8.035751104354858,True,,True,1,False,1000,True,1.0
./expes/v2_2020-11-09_3bh_100-prng-1,30_base_hphc_100,100,first-100,21,rng,num-start-661,661,17520,8.997572898864746,True,,True,1,False,1000,True,1.0
./expes/v2_2020-11-09_3bh_100-prng-1,30_base_hphc_100,100,first-100,31,rng,num-start-261,261,17520,3.840859889984131,True,,True,1,False,1000,True,1.0
./expes/v2_2020-11-09_3bh_100-prng-1,30_base_hphc_100,100,first-100,71,rng,num-start-671,671,17520,9.38719367980957,True,,True,1,False,1000,True,1.0
./expes/v2_2020-11-09_3bh_100-prng-1,30_base_hphc_100,100,first-100,91,rng,num-start-981,981,17520,12.432451248168945,True,,True,1,False,1000,True,1.0
./expes/v2_2020-11-09_3bh_100-prng-1,30_base_hphc_100,100,first-100,91,rng,num-start-321,321,17520,4.33486008644104,True,,True,1,False,1000,True,1.0
./expes/v2_2020-11-09_3bh_100-prng-1,30_base_hphc_100,100,first-100,1,rng,num-start-991,991,17520,12.255701541900635,True,,True,1,False,1000,True,1.0
./expes/v2_2020-11-09_3bh_100-prng-1,30_base_hphc_100,100,first-100,31,rng,num-start-681,681,17520,9.69687533378601,True,,True,1,False,1000,True,1.0
./expes/v2_2020-11-09_3bh_100-prng-1,30_base_hphc_100,100,first-100,71,rng,num-start-981,981,17520,14.270828485488892,True,,True,1,False,1000,True,1.0
./expes/v2_2020-11-09_3bh_100-prng-1,30_base_hphc_100,100,first-100,81,rng,num-start-371,371,17520,5.407268524169922,True,,True,1,False,1000,True,1.0
./expes/v2_2020-11-09_3bh_100-prng-1,30_base_hphc_100,100,first-100,31,rng,num-start-961,961,17520,14.129825353622437,True,,True,1,False,1000,True,1.0
./expes/v2_2020-11-09_3bh_100-prng-1,30_base_hphc_100,100,first-100,51,rng,num-start-811,811,17520,12.077445983886719,True,,True,1,False,1000,True,1.0
./expes/v2_2020-11-09_3bh_100-prng-1,30_base_hphc_100,100,first-100,81,rng,num-start-841,841,17520,12.16487169265747,True,,True,1,False,1000,True,1.0
./expes/v2_2020-11-09_3bh_100-prng-1,30_base_hphc_100,100,first-100,21,rng,num-start-231,231,17520,3.610041379928589,True,,True,1,False,1000,True,1.0
./expes/v2_2020-11-09_3bh_100-prng-1,30_base_hphc_100,100,first-100,31,rng,num-start-371,371,17520,5.330965518951416,True,,True,1,False,1000,True,1.0
./expes/v2_2020-11-09_3bh_100-prng-1,30_base_hphc_100,100,first-100,61,rng,num-start-391,391,17520,5.8113932609558105,True,,True,1,False,1000,True,1.0
./expes/v2_2020-11-09_3bh_100-prng-1,30_base_hphc_100,100,first-100,11,rng,num-start-371,371,17520,5.313356876373291,True,,True,1,False,1000,True,1.0
./expes/v2_2020-11-09_3bh_100-prng-1,30_base_hphc_100,100,first-100,31,rng,num-start-371,371,17520,5.46971869468689,True,,True,1,False,1000,True,1.0
./expes/v2_2020-11-09_3bh_100-prng-1,30_base_hphc_100,100,first-100,71,rng,num-start-331,331,17520,4.522977590560913,True,,True,1,False,1000,True,1.0
./expes/v2_2020-11-09_3bh_100-prng-1,30_base_hphc_100,100,first-100,81,rng,num-start-151,151,17520,2.2804718017578125,True,,True,1,False,1000,True,1.0
./expes/v2_2020-11-09_3bh_100-prng-1,30_base_hphc_100,100,first-100,31,rng,num-start-31,31,17520,2.515251636505127,True,,True,1,False,1000,True,1.0
./expes/v2_2020-11-09_3bh_100-prng-1,30_base_hphc_100,100,first-100,91,rng,num-start-311,311,17520,4.475827217102051,True,,True,1,False,1000,True,1.0
./expes/v2_2020-11-09_3bh_100-prng-1,30_base_hphc_100,100,first-100,61,rng,num-start-401,401,17520,5.9643542766571045,True,,True,1,False,1000,True,1.0
./expes/v2_2020-11-09_3bh_100-prng-1,30_base_hphc_100,100,first-100,81,rng,num-start-741,741,17520,10.622660398483276,True,,True,1,False,1000,True,1.0
./expes/v2_2020-11-09_3bh_100-prng-1,30_base_hphc_100,100,first-100,51,rng,num-start-211,211,17520,3.4294562339782715,True,,True,1,False,1000,True,1.0
./expes/v2_2020-11-09_3bh_100-prng-1,30_base_hphc_100,100,first-100,11,rng,num-start-271,271,17520,3.875035524368286,True,,True,1,False,1000,True,1.0
./expes/v2_2020-11-09_3bh_100-prng-1,30_base_hphc_100,100,first-100,61,rng,num-start-691,691,17520,10.190736532211304,True,,True,1,False,1000,True,1.0
./expes/v2_2020-11-09_3bh_100-prng-1,30_base_hphc_100,100,first-100,21,rng,num-start-941,941,17520,13.895314693450928,True,,True,1,False,1000,True,1.0
./expes/v2_2020-11-09_3bh_100-prng-1,30_base_hphc_100,100,first-100,91,rng,num-start-861,861,17520,12.100661039352417,True,,True,1,False,1000,True,1.0
./expes/v2_2020-11-09_3bh_100-prng-1,30_base_hphc_100,100,first-100,81,rng,num-start-91,91,17520,1.4506735801696777,True,,True,1,False,1000,True,1.0
./expes/v2_2020-11-09_3bh_100-prng-1,30_base_hphc_100,100,first-100,71,rng,num-start-681,681,17520,10.05115032196045,True,,True,1,False,1000,True,1.0
./expes/v2_2020-11-09_3bh_100-prng-1,30_base_hphc_100,100,first-100,91,rng,num-start-901,901,17520,11.54373574256897,True,,True,1,False,1000,True,1.0
