expe,clients,clients_size,clients_subset,agg_size,method,days,days_size,days_total,time,valid,valid_sum,success,nsols,wall_hit,wall_time,pooled,valid_sums
./expes/v2_2020-11-09_3bh_100-prng-1,30_base_hphc_100,100,first-100,21,rng,num-start-401,401,17520,5.516998291015625,True,,True,1,False,1000,True,1.0
./expes/v2_2020-11-09_3bh_100-prng-1,30_base_hphc_100,100,first-100,61,rng,num-start-781,781,17520,10.360579252243042,True,,True,1,False,1000,True,1.0
./expes/v2_2020-11-09_3bh_100-prng-1,30_base_hphc_100,100,first-100,1,rng,num-start-201,201,17520,2.266721725463867,True,,True,1,False,1000,True,1.0
./expes/v2_2020-11-09_3bh_100-prng-1,30_base_hphc_100,100,first-100,31,rng,num-start-491,491,17520,5.999044418334961,True,,True,1,False,1000,True,1.0
./expes/v2_2020-11-09_3bh_100-prng-1,30_base_hphc_100,100,first-100,1,rng,num-start-301,301,17520,3.118638038635254,True,,True,1,False,1000,True,1.0
./expes/v2_2020-11-09_3bh_100-prng-1,30_base_hphc_100,100,first-100,41,rng,num-start-431,431,17520,5.579625368118286,True,,True,1,False,1000,True,1.0
./expes/v2_2020-11-09_3bh_100-prng-1,30_base_hphc_100,100,first-100,51,rng,num-start-651,651,17520,8.410641431808472,True,,True,1,False,1000,True,1.0
./expes/v2_2020-11-09_3bh_100-prng-1,30_base_hphc_100,100,first-100,61,rng,num-start-381,381,17520,4.667346000671387,True,,True,1,False,1000,True,1.0
./expes/v2_2020-11-09_3bh_100-prng-1,30_base_hphc_100,100,first-100,91,rng,num-start-721,721,17520,7.631792306900024,True,,True,1,False,1000,True,1.0
./expes/v2_2020-11-09_3bh_100-prng-1,30_base_hphc_100,100,first-100,1,rng,num-start-811,811,17520,8.565630197525024,True,,True,1,False,1000,True,1.0
./expes/v2_2020-11-09_3bh_100-prng-1,30_base_hphc_100,100,first-100,81,rng,num-start-931,931,17520,10.680041074752808,True,,True,1,False,1000,True,1.0
./expes/v2_2020-11-09_3bh_100-prng-1,30_base_hphc_100,100,first-100,41,rng,num-start-711,711,17520,8.878072500228882,True,,True,1,False,1000,True,1.0
./expes/v2_2020-11-09_3bh_100-prng-1,30_base_hphc_100,100,first-100,21,rng,num-start-571,571,17520,6.990960359573364,True,,True,1,False,1000,True,1.0
./expes/v2_2020-11-09_3bh_100-prng-1,30_base_hphc_100,100,first-100,1,rng,num-start-881,881,17520,9.484119176864624,True,,True,1,False,1000,True,1.0
./expes/v2_2020-11-09_3bh_100-prng-1,30_base_hphc_100,100,first-100,51,rng,num-start-331,331,17520,4.4233222007751465,True,,True,1,False,1000,True,1.0
./expes/v2_2020-11-09_3bh_100-prng-1,30_base_hphc_100,100,first-100,31,rng,num-start-901,901,17520,11.814117908477783,True,,True,1,False,1000,True,1.0
./expes/v2_2020-11-09_3bh_100-prng-1,30_base_hphc_100,100,first-100,11,rng,num-start-571,571,17520,6.785823106765747,True,,True,1,False,1000,True,1.0
./expes/v2_2020-11-09_3bh_100-prng-1,30_base_hphc_100,100,first-100,11,rng,num-start-901,901,17520,9.848819255828857,True,,True,1,False,1000,True,1.0
./expes/v2_2020-11-09_3bh_100-prng-1,30_base_hphc_100,100,first-100,1,rng,num-start-351,351,17520,3.526365280151367,True,,True,1,False,1000,True,1.0
./expes/v2_2020-11-09_3bh_100-prng-1,30_base_hphc_100,100,first-100,71,rng,num-start-521,521,17520,5.662425518035889,True,,True,1,False,1000,True,1.0
./expes/v2_2020-11-09_3bh_100-prng-1,30_base_hphc_100,100,first-100,71,rng,num-start-551,551,17520,6.766586542129517,True,,True,1,False,1000,True,1.0
./expes/v2_2020-11-09_3bh_100-prng-1,30_base_hphc_100,100,first-100,81,rng,num-start-981,981,17520,11.055818796157837,True,,True,1,False,1000,True,1.0
./expes/v2_2020-11-09_3bh_100-prng-1,30_base_hphc_100,100,first-100,31,rng,num-start-851,851,17520,10.584821939468384,True,,True,1,False,1000,True,1.0
./expes/v2_2020-11-09_3bh_100-prng-1,30_base_hphc_100,100,first-100,41,rng,num-start-11,11,17520,1003.0459425449371,False,,False,0,True,1000,True,0.0
./expes/v2_2020-11-09_3bh_100-prng-1,30_base_hphc_100,100,first-100,71,rng,num-start-711,711,17520,8.574135303497314,True,,True,1,False,1000,True,1.0
./expes/v2_2020-11-09_3bh_100-prng-1,30_base_hphc_100,100,first-100,41,rng,num-start-821,821,17520,9.725204944610596,True,,True,1,False,1000,True,1.0
./expes/v2_2020-11-09_3bh_100-prng-1,30_base_hphc_100,100,first-100,41,rng,num-start-991,991,17520,12.640583515167236,True,,True,1,False,1000,True,1.0
./expes/v2_2020-11-09_3bh_100-prng-1,30_base_hphc_100,100,first-100,31,rng,num-start-481,481,17520,5.858103275299072,True,,True,1,False,1000,True,1.0
./expes/v2_2020-11-09_3bh_100-prng-1,30_base_hphc_100,100,first-100,81,rng,num-start-361,361,17520,4.543786525726318,True,,True,1,False,1000,True,1.0
./expes/v2_2020-11-09_3bh_100-prng-1,30_base_hphc_100,100,first-100,21,rng,num-start-681,681,17520,7.806460857391357,True,,True,1,False,1000,True,1.0
./expes/v2_2020-11-09_3bh_100-prng-1,30_base_hphc_100,100,first-100,51,rng,num-start-791,791,17520,9.9191734790802,True,,True,1,False,1000,True,1.0
./expes/v2_2020-11-09_3bh_100-prng-1,30_base_hphc_100,100,first-100,41,rng,num-start-731,731,17520,9.172974348068237,True,,True,1,False,1000,True,1.0
./expes/v2_2020-11-09_3bh_100-prng-1,30_base_hphc_100,100,first-100,51,rng,num-start-651,651,17520,7.6953136920928955,True,,True,1,False,1000,True,1.0
./expes/v2_2020-11-09_3bh_100-prng-1,30_base_hphc_100,100,first-100,31,rng,num-start-101,101,17520,1.1874456405639648,True,,True,1,False,1000,True,1.0
./expes/v2_2020-11-09_3bh_100-prng-1,30_base_hphc_100,100,first-100,71,rng,num-start-731,731,17520,7.9662604331970215,True,,True,1,False,1000,True,1.0
./expes/v2_2020-11-09_3bh_100-prng-1,30_base_hphc_100,100,first-100,61,rng,num-start-241,241,17520,3.2001712322235107,True,,True,1,False,1000,True,1.0
./expes/v2_2020-11-09_3bh_100-prng-1,30_base_hphc_100,100,first-100,21,rng,num-start-981,981,17520,9.87580132484436,True,,True,1,False,1000,True,1.0
./expes/v2_2020-11-09_3bh_100-prng-1,30_base_hphc_100,100,first-100,91,rng,num-start-721,721,17520,7.3086206912994385,True,,True,1,False,1000,True,1.0
./expes/v2_2020-11-09_3bh_100-prng-1,30_base_hphc_100,100,first-100,21,rng,num-start-171,171,17520,2.099257469177246,True,,True,1,False,1000,True,1.0
./expes/v2_2020-11-09_3bh_100-prng-1,30_base_hphc_100,100,first-100,91,rng,num-start-371,371,17520,4.150055408477783,True,,True,1,False,1000,True,1.0
./expes/v2_2020-11-09_3bh_100-prng-1,30_base_hphc_100,100,first-100,21,rng,num-start-691,691,17520,7.858183145523071,True,,True,1,False,1000,True,1.0
./expes/v2_2020-11-09_3bh_100-prng-1,30_base_hphc_100,100,first-100,21,rng,num-start-81,81,17520,1.1102406978607178,True,,True,1,False,1000,True,1.0
./expes/v2_2020-11-09_3bh_100-prng-1,30_base_hphc_100,100,first-100,41,rng,num-start-211,211,17520,2.761882781982422,True,,True,1,False,1000,True,1.0
./expes/v2_2020-11-09_3bh_100-prng-1,30_base_hphc_100,100,first-100,11,rng,num-start-351,351,17520,3.9502205848693848,True,,True,1,False,1000,True,1.0
./expes/v2_2020-11-09_3bh_100-prng-1,30_base_hphc_100,100,first-100,41,rng,num-start-771,771,17520,9.206870079040527,True,,True,1,False,1000,True,1.0
./expes/v2_2020-11-09_3bh_100-prng-1,30_base_hphc_100,100,first-100,1,rng,num-start-281,281,17520,2.8047451972961426,True,,True,1,False,1000,True,1.0
./expes/v2_2020-11-09_3bh_100-prng-1,30_base_hphc_100,100,first-100,1,rng,num-start-271,271,17520,2.724820613861084,True,,True,1,False,1000,True,1.0
./expes/v2_2020-11-09_3bh_100-prng-1,30_base_hphc_100,100,first-100,41,rng,num-start-701,701,17520,8.353090524673462,True,,True,1,False,1000,True,1.0
./expes/v2_2020-11-09_3bh_100-prng-1,30_base_hphc_100,100,first-100,1,rng,num-start-41,41,17520,0.4058675765991211,True,,True,1,False,1000,True,1.0
./expes/v2_2020-11-09_3bh_100-prng-1,30_base_hphc_100,100,first-100,11,rng,num-start-841,841,17520,9.90324878692627,True,,True,1,False,1000,True,1.0
./expes/v2_2020-11-09_3bh_100-prng-1,30_base_hphc_100,100,first-100,21,rng,num-start-321,321,17520,4.064045190811157,True,,True,1,False,1000,True,1.0
./expes/v2_2020-11-09_3bh_100-prng-1,30_base_hphc_100,100,first-100,11,rng,num-start-871,871,17520,10.318063735961914,True,,True,1,False,1000,True,1.0
./expes/v2_2020-11-09_3bh_100-prng-1,30_base_hphc_100,100,first-100,81,rng,num-start-811,811,17520,9.462760925292969,True,,True,1,False,1000,True,1.0
./expes/v2_2020-11-09_3bh_100-prng-1,30_base_hphc_100,100,first-100,11,rng,num-start-651,651,17520,7.90391731262207,True,,True,1,False,1000,True,1.0
./expes/v2_2020-11-09_3bh_100-prng-1,30_base_hphc_100,100,first-100,71,rng,num-start-171,171,17520,2.346308946609497,True,,True,1,False,1000,True,1.0
./expes/v2_2020-11-09_3bh_100-prng-1,30_base_hphc_100,100,first-100,81,rng,num-start-181,181,17520,2.440894365310669,True,,True,1,False,1000,True,1.0
./expes/v2_2020-11-09_3bh_100-prng-1,30_base_hphc_100,100,first-100,1,rng,num-start-301,301,17520,3.1593332290649414,True,,True,1,False,1000,True,1.0
./expes/v2_2020-11-09_3bh_100-prng-1,30_base_hphc_100,100,first-100,81,rng,num-start-581,581,17520,6.787153005599976,True,,True,1,False,1000,True,1.0
./expes/v2_2020-11-09_3bh_100-prng-1,30_base_hphc_100,100,first-100,21,rng,num-start-61,61,17520,0.9579176902770996,True,,True,1,False,1000,True,1.0
./expes/v2_2020-11-09_3bh_100-prng-1,30_base_hphc_100,100,first-100,31,rng,num-start-371,371,17520,4.568186521530151,True,,True,1,False,1000,True,1.0
./expes/v2_2020-11-09_3bh_100-prng-1,30_base_hphc_100,100,first-100,81,rng,num-start-371,371,17520,4.149546146392822,True,,True,1,False,1000,True,1.0
./expes/v2_2020-11-09_3bh_100-prng-1,30_base_hphc_100,100,first-100,51,rng,num-start-161,161,17520,2.253004550933838,True,,True,1,False,1000,True,1.0
./expes/v2_2020-11-09_3bh_100-prng-1,30_base_hphc_100,100,first-100,51,rng,num-start-291,291,17520,3.6485016345977783,True,,True,1,False,1000,True,1.0
./expes/v2_2020-11-09_3bh_100-prng-1,30_base_hphc_100,100,first-100,71,rng,num-start-121,121,17520,1.9198412895202637,True,,True,1,False,1000,True,1.0
./expes/v2_2020-11-09_3bh_100-prng-1,30_base_hphc_100,100,first-100,61,rng,num-start-241,241,17520,3.2286086082458496,True,,True,1,False,1000,True,1.0
./expes/v2_2020-11-09_3bh_100-prng-1,30_base_hphc_100,100,first-100,61,rng,num-start-601,601,17520,7.66845703125,True,,True,1,False,1000,True,1.0
./expes/v2_2020-11-09_3bh_100-prng-1,30_base_hphc_100,100,first-100,71,rng,num-start-121,121,17520,1.7154383659362793,True,,True,1,False,1000,True,1.0
./expes/v2_2020-11-09_3bh_100-prng-1,30_base_hphc_100,100,first-100,11,rng,num-start-211,211,17520,2.5918216705322266,True,,True,1,False,1000,True,1.0
./expes/v2_2020-11-09_3bh_100-prng-1,30_base_hphc_100,100,first-100,51,rng,num-start-231,231,17520,2.9032251834869385,True,,True,1,False,1000,True,1.0
./expes/v2_2020-11-09_3bh_100-prng-1,30_base_hphc_100,100,first-100,11,rng,num-start-731,731,17520,8.685592889785767,True,,True,1,False,1000,True,1.0
./expes/v2_2020-11-09_3bh_100-prng-1,30_base_hphc_100,100,first-100,41,rng,num-start-771,771,17520,10.318262338638306,True,,True,1,False,1000,True,1.0
./expes/v2_2020-11-09_3bh_100-prng-1,30_base_hphc_100,100,first-100,61,rng,num-start-71,71,17520,0.8864908218383789,True,,True,1,False,1000,True,1.0
./expes/v2_2020-11-09_3bh_100-prng-1,30_base_hphc_100,100,first-100,21,rng,num-start-541,541,17520,6.285551309585571,True,,True,1,False,1000,True,1.0
./expes/v2_2020-11-09_3bh_100-prng-1,30_base_hphc_100,100,first-100,61,rng,num-start-11,11,17520,1000.5523655414581,False,,False,0,True,1000,True,0.0
./expes/v2_2020-11-09_3bh_100-prng-1,30_base_hphc_100,100,first-100,61,rng,num-start-51,51,17520,0.8431205749511719,True,,True,1,False,1000,True,1.0
./expes/v2_2020-11-09_3bh_100-prng-1,30_base_hphc_100,100,first-100,61,rng,num-start-981,981,17520,12.345139026641846,True,,True,1,False,1000,True,1.0
./expes/v2_2020-11-09_3bh_100-prng-1,30_base_hphc_100,100,first-100,91,rng,num-start-891,891,17520,9.442739486694336,True,,True,1,False,1000,True,1.0
./expes/v2_2020-11-09_3bh_100-prng-1,30_base_hphc_100,100,first-100,71,rng,num-start-121,121,17520,1.7127501964569092,True,,True,1,False,1000,True,1.0
./expes/v2_2020-11-09_3bh_100-prng-1,30_base_hphc_100,100,first-100,51,rng,num-start-31,31,17520,221.47260785102844,True,,True,1,False,1000,True,1.0
./expes/v2_2020-11-09_3bh_100-prng-1,30_base_hphc_100,100,first-100,71,rng,num-start-471,471,17520,5.453105449676514,True,,True,1,False,1000,True,1.0
./expes/v2_2020-11-09_3bh_100-prng-1,30_base_hphc_100,100,first-100,51,rng,num-start-261,261,17520,3.8338654041290283,True,,True,1,False,1000,True,1.0
./expes/v2_2020-11-09_3bh_100-prng-1,30_base_hphc_100,100,first-100,91,rng,num-start-341,341,17520,3.9541618824005127,True,,True,1,False,1000,True,1.0
./expes/v2_2020-11-09_3bh_100-prng-1,30_base_hphc_100,100,first-100,81,rng,num-start-761,761,17520,8.471333026885986,True,,True,1,False,1000,True,1.0
./expes/v2_2020-11-09_3bh_100-prng-1,30_base_hphc_100,100,first-100,31,rng,num-start-91,91,17520,1.2229113578796387,True,,True,1,False,1000,True,1.0
./expes/v2_2020-11-09_3bh_100-prng-1,30_base_hphc_100,100,first-100,61,rng,num-start-511,511,17520,6.231109142303467,True,,True,1,False,1000,True,1.0
./expes/v2_2020-11-09_3bh_100-prng-1,30_base_hphc_100,100,first-100,91,rng,num-start-851,851,17520,8.672461986541748,True,,True,1,False,1000,True,1.0
./expes/v2_2020-11-09_3bh_100-prng-1,30_base_hphc_100,100,first-100,1,rng,num-start-801,801,17520,7.985250473022461,True,,True,1,False,1000,True,1.0
./expes/v2_2020-11-09_3bh_100-prng-1,30_base_hphc_100,100,first-100,31,rng,num-start-591,591,17520,7.371068716049194,True,,True,1,False,1000,True,1.0
./expes/v2_2020-11-09_3bh_100-prng-1,30_base_hphc_100,100,first-100,91,rng,num-start-841,841,17520,9.521512031555176,True,,True,1,False,1000,True,1.0
./expes/v2_2020-11-09_3bh_100-prng-1,30_base_hphc_100,100,first-100,11,rng,num-start-51,51,17520,0.823030948638916,True,,True,1,False,1000,True,1.0
./expes/v2_2020-11-09_3bh_100-prng-1,30_base_hphc_100,100,first-100,31,rng,num-start-911,911,17520,10.221369743347168,True,,True,1,False,1000,True,1.0
./expes/v2_2020-11-09_3bh_100-prng-1,30_base_hphc_100,100,first-100,11,rng,num-start-761,761,17520,9.019315242767334,True,,True,1,False,1000,True,1.0
./expes/v2_2020-11-09_3bh_100-prng-1,30_base_hphc_100,100,first-100,1,rng,num-start-171,171,17520,1.6888551712036133,True,,True,1,False,1000,True,1.0
./expes/v2_2020-11-09_3bh_100-prng-1,30_base_hphc_100,100,first-100,51,rng,num-start-411,411,17520,4.690410614013672,True,,True,1,False,1000,True,1.0
./expes/v2_2020-11-09_3bh_100-prng-1,30_base_hphc_100,100,first-100,21,rng,num-start-261,261,17520,3.0655250549316406,True,,True,1,False,1000,True,1.0
./expes/v2_2020-11-09_3bh_100-prng-1,30_base_hphc_100,100,first-100,41,rng,num-start-231,231,17520,2.876025915145874,True,,True,1,False,1000,True,1.0
./expes/v2_2020-11-09_3bh_100-prng-1,30_base_hphc_100,100,first-100,51,rng,num-start-401,401,17520,4.317683219909668,True,,True,1,False,1000,True,1.0
./expes/v2_2020-11-09_3bh_100-prng-1,30_base_hphc_100,100,first-100,41,rng,num-start-641,641,17520,7.671821594238281,True,,True,1,False,1000,True,1.0
./expes/v2_2020-11-09_3bh_100-prng-1,30_base_hphc_100,100,first-100,31,rng,num-start-541,541,17520,6.425074100494385,True,,True,1,False,1000,True,1.0
./expes/v2_2020-11-09_3bh_100-prng-1,30_base_hphc_100,100,first-100,41,rng,num-start-591,591,17520,7.53174901008606,True,,True,1,False,1000,True,1.0
./expes/v2_2020-11-09_3bh_100-prng-1,30_base_hphc_100,100,first-100,21,rng,num-start-721,721,17520,8.793297052383423,True,,True,1,False,1000,True,1.0
./expes/v2_2020-11-09_3bh_100-prng-1,30_base_hphc_100,100,first-100,91,rng,num-start-211,211,17520,2.801974058151245,True,,True,1,False,1000,True,1.0
./expes/v2_2020-11-09_3bh_100-prng-1,30_base_hphc_100,100,first-100,71,rng,num-start-941,941,17520,11.102909088134766,True,,True,1,False,1000,True,1.0
./expes/v2_2020-11-09_3bh_100-prng-1,30_base_hphc_100,100,first-100,11,rng,num-start-981,981,17520,11.145831823348999,True,,True,1,False,1000,True,1.0
./expes/v2_2020-11-09_3bh_100-prng-1,30_base_hphc_100,100,first-100,31,rng,num-start-691,691,17520,8.269800901412964,True,,True,1,False,1000,True,1.0
./expes/v2_2020-11-09_3bh_100-prng-1,30_base_hphc_100,100,first-100,31,rng,num-start-111,111,17520,1.3697600364685059,True,,True,1,False,1000,True,1.0
./expes/v2_2020-11-09_3bh_100-prng-1,30_base_hphc_100,100,first-100,31,rng,num-start-121,121,17520,1.5764405727386475,True,,True,1,False,1000,True,1.0
./expes/v2_2020-11-09_3bh_100-prng-1,30_base_hphc_100,100,first-100,61,rng,num-start-501,501,17520,5.825780630111694,True,,True,1,False,1000,True,1.0
./expes/v2_2020-11-09_3bh_100-prng-1,30_base_hphc_100,100,first-100,1,rng,num-start-831,831,17520,8.415908813476562,True,,True,1,False,1000,True,1.0
./expes/v2_2020-11-09_3bh_100-prng-1,30_base_hphc_100,100,first-100,31,rng,num-start-21,21,17520,229.00451850891113,True,,True,1,False,1000,True,1.0
./expes/v2_2020-11-09_3bh_100-prng-1,30_base_hphc_100,100,first-100,51,rng,num-start-621,621,17520,7.451516389846802,True,,True,1,False,1000,True,1.0
./expes/v2_2020-11-09_3bh_100-prng-1,30_base_hphc_100,100,first-100,91,rng,num-start-751,751,17520,7.787854194641113,True,,True,1,False,1000,True,1.0
./expes/v2_2020-11-09_3bh_100-prng-1,30_base_hphc_100,100,first-100,91,rng,num-start-861,861,17520,9.529534578323364,True,,True,1,False,1000,True,1.0
./expes/v2_2020-11-09_3bh_100-prng-1,30_base_hphc_100,100,first-100,51,rng,num-start-781,781,17520,9.674503564834595,True,,True,1,False,1000,True,1.0
./expes/v2_2020-11-09_3bh_100-prng-1,30_base_hphc_100,100,first-100,71,rng,num-start-461,461,17520,8.250004529953003,True,,True,1,False,1000,True,1.0
./expes/v2_2020-11-09_3bh_100-prng-1,30_base_hphc_100,100,first-100,91,rng,num-start-751,751,17520,8.642793416976929,True,,True,1,False,1000,True,1.0
./expes/v2_2020-11-09_3bh_100-prng-1,30_base_hphc_100,100,first-100,41,rng,num-start-61,61,17520,0.8979768753051758,True,,True,1,False,1000,True,1.0
./expes/v2_2020-11-09_3bh_100-prng-1,30_base_hphc_100,100,first-100,71,rng,num-start-551,551,17520,6.98159122467041,True,,True,1,False,1000,True,1.0
./expes/v2_2020-11-09_3bh_100-prng-1,30_base_hphc_100,100,first-100,1,rng,num-start-91,91,17520,0.9798018932342529,True,,True,1,False,1000,True,1.0
./expes/v2_2020-11-09_3bh_100-prng-1,30_base_hphc_100,100,first-100,1,rng,num-start-61,61,17520,0.6357581615447998,True,,True,1,False,1000,True,1.0
./expes/v2_2020-11-09_3bh_100-prng-1,30_base_hphc_100,100,first-100,91,rng,num-start-901,901,17520,10.313102722167969,True,,True,1,False,1000,True,1.0
./expes/v2_2020-11-09_3bh_100-prng-1,30_base_hphc_100,100,first-100,81,rng,num-start-371,371,17520,4.702903985977173,True,,True,1,False,1000,True,1.0
./expes/v2_2020-11-09_3bh_100-prng-1,30_base_hphc_100,100,first-100,31,rng,num-start-191,191,17520,2.6521925926208496,True,,True,1,False,1000,True,1.0
./expes/v2_2020-11-09_3bh_100-prng-1,30_base_hphc_100,100,first-100,71,rng,num-start-361,361,17520,4.214678525924683,True,,True,1,False,1000,True,1.0
./expes/v2_2020-11-09_3bh_100-prng-1,30_base_hphc_100,100,first-100,91,rng,num-start-991,991,17520,10.978705167770386,True,,True,1,False,1000,True,1.0
./expes/v2_2020-11-09_3bh_100-prng-1,30_base_hphc_100,100,first-100,51,rng,num-start-301,301,17520,4.11568021774292,True,,True,1,False,1000,True,1.0
./expes/v2_2020-11-09_3bh_100-prng-1,30_base_hphc_100,100,first-100,1,rng,num-start-581,581,17520,6.16524338722229,True,,True,1,False,1000,True,1.0
./expes/v2_2020-11-09_3bh_100-prng-1,30_base_hphc_100,100,first-100,61,rng,num-start-321,321,17520,4.438117504119873,True,,True,1,False,1000,True,1.0
./expes/v2_2020-11-09_3bh_100-prng-1,30_base_hphc_100,100,first-100,41,rng,num-start-891,891,17520,11.616461038589478,True,,True,1,False,1000,True,1.0
./expes/v2_2020-11-09_3bh_100-prng-1,30_base_hphc_100,100,first-100,51,rng,num-start-151,151,17520,2.1198313236236572,True,,True,1,False,1000,True,1.0
./expes/v2_2020-11-09_3bh_100-prng-1,30_base_hphc_100,100,first-100,51,rng,num-start-501,501,17520,6.282690048217773,True,,True,1,False,1000,True,1.0
./expes/v2_2020-11-09_3bh_100-prng-1,30_base_hphc_100,100,first-100,31,rng,num-start-101,101,17520,1.3518564701080322,True,,True,1,False,1000,True,1.0
./expes/v2_2020-11-09_3bh_100-prng-1,30_base_hphc_100,100,first-100,51,rng,num-start-371,371,17520,4.544916868209839,True,,True,1,False,1000,True,1.0
./expes/v2_2020-11-09_3bh_100-prng-1,30_base_hphc_100,100,first-100,71,rng,num-start-651,651,17520,7.8574159145355225,True,,True,1,False,1000,True,1.0
./expes/v2_2020-11-09_3bh_100-prng-1,30_base_hphc_100,100,first-100,1,rng,num-start-531,531,17520,5.505468130111694,True,,True,1,False,1000,True,1.0
./expes/v2_2020-11-09_3bh_100-prng-1,30_base_hphc_100,100,first-100,91,rng,num-start-991,991,17520,10.534591436386108,True,,True,1,False,1000,True,1.0
./expes/v2_2020-11-09_3bh_100-prng-1,30_base_hphc_100,100,first-100,71,rng,num-start-791,791,17520,10.234901666641235,True,,True,1,False,1000,True,1.0
./expes/v2_2020-11-09_3bh_100-prng-1,30_base_hphc_100,100,first-100,51,rng,num-start-801,801,17520,10.519741773605347,True,,True,1,False,1000,True,1.0
./expes/v2_2020-11-09_3bh_100-prng-1,30_base_hphc_100,100,first-100,91,rng,num-start-211,211,17520,2.5508992671966553,True,,True,1,False,1000,True,1.0
./expes/v2_2020-11-09_3bh_100-prng-1,30_base_hphc_100,100,first-100,41,rng,num-start-921,921,17520,11.840847253799438,True,,True,1,False,1000,True,1.0
./expes/v2_2020-11-09_3bh_100-prng-1,30_base_hphc_100,100,first-100,71,rng,num-start-681,681,17520,7.878053426742554,True,,True,1,False,1000,True,1.0
./expes/v2_2020-11-09_3bh_100-prng-1,30_base_hphc_100,100,first-100,71,rng,num-start-651,651,17520,8.076063632965088,True,,True,1,False,1000,True,1.0
./expes/v2_2020-11-09_3bh_100-prng-1,30_base_hphc_100,100,first-100,61,rng,num-start-151,151,17520,2.013359308242798,True,,True,1,False,1000,True,1.0
./expes/v2_2020-11-09_3bh_100-prng-1,30_base_hphc_100,100,first-100,61,rng,num-start-221,221,17520,3.337852716445923,True,,True,1,False,1000,True,1.0
./expes/v2_2020-11-09_3bh_100-prng-1,30_base_hphc_100,100,first-100,71,rng,num-start-441,441,17520,5.3436808586120605,True,,True,1,False,1000,True,1.0
./expes/v2_2020-11-09_3bh_100-prng-1,30_base_hphc_100,100,first-100,61,rng,num-start-21,21,17520,1000.2857100963593,False,,False,0,True,1000,True,0.0
./expes/v2_2020-11-09_3bh_100-prng-1,30_base_hphc_100,100,first-100,71,rng,num-start-51,51,17520,0.6621189117431641,True,,True,1,False,1000,True,1.0
./expes/v2_2020-11-09_3bh_100-prng-1,30_base_hphc_100,100,first-100,91,rng,num-start-571,571,17520,6.156897068023682,True,,True,1,False,1000,True,1.0
./expes/v2_2020-11-09_3bh_100-prng-1,30_base_hphc_100,100,first-100,51,rng,num-start-761,761,17520,8.121015071868896,True,,True,1,False,1000,True,1.0
./expes/v2_2020-11-09_3bh_100-prng-1,30_base_hphc_100,100,first-100,41,rng,num-start-471,471,17520,5.254389762878418,True,,True,1,False,1000,True,1.0
./expes/v2_2020-11-09_3bh_100-prng-1,30_base_hphc_100,100,first-100,71,rng,num-start-561,561,17520,6.84652042388916,True,,True,1,False,1000,True,1.0
./expes/v2_2020-11-09_3bh_100-prng-1,30_base_hphc_100,100,first-100,41,rng,num-start-471,471,17520,5.373779773712158,True,,True,1,False,1000,True,1.0
./expes/v2_2020-11-09_3bh_100-prng-1,30_base_hphc_100,100,first-100,21,rng,num-start-701,701,17520,8.171488046646118,True,,True,1,False,1000,True,1.0
./expes/v2_2020-11-09_3bh_100-prng-1,30_base_hphc_100,100,first-100,71,rng,num-start-331,331,17520,4.146534204483032,True,,True,1,False,1000,True,1.0
./expes/v2_2020-11-09_3bh_100-prng-1,30_base_hphc_100,100,first-100,31,rng,num-start-21,21,17520,1017.7586295604706,False,,False,0,True,1000,True,0.0
./expes/v2_2020-11-09_3bh_100-prng-1,30_base_hphc_100,100,first-100,1,rng,num-start-461,461,17520,4.49265718460083,True,,True,1,False,1000,True,1.0
./expes/v2_2020-11-09_3bh_100-prng-1,30_base_hphc_100,100,first-100,41,rng,num-start-351,351,17520,4.328596353530884,True,,True,1,False,1000,True,1.0
./expes/v2_2020-11-09_3bh_100-prng-1,30_base_hphc_100,100,first-100,31,rng,num-start-71,71,17520,0.8715493679046631,True,,True,1,False,1000,True,1.0
./expes/v2_2020-11-09_3bh_100-prng-1,30_base_hphc_100,100,first-100,61,rng,num-start-281,281,17520,3.570871591567993,True,,True,1,False,1000,True,1.0
./expes/v2_2020-11-09_3bh_100-prng-1,30_base_hphc_100,100,first-100,71,rng,num-start-881,881,17520,10.42880129814148,True,,True,1,False,1000,True,1.0
./expes/v2_2020-11-09_3bh_100-prng-1,30_base_hphc_100,100,first-100,31,rng,num-start-721,721,17520,8.096850156784058,True,,True,1,False,1000,True,1.0
./expes/v2_2020-11-09_3bh_100-prng-1,30_base_hphc_100,100,first-100,21,rng,num-start-911,911,17520,9.964846849441528,True,,True,1,False,1000,True,1.0
./expes/v2_2020-11-09_3bh_100-prng-1,30_base_hphc_100,100,first-100,71,rng,num-start-361,361,17520,4.337364673614502,True,,True,1,False,1000,True,1.0
./expes/v2_2020-11-09_3bh_100-prng-1,30_base_hphc_100,100,first-100,91,rng,num-start-751,751,17520,8.552329063415527,True,,True,1,False,1000,True,1.0
./expes/v2_2020-11-09_3bh_100-prng-1,30_base_hphc_100,100,first-100,91,rng,num-start-911,911,17520,9.31360936164856,True,,True,1,False,1000,True,1.0
./expes/v2_2020-11-09_3bh_100-prng-1,30_base_hphc_100,100,first-100,71,rng,num-start-451,451,17520,5.370828628540039,True,,True,1,False,1000,True,1.0
./expes/v2_2020-11-09_3bh_100-prng-1,30_base_hphc_100,100,first-100,41,rng,num-start-11,11,17520,1005.4042301177979,False,,False,0,True,1000,True,0.0
./expes/v2_2020-11-09_3bh_100-prng-1,30_base_hphc_100,100,first-100,1,rng,num-start-51,51,17520,0.5455257892608643,True,,True,1,False,1000,True,1.0
./expes/v2_2020-11-09_3bh_100-prng-1,30_base_hphc_100,100,first-100,51,rng,num-start-151,151,17520,2.0378780364990234,True,,True,1,False,1000,True,1.0
./expes/v2_2020-11-09_3bh_100-prng-1,30_base_hphc_100,100,first-100,31,rng,num-start-31,31,17520,0.9499571323394775,True,,True,1,False,1000,True,1.0
./expes/v2_2020-11-09_3bh_100-prng-1,30_base_hphc_100,100,first-100,51,rng,num-start-501,501,17520,6.7541093826293945,True,,True,1,False,1000,True,1.0
./expes/v2_2020-11-09_3bh_100-prng-1,30_base_hphc_100,100,first-100,41,rng,num-start-191,191,17520,2.7162773609161377,True,,True,1,False,1000,True,1.0
./expes/v2_2020-11-09_3bh_100-prng-1,30_base_hphc_100,100,first-100,21,rng,num-start-671,671,17520,8.376617193222046,True,,True,1,False,1000,True,1.0
./expes/v2_2020-11-09_3bh_100-prng-1,30_base_hphc_100,100,first-100,41,rng,num-start-591,591,17520,7.410452842712402,True,,True,1,False,1000,True,1.0
./expes/v2_2020-11-09_3bh_100-prng-1,30_base_hphc_100,100,first-100,11,rng,num-start-231,231,17520,2.8662221431732178,True,,True,1,False,1000,True,1.0
./expes/v2_2020-11-09_3bh_100-prng-1,30_base_hphc_100,100,first-100,41,rng,num-start-241,241,17520,3.35896372795105,True,,True,1,False,1000,True,1.0
./expes/v2_2020-11-09_3bh_100-prng-1,30_base_hphc_100,100,first-100,91,rng,num-start-771,771,17520,8.328458309173584,True,,True,1,False,1000,True,1.0
./expes/v2_2020-11-09_3bh_100-prng-1,30_base_hphc_100,100,first-100,61,rng,num-start-211,211,17520,2.6368560791015625,True,,True,1,False,1000,True,1.0
./expes/v2_2020-11-09_3bh_100-prng-1,30_base_hphc_100,100,first-100,81,rng,num-start-261,261,17520,3.165799379348755,True,,True,1,False,1000,True,1.0
./expes/v2_2020-11-09_3bh_100-prng-1,30_base_hphc_100,100,first-100,91,rng,num-start-101,101,17520,1.1912858486175537,True,,True,1,False,1000,True,1.0
./expes/v2_2020-11-09_3bh_100-prng-1,30_base_hphc_100,100,first-100,61,rng,num-start-201,201,17520,2.5087332725524902,True,,True,1,False,1000,True,1.0
./expes/v2_2020-11-09_3bh_100-prng-1,30_base_hphc_100,100,first-100,31,rng,num-start-951,951,17520,10.552942991256714,True,,True,1,False,1000,True,1.0
./expes/v2_2020-11-09_3bh_100-prng-1,30_base_hphc_100,100,first-100,41,rng,num-start-311,311,17520,3.5063865184783936,True,,True,1,False,1000,True,1.0
./expes/v2_2020-11-09_3bh_100-prng-1,30_base_hphc_100,100,first-100,31,rng,num-start-871,871,17520,11.150070905685425,True,,True,1,False,1000,True,1.0
./expes/v2_2020-11-09_3bh_100-prng-1,30_base_hphc_100,100,first-100,21,rng,num-start-581,581,17520,7.273272275924683,True,,True,1,False,1000,True,1.0
./expes/v2_2020-11-09_3bh_100-prng-1,30_base_hphc_100,100,first-100,91,rng,num-start-211,211,17520,2.6123645305633545,True,,True,1,False,1000,True,1.0
./expes/v2_2020-11-09_3bh_100-prng-1,30_base_hphc_100,100,first-100,21,rng,num-start-561,561,17520,7.02251935005188,True,,True,1,False,1000,True,1.0
./expes/v2_2020-11-09_3bh_100-prng-1,30_base_hphc_100,100,first-100,11,rng,num-start-151,151,17520,1.919485092163086,True,,True,1,False,1000,True,1.0
./expes/v2_2020-11-09_3bh_100-prng-1,30_base_hphc_100,100,first-100,1,rng,num-start-121,121,17520,1.301703929901123,True,,True,1,False,1000,True,1.0
./expes/v2_2020-11-09_3bh_100-prng-1,30_base_hphc_100,100,first-100,71,rng,num-start-791,791,17520,10.003072500228882,True,,True,1,False,1000,True,1.0
./expes/v2_2020-11-09_3bh_100-prng-1,30_base_hphc_100,100,first-100,61,rng,num-start-671,671,17520,8.084584712982178,True,,True,1,False,1000,True,1.0
./expes/v2_2020-11-09_3bh_100-prng-1,30_base_hphc_100,100,first-100,81,rng,num-start-431,431,17520,5.461843490600586,True,,True,1,False,1000,True,1.0
./expes/v2_2020-11-09_3bh_100-prng-1,30_base_hphc_100,100,first-100,61,rng,num-start-631,631,17520,8.254733324050903,True,,True,1,False,1000,True,1.0
./expes/v2_2020-11-09_3bh_100-prng-1,30_base_hphc_100,100,first-100,91,rng,num-start-81,81,17520,1.2106881141662598,True,,True,1,False,1000,True,1.0
./expes/v2_2020-11-09_3bh_100-prng-1,30_base_hphc_100,100,first-100,21,rng,num-start-241,241,17520,3.4538159370422363,True,,True,1,False,1000,True,1.0
./expes/v2_2020-11-09_3bh_100-prng-1,30_base_hphc_100,100,first-100,41,rng,num-start-641,641,17520,8.16397476196289,True,,True,1,False,1000,True,1.0
./expes/v2_2020-11-09_3bh_100-prng-1,30_base_hphc_100,100,first-100,81,rng,num-start-941,941,17520,10.785846471786499,True,,True,1,False,1000,True,1.0
./expes/v2_2020-11-09_3bh_100-prng-1,30_base_hphc_100,100,first-100,41,rng,num-start-581,581,17520,6.504698991775513,True,,True,1,False,1000,True,1.0
./expes/v2_2020-11-09_3bh_100-prng-1,30_base_hphc_100,100,first-100,41,rng,num-start-891,891,17520,10.899401426315308,True,,True,1,False,1000,True,1.0
./expes/v2_2020-11-09_3bh_100-prng-1,30_base_hphc_100,100,first-100,91,rng,num-start-121,121,17520,1.4213511943817139,True,,True,1,False,1000,True,1.0
./expes/v2_2020-11-09_3bh_100-prng-1,30_base_hphc_100,100,first-100,31,rng,num-start-41,41,17520,1.0445356369018555,True,,True,1,False,1000,True,1.0
./expes/v2_2020-11-09_3bh_100-prng-1,30_base_hphc_100,100,first-100,81,rng,num-start-51,51,17520,0.7560446262359619,True,,True,1,False,1000,True,1.0
./expes/v2_2020-11-09_3bh_100-prng-1,30_base_hphc_100,100,first-100,71,rng,num-start-71,71,17520,1.2053792476654053,True,,True,1,False,1000,True,1.0
./expes/v2_2020-11-09_3bh_100-prng-1,30_base_hphc_100,100,first-100,71,rng,num-start-681,681,17520,8.672420740127563,True,,True,1,False,1000,True,1.0
./expes/v2_2020-11-09_3bh_100-prng-1,30_base_hphc_100,100,first-100,81,rng,num-start-321,321,17520,3.9308032989501953,True,,True,1,False,1000,True,1.0
./expes/v2_2020-11-09_3bh_100-prng-1,30_base_hphc_100,100,first-100,41,rng,num-start-951,951,17520,12.037632942199707,True,,True,1,False,1000,True,1.0
./expes/v2_2020-11-09_3bh_100-prng-1,30_base_hphc_100,100,first-100,71,rng,num-start-231,231,17520,3.0423619747161865,True,,True,1,False,1000,True,1.0
./expes/v2_2020-11-09_3bh_100-prng-1,30_base_hphc_100,100,first-100,81,rng,num-start-391,391,17520,4.561187744140625,True,,True,1,False,1000,True,1.0
./expes/v2_2020-11-09_3bh_100-prng-1,30_base_hphc_100,100,first-100,31,rng,num-start-661,661,17520,8.801262140274048,True,,True,1,False,1000,True,1.0
./expes/v2_2020-11-09_3bh_100-prng-1,30_base_hphc_100,100,first-100,1,rng,num-start-711,711,17520,7.720853567123413,True,,True,1,False,1000,True,1.0
./expes/v2_2020-11-09_3bh_100-prng-1,30_base_hphc_100,100,first-100,1,rng,num-start-271,271,17520,2.7314226627349854,True,,True,1,False,1000,True,1.0
./expes/v2_2020-11-09_3bh_100-prng-1,30_base_hphc_100,100,first-100,1,rng,num-start-391,391,17520,4.394799470901489,True,,True,1,False,1000,True,1.0
./expes/v2_2020-11-09_3bh_100-prng-1,30_base_hphc_100,100,first-100,1,rng,num-start-431,431,17520,4.771154880523682,True,,True,1,False,1000,True,1.0
./expes/v2_2020-11-09_3bh_100-prng-1,30_base_hphc_100,100,first-100,11,rng,num-start-181,181,17520,2.341047525405884,True,,True,1,False,1000,True,1.0
./expes/v2_2020-11-09_3bh_100-prng-1,30_base_hphc_100,100,first-100,91,rng,num-start-61,61,17520,0.8713631629943848,True,,True,1,False,1000,True,1.0
./expes/v2_2020-11-09_3bh_100-prng-1,30_base_hphc_100,100,first-100,21,rng,num-start-621,621,17520,8.13608694076538,True,,True,1,False,1000,True,1.0
./expes/v2_2020-11-09_3bh_100-prng-1,30_base_hphc_100,100,first-100,61,rng,num-start-921,921,17520,11.889288187026978,True,,True,1,False,1000,True,1.0
./expes/v2_2020-11-09_3bh_100-prng-1,30_base_hphc_100,100,first-100,11,rng,num-start-91,91,17520,1.2286057472229004,True,,True,1,False,1000,True,1.0
./expes/v2_2020-11-09_3bh_100-prng-1,30_base_hphc_100,100,first-100,11,rng,num-start-161,161,17520,2.2809033393859863,True,,True,1,False,1000,True,1.0
./expes/v2_2020-11-09_3bh_100-prng-1,30_base_hphc_100,100,first-100,71,rng,num-start-11,11,17520,1000.3060164451599,False,,False,0,True,1000,True,0.0
./expes/v2_2020-11-09_3bh_100-prng-1,30_base_hphc_100,100,first-100,81,rng,num-start-271,271,17520,2.938814640045166,True,,True,1,False,1000,True,1.0
./expes/v2_2020-11-09_3bh_100-prng-1,30_base_hphc_100,100,first-100,21,rng,num-start-591,591,17520,7.124674320220947,True,,True,1,False,1000,True,1.0
./expes/v2_2020-11-09_3bh_100-prng-1,30_base_hphc_100,100,first-100,21,rng,num-start-601,601,17520,7.366616725921631,True,,True,1,False,1000,True,1.0
./expes/v2_2020-11-09_3bh_100-prng-1,30_base_hphc_100,100,first-100,51,rng,num-start-111,111,17520,1.3553812503814697,True,,True,1,False,1000,True,1.0
./expes/v2_2020-11-09_3bh_100-prng-1,30_base_hphc_100,100,first-100,71,rng,num-start-751,751,17520,8.879781484603882,True,,True,1,False,1000,True,1.0
./expes/v2_2020-11-09_3bh_100-prng-1,30_base_hphc_100,100,first-100,31,rng,num-start-171,171,17520,2.03228759765625,True,,True,1,False,1000,True,1.0
./expes/v2_2020-11-09_3bh_100-prng-1,30_base_hphc_100,100,first-100,31,rng,num-start-41,41,17520,0.705923318862915,True,,True,1,False,1000,True,1.0
./expes/v2_2020-11-09_3bh_100-prng-1,30_base_hphc_100,100,first-100,11,rng,num-start-51,51,17520,0.8150715827941895,True,,True,1,False,1000,True,1.0
./expes/v2_2020-11-09_3bh_100-prng-1,30_base_hphc_100,100,first-100,31,rng,num-start-91,91,17520,1.152714729309082,True,,True,1,False,1000,True,1.0
./expes/v2_2020-11-09_3bh_100-prng-1,30_base_hphc_100,100,first-100,61,rng,num-start-511,511,17520,5.337441682815552,True,,True,1,False,1000,True,1.0
./expes/v2_2020-11-09_3bh_100-prng-1,30_base_hphc_100,100,first-100,21,rng,num-start-601,601,17520,7.05501651763916,True,,True,1,False,1000,True,1.0
./expes/v2_2020-11-09_3bh_100-prng-1,30_base_hphc_100,100,first-100,71,rng,num-start-851,851,17520,9.596101999282837,True,,True,1,False,1000,True,1.0
./expes/v2_2020-11-09_3bh_100-prng-1,30_base_hphc_100,100,first-100,71,rng,num-start-61,61,17520,0.7898862361907959,True,,True,1,False,1000,True,1.0
./expes/v2_2020-11-09_3bh_100-prng-1,30_base_hphc_100,100,first-100,81,rng,num-start-581,581,17520,6.2856605052948,True,,True,1,False,1000,True,1.0
./expes/v2_2020-11-09_3bh_100-prng-1,30_base_hphc_100,100,first-100,71,rng,num-start-661,661,17520,7.670560836791992,True,,True,1,False,1000,True,1.0
./expes/v2_2020-11-09_3bh_100-prng-1,30_base_hphc_100,100,first-100,61,rng,num-start-541,541,17520,6.640047550201416,True,,True,1,False,1000,True,1.0
./expes/v2_2020-11-09_3bh_100-prng-1,30_base_hphc_100,100,first-100,1,rng,num-start-851,851,17520,8.608177423477173,True,,True,1,False,1000,True,1.0
./expes/v2_2020-11-09_3bh_100-prng-1,30_base_hphc_100,100,first-100,91,rng,num-start-781,781,17520,8.12142300605774,True,,True,1,False,1000,True,1.0
./expes/v2_2020-11-09_3bh_100-prng-1,30_base_hphc_100,100,first-100,71,rng,num-start-411,411,17520,4.795834302902222,True,,True,1,False,1000,True,1.0
./expes/v2_2020-11-09_3bh_100-prng-1,30_base_hphc_100,100,first-100,91,rng,num-start-581,581,17520,6.647536039352417,True,,True,1,False,1000,True,1.0
./expes/v2_2020-11-09_3bh_100-prng-1,30_base_hphc_100,100,first-100,11,rng,num-start-571,571,17520,7.0538249015808105,True,,True,1,False,1000,True,1.0
./expes/v2_2020-11-09_3bh_100-prng-1,30_base_hphc_100,100,first-100,71,rng,num-start-981,981,17520,12.14021348953247,True,,True,1,False,1000,True,1.0
./expes/v2_2020-11-09_3bh_100-prng-1,30_base_hphc_100,100,first-100,41,rng,num-start-231,231,17520,3.294049024581909,True,,True,1,False,1000,True,1.0
./expes/v2_2020-11-09_3bh_100-prng-1,30_base_hphc_100,100,first-100,1,rng,num-start-551,551,17520,5.620556116104126,True,,True,1,False,1000,True,1.0
./expes/v2_2020-11-09_3bh_100-prng-1,30_base_hphc_100,100,first-100,61,rng,num-start-21,21,17520,809.9664306640625,True,,True,1,False,1000,True,1.0
./expes/v2_2020-11-09_3bh_100-prng-1,30_base_hphc_100,100,first-100,21,rng,num-start-121,121,17520,1.3895459175109863,True,,True,1,False,1000,True,1.0
./expes/v2_2020-11-09_3bh_100-prng-1,30_base_hphc_100,100,first-100,31,rng,num-start-761,761,17520,9.415820121765137,True,,True,1,False,1000,True,1.0
./expes/v2_2020-11-09_3bh_100-prng-1,30_base_hphc_100,100,first-100,41,rng,num-start-951,951,17520,11.364888191223145,True,,True,1,False,1000,True,1.0
./expes/v2_2020-11-09_3bh_100-prng-1,30_base_hphc_100,100,first-100,91,rng,num-start-891,891,17520,8.933595180511475,True,,True,1,False,1000,True,1.0
./expes/v2_2020-11-09_3bh_100-prng-1,30_base_hphc_100,100,first-100,51,rng,num-start-961,961,17520,10.698681831359863,True,,True,1,False,1000,True,1.0
./expes/v2_2020-11-09_3bh_100-prng-1,30_base_hphc_100,100,first-100,91,rng,num-start-691,691,17520,6.446897029876709,True,,True,1,False,1000,True,1.0
./expes/v2_2020-11-09_3bh_100-prng-1,30_base_hphc_100,100,first-100,21,rng,num-start-431,431,17520,4.846628427505493,True,,True,1,False,1000,True,1.0
./expes/v2_2020-11-09_3bh_100-prng-1,30_base_hphc_100,100,first-100,41,rng,num-start-991,991,17520,12.023059129714966,True,,True,1,False,1000,True,1.0
./expes/v2_2020-11-09_3bh_100-prng-1,30_base_hphc_100,100,first-100,71,rng,num-start-651,651,17520,7.356327772140503,True,,True,1,False,1000,True,1.0
./expes/v2_2020-11-09_3bh_100-prng-1,30_base_hphc_100,100,first-100,31,rng,num-start-931,931,17520,10.974469184875488,True,,True,1,False,1000,True,1.0
./expes/v2_2020-11-09_3bh_100-prng-1,30_base_hphc_100,100,first-100,11,rng,num-start-701,701,17520,7.825650453567505,True,,True,1,False,1000,True,1.0
./expes/v2_2020-11-09_3bh_100-prng-1,30_base_hphc_100,100,first-100,41,rng,num-start-121,121,17520,2.089998245239258,True,,True,1,False,1000,True,1.0
./expes/v2_2020-11-09_3bh_100-prng-1,30_base_hphc_100,100,first-100,11,rng,num-start-451,451,17520,5.421990871429443,True,,True,1,False,1000,True,1.0
./expes/v2_2020-11-09_3bh_100-prng-1,30_base_hphc_100,100,first-100,41,rng,num-start-11,11,17520,1002.1683559417725,False,,False,0,True,1000,True,0.0
./expes/v2_2020-11-09_3bh_100-prng-1,30_base_hphc_100,100,first-100,51,rng,num-start-611,611,17520,7.582321882247925,True,,True,1,False,1000,True,1.0
./expes/v2_2020-11-09_3bh_100-prng-1,30_base_hphc_100,100,first-100,21,rng,num-start-941,941,17520,12.327076196670532,True,,True,1,False,1000,True,1.0
./expes/v2_2020-11-09_3bh_100-prng-1,30_base_hphc_100,100,first-100,41,rng,num-start-921,921,17520,11.574697256088257,True,,True,1,False,1000,True,1.0
./expes/v2_2020-11-09_3bh_100-prng-1,30_base_hphc_100,100,first-100,41,rng,num-start-651,651,17520,7.427370071411133,True,,True,1,False,1000,True,1.0
./expes/v2_2020-11-09_3bh_100-prng-1,30_base_hphc_100,100,first-100,41,rng,num-start-981,981,17520,11.598037958145142,True,,True,1,False,1000,True,1.0
./expes/v2_2020-11-09_3bh_100-prng-1,30_base_hphc_100,100,first-100,1,rng,num-start-91,91,17520,0.9186627864837646,True,,True,1,False,1000,True,1.0
./expes/v2_2020-11-09_3bh_100-prng-1,30_base_hphc_100,100,first-100,11,rng,num-start-171,171,17520,2.1590187549591064,True,,True,1,False,1000,True,1.0
./expes/v2_2020-11-09_3bh_100-prng-1,30_base_hphc_100,100,first-100,71,rng,num-start-611,611,17520,7.537592887878418,True,,True,1,False,1000,True,1.0
./expes/v2_2020-11-09_3bh_100-prng-1,30_base_hphc_100,100,first-100,51,rng,num-start-451,451,17520,5.422074317932129,True,,True,1,False,1000,True,1.0
./expes/v2_2020-11-09_3bh_100-prng-1,30_base_hphc_100,100,first-100,1,rng,num-start-311,311,17520,3.2505829334259033,True,,True,1,False,1000,True,1.0
./expes/v2_2020-11-09_3bh_100-prng-1,30_base_hphc_100,100,first-100,11,rng,num-start-321,321,17520,3.5564844608306885,True,,True,1,False,1000,True,1.0
./expes/v2_2020-11-09_3bh_100-prng-1,30_base_hphc_100,100,first-100,51,rng,num-start-991,991,17520,11.74270224571228,True,,True,1,False,1000,True,1.0
./expes/v2_2020-11-09_3bh_100-prng-1,30_base_hphc_100,100,first-100,71,rng,num-start-861,861,17520,10.96631646156311,True,,True,1,False,1000,True,1.0
./expes/v2_2020-11-09_3bh_100-prng-1,30_base_hphc_100,100,first-100,81,rng,num-start-261,261,17520,3.218510389328003,True,,True,1,False,1000,True,1.0
./expes/v2_2020-11-09_3bh_100-prng-1,30_base_hphc_100,100,first-100,21,rng,num-start-671,671,17520,8.097153902053833,True,,True,1,False,1000,True,1.0
./expes/v2_2020-11-09_3bh_100-prng-1,30_base_hphc_100,100,first-100,21,rng,num-start-991,991,17520,11.529417991638184,True,,True,1,False,1000,True,1.0
./expes/v2_2020-11-09_3bh_100-prng-1,30_base_hphc_100,100,first-100,41,rng,num-start-301,301,17520,4.111347198486328,True,,True,1,False,1000,True,1.0
./expes/v2_2020-11-09_3bh_100-prng-1,30_base_hphc_100,100,first-100,11,rng,num-start-21,21,17520,0.6144282817840576,True,,True,1,False,1000,True,1.0
./expes/v2_2020-11-09_3bh_100-prng-1,30_base_hphc_100,100,first-100,1,rng,num-start-391,391,17520,4.133410453796387,True,,True,1,False,1000,True,1.0
./expes/v2_2020-11-09_3bh_100-prng-1,30_base_hphc_100,100,first-100,1,rng,num-start-841,841,17520,8.66107988357544,True,,True,1,False,1000,True,1.0
./expes/v2_2020-11-09_3bh_100-prng-1,30_base_hphc_100,100,first-100,91,rng,num-start-331,331,17520,4.050725936889648,True,,True,1,False,1000,True,1.0
./expes/v2_2020-11-09_3bh_100-prng-1,30_base_hphc_100,100,first-100,11,rng,num-start-491,491,17520,5.6267173290252686,True,,True,1,False,1000,True,1.0
./expes/v2_2020-11-09_3bh_100-prng-1,30_base_hphc_100,100,first-100,11,rng,num-start-881,881,17520,10.64123010635376,True,,True,1,False,1000,True,1.0
./expes/v2_2020-11-09_3bh_100-prng-1,30_base_hphc_100,100,first-100,91,rng,num-start-391,391,17520,4.7150914669036865,True,,True,1,False,1000,True,1.0
./expes/v2_2020-11-09_3bh_100-prng-1,30_base_hphc_100,100,first-100,1,rng,num-start-21,21,17520,0.23877644538879395,True,,True,1,False,1000,True,1.0
./expes/v2_2020-11-09_3bh_100-prng-1,30_base_hphc_100,100,first-100,91,rng,num-start-241,241,17520,2.84944224357605,True,,True,1,False,1000,True,1.0
./expes/v2_2020-11-09_3bh_100-prng-1,30_base_hphc_100,100,first-100,61,rng,num-start-201,201,17520,2.6334824562072754,True,,True,1,False,1000,True,1.0
./expes/v2_2020-11-09_3bh_100-prng-1,30_base_hphc_100,100,first-100,41,rng,num-start-631,631,17520,7.638097763061523,True,,True,1,False,1000,True,1.0
./expes/v2_2020-11-09_3bh_100-prng-1,30_base_hphc_100,100,first-100,31,rng,num-start-131,131,17520,1.544764757156372,True,,True,1,False,1000,True,1.0
./expes/v2_2020-11-09_3bh_100-prng-1,30_base_hphc_100,100,first-100,21,rng,num-start-511,511,17520,6.3596718311309814,True,,True,1,False,1000,True,1.0
./expes/v2_2020-11-09_3bh_100-prng-1,30_base_hphc_100,100,first-100,51,rng,num-start-931,931,17520,11.614158868789673,True,,True,1,False,1000,True,1.0
./expes/v2_2020-11-09_3bh_100-prng-1,30_base_hphc_100,100,first-100,31,rng,num-start-731,731,17520,8.778879165649414,True,,True,1,False,1000,True,1.0
./expes/v2_2020-11-09_3bh_100-prng-1,30_base_hphc_100,100,first-100,41,rng,num-start-511,511,17520,6.4494240283966064,True,,True,1,False,1000,True,1.0
./expes/v2_2020-11-09_3bh_100-prng-1,30_base_hphc_100,100,first-100,71,rng,num-start-521,521,17520,6.52390718460083,True,,True,1,False,1000,True,1.0
./expes/v2_2020-11-09_3bh_100-prng-1,30_base_hphc_100,100,first-100,11,rng,num-start-611,611,17520,7.039914131164551,True,,True,1,False,1000,True,1.0
./expes/v2_2020-11-09_3bh_100-prng-1,30_base_hphc_100,100,first-100,71,rng,num-start-531,531,17520,6.480811834335327,True,,True,1,False,1000,True,1.0
./expes/v2_2020-11-09_3bh_100-prng-1,30_base_hphc_100,100,first-100,71,rng,num-start-481,481,17520,6.689562082290649,True,,True,1,False,1000,True,1.0
./expes/v2_2020-11-09_3bh_100-prng-1,30_base_hphc_100,100,first-100,81,rng,num-start-451,451,17520,5.037612676620483,True,,True,1,False,1000,True,1.0
./expes/v2_2020-11-09_3bh_100-prng-1,30_base_hphc_100,100,first-100,11,rng,num-start-981,981,17520,10.83942699432373,True,,True,1,False,1000,True,1.0
./expes/v2_2020-11-09_3bh_100-prng-1,30_base_hphc_100,100,first-100,41,rng,num-start-721,721,17520,9.118102073669434,True,,True,1,False,1000,True,1.0
./expes/v2_2020-11-09_3bh_100-prng-1,30_base_hphc_100,100,first-100,41,rng,num-start-861,861,17520,11.143629550933838,True,,True,1,False,1000,True,1.0
./expes/v2_2020-11-09_3bh_100-prng-1,30_base_hphc_100,100,first-100,1,rng,num-start-61,61,17520,0.6143913269042969,True,,True,1,False,1000,True,1.0
./expes/v2_2020-11-09_3bh_100-prng-1,30_base_hphc_100,100,first-100,81,rng,num-start-901,901,17520,10.70435619354248,True,,True,1,False,1000,True,1.0
./expes/v2_2020-11-09_3bh_100-prng-1,30_base_hphc_100,100,first-100,91,rng,num-start-781,781,17520,8.417973279953003,True,,True,1,False,1000,True,1.0
./expes/v2_2020-11-09_3bh_100-prng-1,30_base_hphc_100,100,first-100,71,rng,num-start-161,161,17520,2.1580231189727783,True,,True,1,False,1000,True,1.0
./expes/v2_2020-11-09_3bh_100-prng-1,30_base_hphc_100,100,first-100,91,rng,num-start-131,131,17520,1.5725431442260742,True,,True,1,False,1000,True,1.0
./expes/v2_2020-11-09_3bh_100-prng-1,30_base_hphc_100,100,first-100,1,rng,num-start-311,311,17520,3.398010492324829,True,,True,1,False,1000,True,1.0
./expes/v2_2020-11-09_3bh_100-prng-1,30_base_hphc_100,100,first-100,71,rng,num-start-141,141,17520,1.8278708457946777,True,,True,1,False,1000,True,1.0
./expes/v2_2020-11-09_3bh_100-prng-1,30_base_hphc_100,100,first-100,61,rng,num-start-141,141,17520,2.1870782375335693,True,,True,1,False,1000,True,1.0
./expes/v2_2020-11-09_3bh_100-prng-1,30_base_hphc_100,100,first-100,61,rng,num-start-741,741,17520,9.404330253601074,True,,True,1,False,1000,True,1.0
./expes/v2_2020-11-09_3bh_100-prng-1,30_base_hphc_100,100,first-100,81,rng,num-start-391,391,17520,4.7706520557403564,True,,True,1,False,1000,True,1.0
./expes/v2_2020-11-09_3bh_100-prng-1,30_base_hphc_100,100,first-100,21,rng,num-start-911,911,17520,10.943884134292603,True,,True,1,False,1000,True,1.0
./expes/v2_2020-11-09_3bh_100-prng-1,30_base_hphc_100,100,first-100,71,rng,num-start-81,81,17520,1.2077646255493164,True,,True,1,False,1000,True,1.0
./expes/v2_2020-11-09_3bh_100-prng-1,30_base_hphc_100,100,first-100,91,rng,num-start-501,501,17520,5.9064624309539795,True,,True,1,False,1000,True,1.0
./expes/v2_2020-11-09_3bh_100-prng-1,30_base_hphc_100,100,first-100,11,rng,num-start-701,701,17520,8.457581520080566,True,,True,1,False,1000,True,1.0
./expes/v2_2020-11-09_3bh_100-prng-1,30_base_hphc_100,100,first-100,51,rng,num-start-41,41,17520,1.3315939903259277,True,,True,1,False,1000,True,1.0
./expes/v2_2020-11-09_3bh_100-prng-1,30_base_hphc_100,100,first-100,91,rng,num-start-81,81,17520,1.1588952541351318,True,,True,1,False,1000,True,1.0
./expes/v2_2020-11-09_3bh_100-prng-1,30_base_hphc_100,100,first-100,41,rng,num-start-651,651,17520,8.292900085449219,True,,True,1,False,1000,True,1.0
./expes/v2_2020-11-09_3bh_100-prng-1,30_base_hphc_100,100,first-100,11,rng,num-start-51,51,17520,0.7085063457489014,True,,True,1,False,1000,True,1.0
./expes/v2_2020-11-09_3bh_100-prng-1,30_base_hphc_100,100,first-100,91,rng,num-start-61,61,17520,0.9426755905151367,True,,True,1,False,1000,True,1.0
./expes/v2_2020-11-09_3bh_100-prng-1,30_base_hphc_100,100,first-100,1,rng,num-start-241,241,17520,2.44398832321167,True,,True,1,False,1000,True,1.0
./expes/v2_2020-11-09_3bh_100-prng-1,30_base_hphc_100,100,first-100,61,rng,num-start-671,671,17520,7.835922002792358,True,,True,1,False,1000,True,1.0
./expes/v2_2020-11-09_3bh_100-prng-1,30_base_hphc_100,100,first-100,91,rng,num-start-811,811,17520,8.585425853729248,True,,True,1,False,1000,True,1.0
./expes/v2_2020-11-09_3bh_100-prng-1,30_base_hphc_100,100,first-100,91,rng,num-start-581,581,17520,5.94988751411438,True,,True,1,False,1000,True,1.0
./expes/v2_2020-11-09_3bh_100-prng-1,30_base_hphc_100,100,first-100,31,rng,num-start-811,811,17520,8.92987608909607,True,,True,1,False,1000,True,1.0
./expes/v2_2020-11-09_3bh_100-prng-1,30_base_hphc_100,100,first-100,61,rng,num-start-481,481,17520,5.722230911254883,True,,True,1,False,1000,True,1.0
./expes/v2_2020-11-09_3bh_100-prng-1,30_base_hphc_100,100,first-100,71,rng,num-start-11,11,17520,1006.6141819953918,False,,False,0,True,1000,True,0.0
./expes/v2_2020-11-09_3bh_100-prng-1,30_base_hphc_100,100,first-100,81,rng,num-start-701,701,17520,7.9568541049957275,True,,True,1,False,1000,True,1.0
./expes/v2_2020-11-09_3bh_100-prng-1,30_base_hphc_100,100,first-100,41,rng,num-start-191,191,17520,2.604902744293213,True,,True,1,False,1000,True,1.0
./expes/v2_2020-11-09_3bh_100-prng-1,30_base_hphc_100,100,first-100,71,rng,num-start-321,321,17520,4.401825189590454,True,,True,1,False,1000,True,1.0
./expes/v2_2020-11-09_3bh_100-prng-1,30_base_hphc_100,100,first-100,41,rng,num-start-831,831,17520,11.399515390396118,True,,True,1,False,1000,True,1.0
./expes/v2_2020-11-09_3bh_100-prng-1,30_base_hphc_100,100,first-100,81,rng,num-start-701,701,17520,8.74126935005188,True,,True,1,False,1000,True,1.0
./expes/v2_2020-11-09_3bh_100-prng-1,30_base_hphc_100,100,first-100,11,rng,num-start-281,281,17520,3.4204158782958984,True,,True,1,False,1000,True,1.0
./expes/v2_2020-11-09_3bh_100-prng-1,30_base_hphc_100,100,first-100,91,rng,num-start-11,11,17520,7.1406614780426025,True,,True,1,False,1000,True,1.0
./expes/v2_2020-11-09_3bh_100-prng-1,30_base_hphc_100,100,first-100,1,rng,num-start-411,411,17520,4.387777090072632,True,,True,1,False,1000,True,1.0
./expes/v2_2020-11-09_3bh_100-prng-1,30_base_hphc_100,100,first-100,51,rng,num-start-901,901,17520,11.566001415252686,True,,True,1,False,1000,True,1.0
./expes/v2_2020-11-09_3bh_100-prng-1,30_base_hphc_100,100,first-100,91,rng,num-start-251,251,17520,3.16752552986145,True,,True,1,False,1000,True,1.0
./expes/v2_2020-11-09_3bh_100-prng-1,30_base_hphc_100,100,first-100,81,rng,num-start-491,491,17520,6.3278703689575195,True,,True,1,False,1000,True,1.0
./expes/v2_2020-11-09_3bh_100-prng-1,30_base_hphc_100,100,first-100,51,rng,num-start-841,841,17520,12.145869970321655,True,,True,1,False,1000,True,1.0
./expes/v2_2020-11-09_3bh_100-prng-1,30_base_hphc_100,100,first-100,1,rng,num-start-361,361,17520,3.920053482055664,True,,True,1,False,1000,True,1.0
./expes/v2_2020-11-09_3bh_100-prng-1,30_base_hphc_100,100,first-100,61,rng,num-start-221,221,17520,3.2684404850006104,True,,True,1,False,1000,True,1.0
./expes/v2_2020-11-09_3bh_100-prng-1,30_base_hphc_100,100,first-100,91,rng,num-start-631,631,17520,7.510356903076172,True,,True,1,False,1000,True,1.0
./expes/v2_2020-11-09_3bh_100-prng-1,30_base_hphc_100,100,first-100,41,rng,num-start-811,811,17520,11.24791955947876,True,,True,1,False,1000,True,1.0
./expes/v2_2020-11-09_3bh_100-prng-1,30_base_hphc_100,100,first-100,41,rng,num-start-701,701,17520,9.716869831085205,True,,True,1,False,1000,True,1.0
./expes/v2_2020-11-09_3bh_100-prng-1,30_base_hphc_100,100,first-100,11,rng,num-start-531,531,17520,7.135350465774536,True,,True,1,False,1000,True,1.0
./expes/v2_2020-11-09_3bh_100-prng-1,30_base_hphc_100,100,first-100,71,rng,num-start-421,421,17520,5.527975082397461,True,,True,1,False,1000,True,1.0
./expes/v2_2020-11-09_3bh_100-prng-1,30_base_hphc_100,100,first-100,21,rng,num-start-71,71,17520,1.0806043148040771,True,,True,1,False,1000,True,1.0
./expes/v2_2020-11-09_3bh_100-prng-1,30_base_hphc_100,100,first-100,31,rng,num-start-691,691,17520,9.09895133972168,True,,True,1,False,1000,True,1.0
./expes/v2_2020-11-09_3bh_100-prng-1,30_base_hphc_100,100,first-100,51,rng,num-start-761,761,17520,9.627047777175903,True,,True,1,False,1000,True,1.0
./expes/v2_2020-11-09_3bh_100-prng-1,30_base_hphc_100,100,first-100,71,rng,num-start-261,261,17520,3.55301570892334,True,,True,1,False,1000,True,1.0
./expes/v2_2020-11-09_3bh_100-prng-1,30_base_hphc_100,100,first-100,51,rng,num-start-181,181,17520,2.388644218444824,True,,True,1,False,1000,True,1.0
./expes/v2_2020-11-09_3bh_100-prng-1,30_base_hphc_100,100,first-100,31,rng,num-start-741,741,17520,9.837666511535645,True,,True,1,False,1000,True,1.0
./expes/v2_2020-11-09_3bh_100-prng-1,30_base_hphc_100,100,first-100,1,rng,num-start-921,921,17520,10.244644165039062,True,,True,1,False,1000,True,1.0
./expes/v2_2020-11-09_3bh_100-prng-1,30_base_hphc_100,100,first-100,51,rng,num-start-891,891,17520,12.346699953079224,True,,True,1,False,1000,True,1.0
./expes/v2_2020-11-09_3bh_100-prng-1,30_base_hphc_100,100,first-100,1,rng,num-start-251,251,17520,2.8995048999786377,True,,True,1,False,1000,True,1.0
./expes/v2_2020-11-09_3bh_100-prng-1,30_base_hphc_100,100,first-100,11,rng,num-start-701,701,17520,8.345627307891846,True,,True,1,False,1000,True,1.0
./expes/v2_2020-11-09_3bh_100-prng-1,30_base_hphc_100,100,first-100,21,rng,num-start-421,421,17520,5.515461206436157,True,,True,1,False,1000,True,1.0
./expes/v2_2020-11-09_3bh_100-prng-1,30_base_hphc_100,100,first-100,81,rng,num-start-91,91,17520,1.222132921218872,True,,True,1,False,1000,True,1.0
./expes/v2_2020-11-09_3bh_100-prng-1,30_base_hphc_100,100,first-100,61,rng,num-start-501,501,17520,6.736394643783569,True,,True,1,False,1000,True,1.0
./expes/v2_2020-11-09_3bh_100-prng-1,30_base_hphc_100,100,first-100,1,rng,num-start-791,791,17520,8.677668571472168,True,,True,1,False,1000,True,1.0
./expes/v2_2020-11-09_3bh_100-prng-1,30_base_hphc_100,100,first-100,1,rng,num-start-941,941,17520,10.397558212280273,True,,True,1,False,1000,True,1.0
./expes/v2_2020-11-09_3bh_100-prng-1,30_base_hphc_100,100,first-100,21,rng,num-start-521,521,17520,6.877808094024658,True,,True,1,False,1000,True,1.0
./expes/v2_2020-11-09_3bh_100-prng-1,30_base_hphc_100,100,first-100,51,rng,num-start-111,111,17520,1.6652705669403076,True,,True,1,False,1000,True,1.0
./expes/v2_2020-11-09_3bh_100-prng-1,30_base_hphc_100,100,first-100,41,rng,num-start-661,661,17520,8.807852268218994,True,,True,1,False,1000,True,1.0
./expes/v2_2020-11-09_3bh_100-prng-1,30_base_hphc_100,100,first-100,71,rng,num-start-61,61,17520,0.878631591796875,True,,True,1,False,1000,True,1.0
./expes/v2_2020-11-09_3bh_100-prng-1,30_base_hphc_100,100,first-100,1,rng,num-start-631,631,17520,6.987773180007935,True,,True,1,False,1000,True,1.0
./expes/v2_2020-11-09_3bh_100-prng-1,30_base_hphc_100,100,first-100,51,rng,num-start-141,141,17520,2.0772616863250732,True,,True,1,False,1000,True,1.0
./expes/v2_2020-11-09_3bh_100-prng-1,30_base_hphc_100,100,first-100,61,rng,num-start-311,311,17520,4.255683660507202,True,,True,1,False,1000,True,1.0
./expes/v2_2020-11-09_3bh_100-prng-1,30_base_hphc_100,100,first-100,41,rng,num-start-121,121,17520,1.965043067932129,True,,True,1,False,1000,True,1.0
./expes/v2_2020-11-09_3bh_100-prng-1,30_base_hphc_100,100,first-100,11,rng,num-start-661,661,17520,7.936492919921875,True,,True,1,False,1000,True,1.0
./expes/v2_2020-11-09_3bh_100-prng-1,30_base_hphc_100,100,first-100,61,rng,num-start-991,991,17520,13.911473274230957,True,,True,1,False,1000,True,1.0
./expes/v2_2020-11-09_3bh_100-prng-1,30_base_hphc_100,100,first-100,21,rng,num-start-651,651,17520,9.045122146606445,True,,True,1,False,1000,True,1.0
./expes/v2_2020-11-09_3bh_100-prng-1,30_base_hphc_100,100,first-100,81,rng,num-start-611,611,17520,7.9642555713653564,True,,True,1,False,1000,True,1.0
./expes/v2_2020-11-09_3bh_100-prng-1,30_base_hphc_100,100,first-100,11,rng,num-start-51,51,17520,0.804405689239502,True,,True,1,False,1000,True,1.0
./expes/v2_2020-11-09_3bh_100-prng-1,30_base_hphc_100,100,first-100,51,rng,num-start-311,311,17520,4.097297191619873,True,,True,1,False,1000,True,1.0
./expes/v2_2020-11-09_3bh_100-prng-1,30_base_hphc_100,100,first-100,71,rng,num-start-931,931,17520,13.09353256225586,True,,True,1,False,1000,True,1.0
./expes/v2_2020-11-09_3bh_100-prng-1,30_base_hphc_100,100,first-100,31,rng,num-start-191,191,17520,2.596937656402588,True,,True,1,False,1000,True,1.0
./expes/v2_2020-11-09_3bh_100-prng-1,30_base_hphc_100,100,first-100,21,rng,num-start-161,161,17520,2.4886698722839355,True,,True,1,False,1000,True,1.0
./expes/v2_2020-11-09_3bh_100-prng-1,30_base_hphc_100,100,first-100,11,rng,num-start-501,501,17520,6.61332368850708,True,,True,1,False,1000,True,1.0
./expes/v2_2020-11-09_3bh_100-prng-1,30_base_hphc_100,100,first-100,11,rng,num-start-931,931,17520,11.554802894592285,True,,True,1,False,1000,True,1.0
./expes/v2_2020-11-09_3bh_100-prng-1,30_base_hphc_100,100,first-100,11,rng,num-start-171,171,17520,2.256697416305542,True,,True,1,False,1000,True,1.0
./expes/v2_2020-11-09_3bh_100-prng-1,30_base_hphc_100,100,first-100,71,rng,num-start-451,451,17520,5.06877875328064,True,,True,1,False,1000,True,1.0
./expes/v2_2020-11-09_3bh_100-prng-1,30_base_hphc_100,100,first-100,51,rng,num-start-701,701,17520,9.287136554718018,True,,True,1,False,1000,True,1.0
./expes/v2_2020-11-09_3bh_100-prng-1,30_base_hphc_100,100,first-100,11,rng,num-start-481,481,17520,5.702935218811035,True,,True,1,False,1000,True,1.0
./expes/v2_2020-11-09_3bh_100-prng-1,30_base_hphc_100,100,first-100,31,rng,num-start-51,51,17520,0.762969970703125,True,,True,1,False,1000,True,1.0
./expes/v2_2020-11-09_3bh_100-prng-1,30_base_hphc_100,100,first-100,21,rng,num-start-121,121,17520,1.81412935256958,True,,True,1,False,1000,True,1.0
./expes/v2_2020-11-09_3bh_100-prng-1,30_base_hphc_100,100,first-100,21,rng,num-start-261,261,17520,3.41184139251709,True,,True,1,False,1000,True,1.0
./expes/v2_2020-11-09_3bh_100-prng-1,30_base_hphc_100,100,first-100,61,rng,num-start-911,911,17520,11.590514183044434,True,,True,1,False,1000,True,1.0
./expes/v2_2020-11-09_3bh_100-prng-1,30_base_hphc_100,100,first-100,41,rng,num-start-611,611,17520,7.123467206954956,True,,True,1,False,1000,True,1.0
./expes/v2_2020-11-09_3bh_100-prng-1,30_base_hphc_100,100,first-100,91,rng,num-start-511,511,17520,5.812667369842529,True,,True,1,False,1000,True,1.0
./expes/v2_2020-11-09_3bh_100-prng-1,30_base_hphc_100,100,first-100,41,rng,num-start-601,601,17520,7.254568576812744,True,,True,1,False,1000,True,1.0
./expes/v2_2020-11-09_3bh_100-prng-1,30_base_hphc_100,100,first-100,91,rng,num-start-831,831,17520,8.67300796508789,True,,True,1,False,1000,True,1.0
./expes/v2_2020-11-09_3bh_100-prng-1,30_base_hphc_100,100,first-100,21,rng,num-start-851,851,17520,10.519856214523315,True,,True,1,False,1000,True,1.0
./expes/v2_2020-11-09_3bh_100-prng-1,30_base_hphc_100,100,first-100,21,rng,num-start-931,931,17520,11.259302139282227,True,,True,1,False,1000,True,1.0
./expes/v2_2020-11-09_3bh_100-prng-1,30_base_hphc_100,100,first-100,61,rng,num-start-21,21,17520,1003.2610168457031,False,,False,0,True,1000,True,0.0
