expe,clients,clients_size,clients_subset,agg_size,agg_size_pc,method,days,days_size,days_total,noise_method,time,valid,valid_sum,success,score_avg,score_min,score_max,nsols,oracle,wall_hit,wall_time,pooled,pool_size,uuid,optimal,valid_sums
./expes/v3_2021-02-05_di_300-prng-1-w1-p2,daily_issda-300,300,first-300,105,35,rng,num-start-241,241,536,classic,10.532806158065796,True,,True,1.0,1.0,1.0,1,"Index(['4', '5', '10', '11', '14', '22', '23', '24', '31', '32',
       ...
       '266', '267', '274', '275', '281', '282', '286', '293', '294', '299'],
      dtype='object', length=105)",False,1000,True,2,229605607b,1.0,1.0
./expes/v3_2021-02-05_di_300-prng-1-w1-p2,daily_issda-300,300,first-300,7,2,rng,num-start-141,141,536,classic,5.553540468215942,True,,True,1.0,1.0,1.0,1,"Index(['90', '149', '156', '188', '213', '268', '277'], dtype='object')",False,1000,True,2,aaf5e47e67,1.0,1.0
./expes/v3_2021-02-05_di_300-prng-1-w1-p2,daily_issda-300,300,first-300,133,44,rng,num-start-161,161,536,classic,7.293602466583252,True,,True,1.0,1.0,1.0,1,"Index(['1', '2', '3', '5', '7', '8', '9', '12', '13', '14',
       ...
       '281', '282', '283', '284', '285', '288', '292', '296', '297', '300'],
      dtype='object', length=133)",False,1000,True,2,085413f4d5,1.0,1.0
./expes/v3_2021-02-05_di_300-prng-1-w1-p2,daily_issda-300,300,first-300,98,32,rng,num-start-21,21,536,classic,1000.7750623226166,False,,False,0,,,0,"Index(['1', '3', '5', '6', '8', '9', '11', '16', '19', '22', '27', '31', '33',
       '35', '36', '38', '39', '43', '44', '45', '47', '49', '52', '56', '60',
       '61', '68', '69', '73', '75', '81', '91', '95', '96', '97', '98', '101',
       '102', '107', '108', '109', '110', '118', '120', '124', '125', '127',
       '131', '133', '139', '143', '148', '149', '151', '152', '156', '160',
       '162', '168', '169', '171', '173', '189', '191', '193', '197', '198',
       '202', '203', '204', '206', '209', '210', '215', '216', '226', '227',
       '229', '230', '232', '235', '238', '239', '241', '244', '250', '256',
       '261', '263', '266', '271', '276', '283', '287', '289', '290', '296',
       '299'],
      dtype='object')",True,1000,True,2,358a47fa00,0.0,0.0
./expes/v3_2021-02-05_di_300-prng-1-w1-p2,daily_issda-300,300,first-300,21,7,rng,num-start-71,71,536,classic,4.892190456390381,True,,True,1.0,1.0,1.0,1,"Index(['20', '25', '30', '36', '38', '45', '47', '49', '78', '110', '124',
       '166', '188', '203', '215', '218', '223', '260', '275', '283', '299'],
      dtype='object')",False,1000,True,2,a9e3f705a4,1.0,1.0
./expes/v3_2021-02-05_di_300-prng-1-w1-p2,daily_issda-300,300,first-300,98,32,rng,num-start-131,131,536,classic,6.6040191650390625,True,,True,1.0,1.0,1.0,1,"Index(['2', '3', '5', '7', '12', '14', '15', '16', '18', '23', '29', '33',
       '45', '49', '52', '53', '56', '61', '62', '67', '69', '84', '87', '88',
       '89', '96', '98', '103', '106', '108', '111', '113', '114', '117',
       '118', '119', '120', '125', '131', '137', '138', '146', '149', '152',
       '156', '158', '163', '171', '177', '181', '187', '188', '190', '192',
       '195', '196', '197', '200', '202', '207', '208', '212', '213', '214',
       '217', '219', '222', '225', '229', '231', '236', '241', '242', '246',
       '247', '250', '251', '254', '256', '257', '258', '259', '260', '261',
       '263', '264', '266', '267', '271', '277', '278', '281', '284', '285',
       '288', '292', '296', '297'],
      dtype='object')",False,1000,True,2,2a56c0daca,1.0,1.0
./expes/v3_2021-02-05_di_300-prng-1-w1-p2,daily_issda-300,300,first-300,14,4,rng,num-start-241,241,536,classic,9.243058919906616,True,,True,1.0,1.0,1.0,1,"Index(['1', '6', '74', '117', '138', '141', '180', '192', '196', '236', '243',
       '248', '271', '286'],
      dtype='object')",False,1000,True,2,49381e8142,1.0,1.0
./expes/v3_2021-02-05_di_300-prng-1-w1-p2,daily_issda-300,300,first-300,112,37,rng,num-start-31,31,536,classic,1001.0789601802826,False,,False,0,,,0,"Index(['3', '5', '10', '11', '14', '26', '27', '28', '30', '32',
       ...
       '279', '283', '284', '285', '286', '287', '289', '293', '295', '297'],
      dtype='object', length=112)",True,1000,True,2,a4cd14d8f4,0.0,0.0
./expes/v3_2021-02-05_di_300-prng-1-w1-p2,daily_issda-300,300,first-300,56,18,rng,num-start-71,71,536,classic,7.558129787445068,True,,True,1.0,1.0,1.0,1,"Index(['2', '3', '4', '5', '9', '13', '21', '23', '27', '29', '33', '42', '43',
       '45', '53', '57', '58', '63', '68', '69', '71', '72', '81', '87', '96',
       '102', '103', '104', '105', '108', '115', '122', '137', '144', '150',
       '170', '172', '174', '175', '192', '194', '195', '197', '204', '211',
       '216', '217', '218', '232', '238', '252', '258', '260', '277', '284',
       '297'],
      dtype='object')",False,1000,True,2,605370d6fc,1.0,1.0
./expes/v3_2021-02-05_di_300-prng-1-w1-p2,daily_issda-300,300,first-300,14,4,rng,num-start-101,101,536,classic,4.116365194320679,True,,True,1.0,1.0,1.0,1,"Index(['47', '49', '73', '95', '96', '98', '156', '229', '232', '239', '244',
       '261', '263', '287'],
      dtype='object')",False,1000,True,2,42dd5340ac,1.0,1.0
./expes/v3_2021-02-05_di_300-prng-1-w1-p2,daily_issda-300,300,first-300,28,9,rng,num-start-21,21,536,classic,1000.7238018512726,False,,False,0,,,0,"Index(['4', '21', '27', '33', '42', '53', '57', '68', '71', '81', '87', '96',
       '105', '115', '122', '137', '150', '172', '174', '192', '195', '197',
       '217', '232', '238', '258', '260', '284'],
      dtype='object')",True,1000,True,2,fb7b5c565e,0.0,0.0
./expes/v3_2021-02-05_di_300-prng-1-w1-p2,daily_issda-300,300,first-300,7,2,rng,num-start-291,291,536,classic,10.722502708435059,True,,True,1.0,1.0,1.0,1,"Index(['4', '71', '96', '137', '174', '192', '238'], dtype='object')",False,1000,True,2,af03ff8f62,1.0,1.0
./expes/v3_2021-02-05_di_300-prng-1-w1-p2,daily_issda-300,300,first-300,105,35,rng,num-start-241,241,536,classic,10.770477294921875,True,,True,1.0,1.0,1.0,1,"Index(['7', '11', '14', '16', '18', '20', '23', '30', '33', '36',
       ...
       '273', '277', '280', '286', '289', '292', '294', '297', '298', '300'],
      dtype='object', length=105)",False,1000,True,2,4c5ebf53cf,1.0,1.0
./expes/v3_2021-02-05_di_300-prng-1-w1-p2,daily_issda-300,300,first-300,14,4,rng,num-start-261,261,536,classic,9.417248487472534,True,,True,1.0,1.0,1.0,1,"Index(['15', '27', '58', '81', '127', '128', '131', '184', '191', '195', '239',
       '241', '272', '279'],
      dtype='object')",False,1000,True,2,e32278e4b9,1.0,1.0
./expes/v3_2021-02-05_di_300-prng-1-w1-p2,daily_issda-300,300,first-300,77,25,rng,num-start-51,51,536,classic,1001.7116734981537,False,,False,0,,,0,"Index(['3', '4', '5', '6', '7', '8', '11', '12', '15', '17', '23', '34', '37',
       '41', '43', '45', '48', '52', '63', '73', '74', '79', '80', '85', '89',
       '113', '114', '115', '117', '119', '121', '122', '125', '130', '133',
       '145', '146', '151', '152', '155', '156', '159', '163', '164', '172',
       '179', '186', '190', '192', '202', '205', '208', '210', '214', '216',
       '217', '228', '229', '233', '234', '236', '238', '241', '244', '245',
       '247', '251', '252', '254', '256', '262', '265', '268', '277', '278',
       '289', '297'],
      dtype='object')",True,1000,True,2,1dae5b13c3,0.0,0.0
./expes/v3_2021-02-05_di_300-prng-1-w1-p2,daily_issda-300,300,first-300,7,2,rng,num-start-151,151,536,classic,6.7644805908203125,True,,True,1.0,1.0,1.0,1,"Index(['47', '53', '80', '121', '156', '203', '246'], dtype='object')",False,1000,True,2,d7f76677df,1.0,1.0
./expes/v3_2021-02-05_di_300-prng-1-w1-p2,daily_issda-300,300,first-300,126,42,rng,num-start-51,51,536,classic,1001.855034828186,False,,False,0,,,0,"Index(['1', '4', '5', '6', '10', '13', '14', '15', '16', '17',
       ...
       '270', '271', '277', '278', '280', '282', '285', '286', '294', '296'],
      dtype='object', length=126)",True,1000,True,2,27f0fb3ffb,0.0,0.0
./expes/v3_2021-02-05_di_300-prng-1-w1-p2,daily_issda-300,300,first-300,126,42,rng,num-start-111,111,536,classic,18.339338302612305,True,,True,1.0,1.0,1.0,1,"Index(['1', '6', '10', '11', '13', '15', '17', '18', '22', '28',
       ...
       '274', '280', '283', '284', '287', '288', '292', '293', '297', '299'],
      dtype='object', length=126)",False,1000,True,2,ea88739104,1.0,1.0
./expes/v3_2021-02-05_di_300-prng-1-w1-p2,daily_issda-300,300,first-300,140,46,rng,num-start-51,51,536,classic,1001.7904391288757,False,,False,0,,,0,"Index(['3', '4', '5', '6', '7', '8', '11', '12', '15', '16',
       ...
       '270', '273', '274', '277', '278', '284', '289', '294', '297', '299'],
      dtype='object', length=140)",True,1000,True,2,46691446b4,0.0,0.0
./expes/v3_2021-02-05_di_300-prng-1-w1-p2,daily_issda-300,300,first-300,105,35,rng,num-start-151,151,536,classic,6.962266445159912,True,,True,1.0,1.0,1.0,1,"Index(['1', '8', '9', '14', '17', '20', '21', '24', '32', '33',
       ...
       '277', '279', '281', '283', '287', '291', '294', '295', '297', '299'],
      dtype='object', length=105)",False,1000,True,2,c15e2ba52d,1.0,1.0
./expes/v3_2021-02-05_di_300-prng-1-w1-p2,daily_issda-300,300,first-300,77,25,rng,num-start-281,281,536,classic,12.647185325622559,True,,True,1.0,1.0,1.0,1,"Index(['6', '10', '15', '35', '36', '38', '43', '46', '48', '49', '53', '55',
       '58', '59', '61', '63', '74', '77', '83', '85', '87', '93', '100',
       '105', '112', '115', '121', '127', '131', '132', '134', '135', '137',
       '139', '141', '143', '144', '145', '150', '156', '159', '162', '173',
       '184', '185', '187', '196', '198', '202', '204', '207', '211', '214',
       '218', '224', '225', '226', '231', '232', '234', '236', '239', '243',
       '246', '249', '250', '251', '257', '264', '265', '270', '274', '283',
       '292', '293', '297', '299'],
      dtype='object')",False,1000,True,2,d094a2dcb5,1.0,1.0
./expes/v3_2021-02-05_di_300-prng-1-w1-p2,daily_issda-300,300,first-300,49,16,rng,num-start-91,91,536,classic,7.083644151687622,True,,True,1.0,1.0,1.0,1,"Index(['8', '16', '37', '44', '61', '65', '67', '70', '72', '76', '91', '92',
       '96', '104', '110', '116', '119', '120', '130', '132', '133', '135',
       '142', '144', '149', '151', '161', '178', '183', '187', '191', '203',
       '220', '221', '224', '226', '228', '230', '231', '236', '250', '252',
       '268', '273', '275', '282', '284', '289', '296'],
      dtype='object')",False,1000,True,2,f07b51b3b1,1.0,1.0
./expes/v3_2021-02-05_di_300-prng-1-w1-p2,daily_issda-300,300,first-300,126,42,rng,num-start-61,61,536,classic,1002.1560754776001,False,,False,0,,,0,"Index(['2', '7', '9', '11', '14', '16', '17', '18', '20', '23',
       ...
       '273', '277', '280', '286', '289', '292', '294', '297', '298', '300'],
      dtype='object', length=126)",True,1000,True,2,61a5702701,0.0,0.0
./expes/v3_2021-02-05_di_300-prng-1-w1-p2,daily_issda-300,300,first-300,42,14,rng,num-start-131,131,536,classic,5.322144269943237,True,,True,1.0,1.0,1.0,1,"Index(['8', '16', '37', '44', '61', '65', '67', '70', '72', '76', '91', '92',
       '96', '104', '110', '116', '119', '120', '132', '133', '135', '142',
       '149', '151', '161', '178', '183', '187', '220', '221', '224', '226',
       '228', '230', '231', '250', '268', '273', '275', '282', '284', '289'],
      dtype='object')",False,1000,True,2,d10c629c9a,1.0,1.0
./expes/v3_2021-02-05_di_300-prng-1-w1-p2,daily_issda-300,300,first-300,140,46,rng,num-start-271,271,536,classic,12.303293228149414,True,,True,1.0,1.0,1.0,1,"Index(['2', '3', '5', '6', '8', '9', '10', '16', '19', '22',
       ...
       '282', '285', '286', '290', '292', '293', '295', '296', '297', '298'],
      dtype='object', length=140)",False,1000,True,2,398c666365,1.0,1.0
./expes/v3_2021-02-05_di_300-prng-1-w1-p2,daily_issda-300,300,first-300,42,14,rng,num-start-211,211,536,classic,8.23848581314087,True,,True,1.0,1.0,1.0,1,"Index(['1', '6', '10', '27', '31', '32', '39', '45', '47', '58', '70', '74',
       '75', '84', '88', '103', '108', '115', '117', '138', '141', '161',
       '173', '174', '180', '189', '192', '196', '208', '217', '226', '228',
       '236', '243', '248', '261', '263', '271', '277', '285', '286', '296'],
      dtype='object')",False,1000,True,2,d44bd3b3f1,1.0,1.0
./expes/v3_2021-02-05_di_300-prng-1-w1-p2,daily_issda-300,300,first-300,70,23,rng,num-start-101,101,536,classic,9.352294445037842,True,,True,1.0,1.0,1.0,1,"Index(['3', '8', '17', '18', '19', '23', '34', '37', '39', '42', '50', '58',
       '69', '72', '77', '81', '83', '86', '90', '98', '100', '106', '115',
       '121', '123', '128', '135', '143', '146', '155', '156', '161', '167',
       '168', '179', '182', '185', '186', '188', '192', '193', '196', '197',
       '212', '213', '216', '220', '222', '224', '226', '227', '229', '231',
       '234', '237', '241', '248', '251', '252', '255', '257', '267', '274',
       '275', '282', '291', '293', '296', '299', '300'],
      dtype='object')",False,1000,True,2,e13e042498,1.0,1.0
./expes/v3_2021-02-05_di_300-prng-1-w1-p2,daily_issda-300,300,first-300,119,39,rng,num-start-271,271,536,classic,12.540775537490845,True,,True,1.0,1.0,1.0,1,"Index(['1', '4', '5', '6', '10', '13', '14', '15', '16', '17',
       ...
       '270', '271', '277', '278', '280', '282', '285', '286', '294', '296'],
      dtype='object', length=119)",False,1000,True,2,e8212a9172,1.0,1.0
./expes/v3_2021-02-05_di_300-prng-1-w1-p2,daily_issda-300,300,first-300,21,7,rng,num-start-171,171,536,classic,6.945858478546143,True,,True,1.0,1.0,1.0,1,"Index(['11', '31', '35', '47', '53', '55', '80', '89', '114', '121', '135',
       '142', '149', '156', '185', '203', '206', '246', '267', '275', '282'],
      dtype='object')",False,1000,True,2,fb4d98a5c3,1.0,1.0
./expes/v3_2021-02-05_di_300-prng-1-w1-p2,daily_issda-300,300,first-300,35,11,rng,num-start-201,201,536,classic,8.272727727890015,True,,True,1.0,1.0,1.0,1,"Index(['1', '3', '7', '15', '27', '37', '53', '58', '65', '68', '72', '81',
       '82', '85', '86', '94', '108', '111', '127', '128', '131', '144', '149',
       '161', '184', '191', '195', '200', '209', '228', '239', '241', '272',
       '279', '294'],
      dtype='object')",False,1000,True,2,227dedb646,1.0,1.0
./expes/v3_2021-02-05_di_300-prng-1-w1-p2,daily_issda-300,300,first-300,119,39,rng,num-start-131,131,536,classic,13.588914632797241,True,,True,1.0,1.0,1.0,1,"Index(['1', '8', '9', '12', '14', '17', '19', '20', '21', '24',
       ...
       '277', '279', '281', '283', '287', '291', '294', '295', '297', '299'],
      dtype='object', length=119)",False,1000,True,2,d86fb9deb0,1.0,1.0
./expes/v3_2021-02-05_di_300-prng-1-w1-p2,daily_issda-300,300,first-300,140,46,rng,num-start-261,261,536,classic,11.257415533065796,True,,True,1.0,1.0,1.0,1,"Index(['1', '3', '5', '10', '11', '13', '15', '16', '17', '18',
       ...
       '272', '279', '283', '286', '287', '288', '291', '295', '298', '300'],
      dtype='object', length=140)",False,1000,True,2,87bd7b9221,1.0,1.0
./expes/v3_2021-02-05_di_300-prng-1-w1-p2,daily_issda-300,300,first-300,112,37,rng,num-start-101,101,536,classic,205.86927247047424,True,,True,1.0,1.0,1.0,1,"Index(['1', '2', '3', '5', '7', '12', '14', '15', '16', '17',
       ...
       '281', '282', '283', '284', '285', '288', '292', '296', '297', '300'],
      dtype='object', length=112)",False,1000,True,2,f296fc2608,1.0,1.0
./expes/v3_2021-02-05_di_300-prng-1-w1-p2,daily_issda-300,300,first-300,112,37,rng,num-start-201,201,536,classic,9.589035511016846,True,,True,1.0,1.0,1.0,1,"Index(['1', '3', '5', '11', '13', '15', '16', '17', '19', '21',
       ...
       '270', '272', '279', '283', '286', '287', '288', '291', '295', '298'],
      dtype='object', length=112)",False,1000,True,2,ae86febf06,1.0,1.0
./expes/v3_2021-02-05_di_300-prng-1-w1-p2,daily_issda-300,300,first-300,63,21,rng,num-start-31,31,536,classic,1001.175764799118,False,,False,0,,,0,"Index(['2', '3', '4', '5', '9', '13', '21', '23', '27', '29', '33', '36', '42',
       '43', '44', '45', '53', '57', '58', '63', '68', '69', '71', '72', '81',
       '87', '96', '99', '102', '103', '104', '105', '108', '115', '122',
       '137', '144', '150', '170', '172', '174', '175', '192', '194', '195',
       '197', '204', '211', '216', '217', '218', '232', '238', '252', '255',
       '257', '258', '260', '276', '277', '284', '294', '297'],
      dtype='object')",True,1000,True,2,bebb6c959d,0.0,0.0
./expes/v3_2021-02-05_di_300-prng-1-w1-p2,daily_issda-300,300,first-300,70,23,rng,num-start-1,1,536,classic,0.39333105087280273,False,,False,0.42476752299662196,0.41023217538041146,0.43930287061283246,2,"Index(['7', '8', '11', '15', '16', '19', '22', '33', '34', '35', '46', '50',
       '54', '64', '67', '69', '70', '78', '82', '84', '99', '109', '112',
       '119', '120', '122', '133', '137', '138', '144', '146', '151', '155',
       '168', '173', '177', '180', '188', '190', '198', '199', '200', '203',
       '204', '209', '211', '216', '219', '224', '228', '241', '243', '244',
       '247', '248', '254', '260', '268', '274', '277', '278', '279', '282',
       '283', '292', '293', '294', '296', '298', '300'],
      dtype='object')",False,1000,True,2,c3af5d7054,1.0,1.0
./expes/v3_2021-02-05_di_300-prng-1-w1-p2,daily_issda-300,300,first-300,77,25,rng,num-start-171,171,536,classic,9.41404104232788,True,,True,1.0,1.0,1.0,1,"Index(['1', '2', '3', '5', '7', '10', '12', '15', '24', '27', '30', '34', '37',
       '53', '58', '61', '65', '68', '72', '75', '81', '82', '85', '86', '91',
       '93', '94', '95', '101', '102', '105', '108', '111', '126', '127',
       '128', '131', '132', '136', '144', '149', '153', '155', '157', '159',
       '161', '162', '170', '174', '177', '182', '184', '185', '188', '191',
       '193', '195', '197', '200', '207', '209', '213', '215', '228', '232',
       '237', '239', '241', '242', '247', '263', '272', '277', '279', '282',
       '294', '297'],
      dtype='object')",False,1000,True,2,ce04e6aeb0,1.0,1.0
./expes/v3_2021-02-05_di_300-prng-1-w1-p2,daily_issda-300,300,first-300,35,11,rng,num-start-111,111,536,classic,5.851469278335571,True,,True,1.0,1.0,1.0,1,"Index(['9', '12', '23', '37', '38', '51', '56', '59', '62', '76', '103', '104',
       '134', '138', '149', '154', '160', '167', '168', '178', '199', '202',
       '203', '211', '213', '217', '226', '234', '262', '267', '271', '278',
       '292', '297', '300'],
      dtype='object')",False,1000,True,2,89af5244a7,1.0,1.0
./expes/v3_2021-02-05_di_300-prng-1-w1-p2,daily_issda-300,300,first-300,112,37,rng,num-start-61,61,536,classic,1002.5090246200562,False,,False,0,,,0,"Index(['1', '3', '5', '11', '13', '15', '16', '17', '19', '21',
       ...
       '270', '272', '279', '283', '286', '287', '288', '291', '295', '298'],
      dtype='object', length=112)",True,1000,True,2,877cd1bca8,0.0,0.0
./expes/v3_2021-02-05_di_300-prng-1-w1-p2,daily_issda-300,300,first-300,91,30,rng,num-start-91,91,536,classic,1003.060019493103,False,,False,0,,,0,"Index(['2', '3', '5', '7', '12', '14', '15', '16', '18', '23', '33', '45',
       '49', '52', '53', '56', '61', '62', '67', '69', '84', '87', '88', '89',
       '96', '98', '103', '108', '111', '113', '114', '117', '118', '119',
       '120', '125', '131', '137', '138', '146', '149', '152', '156', '158',
       '163', '171', '177', '181', '188', '190', '192', '195', '196', '197',
       '200', '202', '207', '208', '213', '214', '217', '222', '225', '229',
       '231', '236', '241', '242', '246', '250', '251', '254', '256', '257',
       '258', '259', '260', '261', '263', '264', '266', '267', '271', '277',
       '278', '281', '284', '285', '292', '296', '297'],
      dtype='object')",True,1000,True,2,a82f9c8df1,0.0,0.0
./expes/v3_2021-02-05_di_300-prng-1-w1-p2,daily_issda-300,300,first-300,7,2,rng,num-start-41,41,536,classic,1.627854824066162,True,,True,1.0,1.0,1.0,1,"Index(['23', '44', '65', '99', '117', '190', '193'], dtype='object')",False,1000,True,2,1a8e55b6d0,1.0,1.0
./expes/v3_2021-02-05_di_300-prng-1-w1-p2,daily_issda-300,300,first-300,35,11,rng,num-start-261,261,536,classic,9.952288150787354,True,,True,1.0,1.0,1.0,1,"Index(['1', '6', '10', '31', '32', '39', '45', '47', '74', '75', '84', '103',
       '108', '115', '117', '138', '141', '173', '174', '180', '189', '192',
       '196', '208', '217', '226', '228', '236', '243', '248', '261', '263',
       '271', '286', '296'],
      dtype='object')",False,1000,True,2,f5d2a64c4b,1.0,1.0
./expes/v3_2021-02-05_di_300-prng-1-w1-p2,daily_issda-300,300,first-300,119,39,rng,num-start-231,231,536,classic,9.536309719085693,True,,True,1.0,1.0,1.0,1,"Index(['3', '4', '5', '10', '30', '34', '40', '41', '45', '46',
       ...
       '281', '283', '285', '286', '287', '291', '293', '294', '295', '297'],
      dtype='object', length=119)",False,1000,True,2,80fb21f86a,1.0,1.0
./expes/v3_2021-02-05_di_300-prng-1-w1-p2,daily_issda-300,300,first-300,112,37,rng,num-start-221,221,536,classic,9.937573194503784,True,,True,1.0,1.0,1.0,1,"Index(['7', '9', '11', '14', '16', '18', '20', '23', '30', '33',
       ...
       '273', '277', '280', '286', '289', '292', '294', '297', '298', '300'],
      dtype='object', length=112)",False,1000,True,2,efa213d781,1.0,1.0
./expes/v3_2021-02-05_di_300-prng-1-w1-p2,daily_issda-300,300,first-300,98,32,rng,num-start-31,31,536,classic,1001.1163141727448,False,,False,0,,,0,"Index(['4', '10', '11', '14', '22', '23', '24', '31', '32', '35', '40', '42',
       '43', '45', '46', '47', '52', '53', '55', '63', '70', '75', '79', '80',
       '83', '85', '89', '91', '92', '95', '99', '100', '101', '102', '104',
       '110', '114', '118', '120', '121', '122', '127', '128', '129', '133',
       '134', '135', '140', '142', '143', '144', '147', '148', '149', '150',
       '151', '154', '156', '157', '159', '160', '165', '166', '168', '170',
       '173', '176', '183', '185', '191', '196', '199', '203', '206', '211',
       '212', '217', '221', '224', '226', '228', '232', '236', '237', '242',
       '243', '246', '260', '261', '266', '267', '274', '275', '281', '282',
       '286', '294', '299'],
      dtype='object')",True,1000,True,2,14320abff5,0.0,0.0
./expes/v3_2021-02-05_di_300-prng-1-w1-p2,daily_issda-300,300,first-300,35,11,rng,num-start-31,31,536,classic,1001.0500693321228,False,,False,0,,,0,"Index(['1', '6', '10', '31', '32', '39', '45', '47', '74', '75', '84', '103',
       '108', '115', '117', '138', '141', '173', '174', '180', '189', '192',
       '196', '208', '217', '226', '228', '236', '243', '248', '261', '263',
       '271', '286', '296'],
      dtype='object')",True,1000,True,2,1c0c9ee703,0.0,0.0
./expes/v3_2021-02-05_di_300-prng-1-w1-p2,daily_issda-300,300,first-300,35,11,rng,num-start-201,201,536,classic,8.571691989898682,True,,True,1.0,1.0,1.0,1,"Index(['6', '15', '36', '38', '43', '55', '61', '63', '77', '83', '85', '105',
       '115', '127', '131', '134', '135', '139', '141', '150', '156', '162',
       '173', '184', '185', '196', '202', '204', '207', '231', '239', '265',
       '270', '283', '299'],
      dtype='object')",False,1000,True,2,7646fbdd16,1.0,1.0
./expes/v3_2021-02-05_di_300-prng-1-w1-p2,daily_issda-300,300,first-300,98,32,rng,num-start-291,291,536,classic,12.423757791519165,True,,True,1.0,1.0,1.0,1,"Index(['1', '4', '6', '10', '14', '15', '16', '17', '19', '23', '27', '31',
       '32', '39', '40', '43', '45', '47', '53', '58', '59', '70', '74', '75',
       '84', '86', '88', '92', '94', '97', '99', '103', '105', '107', '108',
       '113', '114', '115', '117', '121', '123', '130', '134', '138', '141',
       '142', '145', '159', '161', '172', '173', '174', '177', '180', '183',
       '186', '187', '189', '191', '192', '196', '197', '198', '199', '206',
       '208', '215', '217', '219', '221', '222', '226', '228', '234', '236',
       '238', '241', '243', '244', '245', '247', '248', '256', '257', '260',
       '261', '262', '263', '264', '266', '271', '277', '278', '282', '285',
       '286', '294', '296'],
      dtype='object')",False,1000,True,2,57df6d56a3,1.0,1.0
./expes/v3_2021-02-05_di_300-prng-1-w1-p2,daily_issda-300,300,first-300,28,9,rng,num-start-41,41,536,classic,4.823914289474487,True,,True,1.0,1.0,1.0,1,"Index(['7', '8', '16', '22', '33', '34', '67', '78', '82', '99', '119', '120',
       '122', '133', '138', '155', '190', '200', '204', '241', '243', '244',
       '268', '277', '279', '282', '283', '298'],
      dtype='object')",False,1000,True,2,de242fe39b,1.0,1.0
./expes/v3_2021-02-05_di_300-prng-1-w1-p2,daily_issda-300,300,first-300,140,46,rng,num-start-121,121,536,classic,12.025821685791016,True,,True,1.0,1.0,1.0,1,"Index(['1', '2', '3', '5', '7', '8', '9', '12', '13', '14',
       ...
       '281', '282', '283', '284', '285', '288', '292', '296', '297', '300'],
      dtype='object', length=140)",False,1000,True,2,618d4bc10e,1.0,1.0
./expes/v3_2021-02-05_di_300-prng-1-w1-p2,daily_issda-300,300,first-300,70,23,rng,num-start-121,121,536,classic,5.514822959899902,True,,True,1.0,1.0,1.0,1,"Index(['20', '24', '25', '26', '30', '31', '32', '33', '36', '38', '42', '45',
       '47', '49', '50', '53', '61', '64', '69', '74', '78', '85', '93', '97',
       '106', '110', '114', '115', '124', '125', '128', '148', '149', '154',
       '158', '161', '166', '176', '186', '188', '191', '203', '204', '215',
       '218', '219', '223', '230', '233', '239', '254', '255', '260', '263',
       '269', '273', '275', '277', '281', '283', '286', '287', '289', '290',
       '293', '295', '296', '298', '299', '300'],
      dtype='object')",False,1000,True,2,d7b097820e,1.0,1.0
./expes/v3_2021-02-05_di_300-prng-1-w1-p2,daily_issda-300,300,first-300,126,42,rng,num-start-111,111,536,classic,71.26173257827759,True,,True,1.0,1.0,1.0,1,"Index(['3', '4', '5', '6', '7', '8', '11', '12', '15', '16',
       ...
       '265', '268', '270', '274', '277', '278', '289', '294', '297', '299'],
      dtype='object', length=126)",False,1000,True,2,f134213e85,1.0,1.0
./expes/v3_2021-02-05_di_300-prng-1-w1-p2,daily_issda-300,300,first-300,77,25,rng,num-start-101,101,536,classic,17.174277782440186,True,,True,1.0,1.0,1.0,1,"Index(['3', '8', '17', '18', '19', '23', '34', '37', '39', '42', '50', '58',
       '62', '69', '72', '74', '77', '81', '83', '86', '90', '92', '98', '100',
       '106', '115', '121', '123', '126', '128', '135', '137', '141', '143',
       '146', '155', '156', '161', '167', '168', '179', '182', '185', '186',
       '188', '192', '193', '196', '197', '212', '213', '216', '220', '222',
       '224', '226', '227', '229', '231', '234', '237', '241', '248', '251',
       '252', '255', '257', '267', '268', '274', '275', '282', '291', '293',
       '296', '299', '300'],
      dtype='object')",False,1000,True,2,7acf011dd2,1.0,1.0
./expes/v3_2021-02-05_di_300-prng-1-w1-p2,daily_issda-300,300,first-300,42,14,rng,num-start-61,61,536,classic,4.413809537887573,True,,True,1.0,1.0,1.0,1,"Index(['6', '9', '19', '29', '34', '41', '60', '76', '81', '106', '107', '115',
       '118', '119', '123', '135', '144', '157', '161', '162', '174', '177',
       '182', '183', '185', '189', '201', '208', '215', '216', '225', '231',
       '234', '237', '239', '251', '252', '262', '267', '290', '292', '296'],
      dtype='object')",False,1000,True,2,acb40385db,1.0,1.0
./expes/v3_2021-02-05_di_300-prng-1-w1-p2,daily_issda-300,300,first-300,119,39,rng,num-start-131,131,536,classic,9.383333206176758,True,,True,1.0,1.0,1.0,1,"Index(['3', '4', '5', '10', '30', '34', '40', '41', '45', '46',
       ...
       '281', '283', '285', '286', '287', '291', '293', '294', '295', '297'],
      dtype='object', length=119)",False,1000,True,2,bc32d981f7,1.0,1.0
./expes/v3_2021-02-05_di_300-prng-1-w1-p2,daily_issda-300,300,first-300,133,44,rng,num-start-21,21,536,classic,1000.7325983047485,False,,False,0,,,0,"Index(['4', '5', '10', '11', '14', '17', '19', '21', '22', '23',
       ...
       '271', '274', '275', '280', '281', '282', '286', '293', '294', '299'],
      dtype='object', length=133)",True,1000,True,2,77203b56ac,0.0,0.0
./expes/v3_2021-02-05_di_300-prng-1-w1-p2,daily_issda-300,300,first-300,63,21,rng,num-start-51,51,536,classic,1001.7641122341156,False,,False,0,,,0,"Index(['3', '8', '17', '18', '19', '23', '34', '37', '39', '42', '50', '58',
       '69', '72', '77', '81', '83', '90', '100', '106', '115', '121', '123',
       '128', '135', '143', '146', '155', '156', '161', '167', '168', '182',
       '185', '186', '188', '192', '193', '196', '197', '212', '216', '220',
       '224', '226', '231', '234', '237', '241', '248', '251', '252', '255',
       '257', '267', '274', '275', '282', '291', '293', '296', '299', '300'],
      dtype='object')",True,1000,True,2,85db012747,0.0,0.0
./expes/v3_2021-02-05_di_300-prng-1-w1-p2,daily_issda-300,300,first-300,91,30,rng,num-start-101,101,536,classic,42.53577017784119,True,,True,1.0,1.0,1.0,1,"Index(['2', '8', '16', '20', '22', '23', '36', '37', '38', '44', '48', '58',
       '61', '65', '67', '68', '70', '71', '72', '73', '76', '82', '85', '86',
       '91', '92', '94', '96', '99', '100', '104', '109', '110', '116', '119',
       '120', '121', '122', '129', '130', '132', '133', '135', '142', '144',
       '149', '151', '152', '160', '161', '175', '176', '178', '180', '183',
       '184', '187', '188', '191', '192', '200', '203', '212', '218', '220',
       '221', '224', '226', '228', '230', '231', '236', '238', '250', '252',
       '255', '267', '268', '270', '273', '275', '279', '282', '284', '285',
       '289', '290', '292', '296', '298', '299'],
      dtype='object')",False,1000,True,2,ff4a285ede,1.0,1.0
./expes/v3_2021-02-05_di_300-prng-1-w1-p2,daily_issda-300,300,first-300,63,21,rng,num-start-171,171,536,classic,7.3608574867248535,True,,True,1.0,1.0,1.0,1,"Index(['7', '8', '15', '16', '19', '22', '33', '34', '50', '54', '64', '67',
       '69', '70', '78', '82', '84', '99', '109', '112', '119', '120', '122',
       '133', '137', '138', '144', '146', '155', '168', '173', '180', '188',
       '190', '198', '199', '200', '203', '204', '209', '216', '219', '224',
       '228', '241', '243', '244', '247', '254', '260', '268', '274', '277',
       '278', '279', '282', '283', '292', '293', '294', '296', '298', '300'],
      dtype='object')",False,1000,True,2,a745a48a2a,1.0,1.0
./expes/v3_2021-02-05_di_300-prng-1-w1-p2,daily_issda-300,300,first-300,7,2,rng,num-start-121,121,536,classic,4.783006191253662,True,,True,1.0,1.0,1.0,1,"Index(['90', '149', '156', '188', '213', '268', '277'], dtype='object')",False,1000,True,2,c8614b3b59,1.0,1.0
./expes/v3_2021-02-05_di_300-prng-1-w1-p2,daily_issda-300,300,first-300,63,21,rng,num-start-171,171,536,classic,7.2823779582977295,True,,True,1.0,1.0,1.0,1,"Index(['2', '5', '12', '14', '15', '16', '18', '33', '49', '52', '53', '61',
       '62', '69', '89', '96', '98', '108', '111', '113', '114', '118', '119',
       '120', '125', '131', '137', '146', '149', '152', '156', '163', '171',
       '177', '188', '192', '195', '196', '200', '202', '207', '213', '214',
       '217', '222', '225', '229', '231', '236', '242', '246', '250', '254',
       '256', '257', '259', '260', '271', '278', '281', '284', '285', '292'],
      dtype='object')",False,1000,True,2,12fba6e52f,1.0,1.0
./expes/v3_2021-02-05_di_300-prng-1-w1-p2,daily_issda-300,300,first-300,49,16,rng,num-start-91,91,536,classic,6.980466365814209,True,,True,1.0,1.0,1.0,1,"Index(['3', '8', '17', '18', '23', '34', '39', '69', '72', '81', '83', '90',
       '100', '106', '121', '123', '128', '135', '143', '146', '156', '161',
       '167', '168', '182', '185', '186', '188', '193', '196', '216', '220',
       '224', '226', '231', '234', '237', '241', '248', '251', '252', '257',
       '267', '275', '282', '293', '296', '299', '300'],
      dtype='object')",False,1000,True,2,b2ca610521,1.0,1.0
./expes/v3_2021-02-05_di_300-prng-1-w1-p2,daily_issda-300,300,first-300,98,32,rng,num-start-191,191,536,classic,9.495034456253052,True,,True,1.0,1.0,1.0,1,"Index(['3', '5', '10', '11', '14', '26', '27', '28', '30', '32', '33', '36',
       '39', '42', '44', '48', '49', '57', '60', '64', '67', '71', '72', '73',
       '78', '83', '88', '90', '94', '99', '101', '102', '108', '109', '110',
       '116', '123', '124', '128', '129', '130', '133', '137', '140', '142',
       '143', '149', '156', '157', '158', '159', '160', '162', '163', '164',
       '170', '171', '172', '173', '179', '182', '185', '188', '191', '192',
       '197', '201', '206', '207', '208', '210', '213', '215', '222', '240',
       '243', '245', '246', '249', '257', '260', '268', '269', '270', '273',
       '275', '277', '278', '279', '283', '284', '285', '286', '287', '289',
       '293', '295', '297'],
      dtype='object')",False,1000,True,2,22ce01551c,1.0,1.0
./expes/v3_2021-02-05_di_300-prng-1-w1-p2,daily_issda-300,300,first-300,35,11,rng,num-start-141,141,536,classic,6.209502935409546,True,,True,1.0,1.0,1.0,1,"Index(['14', '32', '36', '42', '57', '64', '71', '72', '73', '78', '90', '101',
       '108', '128', '130', '143', '149', '156', '159', '163', '170', '188',
       '197', '206', '210', '213', '215', '243', '257', '260', '268', '273',
       '277', '283', '287'],
      dtype='object')",False,1000,True,2,b8ad57934d,1.0,1.0
./expes/v3_2021-02-05_di_300-prng-1-w1-p2,daily_issda-300,300,first-300,7,2,rng,num-start-161,161,536,classic,6.308195114135742,True,,True,1.0,1.0,1.0,1,"Index(['1', '19', '42', '75', '134', '249', '294'], dtype='object')",False,1000,True,2,b4d6770d3d,1.0,1.0
./expes/v3_2021-02-05_di_300-prng-1-w1-p2,daily_issda-300,300,first-300,56,18,rng,num-start-101,101,536,classic,8.662864446640015,True,,True,1.0,1.0,1.0,1,"Index(['1', '8', '21', '32', '33', '38', '42', '47', '48', '49', '51', '52',
       '72', '73', '76', '98', '105', '112', '114', '123', '125', '129', '133',
       '134', '145', '156', '159', '162', '164', '167', '170', '171', '182',
       '184', '198', '205', '208', '216', '223', '227', '230', '242', '245',
       '249', '253', '259', '261', '262', '267', '273', '279', '281', '283',
       '287', '291', '299'],
      dtype='object')",False,1000,True,2,cfaeb07e0f,1.0,1.0
./expes/v3_2021-02-05_di_300-prng-1-w1-p2,daily_issda-300,300,first-300,140,46,rng,num-start-81,81,536,classic,1002.8061306476593,False,,False,0,,,0,"Index(['2', '3', '5', '6', '8', '9', '10', '16', '19', '22',
       ...
       '282', '285', '286', '290', '292', '293', '295', '296', '297', '298'],
      dtype='object', length=140)",True,1000,True,2,c4cb86a5b2,0.0,0.0
./expes/v3_2021-02-05_di_300-prng-1-w1-p2,daily_issda-300,300,first-300,140,46,rng,num-start-151,151,536,classic,14.736841678619385,True,,True,1.0,1.0,1.0,1,"Index(['3', '4', '5', '6', '7', '8', '11', '12', '15', '16',
       ...
       '270', '273', '274', '277', '278', '284', '289', '294', '297', '299'],
      dtype='object', length=140)",False,1000,True,2,c64da88748,1.0,1.0
./expes/v3_2021-02-05_di_300-prng-1-w1-p2,daily_issda-300,300,first-300,63,21,rng,num-start-221,221,536,classic,9.652778148651123,True,,True,1.0,1.0,1.0,1,"Index(['3', '8', '17', '18', '19', '23', '34', '37', '39', '42', '50', '58',
       '69', '72', '77', '81', '83', '90', '100', '106', '115', '121', '123',
       '128', '135', '143', '146', '155', '156', '161', '167', '168', '182',
       '185', '186', '188', '192', '193', '196', '197', '212', '216', '220',
       '224', '226', '231', '234', '237', '241', '248', '251', '252', '255',
       '257', '267', '274', '275', '282', '291', '293', '296', '299', '300'],
      dtype='object')",False,1000,True,2,874bf8358a,1.0,1.0
./expes/v3_2021-02-05_di_300-prng-1-w1-p2,daily_issda-300,300,first-300,14,4,rng,num-start-231,231,536,classic,9.093347072601318,True,,True,1.0,1.0,1.0,1,"Index(['38', '55', '61', '127', '131', '135', '139', '150', '156', '202',
       '204', '231', '239', '270'],
      dtype='object')",False,1000,True,2,c61c4be403,1.0,1.0
./expes/v3_2021-02-05_di_300-prng-1-w1-p2,daily_issda-300,300,first-300,21,7,rng,num-start-291,291,536,classic,11.033274412155151,True,,True,1.0,1.0,1.0,1,"Index(['2', '15', '33', '49', '53', '61', '69', '108', '118', '131', '137',
       '163', '195', '200', '222', '229', '231', '242', '250', '254', '292'],
      dtype='object')",False,1000,True,2,218c480edf,1.0,1.0
./expes/v3_2021-02-05_di_300-prng-1-w1-p2,daily_issda-300,300,first-300,126,42,rng,num-start-31,31,536,classic,1001.1686637401581,False,,False,0,,,0,"Index(['3', '5', '10', '11', '14', '15', '26', '27', '28', '30',
       ...
       '284', '285', '286', '287', '289', '291', '293', '295', '296', '297'],
      dtype='object', length=126)",True,1000,True,2,426e75d7df,0.0,0.0
./expes/v3_2021-02-05_di_300-prng-1-w1-p2,daily_issda-300,300,first-300,63,21,rng,num-start-291,291,536,classic,13.27438497543335,True,,True,1.0,1.0,1.0,1,"Index(['20', '24', '25', '26', '30', '31', '32', '33', '36', '38', '42', '45',
       '47', '49', '50', '53', '61', '64', '69', '74', '78', '93', '97', '106',
       '110', '114', '115', '124', '125', '128', '149', '154', '158', '161',
       '166', '186', '188', '191', '203', '204', '215', '218', '219', '223',
       '233', '239', '255', '260', '273', '275', '277', '281', '283', '286',
       '287', '289', '290', '293', '295', '296', '298', '299', '300'],
      dtype='object')",False,1000,True,2,1a9f8f39d7,1.0,1.0
./expes/v3_2021-02-05_di_300-prng-1-w1-p2,daily_issda-300,300,first-300,140,46,rng,num-start-21,21,536,classic,1000.8355610370636,False,,False,0,,,0,"Index(['1', '6', '10', '11', '13', '15', '17', '18', '22', '27',
       ...
       '279', '280', '283', '284', '287', '288', '292', '293', '297', '299'],
      dtype='object', length=140)",True,1000,True,2,fa3b8b3c18,0.0,0.0
./expes/v3_2021-02-05_di_300-prng-1-w1-p2,daily_issda-300,300,first-300,42,14,rng,num-start-91,91,536,classic,3.6255218982696533,True,,True,1.0,1.0,1.0,1,"Index(['6', '9', '19', '29', '34', '41', '60', '76', '81', '106', '107', '115',
       '118', '119', '123', '135', '144', '157', '161', '162', '174', '177',
       '182', '183', '185', '189', '201', '208', '215', '216', '225', '231',
       '234', '237', '239', '251', '252', '262', '267', '290', '292', '296'],
      dtype='object')",False,1000,True,2,745d155f7e,1.0,1.0
./expes/v3_2021-02-05_di_300-prng-1-w1-p2,daily_issda-300,300,first-300,7,2,rng,num-start-151,151,536,classic,5.818377494812012,True,,True,1.0,1.0,1.0,1,"Index(['6', '9', '19', '81', '107', '123', '267'], dtype='object')",False,1000,True,2,11a307c5a0,1.0,1.0
./expes/v3_2021-02-05_di_300-prng-1-w1-p2,daily_issda-300,300,first-300,28,9,rng,num-start-21,21,536,classic,1000.7360925674438,False,,False,0,,,0,"Index(['61', '63', '87', '90', '93', '94', '101', '102', '103', '104', '111',
       '121', '122', '123', '130', '136', '152', '167', '172', '188', '230',
       '235', '246', '251', '253', '260', '268', '295'],
      dtype='object')",True,1000,True,2,ee616b7e4b,0.0,0.0
./expes/v3_2021-02-05_di_300-prng-1-w1-p2,daily_issda-300,300,first-300,56,18,rng,num-start-221,221,536,classic,9.55862545967102,True,,True,1.0,1.0,1.0,1,"Index(['1', '6', '10', '16', '27', '31', '32', '39', '43', '45', '47', '58',
       '70', '74', '75', '84', '88', '99', '103', '108', '115', '117', '134',
       '138', '141', '161', '173', '174', '180', '183', '186', '189', '192',
       '196', '197', '198', '206', '208', '215', '217', '226', '228', '236',
       '241', '243', '245', '248', '260', '261', '263', '271', '277', '278',
       '285', '286', '296'],
      dtype='object')",False,1000,True,2,0dac6f4734,1.0,1.0
./expes/v3_2021-02-05_di_300-prng-1-w1-p2,daily_issda-300,300,first-300,28,9,rng,num-start-51,51,536,classic,9.4497709274292,True,,True,1.0,1.0,1.0,1,"Index(['2', '5', '12', '14', '15', '16', '33', '49', '53', '61', '69', '108',
       '111', '118', '131', '137', '163', '195', '196', '200', '222', '229',
       '231', '242', '250', '254', '278', '292'],
      dtype='object')",False,1000,True,2,4d84461cc6,1.0,1.0
./expes/v3_2021-02-05_di_300-prng-1-w1-p2,daily_issda-300,300,first-300,91,30,rng,num-start-131,131,536,classic,6.114635944366455,True,,True,1.0,1.0,1.0,1,"Index(['3', '4', '5', '6', '7', '8', '11', '12', '15', '17', '23', '24', '25',
       '34', '37', '41', '43', '45', '48', '52', '54', '59', '60', '63', '73',
       '74', '76', '79', '80', '85', '89', '92', '113', '114', '115', '117',
       '119', '121', '122', '123', '125', '126', '130', '131', '133', '138',
       '145', '146', '151', '152', '155', '156', '159', '163', '164', '172',
       '179', '186', '190', '192', '199', '202', '205', '208', '210', '214',
       '216', '217', '228', '229', '233', '234', '236', '238', '241', '244',
       '245', '247', '251', '252', '254', '256', '262', '265', '268', '270',
       '277', '278', '289', '297', '299'],
      dtype='object')",False,1000,True,2,7821773c50,1.0,1.0
./expes/v3_2021-02-05_di_300-prng-1-w1-p2,daily_issda-300,300,first-300,119,39,rng,num-start-51,51,536,classic,1001.7406642436981,False,,False,0,,,0,"Index(['3', '4', '5', '10', '30', '34', '40', '41', '45', '46',
       ...
       '281', '283', '285', '286', '287', '291', '293', '294', '295', '297'],
      dtype='object', length=119)",True,1000,True,2,cbf6949477,0.0,0.0
./expes/v3_2021-02-05_di_300-prng-1-w1-p2,daily_issda-300,300,first-300,133,44,rng,num-start-201,201,536,classic,9.827343702316284,True,,True,1.0,1.0,1.0,1,"Index(['2', '3', '8', '13', '17', '18', '19', '23', '24', '26',
       ...
       '278', '279', '282', '287', '291', '293', '295', '296', '299', '300'],
      dtype='object', length=133)",False,1000,True,2,6945ac8907,1.0,1.0
./expes/v3_2021-02-05_di_300-prng-1-w1-p2,daily_issda-300,300,first-300,63,21,rng,num-start-131,131,536,classic,5.585437059402466,True,,True,1.0,1.0,1.0,1,"Index(['1', '3', '8', '9', '16', '19', '22', '27', '31', '33', '35', '36',
       '38', '43', '44', '47', '49', '56', '73', '81', '95', '96', '98', '101',
       '102', '108', '110', '118', '120', '124', '131', '143', '148', '149',
       '151', '156', '162', '168', '193', '198', '203', '204', '206', '209',
       '215', '226', '229', '232', '235', '238', '239', '241', '244', '256',
       '261', '263', '266', '271', '276', '283', '287', '289', '290'],
      dtype='object')",False,1000,True,2,236595c41e,1.0,1.0
./expes/v3_2021-02-05_di_300-prng-1-w1-p2,daily_issda-300,300,first-300,42,14,rng,num-start-161,161,536,classic,6.635270357131958,True,,True,1.0,1.0,1.0,1,"Index(['20', '24', '25', '26', '30', '31', '32', '36', '38', '45', '47', '49',
       '61', '64', '69', '74', '78', '93', '110', '114', '115', '124', '149',
       '158', '166', '188', '203', '204', '215', '218', '223', '260', '275',
       '277', '283', '286', '287', '290', '293', '296', '299', '300'],
      dtype='object')",False,1000,True,2,7b25805037,1.0,1.0
./expes/v3_2021-02-05_di_300-prng-1-w1-p2,daily_issda-300,300,first-300,91,30,rng,num-start-101,101,536,classic,11.1680908203125,True,,True,1.0,1.0,1.0,1,"Index(['4', '10', '41', '45', '46', '48', '52', '59', '61', '63', '65', '67',
       '68', '69', '74', '75', '76', '78', '83', '84', '87', '90', '93', '94',
       '98', '101', '102', '103', '104', '105', '106', '111', '113', '121',
       '122', '123', '128', '130', '133', '136', '139', '140', '145', '152',
       '154', '155', '156', '167', '172', '174', '176', '178', '181', '185',
       '188', '198', '202', '204', '205', '208', '209', '214', '217', '219',
       '223', '224', '230', '235', '241', '245', '246', '251', '252', '253',
       '254', '257', '260', '263', '268', '270', '273', '274', '276', '278',
       '279', '283', '291', '293', '294', '295', '297'],
      dtype='object')",False,1000,True,2,73c2e29763,1.0,1.0
./expes/v3_2021-02-05_di_300-prng-1-w1-p2,daily_issda-300,300,first-300,84,28,rng,num-start-71,71,536,classic,1002.4757239818573,False,,False,0,,,0,"Index(['1', '7', '9', '12', '15', '19', '24', '28', '40', '42', '44', '46',
       '48', '49', '50', '60', '62', '65', '71', '75', '87', '89', '95', '97',
       '99', '100', '101', '102', '103', '108', '115', '126', '129', '134',
       '136', '137', '138', '140', '149', '150', '156', '157', '160', '164',
       '171', '172', '183', '185', '186', '192', '194', '195', '200', '204',
       '210', '212', '217', '218', '219', '221', '226', '228', '229', '232',
       '241', '242', '248', '249', '250', '251', '257', '258', '264', '265',
       '268', '269', '271', '276', '277', '284', '286', '289', '294', '295'],
      dtype='object')",True,1000,True,2,ace566c599,0.0,0.0
./expes/v3_2021-02-05_di_300-prng-1-w1-p2,daily_issda-300,300,first-300,112,37,rng,num-start-71,71,536,classic,1002.3936626911163,False,,False,0,,,0,"Index(['1', '8', '9', '12', '14', '17', '19', '20', '21', '24',
       ...
       '277', '279', '281', '283', '287', '291', '294', '295', '297', '299'],
      dtype='object', length=112)",True,1000,True,2,6e179a6463,0.0,0.0
./expes/v3_2021-02-05_di_300-prng-1-w1-p2,daily_issda-300,300,first-300,28,9,rng,num-start-121,121,536,classic,4.935897588729858,True,,True,1.0,1.0,1.0,1,"Index(['12', '23', '37', '38', '51', '56', '59', '62', '76', '103', '104',
       '134', '138', '149', '160', '167', '168', '178', '199', '202', '211',
       '234', '262', '267', '271', '278', '292', '300'],
      dtype='object')",False,1000,True,2,6b7526255b,1.0,1.0
./expes/v3_2021-02-05_di_300-prng-1-w1-p2,daily_issda-300,300,first-300,70,23,rng,num-start-11,11,536,classic,1000.5814170837402,False,,False,0,,,0,"Index(['3', '8', '17', '18', '19', '23', '34', '37', '39', '42', '50', '58',
       '69', '72', '77', '81', '83', '86', '90', '98', '100', '106', '115',
       '121', '123', '128', '135', '143', '146', '155', '156', '161', '167',
       '168', '179', '182', '185', '186', '188', '192', '193', '196', '197',
       '212', '213', '216', '220', '222', '224', '226', '227', '229', '231',
       '234', '237', '241', '248', '251', '252', '255', '257', '267', '274',
       '275', '282', '291', '293', '296', '299', '300'],
      dtype='object')",True,1000,True,2,9e6ba96cf7,0.0,0.0
./expes/v3_2021-02-05_di_300-prng-1-w1-p2,daily_issda-300,300,first-300,21,7,rng,num-start-251,251,536,classic,9.622475147247314,True,,True,1.0,1.0,1.0,1,"Index(['3', '6', '12', '73', '113', '114', '117', '122', '130', '133', '146',
       '152', '155', '159', '172', '186', '210', '214', '229', '241', '247'],
      dtype='object')",False,1000,True,2,7b33fe1bb2,1.0,1.0
./expes/v3_2021-02-05_di_300-prng-1-w1-p2,daily_issda-300,300,first-300,77,25,rng,num-start-91,91,536,classic,67.67479038238525,True,,True,1.0,1.0,1.0,1,"Index(['1', '3', '6', '8', '9', '16', '19', '22', '27', '31', '33', '35', '36',
       '38', '43', '44', '45', '47', '49', '52', '56', '61', '69', '73', '81',
       '91', '95', '96', '97', '98', '101', '102', '108', '110', '118', '120',
       '124', '127', '131', '139', '143', '148', '149', '151', '156', '160',
       '162', '168', '171', '173', '193', '198', '203', '204', '206', '209',
       '210', '215', '226', '229', '232', '235', '238', '239', '241', '244',
       '250', '256', '261', '263', '266', '271', '276', '283', '287', '289',
       '290'],
      dtype='object')",False,1000,True,2,495acbb5e2,1.0,1.0
./expes/v3_2021-02-05_di_300-prng-1-w1-p2,daily_issda-300,300,first-300,21,7,rng,num-start-41,41,536,classic,3.1110198497772217,True,,True,1.0,1.0,1.0,1,"Index(['1', '12', '19', '42', '49', '75', '99', '102', '134', '140', '164',
       '192', '212', '241', '249', '251', '276', '277', '284', '289', '294'],
      dtype='object')",False,1000,True,2,4f031b1203,1.0,1.0
./expes/v3_2021-02-05_di_300-prng-1-w1-p2,daily_issda-300,300,first-300,84,28,rng,num-start-291,291,536,classic,13.024227619171143,True,,True,1.0,1.0,1.0,1,"Index(['1', '3', '6', '8', '9', '11', '16', '19', '22', '27', '31', '33', '35',
       '36', '38', '43', '44', '45', '47', '49', '52', '56', '60', '61', '68',
       '69', '73', '81', '91', '95', '96', '97', '98', '101', '102', '108',
       '109', '110', '118', '120', '124', '127', '131', '139', '143', '148',
       '149', '151', '156', '160', '162', '168', '171', '173', '193', '197',
       '198', '203', '204', '206', '209', '210', '215', '216', '226', '229',
       '230', '232', '235', '238', '239', '241', '244', '250', '256', '261',
       '263', '266', '271', '276', '283', '287', '289', '290'],
      dtype='object')",False,1000,True,2,cd51c88cea,1.0,1.0
./expes/v3_2021-02-05_di_300-prng-1-w1-p2,daily_issda-300,300,first-300,49,16,rng,num-start-111,111,536,classic,5.857935905456543,True,,True,1.0,1.0,1.0,1,"Index(['1', '8', '21', '32', '33', '38', '48', '49', '51', '52', '72', '76',
       '98', '105', '112', '114', '123', '125', '129', '133', '134', '145',
       '156', '159', '162', '167', '170', '171', '182', '184', '198', '205',
       '208', '216', '223', '227', '242', '245', '249', '253', '259', '262',
       '267', '273', '281', '283', '287', '291', '299'],
      dtype='object')",False,1000,True,2,d76f898b3f,1.0,1.0
./expes/v3_2021-02-05_di_300-prng-1-w1-p2,daily_issda-300,300,first-300,140,46,rng,num-start-271,271,536,classic,13.25172472000122,True,,True,1.0,1.0,1.0,1,"Index(['2', '4', '5', '9', '12', '13', '14', '17', '21', '23',
       ...
       '278', '280', '281', '284', '288', '292', '293', '296', '297', '300'],
      dtype='object', length=140)",False,1000,True,2,f0ed02c114,1.0,1.0
./expes/v3_2021-02-05_di_300-prng-1-w1-p2,daily_issda-300,300,first-300,35,11,rng,num-start-151,151,536,classic,6.654494285583496,True,,True,1.0,1.0,1.0,1,"Index(['9', '12', '23', '37', '38', '51', '56', '59', '62', '76', '103', '104',
       '134', '138', '149', '154', '160', '167', '168', '178', '199', '202',
       '203', '211', '213', '217', '226', '234', '262', '267', '271', '278',
       '292', '297', '300'],
      dtype='object')",False,1000,True,2,9f9f1e0046,1.0,1.0
./expes/v3_2021-02-05_di_300-prng-1-w1-p2,daily_issda-300,300,first-300,105,35,rng,num-start-111,111,536,classic,17.273102045059204,True,,True,1.0,1.0,1.0,1,"Index(['2', '3', '8', '17', '18', '19', '23', '33', '34', '37',
       ...
       '276', '278', '279', '282', '287', '291', '293', '296', '299', '300'],
      dtype='object', length=105)",False,1000,True,2,2040fc409a,1.0,1.0
./expes/v3_2021-02-05_di_300-prng-1-w1-p2,daily_issda-300,300,first-300,105,35,rng,num-start-191,191,536,classic,9.377511024475098,True,,True,1.0,1.0,1.0,1,"Index(['1', '2', '3', '5', '7', '10', '12', '15', '17', '19',
       ...
       '263', '269', '272', '274', '277', '279', '280', '282', '294', '297'],
      dtype='object', length=105)",False,1000,True,2,49a464ebc3,1.0,1.0
./expes/v3_2021-02-05_di_300-prng-1-w1-p2,daily_issda-300,300,first-300,35,11,rng,num-start-61,61,536,classic,48.038933753967285,True,,True,1.0,1.0,1.0,1,"Index(['13', '15', '19', '29', '44', '47', '70', '82', '85', '87', '89', '91',
       '109', '119', '121', '129', '138', '158', '164', '167', '185', '187',
       '191', '195', '202', '217', '221', '228', '239', '258', '261', '270',
       '279', '287', '298'],
      dtype='object')",False,1000,True,2,f5d30faca3,1.0,1.0
./expes/v3_2021-02-05_di_300-prng-1-w1-p2,daily_issda-300,300,first-300,42,14,rng,num-start-281,281,536,classic,11.552910566329956,True,,True,1.0,1.0,1.0,1,"Index(['8', '16', '37', '44', '61', '65', '67', '70', '72', '76', '91', '92',
       '96', '104', '110', '116', '119', '120', '132', '133', '135', '142',
       '149', '151', '161', '178', '183', '187', '220', '221', '224', '226',
       '228', '230', '231', '250', '268', '273', '275', '282', '284', '289'],
      dtype='object')",False,1000,True,2,15d02308ac,1.0,1.0
./expes/v3_2021-02-05_di_300-prng-1-w1-p2,daily_issda-300,300,first-300,140,46,rng,num-start-81,81,536,classic,1002.8033127784729,False,,False,0,,,0,"Index(['1', '3', '7', '12', '14', '20', '21', '24', '25', '26',
       ...
       '290', '291', '293', '294', '295', '296', '297', '298', '299', '300'],
      dtype='object', length=140)",True,1000,True,2,42d485e81c,0.0,0.0
./expes/v3_2021-02-05_di_300-prng-1-w1-p2,daily_issda-300,300,first-300,7,2,rng,num-start-251,251,536,classic,10.183419466018677,True,,True,1.0,1.0,1.0,1,"Index(['67', '76', '96', '116', '119', '133', '149'], dtype='object')",False,1000,True,2,cf1b07f3d9,1.0,1.0
./expes/v3_2021-02-05_di_300-prng-1-w1-p2,daily_issda-300,300,first-300,105,35,rng,num-start-161,161,536,classic,7.862581491470337,True,,True,1.0,1.0,1.0,1,"Index(['2', '4', '5', '9', '12', '14', '21', '23', '24', '35',
       ...
       '267', '271', '278', '280', '281', '292', '293', '296', '297', '300'],
      dtype='object', length=105)",False,1000,True,2,d8ff6576da,1.0,1.0
./expes/v3_2021-02-05_di_300-prng-1-w1-p2,daily_issda-300,300,first-300,21,7,rng,num-start-41,41,536,classic,12.368577480316162,True,,True,1.0,1.0,1.0,1,"Index(['7', '15', '27', '53', '58', '81', '94', '111', '127', '128', '131',
       '144', '184', '191', '195', '209', '239', '241', '272', '279', '294'],
      dtype='object')",False,1000,True,2,63b1b9112b,1.0,1.0
./expes/v3_2021-02-05_di_300-prng-1-w1-p2,daily_issda-300,300,first-300,56,18,rng,num-start-41,41,536,classic,1001.6614422798157,False,,False,0,,,0,"Index(['3', '10', '14', '26', '27', '30', '32', '36', '42', '57', '60', '64',
       '71', '72', '73', '78', '90', '101', '108', '110', '123', '128', '130',
       '137', '143', '149', '156', '159', '163', '170', '173', '182', '185',
       '188', '191', '192', '197', '206', '208', '210', '213', '215', '222',
       '243', '245', '257', '260', '268', '270', '273', '277', '283', '286',
       '287', '293', '297'],
      dtype='object')",True,1000,True,2,f87c9eccbe,0.0,0.0
./expes/v3_2021-02-05_di_300-prng-1-w1-p2,daily_issda-300,300,first-300,7,2,rng,num-start-61,61,536,classic,2.501765251159668,True,,True,1.0,1.0,1.0,1,"Index(['6', '9', '19', '81', '107', '123', '267'], dtype='object')",False,1000,True,2,61de645044,1.0,1.0
./expes/v3_2021-02-05_di_300-prng-1-w1-p2,daily_issda-300,300,first-300,56,18,rng,num-start-111,111,536,classic,4.7842371463775635,True,,True,1.0,1.0,1.0,1,"Index(['3', '4', '6', '7', '8', '11', '12', '15', '23', '34', '43', '45', '73',
       '79', '80', '85', '89', '113', '114', '115', '117', '121', '122', '130',
       '133', '145', '146', '151', '152', '155', '156', '159', '163', '172',
       '179', '186', '192', '210', '214', '216', '217', '228', '229', '233',
       '234', '236', '238', '241', '247', '251', '252', '254', '265', '268',
       '289', '297'],
      dtype='object')",False,1000,True,2,5f581dd7d9,1.0,1.0
./expes/v3_2021-02-05_di_300-prng-1-w1-p2,daily_issda-300,300,first-300,98,32,rng,num-start-281,281,536,classic,12.543787002563477,True,,True,1.0,1.0,1.0,1,"Index(['3', '4', '5', '10', '41', '45', '46', '48', '52', '59', '61', '63',
       '65', '67', '68', '69', '74', '75', '76', '78', '83', '84', '87', '90',
       '93', '94', '98', '101', '102', '103', '104', '105', '106', '111',
       '113', '121', '122', '123', '128', '130', '132', '133', '136', '139',
       '140', '145', '152', '154', '155', '156', '167', '172', '174', '176',
       '178', '181', '185', '188', '198', '202', '204', '205', '208', '209',
       '214', '217', '219', '223', '224', '230', '235', '241', '245', '246',
       '251', '252', '253', '254', '257', '260', '263', '264', '268', '270',
       '273', '274', '276', '278', '279', '281', '283', '285', '287', '291',
       '293', '294', '295', '297'],
      dtype='object')",False,1000,True,2,56eef71f2f,1.0,1.0
./expes/v3_2021-02-05_di_300-prng-1-w1-p2,daily_issda-300,300,first-300,70,23,rng,num-start-101,101,536,classic,8.273812532424927,True,,True,1.0,1.0,1.0,1,"Index(['11', '16', '20', '23', '30', '33', '37', '44', '45', '46', '50', '56',
       '59', '65', '70', '71', '73', '76', '77', '82', '99', '100', '102',
       '107', '108', '117', '120', '121', '127', '133', '137', '146', '147',
       '159', '161', '174', '183', '190', '193', '194', '195', '198', '200',
       '206', '207', '209', '219', '228', '233', '234', '236', '243', '249',
       '250', '251', '254', '255', '258', '260', '262', '265', '267', '271',
       '273', '277', '286', '294', '297', '298', '300'],
      dtype='object')",False,1000,True,2,83e9f67477,1.0,1.0
./expes/v3_2021-02-05_di_300-prng-1-w1-p2,daily_issda-300,300,first-300,112,37,rng,num-start-1,1,536,classic,2.960899591445923,False,,False,0.33055206691105776,0.33055206691105776,0.33055206691105776,2,"Index(['1', '4', '7', '9', '10', '12', '15', '16', '19', '24',
       ...
       '271', '276', '277', '284', '286', '287', '289', '292', '294', '295'],
      dtype='object', length=112)",False,1000,True,2,3a8b0fc47f,1.0,1.0
./expes/v3_2021-02-05_di_300-prng-1-w1-p2,daily_issda-300,300,first-300,140,46,rng,num-start-271,271,536,classic,12.096068382263184,True,,True,1.0,1.0,1.0,1,"Index(['4', '5', '10', '11', '14', '17', '19', '21', '22', '23',
       ...
       '274', '275', '280', '281', '282', '286', '290', '293', '294', '299'],
      dtype='object', length=140)",False,1000,True,2,1cbbf4409a,1.0,1.0
./expes/v3_2021-02-05_di_300-prng-1-w1-p2,daily_issda-300,300,first-300,77,25,rng,num-start-131,131,536,classic,6.17048192024231,True,,True,1.0,1.0,1.0,1,"Index(['2', '5', '12', '14', '15', '16', '18', '23', '33', '45', '49', '52',
       '53', '56', '61', '62', '69', '84', '87', '88', '89', '96', '98', '108',
       '111', '113', '114', '118', '119', '120', '125', '131', '137', '146',
       '149', '152', '156', '158', '163', '171', '177', '188', '190', '192',
       '195', '196', '200', '202', '207', '213', '214', '217', '222', '225',
       '229', '231', '236', '241', '242', '246', '250', '251', '254', '256',
       '257', '258', '259', '260', '261', '267', '271', '278', '281', '284',
       '285', '292', '297'],
      dtype='object')",False,1000,True,2,f1e9b56c47,1.0,1.0
./expes/v3_2021-02-05_di_300-prng-1-w1-p2,daily_issda-300,300,first-300,77,25,rng,num-start-241,241,536,classic,11.252087116241455,True,,True,1.0,1.0,1.0,1,"Index(['3', '8', '17', '18', '19', '23', '34', '37', '39', '42', '50', '58',
       '62', '69', '72', '74', '77', '81', '83', '86', '90', '92', '98', '100',
       '106', '115', '121', '123', '126', '128', '135', '137', '141', '143',
       '146', '155', '156', '161', '167', '168', '179', '182', '185', '186',
       '188', '192', '193', '196', '197', '212', '213', '216', '220', '222',
       '224', '226', '227', '229', '231', '234', '237', '241', '248', '251',
       '252', '255', '257', '267', '268', '274', '275', '282', '291', '293',
       '296', '299', '300'],
      dtype='object')",False,1000,True,2,0c77dc3531,1.0,1.0
./expes/v3_2021-02-05_di_300-prng-1-w1-p2,daily_issda-300,300,first-300,91,30,rng,num-start-221,221,536,classic,9.90091609954834,True,,True,1.0,1.0,1.0,1,"Index(['6', '10', '11', '15', '22', '35', '36', '38', '43', '46', '48', '49',
       '53', '55', '58', '59', '61', '63', '74', '77', '83', '85', '87', '93',
       '97', '100', '105', '112', '115', '121', '127', '131', '132', '134',
       '135', '137', '139', '141', '143', '144', '145', '150', '155', '156',
       '159', '162', '173', '178', '183', '184', '185', '187', '189', '196',
       '198', '199', '202', '204', '207', '208', '211', '214', '217', '218',
       '224', '225', '226', '231', '232', '234', '236', '239', '241', '242',
       '243', '246', '249', '250', '251', '257', '264', '265', '270', '272',
       '274', '283', '287', '292', '293', '297', '299'],
      dtype='object')",False,1000,True,2,f8388ab2b5,1.0,1.0
./expes/v3_2021-02-05_di_300-prng-1-w1-p2,daily_issda-300,300,first-300,14,4,rng,num-start-281,281,536,classic,10.568952322006226,True,,True,1.0,1.0,1.0,1,"Index(['4', '21', '42', '71', '87', '96', '137', '172', '174', '192', '195',
       '238', '258', '284'],
      dtype='object')",False,1000,True,2,c6641e5dec,1.0,1.0
./expes/v3_2021-02-05_di_300-prng-1-w1-p2,daily_issda-300,300,first-300,84,28,rng,num-start-121,121,536,classic,5.380629539489746,True,,True,1.0,1.0,1.0,1,"Index(['1', '7', '9', '12', '15', '19', '24', '28', '40', '42', '44', '46',
       '48', '49', '50', '60', '62', '65', '71', '75', '87', '89', '95', '97',
       '99', '100', '101', '102', '103', '108', '115', '126', '129', '134',
       '136', '137', '138', '140', '149', '150', '156', '157', '160', '164',
       '171', '172', '183', '185', '186', '192', '194', '195', '200', '204',
       '210', '212', '217', '218', '219', '221', '226', '228', '229', '232',
       '241', '242', '248', '249', '250', '251', '257', '258', '264', '265',
       '268', '269', '271', '276', '277', '284', '286', '289', '294', '295'],
      dtype='object')",False,1000,True,2,d04224f4f7,1.0,1.0
./expes/v3_2021-02-05_di_300-prng-1-w1-p2,daily_issda-300,300,first-300,98,32,rng,num-start-231,231,536,classic,10.586117506027222,True,,True,1.0,1.0,1.0,1,"Index(['3', '4', '5', '6', '7', '8', '11', '12', '15', '16', '17', '20', '23',
       '24', '25', '31', '34', '37', '41', '43', '45', '48', '52', '54', '59',
       '60', '63', '73', '74', '76', '79', '80', '85', '89', '92', '102',
       '113', '114', '115', '117', '119', '121', '122', '123', '125', '126',
       '130', '131', '133', '134', '138', '145', '146', '151', '152', '155',
       '156', '159', '163', '164', '172', '179', '186', '190', '192', '199',
       '202', '205', '208', '209', '210', '214', '216', '217', '228', '229',
       '233', '234', '236', '238', '239', '241', '244', '245', '247', '251',
       '252', '254', '256', '262', '265', '268', '270', '277', '278', '289',
       '297', '299'],
      dtype='object')",False,1000,True,2,2e3bbabdf2,1.0,1.0
./expes/v3_2021-02-05_di_300-prng-1-w1-p2,daily_issda-300,300,first-300,119,39,rng,num-start-151,151,536,classic,6.949894189834595,True,,True,1.0,1.0,1.0,1,"Index(['1', '2', '3', '4', '5', '7', '9', '10', '13', '14',
       ...
       '276', '277', '284', '285', '287', '290', '294', '295', '297', '300'],
      dtype='object', length=119)",False,1000,True,2,876e9dc224,1.0,1.0
./expes/v3_2021-02-05_di_300-prng-1-w1-p2,daily_issda-300,300,first-300,7,2,rng,num-start-121,121,536,classic,4.766685485839844,True,,True,1.0,1.0,1.0,1,"Index(['29', '44', '47', '87', '129', '158', '185'], dtype='object')",False,1000,True,2,fa70619711,1.0,1.0
./expes/v3_2021-02-05_di_300-prng-1-w1-p2,daily_issda-300,300,first-300,21,7,rng,num-start-251,251,536,classic,9.691997766494751,True,,True,1.0,1.0,1.0,1,"Index(['8', '22', '33', '47', '49', '73', '81', '95', '96', '98', '156', '203',
       '229', '232', '239', '244', '261', '263', '271', '276', '287'],
      dtype='object')",False,1000,True,2,c7af0d0f04,1.0,1.0
./expes/v3_2021-02-05_di_300-prng-1-w1-p2,daily_issda-300,300,first-300,112,37,rng,num-start-61,61,536,classic,1002.1749804019928,False,,False,0,,,0,"Index(['2', '4', '5', '9', '12', '13', '14', '21', '23', '24',
       ...
       '269', '271', '278', '280', '281', '292', '293', '296', '297', '300'],
      dtype='object', length=112)",True,1000,True,2,6efb0e9562,0.0,0.0
./expes/v3_2021-02-05_di_300-prng-1-w1-p2,daily_issda-300,300,first-300,84,28,rng,num-start-221,221,536,classic,9.310380935668945,True,,True,1.0,1.0,1.0,1,"Index(['5', '13', '15', '19', '26', '29', '31', '39', '44', '47', '55', '70',
       '82', '83', '85', '86', '87', '89', '91', '94', '98', '107', '109',
       '114', '117', '119', '121', '128', '129', '137', '138', '140', '143',
       '156', '158', '159', '160', '164', '167', '175', '180', '182', '185',
       '186', '187', '188', '191', '195', '202', '205', '209', '213', '217',
       '221', '228', '229', '233', '234', '237', '239', '246', '250', '251',
       '256', '257', '258', '259', '260', '261', '262', '263', '264', '266',
       '268', '269', '270', '272', '279', '286', '287', '288', '291', '295',
       '298'],
      dtype='object')",False,1000,True,2,cf12d6c955,1.0,1.0
./expes/v3_2021-02-05_di_300-prng-1-w1-p2,daily_issda-300,300,first-300,21,7,rng,num-start-121,121,536,classic,4.7766382694244385,True,,True,1.0,1.0,1.0,1,"Index(['15', '19', '29', '44', '47', '82', '87', '109', '129', '138', '158',
       '185', '187', '191', '202', '221', '228', '258', '261', '279', '298'],
      dtype='object')",False,1000,True,2,e73504e8dc,1.0,1.0
./expes/v3_2021-02-05_di_300-prng-1-w1-p2,daily_issda-300,300,first-300,77,25,rng,num-start-241,241,536,classic,10.010066270828247,True,,True,1.0,1.0,1.0,1,"Index(['2', '8', '16', '20', '22', '23', '37', '38', '44', '61', '65', '67',
       '68', '70', '71', '72', '73', '76', '82', '91', '92', '96', '100',
       '104', '109', '110', '116', '119', '120', '121', '122', '129', '130',
       '132', '133', '135', '142', '144', '149', '151', '161', '178', '180',
       '183', '184', '187', '188', '191', '192', '200', '203', '212', '218',
       '220', '221', '224', '226', '228', '230', '231', '236', '238', '250',
       '252', '255', '267', '268', '273', '275', '282', '284', '289', '290',
       '292', '296', '298', '299'],
      dtype='object')",False,1000,True,2,d4bae3653a,1.0,1.0
./expes/v3_2021-02-05_di_300-prng-1-w1-p2,daily_issda-300,300,first-300,56,18,rng,num-start-111,111,536,classic,4.675783157348633,True,,True,1.0,1.0,1.0,1,"Index(['11', '16', '20', '23', '30', '33', '44', '45', '46', '50', '56', '59',
       '65', '71', '73', '76', '99', '100', '107', '108', '117', '120', '121',
       '127', '133', '137', '147', '174', '190', '193', '194', '195', '198',
       '200', '206', '207', '209', '228', '233', '234', '236', '243', '249',
       '250', '251', '254', '255', '260', '265', '267', '277', '286', '294',
       '297', '298', '300'],
      dtype='object')",False,1000,True,2,360599451b,1.0,1.0
./expes/v3_2021-02-05_di_300-prng-1-w1-p2,daily_issda-300,300,first-300,21,7,rng,num-start-61,61,536,classic,2.7708754539489746,True,,True,1.0,1.0,1.0,1,"Index(['15', '19', '29', '44', '47', '82', '87', '109', '129', '138', '158',
       '185', '187', '191', '202', '221', '228', '258', '261', '279', '298'],
      dtype='object')",False,1000,True,2,eed0b686a4,1.0,1.0
./expes/v3_2021-02-05_di_300-prng-1-w1-p2,daily_issda-300,300,first-300,112,37,rng,num-start-21,21,536,classic,1000.7448256015778,False,,False,0,,,0,"Index(['1', '8', '9', '12', '14', '17', '19', '20', '21', '24',
       ...
       '277', '279', '281', '283', '287', '291', '294', '295', '297', '299'],
      dtype='object', length=112)",True,1000,True,2,3d3f3ac830,0.0,0.0
./expes/v3_2021-02-05_di_300-prng-1-w1-p2,daily_issda-300,300,first-300,7,2,rng,num-start-81,81,536,classic,3.1234493255615234,True,,True,1.0,1.0,1.0,1,"Index(['34', '67', '122', '190', '243', '279', '298'], dtype='object')",False,1000,True,2,c5a9b4b3be,1.0,1.0
./expes/v3_2021-02-05_di_300-prng-1-w1-p2,daily_issda-300,300,first-300,77,25,rng,num-start-21,21,536,classic,1000.7843842506409,False,,False,0,,,0,"Index(['1', '2', '3', '5', '7', '10', '12', '15', '24', '27', '30', '34', '37',
       '53', '58', '61', '65', '68', '72', '75', '81', '82', '85', '86', '91',
       '93', '94', '95', '101', '102', '105', '108', '111', '126', '127',
       '128', '131', '132', '136', '144', '149', '153', '155', '157', '159',
       '161', '162', '170', '174', '177', '182', '184', '185', '188', '191',
       '193', '195', '197', '200', '207', '209', '213', '215', '228', '232',
       '237', '239', '241', '242', '247', '263', '272', '277', '279', '282',
       '294', '297'],
      dtype='object')",True,1000,True,2,5c0e3c2780,0.0,0.0
./expes/v3_2021-02-05_di_300-prng-1-w1-p2,daily_issda-300,300,first-300,49,16,rng,num-start-291,291,536,classic,12.74868369102478,True,,True,1.0,1.0,1.0,1,"Index(['8', '16', '37', '44', '61', '65', '67', '70', '72', '76', '91', '92',
       '96', '104', '110', '116', '119', '120', '130', '132', '133', '135',
       '142', '144', '149', '151', '161', '178', '183', '187', '191', '203',
       '220', '221', '224', '226', '228', '230', '231', '236', '250', '252',
       '268', '273', '275', '282', '284', '289', '296'],
      dtype='object')",False,1000,True,2,65cd9afe58,1.0,1.0
./expes/v3_2021-02-05_di_300-prng-1-w1-p2,daily_issda-300,300,first-300,21,7,rng,num-start-131,131,536,classic,5.335319519042969,True,,True,1.0,1.0,1.0,1,"Index(['11', '31', '35', '47', '53', '55', '80', '89', '114', '121', '135',
       '142', '149', '156', '185', '203', '206', '246', '267', '275', '282'],
      dtype='object')",False,1000,True,2,8e70ff78ba,1.0,1.0
./expes/v3_2021-02-05_di_300-prng-1-w1-p2,daily_issda-300,300,first-300,14,4,rng,num-start-61,61,536,classic,2.5137722492218018,True,,True,1.0,1.0,1.0,1,"Index(['3', '6', '114', '117', '122', '133', '146', '152', '186', '210', '214',
       '229', '241', '247'],
      dtype='object')",False,1000,True,2,a5e7b898cf,1.0,1.0
./expes/v3_2021-02-05_di_300-prng-1-w1-p2,daily_issda-300,300,first-300,105,35,rng,num-start-51,51,536,classic,1001.6828434467316,False,,False,0,,,0,"Index(['1', '6', '10', '11', '13', '15', '18', '22', '35', '36',
       ...
       '268', '270', '272', '274', '283', '287', '292', '293', '297', '299'],
      dtype='object', length=105)",True,1000,True,2,172d129cd6,0.0,0.0
./expes/v3_2021-02-05_di_300-prng-1-w1-p2,daily_issda-300,300,first-300,126,42,rng,num-start-211,211,536,classic,9.379030227661133,True,,True,1.0,1.0,1.0,1,"Index(['3', '4', '5', '6', '10', '24', '30', '34', '40', '41',
       ...
       '283', '285', '286', '287', '290', '291', '293', '294', '295', '297'],
      dtype='object', length=126)",False,1000,True,2,c9200f0aa9,1.0,1.0
./expes/v3_2021-02-05_di_300-prng-1-w1-p2,daily_issda-300,300,first-300,126,42,rng,num-start-131,131,536,classic,10.167730569839478,True,,True,1.0,1.0,1.0,1,"Index(['1', '3', '5', '11', '13', '15', '16', '17', '19', '21',
       ...
       '272', '279', '283', '286', '287', '288', '291', '295', '298', '300'],
      dtype='object', length=126)",False,1000,True,2,e29844fc99,1.0,1.0
./expes/v3_2021-02-05_di_300-prng-1-w1-p2,daily_issda-300,300,first-300,42,14,rng,num-start-261,261,536,classic,10.493067979812622,True,,True,1.0,1.0,1.0,1,"Index(['9', '12', '23', '37', '38', '51', '56', '59', '62', '76', '82', '103',
       '104', '120', '134', '138', '149', '154', '160', '167', '168', '178',
       '199', '202', '203', '209', '211', '213', '217', '226', '234', '258',
       '262', '267', '271', '278', '280', '292', '293', '296', '297', '300'],
      dtype='object')",False,1000,True,2,8ed3dad574,1.0,1.0
./expes/v3_2021-02-05_di_300-prng-1-w1-p2,daily_issda-300,300,first-300,42,14,rng,num-start-141,141,536,classic,5.9043262004852295,True,,True,1.0,1.0,1.0,1,"Index(['13', '15', '19', '29', '44', '47', '70', '82', '85', '87', '89', '91',
       '94', '109', '119', '121', '129', '138', '158', '164', '167', '182',
       '185', '187', '191', '195', '202', '213', '217', '221', '228', '229',
       '239', '258', '261', '262', '264', '269', '270', '279', '287', '298'],
      dtype='object')",False,1000,True,2,a105e10e2c,1.0,1.0
./expes/v3_2021-02-05_di_300-prng-1-w1-p2,daily_issda-300,300,first-300,35,11,rng,num-start-101,101,536,classic,4.222370147705078,True,,True,1.0,1.0,1.0,1,"Index(['2', '5', '12', '14', '15', '16', '33', '49', '53', '61', '69', '108',
       '111', '114', '118', '120', '131', '137', '163', '177', '195', '196',
       '200', '217', '222', '225', '229', '231', '242', '250', '254', '271',
       '278', '284', '292'],
      dtype='object')",False,1000,True,2,598e4a39c0,1.0,1.0
./expes/v3_2021-02-05_di_300-prng-1-w1-p2,daily_issda-300,300,first-300,35,11,rng,num-start-121,121,536,classic,4.9858057498931885,True,,True,1.0,1.0,1.0,1,"Index(['7', '8', '16', '22', '33', '34', '67', '69', '78', '82', '99', '119',
       '120', '122', '133', '138', '155', '188', '190', '199', '200', '203',
       '204', '219', '228', '241', '243', '244', '268', '277', '279', '282',
       '283', '296', '298'],
      dtype='object')",False,1000,True,2,257f67c9c7,1.0,1.0
./expes/v3_2021-02-05_di_300-prng-1-w1-p2,daily_issda-300,300,first-300,49,16,rng,num-start-231,231,536,classic,9.313441038131714,True,,True,1.0,1.0,1.0,1,"Index(['6', '9', '10', '19', '29', '34', '41', '60', '72', '76', '81', '89',
       '101', '106', '107', '115', '118', '119', '123', '135', '144', '147',
       '157', '161', '162', '174', '177', '182', '183', '185', '189', '201',
       '208', '215', '216', '225', '231', '234', '237', '239', '251', '252',
       '262', '267', '272', '274', '290', '292', '296'],
      dtype='object')",False,1000,True,2,82928b16fb,1.0,1.0
./expes/v3_2021-02-05_di_300-prng-1-w1-p2,daily_issda-300,300,first-300,98,32,rng,num-start-241,241,536,classic,10.46230149269104,True,,True,1.0,1.0,1.0,1,"Index(['1', '2', '3', '5', '7', '10', '12', '15', '19', '24', '27', '30', '34',
       '37', '41', '47', '48', '53', '56', '58', '61', '65', '68', '72', '75',
       '76', '77', '81', '82', '83', '85', '86', '91', '93', '94', '95', '101',
       '102', '105', '107', '108', '111', '126', '127', '128', '129', '131',
       '132', '136', '142', '144', '149', '152', '153', '155', '157', '159',
       '160', '161', '162', '163', '170', '174', '175', '177', '182', '184',
       '185', '186', '188', '189', '191', '193', '195', '197', '200', '207',
       '209', '213', '215', '222', '228', '232', '237', '239', '241', '242',
       '247', '248', '263', '269', '272', '277', '279', '280', '282', '294',
       '297'],
      dtype='object')",False,1000,True,2,90b48e026a,1.0,1.0
./expes/v3_2021-02-05_di_300-prng-1-w1-p2,daily_issda-300,300,first-300,133,44,rng,num-start-141,141,536,classic,8.84851598739624,True,,True,1.0,1.0,1.0,1,"Index(['3', '5', '6', '10', '11', '14', '15', '26', '27', '28',
       ...
       '284', '285', '286', '287', '289', '291', '293', '295', '296', '297'],
      dtype='object', length=133)",False,1000,True,2,554d5ad6aa,1.0,1.0
./expes/v3_2021-02-05_di_300-prng-1-w1-p2,daily_issda-300,300,first-300,98,32,rng,num-start-241,241,536,classic,10.43078064918518,True,,True,1.0,1.0,1.0,1,"Index(['2', '4', '5', '9', '12', '14', '23', '24', '35', '37', '38', '39',
       '40', '44', '47', '51', '52', '54', '56', '58', '59', '62', '65', '66',
       '69', '71', '76', '79', '82', '88', '90', '94', '99', '103', '104',
       '107', '108', '120', '126', '134', '135', '138', '141', '146', '147',
       '149', '151', '154', '155', '158', '160', '167', '168', '178', '189',
       '193', '199', '200', '202', '203', '207', '209', '211', '213', '216',
       '217', '220', '221', '224', '225', '226', '231', '232', '233', '234',
       '235', '237', '238', '239', '240', '241', '244', '246', '253', '257',
       '258', '259', '262', '267', '271', '278', '280', '281', '292', '293',
       '296', '297', '300'],
      dtype='object')",False,1000,True,2,f28b8f729b,1.0,1.0
./expes/v3_2021-02-05_di_300-prng-1-w1-p2,daily_issda-300,300,first-300,77,25,rng,num-start-171,171,536,classic,7.314225673675537,True,,True,1.0,1.0,1.0,1,"Index(['1', '7', '9', '12', '15', '19', '24', '28', '40', '42', '46', '48',
       '49', '50', '60', '62', '65', '71', '75', '87', '95', '97', '99', '100',
       '101', '102', '103', '108', '115', '126', '129', '134', '136', '138',
       '140', '149', '150', '156', '157', '160', '164', '171', '172', '183',
       '185', '186', '192', '194', '195', '200', '204', '210', '212', '217',
       '218', '221', '226', '228', '229', '241', '248', '249', '250', '251',
       '257', '258', '264', '268', '269', '271', '276', '277', '284', '286',
       '289', '294', '295'],
      dtype='object')",False,1000,True,2,93184bc7a0,1.0,1.0
./expes/v3_2021-02-05_di_300-prng-1-w1-p2,daily_issda-300,300,first-300,7,2,rng,num-start-191,191,536,classic,7.40001368522644,True,,True,1.0,1.0,1.0,1,"Index(['23', '62', '103', '178', '202', '262', '267'], dtype='object')",False,1000,True,2,101aabfe29,1.0,1.0
./expes/v3_2021-02-05_di_300-prng-1-w1-p2,daily_issda-300,300,first-300,7,2,rng,num-start-121,121,536,classic,4.661757469177246,True,,True,1.0,1.0,1.0,1,"Index(['8', '17', '106', '220', '248', '293', '296'], dtype='object')",False,1000,True,2,ad68eab826,1.0,1.0
./expes/v3_2021-02-05_di_300-prng-1-w1-p2,daily_issda-300,300,first-300,84,28,rng,num-start-11,11,536,classic,1000.3776299953461,False,,False,0,,,0,"Index(['4', '11', '14', '23', '24', '31', '32', '35', '42', '45', '46', '47',
       '52', '53', '55', '63', '75', '80', '83', '85', '89', '91', '92', '95',
       '100', '101', '102', '104', '110', '114', '118', '120', '121', '122',
       '127', '128', '133', '134', '135', '140', '142', '143', '144', '148',
       '149', '150', '154', '156', '157', '159', '160', '165', '166', '170',
       '173', '176', '183', '185', '191', '199', '203', '206', '212', '217',
       '221', '224', '226', '232', '236', '237', '242', '243', '246', '260',
       '261', '266', '267', '274', '275', '281', '282', '286', '294', '299'],
      dtype='object')",True,1000,True,2,18fa96a841,0.0,0.0
./expes/v3_2021-02-05_di_300-prng-1-w1-p2,daily_issda-300,300,first-300,119,39,rng,num-start-221,221,536,classic,10.167795658111572,True,,True,1.0,1.0,1.0,1,"Index(['4', '5', '10', '11', '14', '19', '21', '22', '23', '24',
       ...
       '271', '274', '275', '280', '281', '282', '286', '293', '294', '299'],
      dtype='object', length=119)",False,1000,True,2,495b1c9965,1.0,1.0
./expes/v3_2021-02-05_di_300-prng-1-w1-p2,daily_issda-300,300,first-300,70,23,rng,num-start-251,251,536,classic,10.501200675964355,True,,True,1.0,1.0,1.0,1,"Index(['11', '16', '20', '23', '30', '33', '37', '44', '45', '46', '50', '56',
       '59', '65', '70', '71', '73', '76', '77', '82', '99', '100', '102',
       '107', '108', '117', '120', '121', '127', '133', '137', '146', '147',
       '159', '161', '174', '183', '190', '193', '194', '195', '198', '200',
       '206', '207', '209', '219', '228', '233', '234', '236', '243', '249',
       '250', '251', '254', '255', '258', '260', '262', '265', '267', '271',
       '273', '277', '286', '294', '297', '298', '300'],
      dtype='object')",False,1000,True,2,ddacc2faf0,1.0,1.0
./expes/v3_2021-02-05_di_300-prng-1-w1-p2,daily_issda-300,300,first-300,91,30,rng,num-start-121,121,536,classic,11.138056755065918,True,,True,1.0,1.0,1.0,1,"Index(['3', '4', '5', '6', '7', '8', '11', '12', '15', '17', '23', '24', '25',
       '34', '37', '41', '43', '45', '48', '52', '54', '59', '60', '63', '73',
       '74', '76', '79', '80', '85', '89', '92', '113', '114', '115', '117',
       '119', '121', '122', '123', '125', '126', '130', '131', '133', '138',
       '145', '146', '151', '152', '155', '156', '159', '163', '164', '172',
       '179', '186', '190', '192', '199', '202', '205', '208', '210', '214',
       '216', '217', '228', '229', '233', '234', '236', '238', '241', '244',
       '245', '247', '251', '252', '254', '256', '262', '265', '268', '270',
       '277', '278', '289', '297', '299'],
      dtype='object')",False,1000,True,2,84c31b3013,1.0,1.0
./expes/v3_2021-02-05_di_300-prng-1-w1-p2,daily_issda-300,300,first-300,14,4,rng,num-start-121,121,536,classic,5.310019016265869,True,,True,1.0,1.0,1.0,1,"Index(['21', '72', '112', '133', '156', '184', '198', '208', '216', '245',
       '249', '259', '262', '299'],
      dtype='object')",False,1000,True,2,46fc215ff1,1.0,1.0
./expes/v3_2021-02-05_di_300-prng-1-w1-p2,daily_issda-300,300,first-300,126,42,rng,num-start-31,31,536,classic,1001.21173620224,False,,False,0,,,0,"Index(['2', '4', '5', '9', '12', '13', '14', '21', '23', '24',
       ...
       '271', '278', '280', '281', '288', '292', '293', '296', '297', '300'],
      dtype='object', length=126)",True,1000,True,2,9ff1e2bb6f,0.0,0.0
./expes/v3_2021-02-05_di_300-prng-1-w1-p2,daily_issda-300,300,first-300,112,37,rng,num-start-111,111,536,classic,1003.7347807884216,False,,False,0,,,0,"Index(['1', '8', '9', '12', '14', '17', '19', '20', '21', '24',
       ...
       '277', '279', '281', '283', '287', '291', '294', '295', '297', '299'],
      dtype='object', length=112)",True,1000,True,2,d540efa559,0.0,0.0
./expes/v3_2021-02-05_di_300-prng-1-w1-p2,daily_issda-300,300,first-300,21,7,rng,num-start-71,71,536,classic,2.9403233528137207,True,,True,1.0,1.0,1.0,1,"Index(['4', '21', '27', '42', '57', '68', '71', '81', '87', '96', '122', '137',
       '172', '174', '192', '195', '217', '232', '238', '258', '284'],
      dtype='object')",False,1000,True,2,3c9afdd397,1.0,1.0
./expes/v3_2021-02-05_di_300-prng-1-w1-p2,daily_issda-300,300,first-300,112,37,rng,num-start-261,261,536,classic,11.287508249282837,True,,True,1.0,1.0,1.0,1,"Index(['1', '8', '9', '12', '14', '17', '19', '20', '21', '24',
       ...
       '277', '279', '281', '283', '287', '291', '294', '295', '297', '299'],
      dtype='object', length=112)",False,1000,True,2,52b79ce96b,1.0,1.0
./expes/v3_2021-02-05_di_300-prng-1-w1-p2,daily_issda-300,300,first-300,140,46,rng,num-start-101,101,536,classic,1003.6653492450714,False,,False,0,,,0,"Index(['1', '2', '3', '5', '7', '8', '9', '12', '13', '14',
       ...
       '281', '282', '283', '284', '285', '288', '292', '296', '297', '300'],
      dtype='object', length=140)",True,1000,True,2,db50dafcd4,0.0,0.0
./expes/v3_2021-02-05_di_300-prng-1-w1-p2,daily_issda-300,300,first-300,49,16,rng,num-start-91,91,536,classic,7.75069260597229,True,,True,1.0,1.0,1.0,1,"Index(['3', '10', '14', '26', '27', '32', '36', '42', '57', '64', '71', '72',
       '73', '78', '90', '101', '108', '123', '128', '130', '143', '149',
       '156', '159', '163', '170', '173', '182', '188', '191', '192', '197',
       '206', '208', '210', '213', '215', '222', '243', '245', '257', '260',
       '268', '273', '277', '283', '287', '293', '297'],
      dtype='object')",False,1000,True,2,1b6dce97b7,1.0,1.0
./expes/v3_2021-02-05_di_300-prng-1-w1-p2,daily_issda-300,300,first-300,77,25,rng,num-start-241,241,536,classic,11.387587547302246,True,,True,1.0,1.0,1.0,1,"Index(['3', '5', '10', '14', '26', '27', '28', '30', '32', '33', '36', '42',
       '49', '57', '60', '64', '67', '71', '72', '73', '78', '88', '90', '99',
       '101', '102', '108', '110', '123', '128', '129', '130', '133', '137',
       '140', '142', '143', '149', '156', '158', '159', '163', '164', '170',
       '171', '172', '173', '179', '182', '185', '188', '191', '192', '197',
       '206', '208', '210', '213', '215', '222', '240', '243', '245', '257',
       '260', '268', '270', '273', '277', '283', '284', '285', '286', '287',
       '293', '295', '297'],
      dtype='object')",False,1000,True,2,f1fb5be1d1,1.0,1.0
./expes/v3_2021-02-05_di_300-prng-1-w1-p2,daily_issda-300,300,first-300,42,14,rng,num-start-211,211,536,classic,9.39141845703125,True,,True,1.0,1.0,1.0,1,"Index(['9', '12', '23', '37', '38', '51', '56', '59', '62', '76', '82', '103',
       '104', '120', '134', '138', '149', '154', '160', '167', '168', '178',
       '199', '202', '203', '209', '211', '213', '217', '226', '234', '258',
       '262', '267', '271', '278', '280', '292', '293', '296', '297', '300'],
      dtype='object')",False,1000,True,2,c6523599bf,1.0,1.0
./expes/v3_2021-02-05_di_300-prng-1-w1-p2,daily_issda-300,300,first-300,91,30,rng,num-start-271,271,536,classic,13.2249014377594,True,,True,1.0,1.0,1.0,1,"Index(['7', '11', '14', '16', '18', '20', '23', '30', '33', '37', '44', '45',
       '46', '50', '56', '59', '60', '65', '70', '71', '73', '76', '77', '82',
       '83', '86', '88', '90', '99', '100', '102', '104', '107', '108', '113',
       '117', '120', '121', '125', '127', '131', '133', '137', '146', '147',
       '152', '153', '154', '159', '161', '174', '176', '177', '183', '190',
       '193', '194', '195', '198', '200', '203', '206', '207', '209', '214',
       '217', '219', '228', '233', '234', '236', '243', '249', '250', '251',
       '254', '255', '258', '260', '262', '265', '267', '271', '273', '277',
       '280', '286', '294', '297', '298', '300'],
      dtype='object')",False,1000,True,2,1a7be0cd60,1.0,1.0
./expes/v3_2021-02-05_di_300-prng-1-w1-p2,daily_issda-300,300,first-300,84,28,rng,num-start-91,91,536,classic,1003.3104710578918,False,,False,0,,,0,"Index(['1', '6', '10', '14', '15', '16', '17', '19', '23', '27', '31', '32',
       '39', '40', '43', '45', '47', '53', '58', '59', '70', '74', '75', '84',
       '88', '92', '99', '103', '105', '108', '113', '114', '115', '117',
       '121', '130', '134', '138', '141', '142', '159', '161', '172', '173',
       '174', '180', '183', '186', '187', '189', '191', '192', '196', '197',
       '198', '199', '206', '208', '215', '217', '219', '221', '222', '226',
       '228', '236', '241', '243', '245', '248', '257', '260', '261', '262',
       '263', '266', '271', '277', '278', '282', '285', '286', '294', '296'],
      dtype='object')",True,1000,True,2,e263aabecf,0.0,0.0
./expes/v3_2021-02-05_di_300-prng-1-w1-p2,daily_issda-300,300,first-300,98,32,rng,num-start-241,241,536,classic,11.032085657119751,True,,True,1.0,1.0,1.0,1,"Index(['5', '11', '13', '15', '17', '19', '21', '26', '29', '30', '31', '35',
       '39', '43', '44', '47', '55', '59', '66', '70', '81', '82', '83', '85',
       '86', '87', '89', '91', '94', '95', '98', '107', '108', '109', '114',
       '117', '119', '121', '126', '128', '129', '131', '137', '138', '140',
       '143', '156', '158', '159', '160', '164', '167', '175', '180', '182',
       '185', '186', '187', '188', '191', '192', '195', '202', '205', '209',
       '213', '217', '221', '228', '229', '233', '234', '237', '239', '246',
       '250', '251', '256', '257', '258', '259', '260', '261', '262', '263',
       '264', '266', '268', '269', '270', '272', '279', '286', '287', '288',
       '291', '295', '298'],
      dtype='object')",False,1000,True,2,6283258959,1.0,1.0
./expes/v3_2021-02-05_di_300-prng-1-w1-p2,daily_issda-300,300,first-300,91,30,rng,num-start-1,1,536,classic,1.2254042625427246,False,,False,0.3612517395506147,0.3560157462611798,0.36648773284004954,2,"Index(['2', '8', '16', '20', '22', '23', '36', '37', '38', '44', '48', '58',
       '61', '65', '67', '68', '70', '71', '72', '73', '76', '82', '85', '86',
       '91', '92', '94', '96', '99', '100', '104', '109', '110', '116', '119',
       '120', '121', '122', '129', '130', '132', '133', '135', '142', '144',
       '149', '151', '152', '160', '161', '175', '176', '178', '180', '183',
       '184', '187', '188', '191', '192', '200', '203', '212', '218', '220',
       '221', '224', '226', '228', '230', '231', '236', '238', '250', '252',
       '255', '267', '268', '270', '273', '275', '279', '282', '284', '285',
       '289', '290', '292', '296', '298', '299'],
      dtype='object')",False,1000,True,2,7c7b5aeba0,1.0,1.0
./expes/v3_2021-02-05_di_300-prng-1-w1-p2,daily_issda-300,300,first-300,112,37,rng,num-start-31,31,536,classic,1001.2028591632843,False,,False,0,,,0,"Index(['1', '2', '3', '5', '7', '10', '12', '15', '17', '19',
       ...
       '269', '272', '274', '277', '279', '280', '282', '289', '294', '297'],
      dtype='object', length=112)",True,1000,True,2,7c4f3a7b34,0.0,0.0
./expes/v3_2021-02-05_di_300-prng-1-w1-p2,daily_issda-300,300,first-300,56,18,rng,num-start-21,21,536,classic,1001.379566192627,False,,False,0,,,0,"Index(['11', '16', '20', '23', '30', '33', '44', '45', '46', '50', '56', '59',
       '65', '71', '73', '76', '99', '100', '107', '108', '117', '120', '121',
       '127', '133', '137', '147', '174', '190', '193', '194', '195', '198',
       '200', '206', '207', '209', '228', '233', '234', '236', '243', '249',
       '250', '251', '254', '255', '260', '265', '267', '277', '286', '294',
       '297', '298', '300'],
      dtype='object')",True,1000,True,2,1c301f36fc,0.0,0.0
