expe,clients,clients_size,clients_subset,agg_size,agg_size_pc,method,days,days_size,days_total,noise_method,time,valid,valid_sum,success,score_avg,score_min,score_max,nsols,oracle,wall_hit,wall_time,pooled,pool_size,uuid,optimal,valid_sums
./expes/v3_2021-02-09_hi_2000-prng-1-w5-p100,30_issda-2000,2000,first-2000,750,37,rng,num-start-14800,14800,25726,classic,6228.991984844208,True,,False,1.0,1.0,1.0,1,"Index(['1', '7', '10', '12', '14', '22', '23', '25', '28', '29',
       ...
       '1976', '1977', '1978', '1981', '1983', '1987', '1989', '1990', '1993',
       '1997'],
      dtype='object', length=750)",True,5000,True,100,fca58fb732,0.0,1.0
./expes/v3_2021-02-09_hi_2000-prng-1-w5-p100,30_issda-2000,2000,first-2000,750,37,rng,num-start-7300,7300,25726,classic,5622.165648698807,True,,False,1.0,1.0,1.0,1,"Index(['7', '11', '12', '15', '16', '17', '20', '22', '24', '25',
       ...
       '1975', '1976', '1982', '1987', '1990', '1992', '1994', '1996', '1997',
       '1998'],
      dtype='object', length=750)",True,5000,True,100,ca3207a12f,0.0,1.0
./expes/v3_2021-02-09_hi_2000-prng-1-w5-p100,30_issda-2000,2000,first-2000,950,47,rng,num-start-101,101,25726,classic,5008.826575756073,False,,False,0,,,0,"Index(['4', '8', '13', '14', '16', '17', '18', '20', '21', '22',
       ...
       '1978', '1979', '1981', '1982', '1987', '1989', '1990', '1992', '1999',
       '2000'],
      dtype='object', length=950)",True,5000,True,100,6d267d02c0,0.0,0.0
./expes/v3_2021-02-09_hi_2000-prng-1-w5-p100,30_issda-2000,2000,first-2000,600,30,rng,num-start-12300,12300,25726,classic,6007.602355480194,True,,False,1.0,1.0,1.0,1,"Index(['2', '4', '6', '7', '11', '19', '21', '24', '27', '28',
       ...
       '1976', '1977', '1980', '1983', '1984', '1992', '1993', '1998', '1999',
       '2000'],
      dtype='object', length=600)",True,5000,True,100,29d7bb82a8,0.0,1.0
./expes/v3_2021-02-09_hi_2000-prng-1-w5-p100,30_issda-2000,2000,first-2000,750,37,rng,num-start-12800,12800,25726,classic,6123.163685798645,True,,False,1.0,1.0,1.0,1,"Index(['1', '3', '4', '5', '7', '17', '19', '20', '26', '28',
       ...
       '1978', '1980', '1982', '1983', '1984', '1986', '1988', '1992', '1996',
       '2000'],
      dtype='object', length=750)",True,5000,True,100,3ed0ef531a,0.0,1.0
./expes/v3_2021-02-09_hi_2000-prng-1-w5-p100,30_issda-2000,2000,first-2000,650,32,rng,num-start-181,181,25726,classic,5014.811125278473,False,,False,0,,,0,"Index(['3', '5', '7', '8', '9', '11', '12', '20', '24', '27',
       ...
       '1963', '1965', '1970', '1977', '1982', '1983', '1987', '1989', '1990',
       '1996'],
      dtype='object', length=650)",True,5000,True,100,b874e6edf3,0.0,0.0
./expes/v3_2021-02-09_hi_2000-prng-1-w5-p100,30_issda-2000,2000,first-2000,850,42,rng,num-start-9300,9300,25726,classic,5794.653997182846,True,,False,1.0,1.0,1.0,1,"Index(['2', '4', '5', '8', '9', '12', '16', '18', '19', '21',
       ...
       '1990', '1992', '1993', '1994', '1995', '1996', '1997', '1998', '1999',
       '2000'],
      dtype='object', length=850)",True,5000,True,100,895b595034,0.0,1.0
./expes/v3_2021-02-09_hi_2000-prng-1-w5-p100,30_issda-2000,2000,first-2000,350,17,rng,num-start-9300,9300,25726,classic,5264.560976266861,True,,True,1.0,1.0,1.0,1,"Index(['1', '2', '10', '20', '23', '26', '30', '31', '32', '34',
       ...
       '1946', '1963', '1965', '1972', '1974', '1975', '1976', '1989', '1993',
       '1997'],
      dtype='object', length=350)",False,5000,True,100,8ac1b68ea5,1.0,1.0
./expes/v3_2021-02-09_hi_2000-prng-1-w5-p100,30_issda-2000,2000,first-2000,50,2,rng,num-start-14300,14300,25726,classic,3179.948898077011,True,,True,1.0,1.0,1.0,1,"Index(['41', '53', '121', '137', '178', '185', '212', '218', '318', '338',
       '354', '397', '440', '455', '484', '534', '537', '557', '567', '593',
       '594', '622', '635', '738', '763', '812', '823', '981', '1066', '1100',
       '1126', '1285', '1313', '1478', '1499', '1568', '1597', '1640', '1653',
       '1694', '1698', '1731', '1738', '1751', '1777', '1803', '1880', '1900',
       '1932', '1968'],
      dtype='object')",False,5000,True,100,55fb4adcdc,1.0,1.0
./expes/v3_2021-02-09_hi_2000-prng-1-w5-p100,30_issda-2000,2000,first-2000,300,15,rng,num-start-91,91,25726,classic,5007.91820192337,False,,False,0,,,0,"Index(['4', '5', '12', '19', '26', '30', '35', '37', '43', '45',
       ...
       '1951', '1956', '1961', '1966', '1978', '1981', '1985', '1994', '1998',
       '1999'],
      dtype='object', length=300)",True,5000,True,100,7844f86e1f,0.0,0.0
./expes/v3_2021-02-09_hi_2000-prng-1-w5-p100,30_issda-2000,2000,first-2000,450,22,rng,num-start-71,71,25726,classic,5005.672924280167,False,,False,0,,,0,"Index(['12', '13', '14', '18', '23', '27', '30', '36', '38', '43',
       ...
       '1950', '1961', '1962', '1980', '1981', '1985', '1987', '1993', '1994',
       '1999'],
      dtype='object', length=450)",True,5000,True,100,d989f5c441,0.0,0.0
./expes/v3_2021-02-09_hi_2000-prng-1-w5-p100,30_issda-2000,2000,first-2000,250,12,rng,num-start-281,281,25726,classic,5023.37734079361,False,,False,0,,,0,"Index(['7', '25', '28', '35', '41', '53', '63', '68', '69', '70',
       ...
       '1902', '1910', '1918', '1938', '1946', '1971', '1977', '1987', '1993',
       '1997'],
      dtype='object', length=250)",True,5000,True,100,1dae0f4294,0.0,0.0
./expes/v3_2021-02-09_hi_2000-prng-1-w5-p100,30_issda-2000,2000,first-2000,900,45,rng,num-start-61,61,25726,classic,5005.258339881897,False,,False,0,,,0,"Index(['1', '2', '3', '7', '8', '9', '12', '13', '16', '17',
       ...
       '1984', '1985', '1986', '1987', '1988', '1989', '1991', '1993', '1995',
       '1996'],
      dtype='object', length=900)",True,5000,True,100,bcbb2cae96,0.0,0.0
./expes/v3_2021-02-09_hi_2000-prng-1-w5-p100,30_issda-2000,2000,first-2000,750,37,rng,num-start-6300,6300,25726,classic,5094.278849601746,True,,True,1.0,1.0,1.0,1,"Index(['4', '7', '9', '10', '11', '18', '22', '24', '33', '36',
       ...
       '1973', '1980', '1981', '1983', '1985', '1986', '1988', '1989', '1992',
       '1995'],
      dtype='object', length=750)",False,5000,True,100,8c619c8e05,1.0,1.0
./expes/v3_2021-02-09_hi_2000-prng-1-w5-p100,30_issda-2000,2000,first-2000,600,30,rng,num-start-261,261,25726,classic,5020.355069875717,False,,False,0,,,0,"Index(['4', '8', '10', '11', '15', '16', '24', '27', '32', '37',
       ...
       '1976', '1978', '1980', '1981', '1985', '1989', '1990', '1991', '1993',
       '1997'],
      dtype='object', length=600)",True,5000,True,100,bfd2c70528,0.0,0.0
./expes/v3_2021-02-09_hi_2000-prng-1-w5-p100,30_issda-2000,2000,first-2000,850,42,rng,num-start-7300,7300,25726,classic,5601.078560352325,True,,False,1.0,1.0,1.0,1,"Index(['1', '3', '4', '6', '7', '10', '11', '13', '20', '21',
       ...
       '1987', '1988', '1989', '1990', '1992', '1994', '1995', '1997', '1998',
       '2000'],
      dtype='object', length=850)",True,5000,True,100,5e92ddc643,0.0,1.0
./expes/v3_2021-02-09_hi_2000-prng-1-w5-p100,30_issda-2000,2000,first-2000,200,10,rng,num-start-261,261,25726,classic,5020.618182897568,False,,False,0,,,0,"Index(['1', '2', '10', '20', '23', '31', '32', '35', '41', '61',
       ...
       '1890', '1893', '1899', '1909', '1963', '1965', '1975', '1976', '1989',
       '1997'],
      dtype='object', length=200)",True,5000,True,100,1149abe5c3,0.0,0.0
./expes/v3_2021-02-09_hi_2000-prng-1-w5-p100,30_issda-2000,2000,first-2000,700,35,rng,num-start-131,131,25726,classic,5010.640185117722,False,,False,0,,,0,"Index(['1', '3', '7', '8', '9', '12', '13', '16', '19', '21',
       ...
       '1984', '1985', '1986', '1987', '1988', '1989', '1991', '1993', '1995',
       '1996'],
      dtype='object', length=700)",True,5000,True,100,46d44e6888,0.0,0.0
./expes/v3_2021-02-09_hi_2000-prng-1-w5-p100,30_issda-2000,2000,first-2000,900,45,rng,num-start-101,101,25726,classic,5008.309468269348,False,,False,0,,,0,"Index(['2', '7', '8', '11', '12', '14', '15', '17', '18', '19',
       ...
       '1985', '1986', '1988', '1991', '1992', '1994', '1995', '1997', '1998',
       '2000'],
      dtype='object', length=900)",True,5000,True,100,b26d9bba64,0.0,0.0
./expes/v3_2021-02-09_hi_2000-prng-1-w5-p100,30_issda-2000,2000,first-2000,400,20,rng,num-start-101,101,25726,classic,5008.964856147766,False,,False,0,,,0,"Index(['4', '9', '10', '11', '18', '33', '37', '40', '41', '44',
       ...
       '1958', '1961', '1964', '1965', '1966', '1968', '1970', '1973', '1988',
       '1989'],
      dtype='object', length=400)",True,5000,True,100,39b7235a30,0.0,0.0
./expes/v3_2021-02-09_hi_2000-prng-1-w5-p100,30_issda-2000,2000,first-2000,700,35,rng,num-start-2300,2300,25726,classic,2786.8882586956024,True,,True,1.0,1.0,1.0,1,"Index(['2', '7', '8', '11', '12', '14', '15', '17', '18', '20',
       ...
       '1976', '1980', '1982', '1984', '1985', '1988', '1992', '1997', '1998',
       '2000'],
      dtype='object', length=700)",False,5000,True,100,933de07a9f,1.0,1.0
./expes/v3_2021-02-09_hi_2000-prng-1-w5-p100,30_issda-2000,2000,first-2000,50,2,rng,num-start-211,211,25726,classic,179.4121835231781,True,,True,1.0,1.0,1.0,1,"Index(['4', '23', '39', '121', '125', '153', '179', '293', '298', '333', '409',
       '431', '467', '551', '562', '691', '696', '717', '753', '768', '782',
       '829', '902', '943', '972', '989', '1052', '1084', '1144', '1181',
       '1232', '1279', '1318', '1347', '1355', '1356', '1365', '1396', '1407',
       '1415', '1635', '1660', '1677', '1678', '1679', '1726', '1771', '1856',
       '1874', '1882'],
      dtype='object')",False,5000,True,100,ff4776ae44,1.0,1.0
./expes/v3_2021-02-09_hi_2000-prng-1-w5-p100,30_issda-2000,2000,first-2000,450,22,rng,num-start-241,241,25726,classic,5018.986896276474,False,,False,0,,,0,"Index(['1', '4', '9', '25', '30', '39', '44', '47', '48', '53',
       ...
       '1952', '1956', '1957', '1959', '1962', '1971', '1989', '1990', '1996',
       '2000'],
      dtype='object', length=450)",True,5000,True,100,3c22f76f5c,0.0,0.0
./expes/v3_2021-02-09_hi_2000-prng-1-w5-p100,30_issda-2000,2000,first-2000,950,47,rng,num-start-13800,13800,25726,classic,6160.555762290955,True,,False,1.0,1.0,1.0,1,"Index(['1', '2', '3', '4', '6', '7', '11', '13', '19', '21',
       ...
       '1983', '1984', '1986', '1990', '1992', '1993', '1994', '1998', '1999',
       '2000'],
      dtype='object', length=950)",True,5000,True,100,280e573336,0.0,1.0
./expes/v3_2021-02-09_hi_2000-prng-1-w5-p100,30_issda-2000,2000,first-2000,600,30,rng,num-start-12300,12300,25726,classic,6063.396025419235,True,,False,1.0,1.0,1.0,1,"Index(['6', '9', '11', '12', '16', '26', '30', '31', '33', '34',
       ...
       '1973', '1974', '1976', '1984', '1985', '1986', '1987', '1988', '1995',
       '1997'],
      dtype='object', length=600)",True,5000,True,100,75a5b712a5,0.0,1.0
./expes/v3_2021-02-09_hi_2000-prng-1-w5-p100,30_issda-2000,2000,first-2000,150,7,rng,num-start-91,91,25726,classic,5007.0528836250305,False,,False,0,,,0,"Index(['12', '13', '19', '21', '27', '29', '42', '46', '47', '57',
       ...
       '1837', '1882', '1884', '1927', '1943', '1950', '1952', '1959', '1983',
       '1995'],
      dtype='object', length=150)",True,5000,True,100,41888b5ef7,0.0,0.0
./expes/v3_2021-02-09_hi_2000-prng-1-w5-p100,30_issda-2000,2000,first-2000,750,37,rng,num-start-2800,2800,25726,classic,2851.03334069252,True,,True,1.0,1.0,1.0,1,"Index(['1', '2', '4', '6', '7', '11', '19', '21', '24', '27',
       ...
       '1977', '1980', '1983', '1984', '1992', '1993', '1994', '1998', '1999',
       '2000'],
      dtype='object', length=750)",False,5000,True,100,407abb10f5,1.0,1.0
./expes/v3_2021-02-09_hi_2000-prng-1-w5-p100,30_issda-2000,2000,first-2000,500,25,rng,num-start-271,271,25726,classic,5022.022250652313,False,,False,0,,,0,"Index(['5', '6', '15', '18', '26', '34', '35', '37', '39', '45',
       ...
       '1974', '1977', '1978', '1979', '1981', '1983', '1984', '1987', '1989',
       '1993'],
      dtype='object', length=500)",True,5000,True,100,065c65b7e8,0.0,0.0
./expes/v3_2021-02-09_hi_2000-prng-1-w5-p100,30_issda-2000,2000,first-2000,550,27,rng,num-start-191,191,25726,classic,5015.253714084625,False,,False,0,,,0,"Index(['4', '7', '10', '12', '15', '20', '22', '27', '38', '41',
       ...
       '1968', '1970', '1972', '1976', '1979', '1984', '1986', '1988', '1989',
       '1995'],
      dtype='object', length=550)",True,5000,True,100,fefa759729,0.0,0.0
./expes/v3_2021-02-09_hi_2000-prng-1-w5-p100,30_issda-2000,2000,first-2000,850,42,rng,num-start-8300,8300,25726,classic,5663.3699061870575,True,,False,1.0,1.0,1.0,1,"Index(['1', '3', '12', '13', '14', '18', '19', '23', '25', '27',
       ...
       '1981', '1982', '1983', '1985', '1986', '1987', '1993', '1994', '1998',
       '1999'],
      dtype='object', length=850)",True,5000,True,100,938b248540,0.0,1.0
./expes/v3_2021-02-09_hi_2000-prng-1-w5-p100,30_issda-2000,2000,first-2000,500,25,rng,num-start-21,21,25726,classic,5001.611887454987,False,,False,0,,,0,"Index(['1', '2', '10', '14', '20', '23', '24', '26', '30', '31',
       ...
       '1961', '1963', '1965', '1972', '1974', '1975', '1976', '1989', '1993',
       '1997'],
      dtype='object', length=500)",True,5000,True,100,81e181a5bc,0.0,0.0
./expes/v3_2021-02-09_hi_2000-prng-1-w5-p100,30_issda-2000,2000,first-2000,1000,50,rng,num-start-5800,5800,25726,classic,4716.288428544998,True,,True,1.0,1.0,1.0,1,"Index(['1', '2', '10', '11', '14', '20', '22', '23', '24', '25',
       ...
       '1980', '1981', '1982', '1984', '1986', '1987', '1989', '1993', '1994',
       '1997'],
      dtype='object', length=1000)",False,5000,True,100,28e887b281,1.0,1.0
./expes/v3_2021-02-09_hi_2000-prng-1-w5-p100,30_issda-2000,2000,first-2000,300,15,rng,num-start-241,241,25726,classic,5018.188355207443,False,,False,0,,,0,"Index(['7', '10', '14', '25', '28', '35', '41', '47', '53', '63',
       ...
       '1929', '1938', '1946', '1961', '1971', '1977', '1983', '1987', '1993',
       '1997'],
      dtype='object', length=300)",True,5000,True,100,7cadee5abf,0.0,0.0
./expes/v3_2021-02-09_hi_2000-prng-1-w5-p100,30_issda-2000,2000,first-2000,600,30,rng,num-start-1,1,25726,classic,3.939185619354248,False,,False,0.33619409072480927,0.3297577957886022,0.3556339520102716,100,"Index(['4', '5', '12', '18', '19', '21', '22', '26', '30', '35',
       ...
       '1980', '1981', '1983', '1985', '1987', '1988', '1994', '1995', '1998',
       '1999'],
      dtype='object', length=600)",False,5000,True,100,6cd5698c88,1.0,1.0
./expes/v3_2021-02-09_hi_2000-prng-1-w5-p100,30_issda-2000,2000,first-2000,900,45,rng,num-start-271,271,25726,classic,5021.443654298782,False,,False,0,,,0,"Index(['1', '2', '4', '6', '8', '10', '16', '21', '22', '25',
       ...
       '1977', '1980', '1983', '1984', '1990', '1991', '1992', '1993', '1995',
       '2000'],
      dtype='object', length=900)",True,5000,True,100,7e1b450d51,0.0,0.0
./expes/v3_2021-02-09_hi_2000-prng-1-w5-p100,30_issda-2000,2000,first-2000,450,22,rng,num-start-7800,7800,25726,classic,5276.515332937241,True,,True,1.0,1.0,1.0,1,"Index(['6', '8', '10', '19', '24', '31', '32', '35', '36', '39',
       ...
       '1948', '1953', '1958', '1965', '1967', '1971', '1977', '1982', '1992',
       '2000'],
      dtype='object', length=450)",False,5000,True,100,b8f0ea650d,1.0,1.0
./expes/v3_2021-02-09_hi_2000-prng-1-w5-p100,30_issda-2000,2000,first-2000,350,17,rng,num-start-5300,5300,25726,classic,5334.193334102631,True,,True,1.0,1.0,1.0,1,"Index(['1', '13', '26', '31', '35', '38', '42', '45', '59', '62',
       ...
       '1950', '1971', '1976', '1977', '1978', '1979', '1987', '1989', '1997',
       '2000'],
      dtype='object', length=350)",False,5000,True,100,468615cccf,1.0,1.0
./expes/v3_2021-02-09_hi_2000-prng-1-w5-p100,30_issda-2000,2000,first-2000,250,12,rng,num-start-10300,10300,25726,classic,5818.311482906342,True,,False,1.0,1.0,1.0,1,"Index(['1', '4', '22', '40', '43', '52', '57', '58', '65', '72',
       ...
       '1914', '1918', '1924', '1926', '1930', '1934', '1951', '1959', '1967',
       '1995'],
      dtype='object', length=250)",True,5000,True,100,3381492422,0.0,1.0
./expes/v3_2021-02-09_hi_2000-prng-1-w5-p100,30_issda-2000,2000,first-2000,100,5,rng,num-start-281,281,25726,classic,5021.986072778702,False,,False,0,,,0,"Index(['22', '57', '58', '144', '149', '171', '184', '194', '210', '219',
       '229', '243', '249', '252', '307', '330', '332', '338', '372', '397',
       '419', '447', '458', '506', '522', '524', '534', '540', '555', '556',
       '562', '564', '571', '575', '577', '597', '621', '647', '691', '734',
       '739', '746', '783', '807', '813', '827', '844', '899', '922', '927',
       '956', '993', '997', '1025', '1053', '1058', '1080', '1130', '1186',
       '1195', '1207', '1219', '1245', '1262', '1279', '1294', '1296', '1298',
       '1306', '1313', '1335', '1336', '1349', '1360', '1363', '1377', '1402',
       '1407', '1439', '1504', '1506', '1517', '1530', '1547', '1593', '1635',
       '1648', '1655', '1676', '1750', '1772', '1784', '1788', '1792', '1815',
       '1836', '1847', '1862', '1914', '1926'],
      dtype='object')",True,5000,True,100,cb86b3d144,0.0,0.0
./expes/v3_2021-02-09_hi_2000-prng-1-w5-p100,30_issda-2000,2000,first-2000,650,32,rng,num-start-14300,14300,25726,classic,6188.211758375168,True,,False,1.0,1.0,1.0,1,"Index(['1', '4', '9', '24', '25', '30', '32', '35', '38', '39',
       ...
       '1971', '1982', '1985', '1988', '1989', '1990', '1991', '1994', '1996',
       '2000'],
      dtype='object', length=650)",True,5000,True,100,c37c49399a,0.0,1.0
./expes/v3_2021-02-09_hi_2000-prng-1-w5-p100,30_issda-2000,2000,first-2000,550,27,rng,num-start-5800,5800,25726,classic,4940.309864044189,True,,True,1.0,1.0,1.0,1,"Index(['1', '2', '10', '14', '20', '23', '24', '26', '30', '31',
       ...
       '1961', '1963', '1965', '1972', '1974', '1975', '1976', '1989', '1993',
       '1997'],
      dtype='object', length=550)",False,5000,True,100,66d859f552,1.0,1.0
./expes/v3_2021-02-09_hi_2000-prng-1-w5-p100,30_issda-2000,2000,first-2000,500,25,rng,num-start-11300,11300,25726,classic,5975.059452056885,True,,False,1.0,1.0,1.0,1,"Index(['6', '9', '11', '16', '31', '33', '34', '52', '64', '66',
       ...
       '1971', '1973', '1974', '1976', '1984', '1986', '1987', '1988', '1995',
       '1997'],
      dtype='object', length=500)",True,5000,True,100,9c19bb049a,0.0,1.0
./expes/v3_2021-02-09_hi_2000-prng-1-w5-p100,30_issda-2000,2000,first-2000,200,10,rng,num-start-12800,12800,25726,classic,6016.0455005168915,True,,False,1.0,1.0,1.0,1,"Index(['5', '7', '30', '62', '80', '88', '89', '142', '146', '151',
       ...
       '1840', '1845', '1847', '1857', '1863', '1911', '1945', '1954', '1989',
       '1990'],
      dtype='object', length=200)",True,5000,True,100,2848fa3d17,0.0,1.0
./expes/v3_2021-02-09_hi_2000-prng-1-w5-p100,30_issda-2000,2000,first-2000,1000,50,rng,num-start-171,171,25726,classic,5014.326415300369,False,,False,0,,,0,"Index(['2', '3', '4', '5', '7', '8', '9', '11', '12', '14',
       ...
       '1982', '1983', '1985', '1987', '1988', '1989', '1990', '1991', '1993',
       '1996'],
      dtype='object', length=1000)",True,5000,True,100,8be1db4fbc,0.0,0.0
./expes/v3_2021-02-09_hi_2000-prng-1-w5-p100,30_issda-2000,2000,first-2000,800,40,rng,num-start-251,251,25726,classic,5021.649025678635,False,,False,0,,,0,"Index(['6', '8', '10', '11', '14', '16', '17', '19', '23', '24',
       ...
       '1980', '1981', '1982', '1983', '1984', '1985', '1987', '1992', '1998',
       '2000'],
      dtype='object', length=800)",True,5000,True,100,d3f6ae62c0,0.0,0.0
./expes/v3_2021-02-09_hi_2000-prng-1-w5-p100,30_issda-2000,2000,first-2000,600,30,rng,num-start-11300,11300,25726,classic,5923.271758317947,True,,False,1.0,1.0,1.0,1,"Index(['1', '2', '4', '10', '16', '21', '22', '31', '32', '36',
       ...
       '1965', '1967', '1968', '1974', '1983', '1990', '1991', '1993', '1995',
       '2000'],
      dtype='object', length=600)",True,5000,True,100,40651c6a58,0.0,1.0
./expes/v3_2021-02-09_hi_2000-prng-1-w5-p100,30_issda-2000,2000,first-2000,400,20,rng,num-start-9300,9300,25726,classic,5762.955619573593,True,,False,1.0,1.0,1.0,1,"Index(['12', '13', '14', '18', '23', '27', '30', '36', '38', '43',
       ...
       '1934', '1935', '1938', '1946', '1950', '1962', '1981', '1985', '1993',
       '1999'],
      dtype='object', length=400)",True,5000,True,100,2bc082ae63,0.0,1.0
./expes/v3_2021-02-09_hi_2000-prng-1-w5-p100,30_issda-2000,2000,first-2000,700,35,rng,num-start-9800,9800,25726,classic,5889.4799337387085,True,,False,1.0,1.0,1.0,1,"Index(['5', '6', '14', '15', '18', '26', '27', '34', '35', '37',
       ...
       '1978', '1979', '1980', '1981', '1983', '1984', '1987', '1989', '1991',
       '1993'],
      dtype='object', length=700)",True,5000,True,100,e366afa618,0.0,1.0
./expes/v3_2021-02-09_hi_2000-prng-1-w5-p100,30_issda-2000,2000,first-2000,250,12,rng,num-start-31,31,25726,classic,5003.961889743805,False,,False,0,,,0,"Index(['4', '7', '11', '19', '27', '38', '45', '47', '60', '66',
       ...
       '1955', '1957', '1967', '1970', '1977', '1980', '1984', '1992', '1998',
       '1999'],
      dtype='object', length=250)",True,5000,True,100,2cb148c476,0.0,0.0
./expes/v3_2021-02-09_hi_2000-prng-1-w5-p100,30_issda-2000,2000,first-2000,1000,50,rng,num-start-281,281,25726,classic,5022.733435869217,False,,False,0,,,0,"Index(['1', '2', '3', '5', '7', '8', '9', '10', '12', '13',
       ...
       '1985', '1986', '1987', '1988', '1989', '1990', '1991', '1993', '1995',
       '1996'],
      dtype='object', length=1000)",True,5000,True,100,1776ab1f61,0.0,0.0
./expes/v3_2021-02-09_hi_2000-prng-1-w5-p100,30_issda-2000,2000,first-2000,600,30,rng,num-start-71,71,25726,classic,5005.80924654007,False,,False,0,,,0,"Index(['6', '9', '11', '12', '16', '26', '30', '31', '33', '34',
       ...
       '1973', '1974', '1976', '1984', '1985', '1986', '1987', '1988', '1995',
       '1997'],
      dtype='object', length=600)",True,5000,True,100,868c013999,0.0,0.0
./expes/v3_2021-02-09_hi_2000-prng-1-w5-p100,30_issda-2000,2000,first-2000,1000,50,rng,num-start-271,271,25726,classic,5021.8166291713715,False,,False,0,,,0,"Index(['2', '3', '7', '8', '11', '12', '13', '14', '15', '16',
       ...
       '1985', '1986', '1988', '1991', '1992', '1994', '1995', '1997', '1998',
       '2000'],
      dtype='object', length=1000)",True,5000,True,100,90b1cfaa7e,0.0,0.0
./expes/v3_2021-02-09_hi_2000-prng-1-w5-p100,30_issda-2000,2000,first-2000,750,37,rng,num-start-12800,12800,25726,classic,6006.563312292099,True,,False,1.0,1.0,1.0,1,"Index(['1', '2', '10', '11', '14', '20', '23', '24', '25', '26',
       ...
       '1965', '1972', '1974', '1975', '1976', '1984', '1986', '1989', '1993',
       '1997'],
      dtype='object', length=750)",True,5000,True,100,f204bb1aac,0.0,1.0
./expes/v3_2021-02-09_hi_2000-prng-1-w5-p100,30_issda-2000,2000,first-2000,350,17,rng,num-start-4800,4800,25726,classic,3115.3554639816284,True,,True,1.0,1.0,1.0,1,"Index(['6', '9', '11', '16', '31', '52', '66', '67', '68', '71',
       ...
       '1951', '1952', '1971', '1974', '1976', '1984', '1986', '1987', '1988',
       '1995'],
      dtype='object', length=350)",False,5000,True,100,216a05e23e,1.0,1.0
./expes/v3_2021-02-09_hi_2000-prng-1-w5-p100,30_issda-2000,2000,first-2000,750,37,rng,num-start-3300,3300,25726,classic,3603.4627192020416,True,,True,1.0,1.0,1.0,1,"Index(['1', '4', '6', '7', '10', '11', '13', '20', '21', '22',
       ...
       '1986', '1987', '1989', '1990', '1992', '1994', '1995', '1997', '1998',
       '2000'],
      dtype='object', length=750)",False,5000,True,100,fef9ff5fb2,1.0,1.0
./expes/v3_2021-02-09_hi_2000-prng-1-w5-p100,30_issda-2000,2000,first-2000,1000,50,rng,num-start-141,141,25726,classic,5011.8203065395355,False,,False,0,,,0,"Index(['4', '5', '8', '9', '13', '14', '15', '16', '17', '18',
       ...
       '1979', '1980', '1981', '1982', '1987', '1989', '1990', '1992', '1999',
       '2000'],
      dtype='object', length=1000)",True,5000,True,100,2392c3e166,0.0,0.0
./expes/v3_2021-02-09_hi_2000-prng-1-w5-p100,30_issda-2000,2000,first-2000,700,35,rng,num-start-181,181,25726,classic,5014.838894605637,False,,False,0,,,0,"Index(['6', '8', '9', '11', '12', '16', '21', '26', '28', '30',
       ...
       '1973', '1974', '1976', '1984', '1985', '1986', '1987', '1988', '1995',
       '1997'],
      dtype='object', length=700)",True,5000,True,100,7897e8fb89,0.0,0.0
./expes/v3_2021-02-09_hi_2000-prng-1-w5-p100,30_issda-2000,2000,first-2000,600,30,rng,num-start-101,101,25726,classic,5008.46707034111,False,,False,0,,,0,"Index(['2', '4', '6', '7', '11', '19', '21', '24', '27', '28',
       ...
       '1976', '1977', '1980', '1983', '1984', '1992', '1993', '1998', '1999',
       '2000'],
      dtype='object', length=600)",True,5000,True,100,bb983270a2,0.0,0.0
./expes/v3_2021-02-09_hi_2000-prng-1-w5-p100,30_issda-2000,2000,first-2000,700,35,rng,num-start-14800,14800,25726,classic,6168.032989501953,True,,False,1.0,1.0,1.0,1,"Index(['1', '3', '4', '8', '9', '11', '24', '25', '30', '32',
       ...
       '1982', '1985', '1988', '1989', '1990', '1991', '1992', '1994', '1996',
       '2000'],
      dtype='object', length=700)",True,5000,True,100,b927a9224f,0.0,1.0
./expes/v3_2021-02-09_hi_2000-prng-1-w5-p100,30_issda-2000,2000,first-2000,1000,50,rng,num-start-1,1,25726,classic,5.501449108123779,False,,False,0.2928601879131709,0.28708056060762954,0.2983974607646215,100,"Index(['6', '8', '10', '11', '13', '14', '16', '17', '19', '23',
       ...
       '1980', '1981', '1982', '1983', '1984', '1985', '1987', '1992', '1998',
       '2000'],
      dtype='object', length=1000)",False,5000,True,100,1e2ae13670,1.0,1.0
./expes/v3_2021-02-09_hi_2000-prng-1-w5-p100,30_issda-2000,2000,first-2000,400,20,rng,num-start-8300,8300,25726,classic,5683.8192484378815,True,,False,1.0,1.0,1.0,1,"Index(['6', '9', '11', '16', '31', '33', '34', '52', '66', '67',
       ...
       '1956', '1971', '1974', '1976', '1984', '1986', '1987', '1988', '1995',
       '1997'],
      dtype='object', length=400)",True,5000,True,100,ce33c3b9fb,0.0,1.0
./expes/v3_2021-02-09_hi_2000-prng-1-w5-p100,30_issda-2000,2000,first-2000,500,25,rng,num-start-8300,8300,25726,classic,5671.150991678238,True,,False,1.0,1.0,1.0,1,"Index(['7', '10', '14', '25', '28', '35', '41', '46', '47', '53',
       ...
       '1961', '1964', '1971', '1977', '1978', '1981', '1983', '1987', '1993',
       '1997'],
      dtype='object', length=500)",True,5000,True,100,c0f05b2671,0.0,1.0
./expes/v3_2021-02-09_hi_2000-prng-1-w5-p100,30_issda-2000,2000,first-2000,400,20,rng,num-start-141,141,25726,classic,5011.165589332581,False,,False,0,,,0,"Index(['7', '10', '14', '25', '28', '35', '41', '46', '47', '53',
       ...
       '1946', '1961', '1964', '1971', '1977', '1978', '1983', '1987', '1993',
       '1997'],
      dtype='object', length=400)",True,5000,True,100,4238761aae,0.0,0.0
./expes/v3_2021-02-09_hi_2000-prng-1-w5-p100,30_issda-2000,2000,first-2000,150,7,rng,num-start-5800,5800,25726,classic,2637.546413898468,True,,True,1.0,1.0,1.0,1,"Index(['4', '23', '39', '53', '58', '63', '67', '76', '90', '106',
       ...
       '1807', '1814', '1856', '1874', '1882', '1928', '1939', '1982', '1990',
       '2000'],
      dtype='object', length=150)",False,5000,True,100,315baecdd2,1.0,1.0
./expes/v3_2021-02-09_hi_2000-prng-1-w5-p100,30_issda-2000,2000,first-2000,750,37,rng,num-start-13800,13800,25726,classic,6137.143949508667,True,,False,1.0,1.0,1.0,1,"Index(['1', '4', '6', '7', '10', '11', '13', '20', '21', '22',
       ...
       '1986', '1987', '1989', '1990', '1992', '1994', '1995', '1997', '1998',
       '2000'],
      dtype='object', length=750)",True,5000,True,100,f896c434d5,0.0,1.0
./expes/v3_2021-02-09_hi_2000-prng-1-w5-p100,30_issda-2000,2000,first-2000,150,7,rng,num-start-10300,10300,25726,classic,5587.013290882111,True,,True,1.0,1.0,1.0,1,"Index(['4', '23', '39', '53', '58', '63', '67', '76', '90', '106',
       ...
       '1807', '1814', '1856', '1874', '1882', '1928', '1939', '1982', '1990',
       '2000'],
      dtype='object', length=150)",False,5000,True,100,0771fb3ca7,1.0,1.0
./expes/v3_2021-02-09_hi_2000-prng-1-w5-p100,30_issda-2000,2000,first-2000,450,22,rng,num-start-4800,4800,25726,classic,3889.7833337783813,True,,True,1.0,1.0,1.0,1,"Index(['1', '2', '10', '20', '23', '24', '26', '30', '31', '32',
       ...
       '1961', '1963', '1965', '1972', '1974', '1975', '1976', '1989', '1993',
       '1997'],
      dtype='object', length=450)",False,5000,True,100,9b2d9f031b,1.0,1.0
./expes/v3_2021-02-09_hi_2000-prng-1-w5-p100,30_issda-2000,2000,first-2000,1000,50,rng,num-start-7800,7800,25726,classic,5632.23085474968,True,,False,1.0,1.0,1.0,1,"Index(['2', '4', '5', '8', '9', '11', '12', '16', '18', '19',
       ...
       '1990', '1992', '1993', '1994', '1995', '1996', '1997', '1998', '1999',
       '2000'],
      dtype='object', length=1000)",True,5000,True,100,5749d5a46d,0.0,1.0
./expes/v3_2021-02-09_hi_2000-prng-1-w5-p100,30_issda-2000,2000,first-2000,550,27,rng,num-start-2300,2300,25726,classic,2163.082763671875,True,,True,1.0,1.0,1.0,1,"Index(['4', '9', '10', '11', '18', '24', '33', '36', '37', '40',
       ...
       '1966', '1968', '1970', '1971', '1973', '1985', '1988', '1989', '1992',
       '1995'],
      dtype='object', length=550)",False,5000,True,100,7710de6e3c,1.0,1.0
./expes/v3_2021-02-09_hi_2000-prng-1-w5-p100,30_issda-2000,2000,first-2000,100,5,rng,num-start-101,101,25726,classic,5008.031455755234,False,,False,0,,,0,"Index(['3', '29', '83', '128', '129', '152', '192', '195', '203', '207', '286',
       '287', '292', '301', '392', '419', '448', '455', '489', '500', '514',
       '531', '534', '578', '622', '636', '648', '667', '677', '683', '725',
       '734', '789', '817', '830', '862', '890', '907', '918', '967', '977',
       '996', '1011', '1034', '1048', '1068', '1091', '1113', '1124', '1132',
       '1147', '1163', '1195', '1233', '1252', '1254', '1267', '1281', '1312',
       '1369', '1401', '1442', '1445', '1455', '1474', '1495', '1496', '1548',
       '1553', '1606', '1608', '1638', '1645', '1646', '1649', '1660', '1690',
       '1696', '1700', '1721', '1730', '1742', '1773', '1777', '1783', '1824',
       '1827', '1841', '1848', '1860', '1864', '1870', '1876', '1879', '1881',
       '1882', '1978', '1980', '1982', '1983'],
      dtype='object')",True,5000,True,100,8c31740c11,0.0,0.0
./expes/v3_2021-02-09_hi_2000-prng-1-w5-p100,30_issda-2000,2000,first-2000,650,32,rng,num-start-131,131,25726,classic,5010.508902788162,False,,False,0,,,0,"Index(['12', '13', '14', '18', '19', '23', '27', '30', '36', '38',
       ...
       '1968', '1980', '1981', '1985', '1986', '1987', '1993', '1994', '1998',
       '1999'],
      dtype='object', length=650)",True,5000,True,100,22cb212b1b,0.0,0.0
./expes/v3_2021-02-09_hi_2000-prng-1-w5-p100,30_issda-2000,2000,first-2000,550,27,rng,num-start-161,161,25726,classic,5013.268716573715,False,,False,0,,,0,"Index(['5', '7', '8', '9', '11', '12', '20', '27', '30', '32',
       ...
       '1951', '1954', '1963', '1965', '1970', '1982', '1983', '1987', '1989',
       '1990'],
      dtype='object', length=550)",True,5000,True,100,f922e8be90,0.0,0.0
./expes/v3_2021-02-09_hi_2000-prng-1-w5-p100,30_issda-2000,2000,first-2000,600,30,rng,num-start-281,281,25726,classic,5022.143173217773,False,,False,0,,,0,"Index(['11', '15', '16', '17', '20', '22', '24', '25', '32', '37',
       ...
       '1975', '1976', '1982', '1987', '1990', '1992', '1994', '1996', '1997',
       '1998'],
      dtype='object', length=600)",True,5000,True,100,4425e1757d,0.0,0.0
./expes/v3_2021-02-09_hi_2000-prng-1-w5-p100,30_issda-2000,2000,first-2000,450,22,rng,num-start-10300,10300,25726,classic,5851.575147390366,True,,False,1.0,1.0,1.0,1,"Index(['1', '10', '13', '20', '26', '31', '35', '38', '42', '45',
       ...
       '1971', '1976', '1977', '1978', '1979', '1987', '1989', '1992', '1997',
       '2000'],
      dtype='object', length=450)",True,5000,True,100,6e4edac99f,0.0,1.0
./expes/v3_2021-02-09_hi_2000-prng-1-w5-p100,30_issda-2000,2000,first-2000,450,22,rng,num-start-211,211,25726,classic,5017.9386510849,False,,False,0,,,0,"Index(['1', '4', '9', '25', '30', '39', '44', '47', '48', '53',
       ...
       '1952', '1956', '1957', '1959', '1962', '1971', '1989', '1990', '1996',
       '2000'],
      dtype='object', length=450)",True,5000,True,100,56450d1e2c,0.0,0.0
./expes/v3_2021-02-09_hi_2000-prng-1-w5-p100,30_issda-2000,2000,first-2000,750,37,rng,num-start-111,111,25726,classic,5009.113504886627,False,,False,0,,,0,"Index(['5', '6', '14', '15', '18', '26', '27', '31', '34', '35',
       ...
       '1980', '1981', '1983', '1984', '1987', '1989', '1991', '1993', '1995',
       '1999'],
      dtype='object', length=750)",True,5000,True,100,291ffc6486,0.0,0.0
./expes/v3_2021-02-09_hi_2000-prng-1-w5-p100,30_issda-2000,2000,first-2000,1000,50,rng,num-start-5300,5300,25726,classic,4850.0049476623535,True,,True,1.0,1.0,1.0,1,"Index(['1', '3', '4', '9', '12', '13', '14', '16', '18', '19',
       ...
       '1981', '1982', '1983', '1985', '1986', '1987', '1993', '1994', '1998',
       '1999'],
      dtype='object', length=1000)",False,5000,True,100,0254e25e71,1.0,1.0
./expes/v3_2021-02-09_hi_2000-prng-1-w5-p100,30_issda-2000,2000,first-2000,700,35,rng,num-start-2300,2300,25726,classic,2122.666340827942,True,,True,1.0,1.0,1.0,1,"Index(['1', '7', '10', '12', '14', '23', '25', '28', '29', '30',
       ...
       '1976', '1977', '1978', '1981', '1983', '1987', '1989', '1990', '1993',
       '1997'],
      dtype='object', length=700)",False,5000,True,100,5c2194804f,1.0,1.0
./expes/v3_2021-02-09_hi_2000-prng-1-w5-p100,30_issda-2000,2000,first-2000,650,32,rng,num-start-14800,14800,25726,classic,6217.291056156158,True,,False,1.0,1.0,1.0,1,"Index(['2', '7', '8', '11', '12', '14', '15', '17', '18', '20',
       ...
       '1975', '1976', '1980', '1982', '1984', '1985', '1988', '1997', '1998',
       '2000'],
      dtype='object', length=650)",True,5000,True,100,d51010b683,0.0,1.0
./expes/v3_2021-02-09_hi_2000-prng-1-w5-p100,30_issda-2000,2000,first-2000,500,25,rng,num-start-8800,8800,25726,classic,5729.725144863129,True,,False,1.0,1.0,1.0,1,"Index(['6', '9', '11', '16', '31', '33', '34', '52', '64', '66',
       ...
       '1971', '1973', '1974', '1976', '1984', '1986', '1987', '1988', '1995',
       '1997'],
      dtype='object', length=500)",True,5000,True,100,be7ecbb9f2,0.0,1.0
./expes/v3_2021-02-09_hi_2000-prng-1-w5-p100,30_issda-2000,2000,first-2000,950,47,rng,num-start-13300,13300,25726,classic,6141.2313776016235,True,,False,1.0,1.0,1.0,1,"Index(['2', '3', '4', '5', '7', '8', '9', '11', '12', '14',
       ...
       '1982', '1983', '1985', '1987', '1988', '1989', '1990', '1991', '1993',
       '1996'],
      dtype='object', length=950)",True,5000,True,100,5ca6b60ddd,0.0,1.0
./expes/v3_2021-02-09_hi_2000-prng-1-w5-p100,30_issda-2000,2000,first-2000,950,47,rng,num-start-1300,1300,25726,classic,2548.5343050956726,True,,True,1.0,1.0,1.0,1,"Index(['1', '2', '3', '4', '6', '7', '11', '13', '19', '21',
       ...
       '1983', '1984', '1986', '1990', '1992', '1993', '1994', '1998', '1999',
       '2000'],
      dtype='object', length=950)",False,5000,True,100,1e86589dc7,1.0,1.0
./expes/v3_2021-02-09_hi_2000-prng-1-w5-p100,30_issda-2000,2000,first-2000,100,5,rng,num-start-71,71,25726,classic,5005.884055614471,False,,False,0,,,0,"Index(['14', '208', '236', '242', '252', '270', '298', '329', '347', '358',
       '372', '375', '389', '402', '406', '411', '413', '414', '424', '443',
       '452', '481', '487', '491', '520', '542', '543', '553', '558', '577',
       '606', '613', '621', '665', '686', '702', '709', '749', '831', '832',
       '834', '895', '920', '939', '978', '983', '984', '1003', '1012', '1016',
       '1026', '1040', '1052', '1070', '1079', '1102', '1131', '1164', '1174',
       '1176', '1179', '1206', '1216', '1229', '1287', '1293', '1326', '1355',
       '1383', '1388', '1401', '1406', '1417', '1444', '1452', '1467', '1490',
       '1505', '1549', '1562', '1581', '1613', '1625', '1627', '1652', '1660',
       '1662', '1691', '1712', '1774', '1789', '1817', '1827', '1842', '1869',
       '1891', '1934', '1950', '1981', '1999'],
      dtype='object')",True,5000,True,100,a3b65daa03,0.0,0.0
./expes/v3_2021-02-09_hi_2000-prng-1-w5-p100,30_issda-2000,2000,first-2000,300,15,rng,num-start-3800,3800,25726,classic,2425.5838873386383,True,,True,1.0,1.0,1.0,1,"Index(['4', '5', '12', '19', '26', '30', '35', '37', '43', '45',
       ...
       '1951', '1956', '1961', '1966', '1978', '1981', '1985', '1994', '1998',
       '1999'],
      dtype='object', length=300)",False,5000,True,100,59513ae991,1.0,1.0
./expes/v3_2021-02-09_hi_2000-prng-1-w5-p100,30_issda-2000,2000,first-2000,600,30,rng,num-start-4800,4800,25726,classic,3460.5580291748047,True,,True,1.0,1.0,1.0,1,"Index(['4', '8', '13', '14', '16', '18', '23', '26', '27', '35',
       ...
       '1968', '1971', '1972', '1975', '1978', '1982', '1989', '1990', '1992',
       '2000'],
      dtype='object', length=600)",False,5000,True,100,0a395a424d,1.0,1.0
./expes/v3_2021-02-09_hi_2000-prng-1-w5-p100,30_issda-2000,2000,first-2000,150,7,rng,num-start-111,111,25726,classic,5009.121261835098,False,,False,0,,,0,"Index(['15', '41', '53', '88', '89', '95', '121', '127', '137', '167',
       ...
       '1880', '1900', '1915', '1930', '1932', '1935', '1956', '1966', '1968',
       '1976'],
      dtype='object', length=150)",True,5000,True,100,36d5b62235,0.0,0.0
./expes/v3_2021-02-09_hi_2000-prng-1-w5-p100,30_issda-2000,2000,first-2000,300,15,rng,num-start-4800,4800,25726,classic,3132.127070903778,True,,True,1.0,1.0,1.0,1,"Index(['2', '8', '11', '14', '17', '25', '27', '31', '36', '38',
       ...
       '1939', '1940', '1948', '1949', '1958', '1963', '1970', '1975', '1980',
       '1998'],
      dtype='object', length=300)",False,5000,True,100,ca0a448b30,1.0,1.0
./expes/v3_2021-02-09_hi_2000-prng-1-w5-p100,30_issda-2000,2000,first-2000,450,22,rng,num-start-15300,15300,25726,classic,6318.796216964722,True,,False,1.0,1.0,1.0,1,"Index(['1', '3', '12', '13', '19', '21', '23', '27', '29', '35',
       ...
       '1965', '1971', '1979', '1981', '1983', '1985', '1988', '1989', '1995',
       '1996'],
      dtype='object', length=450)",True,5000,True,100,0b23a71d81,0.0,1.0
./expes/v3_2021-02-09_hi_2000-prng-1-w5-p100,30_issda-2000,2000,first-2000,300,15,rng,num-start-11,11,25726,classic,5001.453528404236,False,,False,0,,,0,"Index(['4', '7', '11', '19', '24', '27', '38', '45', '47', '60',
       ...
       '1960', '1966', '1967', '1970', '1977', '1980', '1984', '1992', '1998',
       '1999'],
      dtype='object', length=300)",True,5000,True,100,da58175876,0.0,0.0
./expes/v3_2021-02-09_hi_2000-prng-1-w5-p100,30_issda-2000,2000,first-2000,700,35,rng,num-start-161,161,25726,classic,5013.302441596985,False,,False,0,,,0,"Index(['2', '7', '8', '11', '12', '14', '15', '17', '18', '20',
       ...
       '1976', '1980', '1982', '1984', '1985', '1988', '1992', '1997', '1998',
       '2000'],
      dtype='object', length=700)",True,5000,True,100,c84af01a8c,0.0,0.0
./expes/v3_2021-02-09_hi_2000-prng-1-w5-p100,30_issda-2000,2000,first-2000,250,12,rng,num-start-71,71,25726,classic,5005.938676357269,False,,False,0,,,0,"Index(['6', '15', '18', '34', '35', '47', '51', '54', '81', '84',
       ...
       '1938', '1946', '1954', '1957', '1959', '1960', '1963', '1977', '1983',
       '1989'],
      dtype='object', length=250)",True,5000,True,100,32d66bb8fc,0.0,0.0
./expes/v3_2021-02-09_hi_2000-prng-1-w5-p100,30_issda-2000,2000,first-2000,300,15,rng,num-start-191,191,25726,classic,5014.955845117569,False,,False,0,,,0,"Index(['12', '13', '14', '18', '23', '38', '94', '120', '133', '156',
       ...
       '1910', '1919', '1934', '1938', '1946', '1950', '1962', '1981', '1993',
       '1999'],
      dtype='object', length=300)",True,5000,True,100,d4df5ccb36,0.0,0.0
./expes/v3_2021-02-09_hi_2000-prng-1-w5-p100,30_issda-2000,2000,first-2000,50,2,rng,num-start-21,21,25726,classic,5001.7439057827,False,,False,0,,,0,"Index(['30', '62', '146', '174', '259', '267', '286', '301', '302', '381',
       '384', '439', '462', '473', '526', '531', '538', '565', '596', '604',
       '884', '895', '924', '1089', '1247', '1313', '1336', '1365', '1401',
       '1402', '1404', '1504', '1526', '1626', '1627', '1643', '1651', '1659',
       '1693', '1709', '1716', '1733', '1740', '1781', '1785', '1797', '1820',
       '1823', '1863', '1945'],
      dtype='object')",True,5000,True,100,0d8337aad9,0.0,0.0
./expes/v3_2021-02-09_hi_2000-prng-1-w5-p100,30_issda-2000,2000,first-2000,950,47,rng,num-start-1,1,25726,classic,4.837633848190308,False,,False,0.2906800596200088,0.28427929465186497,0.2976848119884806,100,"Index(['1', '3', '4', '6', '7', '10', '11', '13', '14', '20',
       ...
       '1987', '1988', '1989', '1990', '1992', '1994', '1995', '1997', '1998',
       '2000'],
      dtype='object', length=950)",False,5000,True,100,d791bc527e,1.0,1.0
./expes/v3_2021-02-09_hi_2000-prng-1-w5-p100,30_issda-2000,2000,first-2000,900,45,rng,num-start-271,271,25726,classic,5021.021229505539,False,,False,0,,,0,"Index(['2', '7', '8', '11', '12', '14', '15', '17', '18', '19',
       ...
       '1985', '1986', '1988', '1991', '1992', '1994', '1995', '1997', '1998',
       '2000'],
      dtype='object', length=900)",True,5000,True,100,10aab7fcd6,0.0,0.0
./expes/v3_2021-02-09_hi_2000-prng-1-w5-p100,30_issda-2000,2000,first-2000,200,10,rng,num-start-9800,9800,25726,classic,5343.887500762939,True,,True,1.0,1.0,1.0,1,"Index(['5', '7', '30', '62', '80', '88', '89', '142', '146', '151',
       ...
       '1840', '1845', '1847', '1857', '1863', '1911', '1945', '1954', '1989',
       '1990'],
      dtype='object', length=200)",False,5000,True,100,e9c03478df,1.0,1.0
./expes/v3_2021-02-09_hi_2000-prng-1-w5-p100,30_issda-2000,2000,first-2000,100,5,rng,num-start-171,171,25726,classic,5013.882362127304,False,,False,0,,,0,"Index(['8', '11', '14', '17', '49', '84', '89', '106', '113', '130', '166',
       '172', '180', '209', '228', '230', '249', '272', '284', '285', '322',
       '345', '347', '382', '405', '409', '416', '420', '430', '460', '485',
       '488', '547', '548', '576', '597', '677', '685', '693', '700', '765',
       '776', '777', '786', '813', '843', '864', '866', '870', '926', '949',
       '950', '1008', '1030', '1037', '1136', '1186', '1210', '1223', '1239',
       '1256', '1263', '1381', '1386', '1410', '1434', '1441', '1452', '1485',
       '1487', '1492', '1508', '1529', '1566', '1583', '1586', '1618', '1625',
       '1658', '1733', '1743', '1746', '1775', '1786', '1801', '1816', '1818',
       '1822', '1828', '1834', '1835', '1840', '1857', '1867', '1883', '1893',
       '1918', '1938', '1949', '1975'],
      dtype='object')",True,5000,True,100,7f2f9b3154,0.0,0.0
./expes/v3_2021-02-09_hi_2000-prng-1-w5-p100,30_issda-2000,2000,first-2000,850,42,rng,num-start-91,91,25726,classic,5007.868307828903,False,,False,0,,,0,"Index(['2', '4', '6', '7', '10', '12', '15', '17', '18', '20',
       ...
       '1984', '1986', '1988', '1989', '1990', '1991', '1994', '1995', '1997',
       '1998'],
      dtype='object', length=850)",True,5000,True,100,9e44b91b1f,0.0,0.0
./expes/v3_2021-02-09_hi_2000-prng-1-w5-p100,30_issda-2000,2000,first-2000,1000,50,rng,num-start-71,71,25726,classic,5005.948865890503,False,,False,0,,,0,"Index(['1', '2', '3', '5', '7', '8', '9', '10', '12', '13',
       ...
       '1985', '1986', '1987', '1988', '1989', '1990', '1991', '1993', '1995',
       '1996'],
      dtype='object', length=1000)",True,5000,True,100,22a4859783,0.0,0.0
./expes/v3_2021-02-09_hi_2000-prng-1-w5-p100,30_issda-2000,2000,first-2000,50,2,rng,num-start-300,300,25726,classic,140.51159191131592,True,,True,1.0,1.0,1.0,1,"Index(['31', '74', '86', '122', '130', '186', '193', '291', '323', '379',
       '382', '389', '390', '496', '622', '812', '915', '926', '927', '928',
       '954', '975', '1041', '1049', '1083', '1104', '1147', '1203', '1220',
       '1258', '1261', '1277', '1290', '1300', '1332', '1340', '1421', '1514',
       '1600', '1625', '1647', '1659', '1704', '1752', '1755', '1774', '1802',
       '1824', '1893', '1976'],
      dtype='object')",False,5000,True,100,f9f0d4c9e2,1.0,1.0
./expes/v3_2021-02-09_hi_2000-prng-1-w5-p100,30_issda-2000,2000,first-2000,1000,50,rng,num-start-13300,13300,25726,classic,6083.011513471603,True,,False,1.0,1.0,1.0,1,"Index(['1', '2', '10', '11', '14', '20', '22', '23', '24', '25',
       ...
       '1980', '1981', '1982', '1984', '1986', '1987', '1989', '1993', '1994',
       '1997'],
      dtype='object', length=1000)",True,5000,True,100,c7e9b79a5b,0.0,1.0
./expes/v3_2021-02-09_hi_2000-prng-1-w5-p100,30_issda-2000,2000,first-2000,950,47,rng,num-start-21,21,25726,classic,5002.05895113945,False,,False,0,,,0,"Index(['2', '4', '5', '8', '9', '12', '16', '18', '19', '21',
       ...
       '1990', '1992', '1993', '1994', '1995', '1996', '1997', '1998', '1999',
       '2000'],
      dtype='object', length=950)",True,5000,True,100,a091b8ba0b,0.0,0.0
./expes/v3_2021-02-09_hi_2000-prng-1-w5-p100,30_issda-2000,2000,first-2000,500,25,rng,num-start-141,141,25726,classic,5011.357161998749,False,,False,0,,,0,"Index(['2', '4', '7', '11', '19', '24', '27', '28', '34', '38',
       ...
       '1970', '1976', '1977', '1980', '1983', '1984', '1992', '1998', '1999',
       '2000'],
      dtype='object', length=500)",True,5000,True,100,7c16fab9ac,0.0,0.0
./expes/v3_2021-02-09_hi_2000-prng-1-w5-p100,30_issda-2000,2000,first-2000,450,22,rng,num-start-12800,12800,25726,classic,6063.201445817947,True,,False,1.0,1.0,1.0,1,"Index(['5', '7', '8', '9', '11', '12', '30', '32', '46', '56',
       ...
       '1949', '1951', '1954', '1963', '1965', '1970', '1982', '1987', '1989',
       '1990'],
      dtype='object', length=450)",True,5000,True,100,8d1112e6f5,0.0,1.0
./expes/v3_2021-02-09_hi_2000-prng-1-w5-p100,30_issda-2000,2000,first-2000,500,25,rng,num-start-21,21,25726,classic,5002.042887926102,False,,False,0,,,0,"Index(['4', '8', '10', '15', '16', '24', '27', '32', '37', '41',
       ...
       '1973', '1975', '1976', '1978', '1985', '1989', '1990', '1991', '1993',
       '1997'],
      dtype='object', length=500)",True,5000,True,100,e8fdcbbee2,0.0,0.0
./expes/v3_2021-02-09_hi_2000-prng-1-w5-p100,30_issda-2000,2000,first-2000,300,15,rng,num-start-7300,7300,25726,classic,4648.218423604965,True,,True,1.0,1.0,1.0,1,"Index(['6', '9', '11', '16', '31', '52', '66', '67', '68', '71',
       ...
       '1941', '1951', '1952', '1971', '1974', '1984', '1986', '1987', '1988',
       '1995'],
      dtype='object', length=300)",False,5000,True,100,98d71f1e1b,1.0,1.0
./expes/v3_2021-02-09_hi_2000-prng-1-w5-p100,30_issda-2000,2000,first-2000,750,37,rng,num-start-12800,12800,25726,classic,6055.291895151138,True,,False,1.0,1.0,1.0,1,"Index(['1', '3', '7', '8', '9', '12', '13', '16', '19', '21',
       ...
       '1984', '1985', '1986', '1987', '1988', '1989', '1991', '1993', '1995',
       '1996'],
      dtype='object', length=750)",True,5000,True,100,4ed80fc9cb,0.0,1.0
