expe,clients,clients_size,clients_subset,agg_size,agg_size_pc,method,days,days_size,days_total,noise_method,time,valid,valid_sum,success,score_avg,score_min,score_max,nsols,oracle,wall_hit,wall_time,pooled,pool_size,uuid,optimal,valid_sums
./expes/v3_2021-02-09_hi_2000-prng-1-w5-p100,30_issda-2000,2000,first-2000,500,25,rng,num-start-231,231,25726,classic,5044.331076383591,False,,False,0,,,0,"Index(['5', '6', '15', '18', '26', '34', '35', '37', '39', '45',
       ...
       '1974', '1977', '1978', '1979', '1981', '1983', '1984', '1987', '1989',
       '1993'],
      dtype='object', length=500)",True,5000,True,100,8734cab341,0.0,0.0
./expes/v3_2021-02-09_hi_2000-prng-1-w5-p100,30_issda-2000,2000,first-2000,950,47,rng,num-start-131,131,25726,classic,5031.032598257065,False,,False,0,,,0,"Index(['2', '4', '6', '7', '10', '12', '15', '17', '18', '20',
       ...
       '1984', '1986', '1988', '1989', '1990', '1991', '1994', '1995', '1997',
       '1998'],
      dtype='object', length=950)",True,5000,True,100,ef94a9c96d,0.0,0.0
./expes/v3_2021-02-09_hi_2000-prng-1-w5-p100,30_issda-2000,2000,first-2000,650,32,rng,num-start-281,281,25726,classic,5052.216402292252,False,,False,0,,,0,"Index(['4', '7', '9', '10', '11', '18', '22', '24', '33', '36',
       ...
       '1970', '1971', '1973', '1980', '1981', '1985', '1988', '1989', '1992',
       '1995'],
      dtype='object', length=650)",True,5000,True,100,b28482e850,0.0,0.0
./expes/v3_2021-02-09_hi_2000-prng-1-w5-p100,30_issda-2000,2000,first-2000,500,25,rng,num-start-11,11,25726,classic,5002.212205886841,False,,False,0,,,0,"Index(['6', '9', '11', '16', '31', '33', '34', '52', '64', '66',
       ...
       '1971', '1973', '1974', '1976', '1984', '1986', '1987', '1988', '1995',
       '1997'],
      dtype='object', length=500)",True,5000,True,100,21d3da5320,0.0,0.0
