expe,clients,clients_size,clients_subset,agg_size,method,days,days_size,days_total,time,valid,valid_sum,success,nsols,wall_hit,wall_time,pooled,valid_sums
./expes/v2_2020-12-01_dh_3000-prng-1,30_issda_2000,2000,rng-2000,501,rng,num-start-2001,2001,25726,1260.7667818069458,False,,False,1,True,1000,True,0.0
./expes/v2_2020-12-01_dh_3000-prng-1,30_issda_2000,2000,rng-2000,501,rng,num-start-16001,16001,25726,3144.22092795372,False,,False,1,True,1000,True,0.0
./expes/v2_2020-12-01_dh_3000-prng-1,30_issda_2000,2000,rng-2000,1,rng,num-start-3001,3001,25726,390.5034806728363,True,,True,1,False,1000,True,1.0
./expes/v2_2020-12-01_dh_3000-prng-1,30_issda_2000,2000,rng-2000,1001,rng,num-start-14001,14001,25726,2833.805081129074,False,,False,1,True,1000,True,0.0
./expes/v2_2020-12-01_dh_3000-prng-1,30_issda_2000,2000,rng-2000,1501,rng,num-start-6001,6001,25726,1785.4623069763184,False,,False,1,True,1000,True,0.0
./expes/v2_2020-12-01_dh_3000-prng-1,30_issda_2000,2000,rng-2000,501,rng,num-start-5001,5001,25726,1655.0489590168,False,,False,1,True,1000,True,0.0
./expes/v2_2020-12-01_dh_3000-prng-1,30_issda_2000,2000,rng-2000,1001,rng,num-start-11001,11001,25726,2434.4691545963287,False,,False,1,True,1000,True,0.0
./expes/v2_2020-12-01_dh_3000-prng-1,30_issda_2000,2000,rng-2000,1501,rng,num-start-8001,8001,25726,2030.4219288825989,False,,False,1,True,1000,True,0.0
./expes/v2_2020-12-01_dh_3000-prng-1,30_issda_2000,2000,rng-2000,1001,rng,num-start-2001,2001,25726,1259.02787566185,False,,False,1,True,1000,True,0.0
./expes/v2_2020-12-01_dh_3000-prng-1,30_issda_2000,2000,rng-2000,1001,rng,num-start-4001,4001,25726,1518.9106919765472,False,,False,1,True,1000,True,0.0
./expes/v2_2020-12-01_dh_3000-prng-1,30_issda_2000,2000,rng-2000,501,rng,num-start-11001,11001,25726,2440.681932926178,False,,False,1,True,1000,True,0.0
./expes/v2_2020-12-01_dh_3000-prng-1,30_issda_2000,2000,rng-2000,1001,rng,num-start-7001,7001,25726,1927.5027210712433,False,,False,1,True,1000,True,0.0
./expes/v2_2020-12-01_dh_3000-prng-1,30_issda_2000,2000,rng-2000,1,rng,num-start-7001,7001,25726,915.2544615268707,True,,True,1,False,1000,True,1.0
./expes/v2_2020-12-01_dh_3000-prng-1,30_issda_2000,2000,rng-2000,1,rng,num-start-7001,7001,25726,912.8472950458527,True,,True,1,False,1000,True,1.0
./expes/v2_2020-12-01_dh_3000-prng-1,30_issda_2000,2000,rng-2000,1,rng,num-start-12001,12001,25726,1570.8358047008514,True,,True,1,False,1000,True,1.0
./expes/v2_2020-12-01_dh_3000-prng-1,30_issda_2000,2000,rng-2000,1,rng,num-start-10001,10001,25726,1307.2587859630585,True,,True,1,False,1000,True,1.0
./expes/v2_2020-12-01_dh_3000-prng-1,30_issda_2000,2000,rng-2000,501,rng,num-start-4001,4001,25726,1522.1353719234467,False,,False,1,True,1000,True,0.0
./expes/v2_2020-12-01_dh_3000-prng-1,30_issda_2000,2000,rng-2000,1,rng,num-start-6001,6001,25726,787.9464998245239,True,,True,1,False,1000,True,1.0
./expes/v2_2020-12-01_dh_3000-prng-1,30_issda_2000,2000,rng-2000,1501,rng,num-start-12001,12001,25726,2565.4323086738586,False,,False,1,True,1000,True,0.0
./expes/v2_2020-12-01_dh_3000-prng-1,30_issda_2000,2000,rng-2000,1,rng,num-start-9001,9001,25726,1188.8645708560944,True,,True,1,False,1000,True,1.0
./expes/v2_2020-12-01_dh_3000-prng-1,30_issda_2000,2000,rng-2000,501,rng,num-start-13001,13001,25726,2707.492468357086,False,,False,1,True,1000,True,0.0
./expes/v2_2020-12-01_dh_3000-prng-1,30_issda_2000,2000,rng-2000,1001,rng,num-start-15001,15001,25726,2950.532027244568,False,,False,1,True,1000,True,0.0
