expe,clients,clients_size,clients_subset,agg_size,method,days,days_size,days_total,time,valid,valid_sum,success,nsols,wall_hit,wall_time,pooled,valid_sums
./expes/v2_2020-12-01_dh_3000-prng-1,30_issda_2000,2000,rng-2000,1001,rng,num-start-7001,7001,25726,1886.6974065303802,False,,False,1,True,1000,True,0.0
./expes/v2_2020-12-01_dh_3000-prng-1,30_issda_2000,2000,rng-2000,501,rng,num-start-6001,6001,25726,1729.5826008319855,False,,False,1,True,1000,True,0.0
./expes/v2_2020-12-01_dh_3000-prng-1,30_issda_2000,2000,rng-2000,1001,rng,num-start-10001,10001,25726,2224.006735563278,False,,False,1,True,1000,True,0.0
./expes/v2_2020-12-01_dh_3000-prng-1,30_issda_2000,2000,rng-2000,1501,rng,num-start-11001,11001,25726,2319.1839878559113,False,,False,1,True,1000,True,0.0
./expes/v2_2020-12-01_dh_3000-prng-1,30_issda_2000,2000,rng-2000,501,rng,num-start-5001,5001,25726,1617.456758737564,False,,False,1,True,1000,True,0.0
./expes/v2_2020-12-01_dh_3000-prng-1,30_issda_2000,2000,rng-2000,1001,rng,num-start-9001,9001,25726,2071.3475902080536,False,,False,1,True,1000,True,0.0
./expes/v2_2020-12-01_dh_3000-prng-1,30_issda_2000,2000,rng-2000,501,rng,num-start-8001,8001,25726,2003.0510876178741,False,,False,1,True,1000,True,0.0
./expes/v2_2020-12-01_dh_3000-prng-1,30_issda_2000,2000,rng-2000,1001,rng,num-start-5001,5001,25726,1601.8557152748108,False,,False,1,True,1000,True,0.0
./expes/v2_2020-12-01_dh_3000-prng-1,30_issda_2000,2000,rng-2000,1001,rng,num-start-7001,7001,25726,1883.3117570877075,False,,False,1,True,1000,True,0.0
./expes/v2_2020-12-01_dh_3000-prng-1,30_issda_2000,2000,rng-2000,1001,rng,num-start-11001,11001,25726,2362.7652683258057,False,,False,1,True,1000,True,0.0
./expes/v2_2020-12-01_dh_3000-prng-1,30_issda_2000,2000,rng-2000,1,rng,num-start-8001,8001,25726,995.7705788612366,True,,True,1,False,1000,True,1.0
./expes/v2_2020-12-01_dh_3000-prng-1,30_issda_2000,2000,rng-2000,501,rng,num-start-4001,4001,25726,1495.7311382293701,False,,False,1,True,1000,True,0.0
./expes/v2_2020-12-01_dh_3000-prng-1,30_issda_2000,2000,rng-2000,1501,rng,num-start-7001,7001,25726,1854.1228580474854,False,,False,1,True,1000,True,0.0
./expes/v2_2020-12-01_dh_3000-prng-1,30_issda_2000,2000,rng-2000,1501,rng,num-start-5001,5001,25726,1603.7144989967346,False,,False,1,True,1000,True,0.0
./expes/v2_2020-12-01_dh_3000-prng-1,30_issda_2000,2000,rng-2000,1501,rng,num-start-7001,7001,25726,1872.175270318985,False,,False,1,True,1000,True,0.0
./expes/v2_2020-12-01_dh_3000-prng-1,30_issda_2000,2000,rng-2000,501,rng,num-start-1001,1001,25726,1119.9033479690552,False,,False,1,True,1000,True,0.0
./expes/v2_2020-12-01_dh_3000-prng-1,30_issda_2000,2000,rng-2000,1501,rng,num-start-3001,3001,25726,1367.002691268921,False,,False,1,True,1000,True,0.0
./expes/v2_2020-12-01_dh_3000-prng-1,30_issda_2000,2000,rng-2000,1,rng,num-start-2001,2001,25726,246.03853011131287,True,,True,1,False,1000,True,1.0
./expes/v2_2020-12-01_dh_3000-prng-1,30_issda_2000,2000,rng-2000,1,rng,num-start-7001,7001,25726,886.3428711891174,True,,True,1,False,1000,True,1.0
./expes/v2_2020-12-01_dh_3000-prng-1,30_issda_2000,2000,rng-2000,1,rng,num-start-6001,6001,25726,744.5545494556427,True,,True,1,False,1000,True,1.0
./expes/v2_2020-12-01_dh_3000-prng-1,30_issda_2000,2000,rng-2000,501,rng,num-start-11001,11001,25726,2358.9300174713135,False,,False,1,True,1000,True,0.0
./expes/v2_2020-12-01_dh_3000-prng-1,30_issda_2000,2000,rng-2000,1001,rng,num-start-10001,10001,25726,2224.2658364772797,False,,False,1,True,1000,True,0.0
./expes/v2_2020-12-01_dh_3000-prng-1,30_issda_2000,2000,rng-2000,1,rng,num-start-5001,5001,25726,627.6056807041168,True,,True,1,False,1000,True,1.0
