,expe,clients,clients_size,clients_subset,agg_size,agg_size_pc,method,days,days_size,days_total,noise_method,time,valid,valid_sum,success,score_avg,score_min,score_max,nsols,oracle,wall_hit,wall_time,pooled,pool_size,optimal,valid_sums,uuid
0,./expes/v3_2021-01-29_di_300-prng-1-w1-p100,daily_issda-300,300,first-300,28,9,rng,num-start-51,51,536,classic,8.92201542854309,True,,True,1.0,1.0,1.0,1,"Index(['8', '16', '19', '22', '31', '33', '47', '49', '73', '81', '95', '96',
       '98', '124', '156', '168', '203', '226', '229', '232', '238', '239',
       '244', '261', '263', '271', '276', '287'],
      dtype='object')",False,1000,True,100,1.0,1.0,5398f849d1
1,./expes/v3_2021-01-29_di_300-prng-1-w1-p100,daily_issda-300,300,first-300,21,7,rng,num-start-1,1,536,classic,238.641706943512,False,,True,0.6501476612224999,0.6252090883909414,0.6939845021084181,10000,"Index(['12', '23', '56', '62', '76', '103', '104', '134', '138', '149', '160',
       '167', '168', '178', '202', '211', '262', '267', '271', '292', '300'],
      dtype='object')",False,1000,True,100,1.0,1.0,c1b8701f06
2,./expes/v3_2021-01-29_di_300-prng-1-w1-p100,daily_issda-300,300,first-300,133,44,rng,num-start-221,221,536,classic,6.9071364402771,True,,True,1.0,1.0,1.0,1,"Index(['3', '7', '12', '20', '21', '24', '25', '26', '28', '30',
       ...
       '289', '290', '293', '294', '295', '296', '297', '298', '299', '300'],
      dtype='object', length=133)",False,1000,True,100,1.0,1.0,5a70a15d5b
3,./expes/v3_2021-01-29_di_300-prng-1-w1-p100,daily_issda-300,300,first-300,133,44,rng,num-start-271,271,536,classic,8.385129451751709,True,,True,1.0,1.0,1.0,1,"Index(['3', '4', '5', '6', '7', '8', '11', '12', '15', '16',
       ...
       '268', '270', '274', '277', '278', '284', '289', '294', '297', '299'],
      dtype='object', length=133)",False,1000,True,100,1.0,1.0,990e6c2d1a
4,./expes/v3_2021-01-29_di_300-prng-1-w1-p100,daily_issda-300,300,first-300,7,2,rng,num-start-31,31,536,classic,0.8927340507507324,True,,True,1.0,1.0,1.0,1,"Index(['95', '98', '232', '239', '261', '263', '287'], dtype='object')",False,1000,True,100,1.0,1.0,cfddf0c473
5,./expes/v3_2021-01-29_di_300-prng-1-w1-p100,daily_issda-300,300,first-300,21,7,rng,num-start-141,141,536,classic,4.189295530319214,True,,True,1.0,1.0,1.0,1,"Index(['7', '34', '67', '78', '99', '119', '120', '122', '133', '190', '200',
       '204', '241', '243', '244', '268', '277', '279', '282', '283', '298'],
      dtype='object')",False,1000,True,100,1.0,1.0,a9da4314b5
6,./expes/v3_2021-01-29_di_300-prng-1-w1-p100,daily_issda-300,300,first-300,70,23,rng,num-start-31,31,536,classic,1000.7620599269868,False,,False,0.0,,,0,"Index(['4', '41', '46', '48', '52', '59', '61', '63', '68', '75', '76', '78',
       '83', '87', '90', '93', '94', '98', '101', '102', '103', '104', '105',
       '106', '111', '113', '121', '122', '123', '128', '130', '133', '136',
       '139', '140', '145', '152', '154', '156', '167', '172', '174', '176',
       '178', '181', '188', '208', '209', '224', '230', '235', '241', '245',
       '246', '251', '252', '253', '254', '257', '260', '263', '268', '270',
       '274', '276', '279', '283', '291', '294', '295'],
      dtype='object')",True,1000,True,100,0.0,0.0,eea0ed635d
7,./expes/v3_2021-01-29_di_300-prng-1-w1-p100,daily_issda-300,300,first-300,126,42,rng,num-start-261,261,536,classic,7.925854921340942,True,,True,1.0,1.0,1.0,1,"Index(['1', '8', '9', '12', '14', '17', '19', '20', '21', '24',
       ...
       '279', '281', '283', '287', '291', '292', '294', '295', '297', '299'],
      dtype='object', length=126)",False,1000,True,100,1.0,1.0,d7e3bf4f40
8,./expes/v3_2021-01-29_di_300-prng-1-w1-p100,daily_issda-300,300,first-300,7,2,rng,num-start-61,61,536,classic,1.5614633560180664,True,,True,1.0,1.0,1.0,1,"Index(['63', '93', '102', '123', '172', '230', '251'], dtype='object')",False,1000,True,100,1.0,1.0,2712764cca
9,./expes/v3_2021-01-29_di_300-prng-1-w1-p100,daily_issda-300,300,first-300,126,42,rng,num-start-101,101,536,classic,1002.0674831867218,False,,False,0.0,,,0,"Index(['2', '7', '9', '11', '14', '16', '17', '18', '20', '23',
       ...
       '273', '277', '280', '286', '289', '292', '294', '297', '298', '300'],
      dtype='object', length=126)",True,1000,True,100,0.0,0.0,110a320008
10,./expes/v3_2021-01-29_di_300-prng-1-w1-p100,daily_issda-300,300,first-300,84,28,rng,num-start-1,1,536,classic,431.6053166389465,False,,True,0.3723669030774275,0.325574690326824,0.4216850680337598,10000,"Index(['2', '4', '9', '12', '14', '23', '24', '35', '37', '38', '40', '47',
       '51', '52', '54', '56', '59', '62', '66', '69', '71', '76', '82', '88',
       '94', '99', '103', '104', '107', '108', '120', '126', '134', '135',
       '138', '146', '149', '151', '154', '155', '158', '160', '167', '168',
       '178', '189', '193', '199', '200', '202', '203', '207', '209', '211',
       '213', '216', '217', '220', '225', '226', '231', '232', '233', '234',
       '235', '237', '238', '239', '244', '246', '253', '257', '258', '262',
       '267', '271', '278', '280', '281', '292', '293', '296', '297', '300'],
      dtype='object')",False,1000,True,100,1.0,1.0,32272ef6d2
11,./expes/v3_2021-01-29_di_300-prng-1-w1-p100,daily_issda-300,300,first-300,21,7,rng,num-start-141,141,536,classic,3.76074743270874,True,,True,1.0,1.0,1.0,1,"Index(['20', '25', '30', '36', '38', '45', '47', '49', '78', '110', '124',
       '166', '188', '203', '215', '218', '223', '260', '275', '283', '299'],
      dtype='object')",False,1000,True,100,1.0,1.0,9dd765f79b
12,./expes/v3_2021-01-29_di_300-prng-1-w1-p100,daily_issda-300,300,first-300,21,7,rng,num-start-231,231,536,classic,5.485698223114014,True,,True,1.0,1.0,1.0,1,"Index(['12', '23', '56', '62', '76', '103', '104', '134', '138', '149', '160',
       '167', '168', '178', '202', '211', '262', '267', '271', '292', '300'],
      dtype='object')",False,1000,True,100,1.0,1.0,89b57bc52b
13,./expes/v3_2021-01-29_di_300-prng-1-w1-p100,daily_issda-300,300,first-300,84,28,rng,num-start-111,111,536,classic,7.841078758239746,True,,True,1.0,1.0,1.0,1,"Index(['2', '8', '16', '20', '22', '23', '37', '38', '44', '58', '61', '65',
       '67', '68', '70', '71', '72', '73', '76', '82', '85', '91', '92', '94',
       '96', '99', '100', '104', '109', '110', '116', '119', '120', '121',
       '122', '129', '130', '132', '133', '135', '142', '144', '149', '151',
       '152', '161', '175', '178', '180', '183', '184', '187', '188', '191',
       '192', '200', '203', '212', '218', '220', '221', '224', '226', '228',
       '230', '231', '236', '238', '250', '252', '255', '267', '268', '273',
       '275', '282', '284', '285', '289', '290', '292', '296', '298', '299'],
      dtype='object')",False,1000,True,100,1.0,1.0,e4845978cd
14,./expes/v3_2021-01-29_di_300-prng-1-w1-p100,daily_issda-300,300,first-300,42,14,rng,num-start-51,51,536,classic,1001.035495519638,False,,False,0.0,,,0,"Index(['11', '16', '23', '30', '33', '44', '45', '46', '50', '56', '59', '65',
       '71', '99', '108', '117', '120', '121', '127', '133', '137', '174',
       '190', '193', '194', '195', '198', '200', '206', '207', '209', '233',
       '236', '243', '249', '250', '254', '255', '260', '265', '267', '294'],
      dtype='object')",True,1000,True,100,0.0,0.0,7750145ab2
15,./expes/v3_2021-01-29_di_300-prng-1-w1-p100,daily_issda-300,300,first-300,56,18,rng,num-start-41,41,536,classic,1000.945618867874,False,,False,0.0,,,0,"Index(['1', '8', '21', '32', '33', '38', '42', '47', '48', '49', '51', '52',
       '72', '73', '76', '98', '105', '112', '114', '123', '125', '129', '133',
       '134', '145', '156', '159', '162', '164', '167', '170', '171', '182',
       '184', '198', '205', '208', '216', '223', '227', '230', '242', '245',
       '249', '253', '259', '261', '262', '267', '273', '279', '281', '283',
       '287', '291', '299'],
      dtype='object')",True,1000,True,100,0.0,0.0,5a0b2230ed
16,./expes/v3_2021-01-29_di_300-prng-1-w1-p100,daily_issda-300,300,first-300,14,4,rng,num-start-121,121,536,classic,3.027718544006348,True,,True,1.0,1.0,1.0,1,"Index(['20', '25', '30', '38', '45', '49', '78', '110', '166', '188', '203',
       '260', '275', '299'],
      dtype='object')",False,1000,True,100,1.0,1.0,9ab14f9617
17,./expes/v3_2021-01-29_di_300-prng-1-w1-p100,daily_issda-300,300,first-300,56,18,rng,num-start-11,11,536,classic,1000.3147332668304,False,,False,0.0,,,0,"Index(['1', '8', '21', '32', '33', '38', '42', '47', '48', '49', '51', '52',
       '72', '73', '76', '98', '105', '112', '114', '123', '125', '129', '133',
       '134', '145', '156', '159', '162', '164', '167', '170', '171', '182',
       '184', '198', '205', '208', '216', '223', '227', '230', '242', '245',
       '249', '253', '259', '261', '262', '267', '273', '279', '281', '283',
       '287', '291', '299'],
      dtype='object')",True,1000,True,100,0.0,0.0,eea4ad4eb9
18,./expes/v3_2021-01-29_di_300-prng-1-w1-p100,daily_issda-300,300,first-300,70,23,rng,num-start-11,11,536,classic,1000.2772705554962,False,,False,0.0,,,0,"Index(['2', '5', '12', '14', '15', '16', '18', '33', '45', '49', '52', '53',
       '56', '61', '62', '69', '84', '89', '96', '98', '108', '111', '113',
       '114', '118', '119', '120', '125', '131', '137', '146', '149', '152',
       '156', '163', '171', '177', '188', '190', '192', '195', '196', '200',
       '202', '207', '213', '214', '217', '222', '225', '229', '231', '236',
       '242', '246', '250', '251', '254', '256', '257', '259', '260', '261',
       '267', '271', '278', '281', '284', '285', '292'],
      dtype='object')",True,1000,True,100,0.0,0.0,5349cd90f0
19,./expes/v3_2021-01-29_di_300-prng-1-w1-p100,daily_issda-300,300,first-300,35,11,rng,num-start-1,1,536,classic,312.87085151672363,False,,True,0.5511823800785978,0.5301747282731831,0.5993316620234934,10000,"Index(['7', '8', '16', '22', '33', '34', '67', '69', '78', '82', '99', '119',
       '120', '122', '133', '138', '155', '188', '190', '199', '200', '203',
       '204', '219', '228', '241', '243', '244', '268', '277', '279', '282',
       '283', '296', '298'],
      dtype='object')",False,1000,True,100,1.0,1.0,d4e0b99aa9
20,./expes/v3_2021-01-29_di_300-prng-1-w1-p100,daily_issda-300,300,first-300,7,2,rng,num-start-71,71,536,classic,1.832942008972168,True,,True,1.0,1.0,1.0,1,"Index(['34', '67', '122', '190', '243', '279', '298'], dtype='object')",False,1000,True,100,1.0,1.0,e150ef2015
21,./expes/v3_2021-01-29_di_300-prng-1-w1-p100,daily_issda-300,300,first-300,126,42,rng,num-start-111,111,536,classic,10.000590801239014,True,,True,1.0,1.0,1.0,1,"Index(['1', '2', '3', '5', '7', '8', '9', '12', '14', '15',
       ...
       '281', '282', '283', '284', '285', '288', '292', '296', '297', '300'],
      dtype='object', length=126)",False,1000,True,100,1.0,1.0,9a58154afb
22,./expes/v3_2021-01-29_di_300-prng-1-w1-p100,daily_issda-300,300,first-300,14,4,rng,num-start-121,121,536,classic,3.227772951126098,True,,True,1.0,1.0,1.0,1,"Index(['19', '29', '44', '47', '82', '87', '109', '129', '158', '185', '202',
       '221', '261', '298'],
      dtype='object')",False,1000,True,100,1.0,1.0,afe939059c
23,./expes/v3_2021-01-29_di_300-prng-1-w1-p100,daily_issda-300,300,first-300,7,2,rng,num-start-271,271,536,classic,6.583255529403687,True,,True,1.0,1.0,1.0,1,"Index(['33', '61', '69', '131', '231', '254', '292'], dtype='object')",False,1000,True,100,1.0,1.0,1383fa85bc
24,./expes/v3_2021-01-29_di_300-prng-1-w1-p100,daily_issda-300,300,first-300,42,14,rng,num-start-11,11,536,classic,1000.4085593223572,False,,False,0.0,,,0,"Index(['10', '14', '27', '32', '36', '42', '57', '64', '71', '72', '73', '78',
       '90', '101', '108', '128', '130', '143', '149', '156', '159', '163',
       '170', '173', '182', '188', '191', '197', '206', '210', '213', '215',
       '222', '243', '257', '260', '268', '273', '277', '283', '287', '293'],
      dtype='object')",True,1000,True,100,0.0,0.0,49a59d2d90
25,./expes/v3_2021-01-29_di_300-prng-1-w1-p100,daily_issda-300,300,first-300,7,2,rng,num-start-141,141,536,classic,4.405157089233398,True,,True,1.0,1.0,1.0,1,"Index(['90', '149', '156', '188', '213', '268', '277'], dtype='object')",False,1000,True,100,1.0,1.0,83b44e48b8
26,./expes/v3_2021-01-29_di_300-prng-1-w1-p100,daily_issda-300,300,first-300,7,2,rng,num-start-191,191,536,classic,4.848604679107666,True,,True,1.0,1.0,1.0,1,"Index(['63', '93', '102', '123', '172', '230', '251'], dtype='object')",False,1000,True,100,1.0,1.0,7338a73b7c
27,./expes/v3_2021-01-29_di_300-prng-1-w1-p100,daily_issda-300,300,first-300,105,35,rng,num-start-61,61,536,classic,1001.297125339508,False,,False,0.0,,,0,"Index(['4', '6', '7', '8', '11', '15', '16', '17', '19', '22',
       ...
       '282', '283', '287', '292', '293', '294', '296', '297', '298', '300'],
      dtype='object', length=105)",True,1000,True,100,0.0,0.0,28f0b2f477
28,./expes/v3_2021-01-29_di_300-prng-1-w1-p100,daily_issda-300,300,first-300,7,2,rng,num-start-271,271,536,classic,5.974078178405762,True,,True,1.0,1.0,1.0,1,"Index(['23', '44', '65', '99', '117', '190', '193'], dtype='object')",False,1000,True,100,1.0,1.0,3b07ffda3c
29,./expes/v3_2021-01-29_di_300-prng-1-w1-p100,daily_issda-300,300,first-300,35,11,rng,num-start-21,21,536,classic,1001.9762756824492,False,,False,0.0,,,0,"Index(['6', '9', '19', '29', '41', '60', '76', '81', '106', '107', '115',
       '118', '119', '123', '135', '144', '157', '161', '174', '177', '182',
       '183', '185', '189', '201', '215', '216', '234', '237', '239', '251',
       '262', '267', '290', '296'],
      dtype='object')",True,1000,True,100,0.0,0.0,179eb8cfcc
30,./expes/v3_2021-01-29_di_300-prng-1-w1-p100,daily_issda-300,300,first-300,84,28,rng,num-start-211,211,536,classic,6.195420503616333,True,,True,1.0,1.0,1.0,1,"Index(['2', '3', '4', '5', '9', '10', '13', '18', '21', '22', '23', '27', '28',
       '29', '33', '36', '42', '43', '44', '45', '48', '53', '57', '58', '63',
       '68', '69', '71', '72', '75', '77', '81', '83', '87', '89', '96', '99',
       '102', '103', '104', '105', '108', '115', '122', '137', '138', '139',
       '144', '150', '170', '172', '174', '175', '178', '188', '192', '194',
       '195', '197', '204', '206', '207', '211', '216', '217', '218', '232',
       '238', '252', '255', '257', '258', '259', '260', '268', '276', '277',
       '284', '285', '290', '294', '295', '297', '300'],
      dtype='object')",False,1000,True,100,1.0,1.0,bb742afc97
31,./expes/v3_2021-01-29_di_300-prng-1-w1-p100,daily_issda-300,300,first-300,126,42,rng,num-start-141,141,536,classic,4.785734415054321,True,,True,1.0,1.0,1.0,1,"Index(['2', '3', '8', '16', '17', '19', '20', '22', '23', '24',
       ...
       '282', '284', '285', '287', '289', '290', '292', '296', '298', '299'],
      dtype='object', length=126)",False,1000,True,100,1.0,1.0,957f0be884
32,./expes/v3_2021-01-29_di_300-prng-1-w1-p100,daily_issda-300,300,first-300,126,42,rng,num-start-11,11,536,classic,1000.3001222610474,False,,False,0.0,,,0,"Index(['2', '7', '9', '11', '14', '16', '17', '18', '20', '23',
       ...
       '273', '277', '280', '286', '289', '292', '294', '297', '298', '300'],
      dtype='object', length=126)",True,1000,True,100,0.0,0.0,3dfeb488f1
33,./expes/v3_2021-01-29_di_300-prng-1-w1-p100,daily_issda-300,300,first-300,7,2,rng,num-start-251,251,536,classic,5.677640914916992,True,,True,1.0,1.0,1.0,1,"Index(['6', '74', '138', '180', '196', '243', '271'], dtype='object')",False,1000,True,100,1.0,1.0,4254f2a3dd
34,./expes/v3_2021-01-29_di_300-prng-1-w1-p100,daily_issda-300,300,first-300,84,28,rng,num-start-131,131,536,classic,3.784780740737915,True,,True,1.0,1.0,1.0,1,"Index(['4', '41', '45', '46', '48', '52', '59', '61', '63', '65', '67', '68',
       '69', '74', '75', '76', '78', '83', '87', '90', '93', '94', '98', '101',
       '102', '103', '104', '105', '106', '111', '113', '121', '122', '123',
       '128', '130', '133', '136', '139', '140', '145', '152', '154', '155',
       '156', '167', '172', '174', '176', '178', '181', '185', '188', '198',
       '202', '204', '205', '208', '209', '214', '224', '230', '235', '241',
       '245', '246', '251', '252', '253', '254', '257', '260', '263', '268',
       '270', '273', '274', '276', '279', '283', '291', '294', '295', '297'],
      dtype='object')",False,1000,True,100,1.0,1.0,2d38060c14
35,./expes/v3_2021-01-29_di_300-prng-1-w1-p100,daily_issda-300,300,first-300,98,32,rng,num-start-151,151,536,classic,5.030897617340088,True,,True,1.0,1.0,1.0,1,"Index(['5', '11', '13', '15', '17', '19', '21', '26', '29', '30', '31', '35',
       '39', '43', '44', '47', '55', '59', '66', '70', '81', '82', '83', '85',
       '86', '87', '89', '91', '94', '95', '98', '107', '108', '109', '114',
       '117', '119', '121', '126', '128', '129', '131', '137', '138', '140',
       '143', '156', '158', '159', '160', '164', '167', '175', '180', '182',
       '185', '186', '187', '188', '191', '192', '195', '202', '205', '209',
       '213', '217', '221', '228', '229', '233', '234', '237', '239', '246',
       '250', '251', '256', '257', '258', '259', '260', '261', '262', '263',
       '264', '266', '268', '269', '270', '272', '279', '286', '287', '288',
       '291', '295', '298'],
      dtype='object')",False,1000,True,100,1.0,1.0,bd6cfeb576
36,./expes/v3_2021-01-29_di_300-prng-1-w1-p100,daily_issda-300,300,first-300,112,37,rng,num-start-61,61,536,classic,1001.1842856407166,False,,False,0.0,,,0,"Index(['2', '3', '8', '16', '17', '19', '20', '22', '23', '36',
       ...
       '282', '284', '285', '287', '289', '290', '292', '296', '298', '299'],
      dtype='object', length=112)",True,1000,True,100,0.0,0.0,ff7c7f5449
37,./expes/v3_2021-01-29_di_300-prng-1-w1-p100,daily_issda-300,300,first-300,42,14,rng,num-start-221,221,536,classic,5.519408226013184,True,,True,1.0,1.0,1.0,1,"Index(['6', '9', '19', '29', '34', '41', '60', '76', '81', '106', '107', '115',
       '118', '119', '123', '135', '144', '157', '161', '162', '174', '177',
       '182', '183', '185', '189', '201', '208', '215', '216', '225', '231',
       '234', '237', '239', '251', '252', '262', '267', '290', '292', '296'],
      dtype='object')",False,1000,True,100,1.0,1.0,faf49aa186
38,./expes/v3_2021-01-29_di_300-prng-1-w1-p100,daily_issda-300,300,first-300,21,7,rng,num-start-291,291,536,classic,7.327746391296387,True,,True,1.0,1.0,1.0,1,"Index(['14', '32', '57', '71', '72', '90', '128', '130', '143', '149', '156',
       '163', '188', '197', '206', '213', '215', '257', '268', '277', '283'],
      dtype='object')",False,1000,True,100,1.0,1.0,477a6e94bd
39,./expes/v3_2021-01-29_di_300-prng-1-w1-p100,daily_issda-300,300,first-300,105,35,rng,num-start-281,281,536,classic,8.079740285873413,True,,True,1.0,1.0,1.0,1,"Index(['1', '6', '10', '11', '13', '15', '18', '22', '35', '36',
       ...
       '268', '270', '272', '274', '283', '287', '292', '293', '297', '299'],
      dtype='object', length=105)",False,1000,True,100,1.0,1.0,19d563c0e2
40,./expes/v3_2021-01-29_di_300-prng-1-w1-p100,daily_issda-300,300,first-300,140,46,rng,num-start-261,261,536,classic,7.909713506698608,True,,True,1.0,1.0,1.0,1,"Index(['1', '2', '3', '5', '7', '8', '9', '12', '13', '14',
       ...
       '281', '282', '283', '284', '285', '288', '292', '296', '297', '300'],
      dtype='object', length=140)",False,1000,True,100,1.0,1.0,cc00375741
41,./expes/v3_2021-01-29_di_300-prng-1-w1-p100,daily_issda-300,300,first-300,91,30,rng,num-start-291,291,536,classic,8.255262851715088,True,,True,1.0,1.0,1.0,1,"Index(['1', '7', '9', '10', '12', '15', '19', '24', '28', '40', '42', '44',
       '46', '48', '49', '50', '60', '62', '64', '65', '71', '75', '87', '89',
       '95', '97', '99', '100', '101', '102', '103', '108', '115', '126',
       '129', '131', '132', '134', '136', '137', '138', '140', '149', '150',
       '156', '157', '160', '164', '169', '171', '172', '183', '185', '186',
       '192', '194', '195', '200', '204', '210', '211', '212', '216', '217',
       '218', '219', '221', '226', '228', '229', '232', '241', '242', '248',
       '249', '250', '251', '257', '258', '264', '265', '268', '269', '271',
       '276', '277', '284', '286', '289', '294', '295'],
      dtype='object')",False,1000,True,100,1.0,1.0,3151bc7f6d
42,./expes/v3_2021-01-29_di_300-prng-1-w1-p100,daily_issda-300,300,first-300,28,9,rng,num-start-171,171,536,classic,4.847444772720337,True,,True,1.0,1.0,1.0,1,"Index(['8', '16', '37', '44', '65', '67', '72', '76', '96', '110', '116',
       '119', '120', '132', '133', '135', '142', '149', '151', '183', '220',
       '221', '224', '231', '250', '273', '282', '289'],
      dtype='object')",False,1000,True,100,1.0,1.0,6cd54f5a73
43,./expes/v3_2021-01-29_di_300-prng-1-w1-p100,daily_issda-300,300,first-300,28,9,rng,num-start-211,211,536,classic,5.235684633255005,True,,True,1.0,1.0,1.0,1,"Index(['3', '6', '11', '12', '15', '73', '79', '113', '114', '115', '117',
       '122', '130', '133', '146', '152', '155', '159', '172', '186', '210',
       '214', '216', '229', '234', '238', '241', '247'],
      dtype='object')",False,1000,True,100,1.0,1.0,1787cdd38a
44,./expes/v3_2021-01-29_di_300-prng-1-w1-p100,daily_issda-300,300,first-300,98,32,rng,num-start-221,221,536,classic,6.739334583282471,True,,True,1.0,1.0,1.0,1,"Index(['5', '11', '13', '15', '17', '19', '21', '26', '29', '30', '31', '35',
       '39', '43', '44', '47', '55', '59', '66', '70', '81', '82', '83', '85',
       '86', '87', '89', '91', '94', '95', '98', '107', '108', '109', '114',
       '117', '119', '121', '126', '128', '129', '131', '137', '138', '140',
       '143', '156', '158', '159', '160', '164', '167', '175', '180', '182',
       '185', '186', '187', '188', '191', '192', '195', '202', '205', '209',
       '213', '217', '221', '228', '229', '233', '234', '237', '239', '246',
       '250', '251', '256', '257', '258', '259', '260', '261', '262', '263',
       '264', '266', '268', '269', '270', '272', '279', '286', '287', '288',
       '291', '295', '298'],
      dtype='object')",False,1000,True,100,1.0,1.0,6d72952f72
45,./expes/v3_2021-01-29_di_300-prng-1-w1-p100,daily_issda-300,300,first-300,98,32,rng,num-start-241,241,536,classic,7.090261936187744,True,,True,1.0,1.0,1.0,1,"Index(['2', '8', '16', '19', '20', '22', '23', '36', '37', '38', '40', '44',
       '48', '58', '61', '63', '65', '67', '68', '70', '71', '72', '73', '76',
       '82', '85', '86', '91', '92', '94', '96', '99', '100', '104', '109',
       '110', '116', '119', '120', '121', '122', '129', '130', '132', '133',
       '135', '138', '142', '144', '149', '151', '152', '155', '160', '161',
       '175', '176', '178', '180', '183', '184', '187', '188', '191', '192',
       '200', '203', '209', '212', '218', '220', '221', '224', '226', '228',
       '230', '231', '236', '238', '241', '250', '252', '255', '267', '268',
       '270', '273', '275', '279', '282', '284', '285', '289', '290', '292',
       '296', '298', '299'],
      dtype='object')",False,1000,True,100,1.0,1.0,b9df5dde82
46,./expes/v3_2021-01-29_di_300-prng-1-w1-p100,daily_issda-300,300,first-300,21,7,rng,num-start-241,241,536,classic,6.097903251647949,True,,True,1.0,1.0,1.0,1,"Index(['7', '34', '67', '78', '99', '119', '120', '122', '133', '190', '200',
       '204', '241', '243', '244', '268', '277', '279', '282', '283', '298'],
      dtype='object')",False,1000,True,100,1.0,1.0,099531acfd
47,./expes/v3_2021-01-29_di_300-prng-1-w1-p100,daily_issda-300,300,first-300,84,28,rng,num-start-291,291,536,classic,8.552900552749634,True,,True,1.0,1.0,1.0,1,"Index(['2', '4', '9', '12', '14', '23', '24', '35', '37', '38', '40', '47',
       '51', '52', '54', '56', '59', '62', '66', '69', '71', '76', '82', '88',
       '94', '99', '103', '104', '107', '108', '120', '126', '134', '135',
       '138', '146', '149', '151', '154', '155', '158', '160', '167', '168',
       '178', '189', '193', '199', '200', '202', '203', '207', '209', '211',
       '213', '216', '217', '220', '225', '226', '231', '232', '233', '234',
       '235', '237', '238', '239', '244', '246', '253', '257', '258', '262',
       '267', '271', '278', '280', '281', '292', '293', '296', '297', '300'],
      dtype='object')",False,1000,True,100,1.0,1.0,4385cd4ab8
48,./expes/v3_2021-01-29_di_300-prng-1-w1-p100,daily_issda-300,300,first-300,63,21,rng,num-start-61,61,536,classic,1001.2976808547974,False,,False,0.0,,,0,"Index(['2', '8', '16', '23', '37', '38', '44', '61', '65', '67', '68', '70',
       '72', '73', '76', '82', '91', '92', '96', '100', '104', '110', '116',
       '119', '120', '121', '130', '132', '133', '135', '142', '144', '149',
       '151', '161', '178', '183', '187', '188', '191', '200', '203', '218',
       '220', '221', '224', '226', '228', '230', '231', '236', '238', '250',
       '252', '255', '268', '273', '275', '282', '284', '289', '290', '296'],
      dtype='object')",True,1000,True,100,0.0,0.0,67f5a1826a
49,./expes/v3_2021-01-29_di_300-prng-1-w1-p100,daily_issda-300,300,first-300,14,4,rng,num-start-41,41,536,classic,2.1989028453826904,True,,True,1.0,1.0,1.0,1,"Index(['20', '25', '30', '38', '45', '49', '78', '110', '166', '188', '203',
       '260', '275', '299'],
      dtype='object')",False,1000,True,100,1.0,1.0,65c0835d2f
50,./expes/v3_2021-01-29_di_300-prng-1-w1-p100,daily_issda-300,300,first-300,77,25,rng,num-start-231,231,536,classic,6.776481628417969,True,,True,1.0,1.0,1.0,1,"Index(['3', '4', '5', '6', '7', '8', '11', '12', '15', '17', '23', '34', '37',
       '41', '43', '45', '48', '52', '63', '73', '74', '79', '80', '85', '89',
       '113', '114', '115', '117', '119', '121', '122', '125', '130', '133',
       '145', '146', '151', '152', '155', '156', '159', '163', '164', '172',
       '179', '186', '190', '192', '202', '205', '208', '210', '214', '216',
       '217', '228', '229', '233', '234', '236', '238', '241', '244', '245',
       '247', '251', '252', '254', '256', '262', '265', '268', '277', '278',
       '289', '297'],
      dtype='object')",False,1000,True,100,1.0,1.0,9ae608e350
51,./expes/v3_2021-01-29_di_300-prng-1-w1-p100,daily_issda-300,300,first-300,21,7,rng,num-start-71,71,536,classic,2.18856143951416,True,,True,1.0,1.0,1.0,1,"Index(['21', '49', '51', '72', '76', '112', '129', '133', '145', '156', '159',
       '184', '198', '208', '216', '245', '249', '259', '262', '273', '299'],
      dtype='object')",False,1000,True,100,1.0,1.0,7e1d53870f
52,./expes/v3_2021-01-29_di_300-prng-1-w1-p100,daily_issda-300,300,first-300,63,21,rng,num-start-81,81,536,classic,1001.71848320961,False,,False,0.0,,,0,"Index(['4', '11', '14', '23', '24', '31', '35', '42', '45', '46', '47', '53',
       '55', '80', '83', '85', '89', '92', '100', '110', '114', '120', '121',
       '127', '128', '133', '134', '135', '140', '142', '144', '148', '149',
       '150', '154', '156', '157', '159', '160', '173', '176', '185', '191',
       '199', '203', '206', '212', '217', '221', '232', '237', '242', '243',
       '246', '260', '261', '266', '267', '274', '275', '281', '282', '294'],
      dtype='object')",True,1000,True,100,0.0,0.0,677e12141e
53,./expes/v3_2021-01-29_di_300-prng-1-w1-p100,daily_issda-300,300,first-300,91,30,rng,num-start-241,241,536,classic,7.999856472015381,True,,True,1.0,1.0,1.0,1,"Index(['1', '3', '5', '6', '8', '9', '11', '16', '19', '22', '27', '31', '33',
       '35', '36', '38', '43', '44', '45', '47', '49', '52', '56', '60', '61',
       '68', '69', '73', '75', '81', '91', '95', '96', '97', '98', '101',
       '102', '108', '109', '110', '118', '120', '124', '127', '131', '133',
       '139', '143', '148', '149', '151', '156', '160', '162', '168', '169',
       '171', '173', '193', '197', '198', '202', '203', '204', '206', '209',
       '210', '215', '216', '226', '227', '229', '230', '232', '235', '238',
       '239', '241', '244', '250', '256', '261', '263', '266', '271', '276',
       '283', '287', '289', '290', '296'],
      dtype='object')",False,1000,True,100,1.0,1.0,cb8e835d81
54,./expes/v3_2021-01-29_di_300-prng-1-w1-p100,daily_issda-300,300,first-300,14,4,rng,num-start-91,91,536,classic,2.2760939598083496,True,,True,1.0,1.0,1.0,1,"Index(['8', '17', '18', '83', '106', '143', '220', '237', '248', '251', '252',
       '267', '293', '296'],
      dtype='object')",False,1000,True,100,1.0,1.0,35a183fd19
55,./expes/v3_2021-01-29_di_300-prng-1-w1-p100,daily_issda-300,300,first-300,84,28,rng,num-start-211,211,536,classic,6.824743270874023,True,,True,1.0,1.0,1.0,1,"Index(['1', '6', '10', '14', '15', '16', '17', '19', '23', '27', '31', '32',
       '39', '40', '43', '45', '47', '53', '58', '59', '70', '74', '75', '84',
       '88', '92', '99', '103', '105', '108', '113', '114', '115', '117',
       '121', '130', '134', '138', '141', '142', '159', '161', '172', '173',
       '174', '180', '183', '186', '187', '189', '191', '192', '196', '197',
       '198', '199', '206', '208', '215', '217', '219', '221', '222', '226',
       '228', '236', '241', '243', '245', '248', '257', '260', '261', '262',
       '263', '266', '271', '277', '278', '282', '285', '286', '294', '296'],
      dtype='object')",False,1000,True,100,1.0,1.0,3ead296444
56,./expes/v3_2021-01-29_di_300-prng-1-w1-p100,daily_issda-300,300,first-300,28,9,rng,num-start-261,261,536,classic,6.688736915588379,True,,True,1.0,1.0,1.0,1,"Index(['12', '23', '37', '38', '51', '56', '59', '62', '76', '103', '104',
       '134', '138', '149', '160', '167', '168', '178', '199', '202', '211',
       '234', '262', '267', '271', '278', '292', '300'],
      dtype='object')",False,1000,True,100,1.0,1.0,5fd9990212
57,./expes/v3_2021-01-29_di_300-prng-1-w1-p100,daily_issda-300,300,first-300,133,44,rng,num-start-201,201,536,classic,6.11027979850769,True,,True,1.0,1.0,1.0,1,"Index(['3', '4', '5', '6', '10', '24', '30', '34', '40', '41',
       ...
       '283', '285', '286', '287', '290', '291', '293', '294', '295', '297'],
      dtype='object', length=133)",False,1000,True,100,1.0,1.0,2bf5de7953
58,./expes/v3_2021-01-29_di_300-prng-1-w1-p100,daily_issda-300,300,first-300,112,37,rng,num-start-71,71,536,classic,1001.6482911109924,False,,False,0.0,,,0,"Index(['2', '3', '8', '16', '17', '19', '20', '22', '23', '36',
       ...
       '282', '284', '285', '287', '289', '290', '292', '296', '298', '299'],
      dtype='object', length=112)",True,1000,True,100,0.0,0.0,985a99d459
59,./expes/v3_2021-01-29_di_300-prng-1-w1-p100,daily_issda-300,300,first-300,7,2,rng,num-start-61,61,536,classic,1.462888479232788,True,,True,1.0,1.0,1.0,1,"Index(['67', '76', '96', '116', '119', '133', '149'], dtype='object')",False,1000,True,100,1.0,1.0,4908f1f208
60,./expes/v3_2021-01-29_di_300-prng-1-w1-p100,daily_issda-300,300,first-300,91,30,rng,num-start-271,271,536,classic,7.34049129486084,True,,True,1.0,1.0,1.0,1,"Index(['2', '3', '5', '7', '12', '14', '15', '16', '18', '23', '33', '45',
       '49', '52', '53', '56', '61', '62', '67', '69', '84', '87', '88', '89',
       '96', '98', '103', '108', '111', '113', '114', '117', '118', '119',
       '120', '125', '131', '137', '138', '146', '149', '152', '156', '158',
       '163', '171', '177', '181', '188', '190', '192', '195', '196', '197',
       '200', '202', '207', '208', '213', '214', '217', '222', '225', '229',
       '231', '236', '241', '242', '246', '250', '251', '254', '256', '257',
       '258', '259', '260', '261', '263', '264', '266', '267', '271', '277',
       '278', '281', '284', '285', '292', '296', '297'],
      dtype='object')",False,1000,True,100,1.0,1.0,ab7da2010b
61,./expes/v3_2021-01-29_di_300-prng-1-w1-p100,daily_issda-300,300,first-300,14,4,rng,num-start-211,211,536,classic,4.88911509513855,True,,True,1.0,1.0,1.0,1,"Index(['11', '31', '35', '47', '53', '80', '114', '121', '149', '156', '203',
       '206', '246', '282'],
      dtype='object')",False,1000,True,100,1.0,1.0,0383880c18
62,./expes/v3_2021-01-29_di_300-prng-1-w1-p100,daily_issda-300,300,first-300,84,28,rng,num-start-141,141,536,classic,4.063225030899048,True,,True,1.0,1.0,1.0,1,"Index(['1', '3', '6', '8', '9', '11', '16', '19', '22', '27', '31', '33', '35',
       '36', '38', '43', '44', '45', '47', '49', '52', '56', '60', '61', '68',
       '69', '73', '81', '91', '95', '96', '97', '98', '101', '102', '108',
       '109', '110', '118', '120', '124', '127', '131', '139', '143', '148',
       '149', '151', '156', '160', '162', '168', '171', '173', '193', '197',
       '198', '203', '204', '206', '209', '210', '215', '216', '226', '229',
       '230', '232', '235', '238', '239', '241', '244', '250', '256', '261',
       '263', '266', '271', '276', '283', '287', '289', '290'],
      dtype='object')",False,1000,True,100,1.0,1.0,db5a872284
63,./expes/v3_2021-01-29_di_300-prng-1-w1-p100,daily_issda-300,300,first-300,119,39,rng,num-start-151,151,536,classic,4.621935844421387,True,,True,1.0,1.0,1.0,1,"Index(['1', '2', '3', '5', '7', '8', '9', '12', '14', '15',
       ...
       '281', '282', '283', '284', '285', '288', '292', '296', '297', '300'],
      dtype='object', length=119)",False,1000,True,100,1.0,1.0,7334e1979a
64,./expes/v3_2021-01-29_di_300-prng-1-w1-p100,daily_issda-300,300,first-300,14,4,rng,num-start-71,71,536,classic,1.991750955581665,True,,True,1.0,1.0,1.0,1,"Index(['19', '29', '44', '47', '82', '87', '109', '129', '158', '185', '202',
       '221', '261', '298'],
      dtype='object')",False,1000,True,100,1.0,1.0,4e8d2aa884
65,./expes/v3_2021-01-29_di_300-prng-1-w1-p100,daily_issda-300,300,first-300,91,30,rng,num-start-11,11,536,classic,1000.2734174728394,False,,False,0.0,,,0,"Index(['3', '4', '5', '6', '7', '8', '11', '12', '15', '17', '23', '24', '25',
       '34', '37', '41', '43', '45', '48', '52', '54', '59', '60', '63', '73',
       '74', '76', '79', '80', '85', '89', '92', '113', '114', '115', '117',
       '119', '121', '122', '123', '125', '126', '130', '131', '133', '138',
       '145', '146', '151', '152', '155', '156', '159', '163', '164', '172',
       '179', '186', '190', '192', '199', '202', '205', '208', '210', '214',
       '216', '217', '228', '229', '233', '234', '236', '238', '241', '244',
       '245', '247', '251', '252', '254', '256', '262', '265', '268', '270',
       '277', '278', '289', '297', '299'],
      dtype='object')",True,1000,True,100,0.0,0.0,28de0d9b5f
66,./expes/v3_2021-01-29_di_300-prng-1-w1-p100,daily_issda-300,300,first-300,21,7,rng,num-start-201,201,536,classic,5.505970239639282,True,,True,1.0,1.0,1.0,1,"Index(['14', '32', '57', '71', '72', '90', '128', '130', '143', '149', '156',
       '163', '188', '197', '206', '213', '215', '257', '268', '277', '283'],
      dtype='object')",False,1000,True,100,1.0,1.0,c0fdbeb371
67,./expes/v3_2021-01-29_di_300-prng-1-w1-p100,daily_issda-300,300,first-300,105,35,rng,num-start-211,211,536,classic,7.22071099281311,True,,True,1.0,1.0,1.0,1,"Index(['1', '4', '5', '6', '10', '14', '15', '16', '17', '19',
       ...
       '264', '266', '271', '277', '278', '282', '285', '286', '294', '296'],
      dtype='object', length=105)",False,1000,True,100,1.0,1.0,1488903c01
68,./expes/v3_2021-01-29_di_300-prng-1-w1-p100,daily_issda-300,300,first-300,21,7,rng,num-start-71,71,536,classic,1.825188398361206,True,,True,1.0,1.0,1.0,1,"Index(['1', '12', '19', '42', '49', '75', '99', '102', '134', '140', '164',
       '192', '212', '241', '249', '251', '276', '277', '284', '289', '294'],
      dtype='object')",False,1000,True,100,1.0,1.0,7933c398ba
69,./expes/v3_2021-01-29_di_300-prng-1-w1-p100,daily_issda-300,300,first-300,126,42,rng,num-start-241,241,536,classic,7.62849497795105,True,,True,1.0,1.0,1.0,1,"Index(['3', '5', '10', '11', '14', '15', '26', '27', '28', '30',
       ...
       '284', '285', '286', '287', '289', '291', '293', '295', '296', '297'],
      dtype='object', length=126)",False,1000,True,100,1.0,1.0,2a3c2045a9
70,./expes/v3_2021-01-29_di_300-prng-1-w1-p100,daily_issda-300,300,first-300,98,32,rng,num-start-131,131,536,classic,10.411593675613403,True,,True,1.0,1.0,1.0,1,"Index(['12', '20', '21', '24', '25', '26', '30', '31', '32', '33', '34', '36',
       '38', '40', '42', '45', '47', '48', '49', '50', '53', '60', '61', '64',
       '67', '69', '74', '78', '85', '87', '93', '97', '106', '110', '112',
       '114', '115', '124', '125', '127', '128', '139', '146', '148', '149',
       '154', '158', '159', '161', '166', '175', '176', '178', '180', '182',
       '186', '188', '191', '198', '201', '203', '204', '215', '216', '218',
       '219', '223', '229', '230', '233', '234', '237', '239', '243', '251',
       '253', '254', '255', '260', '263', '269', '273', '275', '277', '281',
       '283', '286', '287', '289', '290', '293', '294', '295', '296', '297',
       '298', '299', '300'],
      dtype='object')",False,1000,True,100,1.0,1.0,77871e0abc
71,./expes/v3_2021-01-29_di_300-prng-1-w1-p100,daily_issda-300,300,first-300,119,39,rng,num-start-101,101,536,classic,43.469990253448486,True,,True,1.0,1.0,1.0,1,"Index(['2', '4', '5', '9', '12', '13', '14', '21', '23', '24',
       ...
       '271', '278', '280', '281', '288', '292', '293', '296', '297', '300'],
      dtype='object', length=119)",False,1000,True,100,1.0,1.0,aa6ad73dff
72,./expes/v3_2021-01-29_di_300-prng-1-w1-p100,daily_issda-300,300,first-300,28,9,rng,num-start-141,141,536,classic,4.045761823654175,True,,True,1.0,1.0,1.0,1,"Index(['21', '38', '49', '51', '52', '72', '76', '112', '129', '133', '145',
       '156', '159', '170', '182', '184', '198', '208', '216', '223', '242',
       '245', '249', '259', '262', '273', '287', '299'],
      dtype='object')",False,1000,True,100,1.0,1.0,31b15bcd9b
73,./expes/v3_2021-01-29_di_300-prng-1-w1-p100,daily_issda-300,300,first-300,7,2,rng,num-start-161,161,536,classic,4.499159812927246,True,,True,1.0,1.0,1.0,1,"Index(['95', '98', '232', '239', '261', '263', '287'], dtype='object')",False,1000,True,100,1.0,1.0,451683e52d
74,./expes/v3_2021-01-29_di_300-prng-1-w1-p100,daily_issda-300,300,first-300,77,25,rng,num-start-101,101,536,classic,6.46865701675415,True,,True,1.0,1.0,1.0,1,"Index(['3', '5', '10', '14', '26', '27', '28', '30', '32', '33', '36', '42',
       '49', '57', '60', '64', '67', '71', '72', '73', '78', '88', '90', '99',
       '101', '102', '108', '110', '123', '128', '129', '130', '133', '137',
       '140', '142', '143', '149', '156', '158', '159', '163', '164', '170',
       '171', '172', '173', '179', '182', '185', '188', '191', '192', '197',
       '206', '208', '210', '213', '215', '222', '240', '243', '245', '257',
       '260', '268', '270', '273', '277', '283', '284', '285', '286', '287',
       '293', '295', '297'],
      dtype='object')",False,1000,True,100,1.0,1.0,3bd8d55cec
75,./expes/v3_2021-01-29_di_300-prng-1-w1-p100,daily_issda-300,300,first-300,21,7,rng,num-start-251,251,536,classic,5.838836908340454,True,,True,1.0,1.0,1.0,1,"Index(['8', '17', '18', '23', '39', '72', '83', '106', '128', '143', '168',
       '185', '216', '220', '237', '248', '251', '252', '267', '293', '296'],
      dtype='object')",False,1000,True,100,1.0,1.0,b7cb41da77
76,./expes/v3_2021-01-29_di_300-prng-1-w1-p100,daily_issda-300,300,first-300,70,23,rng,num-start-21,21,536,classic,1000.5136301517488,False,,False,0.0,,,0,"Index(['3', '8', '17', '18', '19', '23', '34', '37', '39', '42', '50', '58',
       '69', '72', '77', '81', '83', '86', '90', '98', '100', '106', '115',
       '121', '123', '128', '135', '143', '146', '155', '156', '161', '167',
       '168', '179', '182', '185', '186', '188', '192', '193', '196', '197',
       '212', '213', '216', '220', '222', '224', '226', '227', '229', '231',
       '234', '237', '241', '248', '251', '252', '255', '257', '267', '274',
       '275', '282', '291', '293', '296', '299', '300'],
      dtype='object')",True,1000,True,100,0.0,0.0,1b19801755
77,./expes/v3_2021-01-29_di_300-prng-1-w1-p100,daily_issda-300,300,first-300,112,37,rng,num-start-221,221,536,classic,6.186121702194214,True,,True,1.0,1.0,1.0,1,"Index(['1', '8', '9', '12', '14', '17', '19', '20', '21', '24',
       ...
       '277', '279', '281', '283', '287', '291', '294', '295', '297', '299'],
      dtype='object', length=112)",False,1000,True,100,1.0,1.0,d743afee96
78,./expes/v3_2021-01-29_di_300-prng-1-w1-p100,daily_issda-300,300,first-300,14,4,rng,num-start-81,81,536,classic,2.009577512741089,True,,True,1.0,1.0,1.0,1,"Index(['14', '57', '90', '128', '130', '143', '149', '156', '188', '197',
       '213', '215', '268', '277'],
      dtype='object')",False,1000,True,100,1.0,1.0,7830007c99
79,./expes/v3_2021-01-29_di_300-prng-1-w1-p100,daily_issda-300,300,first-300,21,7,rng,num-start-191,191,536,classic,5.825472116470337,True,,True,1.0,1.0,1.0,1,"Index(['8', '17', '18', '23', '39', '72', '83', '106', '128', '143', '168',
       '185', '216', '220', '237', '248', '251', '252', '267', '293', '296'],
      dtype='object')",False,1000,True,100,1.0,1.0,57dd390eed
80,./expes/v3_2021-01-29_di_300-prng-1-w1-p100,daily_issda-300,300,first-300,119,39,rng,num-start-241,241,536,classic,6.865112543106079,True,,True,1.0,1.0,1.0,1,"Index(['1', '6', '10', '11', '13', '15', '17', '18', '22', '35',
       ...
       '274', '280', '283', '284', '287', '288', '292', '293', '297', '299'],
      dtype='object', length=119)",False,1000,True,100,1.0,1.0,0d39e30e99
81,./expes/v3_2021-01-29_di_300-prng-1-w1-p100,daily_issda-300,300,first-300,35,11,rng,num-start-11,11,536,classic,1000.3616695404052,False,,False,0.0,,,0,"Index(['14', '32', '36', '42', '57', '64', '71', '72', '73', '78', '90', '101',
       '108', '128', '130', '143', '149', '156', '159', '163', '170', '188',
       '197', '206', '210', '213', '215', '243', '257', '260', '268', '273',
       '277', '283', '287'],
      dtype='object')",True,1000,True,100,0.0,0.0,1350e28905
82,./expes/v3_2021-01-29_di_300-prng-1-w1-p100,daily_issda-300,300,first-300,84,28,rng,num-start-281,281,536,classic,7.83638596534729,True,,True,1.0,1.0,1.0,1,"Index(['3', '5', '10', '11', '14', '26', '27', '28', '30', '32', '33', '36',
       '39', '42', '49', '57', '60', '64', '67', '71', '72', '73', '78', '88',
       '90', '99', '101', '102', '108', '110', '123', '128', '129', '130',
       '133', '137', '140', '142', '143', '149', '156', '158', '159', '163',
       '164', '170', '171', '172', '173', '179', '182', '185', '188', '191',
       '192', '197', '201', '206', '207', '208', '210', '213', '215', '222',
       '240', '243', '245', '249', '257', '260', '268', '269', '270', '273',
       '277', '283', '284', '285', '286', '287', '289', '293', '295', '297'],
      dtype='object')",False,1000,True,100,1.0,1.0,4853839dce
83,./expes/v3_2021-01-29_di_300-prng-1-w1-p100,daily_issda-300,300,first-300,84,28,rng,num-start-61,61,536,classic,1001.2263157367706,False,,False,0.0,,,0,"Index(['20', '21', '24', '25', '26', '30', '31', '32', '33', '34', '36', '38',
       '40', '42', '45', '47', '48', '49', '50', '53', '61', '64', '69', '74',
       '78', '85', '93', '97', '106', '110', '114', '115', '124', '125', '128',
       '139', '148', '149', '154', '158', '159', '161', '166', '175', '176',
       '180', '186', '188', '191', '203', '204', '215', '216', '218', '219',
       '223', '230', '233', '234', '239', '243', '251', '254', '255', '260',
       '263', '269', '273', '275', '277', '281', '283', '286', '287', '289',
       '290', '293', '294', '295', '296', '297', '298', '299', '300'],
      dtype='object')",True,1000,True,100,0.0,0.0,93ce4d32a2
84,./expes/v3_2021-01-29_di_300-prng-1-w1-p100,daily_issda-300,300,first-300,49,16,rng,num-start-31,31,536,classic,1000.99995136261,False,,False,0.0,,,0,"Index(['2', '5', '12', '14', '15', '16', '33', '49', '52', '53', '61', '62',
       '69', '96', '98', '108', '111', '113', '114', '118', '119', '120',
       '131', '137', '149', '152', '163', '171', '177', '195', '196', '200',
       '214', '217', '222', '225', '229', '231', '236', '242', '250', '254',
       '257', '260', '271', '278', '284', '285', '292'],
      dtype='object')",True,1000,True,100,0.0,0.0,2282f3a333
85,./expes/v3_2021-01-29_di_300-prng-1-w1-p100,daily_issda-300,300,first-300,42,14,rng,num-start-71,71,536,classic,13.46379542350769,True,,True,1.0,1.0,1.0,1,"Index(['9', '12', '23', '37', '38', '51', '56', '59', '62', '76', '82', '103',
       '104', '120', '134', '138', '149', '154', '160', '167', '168', '178',
       '199', '202', '203', '209', '211', '213', '217', '226', '234', '258',
       '262', '267', '271', '278', '280', '292', '293', '296', '297', '300'],
      dtype='object')",False,1000,True,100,1.0,1.0,65b3d4b3f2
86,./expes/v3_2021-01-29_di_300-prng-1-w1-p100,daily_issda-300,300,first-300,105,35,rng,num-start-171,171,536,classic,4.863689422607422,True,,True,1.0,1.0,1.0,1,"Index(['1', '2', '3', '5', '7', '12', '14', '15', '16', '18',
       ...
       '276', '277', '278', '281', '284', '285', '288', '292', '296', '297'],
      dtype='object', length=105)",False,1000,True,100,1.0,1.0,3e4976e87e
87,./expes/v3_2021-01-29_di_300-prng-1-w1-p100,daily_issda-300,300,first-300,42,14,rng,num-start-291,291,536,classic,7.77823805809021,True,,True,1.0,1.0,1.0,1,"Index(['9', '12', '23', '37', '38', '51', '56', '59', '62', '76', '82', '103',
       '104', '120', '134', '138', '149', '154', '160', '167', '168', '178',
       '199', '202', '203', '209', '211', '213', '217', '226', '234', '258',
       '262', '267', '271', '278', '280', '292', '293', '296', '297', '300'],
      dtype='object')",False,1000,True,100,1.0,1.0,62fc2b6470
88,./expes/v3_2021-01-29_di_300-prng-1-w1-p100,daily_issda-300,300,first-300,42,14,rng,num-start-271,271,536,classic,6.497685432434082,True,,True,1.0,1.0,1.0,1,"Index(['1', '6', '10', '27', '31', '32', '39', '45', '47', '58', '70', '74',
       '75', '84', '88', '103', '108', '115', '117', '138', '141', '161',
       '173', '174', '180', '189', '192', '196', '208', '217', '226', '228',
       '236', '243', '248', '261', '263', '271', '277', '285', '286', '296'],
      dtype='object')",False,1000,True,100,1.0,1.0,f5324982d2
89,./expes/v3_2021-01-29_di_300-prng-1-w1-p100,daily_issda-300,300,first-300,84,28,rng,num-start-41,41,536,classic,1000.951191663742,False,,False,0.0,,,0,"Index(['3', '4', '5', '6', '7', '8', '11', '12', '15', '17', '23', '24', '25',
       '34', '37', '41', '43', '45', '48', '52', '59', '63', '73', '74', '79',
       '80', '85', '89', '92', '113', '114', '115', '117', '119', '121', '122',
       '123', '125', '130', '131', '133', '145', '146', '151', '152', '155',
       '156', '159', '163', '164', '172', '179', '186', '190', '192', '202',
       '205', '208', '210', '214', '216', '217', '228', '229', '233', '234',
       '236', '238', '241', '244', '245', '247', '251', '252', '254', '256',
       '262', '265', '268', '277', '278', '289', '297', '299'],
      dtype='object')",True,1000,True,100,0.0,0.0,b48e451e79
90,./expes/v3_2021-01-29_di_300-prng-1-w1-p100,daily_issda-300,300,first-300,84,28,rng,num-start-41,41,536,classic,1000.9006156921388,False,,False,0.0,,,0,"Index(['4', '41', '45', '46', '48', '52', '59', '61', '63', '65', '67', '68',
       '69', '74', '75', '76', '78', '83', '87', '90', '93', '94', '98', '101',
       '102', '103', '104', '105', '106', '111', '113', '121', '122', '123',
       '128', '130', '133', '136', '139', '140', '145', '152', '154', '155',
       '156', '167', '172', '174', '176', '178', '181', '185', '188', '198',
       '202', '204', '205', '208', '209', '214', '224', '230', '235', '241',
       '245', '246', '251', '252', '253', '254', '257', '260', '263', '268',
       '270', '273', '274', '276', '279', '283', '291', '294', '295', '297'],
      dtype='object')",True,1000,True,100,0.0,0.0,429c1cc550
91,./expes/v3_2021-01-29_di_300-prng-1-w1-p100,daily_issda-300,300,first-300,126,42,rng,num-start-91,91,536,classic,1001.9564356803894,False,,False,0.0,,,0,"Index(['2', '3', '8', '16', '17', '19', '20', '22', '23', '24',
       ...
       '282', '284', '285', '287', '289', '290', '292', '296', '298', '299'],
      dtype='object', length=126)",True,1000,True,100,0.0,0.0,0579a0604b
92,./expes/v3_2021-01-29_di_300-prng-1-w1-p100,daily_issda-300,300,first-300,63,21,rng,num-start-41,41,536,classic,1001.272634267807,False,,False,0.0,,,0,"Index(['4', '11', '14', '23', '24', '31', '35', '42', '45', '46', '47', '53',
       '55', '80', '83', '85', '89', '92', '100', '110', '114', '120', '121',
       '127', '128', '133', '134', '135', '140', '142', '144', '148', '149',
       '150', '154', '156', '157', '159', '160', '173', '176', '185', '191',
       '199', '203', '206', '212', '217', '221', '232', '237', '242', '243',
       '246', '260', '261', '266', '267', '274', '275', '281', '282', '294'],
      dtype='object')",True,1000,True,100,0.0,0.0,fcff9982e9
93,./expes/v3_2021-01-29_di_300-prng-1-w1-p100,daily_issda-300,300,first-300,35,11,rng,num-start-31,31,536,classic,1000.7156457901,False,,False,0.0,,,0,"Index(['1', '6', '10', '31', '32', '39', '45', '47', '74', '75', '84', '103',
       '108', '115', '117', '138', '141', '173', '174', '180', '189', '192',
       '196', '208', '217', '226', '228', '236', '243', '248', '261', '263',
       '271', '286', '296'],
      dtype='object')",True,1000,True,100,0.0,0.0,efd5ec477d
94,./expes/v3_2021-01-29_di_300-prng-1-w1-p100,daily_issda-300,300,first-300,133,44,rng,num-start-221,221,536,classic,6.495420694351196,True,,True,1.0,1.0,1.0,1,"Index(['1', '2', '3', '5', '7', '8', '9', '12', '13', '14',
       ...
       '281', '282', '283', '284', '285', '288', '292', '296', '297', '300'],
      dtype='object', length=133)",False,1000,True,100,1.0,1.0,df7bc80785
95,./expes/v3_2021-01-29_di_300-prng-1-w1-p100,daily_issda-300,300,first-300,112,37,rng,num-start-211,211,536,classic,5.688838958740234,True,,True,1.0,1.0,1.0,1,"Index(['2', '5', '6', '8', '9', '10', '16', '19', '22', '23',
       ...
       '266', '267', '272', '274', '279', '281', '285', '290', '292', '296'],
      dtype='object', length=112)",False,1000,True,100,1.0,1.0,3db09c3efd
96,./expes/v3_2021-01-29_di_300-prng-1-w1-p100,daily_issda-300,300,first-300,133,44,rng,num-start-191,191,536,classic,5.970159292221069,True,,True,1.0,1.0,1.0,1,"Index(['1', '6', '10', '11', '13', '15', '17', '18', '22', '27',
       ...
       '279', '280', '283', '284', '287', '288', '292', '293', '297', '299'],
      dtype='object', length=133)",False,1000,True,100,1.0,1.0,b82e7c5a3f
97,./expes/v3_2021-01-29_di_300-prng-1-w1-p100,daily_issda-300,300,first-300,49,16,rng,num-start-161,161,536,classic,4.281102895736694,True,,True,1.0,1.0,1.0,1,"Index(['3', '10', '14', '26', '27', '32', '36', '42', '57', '64', '71', '72',
       '73', '78', '90', '101', '108', '123', '128', '130', '143', '149',
       '156', '159', '163', '170', '173', '182', '188', '191', '192', '197',
       '206', '208', '210', '213', '215', '222', '243', '245', '257', '260',
       '268', '273', '277', '283', '287', '293', '297'],
      dtype='object')",False,1000,True,100,1.0,1.0,9c9ba88292
98,./expes/v3_2021-01-29_di_300-prng-1-w1-p100,daily_issda-300,300,first-300,63,21,rng,num-start-81,81,536,classic,11.68459415435791,True,,True,1.0,1.0,1.0,1,"Index(['6', '15', '36', '38', '43', '46', '48', '49', '53', '55', '58', '59',
       '61', '63', '77', '83', '85', '87', '93', '100', '105', '112', '115',
       '127', '131', '134', '135', '139', '141', '143', '144', '145', '150',
       '156', '159', '162', '173', '184', '185', '187', '196', '198', '202',
       '204', '207', '211', '218', '225', '231', '232', '234', '239', '246',
       '249', '250', '257', '264', '265', '270', '274', '283', '297', '299'],
      dtype='object')",False,1000,True,100,1.0,1.0,89893eff06
99,./expes/v3_2021-01-29_di_300-prng-1-w1-p100,daily_issda-300,300,first-300,98,32,rng,num-start-101,101,536,classic,11.565324306488035,True,,True,1.0,1.0,1.0,1,"Index(['2', '4', '5', '9', '12', '14', '23', '24', '35', '37', '38', '39',
       '40', '44', '47', '51', '52', '54', '56', '58', '59', '62', '65', '66',
       '69', '71', '76', '79', '82', '88', '90', '94', '99', '103', '104',
       '107', '108', '120', '126', '134', '135', '138', '141', '146', '147',
       '149', '151', '154', '155', '158', '160', '167', '168', '178', '189',
       '193', '199', '200', '202', '203', '207', '209', '211', '213', '216',
       '217', '220', '221', '224', '225', '226', '231', '232', '233', '234',
       '235', '237', '238', '239', '240', '241', '244', '246', '253', '257',
       '258', '259', '262', '267', '271', '278', '280', '281', '292', '293',
       '296', '297', '300'],
      dtype='object')",False,1000,True,100,1.0,1.0,5a1332404d
100,./expes/v3_2021-01-29_di_300-prng-1-w1-p100,daily_issda-300,300,first-300,105,35,rng,num-start-231,231,536,classic,6.64267635345459,True,,True,1.0,1.0,1.0,1,"Index(['1', '2', '3', '4', '5', '9', '10', '13', '14', '18',
       ...
       '276', '277', '284', '285', '287', '290', '294', '295', '297', '300'],
      dtype='object', length=105)",False,1000,True,100,1.0,1.0,a792d5e849
101,./expes/v3_2021-01-29_di_300-prng-1-w1-p100,daily_issda-300,300,first-300,133,44,rng,num-start-171,171,536,classic,5.836273431777954,True,,True,1.0,1.0,1.0,1,"Index(['2', '3', '8', '13', '17', '18', '19', '23', '24', '26',
       ...
       '278', '279', '282', '287', '291', '293', '295', '296', '299', '300'],
      dtype='object', length=133)",False,1000,True,100,1.0,1.0,d2a982c693
102,./expes/v3_2021-01-29_di_300-prng-1-w1-p100,daily_issda-300,300,first-300,77,25,rng,num-start-51,51,536,classic,1001.0960841178894,False,,False,0.0,,,0,"Index(['4', '41', '45', '46', '48', '52', '59', '61', '63', '68', '69', '75',
       '76', '78', '83', '87', '90', '93', '94', '98', '101', '102', '103',
       '104', '105', '106', '111', '113', '121', '122', '123', '128', '130',
       '133', '136', '139', '140', '145', '152', '154', '156', '167', '172',
       '174', '176', '178', '181', '188', '198', '202', '205', '208', '209',
       '224', '230', '235', '241', '245', '246', '251', '252', '253', '254',
       '257', '260', '263', '268', '270', '273', '274', '276', '279', '283',
       '291', '294', '295', '297'],
      dtype='object')",True,1000,True,100,0.0,0.0,b6745fde7e
103,./expes/v3_2021-01-29_di_300-prng-1-w1-p100,daily_issda-300,300,first-300,84,28,rng,num-start-61,61,536,classic,1001.6312487125396,False,,False,0.0,,,0,"Index(['2', '8', '16', '20', '22', '23', '37', '38', '44', '58', '61', '65',
       '67', '68', '70', '71', '72', '73', '76', '82', '85', '91', '92', '94',
       '96', '99', '100', '104', '109', '110', '116', '119', '120', '121',
       '122', '129', '130', '132', '133', '135', '142', '144', '149', '151',
       '152', '161', '175', '178', '180', '183', '184', '187', '188', '191',
       '192', '200', '203', '212', '218', '220', '221', '224', '226', '228',
       '230', '231', '236', '238', '250', '252', '255', '267', '268', '273',
       '275', '282', '284', '285', '289', '290', '292', '296', '298', '299'],
      dtype='object')",True,1000,True,100,0.0,0.0,7d46d1a3e3
104,./expes/v3_2021-01-29_di_300-prng-1-w1-p100,daily_issda-300,300,first-300,49,16,rng,num-start-211,211,536,classic,4.971780061721802,True,,True,1.0,1.0,1.0,1,"Index(['2', '5', '12', '14', '15', '16', '33', '49', '52', '53', '61', '62',
       '69', '96', '98', '108', '111', '113', '114', '118', '119', '120',
       '131', '137', '149', '152', '163', '171', '177', '195', '196', '200',
       '214', '217', '222', '225', '229', '231', '236', '242', '250', '254',
       '257', '260', '271', '278', '284', '285', '292'],
      dtype='object')",False,1000,True,100,1.0,1.0,a974aa56a6
105,./expes/v3_2021-01-29_di_300-prng-1-w1-p100,daily_issda-300,300,first-300,28,9,rng,num-start-181,181,536,classic,5.542168378829956,True,,True,1.0,1.0,1.0,1,"Index(['21', '38', '49', '51', '52', '72', '76', '112', '129', '133', '145',
       '156', '159', '170', '182', '184', '198', '208', '216', '223', '242',
       '245', '249', '259', '262', '273', '287', '299'],
      dtype='object')",False,1000,True,100,1.0,1.0,1b0ec5f4da
106,./expes/v3_2021-01-29_di_300-prng-1-w1-p100,daily_issda-300,300,first-300,91,30,rng,num-start-51,51,536,classic,1001.176432609558,False,,False,0.0,,,0,"Index(['3', '5', '10', '11', '14', '26', '27', '28', '30', '32', '33', '36',
       '39', '42', '48', '49', '57', '60', '64', '67', '71', '72', '73', '78',
       '83', '88', '90', '94', '99', '101', '102', '108', '109', '110', '123',
       '128', '129', '130', '133', '137', '140', '142', '143', '149', '156',
       '157', '158', '159', '162', '163', '164', '170', '171', '172', '173',
       '179', '182', '185', '188', '191', '192', '197', '201', '206', '207',
       '208', '210', '213', '215', '222', '240', '243', '245', '249', '257',
       '260', '268', '269', '270', '273', '275', '277', '283', '284', '285',
       '286', '287', '289', '293', '295', '297'],
      dtype='object')",True,1000,True,100,0.0,0.0,71b6e3d386
107,./expes/v3_2021-01-29_di_300-prng-1-w1-p100,daily_issda-300,300,first-300,7,2,rng,num-start-241,241,536,classic,5.035254001617432,True,,True,1.0,1.0,1.0,1,"Index(['38', '55', '127', '131', '139', '150', '270'], dtype='object')",False,1000,True,100,1.0,1.0,25858685ab
108,./expes/v3_2021-01-29_di_300-prng-1-w1-p100,daily_issda-300,300,first-300,105,35,rng,num-start-281,281,536,classic,7.673253774642944,True,,True,1.0,1.0,1.0,1,"Index(['4', '6', '7', '8', '11', '15', '16', '17', '19', '22',
       ...
       '282', '283', '287', '292', '293', '294', '296', '297', '298', '300'],
      dtype='object', length=105)",False,1000,True,100,1.0,1.0,0cc7449f2d
109,./expes/v3_2021-01-29_di_300-prng-1-w1-p100,daily_issda-300,300,first-300,140,46,rng,num-start-81,81,536,classic,1001.5268006324768,False,,False,0.0,,,0,"Index(['2', '3', '5', '6', '8', '9', '10', '16', '19', '22',
       ...
       '282', '285', '286', '290', '292', '293', '295', '296', '297', '298'],
      dtype='object', length=140)",True,1000,True,100,0.0,0.0,cf0a205d2d
110,./expes/v3_2021-01-29_di_300-prng-1-w1-p100,daily_issda-300,300,first-300,7,2,rng,num-start-91,91,536,classic,2.2030060291290283,True,,True,1.0,1.0,1.0,1,"Index(['21', '133', '198', '208', '216', '249', '262'], dtype='object')",False,1000,True,100,1.0,1.0,7cd1844582
111,./expes/v3_2021-01-29_di_300-prng-1-w1-p100,daily_issda-300,300,first-300,119,39,rng,num-start-191,191,536,classic,6.352611303329468,True,,True,1.0,1.0,1.0,1,"Index(['3', '5', '10', '11', '14', '15', '26', '27', '28', '30',
       ...
       '284', '285', '286', '287', '289', '291', '293', '295', '296', '297'],
      dtype='object', length=119)",False,1000,True,100,1.0,1.0,fbf60929ea
112,./expes/v3_2021-01-29_di_300-prng-1-w1-p100,daily_issda-300,300,first-300,126,42,rng,num-start-231,231,536,classic,6.612811326980591,True,,True,1.0,1.0,1.0,1,"Index(['2', '3', '8', '13', '17', '18', '19', '23', '26', '33',
       ...
       '278', '279', '282', '287', '291', '293', '295', '296', '299', '300'],
      dtype='object', length=126)",False,1000,True,100,1.0,1.0,97b98b12e8
113,./expes/v3_2021-01-29_di_300-prng-1-w1-p100,daily_issda-300,300,first-300,77,25,rng,num-start-211,211,536,classic,5.835979223251343,True,,True,1.0,1.0,1.0,1,"Index(['3', '5', '10', '14', '26', '27', '28', '30', '32', '33', '36', '42',
       '49', '57', '60', '64', '67', '71', '72', '73', '78', '88', '90', '99',
       '101', '102', '108', '110', '123', '128', '129', '130', '133', '137',
       '140', '142', '143', '149', '156', '158', '159', '163', '164', '170',
       '171', '172', '173', '179', '182', '185', '188', '191', '192', '197',
       '206', '208', '210', '213', '215', '222', '240', '243', '245', '257',
       '260', '268', '270', '273', '277', '283', '284', '285', '286', '287',
       '293', '295', '297'],
      dtype='object')",False,1000,True,100,1.0,1.0,ffc5007009
114,./expes/v3_2021-01-29_di_300-prng-1-w1-p100,daily_issda-300,300,first-300,105,35,rng,num-start-201,201,536,classic,6.054637670516968,True,,True,1.0,1.0,1.0,1,"Index(['1', '3', '5', '6', '8', '9', '11', '16', '19', '22',
       ...
       '266', '271', '276', '283', '287', '289', '290', '295', '296', '299'],
      dtype='object', length=105)",False,1000,True,100,1.0,1.0,c39fb11a16
115,./expes/v3_2021-01-29_di_300-prng-1-w1-p100,daily_issda-300,300,first-300,56,18,rng,num-start-251,251,536,classic,7.168472051620483,True,,True,1.0,1.0,1.0,1,"Index(['20', '24', '25', '26', '30', '31', '32', '33', '36', '38', '45', '47',
       '49', '50', '53', '61', '64', '69', '74', '78', '93', '97', '106',
       '110', '114', '115', '124', '149', '158', '161', '166', '188', '191',
       '203', '204', '215', '218', '219', '223', '239', '255', '260', '273',
       '275', '277', '281', '283', '286', '287', '289', '290', '293', '296',
       '298', '299', '300'],
      dtype='object')",False,1000,True,100,1.0,1.0,386b005f55
116,./expes/v3_2021-01-29_di_300-prng-1-w1-p100,daily_issda-300,300,first-300,21,7,rng,num-start-81,81,536,classic,2.279127836227417,True,,True,1.0,1.0,1.0,1,"Index(['61', '63', '87', '90', '93', '94', '101', '102', '121', '123', '130',
       '136', '152', '167', '172', '230', '235', '246', '251', '253', '268'],
      dtype='object')",False,1000,True,100,1.0,1.0,d90a93c718
117,./expes/v3_2021-01-29_di_300-prng-1-w1-p100,daily_issda-300,300,first-300,126,42,rng,num-start-161,161,536,classic,5.007006406784058,True,,True,1.0,1.0,1.0,1,"Index(['2', '5', '6', '8', '9', '10', '16', '19', '22', '23',
       ...
       '267', '272', '274', '279', '281', '285', '290', '292', '295', '296'],
      dtype='object', length=126)",False,1000,True,100,1.0,1.0,e724f57411
118,./expes/v3_2021-01-29_di_300-prng-1-w1-p100,daily_issda-300,300,first-300,42,14,rng,num-start-261,261,536,classic,7.010910034179688,True,,True,1.0,1.0,1.0,1,"Index(['9', '12', '23', '37', '38', '51', '56', '59', '62', '76', '82', '103',
       '104', '120', '134', '138', '149', '154', '160', '167', '168', '178',
       '199', '202', '203', '209', '211', '213', '217', '226', '234', '258',
       '262', '267', '271', '278', '280', '292', '293', '296', '297', '300'],
      dtype='object')",False,1000,True,100,1.0,1.0,30710ae26d
119,./expes/v3_2021-01-29_di_300-prng-1-w1-p100,daily_issda-300,300,first-300,42,14,rng,num-start-31,31,536,classic,1000.7769923210144,False,,False,0.0,,,0,"Index(['1', '8', '21', '32', '38', '48', '49', '51', '52', '72', '76', '105',
       '112', '129', '133', '134', '145', '156', '159', '162', '170', '171',
       '182', '184', '198', '205', '208', '216', '223', '227', '242', '245',
       '249', '253', '259', '262', '267', '273', '281', '283', '287', '299'],
      dtype='object')",True,1000,True,100,0.0,0.0,dd693b95b5
120,./expes/v3_2021-01-29_di_300-prng-1-w1-p100,daily_issda-300,300,first-300,84,28,rng,num-start-71,71,536,classic,1001.9837307929992,False,,False,0.0,,,0,"Index(['2', '3', '4', '5', '9', '10', '13', '18', '21', '22', '23', '27', '28',
       '29', '33', '36', '42', '43', '44', '45', '48', '53', '57', '58', '63',
       '68', '69', '71', '72', '75', '77', '81', '83', '87', '89', '96', '99',
       '102', '103', '104', '105', '108', '115', '122', '137', '138', '139',
       '144', '150', '170', '172', '174', '175', '178', '188', '192', '194',
       '195', '197', '204', '206', '207', '211', '216', '217', '218', '232',
       '238', '252', '255', '257', '258', '259', '260', '268', '276', '277',
       '284', '285', '290', '294', '295', '297', '300'],
      dtype='object')",True,1000,True,100,0.0,0.0,d96d2773d4
121,./expes/v3_2021-01-29_di_300-prng-1-w1-p100,daily_issda-300,300,first-300,56,18,rng,num-start-121,121,536,classic,3.4300458431243896,True,,True,1.0,1.0,1.0,1,"Index(['8', '16', '37', '38', '44', '61', '65', '67', '68', '70', '72', '76',
       '91', '92', '96', '100', '104', '110', '116', '119', '120', '121',
       '130', '132', '133', '135', '142', '144', '149', '151', '161', '178',
       '183', '187', '188', '191', '203', '220', '221', '224', '226', '228',
       '230', '231', '236', '238', '250', '252', '268', '273', '275', '282',
       '284', '289', '290', '296'],
      dtype='object')",False,1000,True,100,1.0,1.0,c528952fba
122,./expes/v3_2021-01-29_di_300-prng-1-w1-p100,daily_issda-300,300,first-300,91,30,rng,num-start-81,81,536,classic,1001.6731374263765,False,,False,0.0,,,0,"Index(['1', '6', '10', '14', '15', '16', '17', '19', '23', '27', '31', '32',
       '39', '40', '43', '45', '47', '53', '58', '59', '70', '74', '75', '84',
       '88', '92', '99', '103', '105', '107', '108', '113', '114', '115',
       '117', '121', '130', '134', '138', '141', '142', '145', '159', '161',
       '172', '173', '174', '177', '180', '183', '186', '187', '189', '191',
       '192', '196', '197', '198', '199', '206', '208', '215', '217', '219',
       '221', '222', '226', '228', '234', '236', '241', '243', '244', '245',
       '248', '256', '257', '260', '261', '262', '263', '264', '266', '271',
       '277', '278', '282', '285', '286', '294', '296'],
      dtype='object')",True,1000,True,100,0.0,0.0,5597cdd49f
123,./expes/v3_2021-01-29_di_300-prng-1-w1-p100,daily_issda-300,300,first-300,77,25,rng,num-start-131,131,536,classic,3.9246749877929688,True,,True,1.0,1.0,1.0,1,"Index(['2', '3', '4', '5', '9', '13', '18', '21', '22', '23', '27', '28', '29',
       '33', '36', '42', '43', '44', '45', '48', '53', '57', '58', '63', '68',
       '69', '71', '72', '75', '77', '81', '83', '87', '89', '96', '99', '102',
       '103', '104', '105', '108', '115', '122', '137', '138', '139', '144',
       '150', '170', '172', '174', '175', '192', '194', '195', '197', '204',
       '207', '211', '216', '217', '218', '232', '238', '252', '255', '257',
       '258', '259', '260', '276', '277', '284', '285', '294', '295', '297'],
      dtype='object')",False,1000,True,100,1.0,1.0,382a85c458
124,./expes/v3_2021-01-29_di_300-prng-1-w1-p100,daily_issda-300,300,first-300,140,46,rng,num-start-31,31,536,classic,1000.6933846473694,False,,False,0.0,,,0,"Index(['2', '3', '5', '6', '8', '9', '10', '16', '19', '22',
       ...
       '282', '285', '286', '290', '292', '293', '295', '296', '297', '298'],
      dtype='object', length=140)",True,1000,True,100,0.0,0.0,fb0f12b03d
125,./expes/v3_2021-01-29_di_300-prng-1-w1-p100,daily_issda-300,300,first-300,56,18,rng,num-start-1,1,536,classic,521.5675611495972,False,,True,0.4411338520830661,0.4102321753804114,0.4892460815447508,10000,"Index(['6', '15', '36', '38', '43', '46', '48', '49', '53', '55', '58', '59',
       '61', '63', '77', '83', '85', '93', '100', '105', '112', '115', '127',
       '131', '134', '135', '139', '141', '143', '144', '145', '150', '156',
       '162', '173', '184', '185', '187', '196', '202', '204', '207', '211',
       '225', '231', '232', '239', '249', '250', '257', '264', '265', '270',
       '283', '297', '299'],
      dtype='object')",False,1000,True,100,1.0,1.0,d032b3a1f2
126,./expes/v3_2021-01-29_di_300-prng-1-w1-p100,daily_issda-300,300,first-300,84,28,rng,num-start-161,161,536,classic,4.950942754745483,True,,True,1.0,1.0,1.0,1,"Index(['1', '2', '3', '5', '7', '10', '12', '15', '19', '24', '27', '30', '34',
       '37', '53', '56', '58', '61', '65', '68', '72', '75', '81', '82', '85',
       '86', '91', '93', '94', '95', '101', '102', '105', '108', '111', '126',
       '127', '128', '129', '131', '132', '136', '144', '149', '152', '153',
       '155', '157', '159', '161', '162', '170', '174', '177', '182', '184',
       '185', '188', '189', '191', '193', '195', '197', '200', '207', '209',
       '213', '215', '222', '228', '232', '237', '239', '241', '242', '247',
       '263', '269', '272', '277', '279', '282', '294', '297'],
      dtype='object')",False,1000,True,100,1.0,1.0,a5b917c606
127,./expes/v3_2021-01-29_di_300-prng-1-w1-p100,daily_issda-300,300,first-300,63,21,rng,num-start-261,261,536,classic,7.331424713134766,True,,True,1.0,1.0,1.0,1,"Index(['20', '24', '25', '26', '30', '31', '32', '33', '36', '38', '42', '45',
       '47', '49', '50', '53', '61', '64', '69', '74', '78', '93', '97', '106',
       '110', '114', '115', '124', '125', '128', '149', '154', '158', '161',
       '166', '186', '188', '191', '203', '204', '215', '218', '219', '223',
       '233', '239', '255', '260', '273', '275', '277', '281', '283', '286',
       '287', '289', '290', '293', '295', '296', '298', '299', '300'],
      dtype='object')",False,1000,True,100,1.0,1.0,71afd3ed8b
128,./expes/v3_2021-01-29_di_300-prng-1-w1-p100,daily_issda-300,300,first-300,21,7,rng,num-start-101,101,536,classic,2.45048189163208,True,,True,1.0,1.0,1.0,1,"Index(['4', '21', '27', '42', '57', '68', '71', '81', '87', '96', '122', '137',
       '172', '174', '192', '195', '217', '232', '238', '258', '284'],
      dtype='object')",False,1000,True,100,1.0,1.0,e3afa06add
129,./expes/v3_2021-01-29_di_300-prng-1-w1-p100,daily_issda-300,300,first-300,77,25,rng,num-start-171,171,536,classic,5.113383293151856,True,,True,1.0,1.0,1.0,1,"Index(['3', '5', '10', '14', '26', '27', '28', '30', '32', '33', '36', '42',
       '49', '57', '60', '64', '67', '71', '72', '73', '78', '88', '90', '99',
       '101', '102', '108', '110', '123', '128', '129', '130', '133', '137',
       '140', '142', '143', '149', '156', '158', '159', '163', '164', '170',
       '171', '172', '173', '179', '182', '185', '188', '191', '192', '197',
       '206', '208', '210', '213', '215', '222', '240', '243', '245', '257',
       '260', '268', '270', '273', '277', '283', '284', '285', '286', '287',
       '293', '295', '297'],
      dtype='object')",False,1000,True,100,1.0,1.0,5854b31d71
130,./expes/v3_2021-01-29_di_300-prng-1-w1-p100,daily_issda-300,300,first-300,98,32,rng,num-start-161,161,536,classic,5.092673063278198,True,,True,1.0,1.0,1.0,1,"Index(['2', '8', '16', '19', '20', '22', '23', '36', '37', '38', '40', '44',
       '48', '58', '61', '63', '65', '67', '68', '70', '71', '72', '73', '76',
       '82', '85', '86', '91', '92', '94', '96', '99', '100', '104', '109',
       '110', '116', '119', '120', '121', '122', '129', '130', '132', '133',
       '135', '138', '142', '144', '149', '151', '152', '155', '160', '161',
       '175', '176', '178', '180', '183', '184', '187', '188', '191', '192',
       '200', '203', '209', '212', '218', '220', '221', '224', '226', '228',
       '230', '231', '236', '238', '241', '250', '252', '255', '267', '268',
       '270', '273', '275', '279', '282', '284', '285', '289', '290', '292',
       '296', '298', '299'],
      dtype='object')",False,1000,True,100,1.0,1.0,a40d6cf406
131,./expes/v3_2021-01-29_di_300-prng-1-w1-p100,daily_issda-300,300,first-300,126,42,rng,num-start-191,191,536,classic,6.202642202377319,True,,True,1.0,1.0,1.0,1,"Index(['1', '3', '5', '6', '8', '9', '11', '16', '19', '20',
       ...
       '271', '276', '283', '284', '287', '289', '290', '295', '296', '299'],
      dtype='object', length=126)",False,1000,True,100,1.0,1.0,bbdb9d440e
132,./expes/v3_2021-01-29_di_300-prng-1-w1-p100,daily_issda-300,300,first-300,91,30,rng,num-start-291,291,536,classic,8.77884554862976,True,,True,1.0,1.0,1.0,1,"Index(['1', '2', '3', '5', '7', '10', '12', '15', '19', '24', '27', '30', '34',
       '37', '47', '53', '56', '58', '61', '65', '68', '72', '75', '76', '81',
       '82', '85', '86', '91', '93', '94', '95', '101', '102', '105', '107',
       '108', '111', '126', '127', '128', '129', '131', '132', '136', '142',
       '144', '149', '152', '153', '155', '157', '159', '161', '162', '170',
       '174', '175', '177', '182', '184', '185', '186', '188', '189', '191',
       '193', '195', '197', '200', '207', '209', '213', '215', '222', '228',
       '232', '237', '239', '241', '242', '247', '263', '269', '272', '277',
       '279', '280', '282', '294', '297'],
      dtype='object')",False,1000,True,100,1.0,1.0,a559496a77
133,./expes/v3_2021-01-29_di_300-prng-1-w1-p100,daily_issda-300,300,first-300,28,9,rng,num-start-51,51,536,classic,2.210047721862793,True,,True,1.0,1.0,1.0,1,"Index(['6', '9', '19', '29', '60', '76', '81', '106', '107', '115', '118',
       '119', '123', '135', '144', '157', '161', '174', '177', '182', '183',
       '189', '201', '216', '239', '262', '267', '296'],
      dtype='object')",False,1000,True,100,1.0,1.0,b77794fa0b
134,./expes/v3_2021-01-29_di_300-prng-1-w1-p100,daily_issda-300,300,first-300,14,4,rng,num-start-271,271,536,classic,6.62220573425293,True,,True,1.0,1.0,1.0,1,"Index(['1', '6', '74', '117', '138', '141', '180', '192', '196', '236', '243',
       '248', '271', '286'],
      dtype='object')",False,1000,True,100,1.0,1.0,2a109965cd
135,./expes/v3_2021-01-29_di_300-prng-1-w1-p100,daily_issda-300,300,first-300,105,35,rng,num-start-151,151,536,classic,4.833972930908203,True,,True,1.0,1.0,1.0,1,"Index(['2', '3', '8', '16', '19', '20', '22', '23', '36', '37',
       ...
       '282', '284', '285', '287', '289', '290', '292', '296', '298', '299'],
      dtype='object', length=105)",False,1000,True,100,1.0,1.0,b8942b469e
136,./expes/v3_2021-01-29_di_300-prng-1-w1-p100,daily_issda-300,300,first-300,28,9,rng,num-start-241,241,536,classic,6.464002370834351,True,,True,1.0,1.0,1.0,1,"Index(['11', '14', '31', '35', '47', '53', '55', '80', '85', '89', '100',
       '110', '114', '121', '134', '135', '140', '142', '149', '156', '159',
       '185', '203', '206', '246', '267', '275', '282'],
      dtype='object')",False,1000,True,100,1.0,1.0,e3a823cab3
137,./expes/v3_2021-01-29_di_300-prng-1-w1-p100,daily_issda-300,300,first-300,42,14,rng,num-start-221,221,536,classic,6.050801038742065,True,,True,1.0,1.0,1.0,1,"Index(['10', '14', '27', '32', '36', '42', '57', '64', '71', '72', '73', '78',
       '90', '101', '108', '128', '130', '143', '149', '156', '159', '163',
       '170', '173', '182', '188', '191', '197', '206', '210', '213', '215',
       '222', '243', '257', '260', '268', '273', '277', '283', '287', '293'],
      dtype='object')",False,1000,True,100,1.0,1.0,afca2280c5
138,./expes/v3_2021-01-29_di_300-prng-1-w1-p100,daily_issda-300,300,first-300,56,18,rng,num-start-251,251,536,classic,7.283859729766846,True,,True,1.0,1.0,1.0,1,"Index(['1', '2', '3', '7', '12', '15', '27', '34', '37', '53', '58', '65',
       '68', '72', '75', '81', '82', '85', '86', '94', '101', '102', '105',
       '108', '111', '127', '128', '131', '136', '144', '149', '153', '155',
       '157', '159', '161', '162', '170', '174', '182', '184', '185', '191',
       '195', '197', '200', '209', '213', '228', '239', '241', '247', '272',
       '277', '279', '294'],
      dtype='object')",False,1000,True,100,1.0,1.0,b3be5e673b
139,./expes/v3_2021-01-29_di_300-prng-1-w1-p100,daily_issda-300,300,first-300,7,2,rng,num-start-41,41,536,classic,1.151054859161377,True,,True,1.0,1.0,1.0,1,"Index(['47', '53', '80', '121', '156', '203', '246'], dtype='object')",False,1000,True,100,1.0,1.0,537e807679
140,./expes/v3_2021-01-29_di_300-prng-1-w1-p100,daily_issda-300,300,first-300,98,32,rng,num-start-51,51,536,classic,1001.2170855998992,False,,False,0.0,,,0,"Index(['1', '2', '3', '4', '5', '9', '10', '13', '14', '18', '21', '22', '23',
       '27', '28', '29', '33', '36', '42', '43', '44', '45', '46', '48', '53',
       '57', '58', '63', '68', '69', '71', '72', '75', '77', '81', '83', '87',
       '89', '96', '99', '102', '103', '104', '105', '108', '110', '114',
       '115', '122', '137', '138', '139', '144', '146', '150', '158', '167',
       '169', '170', '172', '174', '175', '178', '188', '192', '194', '195',
       '196', '197', '204', '206', '207', '211', '216', '217', '218', '222',
       '228', '232', '238', '252', '255', '257', '258', '259', '260', '265',
       '268', '276', '277', '284', '285', '287', '290', '294', '295', '297',
       '300'],
      dtype='object')",True,1000,True,100,0.0,0.0,6e4fa287de
141,./expes/v3_2021-01-29_di_300-prng-1-w1-p100,daily_issda-300,300,first-300,112,37,rng,num-start-211,211,536,classic,6.158365249633789,True,,True,1.0,1.0,1.0,1,"Index(['7', '9', '11', '14', '16', '18', '20', '23', '30', '33',
       ...
       '273', '277', '280', '286', '289', '292', '294', '297', '298', '300'],
      dtype='object', length=112)",False,1000,True,100,1.0,1.0,beece5ece2
142,./expes/v3_2021-01-29_di_300-prng-1-w1-p100,daily_issda-300,300,first-300,77,25,rng,num-start-201,201,536,classic,6.646413326263428,True,,True,1.0,1.0,1.0,1,"Index(['1', '2', '3', '5', '7', '10', '12', '15', '24', '27', '30', '34', '37',
       '53', '58', '61', '65', '68', '72', '75', '81', '82', '85', '86', '91',
       '93', '94', '95', '101', '102', '105', '108', '111', '126', '127',
       '128', '131', '132', '136', '144', '149', '153', '155', '157', '159',
       '161', '162', '170', '174', '177', '182', '184', '185', '188', '191',
       '193', '195', '197', '200', '207', '209', '213', '215', '228', '232',
       '237', '239', '241', '242', '247', '263', '272', '277', '279', '282',
       '294', '297'],
      dtype='object')",False,1000,True,100,1.0,1.0,e6eaedf0c5
143,./expes/v3_2021-01-29_di_300-prng-1-w1-p100,daily_issda-300,300,first-300,42,14,rng,num-start-91,91,536,classic,2.4228456020355225,True,,True,1.0,1.0,1.0,1,"Index(['1', '12', '15', '19', '24', '42', '46', '48', '49', '50', '75', '99',
       '100', '101', '102', '103', '129', '134', '136', '140', '150', '164',
       '172', '185', '186', '192', '210', '212', '218', '228', '241', '249',
       '250', '251', '258', '264', '276', '277', '284', '289', '294', '295'],
      dtype='object')",False,1000,True,100,1.0,1.0,74ec949524
144,./expes/v3_2021-01-29_di_300-prng-1-w1-p100,daily_issda-300,300,first-300,105,35,rng,num-start-31,31,536,classic,1000.6591989994048,False,,False,0.0,,,0,"Index(['1', '4', '5', '6', '10', '14', '15', '16', '17', '19',
       ...
       '264', '266', '271', '277', '278', '282', '285', '286', '294', '296'],
      dtype='object', length=105)",True,1000,True,100,0.0,0.0,1e3b69f7c8
145,./expes/v3_2021-01-29_di_300-prng-1-w1-p100,daily_issda-300,300,first-300,77,25,rng,num-start-211,211,536,classic,4.954727411270142,True,,True,1.0,1.0,1.0,1,"Index(['1', '7', '9', '12', '15', '19', '24', '28', '40', '42', '46', '48',
       '49', '50', '60', '62', '65', '71', '75', '87', '95', '97', '99', '100',
       '101', '102', '103', '108', '115', '126', '129', '134', '136', '138',
       '140', '149', '150', '156', '157', '160', '164', '171', '172', '183',
       '185', '186', '192', '194', '195', '200', '204', '210', '212', '217',
       '218', '221', '226', '228', '229', '241', '248', '249', '250', '251',
       '257', '258', '264', '268', '269', '271', '276', '277', '284', '286',
       '289', '294', '295'],
      dtype='object')",False,1000,True,100,1.0,1.0,4304d85e5e
146,./expes/v3_2021-01-29_di_300-prng-1-w1-p100,daily_issda-300,300,first-300,119,39,rng,num-start-131,131,536,classic,3.893155336380005,True,,True,1.0,1.0,1.0,1,"Index(['2', '3', '8', '16', '17', '19', '20', '22', '23', '36',
       ...
       '282', '284', '285', '287', '289', '290', '292', '296', '298', '299'],
      dtype='object', length=119)",False,1000,True,100,1.0,1.0,c3cd827cb0
147,./expes/v3_2021-01-29_di_300-prng-1-w1-p100,daily_issda-300,300,first-300,84,28,rng,num-start-101,101,536,classic,28.875696182250977,True,,True,1.0,1.0,1.0,1,"Index(['3', '8', '17', '18', '19', '23', '34', '37', '39', '42', '50', '58',
       '62', '69', '72', '74', '77', '81', '83', '85', '86', '90', '91', '92',
       '98', '100', '106', '115', '121', '123', '126', '128', '135', '137',
       '141', '143', '146', '155', '156', '161', '167', '168', '170', '178',
       '179', '182', '185', '186', '188', '192', '193', '196', '197', '212',
       '213', '216', '220', '222', '223', '224', '226', '227', '229', '231',
       '234', '237', '241', '246', '248', '251', '252', '255', '257', '267',
       '268', '274', '275', '279', '282', '291', '293', '296', '299', '300'],
      dtype='object')",False,1000,True,100,1.0,1.0,b941e0acf6
148,./expes/v3_2021-01-29_di_300-prng-1-w1-p100,daily_issda-300,300,first-300,140,46,rng,num-start-111,111,536,classic,18.009582042694092,True,,True,1.0,1.0,1.0,1,"Index(['1', '2', '3', '5', '7', '10', '12', '15', '17', '18',
       ...
       '274', '277', '279', '280', '281', '282', '287', '289', '294', '297'],
      dtype='object', length=140)",False,1000,True,100,1.0,1.0,4a033fbc09
149,./expes/v3_2021-01-29_di_300-prng-1-w1-p100,daily_issda-300,300,first-300,133,44,rng,num-start-1,1,536,classic,266.06807374954224,False,,True,0.2615157512432707,0.2028478783715604,0.3157285445459792,10000,"Index(['1', '3', '5', '6', '8', '9', '11', '16', '19', '20',
       ...
       '276', '283', '284', '287', '289', '290', '293', '295', '296', '299'],
      dtype='object', length=133)",False,1000,True,100,1.0,1.0,af8d368981
150,./expes/v3_2021-01-29_di_300-prng-1-w1-p100,daily_issda-300,300,first-300,133,44,rng,num-start-201,201,536,classic,6.070834398269653,True,,True,1.0,1.0,1.0,1,"Index(['4', '5', '10', '11', '14', '17', '19', '21', '22', '23',
       ...
       '271', '274', '275', '280', '281', '282', '286', '293', '294', '299'],
      dtype='object', length=133)",False,1000,True,100,1.0,1.0,1c402fd9f5
151,./expes/v3_2021-01-29_di_300-prng-1-w1-p100,daily_issda-300,300,first-300,119,39,rng,num-start-111,111,536,classic,57.22768592834473,True,,True,1.0,1.0,1.0,1,"Index(['2', '3', '8', '17', '18', '19', '23', '26', '33', '34',
       ...
       '276', '278', '279', '282', '287', '291', '293', '296', '299', '300'],
      dtype='object', length=119)",False,1000,True,100,1.0,1.0,28f7355445
152,./expes/v3_2021-01-29_di_300-prng-1-w1-p100,daily_issda-300,300,first-300,49,16,rng,num-start-231,231,536,classic,6.861689805984497,True,,True,1.0,1.0,1.0,1,"Index(['9', '12', '23', '37', '38', '51', '54', '56', '59', '62', '69', '71',
       '76', '82', '99', '103', '104', '107', '120', '134', '138', '149',
       '154', '160', '167', '168', '178', '199', '200', '202', '203', '209',
       '211', '213', '217', '226', '234', '253', '258', '262', '267', '271',
       '278', '280', '292', '293', '296', '297', '300'],
      dtype='object')",False,1000,True,100,1.0,1.0,5a27a5f8b5
153,./expes/v3_2021-01-29_di_300-prng-1-w1-p100,daily_issda-300,300,first-300,56,18,rng,num-start-161,161,536,classic,4.813363790512085,True,,True,1.0,1.0,1.0,1,"Index(['6', '15', '36', '38', '43', '46', '48', '49', '53', '55', '58', '59',
       '61', '63', '77', '83', '85', '93', '100', '105', '112', '115', '127',
       '131', '134', '135', '139', '141', '143', '144', '145', '150', '156',
       '162', '173', '184', '185', '187', '196', '202', '204', '207', '211',
       '225', '231', '232', '239', '249', '250', '257', '264', '265', '270',
       '283', '297', '299'],
      dtype='object')",False,1000,True,100,1.0,1.0,a256c6f994
154,./expes/v3_2021-01-29_di_300-prng-1-w1-p100,daily_issda-300,300,first-300,140,46,rng,num-start-61,61,536,classic,1001.3453409671783,False,,False,0.0,,,0,"Index(['4', '5', '10', '11', '14', '17', '19', '21', '22', '23',
       ...
       '274', '275', '280', '281', '282', '286', '290', '293', '294', '299'],
      dtype='object', length=140)",True,1000,True,100,0.0,0.0,657fd49d8d
155,./expes/v3_2021-01-29_di_300-prng-1-w1-p100,daily_issda-300,300,first-300,63,21,rng,num-start-31,31,536,classic,1000.6642394065856,False,,False,0.0,,,0,"Index(['1', '7', '9', '12', '15', '19', '24', '42', '46', '48', '49', '50',
       '60', '62', '71', '75', '87', '97', '99', '100', '101', '102', '103',
       '108', '115', '126', '129', '134', '136', '138', '140', '150', '156',
       '160', '164', '171', '172', '183', '185', '186', '192', '195', '210',
       '212', '218', '221', '228', '241', '248', '249', '250', '251', '257',
       '258', '264', '268', '269', '276', '277', '284', '289', '294', '295'],
      dtype='object')",True,1000,True,100,0.0,0.0,8dab753b7a
156,./expes/v3_2021-01-29_di_300-prng-1-w1-p100,daily_issda-300,300,first-300,140,46,rng,num-start-11,11,536,classic,1000.2351412773132,False,,False,0.0,,,0,"Index(['2', '3', '8', '16', '17', '18', '19', '20', '22', '23',
       ...
       '284', '285', '287', '289', '290', '292', '296', '298', '299', '300'],
      dtype='object', length=140)",True,1000,True,100,0.0,0.0,1aa8fc72e5
157,./expes/v3_2021-01-29_di_300-prng-1-w1-p100,daily_issda-300,300,first-300,49,16,rng,num-start-51,51,536,classic,1001.0962371826172,False,,False,0.0,,,0,"Index(['11', '16', '20', '23', '30', '33', '44', '45', '46', '50', '56', '59',
       '65', '71', '73', '99', '100', '107', '108', '117', '120', '121', '127',
       '133', '137', '174', '190', '193', '194', '195', '198', '200', '206',
       '207', '209', '233', '236', '243', '249', '250', '251', '254', '255',
       '260', '265', '267', '277', '294', '298'],
      dtype='object')",True,1000,True,100,0.0,0.0,e0148947c6
158,./expes/v3_2021-01-29_di_300-prng-1-w1-p100,daily_issda-300,300,first-300,98,32,rng,num-start-201,201,536,classic,6.185487508773804,True,,True,1.0,1.0,1.0,1,"Index(['1', '2', '3', '4', '5', '9', '10', '13', '14', '18', '21', '22', '23',
       '27', '28', '29', '33', '36', '42', '43', '44', '45', '46', '48', '53',
       '57', '58', '63', '68', '69', '71', '72', '75', '77', '81', '83', '87',
       '89', '96', '99', '102', '103', '104', '105', '108', '110', '114',
       '115', '122', '137', '138', '139', '144', '146', '150', '158', '167',
       '169', '170', '172', '174', '175', '178', '188', '192', '194', '195',
       '196', '197', '204', '206', '207', '211', '216', '217', '218', '222',
       '228', '232', '238', '252', '255', '257', '258', '259', '260', '265',
       '268', '276', '277', '284', '285', '287', '290', '294', '295', '297',
       '300'],
      dtype='object')",False,1000,True,100,1.0,1.0,6caecaeea4
159,./expes/v3_2021-01-29_di_300-prng-1-w1-p100,daily_issda-300,300,first-300,28,9,rng,num-start-281,281,536,classic,6.66772985458374,True,,True,1.0,1.0,1.0,1,"Index(['1', '6', '31', '39', '45', '74', '75', '84', '103', '108', '117',
       '138', '141', '173', '174', '180', '189', '192', '196', '208', '226',
       '236', '243', '248', '263', '271', '286', '296'],
      dtype='object')",False,1000,True,100,1.0,1.0,108f668094
160,./expes/v3_2021-01-29_di_300-prng-1-w1-p100,daily_issda-300,300,first-300,63,21,rng,num-start-111,111,536,classic,3.4135196208953857,True,,True,1.0,1.0,1.0,1,"Index(['2', '3', '4', '5', '9', '13', '21', '23', '27', '29', '33', '36', '42',
       '43', '44', '45', '53', '57', '58', '63', '68', '69', '71', '72', '81',
       '87', '96', '99', '102', '103', '104', '105', '108', '115', '122',
       '137', '144', '150', '170', '172', '174', '175', '192', '194', '195',
       '197', '204', '211', '216', '217', '218', '232', '238', '252', '255',
       '257', '258', '260', '276', '277', '284', '294', '297'],
      dtype='object')",False,1000,True,100,1.0,1.0,2afd15d825
161,./expes/v3_2021-01-29_di_300-prng-1-w1-p100,daily_issda-300,300,first-300,112,37,rng,num-start-281,281,536,classic,7.25352144241333,True,,True,1.0,1.0,1.0,1,"Index(['1', '3', '5', '11', '13', '15', '16', '17', '19', '21',
       ...
       '270', '272', '279', '283', '286', '287', '288', '291', '295', '298'],
      dtype='object', length=112)",False,1000,True,100,1.0,1.0,7854c4da4e
162,./expes/v3_2021-01-29_di_300-prng-1-w1-p100,daily_issda-300,300,first-300,7,2,rng,num-start-291,291,536,classic,7.641465663909912,True,,True,1.0,1.0,1.0,1,"Index(['67', '76', '96', '116', '119', '133', '149'], dtype='object')",False,1000,True,100,1.0,1.0,8800fad9f2
163,./expes/v3_2021-01-29_di_300-prng-1-w1-p100,daily_issda-300,300,first-300,91,30,rng,num-start-281,281,536,classic,6.725138425827026,True,,True,1.0,1.0,1.0,1,"Index(['2', '3', '5', '7', '12', '14', '15', '16', '18', '23', '33', '45',
       '49', '52', '53', '56', '61', '62', '67', '69', '84', '87', '88', '89',
       '96', '98', '103', '108', '111', '113', '114', '117', '118', '119',
       '120', '125', '131', '137', '138', '146', '149', '152', '156', '158',
       '163', '171', '177', '181', '188', '190', '192', '195', '196', '197',
       '200', '202', '207', '208', '213', '214', '217', '222', '225', '229',
       '231', '236', '241', '242', '246', '250', '251', '254', '256', '257',
       '258', '259', '260', '261', '263', '264', '266', '267', '271', '277',
       '278', '281', '284', '285', '292', '296', '297'],
      dtype='object')",False,1000,True,100,1.0,1.0,7f7a073b31
164,./expes/v3_2021-01-29_di_300-prng-1-w1-p100,daily_issda-300,300,first-300,7,2,rng,num-start-121,121,536,classic,3.4940855503082275,True,,True,1.0,1.0,1.0,1,"Index(['63', '93', '102', '123', '172', '230', '251'], dtype='object')",False,1000,True,100,1.0,1.0,4809f43181
165,./expes/v3_2021-01-29_di_300-prng-1-w1-p100,daily_issda-300,300,first-300,28,9,rng,num-start-241,241,536,classic,6.231512546539307,True,,True,1.0,1.0,1.0,1,"Index(['20', '25', '30', '31', '32', '36', '38', '45', '47', '49', '64', '78',
       '110', '115', '124', '166', '188', '203', '215', '218', '223', '260',
       '275', '283', '290', '296', '299', '300'],
      dtype='object')",False,1000,True,100,1.0,1.0,63a5195a26
166,./expes/v3_2021-01-29_di_300-prng-1-w1-p100,daily_issda-300,300,first-300,91,30,rng,num-start-31,31,536,classic,1000.6967325210572,False,,False,0.0,,,0,"Index(['6', '10', '11', '15', '22', '35', '36', '38', '43', '46', '48', '49',
       '53', '55', '58', '59', '61', '63', '74', '77', '83', '85', '87', '93',
       '97', '100', '105', '112', '115', '121', '127', '131', '132', '134',
       '135', '137', '139', '141', '143', '144', '145', '150', '155', '156',
       '159', '162', '173', '178', '183', '184', '185', '187', '189', '196',
       '198', '199', '202', '204', '207', '208', '211', '214', '217', '218',
       '224', '225', '226', '231', '232', '234', '236', '239', '241', '242',
       '243', '246', '249', '250', '251', '257', '264', '265', '270', '272',
       '274', '283', '287', '292', '293', '297', '299'],
      dtype='object')",True,1000,True,100,0.0,0.0,057da6cd03
