,expe,clients,clients_size,clients_subset,agg_size,agg_size_pc,method,days,days_size,days_total,noise_method,time,valid,valid_sum,success,score_avg,score_min,score_max,nsols,oracle,wall_hit,wall_time,pooled,pool_size,optimal,valid_sums,uuid
0,./expes/v3_2021-01-29_di_300-prng-1-w1-p100,daily_issda-300,300,first-300,49,16,rng,num-start-251,251,536,classic,10.161056518554688,True,,True,1.0,1.0,1.0,1,"Index(['1', '12', '15', '19', '24', '42', '46', '48', '49', '50', '62', '75',
       '99', '100', '101', '102', '103', '126', '129', '134', '136', '140',
       '150', '156', '164', '172', '183', '185', '186', '192', '210', '212',
       '218', '221', '228', '241', '249', '250', '251', '257', '258', '264',
       '269', '276', '277', '284', '289', '294', '295'],
      dtype='object')",False,1000,True,100,1.0,1.0,54ab0e7e7c
1,./expes/v3_2021-01-29_di_300-prng-1-w1-p100,daily_issda-300,300,first-300,84,28,rng,num-start-101,101,536,classic,14.934754371643066,True,,True,1.0,1.0,1.0,1,"Index(['1', '8', '17', '20', '21', '32', '33', '36', '38', '42', '46', '47',
       '48', '49', '51', '52', '56', '64', '67', '72', '73', '76', '77', '95',
       '96', '97', '98', '105', '111', '112', '114', '121', '123', '124',
       '125', '129', '133', '134', '142', '145', '148', '149', '150', '155',
       '156', '159', '162', '163', '164', '167', '170', '171', '182', '184',
       '198', '201', '205', '208', '216', '223', '227', '228', '230', '242',
       '244', '245', '249', '251', '253', '259', '261', '262', '267', '268',
       '269', '273', '277', '279', '281', '283', '287', '291', '295', '299'],
      dtype='object')",False,1000,True,100,1.0,1.0,bb28d90dfd
2,./expes/v3_2021-01-29_di_300-prng-1-w1-p100,daily_issda-300,300,first-300,21,7,rng,num-start-251,251,536,classic,9.763705492019652,True,,True,1.0,1.0,1.0,1,"Index(['8', '22', '33', '47', '49', '73', '81', '95', '96', '98', '156', '203',
       '229', '232', '239', '244', '261', '263', '271', '276', '287'],
      dtype='object')",False,1000,True,100,1.0,1.0,ee9ee53285
3,./expes/v3_2021-01-29_di_300-prng-1-w1-p100,daily_issda-300,300,first-300,77,25,rng,num-start-171,171,536,classic,7.680285692214966,True,,True,1.0,1.0,1.0,1,"Index(['2', '4', '9', '12', '14', '23', '37', '38', '47', '51', '54', '56',
       '59', '62', '66', '69', '71', '76', '82', '88', '94', '99', '103',
       '104', '107', '120', '126', '134', '135', '138', '146', '149', '151',
       '154', '155', '158', '160', '167', '168', '178', '189', '193', '199',
       '200', '202', '203', '207', '209', '211', '213', '217', '220', '225',
       '226', '231', '232', '233', '234', '235', '237', '239', '244', '246',
       '253', '257', '258', '262', '267', '271', '278', '280', '281', '292',
       '293', '296', '297', '300'],
      dtype='object')",False,1000,True,100,1.0,1.0,6d7941e0c8
4,./expes/v3_2021-01-29_di_300-prng-1-w1-p100,daily_issda-300,300,first-300,35,11,rng,num-start-1,1,536,classic,522.8227241039276,False,,True,0.5449433030881778,0.5231092901262601,0.5750270518151028,10000,"Index(['3', '6', '11', '12', '15', '45', '73', '79', '89', '113', '114', '115',
       '117', '122', '130', '133', '146', '152', '155', '159', '172', '179',
       '186', '210', '214', '216', '217', '229', '234', '238', '241', '247',
       '254', '265', '289'],
      dtype='object')",False,1000,True,100,1.0,1.0,8593f041c3
5,./expes/v3_2021-01-29_di_300-prng-1-w1-p100,daily_issda-300,300,first-300,21,7,rng,num-start-231,231,536,classic,9.207303285598757,True,,True,1.0,1.0,1.0,1,"Index(['11', '31', '35', '47', '53', '55', '80', '89', '114', '121', '135',
       '142', '149', '156', '185', '203', '206', '246', '267', '275', '282'],
      dtype='object')",False,1000,True,100,1.0,1.0,2a705c3416
6,./expes/v3_2021-01-29_di_300-prng-1-w1-p100,daily_issda-300,300,first-300,21,7,rng,num-start-251,251,536,classic,9.80311155319214,True,,True,1.0,1.0,1.0,1,"Index(['1', '6', '31', '74', '75', '84', '108', '117', '138', '141', '174',
       '180', '189', '192', '196', '226', '236', '243', '248', '271', '286'],
      dtype='object')",False,1000,True,100,1.0,1.0,c12b612b12
7,./expes/v3_2021-01-29_di_300-prng-1-w1-p100,daily_issda-300,300,first-300,91,30,rng,num-start-191,191,536,classic,8.805101156234741,True,,True,1.0,1.0,1.0,1,"Index(['3', '8', '17', '18', '19', '23', '34', '37', '39', '41', '42', '50',
       '58', '62', '69', '72', '74', '77', '81', '82', '83', '85', '86', '90',
       '91', '92', '98', '100', '106', '115', '121', '123', '125', '126',
       '128', '135', '137', '141', '143', '146', '155', '156', '161', '164',
       '167', '168', '170', '178', '179', '182', '185', '186', '188', '192',
       '193', '196', '197', '200', '208', '212', '213', '216', '220', '222',
       '223', '224', '226', '227', '229', '230', '231', '234', '237', '241',
       '246', '248', '251', '252', '255', '257', '267', '268', '274', '275',
       '279', '282', '291', '293', '296', '299', '300'],
      dtype='object')",False,1000,True,100,1.0,1.0,562dce726d
8,./expes/v3_2021-01-29_di_300-prng-1-w1-p100,daily_issda-300,300,first-300,140,46,rng,num-start-91,91,536,classic,1003.2384462356569,False,,False,0.0,,,0,"Index(['1', '6', '10', '11', '13', '15', '17', '18', '22', '27',
       ...
       '279', '280', '283', '284', '287', '288', '292', '293', '297', '299'],
      dtype='object', length=140)",True,1000,True,100,0.0,0.0,0ee00a1223
9,./expes/v3_2021-01-29_di_300-prng-1-w1-p100,daily_issda-300,300,first-300,49,16,rng,num-start-11,11,536,classic,1000.5328941345216,False,,False,0.0,,,0,"Index(['20', '24', '25', '26', '30', '31', '32', '33', '36', '38', '45', '47',
       '49', '50', '53', '61', '64', '69', '74', '78', '93', '97', '110',
       '114', '115', '124', '149', '158', '166', '188', '191', '203', '204',
       '215', '218', '223', '260', '275', '277', '281', '283', '286', '287',
       '290', '293', '296', '298', '299', '300'],
      dtype='object')",True,1000,True,100,0.0,0.0,db12b662a0
10,./expes/v3_2021-01-29_di_300-prng-1-w1-p100,daily_issda-300,300,first-300,70,23,rng,num-start-41,41,536,classic,1001.3960516452788,False,,False,0.0,,,0,"Index(['2', '5', '12', '14', '15', '16', '18', '33', '45', '49', '52', '53',
       '56', '61', '62', '69', '84', '89', '96', '98', '108', '111', '113',
       '114', '118', '119', '120', '125', '131', '137', '146', '149', '152',
       '156', '163', '171', '177', '188', '190', '192', '195', '196', '200',
       '202', '207', '213', '214', '217', '222', '225', '229', '231', '236',
       '242', '246', '250', '251', '254', '256', '257', '259', '260', '261',
       '267', '271', '278', '281', '284', '285', '292'],
      dtype='object')",True,1000,True,100,0.0,0.0,827c2bde88
11,./expes/v3_2021-01-29_di_300-prng-1-w1-p100,daily_issda-300,300,first-300,28,9,rng,num-start-231,231,536,classic,8.824047327041626,True,,True,1.0,1.0,1.0,1,"Index(['1', '6', '31', '39', '45', '74', '75', '84', '103', '108', '117',
       '138', '141', '173', '174', '180', '189', '192', '196', '208', '226',
       '236', '243', '248', '263', '271', '286', '296'],
      dtype='object')",False,1000,True,100,1.0,1.0,5c64be95fd
12,./expes/v3_2021-01-29_di_300-prng-1-w1-p100,daily_issda-300,300,first-300,119,39,rng,num-start-101,101,536,classic,237.96084761619568,True,,True,1.0,1.0,1.0,1,"Index(['2', '7', '9', '11', '14', '16', '17', '18', '20', '23',
       ...
       '273', '277', '280', '286', '289', '292', '294', '297', '298', '300'],
      dtype='object', length=119)",False,1000,True,100,1.0,1.0,18af6fa7c5
13,./expes/v3_2021-01-29_di_300-prng-1-w1-p100,daily_issda-300,300,first-300,49,16,rng,num-start-81,81,536,classic,6.576273918151856,True,,True,1.0,1.0,1.0,1,"Index(['3', '8', '16', '19', '22', '31', '33', '36', '43', '44', '47', '49',
       '56', '73', '81', '95', '96', '98', '101', '118', '120', '124', '131',
       '143', '148', '149', '151', '156', '162', '168', '203', '206', '209',
       '226', '229', '232', '235', '238', '239', '244', '256', '261', '263',
       '266', '271', '276', '283', '287', '289'],
      dtype='object')",False,1000,True,100,1.0,1.0,977b10aad4
14,./expes/v3_2021-01-29_di_300-prng-1-w1-p100,daily_issda-300,300,first-300,21,7,rng,num-start-191,191,536,classic,8.21037745475769,True,,True,1.0,1.0,1.0,1,"Index(['11', '31', '35', '47', '53', '55', '80', '89', '114', '121', '135',
       '142', '149', '156', '185', '203', '206', '246', '267', '275', '282'],
      dtype='object')",False,1000,True,100,1.0,1.0,1161c11a06
15,./expes/v3_2021-01-29_di_300-prng-1-w1-p100,daily_issda-300,300,first-300,49,16,rng,num-start-241,241,536,classic,10.075021028518677,True,,True,1.0,1.0,1.0,1,"Index(['6', '15', '36', '38', '43', '49', '55', '58', '61', '63', '77', '83',
       '85', '93', '100', '105', '112', '115', '127', '131', '134', '135',
       '139', '141', '145', '150', '156', '162', '173', '184', '185', '187',
       '196', '202', '204', '207', '225', '231', '232', '239', '249', '250',
       '257', '264', '265', '270', '283', '297', '299'],
      dtype='object')",False,1000,True,100,1.0,1.0,416facf3a4
16,./expes/v3_2021-01-29_di_300-prng-1-w1-p100,daily_issda-300,300,first-300,63,21,rng,num-start-211,211,536,classic,9.164627313613892,True,,True,1.0,1.0,1.0,1,"Index(['6', '15', '36', '38', '43', '46', '48', '49', '53', '55', '58', '59',
       '61', '63', '77', '83', '85', '87', '93', '100', '105', '112', '115',
       '127', '131', '134', '135', '139', '141', '143', '144', '145', '150',
       '156', '159', '162', '173', '184', '185', '187', '196', '198', '202',
       '204', '207', '211', '218', '225', '231', '232', '234', '239', '246',
       '249', '250', '257', '264', '265', '270', '274', '283', '297', '299'],
      dtype='object')",False,1000,True,100,1.0,1.0,c132db2be4
17,./expes/v3_2021-01-29_di_300-prng-1-w1-p100,daily_issda-300,300,first-300,56,18,rng,num-start-171,171,536,classic,7.907594919204712,True,,True,1.0,1.0,1.0,1,"Index(['1', '6', '10', '16', '27', '31', '32', '39', '43', '45', '47', '58',
       '70', '74', '75', '84', '88', '99', '103', '108', '115', '117', '134',
       '138', '141', '161', '173', '174', '180', '183', '186', '189', '192',
       '196', '197', '198', '206', '208', '215', '217', '226', '228', '236',
       '241', '243', '245', '248', '260', '261', '263', '271', '277', '278',
       '285', '286', '296'],
      dtype='object')",False,1000,True,100,1.0,1.0,1ef985a434
18,./expes/v3_2021-01-29_di_300-prng-1-w1-p100,daily_issda-300,300,first-300,119,39,rng,num-start-61,61,536,classic,1002.0548090934752,False,,False,0.0,,,0,"Index(['2', '5', '6', '8', '9', '10', '16', '19', '22', '23',
       ...
       '266', '267', '272', '274', '279', '281', '285', '290', '292', '296'],
      dtype='object', length=119)",True,1000,True,100,0.0,0.0,dd6d7f8c58
19,./expes/v3_2021-01-29_di_300-prng-1-w1-p100,daily_issda-300,300,first-300,77,25,rng,num-start-171,171,536,classic,7.844970226287842,True,,True,1.0,1.0,1.0,1,"Index(['2', '8', '16', '20', '22', '23', '37', '38', '44', '61', '65', '67',
       '68', '70', '71', '72', '73', '76', '82', '91', '92', '96', '100',
       '104', '109', '110', '116', '119', '120', '121', '122', '129', '130',
       '132', '133', '135', '142', '144', '149', '151', '161', '178', '180',
       '183', '184', '187', '188', '191', '192', '200', '203', '212', '218',
       '220', '221', '224', '226', '228', '230', '231', '236', '238', '250',
       '252', '255', '267', '268', '273', '275', '282', '284', '289', '290',
       '292', '296', '298', '299'],
      dtype='object')",False,1000,True,100,1.0,1.0,9604a24c8c
20,./expes/v3_2021-01-29_di_300-prng-1-w1-p100,daily_issda-300,300,first-300,77,25,rng,num-start-231,231,536,classic,9.738988637924194,True,,True,1.0,1.0,1.0,1,"Index(['1', '3', '6', '8', '9', '16', '19', '22', '27', '31', '33', '35', '36',
       '38', '43', '44', '45', '47', '49', '52', '56', '61', '69', '73', '81',
       '91', '95', '96', '97', '98', '101', '102', '108', '110', '118', '120',
       '124', '127', '131', '139', '143', '148', '149', '151', '156', '160',
       '162', '168', '171', '173', '193', '198', '203', '204', '206', '209',
       '210', '215', '226', '229', '232', '235', '238', '239', '241', '244',
       '250', '256', '261', '263', '266', '271', '276', '283', '287', '289',
       '290'],
      dtype='object')",False,1000,True,100,1.0,1.0,908ec1fe2d
21,./expes/v3_2021-01-29_di_300-prng-1-w1-p100,daily_issda-300,300,first-300,119,39,rng,num-start-91,91,536,classic,1003.0795259475708,False,,False,0.0,,,0,"Index(['3', '7', '12', '20', '21', '24', '25', '26', '30', '31',
       ...
       '289', '290', '293', '294', '295', '296', '297', '298', '299', '300'],
      dtype='object', length=119)",True,1000,True,100,0.0,0.0,cbd4266fa5
22,./expes/v3_2021-01-29_di_300-prng-1-w1-p100,daily_issda-300,300,first-300,77,25,rng,num-start-161,161,536,classic,6.953376531600952,True,,True,1.0,1.0,1.0,1,"Index(['4', '41', '45', '46', '48', '52', '59', '61', '63', '68', '69', '75',
       '76', '78', '83', '87', '90', '93', '94', '98', '101', '102', '103',
       '104', '105', '106', '111', '113', '121', '122', '123', '128', '130',
       '133', '136', '139', '140', '145', '152', '154', '156', '167', '172',
       '174', '176', '178', '181', '188', '198', '202', '205', '208', '209',
       '224', '230', '235', '241', '245', '246', '251', '252', '253', '254',
       '257', '260', '263', '268', '270', '273', '274', '276', '279', '283',
       '291', '294', '295', '297'],
      dtype='object')",False,1000,True,100,1.0,1.0,f7071964fe
23,./expes/v3_2021-01-29_di_300-prng-1-w1-p100,daily_issda-300,300,first-300,84,28,rng,num-start-31,31,536,classic,1001.0805308818816,False,,False,0.0,,,0,"Index(['1', '7', '9', '12', '15', '19', '24', '28', '40', '42', '44', '46',
       '48', '49', '50', '60', '62', '65', '71', '75', '87', '89', '95', '97',
       '99', '100', '101', '102', '103', '108', '115', '126', '129', '134',
       '136', '137', '138', '140', '149', '150', '156', '157', '160', '164',
       '171', '172', '183', '185', '186', '192', '194', '195', '200', '204',
       '210', '212', '217', '218', '219', '221', '226', '228', '229', '232',
       '241', '242', '248', '249', '250', '251', '257', '258', '264', '265',
       '268', '269', '271', '276', '277', '284', '286', '289', '294', '295'],
      dtype='object')",True,1000,True,100,0.0,0.0,df0668becc
24,./expes/v3_2021-01-29_di_300-prng-1-w1-p100,daily_issda-300,300,first-300,105,35,rng,num-start-71,71,536,classic,1002.5643980503082,False,,False,0.0,,,0,"Index(['1', '2', '3', '4', '5', '9', '10', '13', '14', '18',
       ...
       '276', '277', '284', '285', '287', '290', '294', '295', '297', '300'],
      dtype='object', length=105)",True,1000,True,100,0.0,0.0,b8621e5f75
25,./expes/v3_2021-01-29_di_300-prng-1-w1-p100,daily_issda-300,300,first-300,77,25,rng,num-start-131,131,536,classic,8.289294481277466,True,,True,1.0,1.0,1.0,1,"Index(['4', '11', '14', '23', '24', '31', '32', '35', '42', '45', '46', '47',
       '52', '53', '55', '75', '80', '83', '85', '89', '92', '95', '100',
       '101', '102', '104', '110', '114', '118', '120', '121', '127', '128',
       '133', '134', '135', '140', '142', '144', '148', '149', '150', '154',
       '156', '157', '159', '160', '165', '166', '173', '176', '183', '185',
       '191', '199', '203', '206', '212', '217', '221', '224', '226', '232',
       '237', '242', '243', '246', '260', '261', '266', '267', '274', '275',
       '281', '282', '286', '294'],
      dtype='object')",False,1000,True,100,1.0,1.0,fa6e76267f
26,./expes/v3_2021-01-29_di_300-prng-1-w1-p100,daily_issda-300,300,first-300,14,4,rng,num-start-201,201,536,classic,8.475986242294312,True,,True,1.0,1.0,1.0,1,"Index(['7', '34', '67', '99', '120', '122', '133', '190', '241', '243', '277',
       '279', '283', '298'],
      dtype='object')",False,1000,True,100,1.0,1.0,dfb65ae4e5
27,./expes/v3_2021-01-29_di_300-prng-1-w1-p100,daily_issda-300,300,first-300,14,4,rng,num-start-231,231,536,classic,9.086217880249023,True,,True,1.0,1.0,1.0,1,"Index(['21', '72', '112', '133', '156', '184', '198', '208', '216', '245',
       '249', '259', '262', '299'],
      dtype='object')",False,1000,True,100,1.0,1.0,96f4dc8151
28,./expes/v3_2021-01-29_di_300-prng-1-w1-p100,daily_issda-300,300,first-300,28,9,rng,num-start-291,291,536,classic,12.048401832580566,True,,True,1.0,1.0,1.0,1,"Index(['1', '12', '19', '42', '46', '48', '49', '75', '99', '102', '134',
       '136', '140', '164', '172', '186', '192', '210', '212', '218', '241',
       '249', '251', '276', '277', '284', '289', '294'],
      dtype='object')",False,1000,True,100,1.0,1.0,a966eaa5ea
29,./expes/v3_2021-01-29_di_300-prng-1-w1-p100,daily_issda-300,300,first-300,133,44,rng,num-start-231,231,536,classic,10.43223237991333,True,,True,1.0,1.0,1.0,1,"Index(['1', '4', '7', '8', '9', '10', '11', '12', '15', '16',
       ...
       '277', '283', '284', '286', '287', '289', '292', '294', '295', '297'],
      dtype='object', length=133)",False,1000,True,100,1.0,1.0,220662532a
30,./expes/v3_2021-01-29_di_300-prng-1-w1-p100,daily_issda-300,300,first-300,91,30,rng,num-start-111,111,536,classic,10.518590450286863,True,,True,1.0,1.0,1.0,1,"Index(['2', '3', '5', '7', '12', '14', '15', '16', '18', '23', '33', '45',
       '49', '52', '53', '56', '61', '62', '67', '69', '84', '87', '88', '89',
       '96', '98', '103', '108', '111', '113', '114', '117', '118', '119',
       '120', '125', '131', '137', '138', '146', '149', '152', '156', '158',
       '163', '171', '177', '181', '188', '190', '192', '195', '196', '197',
       '200', '202', '207', '208', '213', '214', '217', '222', '225', '229',
       '231', '236', '241', '242', '246', '250', '251', '254', '256', '257',
       '258', '259', '260', '261', '263', '264', '266', '267', '271', '277',
       '278', '281', '284', '285', '292', '296', '297'],
      dtype='object')",False,1000,True,100,1.0,1.0,67827c315c
31,./expes/v3_2021-01-29_di_300-prng-1-w1-p100,daily_issda-300,300,first-300,49,16,rng,num-start-41,41,536,classic,1001.6070206165314,False,,False,0.0,,,0,"Index(['13', '15', '19', '29', '44', '47', '70', '82', '83', '85', '87', '89',
       '91', '94', '109', '119', '121', '128', '129', '138', '158', '164',
       '167', '182', '185', '186', '187', '191', '195', '202', '205', '213',
       '217', '221', '228', '229', '237', '239', '251', '258', '261', '262',
       '264', '269', '270', '272', '279', '287', '298'],
      dtype='object')",True,1000,True,100,0.0,0.0,2134474a62
32,./expes/v3_2021-01-29_di_300-prng-1-w1-p100,daily_issda-300,300,first-300,56,18,rng,num-start-61,61,536,classic,1002.1308879852296,False,,False,0.0,,,0,"Index(['1', '6', '10', '16', '27', '31', '32', '39', '43', '45', '47', '58',
       '70', '74', '75', '84', '88', '99', '103', '108', '115', '117', '134',
       '138', '141', '161', '173', '174', '180', '183', '186', '189', '192',
       '196', '197', '198', '206', '208', '215', '217', '226', '228', '236',
       '241', '243', '245', '248', '260', '261', '263', '271', '277', '278',
       '285', '286', '296'],
      dtype='object')",True,1000,True,100,0.0,0.0,4511d11600
33,./expes/v3_2021-01-29_di_300-prng-1-w1-p100,daily_issda-300,300,first-300,21,7,rng,num-start-291,291,536,classic,11.302645206451416,True,,True,1.0,1.0,1.0,1,"Index(['21', '49', '51', '72', '76', '112', '129', '133', '145', '156', '159',
       '184', '198', '208', '216', '245', '249', '259', '262', '273', '299'],
      dtype='object')",False,1000,True,100,1.0,1.0,5274eecf03
34,./expes/v3_2021-01-29_di_300-prng-1-w1-p100,daily_issda-300,300,first-300,126,42,rng,num-start-51,51,536,classic,1001.767344236374,False,,False,0.0,,,0,"Index(['3', '5', '10', '11', '14', '15', '26', '27', '28', '30',
       ...
       '284', '285', '286', '287', '289', '291', '293', '295', '296', '297'],
      dtype='object', length=126)",True,1000,True,100,0.0,0.0,d3b86e6c72
35,./expes/v3_2021-01-29_di_300-prng-1-w1-p100,daily_issda-300,300,first-300,35,11,rng,num-start-171,171,536,classic,6.862831592559815,True,,True,1.0,1.0,1.0,1,"Index(['3', '8', '16', '19', '22', '31', '33', '44', '47', '49', '73', '81',
       '95', '96', '98', '101', '120', '124', '151', '156', '168', '203',
       '226', '229', '232', '238', '239', '244', '256', '261', '263', '266',
       '271', '276', '287'],
      dtype='object')",False,1000,True,100,1.0,1.0,00689c3e9d
36,./expes/v3_2021-01-29_di_300-prng-1-w1-p100,daily_issda-300,300,first-300,14,4,rng,num-start-161,161,536,classic,6.431416749954224,True,,True,1.0,1.0,1.0,1,"Index(['47', '49', '73', '95', '96', '98', '156', '229', '232', '239', '244',
       '261', '263', '287'],
      dtype='object')",False,1000,True,100,1.0,1.0,d8ce9bedcd
37,./expes/v3_2021-01-29_di_300-prng-1-w1-p100,daily_issda-300,300,first-300,21,7,rng,num-start-181,181,536,classic,6.99131441116333,True,,True,1.0,1.0,1.0,1,"Index(['4', '21', '27', '42', '57', '68', '71', '81', '87', '96', '122', '137',
       '172', '174', '192', '195', '217', '232', '238', '258', '284'],
      dtype='object')",False,1000,True,100,1.0,1.0,f0ecb903c6
38,./expes/v3_2021-01-29_di_300-prng-1-w1-p100,daily_issda-300,300,first-300,126,42,rng,num-start-211,211,536,classic,9.763457775115969,True,,True,1.0,1.0,1.0,1,"Index(['1', '8', '9', '12', '14', '17', '19', '20', '21', '24',
       ...
       '279', '281', '283', '287', '291', '292', '294', '295', '297', '299'],
      dtype='object', length=126)",False,1000,True,100,1.0,1.0,0720c74836
39,./expes/v3_2021-01-29_di_300-prng-1-w1-p100,daily_issda-300,300,first-300,91,30,rng,num-start-101,101,536,classic,12.00730013847351,True,,True,1.0,1.0,1.0,1,"Index(['4', '10', '41', '45', '46', '48', '52', '59', '61', '63', '65', '67',
       '68', '69', '74', '75', '76', '78', '83', '84', '87', '90', '93', '94',
       '98', '101', '102', '103', '104', '105', '106', '111', '113', '121',
       '122', '123', '128', '130', '133', '136', '139', '140', '145', '152',
       '154', '155', '156', '167', '172', '174', '176', '178', '181', '185',
       '188', '198', '202', '204', '205', '208', '209', '214', '217', '219',
       '223', '224', '230', '235', '241', '245', '246', '251', '252', '253',
       '254', '257', '260', '263', '268', '270', '273', '274', '276', '278',
       '279', '283', '291', '293', '294', '295', '297'],
      dtype='object')",False,1000,True,100,1.0,1.0,bae9e42182
40,./expes/v3_2021-01-29_di_300-prng-1-w1-p100,daily_issda-300,300,first-300,105,35,rng,num-start-41,41,536,classic,1001.4025959968568,False,,False,0.0,,,0,"Index(['12', '20', '21', '24', '25', '26', '30', '31', '32', '33',
       ...
       '289', '290', '293', '294', '295', '296', '297', '298', '299', '300'],
      dtype='object', length=105)",True,1000,True,100,0.0,0.0,2b702b0bd4
41,./expes/v3_2021-01-29_di_300-prng-1-w1-p100,daily_issda-300,300,first-300,112,37,rng,num-start-101,101,536,classic,85.20642518997192,True,,True,1.0,1.0,1.0,1,"Index(['2', '4', '5', '9', '12', '13', '14', '21', '23', '24',
       ...
       '269', '271', '278', '280', '281', '292', '293', '296', '297', '300'],
      dtype='object', length=112)",False,1000,True,100,1.0,1.0,ae630121fc
42,./expes/v3_2021-01-29_di_300-prng-1-w1-p100,daily_issda-300,300,first-300,140,46,rng,num-start-271,271,536,classic,13.067352533340454,True,,True,1.0,1.0,1.0,1,"Index(['3', '5', '6', '7', '10', '11', '14', '15', '26', '27',
       ...
       '284', '285', '286', '287', '289', '291', '293', '295', '296', '297'],
      dtype='object', length=140)",False,1000,True,100,1.0,1.0,c508d4f69d
43,./expes/v3_2021-01-29_di_300-prng-1-w1-p100,daily_issda-300,300,first-300,119,39,rng,num-start-41,41,536,classic,1001.4032621383668,False,,False,0.0,,,0,"Index(['3', '4', '5', '10', '30', '34', '40', '41', '45', '46',
       ...
       '281', '283', '285', '286', '287', '291', '293', '294', '295', '297'],
      dtype='object', length=119)",True,1000,True,100,0.0,0.0,23f1ef2723
44,./expes/v3_2021-01-29_di_300-prng-1-w1-p100,daily_issda-300,300,first-300,70,23,rng,num-start-121,121,536,classic,9.934171438217165,True,,True,1.0,1.0,1.0,1,"Index(['2', '4', '9', '12', '14', '23', '37', '38', '47', '51', '54', '56',
       '59', '62', '66', '69', '71', '76', '82', '94', '99', '103', '104',
       '107', '120', '126', '134', '135', '138', '146', '149', '154', '160',
       '167', '168', '178', '189', '193', '199', '200', '202', '203', '209',
       '211', '213', '217', '220', '226', '231', '232', '233', '234', '235',
       '239', '244', '246', '253', '257', '258', '262', '267', '271', '278',
       '280', '281', '292', '293', '296', '297', '300'],
      dtype='object')",False,1000,True,100,1.0,1.0,6ec281be73
45,./expes/v3_2021-01-29_di_300-prng-1-w1-p100,daily_issda-300,300,first-300,70,23,rng,num-start-171,171,536,classic,7.406768321990967,True,,True,1.0,1.0,1.0,1,"Index(['3', '10', '14', '26', '27', '30', '32', '33', '36', '42', '49', '57',
       '60', '64', '67', '71', '72', '73', '78', '88', '90', '99', '101',
       '108', '110', '123', '128', '129', '130', '137', '142', '143', '149',
       '156', '158', '159', '163', '164', '170', '171', '173', '179', '182',
       '185', '188', '191', '192', '197', '206', '208', '210', '213', '215',
       '222', '243', '245', '257', '260', '268', '270', '273', '277', '283',
       '284', '285', '286', '287', '293', '295', '297'],
      dtype='object')",False,1000,True,100,1.0,1.0,c83c457d7f
46,./expes/v3_2021-01-29_di_300-prng-1-w1-p100,daily_issda-300,300,first-300,77,25,rng,num-start-111,111,536,classic,9.484867095947266,True,,True,1.0,1.0,1.0,1,"Index(['6', '9', '10', '19', '25', '29', '34', '38', '41', '52', '60', '72',
       '73', '76', '78', '81', '85', '89', '92', '101', '106', '107', '115',
       '118', '119', '121', '123', '135', '140', '144', '147', '152', '157',
       '159', '160', '161', '162', '163', '173', '174', '177', '182', '183',
       '185', '189', '199', '200', '201', '203', '206', '208', '215', '216',
       '225', '227', '231', '234', '237', '239', '240', '243', '244', '251',
       '252', '253', '254', '257', '258', '262', '267', '272', '274', '279',
       '285', '290', '292', '296'],
      dtype='object')",False,1000,True,100,1.0,1.0,8ba73ab331
47,./expes/v3_2021-01-29_di_300-prng-1-w1-p100,daily_issda-300,300,first-300,105,35,rng,num-start-221,221,536,classic,9.411216497421265,True,,True,1.0,1.0,1.0,1,"Index(['1', '2', '3', '4', '5', '9', '10', '13', '14', '18',
       ...
       '276', '277', '284', '285', '287', '290', '294', '295', '297', '300'],
      dtype='object', length=105)",False,1000,True,100,1.0,1.0,26c096c03d
48,./expes/v3_2021-01-29_di_300-prng-1-w1-p100,daily_issda-300,300,first-300,126,42,rng,num-start-211,211,536,classic,9.407256364822388,True,,True,1.0,1.0,1.0,1,"Index(['1', '4', '5', '6', '10', '13', '14', '15', '16', '17',
       ...
       '270', '271', '277', '278', '280', '282', '285', '286', '294', '296'],
      dtype='object', length=126)",False,1000,True,100,1.0,1.0,9d86447566
49,./expes/v3_2021-01-29_di_300-prng-1-w1-p100,daily_issda-300,300,first-300,7,2,rng,num-start-201,201,536,classic,7.740862607955933,True,,True,1.0,1.0,1.0,1,"Index(['90', '149', '156', '188', '213', '268', '277'], dtype='object')",False,1000,True,100,1.0,1.0,03cebd212b
50,./expes/v3_2021-01-29_di_300-prng-1-w1-p100,daily_issda-300,300,first-300,56,18,rng,num-start-51,51,536,classic,1001.6883776187896,False,,False,0.0,,,0,"Index(['8', '16', '37', '38', '44', '61', '65', '67', '68', '70', '72', '76',
       '91', '92', '96', '100', '104', '110', '116', '119', '120', '121',
       '130', '132', '133', '135', '142', '144', '149', '151', '161', '178',
       '183', '187', '188', '191', '203', '220', '221', '224', '226', '228',
       '230', '231', '236', '238', '250', '252', '268', '273', '275', '282',
       '284', '289', '290', '296'],
      dtype='object')",True,1000,True,100,0.0,0.0,831308cb21
51,./expes/v3_2021-01-29_di_300-prng-1-w1-p100,daily_issda-300,300,first-300,140,46,rng,num-start-151,151,536,classic,7.0988545417785645,True,,True,1.0,1.0,1.0,1,"Index(['1', '3', '5', '6', '8', '9', '10', '11', '16', '18',
       ...
       '283', '284', '287', '289', '290', '293', '295', '296', '299', '300'],
      dtype='object', length=140)",False,1000,True,100,1.0,1.0,4be6e94c6e
52,./expes/v3_2021-01-29_di_300-prng-1-w1-p100,daily_issda-300,300,first-300,105,35,rng,num-start-21,21,536,classic,1000.7732629776,False,,False,0.0,,,0,"Index(['2', '3', '8', '16', '19', '20', '22', '23', '36', '37',
       ...
       '282', '284', '285', '287', '289', '290', '292', '296', '298', '299'],
      dtype='object', length=105)",True,1000,True,100,0.0,0.0,79596d0f4d
53,./expes/v3_2021-01-29_di_300-prng-1-w1-p100,daily_issda-300,300,first-300,63,21,rng,num-start-271,271,536,classic,11.778339147567747,True,,True,1.0,1.0,1.0,1,"Index(['13', '15', '19', '29', '44', '47', '70', '82', '83', '85', '86', '87',
       '89', '91', '94', '109', '114', '119', '121', '128', '129', '138',
       '143', '156', '158', '159', '164', '167', '180', '182', '185', '186',
       '187', '191', '195', '202', '205', '213', '217', '221', '228', '229',
       '233', '234', '237', '239', '246', '250', '251', '256', '257', '258',
       '261', '262', '264', '269', '270', '272', '279', '286', '287', '291',
       '298'],
      dtype='object')",False,1000,True,100,1.0,1.0,405c1c135e
54,./expes/v3_2021-01-29_di_300-prng-1-w1-p100,daily_issda-300,300,first-300,21,7,rng,num-start-111,111,536,classic,4.436386823654175,True,,True,1.0,1.0,1.0,1,"Index(['8', '17', '18', '23', '39', '72', '83', '106', '128', '143', '168',
       '185', '216', '220', '237', '248', '251', '252', '267', '293', '296'],
      dtype='object')",False,1000,True,100,1.0,1.0,ee25b5d864
55,./expes/v3_2021-01-29_di_300-prng-1-w1-p100,daily_issda-300,300,first-300,105,35,rng,num-start-91,91,536,classic,134.74314713478088,True,,True,1.0,1.0,1.0,1,"Index(['1', '3', '5', '11', '13', '15', '17', '19', '21', '23',
       ...
       '269', '270', '272', '279', '286', '287', '288', '291', '295', '298'],
      dtype='object', length=105)",False,1000,True,100,1.0,1.0,d3154db39d
56,./expes/v3_2021-01-29_di_300-prng-1-w1-p100,daily_issda-300,300,first-300,84,28,rng,num-start-121,121,536,classic,9.40206742286682,True,,True,1.0,1.0,1.0,1,"Index(['4', '7', '8', '11', '15', '16', '19', '22', '23', '24', '33', '34',
       '35', '40', '46', '50', '54', '56', '61', '64', '67', '69', '70', '78',
       '82', '84', '99', '109', '112', '119', '120', '121', '122', '133',
       '137', '138', '143', '144', '146', '151', '155', '159', '168', '170',
       '173', '177', '180', '188', '190', '194', '198', '199', '200', '203',
       '204', '209', '211', '213', '216', '219', '224', '228', '241', '243',
       '244', '247', '248', '254', '259', '260', '268', '274', '275', '277',
       '278', '279', '282', '283', '292', '293', '294', '296', '298', '300'],
      dtype='object')",False,1000,True,100,1.0,1.0,7ce660b837
57,./expes/v3_2021-01-29_di_300-prng-1-w1-p100,daily_issda-300,300,first-300,35,11,rng,num-start-161,161,536,classic,7.009255647659302,True,,True,1.0,1.0,1.0,1,"Index(['6', '15', '36', '38', '43', '55', '61', '63', '77', '83', '85', '105',
       '115', '127', '131', '134', '135', '139', '141', '150', '156', '162',
       '173', '184', '185', '196', '202', '204', '207', '231', '239', '265',
       '270', '283', '299'],
      dtype='object')",False,1000,True,100,1.0,1.0,1cdccad91c
58,./expes/v3_2021-01-29_di_300-prng-1-w1-p100,daily_issda-300,300,first-300,98,32,rng,num-start-261,261,536,classic,11.66268801689148,True,,True,1.0,1.0,1.0,1,"Index(['3', '4', '5', '10', '41', '45', '46', '48', '52', '59', '61', '63',
       '65', '67', '68', '69', '74', '75', '76', '78', '83', '84', '87', '90',
       '93', '94', '98', '101', '102', '103', '104', '105', '106', '111',
       '113', '121', '122', '123', '128', '130', '132', '133', '136', '139',
       '140', '145', '152', '154', '155', '156', '167', '172', '174', '176',
       '178', '181', '185', '188', '198', '202', '204', '205', '208', '209',
       '214', '217', '219', '223', '224', '230', '235', '241', '245', '246',
       '251', '252', '253', '254', '257', '260', '263', '264', '268', '270',
       '273', '274', '276', '278', '279', '281', '283', '285', '287', '291',
       '293', '294', '295', '297'],
      dtype='object')",False,1000,True,100,1.0,1.0,fc4464bd3d
59,./expes/v3_2021-01-29_di_300-prng-1-w1-p100,daily_issda-300,300,first-300,35,11,rng,num-start-91,91,536,classic,3.8919520378112793,True,,True,1.0,1.0,1.0,1,"Index(['7', '8', '16', '22', '33', '34', '67', '69', '78', '82', '99', '119',
       '120', '122', '133', '138', '155', '188', '190', '199', '200', '203',
       '204', '219', '228', '241', '243', '244', '268', '277', '279', '282',
       '283', '296', '298'],
      dtype='object')",False,1000,True,100,1.0,1.0,af88c1b086
60,./expes/v3_2021-01-29_di_300-prng-1-w1-p100,daily_issda-300,300,first-300,77,25,rng,num-start-291,291,536,classic,12.972845315933228,True,,True,1.0,1.0,1.0,1,"Index(['2', '3', '4', '5', '9', '13', '18', '21', '22', '23', '27', '28', '29',
       '33', '36', '42', '43', '44', '45', '48', '53', '57', '58', '63', '68',
       '69', '71', '72', '75', '77', '81', '83', '87', '89', '96', '99', '102',
       '103', '104', '105', '108', '115', '122', '137', '138', '139', '144',
       '150', '170', '172', '174', '175', '192', '194', '195', '197', '204',
       '207', '211', '216', '217', '218', '232', '238', '252', '255', '257',
       '258', '259', '260', '276', '277', '284', '285', '294', '295', '297'],
      dtype='object')",False,1000,True,100,1.0,1.0,7617f8a64d
61,./expes/v3_2021-01-29_di_300-prng-1-w1-p100,daily_issda-300,300,first-300,63,21,rng,num-start-111,111,536,classic,5.311748027801514,True,,True,1.0,1.0,1.0,1,"Index(['11', '16', '20', '23', '30', '33', '44', '45', '46', '50', '56', '59',
       '65', '70', '71', '73', '76', '82', '99', '100', '107', '108', '117',
       '120', '121', '127', '133', '137', '147', '161', '174', '183', '190',
       '193', '194', '195', '198', '200', '206', '207', '209', '219', '228',
       '233', '234', '236', '243', '249', '250', '251', '254', '255', '258',
       '260', '265', '267', '273', '277', '286', '294', '297', '298', '300'],
      dtype='object')",False,1000,True,100,1.0,1.0,5a5f747c8c
62,./expes/v3_2021-01-29_di_300-prng-1-w1-p100,daily_issda-300,300,first-300,63,21,rng,num-start-131,131,536,classic,5.6742024421691895,True,,True,1.0,1.0,1.0,1,"Index(['2', '3', '4', '5', '9', '13', '21', '23', '27', '29', '33', '36', '42',
       '43', '44', '45', '53', '57', '58', '63', '68', '69', '71', '72', '81',
       '87', '96', '99', '102', '103', '104', '105', '108', '115', '122',
       '137', '144', '150', '170', '172', '174', '175', '192', '194', '195',
       '197', '204', '211', '216', '217', '218', '232', '238', '252', '255',
       '257', '258', '260', '276', '277', '284', '294', '297'],
      dtype='object')",False,1000,True,100,1.0,1.0,3c6209c67a
63,./expes/v3_2021-01-29_di_300-prng-1-w1-p100,daily_issda-300,300,first-300,7,2,rng,num-start-191,191,536,classic,7.573082208633423,True,,True,1.0,1.0,1.0,1,"Index(['23', '62', '103', '178', '202', '262', '267'], dtype='object')",False,1000,True,100,1.0,1.0,e2e4b405e9
64,./expes/v3_2021-01-29_di_300-prng-1-w1-p100,daily_issda-300,300,first-300,91,30,rng,num-start-191,191,536,classic,8.969728231430054,True,,True,1.0,1.0,1.0,1,"Index(['3', '5', '10', '11', '14', '26', '27', '28', '30', '32', '33', '36',
       '39', '42', '48', '49', '57', '60', '64', '67', '71', '72', '73', '78',
       '83', '88', '90', '94', '99', '101', '102', '108', '109', '110', '123',
       '128', '129', '130', '133', '137', '140', '142', '143', '149', '156',
       '157', '158', '159', '162', '163', '164', '170', '171', '172', '173',
       '179', '182', '185', '188', '191', '192', '197', '201', '206', '207',
       '208', '210', '213', '215', '222', '240', '243', '245', '249', '257',
       '260', '268', '269', '270', '273', '275', '277', '283', '284', '285',
       '286', '287', '289', '293', '295', '297'],
      dtype='object')",False,1000,True,100,1.0,1.0,92fb9cd08f
65,./expes/v3_2021-01-29_di_300-prng-1-w1-p100,daily_issda-300,300,first-300,21,7,rng,num-start-31,31,536,classic,1001.1265687942504,False,,False,0.0,,,0,"Index(['7', '15', '27', '53', '58', '81', '94', '111', '127', '128', '131',
       '144', '184', '191', '195', '209', '239', '241', '272', '279', '294'],
      dtype='object')",True,1000,True,100,0.0,0.0,6c33b94fc2
66,./expes/v3_2021-01-29_di_300-prng-1-w1-p100,daily_issda-300,300,first-300,63,21,rng,num-start-241,241,536,classic,9.9826180934906,True,,True,1.0,1.0,1.0,1,"Index(['1', '6', '10', '16', '27', '31', '32', '39', '43', '45', '47', '58',
       '59', '70', '74', '75', '84', '88', '99', '103', '108', '115', '117',
       '121', '130', '134', '138', '141', '159', '161', '172', '173', '174',
       '180', '183', '186', '187', '189', '191', '192', '196', '197', '198',
       '206', '208', '215', '217', '226', '228', '236', '241', '243', '245',
       '248', '260', '261', '263', '271', '277', '278', '285', '286', '296'],
      dtype='object')",False,1000,True,100,1.0,1.0,31420f195a
67,./expes/v3_2021-01-29_di_300-prng-1-w1-p100,daily_issda-300,300,first-300,98,32,rng,num-start-131,131,536,classic,9.23348617553711,True,,True,1.0,1.0,1.0,1,"Index(['2', '8', '16', '19', '20', '22', '23', '36', '37', '38', '40', '44',
       '48', '58', '61', '63', '65', '67', '68', '70', '71', '72', '73', '76',
       '82', '85', '86', '91', '92', '94', '96', '99', '100', '104', '109',
       '110', '116', '119', '120', '121', '122', '129', '130', '132', '133',
       '135', '138', '142', '144', '149', '151', '152', '155', '160', '161',
       '175', '176', '178', '180', '183', '184', '187', '188', '191', '192',
       '200', '203', '209', '212', '218', '220', '221', '224', '226', '228',
       '230', '231', '236', '238', '241', '250', '252', '255', '267', '268',
       '270', '273', '275', '279', '282', '284', '285', '289', '290', '292',
       '296', '298', '299'],
      dtype='object')",False,1000,True,100,1.0,1.0,27f25a6d09
68,./expes/v3_2021-01-29_di_300-prng-1-w1-p100,daily_issda-300,300,first-300,28,9,rng,num-start-171,171,536,classic,7.018625497817993,True,,True,1.0,1.0,1.0,1,"Index(['7', '15', '27', '37', '53', '58', '65', '68', '72', '81', '82', '94',
       '111', '127', '128', '131', '144', '184', '191', '195', '200', '209',
       '228', '239', '241', '272', '279', '294'],
      dtype='object')",False,1000,True,100,1.0,1.0,2376145054
69,./expes/v3_2021-01-29_di_300-prng-1-w1-p100,daily_issda-300,300,first-300,14,4,rng,num-start-171,171,536,classic,6.645920991897583,True,,True,1.0,1.0,1.0,1,"Index(['3', '6', '114', '117', '122', '133', '146', '152', '186', '210', '214',
       '229', '241', '247'],
      dtype='object')",False,1000,True,100,1.0,1.0,c697a9c48c
70,./expes/v3_2021-01-29_di_300-prng-1-w1-p100,daily_issda-300,300,first-300,21,7,rng,num-start-291,291,536,classic,11.190463304519652,True,,True,1.0,1.0,1.0,1,"Index(['7', '34', '67', '78', '99', '119', '120', '122', '133', '190', '200',
       '204', '241', '243', '244', '268', '277', '279', '282', '283', '298'],
      dtype='object')",False,1000,True,100,1.0,1.0,8c0a77ace5
71,./expes/v3_2021-01-29_di_300-prng-1-w1-p100,daily_issda-300,300,first-300,35,11,rng,num-start-291,291,536,classic,11.499101638793944,True,,True,1.0,1.0,1.0,1,"Index(['1', '12', '19', '24', '42', '46', '48', '49', '50', '75', '99', '101',
       '102', '103', '129', '134', '136', '140', '150', '164', '172', '186',
       '192', '210', '212', '218', '228', '241', '249', '251', '276', '277',
       '284', '289', '294'],
      dtype='object')",False,1000,True,100,1.0,1.0,09cd58d28e
72,./expes/v3_2021-01-29_di_300-prng-1-w1-p100,daily_issda-300,300,first-300,35,11,rng,num-start-21,21,536,classic,1000.7749602794648,False,,False,0.0,,,0,"Index(['21', '32', '38', '49', '51', '52', '72', '76', '105', '112', '129',
       '133', '134', '145', '156', '159', '162', '170', '182', '184', '198',
       '208', '216', '223', '227', '242', '245', '249', '259', '262', '267',
       '273', '283', '287', '299'],
      dtype='object')",True,1000,True,100,0.0,0.0,3b448cd515
73,./expes/v3_2021-01-29_di_300-prng-1-w1-p100,daily_issda-300,300,first-300,14,4,rng,num-start-121,121,536,classic,4.875409364700317,True,,True,1.0,1.0,1.0,1,"Index(['14', '57', '90', '128', '130', '143', '149', '156', '188', '197',
       '213', '215', '268', '277'],
      dtype='object')",False,1000,True,100,1.0,1.0,0c01d03690
74,./expes/v3_2021-01-29_di_300-prng-1-w1-p100,daily_issda-300,300,first-300,112,37,rng,num-start-31,31,536,classic,1001.1224255561827,False,,False,0.0,,,0,"Index(['2', '5', '6', '8', '9', '10', '16', '19', '22', '23',
       ...
       '266', '267', '272', '274', '279', '281', '285', '290', '292', '296'],
      dtype='object', length=112)",True,1000,True,100,0.0,0.0,381b672931
75,./expes/v3_2021-01-29_di_300-prng-1-w1-p100,daily_issda-300,300,first-300,21,7,rng,num-start-101,101,536,classic,4.157476425170898,True,,True,1.0,1.0,1.0,1,"Index(['11', '31', '35', '47', '53', '55', '80', '89', '114', '121', '135',
       '142', '149', '156', '185', '203', '206', '246', '267', '275', '282'],
      dtype='object')",False,1000,True,100,1.0,1.0,0a3dd512fc
76,./expes/v3_2021-01-29_di_300-prng-1-w1-p100,daily_issda-300,300,first-300,77,25,rng,num-start-161,161,536,classic,7.318594694137573,True,,True,1.0,1.0,1.0,1,"Index(['2', '3', '4', '5', '9', '13', '18', '21', '22', '23', '27', '28', '29',
       '33', '36', '42', '43', '44', '45', '48', '53', '57', '58', '63', '68',
       '69', '71', '72', '75', '77', '81', '83', '87', '89', '96', '99', '102',
       '103', '104', '105', '108', '115', '122', '137', '138', '139', '144',
       '150', '170', '172', '174', '175', '192', '194', '195', '197', '204',
       '207', '211', '216', '217', '218', '232', '238', '252', '255', '257',
       '258', '259', '260', '276', '277', '284', '285', '294', '295', '297'],
      dtype='object')",False,1000,True,100,1.0,1.0,70e14e794e
77,./expes/v3_2021-01-29_di_300-prng-1-w1-p100,daily_issda-300,300,first-300,112,37,rng,num-start-61,61,536,classic,1002.166663646698,False,,False,0.0,,,0,"Index(['1', '3', '5', '11', '13', '15', '16', '17', '19', '21',
       ...
       '270', '272', '279', '283', '286', '287', '288', '291', '295', '298'],
      dtype='object', length=112)",True,1000,True,100,0.0,0.0,5ed2b8d7fd
78,./expes/v3_2021-01-29_di_300-prng-1-w1-p100,daily_issda-300,300,first-300,91,30,rng,num-start-71,71,536,classic,1002.5369777679444,False,,False,0.0,,,0,"Index(['4', '7', '8', '11', '15', '16', '17', '19', '22', '23', '24', '33',
       '34', '35', '40', '46', '50', '54', '56', '61', '64', '67', '69', '70',
       '78', '80', '82', '84', '99', '102', '109', '112', '119', '120', '121',
       '122', '133', '135', '137', '138', '143', '144', '146', '150', '151',
       '155', '159', '161', '168', '170', '173', '174', '177', '180', '188',
       '190', '194', '198', '199', '200', '203', '204', '209', '211', '213',
       '216', '219', '224', '228', '241', '243', '244', '247', '248', '254',
       '259', '260', '268', '274', '275', '277', '278', '279', '282', '283',
       '292', '293', '294', '296', '298', '300'],
      dtype='object')",True,1000,True,100,0.0,0.0,707c0e793f
79,./expes/v3_2021-01-29_di_300-prng-1-w1-p100,daily_issda-300,300,first-300,112,37,rng,num-start-251,251,536,classic,11.709471940994264,True,,True,1.0,1.0,1.0,1,"Index(['4', '5', '10', '11', '14', '22', '23', '24', '29', '31',
       ...
       '266', '267', '274', '275', '281', '282', '286', '293', '294', '299'],
      dtype='object', length=112)",False,1000,True,100,1.0,1.0,63a751452e
80,./expes/v3_2021-01-29_di_300-prng-1-w1-p100,daily_issda-300,300,first-300,70,23,rng,num-start-131,131,536,classic,8.346824645996094,True,,True,1.0,1.0,1.0,1,"Index(['4', '11', '14', '23', '24', '31', '35', '42', '45', '46', '47', '53',
       '55', '75', '80', '83', '85', '89', '92', '95', '100', '101', '104',
       '110', '114', '120', '121', '127', '128', '133', '134', '135', '140',
       '142', '144', '148', '149', '150', '154', '156', '157', '159', '160',
       '173', '176', '183', '185', '191', '199', '203', '206', '212', '217',
       '221', '224', '226', '232', '237', '242', '243', '246', '260', '261',
       '266', '267', '274', '275', '281', '282', '294'],
      dtype='object')",False,1000,True,100,1.0,1.0,76ec0488a9
81,./expes/v3_2021-01-29_di_300-prng-1-w1-p100,daily_issda-300,300,first-300,63,21,rng,num-start-271,271,536,classic,11.546844005584717,True,,True,1.0,1.0,1.0,1,"Index(['1', '7', '9', '12', '15', '19', '24', '42', '46', '48', '49', '50',
       '60', '62', '71', '75', '87', '97', '99', '100', '101', '102', '103',
       '108', '115', '126', '129', '134', '136', '138', '140', '150', '156',
       '160', '164', '171', '172', '183', '185', '186', '192', '195', '210',
       '212', '218', '221', '228', '241', '248', '249', '250', '251', '257',
       '258', '264', '268', '269', '276', '277', '284', '289', '294', '295'],
      dtype='object')",False,1000,True,100,1.0,1.0,18651feaa0
82,./expes/v3_2021-01-29_di_300-prng-1-w1-p100,daily_issda-300,300,first-300,14,4,rng,num-start-101,101,536,classic,4.005931615829468,True,,True,1.0,1.0,1.0,1,"Index(['6', '9', '19', '29', '60', '76', '81', '107', '123', '174', '183',
       '189', '239', '267'],
      dtype='object')",False,1000,True,100,1.0,1.0,c3d645356b
83,./expes/v3_2021-01-29_di_300-prng-1-w1-p100,daily_issda-300,300,first-300,112,37,rng,num-start-31,31,536,classic,1001.161190032959,False,,False,0.0,,,0,"Index(['2', '4', '5', '9', '12', '13', '14', '21', '23', '24',
       ...
       '269', '271', '278', '280', '281', '292', '293', '296', '297', '300'],
      dtype='object', length=112)",True,1000,True,100,0.0,0.0,3142eff80d
84,./expes/v3_2021-01-29_di_300-prng-1-w1-p100,daily_issda-300,300,first-300,126,42,rng,num-start-231,231,536,classic,9.969558238983154,True,,True,1.0,1.0,1.0,1,"Index(['1', '2', '3', '5', '7', '8', '9', '12', '14', '15',
       ...
       '281', '282', '283', '284', '285', '288', '292', '296', '297', '300'],
      dtype='object', length=126)",False,1000,True,100,1.0,1.0,2ae98ddba5
85,./expes/v3_2021-01-29_di_300-prng-1-w1-p100,daily_issda-300,300,first-300,28,9,rng,num-start-231,231,536,classic,8.680641889572144,True,,True,1.0,1.0,1.0,1,"Index(['2', '5', '12', '14', '15', '16', '33', '49', '53', '61', '69', '108',
       '111', '118', '131', '137', '163', '195', '196', '200', '222', '229',
       '231', '242', '250', '254', '278', '292'],
      dtype='object')",False,1000,True,100,1.0,1.0,64ffc85ce1
86,./expes/v3_2021-01-29_di_300-prng-1-w1-p100,daily_issda-300,300,first-300,84,28,rng,num-start-281,281,536,classic,11.829640865325928,True,,True,1.0,1.0,1.0,1,"Index(['2', '4', '9', '12', '14', '23', '24', '35', '37', '38', '40', '47',
       '51', '52', '54', '56', '59', '62', '66', '69', '71', '76', '82', '88',
       '94', '99', '103', '104', '107', '108', '120', '126', '134', '135',
       '138', '146', '149', '151', '154', '155', '158', '160', '167', '168',
       '178', '189', '193', '199', '200', '202', '203', '207', '209', '211',
       '213', '216', '217', '220', '225', '226', '231', '232', '233', '234',
       '235', '237', '238', '239', '244', '246', '253', '257', '258', '262',
       '267', '271', '278', '280', '281', '292', '293', '296', '297', '300'],
      dtype='object')",False,1000,True,100,1.0,1.0,f727c77475
87,./expes/v3_2021-01-29_di_300-prng-1-w1-p100,daily_issda-300,300,first-300,28,9,rng,num-start-281,281,536,classic,10.575992584228516,True,,True,1.0,1.0,1.0,1,"Index(['4', '21', '27', '33', '42', '53', '57', '68', '71', '81', '87', '96',
       '105', '115', '122', '137', '150', '172', '174', '192', '195', '197',
       '217', '232', '238', '258', '260', '284'],
      dtype='object')",False,1000,True,100,1.0,1.0,ee85ce57a9
88,./expes/v3_2021-01-29_di_300-prng-1-w1-p100,daily_issda-300,300,first-300,49,16,rng,num-start-21,21,536,classic,1000.7767949104308,False,,False,0.0,,,0,"Index(['4', '59', '61', '63', '75', '83', '87', '90', '93', '94', '101', '102',
       '103', '104', '111', '113', '121', '122', '123', '130', '136', '139',
       '140', '145', '152', '154', '156', '167', '172', '176', '178', '188',
       '208', '230', '235', '245', '246', '251', '253', '254', '257', '260',
       '268', '270', '276', '283', '291', '294', '295'],
      dtype='object')",True,1000,True,100,0.0,0.0,0ae4e94183
89,./expes/v3_2021-01-29_di_300-prng-1-w1-p100,daily_issda-300,300,first-300,105,35,rng,num-start-231,231,536,classic,9.334757328033447,True,,True,1.0,1.0,1.0,1,"Index(['1', '3', '5', '11', '13', '15', '17', '19', '21', '23',
       ...
       '269', '270', '272', '279', '286', '287', '288', '291', '295', '298'],
      dtype='object', length=105)",False,1000,True,100,1.0,1.0,eb03abaa46
90,./expes/v3_2021-01-29_di_300-prng-1-w1-p100,daily_issda-300,300,first-300,14,4,rng,num-start-81,81,536,classic,3.1401405334472656,True,,True,1.0,1.0,1.0,1,"Index(['15', '27', '58', '81', '127', '128', '131', '184', '191', '195', '239',
       '241', '272', '279'],
      dtype='object')",False,1000,True,100,1.0,1.0,6d144cbaa5
91,./expes/v3_2021-01-29_di_300-prng-1-w1-p100,daily_issda-300,300,first-300,140,46,rng,num-start-181,181,536,classic,8.446134567260742,True,,True,1.0,1.0,1.0,1,"Index(['1', '2', '3', '5', '7', '10', '12', '15', '17', '18',
       ...
       '274', '277', '279', '280', '281', '282', '287', '289', '294', '297'],
      dtype='object', length=140)",False,1000,True,100,1.0,1.0,7b4ccc2a38
92,./expes/v3_2021-01-29_di_300-prng-1-w1-p100,daily_issda-300,300,first-300,105,35,rng,num-start-151,151,536,classic,7.220077753067017,True,,True,1.0,1.0,1.0,1,"Index(['3', '4', '5', '6', '7', '8', '11', '12', '15', '16',
       ...
       '258', '262', '265', '268', '270', '277', '278', '289', '297', '299'],
      dtype='object', length=105)",False,1000,True,100,1.0,1.0,394724ba28
93,./expes/v3_2021-01-29_di_300-prng-1-w1-p100,daily_issda-300,300,first-300,28,9,rng,num-start-211,211,536,classic,7.770461320877075,True,,True,1.0,1.0,1.0,1,"Index(['1', '6', '31', '39', '45', '74', '75', '84', '103', '108', '117',
       '138', '141', '173', '174', '180', '189', '192', '196', '208', '226',
       '236', '243', '248', '263', '271', '286', '296'],
      dtype='object')",False,1000,True,100,1.0,1.0,5ec1db6585
94,./expes/v3_2021-01-29_di_300-prng-1-w1-p100,daily_issda-300,300,first-300,28,9,rng,num-start-81,81,536,classic,4.052734613418579,True,,True,1.0,1.0,1.0,1,"Index(['7', '15', '27', '37', '53', '58', '65', '68', '72', '81', '82', '94',
       '111', '127', '128', '131', '144', '184', '191', '195', '200', '209',
       '228', '239', '241', '272', '279', '294'],
      dtype='object')",False,1000,True,100,1.0,1.0,b1ca92179f
95,./expes/v3_2021-01-29_di_300-prng-1-w1-p100,daily_issda-300,300,first-300,21,7,rng,num-start-221,221,536,classic,8.09306025505066,True,,True,1.0,1.0,1.0,1,"Index(['1', '12', '19', '42', '49', '75', '99', '102', '134', '140', '164',
       '192', '212', '241', '249', '251', '276', '277', '284', '289', '294'],
      dtype='object')",False,1000,True,100,1.0,1.0,65adf27ad4
96,./expes/v3_2021-01-29_di_300-prng-1-w1-p100,daily_issda-300,300,first-300,119,39,rng,num-start-81,81,536,classic,1002.739018201828,False,,False,0.0,,,0,"Index(['1', '2', '3', '4', '5', '7', '9', '10', '13', '14',
       ...
       '276', '277', '284', '285', '287', '290', '294', '295', '297', '300'],
      dtype='object', length=119)",True,1000,True,100,0.0,0.0,b57f23feef
97,./expes/v3_2021-01-29_di_300-prng-1-w1-p100,daily_issda-300,300,first-300,98,32,rng,num-start-181,181,536,classic,9.335713863372805,True,,True,1.0,1.0,1.0,1,"Index(['1', '4', '6', '10', '14', '15', '16', '17', '19', '23', '27', '31',
       '32', '39', '40', '43', '45', '47', '53', '58', '59', '70', '74', '75',
       '84', '86', '88', '92', '94', '97', '99', '103', '105', '107', '108',
       '113', '114', '115', '117', '121', '123', '130', '134', '138', '141',
       '142', '145', '159', '161', '172', '173', '174', '177', '180', '183',
       '186', '187', '189', '191', '192', '196', '197', '198', '199', '206',
       '208', '215', '217', '219', '221', '222', '226', '228', '234', '236',
       '238', '241', '243', '244', '245', '247', '248', '256', '257', '260',
       '261', '262', '263', '264', '266', '271', '277', '278', '282', '285',
       '286', '294', '296'],
      dtype='object')",False,1000,True,100,1.0,1.0,0c4d78d981
98,./expes/v3_2021-01-29_di_300-prng-1-w1-p100,daily_issda-300,300,first-300,35,11,rng,num-start-251,251,536,classic,9.903981924057009,True,,True,1.0,1.0,1.0,1,"Index(['6', '9', '19', '29', '41', '60', '76', '81', '106', '107', '115',
       '118', '119', '123', '135', '144', '157', '161', '174', '177', '182',
       '183', '185', '189', '201', '215', '216', '234', '237', '239', '251',
       '262', '267', '290', '296'],
      dtype='object')",False,1000,True,100,1.0,1.0,547af293da
99,./expes/v3_2021-01-29_di_300-prng-1-w1-p100,daily_issda-300,300,first-300,70,23,rng,num-start-221,221,536,classic,9.53437614440918,True,,True,1.0,1.0,1.0,1,"Index(['2', '3', '4', '5', '9', '13', '21', '22', '23', '27', '28', '29', '33',
       '36', '42', '43', '44', '45', '48', '53', '57', '58', '63', '68', '69',
       '71', '72', '75', '81', '87', '89', '96', '99', '102', '103', '104',
       '105', '108', '115', '122', '137', '139', '144', '150', '170', '172',
       '174', '175', '192', '194', '195', '197', '204', '211', '216', '217',
       '218', '232', '238', '252', '255', '257', '258', '260', '276', '277',
       '284', '285', '294', '297'],
      dtype='object')",False,1000,True,100,1.0,1.0,21a584ae7d
100,./expes/v3_2021-01-29_di_300-prng-1-w1-p100,daily_issda-300,300,first-300,21,7,rng,num-start-181,181,536,classic,7.2168519496917725,True,,True,1.0,1.0,1.0,1,"Index(['16', '23', '44', '46', '65', '71', '99', '108', '117', '127', '190',
       '193', '200', '206', '207', '233', '236', '250', '254', '260', '294'],
      dtype='object')",False,1000,True,100,1.0,1.0,945f4645dd
101,./expes/v3_2021-01-29_di_300-prng-1-w1-p100,daily_issda-300,300,first-300,7,2,rng,num-start-101,101,536,classic,4.342452049255371,True,,True,1.0,1.0,1.0,1,"Index(['67', '76', '96', '116', '119', '133', '149'], dtype='object')",False,1000,True,100,1.0,1.0,e299efb3dd
102,./expes/v3_2021-01-29_di_300-prng-1-w1-p100,daily_issda-300,300,first-300,42,14,rng,num-start-11,11,536,classic,1000.5309133529664,False,,False,0.0,,,0,"Index(['20', '24', '25', '26', '30', '31', '32', '36', '38', '45', '47', '49',
       '61', '64', '69', '74', '78', '93', '110', '114', '115', '124', '149',
       '158', '166', '188', '203', '204', '215', '218', '223', '260', '275',
       '277', '283', '286', '287', '290', '293', '296', '299', '300'],
      dtype='object')",True,1000,True,100,0.0,0.0,79cc698af4
103,./expes/v3_2021-01-29_di_300-prng-1-w1-p100,daily_issda-300,300,first-300,140,46,rng,num-start-201,201,536,classic,9.276445627212524,True,,True,1.0,1.0,1.0,1,"Index(['2', '7', '9', '11', '14', '16', '17', '18', '20', '23',
       ...
       '273', '277', '280', '286', '289', '292', '294', '297', '298', '300'],
      dtype='object', length=140)",False,1000,True,100,1.0,1.0,f9a86c0147
104,./expes/v3_2021-01-29_di_300-prng-1-w1-p100,daily_issda-300,300,first-300,42,14,rng,num-start-41,41,536,classic,1001.426851272583,False,,False,0.0,,,0,"Index(['1', '6', '10', '27', '31', '32', '39', '45', '47', '58', '70', '74',
       '75', '84', '88', '103', '108', '115', '117', '138', '141', '161',
       '173', '174', '180', '189', '192', '196', '208', '217', '226', '228',
       '236', '243', '248', '261', '263', '271', '277', '285', '286', '296'],
      dtype='object')",True,1000,True,100,0.0,0.0,76b650ef59
105,./expes/v3_2021-01-29_di_300-prng-1-w1-p100,daily_issda-300,300,first-300,119,39,rng,num-start-31,31,536,classic,1001.2315125465392,False,,False,0.0,,,0,"Index(['1', '3', '5', '11', '13', '15', '16', '17', '19', '21',
       ...
       '270', '272', '279', '283', '286', '287', '288', '291', '295', '298'],
      dtype='object', length=119)",True,1000,True,100,0.0,0.0,45b44ae11d
106,./expes/v3_2021-01-29_di_300-prng-1-w1-p100,daily_issda-300,300,first-300,112,37,rng,num-start-1,1,536,classic,666.808019399643,False,,True,0.3192827867090347,0.2823300429695553,0.3560157462611798,10000,"Index(['3', '5', '10', '11', '14', '26', '27', '28', '30', '32',
       ...
       '279', '283', '284', '285', '286', '287', '289', '293', '295', '297'],
      dtype='object', length=112)",False,1000,True,100,1.0,1.0,0bf76d3119
107,./expes/v3_2021-01-29_di_300-prng-1-w1-p100,daily_issda-300,300,first-300,84,28,rng,num-start-61,61,536,classic,1002.2172079086304,False,,False,0.0,,,0,"Index(['1', '8', '17', '20', '21', '32', '33', '36', '38', '42', '46', '47',
       '48', '49', '51', '52', '56', '64', '67', '72', '73', '76', '77', '95',
       '96', '97', '98', '105', '111', '112', '114', '121', '123', '124',
       '125', '129', '133', '134', '142', '145', '148', '149', '150', '155',
       '156', '159', '162', '163', '164', '167', '170', '171', '182', '184',
       '198', '201', '205', '208', '216', '223', '227', '228', '230', '242',
       '244', '245', '249', '251', '253', '259', '261', '262', '267', '268',
       '269', '273', '277', '279', '281', '283', '287', '291', '295', '299'],
      dtype='object')",True,1000,True,100,0.0,0.0,4048a83021
108,./expes/v3_2021-01-29_di_300-prng-1-w1-p100,daily_issda-300,300,first-300,49,16,rng,num-start-91,91,536,classic,7.236741542816162,True,,True,1.0,1.0,1.0,1,"Index(['1', '8', '21', '32', '33', '38', '48', '49', '51', '52', '72', '76',
       '98', '105', '112', '114', '123', '125', '129', '133', '134', '145',
       '156', '159', '162', '167', '170', '171', '182', '184', '198', '205',
       '208', '216', '223', '227', '242', '245', '249', '253', '259', '262',
       '267', '273', '281', '283', '287', '291', '299'],
      dtype='object')",False,1000,True,100,1.0,1.0,1b9edccc1e
109,./expes/v3_2021-01-29_di_300-prng-1-w1-p100,daily_issda-300,300,first-300,105,35,rng,num-start-251,251,536,classic,11.22703218460083,True,,True,1.0,1.0,1.0,1,"Index(['1', '2', '3', '4', '5', '9', '10', '13', '14', '18',
       ...
       '276', '277', '284', '285', '287', '290', '294', '295', '297', '300'],
      dtype='object', length=105)",False,1000,True,100,1.0,1.0,b7d5a6d533
110,./expes/v3_2021-01-29_di_300-prng-1-w1-p100,daily_issda-300,300,first-300,14,4,rng,num-start-191,191,536,classic,7.15655517578125,True,,True,1.0,1.0,1.0,1,"Index(['4', '21', '42', '71', '87', '96', '137', '172', '174', '192', '195',
       '238', '258', '284'],
      dtype='object')",False,1000,True,100,1.0,1.0,6fba75e311
111,./expes/v3_2021-01-29_di_300-prng-1-w1-p100,daily_issda-300,300,first-300,140,46,rng,num-start-191,191,536,classic,8.35109829902649,True,,True,1.0,1.0,1.0,1,"Index(['1', '2', '3', '4', '5', '7', '8', '9', '10', '13',
       ...
       '277', '284', '285', '287', '288', '290', '294', '295', '297', '300'],
      dtype='object', length=140)",False,1000,True,100,1.0,1.0,cdb2192866
112,./expes/v3_2021-01-29_di_300-prng-1-w1-p100,daily_issda-300,300,first-300,91,30,rng,num-start-41,41,536,classic,1001.3545851707458,False,,False,0.0,,,0,"Index(['1', '8', '17', '20', '21', '32', '33', '36', '38', '42', '43', '46',
       '47', '48', '49', '51', '52', '56', '60', '64', '67', '72', '73', '76',
       '77', '95', '96', '97', '98', '105', '111', '112', '114', '121', '123',
       '124', '125', '129', '133', '134', '141', '142', '145', '148', '149',
       '150', '155', '156', '159', '162', '163', '164', '167', '170', '171',
       '182', '183', '184', '198', '201', '205', '208', '215', '216', '223',
       '227', '228', '230', '231', '242', '244', '245', '249', '251', '253',
       '259', '261', '262', '267', '268', '269', '273', '277', '279', '281',
       '283', '287', '291', '295', '297', '299'],
      dtype='object')",True,1000,True,100,0.0,0.0,80d7add43d
113,./expes/v3_2021-01-29_di_300-prng-1-w1-p100,daily_issda-300,300,first-300,35,11,rng,num-start-171,171,536,classic,7.070110559463501,True,,True,1.0,1.0,1.0,1,"Index(['3', '8', '17', '18', '23', '39', '69', '72', '83', '90', '106', '123',
       '128', '135', '143', '146', '156', '168', '182', '185', '186', '193',
       '196', '216', '220', '226', '234', '237', '248', '251', '252', '267',
       '293', '296', '299'],
      dtype='object')",False,1000,True,100,1.0,1.0,2357b07687
114,./expes/v3_2021-01-29_di_300-prng-1-w1-p100,daily_issda-300,300,first-300,28,9,rng,num-start-211,211,536,classic,8.570369005203247,True,,True,1.0,1.0,1.0,1,"Index(['1', '12', '19', '42', '46', '48', '49', '75', '99', '102', '134',
       '136', '140', '164', '172', '186', '192', '210', '212', '218', '241',
       '249', '251', '276', '277', '284', '289', '294'],
      dtype='object')",False,1000,True,100,1.0,1.0,249fd6b045
115,./expes/v3_2021-01-29_di_300-prng-1-w1-p100,daily_issda-300,300,first-300,98,32,rng,num-start-81,81,536,classic,1002.8366067409517,False,,False,0.0,,,0,"Index(['1', '8', '9', '17', '20', '21', '32', '33', '36', '38', '42', '43',
       '46', '47', '48', '49', '51', '52', '56', '60', '64', '67', '72', '73',
       '76', '77', '88', '95', '96', '97', '98', '105', '111', '112', '113',
       '114', '121', '123', '124', '125', '129', '133', '134', '139', '141',
       '142', '145', '148', '149', '150', '155', '156', '159', '162', '163',
       '164', '167', '170', '171', '172', '182', '183', '184', '191', '198',
       '201', '205', '208', '215', '216', '223', '227', '228', '230', '231',
       '242', '244', '245', '249', '250', '251', '253', '259', '261', '262',
       '267', '268', '269', '273', '277', '279', '281', '283', '287', '291',
       '295', '297', '299'],
      dtype='object')",True,1000,True,100,0.0,0.0,96f7027ca1
116,./expes/v3_2021-01-29_di_300-prng-1-w1-p100,daily_issda-300,300,first-300,42,14,rng,num-start-1,1,536,classic,495.7511532306671,False,,True,0.503326463739496,0.4827393998881283,0.5373480544270078,10000,"Index(['3', '8', '16', '19', '22', '31', '33', '43', '44', '47', '49', '73',
       '81', '95', '96', '98', '101', '120', '124', '131', '143', '151', '156',
       '162', '168', '203', '209', '226', '229', '232', '235', '238', '239',
       '244', '256', '261', '263', '266', '271', '276', '283', '287'],
      dtype='object')",False,1000,True,100,1.0,1.0,2fc43e63a7
117,./expes/v3_2021-01-29_di_300-prng-1-w1-p100,daily_issda-300,300,first-300,84,28,rng,num-start-41,41,536,classic,1001.659143447876,False,,False,0.0,,,0,"Index(['1', '3', '6', '8', '9', '11', '16', '19', '22', '27', '31', '33', '35',
       '36', '38', '43', '44', '45', '47', '49', '52', '56', '60', '61', '68',
       '69', '73', '81', '91', '95', '96', '97', '98', '101', '102', '108',
       '109', '110', '118', '120', '124', '127', '131', '139', '143', '148',
       '149', '151', '156', '160', '162', '168', '171', '173', '193', '197',
       '198', '203', '204', '206', '209', '210', '215', '216', '226', '229',
       '230', '232', '235', '238', '239', '241', '244', '250', '256', '261',
       '263', '266', '271', '276', '283', '287', '289', '290'],
      dtype='object')",True,1000,True,100,0.0,0.0,83993241b8
118,./expes/v3_2021-01-29_di_300-prng-1-w1-p100,daily_issda-300,300,first-300,140,46,rng,num-start-121,121,536,classic,15.833163976669312,True,,True,1.0,1.0,1.0,1,"Index(['2', '3', '8', '16', '17', '18', '19', '20', '22', '23',
       ...
       '284', '285', '287', '289', '290', '292', '296', '298', '299', '300'],
      dtype='object', length=140)",False,1000,True,100,1.0,1.0,fb273ccecc
119,./expes/v3_2021-01-29_di_300-prng-1-w1-p100,daily_issda-300,300,first-300,56,18,rng,num-start-31,31,536,classic,1001.2943093776704,False,,False,0.0,,,0,"Index(['4', '52', '59', '61', '63', '68', '75', '83', '87', '90', '93', '94',
       '98', '101', '102', '103', '104', '106', '111', '113', '121', '122',
       '123', '130', '136', '139', '140', '145', '152', '154', '156', '167',
       '172', '176', '178', '188', '208', '209', '224', '230', '235', '245',
       '246', '251', '253', '254', '257', '260', '263', '268', '270', '276',
       '283', '291', '294', '295'],
      dtype='object')",True,1000,True,100,0.0,0.0,47194417f6
120,./expes/v3_2021-01-29_di_300-prng-1-w1-p100,daily_issda-300,300,first-300,91,30,rng,num-start-1,1,536,classic,676.3571667671204,False,,True,0.3450334303259658,0.3060220816405117,0.393458182324888,10000,"Index(['4', '10', '11', '14', '22', '23', '24', '31', '32', '35', '42', '43',
       '45', '46', '47', '52', '53', '55', '63', '75', '79', '80', '83', '85',
       '89', '91', '92', '95', '100', '101', '102', '104', '110', '114', '118',
       '120', '121', '122', '127', '128', '133', '134', '135', '140', '142',
       '143', '144', '147', '148', '149', '150', '154', '156', '157', '159',
       '160', '165', '166', '168', '170', '173', '176', '183', '185', '191',
       '199', '203', '206', '211', '212', '217', '221', '224', '226', '232',
       '236', '237', '242', '243', '246', '260', '261', '266', '267', '274',
       '275', '281', '282', '286', '294', '299'],
      dtype='object')",False,1000,True,100,1.0,1.0,f5c2cb283d
121,./expes/v3_2021-01-29_di_300-prng-1-w1-p100,daily_issda-300,300,first-300,133,44,rng,num-start-71,71,536,classic,1002.5340991020204,False,,False,0.0,,,0,"Index(['1', '2', '3', '4', '5', '7', '8', '9', '10', '13',
       ...
       '277', '284', '285', '287', '288', '290', '294', '295', '297', '300'],
      dtype='object', length=133)",True,1000,True,100,0.0,0.0,002d6039a3
122,./expes/v3_2021-01-29_di_300-prng-1-w1-p100,daily_issda-300,300,first-300,49,16,rng,num-start-41,41,536,classic,1001.45130777359,False,,False,0.0,,,0,"Index(['3', '8', '16', '19', '22', '31', '33', '36', '43', '44', '47', '49',
       '56', '73', '81', '95', '96', '98', '101', '118', '120', '124', '131',
       '143', '148', '149', '151', '156', '162', '168', '203', '206', '209',
       '226', '229', '232', '235', '238', '239', '244', '256', '261', '263',
       '266', '271', '276', '283', '287', '289'],
      dtype='object')",True,1000,True,100,0.0,0.0,8b62d0b4ae
123,./expes/v3_2021-01-29_di_300-prng-1-w1-p100,daily_issda-300,300,first-300,98,32,rng,num-start-111,111,536,classic,15.001562595367432,True,,True,1.0,1.0,1.0,1,"Index(['4', '7', '8', '11', '15', '16', '17', '19', '22', '23', '24', '33',
       '34', '35', '40', '46', '50', '53', '54', '56', '61', '64', '67', '69',
       '70', '71', '78', '80', '82', '84', '99', '102', '109', '112', '119',
       '120', '121', '122', '133', '135', '137', '138', '143', '144', '146',
       '150', '151', '155', '159', '161', '168', '170', '173', '174', '177',
       '180', '185', '188', '190', '193', '194', '198', '199', '200', '203',
       '204', '209', '211', '213', '216', '219', '224', '228', '236', '241',
       '243', '244', '247', '248', '254', '259', '260', '267', '268', '274',
       '275', '277', '278', '279', '282', '283', '287', '292', '293', '294',
       '296', '298', '300'],
      dtype='object')",False,1000,True,100,1.0,1.0,c2b24a4e85
124,./expes/v3_2021-01-29_di_300-prng-1-w1-p100,daily_issda-300,300,first-300,91,30,rng,num-start-91,91,536,classic,1003.1769509315492,False,,False,0.0,,,0,"Index(['1', '6', '10', '14', '15', '16', '17', '19', '23', '27', '31', '32',
       '39', '40', '43', '45', '47', '53', '58', '59', '70', '74', '75', '84',
       '88', '92', '99', '103', '105', '107', '108', '113', '114', '115',
       '117', '121', '130', '134', '138', '141', '142', '145', '159', '161',
       '172', '173', '174', '177', '180', '183', '186', '187', '189', '191',
       '192', '196', '197', '198', '199', '206', '208', '215', '217', '219',
       '221', '222', '226', '228', '234', '236', '241', '243', '244', '245',
       '248', '256', '257', '260', '261', '262', '263', '264', '266', '271',
       '277', '278', '282', '285', '286', '294', '296'],
      dtype='object')",True,1000,True,100,0.0,0.0,5c0de8456f
125,./expes/v3_2021-01-29_di_300-prng-1-w1-p100,daily_issda-300,300,first-300,28,9,rng,num-start-1,1,536,classic,265.1654500961304,False,,True,0.5952269064155615,0.5750270518151028,0.6163892720016142,10000,"Index(['12', '23', '37', '38', '51', '56', '59', '62', '76', '103', '104',
       '134', '138', '149', '160', '167', '168', '178', '199', '202', '211',
       '234', '262', '267', '271', '278', '292', '300'],
      dtype='object')",False,1000,True,100,1.0,1.0,5120e8967f
126,./expes/v3_2021-01-29_di_300-prng-1-w1-p100,daily_issda-300,300,first-300,84,28,rng,num-start-21,21,536,classic,1000.7263844013214,False,,False,0.0,,,0,"Index(['20', '21', '24', '25', '26', '30', '31', '32', '33', '34', '36', '38',
       '40', '42', '45', '47', '48', '49', '50', '53', '61', '64', '69', '74',
       '78', '85', '93', '97', '106', '110', '114', '115', '124', '125', '128',
       '139', '148', '149', '154', '158', '159', '161', '166', '175', '176',
       '180', '186', '188', '191', '203', '204', '215', '216', '218', '219',
       '223', '230', '233', '234', '239', '243', '251', '254', '255', '260',
       '263', '269', '273', '275', '277', '281', '283', '286', '287', '289',
       '290', '293', '294', '295', '296', '297', '298', '299', '300'],
      dtype='object')",True,1000,True,100,0.0,0.0,752a0f005e
127,./expes/v3_2021-01-29_di_300-prng-1-w1-p100,daily_issda-300,300,first-300,56,18,rng,num-start-111,111,536,classic,7.308615446090698,True,,True,1.0,1.0,1.0,1,"Index(['1', '3', '8', '9', '16', '19', '22', '27', '31', '33', '35', '36',
       '43', '44', '47', '49', '56', '73', '81', '95', '96', '98', '101',
       '108', '110', '118', '120', '124', '131', '143', '148', '149', '151',
       '156', '162', '168', '198', '203', '206', '209', '226', '229', '232',
       '235', '238', '239', '244', '256', '261', '263', '266', '271', '276',
       '283', '287', '289'],
      dtype='object')",False,1000,True,100,1.0,1.0,9d84058cf1
128,./expes/v3_2021-01-29_di_300-prng-1-w1-p100,daily_issda-300,300,first-300,105,35,rng,num-start-241,241,536,classic,12.01615023612976,True,,True,1.0,1.0,1.0,1,"Index(['3', '5', '10', '11', '14', '26', '27', '28', '30', '32',
       ...
       '279', '283', '284', '285', '286', '287', '289', '293', '295', '297'],
      dtype='object', length=105)",False,1000,True,100,1.0,1.0,afae68617d
129,./expes/v3_2021-01-29_di_300-prng-1-w1-p100,daily_issda-300,300,first-300,42,14,rng,num-start-171,171,536,classic,6.921138525009155,True,,True,1.0,1.0,1.0,1,"Index(['3', '8', '16', '19', '22', '31', '33', '43', '44', '47', '49', '73',
       '81', '95', '96', '98', '101', '120', '124', '131', '143', '151', '156',
       '162', '168', '203', '209', '226', '229', '232', '235', '238', '239',
       '244', '256', '261', '263', '266', '271', '276', '283', '287'],
      dtype='object')",False,1000,True,100,1.0,1.0,4cb00bdfea
130,./expes/v3_2021-01-29_di_300-prng-1-w1-p100,daily_issda-300,300,first-300,42,14,rng,num-start-141,141,536,classic,5.836996793746948,True,,True,1.0,1.0,1.0,1,"Index(['1', '3', '7', '12', '15', '27', '37', '53', '58', '65', '68', '72',
       '81', '82', '85', '86', '94', '101', '102', '105', '108', '111', '127',
       '128', '131', '144', '149', '153', '161', '184', '191', '195', '197',
       '200', '209', '228', '239', '241', '272', '277', '279', '294'],
      dtype='object')",False,1000,True,100,1.0,1.0,5a2e602e71
131,./expes/v3_2021-01-29_di_300-prng-1-w1-p100,daily_issda-300,300,first-300,140,46,rng,num-start-1,1,536,classic,864.511846780777,False,,True,0.2884098963296456,0.2371502118168323,0.3508430988780543,10000,"Index(['1', '7', '8', '9', '12', '14', '17', '19', '20', '21',
       ...
       '281', '283', '287', '288', '291', '292', '294', '295', '297', '299'],
      dtype='object', length=140)",False,1000,True,100,1.0,1.0,6d85c2a2f7
132,./expes/v3_2021-01-29_di_300-prng-1-w1-p100,daily_issda-300,300,first-300,140,46,rng,num-start-181,181,536,classic,8.112507581710815,True,,True,1.0,1.0,1.0,1,"Index(['1', '2', '3', '5', '7', '8', '9', '12', '13', '14',
       ...
       '281', '282', '283', '284', '285', '288', '292', '296', '297', '300'],
      dtype='object', length=140)",False,1000,True,100,1.0,1.0,865510827a
133,./expes/v3_2021-01-29_di_300-prng-1-w1-p100,daily_issda-300,300,first-300,42,14,rng,num-start-91,91,536,classic,5.017407417297363,True,,True,1.0,1.0,1.0,1,"Index(['2', '5', '12', '14', '15', '16', '33', '49', '52', '53', '61', '69',
       '108', '111', '113', '114', '118', '119', '120', '131', '137', '149',
       '163', '177', '195', '196', '200', '214', '217', '222', '225', '229',
       '231', '236', '242', '250', '254', '271', '278', '284', '285', '292'],
      dtype='object')",False,1000,True,100,1.0,1.0,29d79e9de5
134,./expes/v3_2021-01-29_di_300-prng-1-w1-p100,daily_issda-300,300,first-300,70,23,rng,num-start-201,201,536,classic,9.125098943710327,True,,True,1.0,1.0,1.0,1,"Index(['1', '6', '10', '15', '16', '17', '27', '31', '32', '39', '43', '45',
       '47', '58', '59', '70', '74', '75', '84', '88', '92', '99', '103',
       '108', '115', '117', '121', '130', '134', '138', '141', '159', '161',
       '172', '173', '174', '180', '183', '186', '187', '189', '191', '192',
       '196', '197', '198', '206', '208', '215', '217', '221', '226', '228',
       '236', '241', '243', '245', '248', '257', '260', '261', '262', '263',
       '271', '277', '278', '285', '286', '294', '296'],
      dtype='object')",False,1000,True,100,1.0,1.0,c422825a0e
135,./expes/v3_2021-01-29_di_300-prng-1-w1-p100,daily_issda-300,300,first-300,63,21,rng,num-start-141,141,536,classic,6.202386379241943,True,,True,1.0,1.0,1.0,1,"Index(['3', '10', '14', '26', '27', '30', '32', '33', '36', '42', '57', '60',
       '64', '67', '71', '72', '73', '78', '90', '99', '101', '108', '110',
       '123', '128', '129', '130', '137', '142', '143', '149', '156', '159',
       '163', '170', '173', '182', '185', '188', '191', '192', '197', '206',
       '208', '210', '213', '215', '222', '243', '245', '257', '260', '268',
       '270', '273', '277', '283', '284', '285', '286', '287', '293', '297'],
      dtype='object')",False,1000,True,100,1.0,1.0,0d52cb9b2e
136,./expes/v3_2021-01-29_di_300-prng-1-w1-p100,daily_issda-300,300,first-300,21,7,rng,num-start-141,141,536,classic,5.565517902374268,True,,True,1.0,1.0,1.0,1,"Index(['3', '6', '12', '73', '113', '114', '117', '122', '130', '133', '146',
       '152', '155', '159', '172', '186', '210', '214', '229', '241', '247'],
      dtype='object')",False,1000,True,100,1.0,1.0,10ef3417c3
137,./expes/v3_2021-01-29_di_300-prng-1-w1-p100,daily_issda-300,300,first-300,133,44,rng,num-start-61,61,536,classic,1002.0128753185272,False,,False,0.0,,,0,"Index(['3', '4', '5', '6', '10', '24', '30', '34', '40', '41',
       ...
       '283', '285', '286', '287', '290', '291', '293', '294', '295', '297'],
      dtype='object', length=133)",True,1000,True,100,0.0,0.0,744d3f1f04
138,./expes/v3_2021-01-29_di_300-prng-1-w1-p100,daily_issda-300,300,first-300,98,32,rng,num-start-91,91,536,classic,1003.1509289741516,False,,False,0.0,,,0,"Index(['2', '3', '5', '7', '12', '14', '15', '16', '18', '23', '29', '33',
       '45', '49', '52', '53', '56', '61', '62', '67', '69', '84', '87', '88',
       '89', '96', '98', '103', '106', '108', '111', '113', '114', '117',
       '118', '119', '120', '125', '131', '137', '138', '146', '149', '152',
       '156', '158', '163', '171', '177', '181', '187', '188', '190', '192',
       '195', '196', '197', '200', '202', '207', '208', '212', '213', '214',
       '217', '219', '222', '225', '229', '231', '236', '241', '242', '246',
       '247', '250', '251', '254', '256', '257', '258', '259', '260', '261',
       '263', '264', '266', '267', '271', '277', '278', '281', '284', '285',
       '288', '292', '296', '297'],
      dtype='object')",True,1000,True,100,0.0,0.0,aa876180d7
