expe,clients,clients_size,clients_subset,agg_size,agg_size_pc,method,days,days_size,days_total,noise_method,time,valid,valid_sum,success,score_avg,score_min,score_max,nsols,oracle,wall_hit,wall_time,pooled,pool_size,uuid,infeasible,optimal,valid_sums
./expes/v2_2021-04-05_issda-30_1000-prng-1-w86-p2_3d,30_issda-1000,1000,first-1000,50,5,rng,num-start-700,700,25726,classic,114.6553385257721,True,,True,1.0,1.0,1.0,1,"['29', '37', '58', '87', '94', '163', '174', '218', '258', '275', '316', '327', '370', '373', '381', '390', '403', '434', '442', '456', '477', '515', '522', '539', '558', '596', '621', '622', '654', '686', '698', '741', '754', '823', '829', '856', '870', '875', '881', '884', '892', '906', '914', '923', '930', '955', '959', '971', '973', '979']",False,86400,True,2,632daa7ca0,0.0,1.0,1.0
./expes/v2_2021-04-05_issda-30_1000-prng-1-w86-p2_3d,30_issda-1000,1000,first-1000,500,50,rng,num-start-300,300,25726,classic,86429.18421983719,False,,False,0,,,0,"['2', '4', '5', '6', '9', '12', '17', '18', '19', '20', '21', '22', '25', '26', '29', '31', '32', '33', '35', '37', '38', '39', '42', '45', '47', '51', '53', '55', '58', '59', '61', '62', '68', '69', '70', '73', '75', '76', '78', '79', '82', '83', '84', '85', '87', '89', '90', '94', '96', '97', '99', '103', '104', '105', '108', '109', '114', '115', '116', '118', '119', '122', '125', '126', '131', '132', '135', '139', '140', '142', '144', '145', '148', '149', '151', '155', '156', '158', '160', '161', '162', '163', '165', '166', '169', '171', '174', '175', '177', '178', '181', '182', '185', '186', '187', '189', '193', '196', '197', '204', '205', '210', '213', '214', '216', '218', '221', '222', '223', '225', '228', '231', '233', '234', '237', '238', '239', '241', '242', '247', '251', '253', '254', '255', '256', '257', '258', '260', '261', '262', '263', '264', '266', '269', '271', '273', '274', '275', '276', '280', '281', '286', '292', '293', '294', '297', '298', '304', '311', '314', '316', '317', '318', '320', '321', '324', '327', '333', '336', '337', '338', '339', '343', '346', '350', '353', '354', '356', '359', '360', '363', '365', '367', '368', '369', '370', '371', '372', '373', '375', '376', '381', '382', '383', '384', '390', '392', '393', '394', '395', '396', '400', '401', '402', '403', '405', '410', '412', '413', '414', '415', '417', '419', '421', '423', '425', '427', '429', '430', '434', '436', '438', '442', '445', '450', '452', '456', '457', '459', '460', '463', '465', '466', '468', '469', '471', '472', '473', '475', '476', '477', '478', '479', '482', '484', '485', '490', '492', '494', '495', '496', '497', '498', '499', '501', '502', '503', '504', '510', '511', '513', '515', '517', '520', '521', '522', '523', '524', '525', '526', '527', '528', '529', '531', '532', '534', '535', '536', '537', '538', '539', '544', '546', '549', '554', '558', '559', '561', '562', '565', '571', '572', '574', '576', '580', '582', '583', '586', '588', '589', '590', '595', '596', '599', '600', '601', '603', '604', '606', '608', '610', '611', '620', '621', '622', '626', '627', '628', '629', '631', '632', '634', '637', '639', '640', '641', '643', '651', '653', '654', '657', '658', '664', '666', '668', '669', '671', '675', '677', '678', '680', '683', '686', '687', '689', '691', '692', '695', '696', '697', '698', '699', '701', '702', '704', '707', '709', '710', '713', '716', '717', '721', '723', '724', '726', '727', '728', '729', '730', '731', '732', '733', '734', '735', '737', '741', '742', '744', '746', '747', '749', '753', '754', '755', '757', '758', '761', '763', '764', '766', '769', '772', '773', '774', '778', '779', '780', '782', '783', '785', '786', '792', '794', '796', '800', '802', '804', '807', '808', '809', '811', '814', '816', '818', '819', '820', '821', '822', '823', '824', '826', '829', '830', '832', '833', '835', '836', '838', '840', '841', '845', '846', '852', '854', '856', '857', '858', '859', '861', '870', '871', '873', '875', '880', '881', '884', '885', '887', '892', '896', '897', '898', '899', '902', '903', '904', '905', '906', '907', '909', '911', '914', '916', '917', '920', '922', '923', '924', '925', '928', '929', '930', '931', '934', '937', '938', '939', '941', '943', '944', '945', '948', '952', '955', '957', '958', '959', '960', '961', '962', '964', '966', '967', '971', '973', '978', '979', '981', '982', '983', '984', '985', '986', '987', '990', '993', '994', '995', '996', '998']",True,86400,True,2,c2da7b0ad6,0.0,0.0,0.0
