expe,clients,clients_size,clients_subset,agg_size,agg_size_pc,method,days,days_size,days_total,noise_method,time,valid,valid_sum,success,score_avg,score_min,score_max,nsols,oracle,wall_hit,wall_time,pooled,pool_size,uuid,infeasible,optimal,valid_sums
./expes/v2_2021-04-05_issda-30_1000-prng-1-w86-p2_3d,30_issda-1000,1000,first-1000,50,5,rng,num-start-600,600,25726,classic,95.84702038764954,True,,True,1.0,1.0,1.0,1,"['42', '76', '98', '102', '104', '143', '144', '151', '224', '257', '266', '289', '311', '318', '339', '363', '367', '395', '415', '431', '484', '489', '498', '517', '524', '546', '574', '598', '617', '634', '701', '723', '748', '774', '777', '803', '819', '830', '850', '865', '871', '912', '914', '921', '924', '930', '932', '941', '989', '992']",False,86400,True,2,cf8217cc73,0.0,1.0,1.0
./expes/v2_2021-04-05_issda-30_1000-prng-1-w86-p2_3d,30_issda-1000,1000,first-1000,200,20,rng,num-start-600,600,25726,classic,909.3693146705627,True,,True,1.0,1.0,1.0,1,"['2', '9', '22', '25', '26', '29', '33', '37', '42', '45', '51', '58', '59', '61', '62', '70', '78', '85', '87', '94', '109', '118', '131', '140', '161', '163', '166', '169', '171', '174', '177', '178', '181', '182', '187', '189', '196', '213', '216', '218', '228', '233', '237', '242', '251', '254', '256', '258', '262', '273', '275', '280', '286', '311', '316', '317', '320', '327', '333', '350', '360', '363', '369', '370', '371', '372', '373', '376', '381', '383', '390', '395', '403', '410', '417', '425', '434', '442', '456', '457', '466', '468', '473', '477', '492', '499', '501', '502', '511', '513', '515', '517', '520', '522', '523', '525', '527', '528', '531', '535', '536', '538', '539', '544', '558', '571', '574', '576', '582', '589', '596', '603', '604', '606', '608', '621', '622', '631', '632', '639', '654', '668', '669', '671', '675', '678', '686', '689', '691', '698', '699', '701', '709', '717', '724', '733', '735', '741', '742', '744', '747', '749', '753', '754', '757', '763', '773', '778', '782', '792', '804', '809', '814', '816', '819', '823', '829', '833', '835', '841', '845', '852', '856', '870', '875', '880', '881', '884', '892', '897', '898', '902', '904', '905', '906', '914', '916', '920', '922', '923', '925', '929', '930', '931', '934', '938', '941', '943', '948', '955', '957', '959', '964', '967', '971', '973', '978', '979', '981', '985']",False,86400,True,2,5420ec324b,0.0,1.0,1.0
./expes/v2_2021-04-05_issda-30_1000-prng-1-w86-p2_3d,30_issda-1000,1000,first-1000,300,30,rng,num-start-500,500,25726,classic,251.0208342075348,True,,True,1.0,1.0,1.0,1,"['2', '13', '14', '15', '17', '23', '24', '28', '34', '38', '40', '41', '42', '47', '60', '63', '64', '65', '71', '72', '74', '76', '81', '83', '85', '92', '94', '96', '98', '102', '104', '112', '119', '120', '121', '123', '127', '128', '134', '136', '139', '143', '144', '146', '150', '151', '154', '158', '163', '166', '174', '175', '180', '185', '189', '190', '192', '194', '195', '196', '200', '205', '209', '210', '216', '221', '224', '225', '226', '227', '228', '242', '245', '246', '248', '249', '250', '257', '266', '267', '278', '282', '283', '288', '289', '295', '298', '299', '309', '311', '318', '319', '324', '325', '328', '333', '334', '339', '341', '342', '344', '351', '359', '361', '363', '366', '367', '368', '380', '381', '395', '398', '401', '409', '415', '420', '425', '430', '431', '436', '437', '445', '447', '453', '454', '456', '459', '462', '469', '479', '482', '483', '484', '488', '489', '491', '494', '498', '499', '502', '505', '506', '516', '517', '521', '524', '534', '535', '538', '543', '546', '548', '554', '557', '558', '561', '562', '565', '566', '574', '575', '582', '583', '584', '588', '590', '594', '598', '602', '604', '605', '609', '611', '612', '617', '618', '621', '625', '626', '627', '628', '634', '636', '641', '646', '649', '650', '651', '656', '657', '663', '665', '667', '673', '674', '677', '682', '685', '689', '690', '693', '696', '697', '698', '700', '701', '708', '715', '717', '718', '721', '723', '724', '728', '733', '736', '737', '745', '748', '750', '757', '760', '767', '774', '776', '777', '781', '786', '802', '803', '804', '808', '813', '814', '818', '819', '820', '823', '825', '830', '832', '835', '836', '837', '842', '845', '846', '848', '849', '850', '851', '854', '856', '858', '859', '861', '863', '865', '866', '870', '871', '875', '876', '887', '889', '892', '896', '897', '898', '912', '914', '917', '920', '921', '922', '924', '927', '930', '932', '935', '938', '939', '940', '941', '944', '945', '946', '956', '959', '960', '970', '973', '977', '985', '987', '989', '990', '991', '992', '994']",False,86400,True,2,e74ff72133,0.0,1.0,1.0
./expes/v2_2021-04-05_issda-30_1000-prng-1-w86-p2_3d,30_issda-1000,1000,first-1000,300,30,rng,num-start-200,200,25726,classic,86408.44682955742,False,,False,0,,,0,"['2', '13', '14', '15', '17', '23', '24', '28', '34', '38', '40', '41', '42', '47', '60', '63', '64', '65', '71', '72', '74', '76', '81', '83', '85', '92', '94', '96', '98', '102', '104', '112', '119', '120', '121', '123', '127', '128', '134', '136', '139', '143', '144', '146', '150', '151', '154', '158', '163', '166', '174', '175', '180', '185', '189', '190', '192', '194', '195', '196', '200', '205', '209', '210', '216', '221', '224', '225', '226', '227', '228', '242', '245', '246', '248', '249', '250', '257', '266', '267', '278', '282', '283', '288', '289', '295', '298', '299', '309', '311', '318', '319', '324', '325', '328', '333', '334', '339', '341', '342', '344', '351', '359', '361', '363', '366', '367', '368', '380', '381', '395', '398', '401', '409', '415', '420', '425', '430', '431', '436', '437', '445', '447', '453', '454', '456', '459', '462', '469', '479', '482', '483', '484', '488', '489', '491', '494', '498', '499', '502', '505', '506', '516', '517', '521', '524', '534', '535', '538', '543', '546', '548', '554', '557', '558', '561', '562', '565', '566', '574', '575', '582', '583', '584', '588', '590', '594', '598', '602', '604', '605', '609', '611', '612', '617', '618', '621', '625', '626', '627', '628', '634', '636', '641', '646', '649', '650', '651', '656', '657', '663', '665', '667', '673', '674', '677', '682', '685', '689', '690', '693', '696', '697', '698', '700', '701', '708', '715', '717', '718', '721', '723', '724', '728', '733', '736', '737', '745', '748', '750', '757', '760', '767', '774', '776', '777', '781', '786', '802', '803', '804', '808', '813', '814', '818', '819', '820', '823', '825', '830', '832', '835', '836', '837', '842', '845', '846', '848', '849', '850', '851', '854', '856', '858', '859', '861', '863', '865', '866', '870', '871', '875', '876', '887', '889', '892', '896', '897', '898', '912', '914', '917', '920', '921', '922', '924', '927', '930', '932', '935', '938', '939', '940', '941', '944', '945', '946', '956', '959', '960', '970', '973', '977', '985', '987', '989', '990', '991', '992', '994']",True,86400,True,2,1598ac1b5d,0.0,0.0,0.0
